[BeGaze]
Converted from:	C:\Documents and Settings\iViewX\Desktop\EXPERIMENTATIONS\Experiments\results\finaleart\S1022551-finaleart-1.idf
Date:	27.03.2019 15:38:17
Version:	BeGaze 2.5.77
Sample Rate:	50
Subject:	S1022551
Description:	Alexis Nebout

Table Header for Fixations:
Event Type	Trial	Number	Start	End	Duration	Location X	Location Y	Dispersion X	Dispersion Y	Plane	Avg. Pupil Size X	Avg. Pupil Size Y

Table Header for Saccades:
Event Type	Trial	Number	Start	End	Duration	Start Loc.X	Start Loc.Y	End Loc.X	End Loc.Y	Amplitude	Peak Speed	Peak Speed At	Average Speed	Peak Accel.	Peak Decel.	Average Accel.

Table Header for Blinks:
Event Type	Trial	Number	Start	End	Duration

Table Header for User Events:
Event Type	Trial	Number	Start	Description

UserEvent	1	1	8750173566	# Message: plate-of-peaches-Fantin-Latour-1862.jpg
Fixation L	1	1	8750183303	8750501779	318476	980.53	459.48	6	19	-1	11.19	11.19
Fixation R	1	1	8750183303	8750501779	318476	980.53	459.48	6	19	-1	9.97	9.97
Saccade L	1	1	8750501779	8750559384	57605	977.65	468.63	887.17	465.91	1.57	91.57	1.00	27.30	2245.03	-1980.59	1500.30
Saccade R	1	1	8750501779	8750559384	57605	977.65	468.63	887.17	465.91	1.57	91.57	1.00	27.30	2245.03	-1980.59	1500.30
Fixation L	1	2	8750559384	8750959005	399621	883.63	460.43	76	19	-1	12.03	12.03
Fixation R	1	2	8750559384	8750959005	399621	883.63	460.43	76	19	-1	10.30	10.30
Saccade L	1	2	8750959005	8750998768	39763	951.41	447.81	958.19	447.09	1.00	79.03	0.00	25.08	105.36	-1682.70	623.24
Saccade R	1	2	8750959005	8750998768	39763	951.41	447.81	958.19	447.09	1.00	79.03	0.00	25.08	105.36	-1682.70	623.24
Fixation L	1	3	8750998768	8751157876	159108	960.56	428.28	15	31	-1	12.40	12.40
Fixation R	1	3	8750998768	8751157876	159108	960.56	428.28	15	31	-1	10.66	10.66
Saccade L	1	3	8751157876	8751177744	19868	950.99	415.93	837.84	402.37	0.72	115.26	1.00	36.15	2783.24	-2573.38	1835.20
Saccade R	1	3	8751157876	8751177744	19868	950.99	415.93	837.84	402.37	0.72	115.26	1.00	36.15	2783.24	-2573.38	1835.20
Fixation L	1	4	8751177744	8751376618	198874	807.82	385.72	38	24	-1	12.55	12.55
Fixation R	1	4	8751177744	8751376618	198874	807.82	385.72	38	24	-1	10.81	10.81
Saccade L	1	4	8751376618	8751416489	39871	799.41	377.68	663.45	456.34	1.37	122.85	1.00	34.37	3042.91	-2948.21	1968.70
Saccade R	1	4	8751376618	8751416489	39871	799.41	377.68	663.45	456.34	1.37	122.85	1.00	34.37	3042.91	-2948.21	1968.70
Fixation L	1	5	8751416489	8751933580	517091	656.50	453.22	12	16	-1	12.35	12.35
Fixation R	1	5	8751416489	8751933580	517091	656.50	453.22	12	16	-1	10.66	10.66
Saccade L	1	5	8751933580	8751953463	19883	659.04	447.78	859.42	338.05	1.44	230.98	1.00	72.48	5721.38	-5473.78	4124.60
Saccade R	1	5	8751933580	8751953463	19883	659.04	447.78	859.42	338.05	1.44	230.98	1.00	72.48	5721.38	-5473.78	4124.60
Fixation L	1	6	8751953463	8752331433	377970	896.38	306.47	47	43	-1	12.48	12.48
Fixation R	1	6	8751953463	8752331433	377970	896.38	306.47	47	43	-1	10.89	10.89
Saccade L	1	6	8752331433	8752351317	19884	902.28	312.00	1187.68	312.64	1.54	288.47	1.00	77.61	7168.33	-7172.24	4808.95
Saccade R	1	6	8752331433	8752351317	19884	902.28	312.00	1187.68	312.64	1.54	288.47	1.00	77.61	7168.33	-7172.24	4808.95
Fixation L	1	7	8752351317	8753206550	855233	1214.63	317.60	40	46	-1	12.59	12.59
Fixation R	1	7	8752351317	8753206550	855233	1214.63	317.60	40	46	-1	10.53	10.53
Saccade L	1	7	8753206550	8753226397	19847	1227.78	333.90	1092.79	327.77	0.72	136.68	1.00	36.37	3369.60	-3290.16	2249.98
Saccade R	1	7	8753206550	8753226397	19847	1227.78	333.90	1092.79	327.77	0.72	136.68	1.00	36.37	3369.60	-3290.16	2249.98
Fixation L	1	8	8753226397	8753365649	139252	1094.26	313.51	4	24	-1	12.39	12.39
Fixation R	1	8	8753226397	8753365649	139252	1094.26	313.51	4	24	-1	10.37	10.37
Saccade L	1	8	8753365649	8753425394	59745	1096.13	304.07	1524.75	488.12	4.94	219.61	0.66	82.69	5474.04	-5362.74	4065.14
Saccade R	1	8	8753365649	8753425394	59745	1096.13	304.07	1524.75	488.12	4.94	219.61	0.66	82.69	5474.04	-5362.74	4065.14
Fixation L	1	9	8753425394	8753803257	377863	1520.70	514.21	17	50	-1	12.22	12.22
Fixation R	1	9	8753425394	8753803257	377863	1520.70	514.21	17	50	-1	10.10	10.10
Saccade L	1	9	8753803257	8753823114	19857	1533.84	538.50	1568.23	542.44	0.39	35.02	1.00	19.57	854.74	-750.25	602.42
Saccade R	1	9	8753803257	8753823114	19857	1533.84	538.50	1568.23	542.44	0.39	35.02	1.00	19.57	854.74	-750.25	602.42
Fixation L	1	10	8753823114	8754201107	377993	1592.35	567.06	35	30	-1	11.75	11.75
Fixation R	1	10	8753823114	8754201107	377993	1592.35	567.06	35	30	-1	9.79	9.79
