[BeGaze]
Converted from:	C:\Documents and Settings\iViewX\Desktop\EXPERIMENTATIONS\Experiments\results\finaleart\S1022551-finaleart-1.idf
Date:	27.03.2019 15:38:07
Version:	BeGaze 2.5.77
Sample Rate:	50
Subject:	S1022551
Description:	Alexis Nebout

Table Header for Fixations:
Event Type	Trial	Number	Start	End	Duration	Location X	Location Y	Dispersion X	Dispersion Y	Plane	Avg. Pupil Size X	Avg. Pupil Size Y

Table Header for Saccades:
Event Type	Trial	Number	Start	End	Duration	Start Loc.X	Start Loc.Y	End Loc.X	End Loc.Y	Amplitude	Peak Speed	Peak Speed At	Average Speed	Peak Accel.	Peak Decel.	Average Accel.

Table Header for Blinks:
Event Type	Trial	Number	Start	End	Duration

Table Header for User Events:
Event Type	Trial	Number	Start	Description

UserEvent	1	1	8485675661	# Message: lair_of_the_sea_serpent_vedder_1899.jpg
Saccade L	1	1	8485691823	8485771458	79635	860.79	336.48	839.53	382.64	20.28	716.21	0.75	254.61	16560.28	-17851.32	11593.27
Saccade R	1	1	8485691823	8485771458	79635	860.79	336.48	839.53	382.64	20.28	716.21	0.75	254.61	16560.28	-17851.32	11593.27
Fixation L	1	1	8485771458	8486288551	517093	829.09	405.29	29	40	-1	14.01	14.01
Fixation R	1	1	8485771458	8486288551	517093	829.09	405.29	29	40	-1	12.73	12.73
Saccade L	1	2	8486288551	8486308429	19878	812.89	417.64	892.50	420.48	0.50	80.59	1.00	25.18	1953.34	-1980.69	1394.46
Saccade R	1	2	8486288551	8486308429	19878	812.89	417.64	892.50	420.48	0.50	80.59	1.00	25.18	1953.34	-1980.69	1394.46
Fixation L	1	2	8486308429	8486447661	139232	903.71	430.59	16	17	-1	13.36	13.36
Fixation R	1	2	8486308429	8486447661	139232	903.71	430.59	16	17	-1	12.15	12.15
Saccade L	1	3	8486447661	8486600131	152470	909.34	438.20	934.45	552.07	5.42	117.95	1.00	35.53	2910.18	-2562.42	1922.61
Saccade R	1	3	8486447661	8486600131	152470	909.34	438.20	934.45	552.07	5.42	117.95	1.00	35.53	2910.18	-2562.42	1922.61
Fixation L	1	3	8486600131	8486944876	344745	964.97	524.10	56	33	-1	11.31	11.31
Fixation R	1	3	8486600131	8486944876	344745	964.97	524.10	56	33	-1	10.47	10.47
Saccade L	1	4	8486944876	8486964761	19885	990.82	525.88	807.53	525.70	0.97	185.36	1.00	48.78	4612.17	-4492.78	3049.92
Saccade R	1	4	8486944876	8486964761	19885	990.82	525.88	807.53	525.70	0.97	185.36	1.00	48.78	4612.17	-4492.78	3049.92
Fixation L	1	4	8486964761	8487342738	377977	790.72	518.85	22	12	-1	10.33	10.33
Fixation R	1	4	8486964761	8487342738	377977	790.72	518.85	22	12	-1	9.70	9.70
Saccade L	1	5	8487342738	8487382488	39750	796.82	518.47	1483.33	608.66	5.88	406.05	0.50	147.82	10114.86	-9519.96	8503.13
Saccade R	1	5	8487342738	8487382488	39750	796.82	518.47	1483.33	608.66	5.88	406.05	0.50	147.82	10114.86	-9519.96	8503.13
Fixation L	1	5	8487382488	8487859846	477358	1481.43	645.80	25	43	-1	10.50	10.50
Fixation R	1	5	8487382488	8487859846	477358	1481.43	645.80	25	43	-1	9.89	9.89
Saccade L	1	6	8487859846	8487899591	39745	1473.20	649.56	971.02	553.41	4.49	384.30	1.00	112.93	9564.94	-9388.37	6121.04
Saccade R	1	6	8487859846	8487899591	39745	1473.20	649.56	971.02	553.41	4.49	384.30	1.00	112.93	9564.94	-9388.37	6121.04
Fixation L	1	6	8487899591	8488158205	258614	924.55	539.85	53	18	-1	10.70	10.70
Fixation R	1	6	8487899591	8488158205	258614	924.55	539.85	53	18	-1	10.19	10.19
Saccade L	1	7	8488158205	8488178073	19868	917.39	543.34	821.76	537.51	0.60	96.91	1.00	30.02	2330.02	-2173.74	1603.34
Saccade R	1	7	8488158205	8488178073	19868	917.39	543.34	821.76	537.51	0.60	96.91	1.00	30.02	2330.02	-2173.74	1603.34
Fixation L	1	7	8488178073	8488476429	298356	814.18	530.95	32	15	-1	10.96	10.96
Fixation R	1	7	8488178073	8488476429	298356	814.18	530.95	32	15	-1	10.40	10.40
Saccade L	1	8	8488476429	8488516182	39753	808.81	526.46	1363.24	572.18	4.73	315.12	1.00	118.99	7825.86	-7518.73	6737.96
Saccade R	1	8	8488476429	8488516182	39753	808.81	526.46	1363.24	572.18	4.73	315.12	1.00	118.99	7825.86	-7518.73	6737.96
Fixation L	1	8	8488516182	8488814551	298369	1378.96	620.93	23	69	-1	11.71	11.71
Fixation R	1	8	8488516182	8488814551	298369	1378.96	620.93	23	69	-1	10.95	10.95
Saccade L	1	9	8488814551	8488834420	19869	1378.62	641.51	1375.74	648.87	0.09	7.99	1.00	4.69	108.64	-81.65	64.22
Saccade R	1	9	8488814551	8488834420	19869	1378.62	641.51	1375.74	648.87	0.09	7.99	1.00	4.69	108.64	-81.65	64.22
Fixation L	1	9	8488834420	8488933923	99503	1376.63	649.87	4	7	-1	11.99	11.99
Fixation R	1	9	8488834420	8488933923	99503	1376.63	649.87	4	7	-1	11.00	11.00
Saccade L	1	10	8488933923	8488953779	19856	1378.96	651.15	1532.57	652.66	1.07	155.37	1.00	53.74	3827.85	-3641.68	2945.88
Saccade R	1	10	8488933923	8488953779	19856	1378.96	651.15	1532.57	652.66	1.07	155.37	1.00	53.74	3827.85	-3641.68	2945.88
Fixation L	1	10	8488953779	8489291905	338126	1576.84	658.01	55	14	-1	11.64	11.64
Fixation R	1	10	8488953779	8489291905	338126	1576.84	658.01	55	14	-1	10.57	10.57
Saccade L	1	11	8489291905	8489311778	19873	1577.32	663.88	1581.62	615.56	0.29	49.08	1.00	14.59	1170.09	-970.34	749.69
Saccade R	1	11	8489291905	8489311778	19873	1577.32	663.88	1581.62	615.56	0.29	49.08	1.00	14.59	1170.09	-970.34	749.69
Fixation L	1	11	8489311778	8489510770	198992	1596.85	606.42	29	17	-1	11.04	11.04
Fixation R	1	11	8489311778	8489510770	198992	1596.85	606.42	29	17	-1	10.12	10.12
Saccade L	1	12	8489510770	8489550508	39738	1611.57	598.08	1218.86	579.58	3.62	233.62	1.00	91.18	5689.56	-5306.25	4476.07
Saccade R	1	12	8489510770	8489550508	39738	1611.57	598.08	1218.86	579.58	3.62	233.62	1.00	91.18	5689.56	-5306.25	4476.07
Fixation L	1	12	8489550508	8489649877	99369	1174.45	554.94	55	43	-1	10.51	10.51
Fixation R	1	12	8489550508	8489649877	99369	1174.45	554.94	55	43	-1	9.56	9.56
Saccade L	1	13	8489649877	8489669901	20024	1162.93	535.59	1164.54	534.52	0.10	8.57	1.00	4.94	0.00	-165.32	82.66
Saccade R	1	13	8489649877	8489669901	20024	1162.93	535.59	1164.54	534.52	0.10	8.57	1.00	4.94	0.00	-165.32	82.66
