[BeGaze]
Converted from:	C:\Documents and Settings\iViewX\Desktop\EXPERIMENTATIONS\Experiments\results\finaleart\S1022551-finaleart-1.idf
Date:	27.03.2019 15:38:29
Version:	BeGaze 2.5.77
Sample Rate:	50
Subject:	S1022551
Description:	Alexis Nebout

Table Header for Fixations:
Event Type	Trial	Number	Start	End	Duration	Location X	Location Y	Dispersion X	Dispersion Y	Plane	Avg. Pupil Size X	Avg. Pupil Size Y

Table Header for Saccades:
Event Type	Trial	Number	Start	End	Duration	Start Loc.X	Start Loc.Y	End Loc.X	End Loc.Y	Amplitude	Peak Speed	Peak Speed At	Average Speed	Peak Accel.	Peak Decel.	Average Accel.

Table Header for Blinks:
Event Type	Trial	Number	Start	End	Duration

Table Header for User Events:
Event Type	Trial	Number	Start	Description

UserEvent	1	1	9000037352	# Message: Rochers_Sur_La_Cote_A_Agay_Guillaumin_1907.jpg
Fixation L	1	1	9000052092	9000370332	318240	872.63	515.78	88	9	-1	13.50	13.50
Fixation R	1	1	9000052092	9000370332	318240	872.63	515.78	88	9	-1	11.55	11.55
Saccade L	1	1	9000370332	9000400729	30397	828.12	510.88	822.30	507.49	0.31	18.74	1.00	10.07	-36.68	-298.22	149.52
Saccade R	1	1	9000370332	9000400729	30397	828.12	510.88	822.30	507.49	0.31	18.74	1.00	10.07	-36.68	-298.22	149.52
Fixation L	1	2	9000400729	9001146042	745313	852.05	517.02	58	29	-1	13.22	13.22
Fixation R	1	2	9000400729	9001146042	745313	852.05	517.02	58	29	-1	11.30	11.30
Saccade L	1	2	9001146042	9001165906	19864	857.73	523.81	703.25	595.67	1.03	172.30	1.00	51.76	4277.88	-4017.13	2822.30
Saccade R	1	2	9001146042	9001165906	19864	857.73	523.81	703.25	595.67	1.03	172.30	1.00	51.76	4277.88	-4017.13	2822.30
Fixation L	1	3	9001165906	9001623384	457478	676.86	617.34	32	30	-1	10.33	10.33
Fixation R	1	3	9001165906	9001623384	457478	676.86	617.34	32	30	-1	9.13	9.13
Saccade L	1	3	9001623384	9001643261	19877	684.76	616.79	829.59	702.46	1.07	170.18	1.00	53.93	4112.97	-4154.06	2817.48
Saccade R	1	3	9001623384	9001643261	19877	684.76	616.79	829.59	702.46	1.07	170.18	1.00	53.93	4112.97	-4154.06	2817.48
Fixation L	1	4	9001643261	9001862127	218866	841.93	738.78	16	53	-1	10.29	10.29
Fixation R	1	4	9001643261	9001862127	218866	841.93	738.78	16	53	-1	9.34	9.34
Saccade L	1	4	9001862127	9001882011	19884	843.11	748.60	934.67	758.74	0.56	93.18	1.00	28.03	2151.17	-2260.82	1495.50
Saccade R	1	4	9001862127	9001882011	19884	843.11	748.60	934.67	758.74	0.56	93.18	1.00	28.03	2151.17	-2260.82	1495.50
Fixation L	1	5	9001882011	9002458847	576836	944.31	765.59	20	16	-1	11.03	11.03
Fixation R	1	5	9001882011	9002458847	576836	944.31	765.59	20	16	-1	9.85	9.85
Saccade L	1	5	9002458847	9002498595	39748	951.20	763.93	537.68	603.70	3.70	332.35	1.00	93.08	8286.21	-7709.35	5501.11
Saccade R	1	5	9002458847	9002498595	39748	951.20	763.93	537.68	603.70	3.70	332.35	1.00	93.08	8286.21	-7709.35	5501.11
Fixation L	1	6	9002498595	9002777084	278489	533.99	561.10	28	67	-1	12.04	12.04
Fixation R	1	6	9002498595	9002777084	278489	533.99	561.10	28	67	-1	10.54	10.54
Saccade L	1	6	9002777084	9002796960	19876	557.99	535.96	670.48	357.45	1.28	213.35	1.00	64.63	5214.04	-5165.97	3548.19
Saccade R	1	6	9002777084	9002796960	19876	557.99	535.96	670.48	357.45	1.28	213.35	1.00	64.63	5214.04	-5165.97	3548.19
Fixation L	1	7	9002796960	9003473169	676209	684.12	317.66	23	75	-1	10.98	10.98
Fixation R	1	7	9002796960	9003473169	676209	684.12	317.66	23	75	-1	9.87	9.87
Saccade L	1	7	9003473169	9003493054	19885	689.55	282.10	688.92	279.59	0.05	3.79	1.00	2.30	61.25	-10.69	33.80
Saccade R	1	7	9003473169	9003493054	19885	689.55	282.10	688.92	279.59	0.05	3.79	1.00	2.30	61.25	-10.69	33.80
Fixation L	1	8	9003493054	9003910777	417723	688.69	286.52	2	23	-1	10.26	10.26
Fixation R	1	8	9003493054	9003910777	417723	688.69	286.52	2	23	-1	9.30	9.30
Saccade L	1	8	9003910777	9003950523	39746	690.35	289.92	1086.46	290.89	3.30	257.80	0.50	82.94	6413.34	-6189.87	4900.07
Saccade R	1	8	9003910777	9003950523	39746	690.35	289.92	1086.46	290.89	3.30	257.80	0.50	82.94	6413.34	-6189.87	4900.07
Fixation L	1	9	9003950523	9004069896	119373	1089.89	292.56	16	5	-1	10.37	10.37
Fixation R	1	9	9003950523	9004069896	119373	1089.89	292.56	16	5	-1	9.60	9.60
