[BeGaze]
Converted from:	C:\Documents and Settings\iViewX\Desktop\EXPERIMENTATIONS\Experiments\results\finaleart\S1022551-finaleart-1.idf
Date:	27.03.2019 15:38:28
Version:	BeGaze 2.5.77
Sample Rate:	50
Subject:	S1022551
Description:	Alexis Nebout

Table Header for Fixations:
Event Type	Trial	Number	Start	End	Duration	Location X	Location Y	Dispersion X	Dispersion Y	Plane	Avg. Pupil Size X	Avg. Pupil Size Y

Table Header for Saccades:
Event Type	Trial	Number	Start	End	Duration	Start Loc.X	Start Loc.Y	End Loc.X	End Loc.Y	Amplitude	Peak Speed	Peak Speed At	Average Speed	Peak Accel.	Peak Decel.	Average Accel.

Table Header for Blinks:
Event Type	Trial	Number	Start	End	Duration

Table Header for User Events:
Event Type	Trial	Number	Start	Description

UserEvent	1	1	8993785142	# Message: Kiprensky-standing-sitter-with-a-stick-sitter-on-a-rock-1801.jpg
Fixation L	1	1	8993786783	8994423231	636448	991.17	511.75	11	11	-1	10.35	10.35
Fixation R	1	1	8993786783	8994423231	636448	991.17	511.75	11	11	-1	9.50	9.50
Saccade L	1	1	8994423231	8994443113	19882	984.36	513.86	658.63	513.19	1.93	329.15	1.00	97.16	8210.51	-7885.08	5847.29
Saccade R	1	1	8994423231	8994443113	19882	984.36	513.86	658.63	513.19	1.93	329.15	1.00	97.16	8210.51	-7885.08	5847.29
Fixation L	1	2	8994443113	8994781219	338106	589.51	521.20	77	13	-1	9.83	9.83
Fixation R	1	2	8994443113	8994781219	338106	589.51	521.20	77	13	-1	9.01	9.01
Saccade L	1	2	8994781219	8995198946	417727	582.33	523.84	524.73	672.27	29.79	372.66	0.10	71.31	9125.99	-8877.40	2513.32
Saccade R	1	2	8994781219	8995198946	417727	582.33	523.84	524.73	672.27	29.79	372.66	0.10	71.31	9125.99	-8877.40	2513.32
Fixation L	1	3	8995198946	8995397819	198873	540.59	714.99	33	58	-1	8.52	8.52
Fixation R	1	3	8995198946	8995397819	198873	540.59	714.99	33	58	-1	8.88	8.88
Saccade L	1	3	8995397819	8995417686	19867	551.66	730.90	549.00	739.29	0.09	8.91	1.00	4.78	176.58	-105.58	103.66
Saccade R	1	3	8995397819	8995417686	19867	551.66	730.90	549.00	739.29	0.09	8.91	1.00	4.78	176.58	-105.58	103.66
Fixation L	1	4	8995417686	8995576811	159125	550.97	748.59	3	17	-1	9.09	9.09
Fixation R	1	4	8995417686	8995576811	159125	550.97	748.59	3	17	-1	9.44	9.44
Saccade L	1	4	8995576811	8995616685	39874	551.65	756.84	537.27	461.26	2.72	221.87	0.50	68.27	5500.81	-4616.74	3431.95
Saccade R	1	4	8995576811	8995616685	39874	551.65	756.84	537.27	461.26	2.72	221.87	0.50	68.27	5500.81	-4616.74	3431.95
Fixation L	1	5	8995616685	8995855293	238608	527.70	430.34	27	37	-1	9.99	9.99
Fixation R	1	5	8995616685	8995855293	238608	527.70	430.34	27	37	-1	9.83	9.83
Saccade L	1	5	8995855293	8995875159	19866	515.75	424.93	387.44	430.52	0.78	129.90	1.00	39.29	3086.26	-2836.64	2112.07
Saccade R	1	5	8995855293	8995875159	19866	515.75	424.93	387.44	430.52	0.78	129.90	1.00	39.29	3086.26	-2836.64	2112.07
Fixation L	1	6	8995875159	8996014407	139248	408.24	461.40	26	57	-1	10.08	10.08
Fixation R	1	6	8995875159	8996014407	139248	408.24	461.40	26	57	-1	9.87	9.87
Saccade L	1	6	8996014407	8996074157	59750	412.74	488.06	647.38	176.99	4.35	234.11	0.67	72.85	5638.69	-5746.99	3294.05
Saccade R	1	6	8996014407	8996074157	59750	412.74	488.06	647.38	176.99	4.35	234.11	0.67	72.85	5638.69	-5746.99	3294.05
Fixation L	1	7	8996074157	8996273033	198876	647.37	170.05	18	80	-1	10.42	10.42
Fixation R	1	7	8996074157	8996273033	198876	647.37	170.05	18	80	-1	9.71	9.71
Saccade L	1	7	8996273033	8996412258	139225	633.80	115.10	1366.34	271.44	13.45	455.45	0.86	96.62	11016.51	-10868.22	3586.81
Saccade R	1	7	8996273033	8996412258	139225	633.80	115.10	1366.34	271.44	13.45	455.45	0.86	96.62	11016.51	-10868.22	3586.81
Fixation L	1	8	8996412258	8996650886	238628	1385.35	296.00	27	43	-1	10.77	10.77
Fixation R	1	8	8996412258	8996650886	238628	1385.35	296.00	27	43	-1	10.02	10.02
Saccade L	1	8	8996650886	8996670751	19865	1386.68	315.24	1366.24	487.44	1.14	175.37	1.00	57.35	4330.42	-3946.95	3111.72
Saccade R	1	8	8996650886	8996670751	19865	1386.68	315.24	1366.24	487.44	1.14	175.37	1.00	57.35	4330.42	-3946.95	3111.72
Fixation L	1	9	8996670751	8996929360	258609	1357.24	443.02	16	54	-1	11.09	11.09
Fixation R	1	9	8996670751	8996929360	258609	1357.24	443.02	16	54	-1	9.79	9.79
Saccade L	1	9	8996929360	8996949235	19875	1352.10	434.58	1359.24	227.15	1.15	209.87	1.00	57.70	5209.33	-4706.20	3458.02
Saccade R	1	9	8996929360	8996949235	19875	1352.10	434.58	1359.24	227.15	1.15	209.87	1.00	57.70	5209.33	-4706.20	3458.02
Fixation L	1	10	8996949235	8997625593	676358	1377.16	198.37	38	49	-1	10.46	10.46
Fixation R	1	10	8996949235	8997625593	676358	1377.16	198.37	38	49	-1	9.61	9.61
Saccade L	1	10	8997625593	8997665340	39747	1395.95	177.15	1424.25	442.73	2.51	189.17	1.00	63.04	4407.33	-4129.12	2949.22
Saccade R	1	10	8997625593	8997665340	39747	1395.95	177.15	1424.25	442.73	2.51	189.17	1.00	63.04	4407.33	-4129.12	2949.22
Fixation L	1	11	8997665340	8997824455	159115	1445.75	468.59	31	34	-1	10.48	10.48
Fixation R	1	11	8997665340	8997824455	159115	1445.75	468.59	31	34	-1	9.53	9.53
Saccade L	1	11	8997824455	8997844326	19871	1455.40	476.18	1547.57	557.46	0.95	124.29	1.00	47.85	2850.75	0.00	1425.38
Saccade R	1	11	8997824455	8997844326	19871	1455.40	476.18	1547.57	557.46	0.95	124.29	1.00	47.85	2850.75	0.00	1425.38
