[BeGaze]
Converted from:	C:\Documents and Settings\iViewX\Desktop\EXPERIMENTATIONS\Experiments\results\finaleart\S1022551-finaleart-1.idf
Date:	27.03.2019 15:38:06
Version:	BeGaze 2.5.77
Sample Rate:	50
Subject:	S1022551
Description:	Alexis Nebout

Table Header for Fixations:
Event Type	Trial	Number	Start	End	Duration	Location X	Location Y	Dispersion X	Dispersion Y	Plane	Avg. Pupil Size X	Avg. Pupil Size Y

Table Header for Saccades:
Event Type	Trial	Number	Start	End	Duration	Start Loc.X	Start Loc.Y	End Loc.X	End Loc.Y	Amplitude	Peak Speed	Peak Speed At	Average Speed	Peak Accel.	Peak Decel.	Average Accel.

Table Header for Blinks:
Event Type	Trial	Number	Start	End	Duration

Table Header for User Events:
Event Type	Trial	Number	Start	Description

UserEvent	1	1	8471214226	# Message: void.jpg
Blink L	1	1	8471231764	8471331275	99511
Blink R	1	1	8471231764	8471331275	99511
Fixation L	1	1	8471331275	8471768863	437588	646.19	352.04	79	10	-1	10.85	10.85
Fixation R	1	1	8471331275	8471768863	437588	646.19	352.04	79	10	-1	10.29	10.29
Saccade L	1	1	8471768863	8471788728	19865	584.39	357.30	566.85	360.99	0.49	53.55	1.00	24.74	-310.96	-885.48	573.28
Saccade R	1	1	8471768863	8471788728	19865	584.39	357.30	566.85	360.99	0.49	53.55	1.00	24.74	-310.96	-885.48	573.28
Fixation L	1	2	8471788728	8471987607	198879	563.18	368.72	7	13	-1	10.35	10.35
Fixation R	1	2	8471788728	8471987607	198879	563.18	368.72	7	13	-1	9.91	9.91
Saccade L	1	2	8471987607	8472027351	39744	558.96	374.54	776.29	390.53	1.91	137.87	0.50	48.15	3354.34	-3093.17	2537.64
Saccade R	1	2	8471987607	8472027351	39744	558.96	374.54	776.29	390.53	1.91	137.87	0.50	48.15	3354.34	-3093.17	2537.64
Fixation L	1	3	8472027351	8472365453	338102	806.52	414.51	60	33	-1	10.53	10.53
Fixation R	1	3	8472027351	8472365453	338102	806.52	414.51	60	33	-1	10.17	10.17
Saccade L	1	3	8472365453	8472385458	20005	836.96	418.87	845.96	420.44	0.18	14.73	1.00	9.19	-122.30	-203.93	154.46
Saccade R	1	3	8472365453	8472385458	20005	836.96	418.87	845.96	420.44	0.18	14.73	1.00	9.19	-122.30	-203.93	154.46
Fixation L	1	4	8472385458	8472763305	377847	862.38	430.35	25	22	-1	10.73	10.73
Fixation R	1	4	8472385458	8472763305	377847	862.38	430.35	25	22	-1	10.27	10.27
Saccade L	1	4	8472763305	8472783191	19886	867.52	443.43	743.80	442.90	0.74	125.14	1.00	37.17	3065.75	-3048.36	2149.04
Saccade R	1	4	8472763305	8472783191	19886	867.52	443.43	743.80	442.90	0.74	125.14	1.00	37.17	3065.75	-3048.36	2149.04
Fixation L	1	5	8472783191	8473002063	218872	772.20	448.38	67	10	-1	10.89	10.89
Fixation R	1	5	8472783191	8473002063	218872	772.20	448.38	67	10	-1	10.28	10.28
Saccade L	1	5	8473002063	8473021924	19861	811.51	447.55	884.51	452.34	0.58	74.01	1.00	29.00	1811.72	-1825.59	1512.12
Saccade R	1	5	8473002063	8473021924	19861	811.51	447.55	884.51	452.34	0.58	74.01	1.00	29.00	1811.72	-1825.59	1512.12
Fixation L	1	6	8473021924	8473260531	238607	887.04	456.33	4	8	-1	11.25	11.25
Fixation R	1	6	8473021924	8473260531	238607	887.04	456.33	4	8	-1	10.48	10.48
