[BeGaze]
Converted from:	C:\Documents and Settings\iViewX\Desktop\EXPERIMENTATIONS\Experiments\results\finaleart\S1022551-finaleart-1.idf
Date:	27.03.2019 15:37:54
Version:	BeGaze 2.5.77
Sample Rate:	50
Subject:	S1022551
Description:	Alexis Nebout

Table Header for Fixations:
Event Type	Trial	Number	Start	End	Duration	Location X	Location Y	Dispersion X	Dispersion Y	Plane	Avg. Pupil Size X	Avg. Pupil Size Y

Table Header for Saccades:
Event Type	Trial	Number	Start	End	Duration	Start Loc.X	Start Loc.Y	End Loc.X	End Loc.Y	Amplitude	Peak Speed	Peak Speed At	Average Speed	Peak Accel.	Peak Decel.	Average Accel.

Table Header for Blinks:
Event Type	Trial	Number	Start	End	Duration

Table Header for User Events:
Event Type	Trial	Number	Start	Description

UserEvent	1	1	8175172995	# Message: void.jpg
Saccade L	1	1	8175182429	8175202299	19870	655.03	266.80	465.73	282.11	1.31	192.06	1.00	66.01	149.45	-4598.17	1582.54
Saccade R	1	1	8175182429	8175202299	19870	655.03	266.80	465.73	282.11	1.31	192.06	1.00	66.01	149.45	-4598.17	1582.54
Fixation L	1	1	8175202299	8175476476	274177	461.33	289.63	7	17	-1	15.34	15.34
Fixation R	1	1	8175202299	8175476476	274177	461.33	289.63	7	17	-1	13.77	13.77
Saccade L	1	2	8175476476	8175502008	25532	458.36	295.83	507.48	491.86	1.37	204.35	1.00	53.62	5071.07	-4779.24	3321.44
Saccade R	1	2	8175476476	8175502008	25532	458.36	295.83	507.48	491.86	1.37	204.35	1.00	53.62	5071.07	-4779.24	3321.44
Fixation L	1	2	8175502008	8175858641	356633	522.74	506.45	21	24	-1	15.82	15.82
Fixation R	1	2	8175502008	8175858641	356633	522.74	506.45	21	24	-1	14.31	14.31
Blink L	1	1	8175858641	8176037763	179122
Blink R	1	1	8175858641	8176057638	198997
Fixation L	1	3	8176037763	8176594619	556856	929.67	649.66	29	65	-1	16.29	16.29
Fixation R	1	3	8176057638	8176614477	556839	931.00	646.66	26	71	-1	14.02	14.02
Saccade L	1	3	8176594619	8176614477	19858	943.48	606.36	948.18	599.39	0.12	8.51	1.00	6.24	40.56	-27.76	26.95
Fixation L	1	4	8176614477	8177191324	576847	958.13	582.06	15	28	-1	15.87	15.87
Saccade R	1	3	8176614477	8176634357	19880	948.18	599.39	949.30	595.05	0.13	8.51	0.00	6.37	-12.53	-36.98	25.76
Fixation R	1	4	8176634357	8177191324	556967	958.49	581.44	14	23	-1	13.38	13.38
