[BeGaze]
Converted from:	C:\Documents and Settings\iViewX\Desktop\EXPERIMENTATIONS\Experiments\results\finaleart\S1022551-finaleart-1.idf
Date:	27.03.2019 15:37:55
Version:	BeGaze 2.5.77
Sample Rate:	50
Subject:	S1022551
Description:	Alexis Nebout

Table Header for Fixations:
Event Type	Trial	Number	Start	End	Duration	Location X	Location Y	Dispersion X	Dispersion Y	Plane	Avg. Pupil Size X	Avg. Pupil Size Y

Table Header for Saccades:
Event Type	Trial	Number	Start	End	Duration	Start Loc.X	Start Loc.Y	End Loc.X	End Loc.Y	Amplitude	Peak Speed	Peak Speed At	Average Speed	Peak Accel.	Peak Decel.	Average Accel.

Table Header for Blinks:
Event Type	Trial	Number	Start	End	Duration

Table Header for User Events:
Event Type	Trial	Number	Start	Description

UserEvent	1	1	8189603450	# Message: Pots_Et_Fruits_Matisse_1901.jpg
Fixation L	1	1	8189622612	8190440489	817877	934.33	615.82	21	43	-1	12.22	12.22
Fixation R	1	1	8189622612	8190440489	817877	934.33	615.82	21	43	-1	10.93	10.93
Saccade L	1	1	8190440489	8190477820	37331	939.82	620.43	792.54	333.06	3.31	326.32	1.00	88.61	8073.40	-7920.19	5423.79
Saccade R	1	1	8190440489	8190477820	37331	939.82	620.43	792.54	333.06	3.31	326.32	1.00	88.61	8073.40	-7920.19	5423.79
Fixation L	1	2	8190477820	8190875681	397861	794.61	351.60	16	28	-1	11.95	11.95
Fixation R	1	2	8190477820	8190875681	397861	794.61	351.60	16	28	-1	11.00	11.00
Saccade L	1	2	8190875681	8190915420	39739	799.64	361.18	1003.85	542.07	2.50	180.47	1.00	62.94	4309.68	-4439.43	3544.19
Saccade R	1	2	8190875681	8190915420	39739	799.64	361.18	1003.85	542.07	2.50	180.47	1.00	62.94	4309.68	-4439.43	3544.19
Fixation L	1	3	8190915420	8191074534	159114	995.03	533.40	11	12	-1	11.93	11.93
Fixation R	1	3	8190915420	8191074534	159114	995.03	533.40	11	12	-1	11.00	11.00
Saccade L	1	3	8191074534	8191094418	19884	993.74	530.22	1042.47	584.57	0.51	73.84	1.00	25.80	1836.36	-1212.74	1237.80
Saccade R	1	3	8191074534	8191094418	19884	993.74	530.22	1042.47	584.57	0.51	73.84	1.00	25.80	1836.36	-1212.74	1237.80
Fixation L	1	4	8191094418	8191333151	238733	1059.72	631.23	37	62	-1	11.82	11.82
Fixation R	1	4	8191094418	8191333151	238733	1059.72	631.23	37	62	-1	10.82	10.82
Saccade L	1	4	8191333151	8191353018	19867	1069.78	646.71	1069.17	647.13	0.06	5.08	1.00	2.89	350.97	-108.23	155.08
Saccade R	1	4	8191333151	8191353018	19867	1069.78	646.71	1069.17	647.13	0.06	5.08	1.00	2.89	350.97	-108.23	155.08
Fixation L	1	5	8191353018	8191631522	278504	1025.36	651.99	60	9	-1	12.01	12.01
Fixation R	1	5	8191353018	8191631522	278504	1025.36	651.99	60	9	-1	10.97	10.97
Saccade L	1	5	8191631522	8191671257	39735	1011.31	654.58	1360.27	671.51	2.92	200.06	1.00	73.52	4965.67	-4732.05	4264.11
Saccade R	1	5	8191631522	8191671257	39735	1011.31	654.58	1360.27	671.51	2.92	200.06	1.00	73.52	4965.67	-4732.05	4264.11
Fixation L	1	6	8191671257	8192108865	437608	1354.60	698.05	9	33	-1	12.60	12.60
Fixation R	1	6	8191671257	8192108865	437608	1354.60	698.05	9	33	-1	11.39	11.39
Saccade L	1	6	8192108865	8192148608	39743	1350.89	698.09	1098.60	590.14	2.49	231.71	0.50	62.56	5710.89	-5175.24	3216.92
Saccade R	1	6	8192108865	8192148608	39743	1350.89	698.09	1098.60	590.14	2.49	231.71	0.50	62.56	5710.89	-5175.24	3216.92
Fixation L	1	7	8192148608	8192944201	795593	1087.92	581.09	22	18	-1	12.62	12.62
Fixation R	1	7	8192148608	8192944201	795593	1087.92	581.09	22	18	-1	11.26	11.26
Saccade L	1	7	8192944201	8192983963	39762	1094.04	578.70	855.33	264.52	3.49	310.87	0.50	87.77	7730.97	-7047.16	4872.00
Saccade R	1	7	8192944201	8192983963	39762	1094.04	578.70	855.33	264.52	3.49	310.87	0.50	87.77	7730.97	-7047.16	4872.00
Fixation L	1	8	8192983963	8193361938	377975	826.00	274.91	34	36	-1	11.59	11.59
Fixation R	1	8	8192983963	8193361938	377975	826.00	274.91	34	36	-1	10.72	10.72
Saccade L	1	8	8193361938	8193381808	19870	821.11	262.03	810.40	158.46	0.68	105.32	1.00	34.45	2577.08	-2591.43	1831.04
Saccade R	1	8	8193361938	8193381808	19870	821.11	262.03	810.40	158.46	0.68	105.32	1.00	34.45	2577.08	-2591.43	1831.04
Fixation L	1	9	8193381808	8193600536	218728	800.61	194.07	24	55	-1	11.74	11.74
Fixation R	1	9	8193381808	8193600536	218728	800.61	194.07	24	55	-1	10.72	10.72
Saccade L	1	9	8193600536	8193640423	39887	790.96	207.06	579.64	321.27	2.77	216.12	1.00	69.42	5335.74	0.00	2112.37
Saccade R	1	9	8193600536	8193640423	39887	790.96	207.06	579.64	321.27	2.77	216.12	1.00	69.42	5335.74	0.00	2112.37
