[BeGaze]
Converted from:	C:\Documents and Settings\iViewX\Desktop\EXPERIMENTATIONS\Experiments\results\finaleart\S1022551-finaleart-1.idf
Date:	27.03.2019 15:37:29
Version:	BeGaze 2.5.77
Sample Rate:	50
Subject:	S1022551
Description:	Alexis Nebout

Table Header for Fixations:
Event Type	Trial	Number	Start	End	Duration	Location X	Location Y	Dispersion X	Dispersion Y	Plane	Avg. Pupil Size X	Avg. Pupil Size Y

Table Header for Saccades:
Event Type	Trial	Number	Start	End	Duration	Start Loc.X	Start Loc.Y	End Loc.X	End Loc.Y	Amplitude	Peak Speed	Peak Speed At	Average Speed	Peak Accel.	Peak Decel.	Average Accel.

Table Header for Blinks:
Event Type	Trial	Number	Start	End	Duration

Table Header for User Events:
Event Type	Trial	Number	Start	Description

UserEvent	1	1	7574399483	# Message: void.jpg
Fixation L	1	1	7574409436	7574807281	397845	793.68	528.41	17	37	-1	14.49	14.49
Fixation R	1	1	7574409436	7574807281	397845	793.68	528.41	17	37	-1	14.89	14.89
Saccade L	1	1	7574807281	7574831185	23904	798.55	506.42	669.59	510.21	0.86	130.49	1.00	35.89	3136.83	-3224.71	2132.99
Saccade R	1	1	7574807281	7574831185	23904	798.55	506.42	669.59	510.21	0.86	130.49	1.00	35.89	3136.83	-3224.71	2132.99
Fixation L	1	2	7574831185	7575642611	811426	673.97	519.59	73	21	-1	14.00	14.00
Fixation R	1	2	7574831185	7575642611	811426	673.97	519.59	73	21	-1	14.37	14.37
Saccade L	1	2	7575642611	7575662503	19892	740.19	528.23	759.76	526.61	1.18	150.45	1.00	59.28	24882.31	42.61	9156.64
Saccade R	1	2	7575642611	7575662503	19892	740.19	528.23	759.76	526.61	1.18	150.45	1.00	59.28	24882.31	42.61	9156.64
Blink L	1	1	7575662503	7575781857	119354
Blink R	1	1	7575662503	7575781857	119354
Fixation L	1	3	7575781857	7576279102	497245	772.88	507.66	17	34	-1	14.42	14.42
Fixation R	1	3	7575781857	7576279102	497245	772.88	507.66	17	34	-1	14.58	14.58
Saccade L	1	3	7576279102	7576298966	19864	780.64	517.82	853.51	523.11	0.41	73.91	1.00	20.83	1834.53	-1737.95	1205.87
Saccade R	1	3	7576279102	7576298966	19864	780.64	517.82	853.51	523.11	0.41	73.91	1.00	20.83	1834.53	-1737.95	1205.87
Fixation L	1	4	7576298966	7576398462	99496	859.01	528.07	8	7	-1	14.44	14.44
Fixation R	1	4	7576298966	7576398462	99496	859.01	528.07	8	7	-1	14.50	14.50
