[BeGaze]
Converted from:	C:\Documents and Settings\iViewX\Desktop\EXPERIMENTATIONS\Experiments\results\finaleart\S1022551-finaleart-1.idf
Date:	27.03.2019 15:37:32
Version:	BeGaze 2.5.77
Sample Rate:	50
Subject:	S1022551
Description:	Alexis Nebout

Table Header for Fixations:
Event Type	Trial	Number	Start	End	Duration	Location X	Location Y	Dispersion X	Dispersion Y	Plane	Avg. Pupil Size X	Avg. Pupil Size Y

Table Header for Saccades:
Event Type	Trial	Number	Start	End	Duration	Start Loc.X	Start Loc.Y	End Loc.X	End Loc.Y	Amplitude	Peak Speed	Peak Speed At	Average Speed	Peak Accel.	Peak Decel.	Average Accel.

Table Header for Blinks:
Event Type	Trial	Number	Start	End	Duration

Table Header for User Events:
Event Type	Trial	Number	Start	Description

UserEvent	1	1	7655875425	# Message: goya-Bodegones-con-pargos-dorados-1812.jpg
Fixation L	1	1	7655887665	7656504247	616582	884.84	471.03	38	59	-1	14.74	14.74
Fixation R	1	1	7655887665	7656504247	616582	884.84	471.03	38	59	-1	12.91	12.91
Saccade L	1	1	7656504247	7656524123	19876	860.60	438.42	858.45	437.95	0.04	3.81	1.00	2.00	-0.78	-39.64	26.03
Saccade R	1	1	7656504247	7656524123	19876	860.60	438.42	858.45	437.95	0.04	3.81	1.00	2.00	-0.78	-39.64	26.03
Fixation L	1	2	7656524123	7656742982	218859	840.32	452.40	51	44	-1	14.54	14.54
Fixation R	1	2	7656524123	7656742982	218859	840.32	452.40	51	44	-1	12.90	12.90
Saccade L	1	2	7656742982	7656762869	19887	807.32	463.60	802.11	459.86	0.26	24.98	1.00	13.21	285.12	-462.57	353.53
Saccade R	1	2	7656742982	7656762869	19887	807.32	463.60	802.11	459.86	0.26	24.98	1.00	13.21	285.12	-462.57	353.53
Fixation L	1	3	7656762869	7657339580	576711	824.50	477.73	64	35	-1	15.26	15.26
Fixation R	1	3	7656762869	7657339580	576711	824.50	477.73	64	35	-1	13.73	13.73
Saccade L	1	3	7657339580	7657359592	20012	864.97	461.96	865.31	462.65	0.08	10.22	0.00	4.15	75.72	-222.07	128.46
Saccade R	1	3	7657339580	7657359592	20012	864.97	461.96	865.31	462.65	0.08	10.22	0.00	4.15	75.72	-222.07	128.46
Fixation L	1	4	7657359592	7657538567	178975	844.46	461.85	66	16	-1	15.62	15.62
Fixation R	1	4	7657359592	7657538567	178975	844.46	461.85	66	16	-1	14.01	14.01
Saccade L	1	4	7657538567	7657558443	19876	799.78	451.52	794.36	424.17	0.30	28.21	1.00	14.95	394.81	-557.54	352.24
Saccade R	1	4	7657538567	7657558443	19876	799.78	451.52	794.36	424.17	0.30	28.21	1.00	14.95	394.81	-557.54	352.24
Fixation L	1	5	7657558443	7657836927	278484	791.47	431.71	8	16	-1	15.59	15.59
Fixation R	1	5	7657558443	7657836927	278484	791.47	431.71	8	16	-1	13.89	13.89
Saccade L	1	5	7657836927	7657876679	39752	791.78	427.68	964.84	558.51	1.80	135.94	1.00	45.21	3377.67	-3252.71	2705.14
Saccade R	1	5	7657836927	7657876679	39752	791.78	427.68	964.84	558.51	1.80	135.94	1.00	45.21	3377.67	-3252.71	2705.14
Fixation L	1	6	7657876679	7658035798	159119	962.66	553.43	70	16	-1	15.91	15.91
Fixation R	1	6	7657876679	7658035798	159119	962.66	553.43	70	16	-1	14.18	14.18
Saccade L	1	6	7658035798	7658075546	39748	906.62	555.27	564.46	747.07	4.02	350.42	0.50	101.22	8642.69	-8231.95	4629.37
Saccade R	1	6	7658035798	7658075546	39748	906.62	555.27	564.46	747.07	4.02	350.42	0.50	101.22	8642.69	-8231.95	4629.37
Fixation L	1	7	7658075546	7658294416	218870	543.53	761.88	28	22	-1	16.21	16.21
Fixation R	1	7	7658075546	7658294416	218870	543.53	761.88	28	22	-1	14.81	14.81
Saccade L	1	7	7658294416	7658334181	39765	536.52	758.14	808.81	442.49	3.50	241.50	1.00	88.13	6026.32	-5650.93	5052.78
Saccade R	1	7	7658294416	7658334181	39765	536.52	758.14	808.81	442.49	3.50	241.50	1.00	88.13	6026.32	-5650.93	5052.78
Fixation L	1	8	7658334181	7658533024	198843	808.75	422.87	10	31	-1	16.17	16.17
Fixation R	1	8	7658334181	7658533024	198843	808.75	422.87	10	31	-1	14.61	14.61
Saccade L	1	8	7658533024	7658552913	19889	800.04	431.03	478.40	614.60	2.00	374.11	1.00	100.68	9313.74	-9055.02	6151.07
Saccade R	1	8	7658533024	7658552913	19889	800.04	431.03	478.40	614.60	2.00	374.11	1.00	100.68	9313.74	-9055.02	6151.07
Fixation L	1	9	7658552913	7658731897	178984	476.85	621.36	15	16	-1	15.64	15.64
Fixation R	1	9	7658552913	7658731897	178984	476.85	621.36	15	16	-1	14.47	14.47
Saccade L	1	9	7658731897	7658751884	19987	478.36	618.70	505.45	519.20	0.65	104.31	1.00	32.40	2501.55	-2228.71	1734.73
Saccade R	1	9	7658731897	7658751884	19987	478.36	618.70	505.45	519.20	0.65	104.31	1.00	32.40	2501.55	-2228.71	1734.73
Fixation L	1	10	7658751884	7659010373	258489	540.82	505.19	55	21	-1	15.73	15.73
Fixation R	1	10	7658751884	7659010373	258489	540.82	505.19	55	21	-1	14.83	14.83
Saccade L	1	10	7659010373	7659030251	19878	561.21	503.31	781.22	385.87	1.37	252.13	1.00	68.82	6282.37	-6189.17	4158.62
Saccade R	1	10	7659010373	7659030251	19878	561.21	503.31	781.22	385.87	1.37	252.13	1.00	68.82	6282.37	-6189.17	4158.62
Fixation L	1	11	7659030251	7659209243	178992	796.62	376.15	25	15	-1	16.58	16.58
Fixation R	1	11	7659030251	7659209243	178992	796.62	376.15	25	15	-1	15.09	15.09
Saccade L	1	11	7659209243	7659249120	39877	805.21	370.74	482.61	259.30	2.90	224.09	1.00	72.71	5565.74	-5203.96	4136.72
Saccade R	1	11	7659209243	7659249120	39877	805.21	370.74	482.61	259.30	2.90	224.09	1.00	72.71	5565.74	-5203.96	4136.72
Fixation L	1	12	7659249120	7659905468	656348	470.12	255.63	20	53	-1	16.90	16.90
Fixation R	1	12	7659249120	7659905468	656348	470.12	255.63	20	53	-1	15.52	15.52
