[BeGaze]
Converted from:	C:\Documents and Settings\iViewX\Desktop\EXPERIMENTATIONS\Experiments\results\finaleart\S1022551-finaleart-1.idf
Date:	27.03.2019 15:38:27
Version:	BeGaze 2.5.77
Sample Rate:	50
Subject:	S1022551
Description:	Alexis Nebout

Table Header for Fixations:
Event Type	Trial	Number	Start	End	Duration	Location X	Location Y	Dispersion X	Dispersion Y	Plane	Avg. Pupil Size X	Avg. Pupil Size Y

Table Header for Saccades:
Event Type	Trial	Number	Start	End	Duration	Start Loc.X	Start Loc.Y	End Loc.X	End Loc.Y	Amplitude	Peak Speed	Peak Speed At	Average Speed	Peak Accel.	Peak Decel.	Average Accel.

Table Header for Blinks:
Event Type	Trial	Number	Start	End	Duration

Table Header for User Events:
Event Type	Trial	Number	Start	Description

UserEvent	1	1	8973276069	# Message: void.jpg
Saccade L	1	1	8973280128	8973379620	99492	1109.32	620.80	1103.30	391.97	3.36	195.98	1.00	33.81	4827.02	-4751.54	1611.53
Saccade R	1	1	8973280128	8973379620	99492	1109.32	620.80	1103.30	391.97	3.36	195.98	1.00	33.81	4827.02	-4751.54	1611.53
Fixation L	1	1	8973379620	8973538740	159120	1093.41	395.93	22	7	-1	12.88	12.88
Fixation R	1	1	8973379620	8973538740	159120	1093.41	395.93	22	7	-1	11.46	11.46
Saccade L	1	2	8973538740	8973558598	19858	1080.44	393.33	702.43	280.87	2.28	398.33	1.00	115.04	9833.47	-9611.56	6847.18
Saccade R	1	2	8973538740	8973558598	19858	1080.44	393.33	702.43	280.87	2.28	398.33	1.00	115.04	9833.47	-9611.56	6847.18
Fixation L	1	2	8973558598	8973817221	258623	638.34	272.45	81	14	-1	12.27	12.27
Fixation R	1	2	8973558598	8973817221	258623	638.34	272.45	81	14	-1	11.15	11.15
Saccade L	1	3	8973817221	8973856959	39738	622.75	278.14	475.91	275.89	1.37	135.47	1.00	34.50	3165.98	-3146.27	1679.47
Saccade R	1	3	8973817221	8973856959	39738	622.75	278.14	475.91	275.89	1.37	135.47	1.00	34.50	3165.98	-3146.27	1679.47
Fixation L	1	3	8973856959	8974254693	397734	468.50	282.06	28	42	-1	12.04	12.04
Fixation R	1	3	8973856959	8974254693	397734	468.50	282.06	28	42	-1	11.40	11.40
Saccade L	1	4	8974254693	8974433828	179135	487.54	307.84	741.92	431.10	10.67	185.19	0.82	59.56	4609.62	-4480.24	3483.59
Saccade R	1	4	8974254693	8974433828	179135	487.54	307.84	741.92	431.10	10.67	185.19	0.82	59.56	4609.62	-4480.24	3483.59
Fixation L	1	4	8974433828	8975050409	616581	747.03	430.22	41	7	-1	13.50	13.50
Fixation R	1	4	8974433828	8975050409	616581	747.03	430.22	41	7	-1	12.40	12.40
Saccade L	1	5	8975050409	8975070302	19893	777.48	428.35	900.32	388.52	0.94	130.61	1.00	47.11	3160.57	-2903.54	2033.88
Saccade R	1	5	8975050409	8975070302	19893	777.48	428.35	900.32	388.52	0.94	130.61	1.00	47.11	3160.57	-2903.54	2033.88
Fixation L	1	5	8975070302	8975269143	198841	922.83	367.81	26	32	-1	13.72	13.72
Fixation R	1	5	8975070302	8975269143	198841	922.83	367.81	26	32	-1	12.27	12.27
