[BeGaze]
Converted from:	C:\Documents and Settings\iViewX\Desktop\EXPERIMENTATIONS\Experiments\results\finaleart\S1022551-finaleart-1.idf
Date:	27.03.2019 15:38:20
Version:	BeGaze 2.5.77
Sample Rate:	50
Subject:	S1022551
Description:	Alexis Nebout

Table Header for Fixations:
Event Type	Trial	Number	Start	End	Duration	Location X	Location Y	Dispersion X	Dispersion Y	Plane	Avg. Pupil Size X	Avg. Pupil Size Y

Table Header for Saccades:
Event Type	Trial	Number	Start	End	Duration	Start Loc.X	Start Loc.Y	End Loc.X	End Loc.Y	Amplitude	Peak Speed	Peak Speed At	Average Speed	Peak Accel.	Peak Decel.	Average Accel.

Table Header for Blinks:
Event Type	Trial	Number	Start	End	Duration

Table Header for User Events:
Event Type	Trial	Number	Start	Description

UserEvent	1	1	8791139552	# Message: void.jpg
Fixation L	1	1	8791156718	8791382384	225666	1705.16	673.72	37	27	-1	12.99	12.99
Fixation R	1	1	8791156718	8791382384	225666	1705.16	673.72	37	27	-1	10.97	10.97
Saccade L	1	1	8791382384	8791441024	58640	1695.89	682.32	1271.19	361.89	7.09	343.35	0.56	120.99	8551.18	-7315.20	6382.50
Saccade R	1	1	8791382384	8791441024	58640	1695.89	682.32	1271.19	361.89	7.09	343.35	0.56	120.99	8551.18	-7315.20	6382.50
Fixation L	1	2	8791441024	8791594313	153289	1270.18	308.73	1	74	-1	12.58	12.58
Fixation R	1	2	8791441024	8791594313	153289	1270.18	308.73	1	74	-1	10.75	10.75
Saccade L	1	2	8791594313	8791634058	39745	1270.28	288.10	1075.89	55.35	2.69	253.13	1.00	67.60	6306.02	-5855.25	3539.80
Saccade R	1	2	8791594313	8791634058	39745	1270.28	288.10	1075.89	55.35	2.69	253.13	1.00	67.60	6306.02	-5855.25	3539.80
Fixation L	1	3	8791634058	8791773297	139239	1055.12	47.57	33	35	-1	12.35	12.35
Fixation R	1	3	8791634058	8791773297	139239	1055.12	47.57	33	35	-1	10.92	10.92
Blink L	1	1	8791773297	8791852796	79499
Blink R	1	1	8791773297	8791852796	79499
Saccade L	1	3	8791852796	8791912546	59750	0.00	16.28	0.00	3.49	9.10	891.88	1.00	152.32	-31.88	-22174.62	4484.47
Saccade R	1	3	8791852796	8791892665	39869	0.00	16.28	0.00	7.07	7.27	891.88	1.00	182.43	-31.88	-22174.62	5586.18
Blink R	1	2	8791892665	8792771401	878736
Saccade L	1	4	8791952301	8791972176	19875	0.00	1.21	0.00	0.90	0.02	1.79	1.00	0.88	9.81	-36.92	18.19
Blink L	1	2	8791972176	8792771401	799225
Fixation L	1	4	8792771401	8793187856	416455	983.65	469.08	11	39	-1	9.83	9.83
Fixation R	1	4	8792771401	8793187856	416455	983.65	469.08	11	39	-1	9.38	9.38
