[BeGaze]
Converted from:	C:\Documents and Settings\iViewX\Desktop\EXPERIMENTATIONS\Experiments\results\finaleart\S1022551-finaleart-1.idf
Date:	27.03.2019 15:37:49
Version:	BeGaze 2.5.77
Sample Rate:	50
Subject:	S1022551
Description:	Alexis Nebout

Table Header for Fixations:
Event Type	Trial	Number	Start	End	Duration	Location X	Location Y	Dispersion X	Dispersion Y	Plane	Avg. Pupil Size X	Avg. Pupil Size Y

Table Header for Saccades:
Event Type	Trial	Number	Start	End	Duration	Start Loc.X	Start Loc.Y	End Loc.X	End Loc.Y	Amplitude	Peak Speed	Peak Speed At	Average Speed	Peak Accel.	Peak Decel.	Average Accel.

Table Header for Blinks:
Event Type	Trial	Number	Start	End	Duration

Table Header for User Events:
Event Type	Trial	Number	Start	Description

UserEvent	1	1	7969593278	# Message: basket-of-fruits-Manet-1864.jpg
Fixation L	1	1	7969598770	7969956766	357996	847.87	516.89	22	21	-1	12.38	12.38
Fixation R	1	1	7969598770	7969956766	357996	847.87	516.89	22	21	-1	11.49	11.49
Saccade L	1	1	7969956766	7969976747	19981	836.49	520.58	809.90	454.18	0.55	72.36	1.00	27.39	1759.96	-1341.71	1195.63
Saccade R	1	1	7969956766	7969976747	19981	836.49	520.58	809.90	454.18	0.55	72.36	1.00	27.39	1759.96	-1341.71	1195.63
Fixation L	1	2	7969976747	7970377053	400306	784.05	462.70	37	26	-1	12.53	12.53
Fixation R	1	2	7969976747	7970377053	400306	784.05	462.70	37	26	-1	11.82	11.82
Saccade L	1	2	7970377053	7970414233	37180	776.82	460.69	903.27	462.37	1.26	127.92	1.00	34.01	3174.18	-3099.15	2112.92
Saccade R	1	2	7970377053	7970414233	37180	776.82	460.69	903.27	462.37	1.26	127.92	1.00	34.01	3174.18	-3099.15	2112.92
Fixation L	1	3	7970414233	7970871698	457465	905.32	448.30	10	25	-1	13.28	13.28
Fixation R	1	3	7970414233	7970871698	457465	905.32	448.30	10	25	-1	12.34	12.34
Blink L	1	1	7970871698	7971010938	139240
Blink R	1	1	7970871698	7971010938	139240
Fixation L	1	4	7971010938	7971269548	258610	817.59	835.65	27	71	-1	14.62	14.62
Fixation R	1	4	7971010938	7971269548	258610	817.59	835.65	27	71	-1	13.29	13.29
Saccade L	1	3	7971269548	7971329180	59632	830.01	831.67	978.40	830.98	1.57	134.16	1.00	26.26	3321.58	-3333.87	1454.81
Saccade R	1	3	7971269548	7971329180	59632	830.01	831.67	978.40	830.98	1.57	134.16	1.00	26.26	3321.58	-3333.87	1454.81
Fixation L	1	5	7971329180	7971667288	338108	979.94	827.98	23	7	-1	14.60	14.60
Fixation R	1	5	7971329180	7971667288	338108	979.94	827.98	23	7	-1	12.59	12.59
Saccade L	1	4	7971667288	7971687281	19993	962.47	830.63	774.73	836.40	1.12	189.94	1.00	56.20	4727.29	-4658.37	3249.19
Saccade R	1	4	7971667288	7971687281	19993	962.47	830.63	774.73	836.40	1.12	189.94	1.00	56.20	4727.29	-4658.37	3249.19
Fixation L	1	6	7971687281	7971945771	258490	786.23	844.66	15	13	-1	14.70	14.70
Fixation R	1	6	7971687281	7971945771	258490	786.23	844.66	15	13	-1	12.99	12.99
Saccade L	1	5	7971945771	7971985528	39757	787.62	849.03	1108.64	849.86	2.67	186.66	1.00	67.06	4662.99	-4647.08	3987.17
Saccade R	1	5	7971945771	7971985528	39757	787.62	849.03	1108.64	849.86	2.67	186.66	1.00	67.06	4662.99	-4647.08	3987.17
Fixation L	1	7	7971985528	7972124759	139231	1108.29	847.46	72	8	-1	14.62	14.62
Fixation R	1	7	7971985528	7972124759	139231	1108.29	847.46	72	8	-1	12.76	12.76
Saccade L	1	6	7972124759	7972144646	19887	1168.50	841.70	1378.36	740.72	1.58	235.46	1.00	79.34	5836.19	-5750.74	4402.51
Saccade R	1	6	7972124759	7972144646	19887	1168.50	841.70	1378.36	740.72	1.58	235.46	1.00	79.34	5836.19	-5750.74	4402.51
Fixation L	1	8	7972144646	7972363511	218865	1370.99	734.31	13	20	-1	14.50	14.50
Fixation R	1	8	7972144646	7972363511	218865	1370.99	734.31	13	20	-1	12.56	12.56
Saccade L	1	7	7972363511	7972403250	39739	1364.76	731.49	1035.51	559.82	3.29	266.17	0.50	82.82	6621.79	-6139.80	4659.97
Saccade R	1	7	7972363511	7972403250	39739	1364.76	731.49	1035.51	559.82	3.29	266.17	0.50	82.82	6621.79	-6139.80	4659.97
Fixation L	1	9	7972403250	7972761227	357977	1033.90	525.23	42	43	-1	14.13	14.13
Fixation R	1	9	7972403250	7972761227	357977	1033.90	525.23	42	43	-1	12.09	12.09
Saccade L	1	8	7972761227	7972781236	20009	1001.49	521.71	951.02	446.41	0.74	91.70	1.00	36.85	2283.31	-2238.91	1527.70
Saccade R	1	8	7972761227	7972781236	20009	1001.49	521.71	951.02	446.41	0.74	91.70	1.00	36.85	2283.31	-2238.91	1527.70
Fixation L	1	10	7972781236	7973457448	676212	921.43	448.68	39	36	-1	13.73	13.73
Fixation R	1	10	7972781236	7973457448	676212	921.43	448.68	39	36	-1	12.21	12.21
Saccade L	1	9	7973457448	7973477317	19869	911.88	444.92	878.40	432.54	0.27	36.11	1.00	13.66	872.83	-351.32	516.71
Saccade R	1	9	7973457448	7973477317	19869	911.88	444.92	878.40	432.54	0.27	36.11	1.00	13.66	872.83	-351.32	516.71
Fixation L	1	11	7973477317	7973636438	159121	870.18	415.43	32	29	-1	13.81	13.81
Fixation R	1	11	7973477317	7973636438	159121	870.18	415.43	32	29	-1	12.19	12.19
