[BeGaze]
Converted from:	C:\Documents and Settings\iViewX\Desktop\EXPERIMENTATIONS\Experiments\results\finaleart\S1022551-finaleart-1.idf
Date:	27.03.2019 15:38:24
Version:	BeGaze 2.5.77
Sample Rate:	50
Subject:	S1022551
Description:	Alexis Nebout

Table Header for Fixations:
Event Type	Trial	Number	Start	End	Duration	Location X	Location Y	Dispersion X	Dispersion Y	Plane	Avg. Pupil Size X	Avg. Pupil Size Y

Table Header for Saccades:
Event Type	Trial	Number	Start	End	Duration	Start Loc.X	Start Loc.Y	End Loc.X	End Loc.Y	Amplitude	Peak Speed	Peak Speed At	Average Speed	Peak Accel.	Peak Decel.	Average Accel.

Table Header for Blinks:
Event Type	Trial	Number	Start	End	Duration

Table Header for User Events:
Event Type	Trial	Number	Start	Description

UserEvent	1	1	8924009204	# Message: void.jpg
Saccade L	1	1	8924012614	8924052353	39739	1574.47	729.56	1429.77	448.63	3.40	223.54	0.50	85.65	2823.39	-5435.25	2644.94
Saccade R	1	1	8924012614	8924052353	39739	1574.47	729.56	1429.77	448.63	3.40	223.54	0.50	85.65	2823.39	-5435.25	2644.94
Fixation L	1	1	8924052353	8924291107	238754	1424.92	447.92	7	89	-1	10.97	10.97
Fixation R	1	1	8924052353	8924291107	238754	1424.92	447.92	7	89	-1	9.92	9.92
Saccade L	1	2	8924291107	8924310968	19861	1422.44	393.57	1421.46	385.96	0.17	13.98	1.00	8.55	20787.88	-155.67	7001.69
Saccade R	1	2	8924291107	8924310968	19861	1422.44	393.57	1421.46	385.96	0.17	13.98	1.00	8.55	20787.88	-155.67	7001.69
Fixation L	1	2	8924310968	8924391653	80685	1421.41	389.65	0	7	-1	11.26	11.26
Fixation R	1	2	8924310968	8924391653	80685	1421.41	389.65	0	7	-1	9.79	9.79
Saccade L	1	3	8924391653	8924430222	38569	1421.35	393.33	621.51	151.45	8.32	839.27	1.00	215.60	20787.88	-20931.27	13910.35
Saccade R	1	3	8924391653	8924430222	38569	1421.35	393.33	621.51	151.45	8.32	839.27	1.00	215.60	20787.88	-20931.27	13910.35
Fixation L	1	3	8924430222	8924907690	477468	621.52	171.50	4	35	-1	11.07	11.07
Fixation R	1	3	8924430222	8924907690	477468	621.52	171.50	4	35	-1	9.92	9.92
Blink L	1	1	8924907690	8925146285	238595
Blink R	1	1	8924907690	8925146285	238595
Fixation L	1	4	8925146285	8926001630	855345	887.94	692.08	27	46	-1	12.79	12.79
Fixation R	1	4	8925146285	8926001630	855345	887.94	692.08	27	46	-1	12.01	12.01
Saccade L	1	4	8926001630	8926041382	39752	890.77	663.79	885.93	537.58	1.76	114.31	0.50	44.35	2804.80	-828.94	1211.24
Saccade R	1	4	8926001630	8926041382	39752	890.77	663.79	885.93	537.58	1.76	114.31	0.50	44.35	2804.80	-828.94	1211.24
