[BeGaze]
Converted from:	C:\Documents and Settings\iViewX\Desktop\EXPERIMENTATIONS\Experiments\results\finaleart\S1022551-finaleart-1.idf
Date:	27.03.2019 15:38:29
Version:	BeGaze 2.5.77
Sample Rate:	50
Subject:	S1022551
Description:	Alexis Nebout

Table Header for Fixations:
Event Type	Trial	Number	Start	End	Duration	Location X	Location Y	Dispersion X	Dispersion Y	Plane	Avg. Pupil Size X	Avg. Pupil Size Y

Table Header for Saccades:
Event Type	Trial	Number	Start	End	Duration	Start Loc.X	Start Loc.Y	End Loc.X	End Loc.Y	Amplitude	Peak Speed	Peak Speed At	Average Speed	Peak Accel.	Peak Decel.	Average Accel.

Table Header for Blinks:
Event Type	Trial	Number	Start	End	Duration

Table Header for User Events:
Event Type	Trial	Number	Start	Description

UserEvent	1	1	9004116848	# Message: void.jpg
Fixation L	1	1	9004129531	9004408007	278476	1087.01	294.74	14	10	-1	9.80	9.80
Fixation R	1	1	9004129531	9004408007	278476	1087.01	294.74	14	10	-1	8.95	8.95
Saccade L	1	1	9004408007	9004447756	39749	1095.20	287.81	1172.08	434.18	1.69	100.35	0.50	42.47	2415.63	-1874.43	1967.47
Saccade R	1	1	9004408007	9004447756	39749	1095.20	287.81	1172.08	434.18	1.69	100.35	0.50	42.47	2415.63	-1874.43	1967.47
Fixation L	1	2	9004447756	9005422455	974699	1185.23	446.11	35	18	-1	9.70	9.70
Fixation R	1	2	9004447756	9005422455	974699	1185.23	446.11	35	18	-1	8.75	8.75
Saccade L	1	2	9005422455	9005442340	19885	1163.68	449.86	932.04	414.03	1.49	236.98	1.00	74.97	5863.93	-5434.21	4190.75
Saccade R	1	2	9005422455	9005442340	19885	1163.68	449.86	932.04	414.03	1.49	236.98	1.00	74.97	5863.93	-5434.21	4190.75
Fixation L	1	3	9005442340	9005581575	139235	884.87	419.28	62	32	-1	11.64	11.64
Fixation R	1	3	9005442340	9005581575	139235	884.87	419.28	62	32	-1	10.41	10.41
Saccade L	1	3	9005581575	9005601466	19891	877.00	414.97	863.53	415.18	0.26	19.66	1.00	12.95	298.91	-121.16	163.66
Saccade R	1	3	9005581575	9005601466	19891	877.00	414.97	863.53	415.18	0.26	19.66	1.00	12.95	298.91	-121.16	163.66
Fixation L	1	4	9005601466	9006138425	536959	833.64	430.43	47	24	-1	11.98	11.98
Fixation R	1	4	9005601466	9006138425	536959	833.64	430.43	47	24	-1	10.58	10.58
