[BeGaze]
Converted from:	C:\Documents and Settings\iViewX\Desktop\EXPERIMENTATIONS\Experiments\results\finaleart\S1022551-finaleart-1.idf
Date:	27.03.2019 15:37:47
Version:	BeGaze 2.5.77
Sample Rate:	50
Subject:	S1022551
Description:	Alexis Nebout

Table Header for Fixations:
Event Type	Trial	Number	Start	End	Duration	Location X	Location Y	Dispersion X	Dispersion Y	Plane	Avg. Pupil Size X	Avg. Pupil Size Y

Table Header for Saccades:
Event Type	Trial	Number	Start	End	Duration	Start Loc.X	Start Loc.Y	End Loc.X	End Loc.Y	Amplitude	Peak Speed	Peak Speed At	Average Speed	Peak Accel.	Peak Decel.	Average Accel.

Table Header for Blinks:
Event Type	Trial	Number	Start	End	Duration

Table Header for User Events:
Event Type	Trial	Number	Start	Description

UserEvent	1	1	7936709086	# Message: void.jpg
Fixation L	1	1	7936720594	7936879705	159111	519.70	356.74	5	10	-1	10.37	10.37
Fixation R	1	1	7936720594	7936879705	159111	519.70	356.74	5	10	-1	9.77	9.77
Saccade L	1	1	7936879705	7936939356	59651	523.33	362.74	778.77	351.79	5.06	258.47	1.00	84.79	6368.24	-6256.07	4807.20
Saccade R	1	1	7936879705	7936939356	59651	523.33	362.74	778.77	351.79	5.06	258.47	1.00	84.79	6368.24	-6256.07	4807.20
Fixation L	1	2	7936939356	7937098452	159096	837.32	341.74	73	19	-1	10.91	10.91
Fixation R	1	2	7936939356	7937098452	159096	837.32	341.74	73	19	-1	10.36	10.36
Saccade L	1	2	7937098452	7937118320	19868	847.04	338.76	845.16	322.99	0.15	16.07	1.00	7.64	272.71	-349.74	250.02
Saccade R	1	2	7937098452	7937118320	19868	847.04	338.76	845.16	322.99	0.15	16.07	1.00	7.64	272.71	-349.74	250.02
Fixation L	1	3	7937118320	7937536058	417738	844.04	309.41	9	58	-1	10.93	10.93
Fixation R	1	3	7937118320	7937536058	417738	844.04	309.41	9	58	-1	10.27	10.27
Saccade L	1	3	7937536058	7937555935	19877	840.12	352.20	844.26	429.09	0.66	77.88	1.00	33.26	1853.17	-1728.50	1573.68
Saccade R	1	3	7937536058	7937555935	19877	840.12	352.20	844.26	429.09	0.66	77.88	1.00	33.26	1853.17	-1728.50	1573.68
Fixation L	1	4	7937555935	7937675294	119359	851.75	446.55	19	33	-1	10.72	10.72
Fixation R	1	4	7937555935	7937675294	119359	851.75	446.55	19	33	-1	10.21	10.21
Blink L	1	1	7937675294	7937934315	259021
Blink R	1	1	7937675294	7937934315	259021
Fixation L	1	5	7937934315	7938590241	655926	909.09	467.81	49	50	-1	12.78	12.78
Fixation R	1	5	7937934315	7938590241	655926	909.09	467.81	49	50	-1	11.62	11.62
Saccade L	1	4	7938590241	7938610116	19875	871.62	434.56	871.20	432.34	0.07	6.58	0.00	3.73	4.52	-66.27	30.12
Saccade R	1	4	7938590241	7938610116	19875	871.62	434.56	871.20	432.34	0.07	6.58	0.00	3.73	4.52	-66.27	30.12
Fixation L	1	6	7938610116	7938709619	99503	867.15	433.46	5	2	-1	13.06	13.06
Fixation R	1	6	7938610116	7938709619	99503	867.15	433.46	5	2	-1	11.83	11.83
