[BeGaze]
Converted from:	C:\Documents and Settings\iViewX\Desktop\EXPERIMENTATIONS\Experiments\results\finaleart\S1022551-finaleart-1.idf
Date:	27.03.2019 15:38:20
Version:	BeGaze 2.5.77
Sample Rate:	50
Subject:	S1022551
Description:	Alexis Nebout

Table Header for Fixations:
Event Type	Trial	Number	Start	End	Duration	Location X	Location Y	Dispersion X	Dispersion Y	Plane	Avg. Pupil Size X	Avg. Pupil Size Y

Table Header for Saccades:
Event Type	Trial	Number	Start	End	Duration	Start Loc.X	Start Loc.Y	End Loc.X	End Loc.Y	Amplitude	Peak Speed	Peak Speed At	Average Speed	Peak Accel.	Peak Decel.	Average Accel.

Table Header for Blinks:
Event Type	Trial	Number	Start	End	Duration

Table Header for User Events:
Event Type	Trial	Number	Start	Description

UserEvent	1	1	8799434679	# Message: The_Blue_Nude_Souvenir_of_Biskra_Matisse_1907.jpg
Fixation L	1	1	8799453193	8799652204	199011	940.21	474.45	76	7	-1	13.07	13.07
Fixation R	1	1	8799453193	8799652204	199011	940.21	474.45	76	7	-1	10.98	10.98
Saccade L	1	1	8799652204	8799672061	19857	875.58	476.81	849.54	468.66	0.55	77.28	0.00	27.70	675.68	-1798.14	1038.81
Saccade R	1	1	8799652204	8799672061	19857	875.58	476.81	849.54	468.66	0.55	77.28	0.00	27.70	675.68	-1798.14	1038.81
Fixation L	1	2	8799672061	8800189292	517231	847.81	471.73	11	10	-1	12.79	12.79
Fixation R	1	2	8799672061	8800189292	517231	847.81	471.73	11	10	-1	11.20	11.20
Saccade L	1	2	8800189292	8800209048	19756	843.42	476.18	632.94	473.78	1.07	212.84	1.00	54.28	5290.79	-5147.00	3499.47
Saccade R	1	2	8800189292	8800209048	19756	843.42	476.18	632.94	473.78	1.07	212.84	1.00	54.28	5290.79	-5147.00	3499.47
Fixation L	1	3	8800209048	8800388018	178970	618.07	467.18	71	25	-1	12.91	12.91
Fixation R	1	3	8800209048	8800388018	178970	618.07	467.18	71	25	-1	11.10	11.10
Saccade L	1	3	8800388018	8800407900	19882	561.83	449.16	391.39	379.17	1.43	186.32	1.00	71.79	4523.17	-3921.11	3084.32
Saccade R	1	3	8800388018	8800407900	19882	561.83	449.16	391.39	379.17	1.43	186.32	1.00	71.79	4523.17	-3921.11	3084.32
Fixation L	1	4	8800407900	8800606876	198976	384.33	359.31	39	47	-1	11.66	11.66
Fixation R	1	4	8800407900	8800606876	198976	384.33	359.31	39	47	-1	10.10	10.10
Saccade L	1	4	8800606876	8800626755	19879	400.71	335.44	402.39	322.22	0.25	18.09	0.00	12.42	174.34	-192.94	176.35
Saccade R	1	4	8800606876	8800626755	19879	400.71	335.44	402.39	322.22	0.25	18.09	0.00	12.42	174.34	-192.94	176.35
Fixation L	1	5	8800626755	8800865373	238618	390.06	299.09	27	42	-1	11.07	11.07
Fixation R	1	5	8800626755	8800865373	238618	390.06	299.09	27	42	-1	9.57	9.57
Saccade L	1	5	8800865373	8800885235	19862	375.06	322.02	373.26	389.15	0.62	67.93	1.00	31.25	1565.14	-1179.08	921.22
Saccade R	1	5	8800865373	8800885235	19862	375.06	322.02	373.26	389.15	0.62	67.93	1.00	31.25	1565.14	-1179.08	921.22
Fixation L	1	6	8800885235	8801183614	298379	395.73	433.77	34	58	-1	11.34	11.34
Fixation R	1	6	8800885235	8801183614	298379	395.73	433.77	34	58	-1	10.26	10.26
Saccade L	1	6	8801183614	8801322840	139226	406.49	448.11	507.29	598.64	3.63	118.79	1.00	26.08	2788.34	-2765.85	1110.33
Saccade R	1	6	8801183614	8801322840	139226	406.49	448.11	507.29	598.64	3.63	118.79	1.00	26.08	2788.34	-2765.85	1110.33
Fixation L	1	7	8801322840	8801481960	159120	513.12	575.69	10	34	-1	11.29	11.29
Fixation R	1	7	8801322840	8801481960	159120	513.12	575.69	10	34	-1	10.24	10.24
Saccade L	1	7	8801481960	8801501844	19884	512.76	567.89	310.26	591.12	1.11	206.10	1.00	56.05	5086.73	-4782.06	3323.77
Saccade R	1	7	8801481960	8801501844	19884	512.76	567.89	310.26	591.12	1.11	206.10	1.00	56.05	5086.73	-4782.06	3323.77
Fixation L	1	8	8801501844	8801879817	377973	286.07	625.36	31	61	-1	11.70	11.70
Fixation R	1	8	8801501844	8801879817	377973	286.07	625.36	31	61	-1	10.83	10.83
Saccade L	1	8	8801879817	8801919560	39743	291.19	644.11	870.65	663.92	4.99	400.07	0.50	125.61	9811.05	-9351.13	6938.72
Saccade R	1	8	8801879817	8801919560	39743	291.19	644.11	870.65	663.92	4.99	400.07	0.50	125.61	9811.05	-9351.13	6938.72
Fixation L	1	9	8801919560	8802456658	537098	899.73	696.92	32	43	-1	12.40	12.40
Fixation R	1	9	8801919560	8802456658	537098	899.73	696.92	32	43	-1	11.08	11.08
Saccade L	1	9	8802456658	8802476550	19892	899.73	704.50	1034.30	704.82	0.85	136.11	1.00	42.55	3248.34	-3168.91	2317.94
Saccade R	1	9	8802456658	8802476550	19892	899.73	704.50	1034.30	704.82	0.85	136.11	1.00	42.55	3248.34	-3168.91	2317.94
Fixation L	1	10	8802476550	8802834519	357969	1071.00	703.38	45	10	-1	12.26	12.26
Fixation R	1	10	8802476550	8802834519	357969	1071.00	703.38	45	10	-1	10.67	10.67
Saccade L	1	10	8802834519	8802854401	19882	1046.03	698.98	863.98	649.44	1.30	190.79	1.00	65.24	4704.85	-4633.86	3119.10
Saccade R	1	10	8802834519	8802854401	19882	1046.03	698.98	863.98	649.44	1.30	190.79	1.00	65.24	4704.85	-4633.86	3119.10
Fixation L	1	11	8802854401	8803053261	198860	861.88	618.42	7	37	-1	12.64	12.64
Fixation R	1	11	8802854401	8803053261	198860	861.88	618.42	7	37	-1	10.45	10.45
Saccade L	1	11	8803053261	8803093129	39868	863.81	612.28	1216.93	695.54	3.04	264.12	1.00	76.30	6589.98	-6392.60	4524.13
Saccade R	1	11	8803053261	8803093129	39868	863.81	612.28	1216.93	695.54	3.04	264.12	1.00	76.30	6589.98	-6392.60	4524.13
Fixation L	1	12	8803093129	8803470992	377863	1221.45	703.90	11	22	-1	12.77	12.77
Fixation R	1	12	8803093129	8803470992	377863	1221.45	703.90	11	22	-1	10.62	10.62
