[BeGaze]
Converted from:	C:\Documents and Settings\iViewX\Desktop\EXPERIMENTATIONS\Experiments\results\finaleart\S1022551-finaleart-1.idf
Date:	27.03.2019 15:38:02
Version:	BeGaze 2.5.77
Sample Rate:	50
Subject:	S1022551
Description:	Alexis Nebout

Table Header for Fixations:
Event Type	Trial	Number	Start	End	Duration	Location X	Location Y	Dispersion X	Dispersion Y	Plane	Avg. Pupil Size X	Avg. Pupil Size Y

Table Header for Saccades:
Event Type	Trial	Number	Start	End	Duration	Start Loc.X	Start Loc.Y	End Loc.X	End Loc.Y	Amplitude	Peak Speed	Peak Speed At	Average Speed	Peak Accel.	Peak Decel.	Average Accel.

Table Header for Blinks:
Event Type	Trial	Number	Start	End	Duration

Table Header for User Events:
Event Type	Trial	Number	Start	Description

UserEvent	1	1	8403414674	# Message: void.jpg
Fixation L	1	1	8403426793	8404003477	576684	718.98	94.89	19	34	-1	15.72	15.72
Fixation R	1	1	8403426793	8404003477	576684	718.98	94.89	19	34	-1	13.95	13.95
Saccade L	1	1	8404003477	8404083093	79616	722.45	120.16	693.91	786.13	8.51	241.72	0.50	106.86	5739.12	-4462.45	3499.77
Saccade R	1	1	8404003477	8404083093	79616	722.45	120.16	693.91	786.13	8.51	241.72	0.50	106.86	5739.12	-4462.45	3499.77
Fixation L	1	2	8404083093	8404182525	99432	692.22	830.77	7	59	-1	16.95	16.95
Fixation R	1	2	8404083093	8404182525	99432	692.22	830.77	7	59	-1	15.05	15.05
Saccade L	1	2	8404182525	8404242227	59702	690.85	845.19	875.05	687.62	3.75	133.85	1.00	62.79	3195.04	-2906.56	2669.54
Saccade R	1	2	8404182525	8404242227	59702	690.85	845.19	875.05	687.62	3.75	133.85	1.00	62.79	3195.04	-2906.56	2669.54
Fixation L	1	3	8404242227	8404401344	159117	878.20	651.19	6	55	-1	15.96	15.96
Fixation R	1	3	8404242227	8404401344	159117	878.20	651.19	6	55	-1	14.12	14.12
Saccade L	1	3	8404401344	8404421206	19862	880.24	631.89	891.69	541.59	0.54	92.07	1.00	27.26	2019.11	-2003.29	1364.49
Saccade R	1	3	8404401344	8404421206	19862	880.24	631.89	891.69	541.59	0.54	92.07	1.00	27.26	2019.11	-2003.29	1364.49
Fixation L	1	4	8404421206	8405216796	795590	909.50	531.41	24	19	-1	15.98	15.98
Fixation R	1	4	8404421206	8405216796	795590	909.50	531.41	24	19	-1	13.62	13.62
Blink L	1	1	8405216796	8405356029	139233
Blink R	1	1	8405216796	8405356029	139233
Fixation L	1	5	8405356029	8405455406	99377	931.69	503.07	22	18	-1	14.53	14.53
Fixation R	1	5	8405356029	8405455406	99377	931.69	503.07	22	18	-1	12.71	12.71
