[BeGaze]
Converted from:	C:\Documents and Settings\iViewX\Desktop\EXPERIMENTATIONS\Experiments\results\finaleart\S1022551-finaleart-1.idf
Date:	27.03.2019 15:37:53
Version:	BeGaze 2.5.77
Sample Rate:	50
Subject:	S1022551
Description:	Alexis Nebout

Table Header for Fixations:
Event Type	Trial	Number	Start	End	Duration	Location X	Location Y	Dispersion X	Dispersion Y	Plane	Avg. Pupil Size X	Avg. Pupil Size Y

Table Header for Saccades:
Event Type	Trial	Number	Start	End	Duration	Start Loc.X	Start Loc.Y	End Loc.X	End Loc.Y	Amplitude	Peak Speed	Peak Speed At	Average Speed	Peak Accel.	Peak Decel.	Average Accel.

Table Header for Blinks:
Event Type	Trial	Number	Start	End	Duration

Table Header for User Events:
Event Type	Trial	Number	Start	Description

UserEvent	1	1	8156629957	# Message: void.jpg
Fixation L	1	1	8156644946	8156744317	99371	1456.62	419.90	2	3	-1	10.38	10.38
Fixation R	1	1	8156644946	8156744317	99371	1456.62	419.90	2	3	-1	9.48	9.48
Saccade L	1	1	8156744317	8156868312	123995	1455.37	421.58	652.72	416.18	20.96	425.76	0.16	169.06	10599.14	-9856.76	9864.25
Saccade R	1	1	8156744317	8156868312	123995	1455.37	421.58	652.72	416.18	20.96	425.76	0.16	169.06	10599.14	-9856.76	9864.25
Fixation L	1	2	8156868312	8157301274	432962	616.32	405.24	49	17	-1	10.03	10.03
Fixation R	1	2	8156868312	8157301274	432962	616.32	405.24	49	17	-1	9.17	9.17
Blink L	1	1	8157301274	8157480274	179000
Blink R	1	1	8157301274	8157480274	179000
Fixation L	1	3	8157480274	8157858246	377972	804.27	584.79	29	29	-1	12.49	12.49
Fixation R	1	3	8157480274	8157858246	377972	804.27	584.79	29	29	-1	11.17	11.17
Saccade L	1	2	8157858246	8157878142	19896	815.77	595.38	981.19	595.16	1.03	167.30	1.00	51.89	4158.63	-4124.13	3068.12
Saccade R	1	2	8157858246	8157878142	19896	815.77	595.38	981.19	595.16	1.03	167.30	1.00	51.89	4158.63	-4124.13	3068.12
Fixation L	1	4	8157878142	8158096874	218732	1020.78	603.34	46	16	-1	13.91	13.91
Fixation R	1	4	8157878142	8158096874	218732	1020.78	603.34	46	16	-1	12.13	12.13
Blink L	1	2	8158096874	8158236111	139237
Blink R	1	2	8158096874	8158236111	139237
Fixation L	1	5	8158236111	8158673707	437596	992.98	561.55	20	22	-1	14.03	14.03
Fixation R	1	5	8158236111	8158673707	437596	992.98	561.55	20	22	-1	12.11	12.11
