[BeGaze]
Converted from:	C:\Documents and Settings\iViewX\Desktop\EXPERIMENTATIONS\Experiments\results\finaleart\S1022551-finaleart-1.idf
Date:	27.03.2019 15:37:31
Version:	BeGaze 2.5.77
Sample Rate:	50
Subject:	S1022551
Description:	Alexis Nebout

Table Header for Fixations:
Event Type	Trial	Number	Start	End	Duration	Location X	Location Y	Dispersion X	Dispersion Y	Plane	Avg. Pupil Size X	Avg. Pupil Size Y

Table Header for Saccades:
Event Type	Trial	Number	Start	End	Duration	Start Loc.X	Start Loc.Y	End Loc.X	End Loc.Y	Amplitude	Peak Speed	Peak Speed At	Average Speed	Peak Accel.	Peak Decel.	Average Accel.

Table Header for Blinks:
Event Type	Trial	Number	Start	End	Duration

Table Header for User Events:
Event Type	Trial	Number	Start	Description

UserEvent	1	1	7637451323	# Message: courbet-the-bathers-1858.jpg
Fixation L	1	1	7637469536	7637688294	218758	841.60	375.60	17	12	-1	14.58	14.58
Fixation R	1	1	7637469536	7637688294	218758	841.60	375.60	17	12	-1	13.53	13.53
Blink L	1	1	7637688294	7637827531	139237
Blink R	1	1	7637688294	7637827531	139237
Fixation L	1	2	7637827531	7638205494	377963	832.33	419.64	22	46	-1	15.72	15.72
Fixation R	1	2	7637827531	7638205494	377963	832.33	419.64	22	46	-1	14.13	14.13
Saccade L	1	1	7638205494	7638444145	238651	833.46	429.28	549.85	154.57	14.00	313.02	0.75	58.68	7747.22	-7738.84	3053.40
Saccade R	1	1	7638205494	7638444145	238651	833.46	429.28	549.85	154.57	14.00	313.02	0.75	58.68	7747.22	-7738.84	3053.40
Fixation L	1	3	7638444145	7639199961	755816	560.72	140.23	19	53	-1	14.11	14.11
Fixation R	1	3	7638444145	7639199961	755816	560.72	140.23	19	53	-1	12.98	12.98
Saccade L	1	2	7639199961	7639378940	178979	552.13	106.14	933.84	-41.69	64.80	937.05	1.00	362.04	23041.43	-22909.06	10051.05
Saccade R	1	2	7639199961	7639378940	178979	552.13	106.14	933.84	-41.69	64.80	937.05	1.00	362.04	23041.43	-22909.06	10051.05
Fixation L	1	4	7639378940	7639557934	178994	934.89	-50.31	17	77	-1	14.74	14.74
Fixation R	1	4	7639378940	7639557934	178994	934.89	-50.31	17	77	-1	13.70	13.70
Saccade L	1	3	7639557934	7639876177	318243	931.72	-55.01	862.87	85.45	94.73	934.54	0.06	297.67	23227.58	-23249.01	12798.70
Saccade R	1	3	7639557934	7639876177	318243	931.72	-55.01	862.87	85.45	94.73	934.54	0.06	297.67	23227.58	-23249.01	12798.70
Fixation L	1	5	7639876177	7640114909	238732	844.67	126.35	30	68	-1	15.80	15.80
Fixation R	1	5	7639876177	7640114909	238732	844.67	126.35	30	68	-1	14.68	14.68
Saccade L	1	4	7640114909	7640174529	59620	832.12	153.91	728.74	297.21	2.34	159.64	1.00	39.27	3655.91	-3837.33	1688.94
Saccade R	1	4	7640114909	7640174529	59620	832.12	153.91	728.74	297.21	2.34	159.64	1.00	39.27	3655.91	-3837.33	1688.94
Fixation L	1	6	7640174529	7640651883	477354	739.08	313.03	32	30	-1	16.57	16.57
Fixation R	1	6	7640174529	7640651883	477354	739.08	313.03	32	30	-1	15.68	15.68
Saccade L	1	5	7640651883	7640671748	19865	726.60	324.16	730.70	448.76	0.87	126.11	1.00	43.72	3084.70	-2593.86	2238.05
Saccade R	1	5	7640651883	7640671748	19865	726.60	324.16	730.70	448.76	0.87	126.11	1.00	43.72	3084.70	-2593.86	2238.05
Fixation L	1	7	7640671748	7641129242	457494	740.33	505.52	14	66	-1	16.32	16.32
Fixation R	1	7	7640671748	7641129242	457494	740.33	505.52	14	66	-1	15.44	15.44
Saccade L	1	6	7641129242	7641149109	19867	735.93	510.40	511.15	673.27	1.65	280.58	1.00	83.00	6976.80	-6357.06	4723.91
Saccade R	1	6	7641129242	7641149109	19867	735.93	510.40	511.15	673.27	1.65	280.58	1.00	83.00	6976.80	-6357.06	4723.91
Fixation L	1	8	7641149109	7641447467	298358	508.99	638.28	9	48	-1	15.53	15.53
Fixation R	1	8	7641149109	7641447467	298358	508.99	638.28	9	48	-1	14.68	14.68
