[BeGaze]
Converted from:	C:\Documents and Settings\iViewX\Desktop\EXPERIMENTATIONS\Experiments\results\finaleart\S1022551-finaleart-1.idf
Date:	27.03.2019 15:37:50
Version:	BeGaze 2.5.77
Sample Rate:	50
Subject:	S1022551
Description:	Alexis Nebout

Table Header for Fixations:
Event Type	Trial	Number	Start	End	Duration	Location X	Location Y	Dispersion X	Dispersion Y	Plane	Avg. Pupil Size X	Avg. Pupil Size Y

Table Header for Saccades:
Event Type	Trial	Number	Start	End	Duration	Start Loc.X	Start Loc.Y	End Loc.X	End Loc.Y	Amplitude	Peak Speed	Peak Speed At	Average Speed	Peak Accel.	Peak Decel.	Average Accel.

Table Header for Blinks:
Event Type	Trial	Number	Start	End	Duration

Table Header for User Events:
Event Type	Trial	Number	Start	Description

UserEvent	1	1	7992093590	# Message: void.jpg
Fixation L	1	1	7992094476	7992313212	218736	1149.80	326.35	4	13	-1	13.00	13.00
Fixation R	1	1	7992094476	7992313212	218736	1149.80	326.35	4	13	-1	11.26	11.26
Saccade L	1	1	7992313212	7992352930	39718	1152.97	316.90	1157.33	129.41	2.28	189.65	1.00	57.34	4712.90	-4651.84	3204.82
Saccade R	1	1	7992313212	7992352930	39718	1152.97	316.90	1157.33	129.41	2.28	189.65	1.00	57.34	4712.90	-4651.84	3204.82
Fixation L	1	2	7992352930	7992870149	517219	1181.60	119.67	30	29	-1	13.09	13.09
Fixation R	1	2	7992352930	7992870149	517219	1181.60	119.67	30	29	-1	11.20	11.20
Saccade L	1	2	7992870149	7992909907	39758	1183.37	133.52	1076.18	343.04	2.08	125.96	0.50	52.25	3087.71	-2878.86	2902.34
Saccade R	1	2	7992870149	7992909907	39758	1183.37	133.52	1076.18	343.04	2.08	125.96	0.50	52.25	3087.71	-2878.86	2902.34
Fixation L	1	3	7992909907	7993088884	178977	1067.40	339.96	11	23	-1	12.97	12.97
Fixation R	1	3	7992909907	7993088884	178977	1067.40	339.96	11	23	-1	11.21	11.21
Blink L	1	1	7993088884	7993347503	258619
Blink R	1	1	7993088884	7993347503	258619
Fixation L	1	4	7993347503	7993824851	477348	927.71	574.86	37	41	-1	13.90	13.90
Fixation R	1	4	7993347503	7993824851	477348	927.71	574.86	37	41	-1	12.18	12.18
Saccade L	1	3	7993824851	7993844721	19870	906.88	598.45	847.66	595.29	0.46	60.00	1.00	23.23	1411.18	-1471.71	1050.43
Saccade R	1	3	7993824851	7993844721	19870	906.88	598.45	847.66	595.29	0.46	60.00	1.00	23.23	1411.18	-1471.71	1050.43
Fixation L	1	5	7993844721	7994083337	238616	832.20	588.73	22	16	-1	13.61	13.61
Fixation R	1	5	7993844721	7994083337	238616	832.20	588.73	22	16	-1	11.90	11.90
