[BeGaze]
Converted from:	C:\Documents and Settings\iViewX\Desktop\EXPERIMENTATIONS\Experiments\results\finaleart\S1022551-finaleart-1.idf
Date:	27.03.2019 15:37:55
Version:	BeGaze 2.5.77
Sample Rate:	50
Subject:	S1022551
Description:	Alexis Nebout

Table Header for Fixations:
Event Type	Trial	Number	Start	End	Duration	Location X	Location Y	Dispersion X	Dispersion Y	Plane	Avg. Pupil Size X	Avg. Pupil Size Y

Table Header for Saccades:
Event Type	Trial	Number	Start	End	Duration	Start Loc.X	Start Loc.Y	End Loc.X	End Loc.Y	Amplitude	Peak Speed	Peak Speed At	Average Speed	Peak Accel.	Peak Decel.	Average Accel.

Table Header for Blinks:
Event Type	Trial	Number	Start	End	Duration

Table Header for User Events:
Event Type	Trial	Number	Start	Description

UserEvent	1	1	8195777022	# Message: Georges-braque-still-life-with-jugs-and-pipe-1906.jpg
Saccade L	1	1	8195788441	8195868072	79631	1046.86	547.33	938.50	543.90	1.85	103.27	1.00	23.25	2502.62	-2218.23	880.86
Saccade R	1	1	8195788441	8195868072	79631	1046.86	547.33	938.50	543.90	1.85	103.27	1.00	23.25	2502.62	-2218.23	880.86
Fixation L	1	1	8195868072	8196345439	477367	962.22	547.35	61	37	-1	14.33	14.33
Fixation R	1	1	8195868072	8196345439	477367	962.22	547.35	61	37	-1	11.70	11.70
Saccade L	1	2	8196345439	8196365294	19855	998.60	570.37	998.95	574.20	0.09	7.17	1.00	4.77	-17.37	-81.93	60.00
Saccade R	1	2	8196345439	8196365294	19855	998.60	570.37	998.95	574.20	0.09	7.17	1.00	4.77	-17.37	-81.93	60.00
Fixation L	1	2	8196365294	8196757000	391706	997.64	582.54	5	14	-1	13.96	13.96
Fixation R	1	2	8196365294	8196757000	391706	997.64	582.54	5	14	-1	11.54	11.54
Saccade L	1	3	8196757000	8196783033	26033	995.09	586.75	884.73	526.04	0.97	127.40	1.00	37.22	3167.77	-2900.24	2175.37
Saccade R	1	3	8196757000	8196783033	26033	995.09	586.75	884.73	526.04	0.97	127.40	1.00	37.22	3167.77	-2900.24	2175.37
Fixation L	1	3	8196783033	8196981893	198860	885.09	495.98	4	38	-1	11.63	11.63
Fixation R	1	3	8196783033	8196981893	198860	885.09	495.98	4	38	-1	9.70	9.70
Saccade L	1	4	8196981893	8197001746	19853	883.32	491.08	779.43	491.27	0.76	105.08	1.00	38.05	2563.00	-2324.43	1965.12
Saccade R	1	4	8196981893	8197001746	19853	883.32	491.08	779.43	491.27	0.76	105.08	1.00	38.05	2563.00	-2324.43	1965.12
Fixation L	1	4	8197001746	8197538860	537114	729.77	503.22	55	30	-1	11.15	11.15
Fixation R	1	4	8197001746	8197538860	537114	729.77	503.22	55	30	-1	9.43	9.43
Saccade L	1	5	8197538860	8197578607	39747	724.29	507.11	672.60	416.48	0.89	74.55	1.00	22.27	1780.73	-1704.64	1244.62
Saccade R	1	5	8197538860	8197578607	39747	724.29	507.11	672.60	416.48	0.89	74.55	1.00	22.27	1780.73	-1704.64	1244.62
Fixation L	1	5	8197578607	8198036077	457470	664.01	406.96	13	26	-1	10.65	10.65
Fixation R	1	5	8197578607	8198036077	457470	664.01	406.96	13	26	-1	9.29	9.29
Saccade L	1	6	8198036077	8198095704	59627	659.71	397.94	940.55	484.61	3.75	223.10	1.00	62.89	5524.21	-5444.03	3651.07
Saccade R	1	6	8198036077	8198095704	59627	659.71	397.94	940.55	484.61	3.75	223.10	1.00	62.89	5524.21	-5444.03	3651.07
Fixation L	1	6	8198095704	8198314564	218860	939.07	480.93	4	20	-1	10.39	10.39
Fixation R	1	6	8198095704	8198314564	218860	939.07	480.93	4	20	-1	9.26	9.26
Saccade L	1	7	8198314564	8198334446	19882	940.33	475.51	1055.17	476.73	0.64	116.16	1.00	32.04	2831.23	-2785.55	1908.09
Saccade R	1	7	8198314564	8198334446	19882	940.33	475.51	1055.17	476.73	0.64	116.16	1.00	32.04	2831.23	-2785.55	1908.09
Fixation L	1	7	8198334446	8198752180	417734	1068.82	486.38	17	15	-1	10.39	10.39
Fixation R	1	7	8198334446	8198752180	417734	1068.82	486.38	17	15	-1	9.08	9.08
Saccade L	1	8	8198752180	8198791915	39735	1071.49	491.95	953.19	313.44	1.81	136.41	0.50	45.54	3397.07	-3236.56	2643.21
Saccade R	1	8	8198752180	8198791915	39735	1071.49	491.95	953.19	313.44	1.81	136.41	0.50	45.54	3397.07	-3236.56	2643.21
Fixation L	1	8	8198791915	8198970910	178995	941.95	325.47	16	33	-1	11.03	11.03
Fixation R	1	8	8198791915	8198970910	178995	941.95	325.47	16	33	-1	9.56	9.56
Saccade L	1	9	8198970910	8199010656	39746	936.53	347.02	1115.14	604.02	2.89	203.82	0.50	72.81	5060.66	-4752.12	3959.79
Saccade R	1	9	8198970910	8199010656	39746	936.53	347.02	1115.14	604.02	2.89	203.82	0.50	72.81	5060.66	-4752.12	3959.79
Fixation L	1	9	8199010656	8199209530	198874	1130.35	599.75	49	15	-1	11.75	11.75
Fixation R	1	9	8199010656	8199209530	198874	1130.35	599.75	49	15	-1	9.79	9.79
Saccade L	1	10	8199209530	8199229521	19991	1164.65	606.28	1342.03	644.43	1.13	183.48	1.00	56.78	4487.74	-4239.01	3076.11
Saccade R	1	10	8199209530	8199229521	19991	1164.65	606.28	1342.03	644.43	1.13	183.48	1.00	56.78	4487.74	-4239.01	3076.11
Fixation L	1	10	8199229521	8199766495	536974	1338.67	675.61	10	36	-1	11.84	11.84
Fixation R	1	10	8199229521	8199766495	536974	1338.67	675.61	10	36	-1	9.79	9.79
