[BeGaze]
Converted from:	C:\Documents and Settings\iViewX\Desktop\EXPERIMENTATIONS\Experiments\results\finaleart\S1022551-finaleart-1.idf
Date:	27.03.2019 15:38:30
Version:	BeGaze 2.5.77
Sample Rate:	50
Subject:	S1022551
Description:	Alexis Nebout

Table Header for Fixations:
Event Type	Trial	Number	Start	End	Duration	Location X	Location Y	Dispersion X	Dispersion Y	Plane	Avg. Pupil Size X	Avg. Pupil Size Y

Table Header for Saccades:
Event Type	Trial	Number	Start	End	Duration	Start Loc.X	Start Loc.Y	End Loc.X	End Loc.Y	Amplitude	Peak Speed	Peak Speed At	Average Speed	Peak Accel.	Peak Decel.	Average Accel.

Table Header for Blinks:
Event Type	Trial	Number	Start	End	Duration

Table Header for User Events:
Event Type	Trial	Number	Start	Description

UserEvent	1	1	9024664348	# Message: stilleven-met-vis_dubois-pillet_1885.jpg
Fixation L	1	1	9024675922	9025598064	922142	964.54	486.19	56	30	-1	9.66	9.66
Fixation R	1	1	9024675922	9025598064	922142	964.54	486.19	56	30	-1	9.45	9.45
Saccade L	1	1	9025598064	9025630747	32683	923.12	497.50	775.42	494.42	1.60	149.42	1.00	49.10	3695.06	-3703.62	2839.03
Saccade R	1	1	9025598064	9025630747	32683	923.12	497.50	775.42	494.42	1.60	149.42	1.00	49.10	3695.06	-3703.62	2839.03
Fixation L	1	2	9025630747	9025730116	99369	779.00	495.18	19	4	-1	9.25	9.25
Fixation R	1	2	9025630747	9025730116	99369	779.00	495.18	19	4	-1	9.16	9.16
Saccade L	1	2	9025730116	9025749986	19870	793.90	498.10	940.87	628.01	1.20	198.36	1.00	60.21	4898.14	-4653.09	3184.45
Saccade R	1	2	9025730116	9025749986	19870	793.90	498.10	940.87	628.01	1.20	198.36	1.00	60.21	4898.14	-4653.09	3184.45
Fixation L	1	3	9025749986	9025988724	238738	923.50	653.69	20	33	-1	8.72	8.72
Fixation R	1	3	9025749986	9025988724	238738	923.50	653.69	20	33	-1	8.90	8.90
Saccade L	1	3	9025988724	9026028471	39747	922.90	655.28	1135.91	676.81	1.89	127.02	0.50	47.48	3104.32	-2844.41	2530.98
Saccade R	1	3	9025988724	9026028471	39747	922.90	655.28	1135.91	676.81	1.89	127.02	0.50	47.48	3104.32	-2844.41	2530.98
Fixation L	1	4	9026028471	9026366599	338128	1133.04	704.20	11	41	-1	9.09	9.09
Fixation R	1	4	9026028471	9026366599	338128	1133.04	704.20	11	41	-1	8.89	8.89
Saccade L	1	4	9026366599	9026386456	19857	1130.09	718.17	1267.74	716.80	0.85	139.23	1.00	42.56	3457.52	-3004.27	2261.51
Saccade R	1	4	9026366599	9026386456	19857	1130.09	718.17	1267.74	716.80	0.85	139.23	1.00	42.56	3457.52	-3004.27	2261.51
Fixation L	1	5	9026386456	9026843937	457481	1294.38	732.84	60	30	-1	9.06	9.06
Fixation R	1	5	9026386456	9026843937	457481	1294.38	732.84	60	30	-1	8.88	8.88
Saccade L	1	5	9026843937	9026883800	39863	1255.90	734.96	889.10	541.12	3.77	294.92	0.50	94.49	7314.25	-7087.95	4852.67
Saccade R	1	5	9026843937	9026883800	39863	1255.90	734.96	889.10	541.12	3.77	294.92	0.50	94.49	7314.25	-7087.95	4852.67
Fixation L	1	6	9026883800	9027022920	139120	906.40	547.74	24	14	-1	9.47	9.47
Fixation R	1	6	9026883800	9027022920	139120	906.40	547.74	24	14	-1	9.42	9.42
Saccade L	1	6	9027022920	9027062801	39881	910.95	555.80	622.95	561.94	2.45	193.60	1.00	61.53	4614.38	-4709.68	3507.58
Saccade R	1	6	9027022920	9027062801	39881	910.95	555.80	622.95	561.94	2.45	193.60	1.00	61.53	4614.38	-4709.68	3507.58
Fixation L	1	7	9027062801	9027480395	417594	619.71	572.48	13	29	-1	9.71	9.71
Fixation R	1	7	9027062801	9027480395	417594	619.71	572.48	13	29	-1	9.89	9.89
Saccade L	1	7	9027480395	9027520283	39888	618.84	564.94	523.57	339.86	2.03	139.90	1.00	50.87	3427.52	-3238.02	3001.58
Saccade R	1	7	9027480395	9027520283	39888	618.84	564.94	523.57	339.86	2.03	139.90	1.00	50.87	3427.52	-3238.02	3001.58
Fixation L	1	8	9027520283	9027818653	298370	530.38	346.95	42	19	-1	10.07	10.07
Fixation R	1	8	9027520283	9027818653	298370	530.38	346.95	42	19	-1	10.06	10.06
Saccade L	1	8	9027818653	9027838509	19856	563.84	351.97	683.21	263.05	0.98	150.54	1.00	49.21	3692.41	-3611.44	2740.22
Saccade R	1	8	9027818653	9027838509	19856	563.84	351.97	683.21	263.05	0.98	150.54	1.00	49.21	3692.41	-3611.44	2740.22
Fixation L	1	9	9027838509	9028136875	298366	686.83	260.50	7	9	-1	10.14	10.14
Fixation R	1	9	9027838509	9028136875	298366	686.83	260.50	7	9	-1	10.25	10.25
Saccade L	1	9	9028136875	9028196495	59620	686.32	264.79	1196.24	115.98	5.50	325.02	0.67	92.33	8093.99	-7876.86	4444.21
Saccade R	1	9	9028136875	9028196495	59620	686.32	264.79	1196.24	115.98	5.50	325.02	0.67	92.33	8093.99	-7876.86	4444.21
Fixation L	1	10	9028196495	9028614220	417725	1200.17	105.63	12	27	-1	9.72	9.72
Fixation R	1	10	9028196495	9028614220	417725	1200.17	105.63	12	27	-1	9.30	9.30
Saccade L	1	10	9028614220	9028653971	39751	1201.11	88.92	1448.30	-2.44	2.76	164.81	0.50	69.46	4088.79	0.00	2284.39
Saccade R	1	10	9028614220	9028653971	39751	1201.11	88.92	1448.30	-2.44	2.76	164.81	0.50	69.46	4088.79	0.00	2284.39
