[BeGaze]
Converted from:	C:\Documents and Settings\iViewX\Desktop\EXPERIMENTATIONS\Experiments\results\finaleart\S1022551-finaleart-1.idf
Date:	27.03.2019 15:38:03
Version:	BeGaze 2.5.77
Sample Rate:	50
Subject:	S1022551
Description:	Alexis Nebout

Table Header for Fixations:
Event Type	Trial	Number	Start	End	Duration	Location X	Location Y	Dispersion X	Dispersion Y	Plane	Avg. Pupil Size X	Avg. Pupil Size Y

Table Header for Saccades:
Event Type	Trial	Number	Start	End	Duration	Start Loc.X	Start Loc.Y	End Loc.X	End Loc.Y	Amplitude	Peak Speed	Peak Speed At	Average Speed	Peak Accel.	Peak Decel.	Average Accel.

Table Header for Blinks:
Event Type	Trial	Number	Start	End	Duration

Table Header for User Events:
Event Type	Trial	Number	Start	Description

UserEvent	1	1	8415756597	# Message: void.jpg
Fixation L	1	1	8415758550	8415945276	186726	581.24	825.46	21	9	-1	9.76	9.76
Fixation R	1	1	8415758550	8415945276	186726	581.24	825.46	21	9	-1	10.65	10.65
Saccade L	1	1	8415945276	8415977301	32025	586.41	819.61	440.23	856.36	1.59	152.44	1.00	49.75	3572.08	-3670.35	2583.18
Saccade R	1	1	8415945276	8415977301	32025	586.41	819.61	440.23	856.36	1.59	152.44	1.00	49.75	3572.08	-3670.35	2583.18
Fixation L	1	2	8415977301	8416166376	189075	437.47	886.93	7	45	-1	9.94	9.94
Fixation R	1	2	8415977301	8416166376	189075	437.47	886.93	7	45	-1	10.89	10.89
Saccade L	1	2	8416166376	8416251210	84834	439.13	901.58	1003.50	741.26	10.39	446.86	0.50	122.43	11043.86	-10955.73	7294.64
Saccade R	1	2	8416166376	8416251210	84834	439.13	901.58	1003.50	741.26	10.39	446.86	0.50	122.43	11043.86	-10955.73	7294.64
Fixation L	1	3	8416251210	8416593887	342677	1006.24	716.57	10	33	-1	10.05	10.05
Fixation R	1	3	8416251210	8416593887	342677	1006.24	716.57	10	33	-1	10.60	10.60
Blink L	1	1	8416593887	8416941519	347632
Blink R	1	1	8416593887	8416941519	347632
Fixation L	1	4	8416941519	8417667956	726437	1024.18	509.64	16	21	-1	12.90	12.90
Fixation R	1	4	8416941519	8417667956	726437	1024.18	509.64	16	21	-1	11.51	11.51
Saccade L	1	3	8417667956	8417687816	19860	1024.98	514.57	965.52	449.65	0.55	89.05	1.00	27.69	2211.56	-2194.88	1565.17
Saccade R	1	3	8417667956	8417687816	19860	1024.98	514.57	965.52	449.65	0.55	89.05	1.00	27.69	2211.56	-2194.88	1565.17
Fixation L	1	5	8417687816	8417807185	119369	951.42	460.01	19	20	-1	12.34	12.34
Fixation R	1	5	8417687816	8417807185	119369	951.42	460.01	19	20	-1	11.33	11.33
