[BeGaze]
Converted from:	C:\Documents and Settings\iViewX\Desktop\EXPERIMENTATIONS\Experiments\results\finaleart\S1022551-finaleart-1.idf
Date:	27.03.2019 15:38:13
Version:	BeGaze 2.5.77
Sample Rate:	50
Subject:	S1022551
Description:	Alexis Nebout

Table Header for Fixations:
Event Type	Trial	Number	Start	End	Duration	Location X	Location Y	Dispersion X	Dispersion Y	Plane	Avg. Pupil Size X	Avg. Pupil Size Y

Table Header for Saccades:
Event Type	Trial	Number	Start	End	Duration	Start Loc.X	Start Loc.Y	End Loc.X	End Loc.Y	Amplitude	Peak Speed	Peak Speed At	Average Speed	Peak Accel.	Peak Decel.	Average Accel.

Table Header for Blinks:
Event Type	Trial	Number	Start	End	Duration

Table Header for User Events:
Event Type	Trial	Number	Start	Description

UserEvent	1	1	8694601723	# Message: Les_Bords_De_Seine_A_Neuilly_Dubois_Pillet_1886.jpg
Fixation L	1	1	8694610583	8695247043	636460	870.66	373.79	12	72	-1	13.35	13.35
Fixation R	1	1	8694610583	8695247043	636460	870.66	373.79	12	72	-1	11.13	11.13
Saccade L	1	1	8695247043	8695266913	19870	867.05	414.99	947.74	564.23	0.97	171.58	1.00	48.81	4252.54	-4151.26	2947.50
Saccade R	1	1	8695247043	8695266913	19870	867.05	414.99	947.74	564.23	0.97	171.58	1.00	48.81	4252.54	-4151.26	2947.50
Fixation L	1	2	8695266913	8695485667	218754	974.68	568.80	39	19	-1	12.96	12.96
Fixation R	1	2	8695266913	8695485667	218754	974.68	568.80	39	19	-1	10.72	10.72
Saccade L	1	2	8695485667	8695505536	19869	961.86	581.47	788.99	733.85	1.34	232.99	1.00	67.59	5735.16	-5718.45	4018.45
Saccade R	1	2	8695485667	8695505536	19869	961.86	581.47	788.99	733.85	1.34	232.99	1.00	67.59	5735.16	-5718.45	4018.45
Fixation L	1	3	8695505536	8695744268	238732	803.06	740.46	89	9	-1	10.92	10.92
Fixation R	1	3	8695505536	8695744268	238732	803.06	740.46	89	9	-1	9.28	9.28
Saccade L	1	3	8695744268	8695764154	19886	878.24	741.97	921.62	745.24	0.62	77.59	0.00	31.29	1063.12	-1887.76	1317.62
Saccade R	1	3	8695744268	8695764154	19886	878.24	741.97	921.62	745.24	0.62	77.59	0.00	31.29	1063.12	-1887.76	1317.62
Fixation L	1	4	8695764154	8696181872	417718	927.93	755.82	12	26	-1	10.29	10.29
Fixation R	1	4	8695764154	8696181872	417718	927.93	755.82	12	26	-1	9.31	9.31
Blink L	1	1	8696181872	8696281240	99368
Blink R	1	1	8696181872	8696281240	99368
Saccade L	1	4	8696281240	8696340992	59752	942.75	755.60	947.37	733.06	14.97	554.64	1.00	250.58	13569.37	-13803.62	12529.27
Saccade R	1	4	8696281240	8696340992	59752	942.75	755.60	947.37	733.06	14.97	554.64	1.00	250.58	13569.37	-13803.62	12529.27
Fixation L	1	5	8696340992	8696559727	218735	945.30	723.69	11	21	-1	10.16	10.16
Fixation R	1	5	8696340992	8696559727	218735	945.30	723.69	11	21	-1	10.33	10.33
Saccade L	1	5	8696559727	8696599476	39749	938.51	736.14	501.04	736.36	3.66	328.07	0.50	92.02	8007.98	-8010.56	5405.81
Saccade R	1	5	8696559727	8696599476	39749	938.51	736.14	501.04	736.36	3.66	328.07	0.50	92.02	8007.98	-8010.56	5405.81
Fixation L	1	6	8696599476	8697176324	576848	491.97	742.23	76	19	-1	9.76	9.76
Fixation R	1	6	8696599476	8697176324	576848	491.97	742.23	76	19	-1	10.31	10.31
Saccade L	1	6	8697176324	8697196193	19869	432.12	730.34	429.90	727.06	0.10	5.77	0.00	5.05	-4.67	-29.76	15.88
Saccade R	1	6	8697176324	8697196193	19869	432.12	730.34	429.90	727.06	0.10	5.77	0.00	5.05	-4.67	-29.76	15.88
Fixation L	1	7	8697196193	8697315561	119368	431.28	722.07	4	9	-1	9.24	9.24
Fixation R	1	7	8697196193	8697315561	119368	431.28	722.07	4	9	-1	10.13	10.13
Saccade L	1	7	8697315561	8697335449	19888	431.18	718.51	673.32	725.94	1.30	244.92	1.00	65.40	5996.59	-6033.30	4055.12
Saccade R	1	7	8697315561	8697335449	19888	431.18	718.51	673.32	725.94	1.30	244.92	1.00	65.40	5996.59	-6033.30	4055.12
Fixation L	1	8	8697335449	8697673546	338097	665.97	744.78	12	30	-1	9.35	9.35
Fixation R	1	8	8697335449	8697673546	338097	665.97	744.78	12	30	-1	10.35	10.35
Saccade L	1	8	8697673546	8697713429	39883	671.69	756.12	990.67	754.38	2.74	205.88	1.00	68.67	5074.30	-4903.55	3844.37
Saccade R	1	8	8697673546	8697713429	39883	671.69	756.12	990.67	754.38	2.74	205.88	1.00	68.67	5074.30	-4903.55	3844.37
Fixation L	1	9	8697713429	8697991789	278360	1015.59	760.68	29	13	-1	10.17	10.17
Fixation R	1	9	8697713429	8697991789	278360	1015.59	760.68	29	13	-1	10.55	10.55
Saccade L	1	9	8697991789	8698031659	39870	1018.66	767.88	1331.55	764.43	2.62	213.55	1.00	65.73	5292.34	-5281.71	3865.19
Saccade R	1	9	8697991789	8698031659	39870	1018.66	767.88	1331.55	764.43	2.62	213.55	1.00	65.73	5292.34	-5281.71	3865.19
Fixation L	1	10	8698031659	8698290148	258489	1340.35	749.58	12	25	-1	10.04	10.04
Fixation R	1	10	8698031659	8698290148	258489	1340.35	749.58	12	25	-1	10.41	10.41
Saccade L	1	10	8698290148	8698330018	39870	1339.08	739.07	1577.80	737.96	2.06	155.03	1.00	51.65	3831.45	-3775.89	2888.52
Saccade R	1	10	8698290148	8698330018	39870	1339.08	739.07	1577.80	737.96	2.06	155.03	1.00	51.65	3831.45	-3775.89	2888.52
Fixation L	1	11	8698330018	8698648250	318232	1562.00	753.80	19	28	-1	10.15	10.15
Fixation R	1	11	8698330018	8698648250	318232	1562.00	753.80	19	28	-1	10.19	10.19
