[BeGaze]
Converted from:	C:\Documents and Settings\iViewX\Desktop\EXPERIMENTATIONS\Experiments\results\finaleart\S1022551-finaleart-1.idf
Date:	27.03.2019 15:38:27
Version:	BeGaze 2.5.77
Sample Rate:	50
Subject:	S1022551
Description:	Alexis Nebout

Table Header for Fixations:
Event Type	Trial	Number	Start	End	Duration	Location X	Location Y	Dispersion X	Dispersion Y	Plane	Avg. Pupil Size X	Avg. Pupil Size Y

Table Header for Saccades:
Event Type	Trial	Number	Start	End	Duration	Start Loc.X	Start Loc.Y	End Loc.X	End Loc.Y	Amplitude	Peak Speed	Peak Speed At	Average Speed	Peak Accel.	Peak Decel.	Average Accel.

Table Header for Blinks:
Event Type	Trial	Number	Start	End	Duration

Table Header for User Events:
Event Type	Trial	Number	Start	Description

UserEvent	1	1	8975328589	# Message: A_Highland_Landscape_Landseer_1830.jpg
Fixation L	1	1	8975328782	8975683393	354611	928.00	368.71	2	6	-1	13.64	13.64
Fixation R	1	1	8975328782	8975683393	354611	928.00	368.71	2	6	-1	12.12	12.12
Saccade L	1	1	8975683393	8975706773	23380	926.30	372.84	820.12	365.59	0.69	107.66	1.00	29.38	2657.29	-2533.87	1767.70
Saccade R	1	1	8975683393	8975706773	23380	926.30	372.84	820.12	365.59	0.69	107.66	1.00	29.38	2657.29	-2533.87	1767.70
Fixation L	1	2	8975706773	8975885758	178985	825.73	370.93	10	12	-1	13.55	13.55
Fixation R	1	2	8975706773	8975885758	178985	825.73	370.93	10	12	-1	11.86	11.86
Saccade L	1	2	8975885758	8975905618	19860	830.63	377.60	916.89	384.07	0.61	87.50	1.00	30.95	2058.40	-1972.16	1539.73
Saccade R	1	2	8975885758	8975905618	19860	830.63	377.60	916.89	384.07	0.61	87.50	1.00	30.95	2058.40	-1972.16	1539.73
Fixation L	1	3	8975905618	8976243717	338099	902.21	399.83	20	29	-1	13.82	13.82
Fixation R	1	3	8975905618	8976243717	338099	902.21	399.83	20	29	-1	11.64	11.64
Saccade L	1	3	8976243717	8976263599	19882	904.56	413.62	978.37	531.37	0.86	140.56	1.00	43.40	3309.32	-3301.66	2227.28
Saccade R	1	3	8976243717	8976263599	19882	904.56	413.62	978.37	531.37	0.86	140.56	1.00	43.40	3309.32	-3301.66	2227.28
Fixation L	1	4	8976263599	8976482471	218872	992.20	544.20	19	19	-1	12.91	12.91
Fixation R	1	4	8976263599	8976482471	218872	992.20	544.20	19	19	-1	11.15	11.15
Blink L	1	1	8976482471	8976581842	99371
Blink R	1	1	8976482471	8976581842	99371
Saccade L	1	4	8976581842	8976601837	19995	996.29	665.34	995.18	552.47	1.64	179.76	1.00	81.90	504.57	-2446.36	1530.23
Saccade R	1	4	8976581842	8976601837	19995	996.29	665.34	995.18	552.47	1.64	179.76	1.00	81.90	504.57	-2446.36	1530.23
Fixation L	1	5	8976601837	8977377546	775709	981.88	573.38	43	44	-1	12.95	12.95
Fixation R	1	5	8976601837	8977377546	775709	981.88	573.38	43	44	-1	11.35	11.35
Saccade L	1	5	8977377546	8977437170	59624	954.88	551.90	981.01	418.25	1.50	80.09	1.00	25.13	1383.11	-1843.16	1087.85
Saccade R	1	5	8977377546	8977437170	59624	954.88	551.90	981.01	418.25	1.50	80.09	1.00	25.13	1383.11	-1843.16	1087.85
Fixation L	1	6	8977437170	8977675783	238613	995.96	409.17	20	50	-1	12.31	12.31
Fixation R	1	6	8977437170	8977675783	238613	995.96	409.17	20	50	-1	11.00	11.00
Saccade L	1	6	8977675783	8977695780	19997	995.49	448.06	958.22	494.51	0.73	60.24	1.00	36.28	1463.26	-1277.71	1077.54
Saccade R	1	6	8977675783	8977695780	19997	995.49	448.06	958.22	494.51	0.73	60.24	1.00	36.28	1463.26	-1277.71	1077.54
Fixation L	1	7	8977695780	8977994152	298372	925.99	520.89	39	46	-1	12.44	12.44
Fixation R	1	7	8977695780	8977994152	298372	925.99	520.89	39	46	-1	11.05	11.05
Saccade L	1	7	8977994152	8978033891	39739	928.28	541.17	1440.64	444.19	4.56	413.57	0.50	114.63	10281.07	-9520.30	6276.59
Saccade R	1	7	8977994152	8978033891	39739	928.28	541.17	1440.64	444.19	4.56	413.57	0.50	114.63	10281.07	-9520.30	6276.59
Fixation L	1	8	8978033891	8978431632	397741	1456.94	439.66	32	46	-1	12.73	12.73
Fixation R	1	8	8978033891	8978431632	397741	1456.94	439.66	32	46	-1	11.24	11.24
Saccade L	1	8	8978431632	8978451496	19864	1456.73	402.85	1443.83	313.26	0.77	91.55	1.00	38.52	2180.67	-2167.30	1723.66
Saccade R	1	8	8978431632	8978451496	19864	1456.73	402.85	1443.83	313.26	0.77	91.55	1.00	38.52	2180.67	-2167.30	1723.66
Fixation L	1	9	8978451496	8978670360	218864	1433.93	316.15	27	12	-1	12.27	12.27
Fixation R	1	9	8978451496	8978670360	218864	1433.93	316.15	27	12	-1	10.70	10.70
Saccade L	1	9	8978670360	8978690243	19883	1419.98	314.43	1423.98	206.99	0.58	108.75	1.00	29.12	2631.52	-2632.39	1780.89
Saccade R	1	9	8978670360	8978690243	19883	1419.98	314.43	1423.98	206.99	0.58	108.75	1.00	29.12	2631.52	-2632.39	1780.89
Fixation L	1	10	8978690243	8979068103	377860	1411.69	214.63	17	19	-1	12.58	12.58
Fixation R	1	10	8978690243	8979068103	377860	1411.69	214.63	17	19	-1	10.99	10.99
Saccade L	1	10	8979068103	8979088097	19994	1416.08	215.62	1477.62	39.32	1.24	188.84	1.00	62.05	4596.92	-4460.26	3343.88
Saccade R	1	10	8979068103	8979088097	19994	1416.08	215.62	1477.62	39.32	1.24	188.84	1.00	62.05	4596.92	-4460.26	3343.88
Fixation L	1	11	8979088097	8979346583	258486	1485.89	94.82	11	82	-1	12.55	12.55
Fixation R	1	11	8979088097	8979346583	258486	1485.89	94.82	11	82	-1	10.92	10.92
