[BeGaze]
Converted from:	C:\Documents and Settings\iViewX\Desktop\EXPERIMENTATIONS\Experiments\results\finaleart\S1022551-finaleart-1.idf
Date:	27.03.2019 15:38:19
Version:	BeGaze 2.5.77
Sample Rate:	50
Subject:	S1022551
Description:	Alexis Nebout

Table Header for Fixations:
Event Type	Trial	Number	Start	End	Duration	Location X	Location Y	Dispersion X	Dispersion Y	Plane	Avg. Pupil Size X	Avg. Pupil Size Y

Table Header for Saccades:
Event Type	Trial	Number	Start	End	Duration	Start Loc.X	Start Loc.Y	End Loc.X	End Loc.Y	Amplitude	Peak Speed	Peak Speed At	Average Speed	Peak Accel.	Peak Decel.	Average Accel.

Table Header for Blinks:
Event Type	Trial	Number	Start	End	Duration

Table Header for User Events:
Event Type	Trial	Number	Start	Description

UserEvent	1	1	8780903301	# Message: La_Danse_Matisse_1909.jpg
Fixation L	1	1	8780913331	8781860506	947175	935.71	489.12	45	27	-1	10.21	10.21
Fixation R	1	1	8780913331	8781860506	947175	935.71	489.12	45	27	-1	8.88	8.88
Saccade L	1	1	8781860506	8781887906	27400	924.75	495.77	912.23	437.52	0.44	60.27	1.00	16.17	1453.81	-949.68	808.88
Saccade R	1	1	8781860506	8781887906	27400	924.75	495.77	912.23	437.52	0.44	60.27	1.00	16.17	1453.81	-949.68	808.88
Fixation L	1	2	8781887906	8782007272	119366	898.93	433.34	25	19	-1	9.83	9.83
Fixation R	1	2	8781887906	8782007272	119366	898.93	433.34	25	19	-1	8.68	8.68
Saccade L	1	2	8782007272	8782027138	19866	892.87	425.94	874.22	354.40	0.71	74.79	1.00	35.84	1666.23	-1614.62	1557.17
Saccade R	1	2	8782007272	8782027138	19866	892.87	425.94	874.22	354.40	0.71	74.79	1.00	35.84	1666.23	-1614.62	1557.17
Fixation L	1	3	8782027138	8782146511	119373	862.04	296.95	22	74	-1	9.74	9.74
Fixation R	1	3	8782027138	8782146511	119373	862.04	296.95	22	74	-1	8.40	8.40
Saccade L	1	3	8782146511	8782166386	19875	851.39	280.25	852.03	276.99	0.09	6.61	1.00	4.48	-25.30	-112.92	73.17
Saccade R	1	3	8782146511	8782166386	19875	851.39	280.25	852.03	276.99	0.09	6.61	1.00	4.48	-25.30	-112.92	73.17
Fixation L	1	4	8782166386	8782584112	417726	851.29	232.23	7	85	-1	8.89	8.89
Fixation R	1	4	8782166386	8782584112	417726	851.29	232.23	7	85	-1	7.93	7.93
Saccade L	1	4	8782584112	8782603992	19880	853.56	197.90	849.84	105.49	0.56	93.55	1.00	28.33	2255.75	-2314.25	1541.54
Saccade R	1	4	8782584112	8782603992	19880	853.56	197.90	849.84	105.49	0.56	93.55	1.00	28.33	2255.75	-2314.25	1541.54
Fixation L	1	5	8782603992	8782743227	139235	840.36	107.29	17	12	-1	7.97	7.97
Fixation R	1	5	8782603992	8782743227	139235	840.36	107.29	17	12	-1	6.99	6.99
Saccade L	1	5	8782743227	8782842723	99496	832.15	105.70	1362.69	76.88	10.41	278.26	0.20	104.60	6724.44	-4702.64	3600.57
Saccade R	1	5	8782743227	8782842723	99496	832.15	105.70	1362.69	76.88	10.41	278.26	0.20	104.60	6724.44	-4702.64	3600.57
Fixation L	1	6	8782842723	8783121087	278364	1353.41	82.02	25	50	-1	7.78	7.78
Fixation R	1	6	8782842723	8783121087	278364	1353.41	82.02	25	50	-1	6.83	6.83
Saccade L	1	6	8783121087	8783160963	39876	1348.00	67.66	1410.16	330.99	2.60	161.73	1.00	65.21	3569.82	-3813.98	3194.62
Saccade R	1	6	8783121087	8783160963	39876	1348.00	67.66	1410.16	330.99	2.60	161.73	1.00	65.21	3569.82	-3813.98	3194.62
Fixation L	1	7	8783160963	8783439322	278359	1433.01	320.53	26	20	-1	8.64	8.64
Fixation R	1	7	8783160963	8783439322	278359	1433.01	320.53	26	20	-1	7.14	7.14
Saccade L	1	7	8783439322	8783479191	39869	1436.40	330.74	1556.15	589.45	2.50	172.15	1.00	62.64	4291.76	-4074.71	3525.06
Saccade R	1	7	8783439322	8783479191	39869	1436.40	330.74	1556.15	589.45	2.50	172.15	1.00	62.64	4291.76	-4074.71	3525.06
Fixation L	1	8	8783479191	8784036040	556849	1571.11	597.10	41	26	-1	10.12	10.12
Fixation R	1	8	8783479191	8784036040	556849	1571.11	597.10	41	26	-1	8.22	8.22
Saccade L	1	8	8784036040	8784075919	39879	1597.50	591.95	1079.47	679.68	4.44	279.51	1.00	111.42	6739.53	-6893.51	6567.61
Saccade R	1	8	8784036040	8784075919	39879	1597.50	591.95	1079.47	679.68	4.44	279.51	1.00	111.42	6739.53	-6893.51	6567.61
Fixation L	1	9	8784075919	8784334412	258493	1074.00	678.18	12	9	-1	9.81	9.81
Fixation R	1	9	8784075919	8784334412	258493	1074.00	678.18	12	9	-1	8.12	8.12
Saccade L	1	9	8784334412	8784394158	59746	1066.57	676.91	277.41	677.17	8.24	385.65	0.67	137.87	9517.30	-9159.58	6866.11
Saccade R	1	9	8784334412	8784394158	59746	1066.57	676.91	277.41	677.17	8.24	385.65	0.67	137.87	9517.30	-9159.58	6866.11
Fixation L	1	10	8784394158	8784732256	338098	266.90	672.25	27	16	-1	9.74	9.74
Fixation R	1	10	8784394158	8784732256	338098	266.90	672.25	27	16	-1	8.73	8.73
Saccade L	1	10	8784732256	8784772020	39764	276.67	679.57	146.68	861.44	2.25	171.68	0.50	56.59	4231.98	-3966.96	3191.42
Saccade R	1	10	8784732256	8784772020	39764	276.67	679.57	146.68	861.44	2.25	171.68	0.50	56.59	4231.98	-3966.96	3191.42
Fixation L	1	11	8784772020	8784911260	139240	143.70	870.39	16	19	-1	9.47	9.47
Fixation R	1	11	8784772020	8784911260	139240	143.70	870.39	16	19	-1	8.50	8.50
