[BeGaze]
Converted from:	C:\Documents and Settings\iViewX\Desktop\EXPERIMENTATIONS\Experiments\results\finaleart\S1022551-finaleart-1.idf
Date:	27.03.2019 15:37:38
Version:	BeGaze 2.5.77
Sample Rate:	50
Subject:	S1022551
Description:	Alexis Nebout

Table Header for Fixations:
Event Type	Trial	Number	Start	End	Duration	Location X	Location Y	Dispersion X	Dispersion Y	Plane	Avg. Pupil Size X	Avg. Pupil Size Y

Table Header for Saccades:
Event Type	Trial	Number	Start	End	Duration	Start Loc.X	Start Loc.Y	End Loc.X	End Loc.Y	Amplitude	Peak Speed	Peak Speed At	Average Speed	Peak Accel.	Peak Decel.	Average Accel.

Table Header for Blinks:
Event Type	Trial	Number	Start	End	Duration

Table Header for User Events:
Event Type	Trial	Number	Start	Description

UserEvent	1	1	7748313691	# Message: wright-vesuvius-from-posillipo-1774.jpg
Fixation L	1	1	7748316619	7748555229	238610	819.29	434.54	74	20	-1	14.56	14.56
Fixation R	1	1	7748316619	7748555229	238610	819.29	434.54	74	20	-1	13.48	13.48
Saccade L	1	1	7748555229	7748575229	20000	884.24	446.68	896.35	454.02	0.48	56.21	0.00	23.88	-89.34	-1228.49	495.28
Saccade R	1	1	7748555229	7748575229	20000	884.24	446.68	896.35	454.02	0.48	56.21	0.00	23.88	-89.34	-1228.49	495.28
Fixation L	1	2	7748575229	7748714347	139118	903.59	461.97	13	17	-1	14.62	14.62
Fixation R	1	2	7748575229	7748714347	139118	903.59	461.97	13	17	-1	13.71	13.71
Blink L	1	1	7748714347	7748893454	179107
Blink R	1	1	7748714347	7748893454	179107
Fixation L	1	3	7748893454	7749728784	835330	906.57	487.30	21	31	-1	14.87	14.87
Fixation R	1	3	7748893454	7749728784	835330	906.57	487.30	21	31	-1	13.02	13.02
Saccade L	1	2	7749728784	7749768536	39752	920.35	478.43	1267.59	629.17	3.48	322.11	1.00	87.56	8020.62	-7654.37	4372.92
Saccade R	1	2	7749728784	7749768536	39752	920.35	478.43	1267.59	629.17	3.48	322.11	1.00	87.56	8020.62	-7654.37	4372.92
Fixation L	1	4	7749768536	7749947520	178984	1309.86	661.23	55	42	-1	14.33	14.33
Fixation R	1	4	7749768536	7749947520	178984	1309.86	661.23	55	42	-1	12.72	12.72
Saccade L	1	3	7749947520	7749967527	20007	1323.32	670.65	1325.18	670.41	0.05	3.70	0.00	2.47	13.93	-76.87	45.06
Saccade R	1	3	7749947520	7749967527	20007	1323.32	670.65	1325.18	670.41	0.05	3.70	0.00	2.47	13.93	-76.87	45.06
Fixation L	1	5	7749967527	7750126647	159120	1326.32	663.81	5	17	-1	13.37	13.37
Fixation R	1	5	7749967527	7750126647	159120	1326.32	663.81	5	17	-1	12.41	12.41
Saccade L	1	4	7750126647	7750146515	19868	1329.20	653.21	1512.80	688.63	1.02	189.09	1.00	51.35	4649.91	-4498.51	3070.25
Saccade R	1	4	7750126647	7750146515	19868	1329.20	653.21	1512.80	688.63	1.02	189.09	1.00	51.35	4649.91	-4498.51	3070.25
Fixation L	1	6	7750146515	7750902356	755841	1522.51	679.47	37	53	-1	11.40	11.40
Fixation R	1	6	7750146515	7750922222	775707	1522.64	679.89	37	53	-1	10.65	10.65
Blink L	1	2	7750902356	7751081345	178989
Saccade R	1	5	7750922222	7751041470	119248	1527.42	696.30	1534.44	715.17	8.02	140.60	0.50	67.27	2202.77	-2235.11	1351.32
Fixation R	1	7	7751041470	7751459201	417731	1535.52	704.95	31	39	-1	9.46	9.46
Fixation L	1	7	7751081345	7751459201	377856	1535.16	705.03	31	38	-1	10.79	10.79
Saccade L	1	5	7751459201	7751479078	19877	1558.13	702.58	1595.18	695.23	0.42	38.21	1.00	21.10	931.09	-809.36	754.24
Saccade R	1	6	7751459201	7751479078	19877	1558.13	702.58	1595.18	695.23	0.42	38.21	1.00	21.10	931.09	-809.36	754.24
Fixation L	1	8	7751479078	7751737681	258603	1614.40	699.79	26	15	-1	10.87	10.87
Fixation R	1	8	7751479078	7751737681	258603	1614.40	699.79	26	15	-1	9.54	9.54
Saccade L	1	6	7751737681	7751777442	39761	1616.62	706.34	1108.06	364.78	5.17	347.22	0.50	129.96	8635.60	-8091.85	7504.86
Saccade R	1	7	7751737681	7751777442	39761	1616.62	706.34	1108.06	364.78	5.17	347.22	0.50	129.96	8635.60	-8091.85	7504.86
Fixation L	1	9	7751777442	7751996300	218858	1121.46	357.73	16	17	-1	11.47	11.47
Fixation R	1	9	7751777442	7751996300	218858	1121.46	357.73	16	17	-1	9.91	9.91
Saccade L	1	7	7751996300	7752036045	39745	1123.14	347.45	797.94	95.42	3.76	365.63	0.50	94.67	9115.26	-8153.64	4826.29
Saccade R	1	8	7751996300	7752036045	39745	1123.14	347.45	797.94	95.42	3.76	365.63	0.50	94.67	9115.26	-8153.64	4826.29
Fixation L	1	10	7752036045	7752334417	298372	772.66	79.18	31	33	-1	11.35	11.35
Fixation R	1	10	7752036045	7752334417	298372	772.66	79.18	31	33	-1	10.08	10.08
