[BeGaze]
Converted from:	C:\Documents and Settings\iViewX\Desktop\EXPERIMENTATIONS\Experiments\results\finaleart\S1022551-finaleart-1.idf
Date:	27.03.2019 15:38:25
Version:	BeGaze 2.5.77
Sample Rate:	50
Subject:	S1022551
Description:	Alexis Nebout

Table Header for Fixations:
Event Type	Trial	Number	Start	End	Duration	Location X	Location Y	Dispersion X	Dispersion Y	Plane	Avg. Pupil Size X	Avg. Pupil Size Y

Table Header for Saccades:
Event Type	Trial	Number	Start	End	Duration	Start Loc.X	Start Loc.Y	End Loc.X	End Loc.Y	Amplitude	Peak Speed	Peak Speed At	Average Speed	Peak Accel.	Peak Decel.	Average Accel.

Table Header for Blinks:
Event Type	Trial	Number	Start	End	Duration

Table Header for User Events:
Event Type	Trial	Number	Start	Description

UserEvent	1	1	8950675688	# Message: Courbet-Femme-nue-couchee-1862.jpg
Fixation L	1	1	8950685087	8951023189	338102	895.29	505.91	26	67	-1	13.08	13.08
Fixation R	1	1	8950685087	8951023189	338102	895.29	505.91	26	67	-1	11.54	11.54
Saccade L	1	1	8951023189	8951043069	19880	890.11	537.16	905.63	550.40	0.29	24.12	1.00	14.50	425.80	-328.59	372.03
Saccade R	1	1	8951023189	8951043069	19880	890.11	537.16	905.63	550.40	0.29	24.12	1.00	14.50	425.80	-328.59	372.03
Fixation L	1	2	8951043069	8951281789	238720	927.83	578.11	29	40	-1	13.30	13.30
Fixation R	1	2	8951043069	8951281789	238720	927.83	578.11	29	40	-1	11.67	11.67
Saccade L	1	2	8951281789	8951301678	19889	935.10	585.44	855.39	585.27	0.51	80.63	1.00	25.50	1874.46	-1759.26	1245.07
Saccade R	1	2	8951281789	8951301678	19889	935.10	585.44	855.39	585.27	0.51	80.63	1.00	25.50	1874.46	-1759.26	1245.07
Fixation L	1	3	8951301678	8951500544	198866	867.66	567.25	31	33	-1	13.41	13.41
Fixation R	1	3	8951301678	8951500544	198866	867.66	567.25	31	33	-1	11.47	11.47
Saccade L	1	3	8951500544	8951520415	19871	868.21	551.40	1073.19	639.18	1.29	225.46	1.00	65.01	5541.53	-5238.72	3780.46
Saccade R	1	3	8951500544	8951520415	19871	868.21	551.40	1073.19	639.18	1.29	225.46	1.00	65.01	5541.53	-5238.72	3780.46
Fixation L	1	4	8951520415	8951719402	198987	1056.98	630.18	32	22	-1	12.89	12.89
Fixation R	1	4	8951520415	8951719402	198987	1056.98	630.18	32	22	-1	10.96	10.96
Saccade L	1	4	8951719402	8951739273	19871	1040.25	635.18	997.28	692.66	0.57	72.59	1.00	28.84	1784.20	-1627.84	1212.08
Saccade R	1	4	8951719402	8951739273	19871	1040.25	635.18	997.28	692.66	0.57	72.59	1.00	28.84	1784.20	-1627.84	1212.08
Fixation L	1	5	8951739273	8952157005	417732	967.74	713.50	35	29	-1	13.14	13.14
Fixation R	1	5	8951739273	8952157005	417732	967.74	713.50	35	29	-1	11.57	11.57
Saccade L	1	5	8952157005	8952216640	59635	962.22	721.82	463.72	889.63	5.59	295.71	0.67	93.82	7228.94	-7059.72	4205.81
Saccade R	1	5	8952157005	8952216640	59635	962.22	721.82	463.72	889.63	5.59	295.71	0.67	93.82	7228.94	-7059.72	4205.81
Fixation L	1	6	8952216640	8952534871	318231	473.36	875.67	14	21	-1	12.89	12.89
Fixation R	1	6	8952216640	8952534871	318231	473.36	875.67	14	21	-1	11.55	11.55
Saccade L	1	6	8952534871	8952594484	59613	477.98	872.70	1401.12	551.60	10.03	394.52	0.67	168.26	9791.06	-9704.99	6911.13
Saccade R	1	6	8952534871	8952594484	59613	477.98	872.70	1401.12	551.60	10.03	394.52	0.67	168.26	9791.06	-9704.99	6911.13
Fixation L	1	7	8952594484	8952912723	318239	1404.01	548.56	35	50	-1	12.95	12.95
Fixation R	1	7	8952594484	8952912723	318239	1404.01	548.56	35	50	-1	11.58	11.58
Saccade L	1	7	8952912723	8952932717	19994	1378.28	510.85	1369.84	492.39	0.34	45.37	0.00	16.89	499.28	-1106.99	670.28
Saccade R	1	7	8952912723	8952932717	19994	1378.28	510.85	1369.84	492.39	0.34	45.37	0.00	16.89	499.28	-1106.99	670.28
Fixation L	1	8	8952932717	8953509445	576728	1344.30	488.93	42	43	-1	13.09	13.09
Fixation R	1	8	8952932717	8953509445	576728	1344.30	488.93	42	43	-1	11.33	11.33
Saccade L	1	8	8953509445	8953529312	19867	1327.81	482.54	1375.49	395.31	0.56	100.56	1.00	28.32	2470.02	-1975.10	1535.80
Saccade R	1	8	8953509445	8953529312	19867	1327.81	482.54	1375.49	395.31	0.56	100.56	1.00	28.32	2470.02	-1975.10	1535.80
Fixation L	1	9	8953529312	8953927172	397860	1371.52	409.23	28	35	-1	13.57	13.57
Fixation R	1	9	8953529312	8953927172	397860	1371.52	409.23	28	35	-1	11.47	11.47
Saccade L	1	9	8953927172	8953966921	39749	1352.69	405.92	691.08	223.02	5.85	477.98	0.50	147.11	11615.32	-11753.46	8344.25
Saccade R	1	9	8953927172	8953966921	39749	1352.69	405.92	691.08	223.02	5.85	477.98	0.50	147.11	11615.32	-11753.46	8344.25
Fixation L	1	10	8953966921	8954364773	397852	690.10	228.12	79	18	-1	13.93	13.93
Fixation R	1	10	8953966921	8954364773	397852	690.10	228.12	79	18	-1	12.11	12.11
Saccade L	1	10	8954364773	8954384653	19880	617.87	216.29	485.18	51.24	1.54	214.13	1.00	77.22	5223.52	-4929.46	3915.22
Saccade R	1	10	8954364773	8954384653	19880	617.87	216.29	485.18	51.24	1.54	214.13	1.00	77.22	5223.52	-4929.46	3915.22
Fixation L	1	11	8954384653	8954523895	139242	493.18	71.52	23	64	-1	13.54	13.54
Fixation R	1	11	8954384653	8954523895	139242	493.18	71.52	23	64	-1	12.12	12.12
Saccade L	1	11	8954523895	8954702877	178982	506.07	94.36	1365.54	513.56	47.62	1497.33	0.78	266.07	37277.30	-35552.10	12859.61
Saccade R	1	11	8954523895	8954702877	178982	506.07	94.36	1365.54	513.56	47.62	1497.33	0.78	266.07	37277.30	-35552.10	12859.61
