[BeGaze]
Converted from:	C:\Documents and Settings\iViewX\Desktop\EXPERIMENTATIONS\Experiments\results\finaleart\S1022551-finaleart-1.idf
Date:	27.03.2019 15:38:15
Version:	BeGaze 2.5.77
Sample Rate:	50
Subject:	S1022551
Description:	Alexis Nebout

Table Header for Fixations:
Event Type	Trial	Number	Start	End	Duration	Location X	Location Y	Dispersion X	Dispersion Y	Plane	Avg. Pupil Size X	Avg. Pupil Size Y

Table Header for Saccades:
Event Type	Trial	Number	Start	End	Duration	Start Loc.X	Start Loc.Y	End Loc.X	End Loc.Y	Amplitude	Peak Speed	Peak Speed At	Average Speed	Peak Accel.	Peak Decel.	Average Accel.

Table Header for Blinks:
Event Type	Trial	Number	Start	End	Duration

Table Header for User Events:
Event Type	Trial	Number	Start	Description

UserEvent	1	1	8719330138	# Message: Niagara_Falls_Hale_1902.jpg
Fixation L	1	1	8719333899	8719592397	258498	898.73	413.22	65	26	-1	12.34	12.34
Fixation R	1	1	8719333899	8719592397	258498	898.73	413.22	65	26	-1	10.62	10.62
Saccade L	1	1	8719592397	8719612250	19853	848.21	392.03	844.80	384.58	0.46	59.19	1.00	23.24	140.35	-1272.38	486.37
Saccade R	1	1	8719592397	8719612250	19853	848.21	392.03	844.80	384.58	0.46	59.19	1.00	23.24	140.35	-1272.38	486.37
Fixation L	1	2	8719612250	8719930495	318245	840.03	378.46	53	41	-1	12.43	12.43
Fixation R	1	2	8719612250	8719930495	318245	840.03	378.46	53	41	-1	10.54	10.54
Saccade L	1	2	8719930495	8719950497	20002	883.43	406.09	890.87	418.70	0.44	48.28	1.00	21.98	-227.05	-836.56	450.06
Saccade R	1	2	8719930495	8719950497	20002	883.43	406.09	890.87	418.70	0.44	48.28	1.00	21.98	-227.05	-836.56	450.06
Fixation L	1	3	8719950497	8720341221	390724	899.04	430.23	11	21	-1	12.32	12.32
Fixation R	1	3	8719950497	8720341221	390724	899.04	430.23	11	21	-1	10.47	10.47
Saccade L	1	3	8720341221	8720368103	26882	898.18	423.06	752.45	390.20	1.12	151.09	1.00	41.54	3616.91	-3386.35	2375.43
Saccade R	1	3	8720341221	8720368103	26882	898.18	423.06	752.45	390.20	1.12	151.09	1.00	41.54	3616.91	-3386.35	2375.43
Fixation L	1	4	8720368103	8720507338	139235	743.34	381.71	16	23	-1	10.83	10.83
Fixation R	1	4	8720368103	8720507338	139235	743.34	381.71	16	23	-1	9.57	9.57
Saccade L	1	4	8720507338	8720527210	19872	735.85	368.17	739.99	288.49	0.56	80.71	1.00	28.23	1870.76	-1923.10	1280.08
Saccade R	1	4	8720507338	8720527210	19872	735.85	368.17	739.99	288.49	0.56	80.71	1.00	28.23	1870.76	-1923.10	1280.08
Fixation L	1	5	8720527210	8720726196	198986	735.89	271.62	7	21	-1	10.16	10.16
Fixation R	1	5	8720527210	8720726196	198986	735.89	271.62	7	21	-1	8.83	8.83
Saccade L	1	5	8720726196	8720746076	19880	735.19	269.57	529.86	136.31	1.30	247.48	1.00	65.55	6172.42	-6133.95	4201.83
Saccade R	1	5	8720726196	8720746076	19880	735.19	269.57	529.86	136.31	1.30	247.48	1.00	65.55	6172.42	-6133.95	4201.83
Fixation L	1	6	8720746076	8720944943	198867	515.45	125.62	19	17	-1	9.60	9.60
Fixation R	1	6	8720746076	8720944943	198867	515.45	125.62	19	17	-1	8.95	8.95
Saccade L	1	6	8720944943	8721004561	59618	515.81	119.06	910.23	26.88	5.45	339.76	0.33	91.47	8460.61	-5602.73	4038.35
Saccade R	1	6	8720944943	8721004561	59618	515.81	119.06	910.23	26.88	5.45	339.76	0.33	91.47	8460.61	-5602.73	4038.35
Fixation L	1	7	8721004561	8721143797	139236	908.59	25.84	7	16	-1	9.24	9.24
Fixation R	1	7	8721004561	8721143797	139236	908.59	25.84	7	16	-1	8.54	8.54
Saccade L	1	7	8721143797	8721183679	39882	911.54	17.82	910.94	15.80	1.32	79.54	1.00	33.01	1930.31	-1925.91	1904.25
Saccade R	1	7	8721143797	8721183679	39882	911.54	17.82	910.94	15.80	1.32	79.54	1.00	33.01	1930.31	-1925.91	1904.25
Fixation L	1	8	8721183679	8721581404	397725	913.12	26.53	14	31	-1	9.17	9.17
Fixation R	1	8	8721183679	8721581404	397725	913.12	26.53	14	31	-1	8.60	8.60
Saccade L	1	8	8721581404	8721661029	79625	903.19	22.03	1259.13	17.41	6.84	326.70	1.00	85.90	7775.63	-7853.14	3677.89
Saccade R	1	8	8721581404	8721661029	79625	903.19	22.03	1259.13	17.41	6.84	326.70	1.00	85.90	7775.63	-7853.14	3677.89
Fixation L	1	9	8721661029	8721979280	318251	1267.60	63.61	11	64	-1	9.55	9.55
Fixation R	1	9	8721661029	8721979280	318251	1267.60	63.61	11	64	-1	8.60	8.60
Saccade L	1	9	8721979280	8722019007	39727	1267.08	82.01	1183.78	193.16	1.26	107.49	1.00	31.63	2631.58	-2539.43	1609.33
Saccade R	1	9	8721979280	8722019007	39727	1267.08	82.01	1183.78	193.16	1.26	107.49	1.00	31.63	2631.58	-2539.43	1609.33
Fixation L	1	10	8722019007	8722317368	298361	1176.27	195.72	12	15	-1	10.02	10.02
Fixation R	1	10	8722019007	8722317368	298361	1176.27	195.72	12	15	-1	8.88	8.88
Saccade L	1	10	8722317368	8722337244	19876	1176.83	197.98	1284.19	88.93	0.81	154.78	1.00	40.55	3839.39	-3837.87	2598.49
Saccade R	1	10	8722317368	8722337244	19876	1176.83	197.98	1284.19	88.93	0.81	154.78	1.00	40.55	3839.39	-3837.87	2598.49
Fixation L	1	11	8722337244	8722794730	457486	1276.76	63.99	53	44	-1	10.14	10.14
Fixation R	1	11	8722337244	8722794730	457486	1276.76	63.99	53	44	-1	8.91	8.91
Saccade L	1	11	8722794730	8722854348	59618	1241.32	48.33	679.69	49.43	5.88	306.23	1.00	98.69	7536.06	-7514.64	5491.95
Saccade R	1	11	8722794730	8722854348	59618	1241.32	48.33	679.69	49.43	5.88	306.23	1.00	98.69	7536.06	-7514.64	5491.95
Fixation L	1	12	8722854348	8723053353	199005	653.10	57.81	37	22	-1	9.97	9.97
Fixation R	1	12	8722854348	8723053353	199005	653.10	57.81	37	22	-1	8.60	8.60
Saccade L	1	12	8723053353	8723093088	39735	643.15	68.72	406.17	34.97	2.26	227.45	1.00	56.79	5652.75	-5059.44	3202.36
Saccade R	1	12	8723053353	8723093088	39735	643.15	68.72	406.17	34.97	2.26	227.45	1.00	56.79	5652.75	-5059.44	3202.36
Fixation L	1	13	8723093088	8723331696	238608	401.27	38.06	15	36	-1	10.05	10.05
Fixation R	1	13	8723093088	8723331696	238608	401.27	38.06	15	36	-1	8.94	8.94
