[BeGaze]
Converted from:	C:\Documents and Settings\iViewX\Desktop\EXPERIMENTATIONS\Experiments\results\finaleart\S1022551-finaleart-1.idf
Date:	27.03.2019 15:37:58
Version:	BeGaze 2.5.77
Sample Rate:	50
Subject:	S1022551
Description:	Alexis Nebout

Table Header for Fixations:
Event Type	Trial	Number	Start	End	Duration	Location X	Location Y	Dispersion X	Dispersion Y	Plane	Avg. Pupil Size X	Avg. Pupil Size Y

Table Header for Saccades:
Event Type	Trial	Number	Start	End	Duration	Start Loc.X	Start Loc.Y	End Loc.X	End Loc.Y	Amplitude	Peak Speed	Peak Speed At	Average Speed	Peak Accel.	Peak Decel.	Average Accel.

Table Header for Blinks:
Event Type	Trial	Number	Start	End	Duration

Table Header for User Events:
Event Type	Trial	Number	Start	Description

UserEvent	1	1	8245204327	# Message: Alfalfa_St-Denis_Seurat_1886.jpg
Fixation L	1	1	8245215204	8245433930	218726	905.31	624.82	20	25	-1	14.71	14.71
Fixation R	1	1	8245215204	8245433930	218726	905.31	624.82	20	25	-1	12.81	12.81
Saccade L	1	1	8245433930	8245453924	19994	898.61	634.23	995.19	633.11	0.58	97.70	1.00	29.05	2357.39	-2298.60	1659.43
Saccade R	1	1	8245433930	8245453924	19994	898.61	634.23	995.19	633.11	0.58	97.70	1.00	29.05	2357.39	-2298.60	1659.43
Fixation L	1	2	8245453924	8245672725	218801	1016.38	633.39	32	5	-1	14.52	14.52
Fixation R	1	2	8245453924	8245672725	218801	1016.38	633.39	32	5	-1	12.38	12.38
Blink L	1	1	8245672725	8245792057	119332
Blink R	1	1	8245672725	8245792057	119332
Fixation L	1	3	8245792057	8246249523	457466	964.79	575.81	32	50	-1	12.85	12.85
Fixation R	1	3	8245792057	8246249523	457466	964.79	575.81	32	50	-1	10.92	10.92
Saccade L	1	2	8246249523	8246269409	19886	946.48	569.85	861.54	607.88	0.63	94.14	1.00	31.49	2320.04	-1754.90	1414.64
Saccade R	1	2	8246249523	8246269409	19886	946.48	569.85	861.54	607.88	0.63	94.14	1.00	31.49	2320.04	-1754.90	1414.64
Fixation L	1	4	8246269409	8246428511	159102	863.37	632.84	14	37	-1	10.48	10.48
Fixation R	1	4	8246269409	8246428511	159102	863.37	632.84	14	37	-1	9.60	9.60
Saccade L	1	3	8246428511	8246448391	19880	856.75	645.33	876.44	817.62	0.96	175.37	1.00	48.13	4271.15	-4111.37	2863.07
Saccade R	1	3	8246428511	8246448391	19880	856.75	645.33	876.44	817.62	0.96	175.37	1.00	48.13	4271.15	-4111.37	2863.07
Fixation L	1	5	8246448391	8246746751	298360	895.81	830.49	48	40	-1	10.01	10.01
Fixation R	1	5	8246448391	8246746751	298360	895.81	830.49	48	40	-1	9.19	9.19
Saccade L	1	4	8246746751	8246766626	19875	921.88	847.76	1163.82	867.34	1.38	245.40	1.00	69.63	6056.25	-6014.66	4142.81
Saccade R	1	4	8246746751	8246766626	19875	921.88	847.76	1163.82	867.34	1.38	245.40	1.00	69.63	6056.25	-6014.66	4142.81
Fixation L	1	6	8246766626	8247084861	318235	1170.34	893.74	21	38	-1	9.88	9.88
Fixation R	1	6	8246766626	8247084861	318235	1170.34	893.74	21	38	-1	9.38	9.38
Saccade L	1	5	8247084861	8247104730	19869	1182.68	906.28	1329.34	915.01	0.82	148.60	1.00	41.29	3688.06	-3418.51	2370.05
Saccade R	1	5	8247084861	8247104730	19869	1182.68	906.28	1329.34	915.01	0.82	148.60	1.00	41.29	3688.06	-3418.51	2370.05
Fixation L	1	7	8247104730	8247263852	159122	1343.87	934.54	20	32	-1	9.67	9.67
Fixation R	1	7	8247104730	8247263852	159122	1343.87	934.54	20	32	-1	8.87	8.87
Blink L	1	2	8247263852	8247442838	178986
Blink R	1	2	8247263852	8247442838	178986
Fixation L	1	8	8247442838	8247860570	417732	1448.28	196.04	42	46	-1	8.93	8.93
Fixation R	1	8	8247442838	8247860570	417732	1448.28	196.04	42	46	-1	8.42	8.42
Saccade L	1	6	8247860570	8247920190	59620	1478.06	220.86	1130.26	211.52	4.72	184.59	0.67	79.15	4061.10	-4258.13	4018.69
Saccade R	1	6	8247860570	8247920190	59620	1478.06	220.86	1130.26	211.52	4.72	184.59	0.67	79.15	4061.10	-4258.13	4018.69
Fixation L	1	9	8247920190	8248258426	338236	1132.21	178.54	4	91	-1	8.36	8.36
Fixation R	1	9	8247920190	8248258426	338236	1132.21	178.54	4	91	-1	7.85	7.85
Saccade L	1	7	8248258426	8248298167	39741	1133.55	125.31	895.24	209.20	2.19	191.90	1.00	55.11	4762.91	-4704.33	3122.50
Saccade R	1	7	8248258426	8248298167	39741	1133.55	125.31	895.24	209.20	2.19	191.90	1.00	55.11	4762.91	-4704.33	3122.50
Fixation L	1	10	8248298167	8248715786	417619	893.95	227.02	37	56	-1	8.00	8.00
Fixation R	1	10	8248298167	8248715786	417619	893.95	227.02	37	56	-1	7.52	7.52
Saccade L	1	8	8248715786	8248735776	19990	860.77	193.01	803.00	179.86	0.70	65.15	0.00	35.07	1411.22	-1335.81	1135.52
Saccade R	1	8	8248715786	8248735776	19990	860.77	193.01	803.00	179.86	0.70	65.15	0.00	35.07	1411.22	-1335.81	1135.52
Fixation L	1	11	8248735776	8249252875	517099	815.37	188.29	28	31	-1	7.52	7.52
Fixation R	1	11	8248735776	8249252875	517099	815.37	188.29	28	31	-1	7.47	7.47
Saccade L	1	9	8249252875	8249292627	39752	819.55	189.38	419.84	174.40	4.05	247.69	0.50	101.95	6173.68	0.00	3344.26
Saccade R	1	9	8249252875	8249292627	39752	819.55	189.38	419.84	174.40	4.05	247.69	0.50	101.95	6173.68	0.00	3344.26
