[BeGaze]
Converted from:	C:\Documents and Settings\iViewX\Desktop\EXPERIMENTATIONS\Experiments\results\finaleart\S1022551-finaleart-1.idf
Date:	27.03.2019 15:37:41
Version:	BeGaze 2.5.77
Sample Rate:	50
Subject:	S1022551
Description:	Alexis Nebout

Table Header for Fixations:
Event Type	Trial	Number	Start	End	Duration	Location X	Location Y	Dispersion X	Dispersion Y	Plane	Avg. Pupil Size X	Avg. Pupil Size Y

Table Header for Saccades:
Event Type	Trial	Number	Start	End	Duration	Start Loc.X	Start Loc.Y	End Loc.X	End Loc.Y	Amplitude	Peak Speed	Peak Speed At	Average Speed	Peak Accel.	Peak Decel.	Average Accel.

Table Header for Blinks:
Event Type	Trial	Number	Start	End	Duration

Table Header for User Events:
Event Type	Trial	Number	Start	Description

UserEvent	1	1	7852282173	# Message: Odalisque_Matisse.jpg
Fixation L	1	1	7852287381	7852884103	596722	892.44	581.13	46	52	-1	15.04	15.04
Fixation R	1	1	7852287381	7852884103	596722	892.44	581.13	46	52	-1	13.88	13.88
Saccade L	1	1	7852884103	7853242084	357981	852.37	608.14	586.44	454.13	25.39	370.98	1.00	70.92	7143.97	-9250.89	2347.61
Saccade R	1	1	7852884103	7853242084	357981	852.37	608.14	586.44	454.13	25.39	370.98	1.00	70.92	7143.97	-9250.89	2347.61
Fixation L	1	2	7853242084	7853500692	258608	578.54	449.77	12	7	-1	14.99	14.99
Fixation R	1	2	7853242084	7853500692	258608	578.54	449.77	12	7	-1	13.92	13.92
Saccade L	1	2	7853500692	7853520566	19874	583.88	447.27	786.38	393.65	1.12	211.82	1.00	56.42	5236.19	-4877.43	3415.82
Saccade R	1	2	7853500692	7853520566	19874	583.88	447.27	786.38	393.65	1.12	211.82	1.00	56.42	5236.19	-4877.43	3415.82
Fixation L	1	3	7853520566	7854097416	576850	780.71	387.42	29	69	-1	14.32	14.32
Fixation R	1	3	7853520566	7854097416	576850	780.71	387.42	29	69	-1	13.36	13.36
Saccade L	1	3	7854097416	7854117282	19866	761.46	427.56	760.09	429.40	0.06	4.71	1.00	2.85	159.42	3.43	75.22
Saccade R	1	3	7854097416	7854117282	19866	761.46	427.56	760.09	429.40	0.06	4.71	1.00	2.85	159.42	3.43	75.22
Fixation L	1	4	7854117282	7854236658	119376	753.12	443.79	15	34	-1	14.24	14.24
Fixation R	1	4	7854117282	7854236658	119376	753.12	443.79	15	34	-1	13.28	13.28
Saccade L	1	4	7854236658	7854256531	19873	744.92	464.08	515.94	418.56	1.56	236.05	1.00	78.42	5726.23	-5663.22	4162.89
Saccade R	1	4	7854236658	7854256531	19873	744.92	464.08	515.94	418.56	1.56	236.05	1.00	78.42	5726.23	-5663.22	4162.89
Fixation L	1	5	7854256531	7854614518	357987	502.86	352.93	20	73	-1	14.28	14.28
Fixation R	1	5	7854256531	7854614518	357987	502.86	352.93	20	73	-1	13.22	13.22
Saccade L	1	5	7854614518	7854674134	59616	499.17	345.45	1126.22	447.89	6.60	394.82	0.67	110.70	9771.53	-9498.69	5617.95
Saccade R	1	5	7854614518	7854674134	59616	499.17	345.45	1126.22	447.89	6.60	394.82	0.67	110.70	9771.53	-9498.69	5617.95
Fixation L	1	6	7854674134	7855012370	338236	1141.11	457.77	52	13	-1	14.85	14.85
Fixation R	1	6	7854674134	7855012370	338236	1141.11	457.77	52	13	-1	14.01	14.01
Saccade L	1	6	7855012370	7855032238	19868	1096.63	458.82	1024.90	452.44	0.65	72.84	1.00	32.87	1763.54	-1660.83	1552.28
Saccade R	1	6	7855012370	7855032238	19868	1096.63	458.82	1024.90	452.44	0.65	72.84	1.00	32.87	1763.54	-1660.83	1552.28
Fixation L	1	7	7855032238	7855390221	357983	1027.82	445.34	68	27	-1	15.37	15.37
Fixation R	1	7	7855032238	7855390221	357983	1027.82	445.34	68	27	-1	13.95	13.95
Saccade L	1	7	7855390221	7855509599	119378	1079.99	460.65	1077.82	352.74	3.04	137.94	1.00	25.49	3433.59	-3131.99	991.36
Saccade R	1	7	7855390221	7855509599	119378	1079.99	460.65	1077.82	352.74	3.04	137.94	1.00	25.49	3433.59	-3131.99	991.36
Fixation L	1	8	7855509599	7855728334	218735	1064.20	325.61	26	39	-1	15.65	15.65
Fixation R	1	8	7855509599	7855728334	218735	1064.20	325.61	26	39	-1	14.06	14.06
Saccade L	1	8	7855728334	7855768084	39750	1054.55	337.58	1307.52	318.58	2.22	191.08	1.00	55.88	4588.35	-4301.20	2947.86
Saccade R	1	8	7855728334	7855768084	39750	1054.55	337.58	1307.52	318.58	2.22	191.08	1.00	55.88	4588.35	-4301.20	2947.86
Fixation L	1	9	7855768084	7855907503	139419	1312.59	275.93	11	68	-1	15.44	15.44
Fixation R	1	9	7855768084	7855907503	139419	1312.59	275.93	11	68	-1	13.99	13.99
Saccade L	1	9	7855907503	7855967085	59582	1318.90	249.73	747.34	145.84	7.38	395.93	1.00	123.86	9780.73	-9249.58	7022.64
Saccade R	1	9	7855907503	7855967085	59582	1318.90	249.73	747.34	145.84	7.38	395.93	1.00	123.86	9780.73	-9249.58	7022.64
Fixation L	1	10	7855967085	7856265430	298345	704.16	157.92	50	31	-1	14.36	14.36
Fixation R	1	10	7855967085	7856265430	298345	704.16	157.92	50	31	-1	13.12	13.12
