[BeGaze]
Converted from:	C:\Documents and Settings\iViewX\Desktop\EXPERIMENTATIONS\Experiments\results\finaleart\S1022551-finaleart-1.idf
Date:	27.03.2019 15:38:24
Version:	BeGaze 2.5.77
Sample Rate:	50
Subject:	S1022551
Description:	Alexis Nebout

Table Header for Fixations:
Event Type	Trial	Number	Start	End	Duration	Location X	Location Y	Dispersion X	Dispersion Y	Plane	Avg. Pupil Size X	Avg. Pupil Size Y

Table Header for Saccades:
Event Type	Trial	Number	Start	End	Duration	Start Loc.X	Start Loc.Y	End Loc.X	End Loc.Y	Amplitude	Peak Speed	Peak Speed At	Average Speed	Peak Accel.	Peak Decel.	Average Accel.

Table Header for Blinks:
Event Type	Trial	Number	Start	End	Duration

Table Header for User Events:
Event Type	Trial	Number	Start	Description

UserEvent	1	1	8926107017	# Message: Rapids_on_the_Petite_Creuse_at_Fresselines_Monet_1889.jpg
Fixation L	1	1	8926120884	8926565837	444953	866.60	527.40	20	4	-1	13.00	13.00
Fixation R	1	1	8926120884	8926565837	444953	866.60	527.40	20	4	-1	11.77	11.77
Saccade L	1	1	8926565837	8926598253	32416	858.88	526.38	955.93	527.72	0.83	98.17	1.00	25.72	2412.72	-2411.13	1620.84
Saccade R	1	1	8926565837	8926598253	32416	858.88	526.38	955.93	527.72	0.83	98.17	1.00	25.72	2412.72	-2411.13	1620.84
Fixation L	1	2	8926598253	8927084352	486099	953.84	537.89	5	23	-1	13.16	13.16
Fixation R	1	2	8926598253	8927084352	486099	953.84	537.89	5	23	-1	11.54	11.54
Saccade L	1	2	8927084352	8927115464	31112	950.67	550.87	827.09	545.60	1.10	125.10	1.00	35.26	3031.36	-3013.54	2082.36
Saccade R	1	2	8927084352	8927115464	31112	950.67	550.87	827.09	545.60	1.10	125.10	1.00	35.26	3031.36	-3013.54	2082.36
Fixation L	1	3	8927115464	8927334192	218728	849.47	524.42	30	34	-1	11.60	11.60
Fixation R	1	3	8927115464	8927334192	218728	849.47	524.42	30	34	-1	10.43	10.43
Saccade L	1	3	8927334192	8927354061	19869	857.50	513.41	901.65	614.90	0.68	111.95	1.00	34.22	2706.27	-2629.28	1909.69
Saccade R	1	3	8927334192	8927354061	19869	857.50	513.41	901.65	614.90	0.68	111.95	1.00	34.22	2706.27	-2629.28	1909.69
Fixation L	1	4	8927354061	8927632548	278487	912.16	646.41	23	71	-1	10.52	10.52
Fixation R	1	4	8927354061	8927632548	278487	912.16	646.41	23	71	-1	9.59	9.59
Saccade L	1	4	8927632548	8927652427	19879	920.67	686.33	922.07	696.54	0.26	18.15	0.00	13.14	-116.55	-286.96	191.98
Saccade R	1	4	8927632548	8927652427	19879	920.67	686.33	922.07	696.54	0.26	18.15	0.00	13.14	-116.55	-286.96	191.98
Fixation L	1	5	8927652427	8928109907	457480	925.26	710.18	8	21	-1	9.74	9.74
Fixation R	1	5	8927652427	8928109907	457480	925.26	710.18	8	21	-1	9.28	9.28
Saccade L	1	5	8928109907	8928169526	59619	924.61	700.14	1403.62	578.76	5.18	230.02	0.67	86.84	5726.70	-5444.77	3591.05
Saccade R	1	5	8928109907	8928169526	59619	924.61	700.14	1403.62	578.76	5.18	230.02	0.67	86.84	5726.70	-5444.77	3591.05
Fixation L	1	6	8928169526	8928448012	278486	1402.32	551.94	11	40	-1	9.53	9.53
Fixation R	1	6	8928169526	8928448012	278486	1402.32	551.94	11	40	-1	9.14	9.14
Saccade L	1	6	8928448012	8928467901	19889	1396.21	550.05	1493.31	426.11	1.20	159.24	1.00	60.45	3921.93	-3690.73	3178.86
Saccade R	1	6	8928448012	8928467901	19889	1396.21	550.05	1493.31	426.11	1.20	159.24	1.00	60.45	3921.93	-3690.73	3178.86
Fixation L	1	7	8928467901	8928607130	139229	1498.49	360.04	21	77	-1	9.47	9.47
Fixation R	1	7	8928467901	8928607130	139229	1498.49	360.04	21	77	-1	9.07	9.07
Saccade L	1	7	8928607130	8928627024	19894	1506.53	348.60	1507.35	349.45	0.03	2.15	1.00	1.38	-4.69	-24.04	15.86
Saccade R	1	7	8928607130	8928627024	19894	1506.53	348.60	1507.35	349.45	0.03	2.15	1.00	1.38	-4.69	-24.04	15.86
Fixation L	1	8	8928627024	8928806123	179099	1508.75	346.97	4	6	-1	9.40	9.40
Fixation R	1	8	8928627024	8928806123	179099	1508.75	346.97	4	6	-1	8.95	8.95
Saccade L	1	8	8928806123	8928845871	39748	1507.39	343.84	1168.31	319.35	2.99	224.27	1.00	75.10	5573.52	-5440.90	4057.57
Saccade R	1	8	8928806123	8928845871	39748	1507.39	343.84	1168.31	319.35	2.99	224.27	1.00	75.10	5573.52	-5440.90	4057.57
Fixation L	1	9	8928845871	8929104351	258480	1190.02	291.11	28	42	-1	9.61	9.61
Fixation R	1	9	8928845871	8929104351	258480	1190.02	291.11	28	42	-1	9.22	9.22
Saccade L	1	9	8929104351	8929124359	20008	1190.20	277.33	1123.31	130.45	0.91	163.23	1.00	45.59	4036.55	-3941.61	2777.21
Saccade R	1	9	8929104351	8929124359	20008	1190.20	277.33	1123.31	130.45	0.91	163.23	1.00	45.59	4036.55	-3941.61	2777.21
Fixation L	1	10	8929124359	8929661331	536972	1103.43	120.86	26	47	-1	9.42	9.42
Fixation R	1	10	8929124359	8929661331	536972	1103.43	120.86	26	47	-1	8.84	8.84
Saccade L	1	10	8929661331	8929701077	39746	1108.89	107.28	845.15	238.85	2.85	174.71	1.00	71.78	4316.31	-3905.07	3491.08
Saccade R	1	10	8929661331	8929701077	39746	1108.89	107.28	845.15	238.85	2.85	174.71	1.00	71.78	4316.31	-3905.07	3491.08
Fixation L	1	11	8929701077	8930039212	338135	825.74	291.85	25	73	-1	9.28	9.28
Fixation R	1	11	8929701077	8930039212	338135	825.74	291.85	25	73	-1	8.83	8.83
Saccade L	1	11	8930039212	8930098945	59733	825.09	312.49	826.10	320.51	0.17	5.67	1.00	2.85	87.65	-35.53	36.52
Saccade R	1	11	8930039212	8930098945	59733	825.09	312.49	826.10	320.51	0.17	5.67	1.00	2.85	87.65	-35.53	36.52
