[BeGaze]
Converted from:	C:\Documents and Settings\iViewX\Desktop\EXPERIMENTATIONS\Experiments\results\finaleart\S1022551-finaleart-1.idf
Date:	27.03.2019 15:38:31
Version:	BeGaze 2.5.77
Sample Rate:	50
Subject:	S1022551
Description:	Alexis Nebout

Table Header for Fixations:
Event Type	Trial	Number	Start	End	Duration	Location X	Location Y	Dispersion X	Dispersion Y	Plane	Avg. Pupil Size X	Avg. Pupil Size Y

Table Header for Saccades:
Event Type	Trial	Number	Start	End	Duration	Start Loc.X	Start Loc.Y	End Loc.X	End Loc.Y	Amplitude	Peak Speed	Peak Speed At	Average Speed	Peak Accel.	Peak Decel.	Average Accel.

Table Header for Blinks:
Event Type	Trial	Number	Start	End	Duration

Table Header for User Events:
Event Type	Trial	Number	Start	Description

UserEvent	1	1	9028717297	# Message: void.jpg
Fixation L	1	1	9028733484	9028972228	238744	1433.88	56.80	9	65	-1	9.71	9.71
Fixation R	1	1	9028733484	9029155043	421559	1433.10	52.98	10	80	-1	9.29	9.29
Blink L	1	1	9028972228	9029270579	298351
Saccade R	1	1	9029155043	9029237579	82536	1430.53	10.04	1378.12	85.91	3.93	93.28	1.00	47.59	1702.41	-2243.49	1649.30
Fixation R	1	2	9029237579	9029568927	331348	1355.02	94.30	44	40	-1	9.51	9.51
Fixation L	1	2	9029270579	9029568927	298348	1353.58	94.83	33	40	-1	10.97	10.97
Saccade L	1	1	9029568927	9029648452	79525	1333.32	116.35	673.20	502.46	9.37	296.80	0.50	117.80	7369.93	-5933.53	4453.21
Saccade R	1	2	9029568927	9029648452	79525	1333.32	116.35	673.20	502.46	9.37	296.80	0.50	117.80	7369.93	-5933.53	4453.21
Fixation L	1	3	9029648452	9029767823	119371	684.71	531.47	17	38	-1	11.42	11.42
Fixation R	1	3	9029648452	9029767823	119371	684.71	531.47	17	38	-1	10.11	10.11
Saccade L	1	2	9029767823	9029787673	19850	690.64	538.30	774.51	493.87	0.55	96.00	1.00	27.94	2362.27	-2237.28	1615.06
Saccade R	1	3	9029767823	9029787673	19850	690.64	538.30	774.51	493.87	0.55	96.00	1.00	27.94	2362.27	-2237.28	1615.06
Fixation L	1	4	9029787673	9029946816	159143	784.04	476.25	15	26	-1	11.62	11.62
Fixation R	1	4	9029787673	9029946816	159143	784.04	476.25	15	26	-1	10.36	10.36
Saccade L	1	3	9029946816	9029966660	19844	789.60	467.00	873.05	466.23	0.45	84.41	1.00	22.88	2052.30	-1917.99	1347.48
Saccade R	1	4	9029946816	9029966660	19844	789.60	467.00	873.05	466.23	0.45	84.41	1.00	22.88	2052.30	-1917.99	1347.48
Fixation L	1	5	9029966660	9030762243	795583	921.22	465.43	69	26	-1	11.60	11.60
Fixation R	1	5	9029966660	9030762243	795583	921.22	465.43	69	26	-1	10.48	10.48
