[BeGaze]
Converted from:	C:\Documents and Settings\iViewX\Desktop\EXPERIMENTATIONS\Experiments\results\finaleart\S1022551-finaleart-1.idf
Date:	27.03.2019 15:37:33
Version:	BeGaze 2.5.77
Sample Rate:	50
Subject:	S1022551
Description:	Alexis Nebout

Table Header for Fixations:
Event Type	Trial	Number	Start	End	Duration	Location X	Location Y	Dispersion X	Dispersion Y	Plane	Avg. Pupil Size X	Avg. Pupil Size Y

Table Header for Saccades:
Event Type	Trial	Number	Start	End	Duration	Start Loc.X	Start Loc.Y	End Loc.X	End Loc.Y	Amplitude	Peak Speed	Peak Speed At	Average Speed	Peak Accel.	Peak Decel.	Average Accel.

Table Header for Blinks:
Event Type	Trial	Number	Start	End	Duration

Table Header for User Events:
Event Type	Trial	Number	Start	Description

UserEvent	1	1	7674324564	# Message: the_forest_Cross_1907.jpg
Fixation L	1	1	7674325774	7675340101	1014327	824.17	504.80	21	77	-1	13.98	13.98
Fixation R	1	1	7674325774	7675340101	1014327	824.17	504.80	21	77	-1	13.21	13.21
Saccade L	1	1	7675340101	7675359970	19869	833.38	563.44	835.39	564.69	0.08	5.30	0.00	3.88	27.48	-4.46	11.29
Saccade R	1	1	7675340101	7675359970	19869	833.38	563.44	835.39	564.69	0.08	5.30	0.00	3.88	27.48	-4.46	11.29
Fixation L	1	2	7675359970	7675618577	258607	874.21	577.07	63	32	-1	12.65	12.65
Fixation R	1	2	7675359970	7675618577	258607	874.21	577.07	63	32	-1	11.86	11.86
Saccade L	1	2	7675618577	7675638461	19884	898.40	592.67	899.90	598.62	0.06	6.21	1.00	2.90	102.09	-101.81	78.71
Saccade R	1	2	7675618577	7675638461	19884	898.40	592.67	899.90	598.62	0.06	6.21	1.00	2.90	102.09	-101.81	78.71
Fixation L	1	3	7675638461	7675976576	338115	938.62	585.08	58	25	-1	12.17	12.17
Fixation R	1	3	7675638461	7675976576	338115	938.62	585.08	58	25	-1	11.48	11.48
Saccade L	1	3	7675976576	7675996436	19860	958.77	582.26	823.83	597.98	1.04	137.40	1.00	52.60	3393.32	-3160.23	2687.73
Saccade R	1	3	7675976576	7675996436	19860	958.77	582.26	823.83	597.98	1.04	137.40	1.00	52.60	3393.32	-3160.23	2687.73
Fixation L	1	4	7675996436	7676175428	178992	778.50	628.64	52	41	-1	11.83	11.83
Fixation R	1	4	7675996436	7676175428	178992	778.50	628.64	52	41	-1	11.30	11.30
Saccade L	1	4	7676175428	7676195435	20007	774.32	639.83	775.21	649.03	0.11	9.36	1.00	5.36	196.31	-177.60	155.30
Saccade R	1	4	7676175428	7676195435	20007	774.32	639.83	775.21	649.03	0.11	9.36	1.00	5.36	196.31	-177.60	155.30
Fixation L	1	5	7676195435	7676334548	139113	775.57	652.37	3	12	-1	11.56	11.56
Fixation R	1	5	7676195435	7676334548	139113	775.57	652.37	3	12	-1	10.89	10.89
Saccade L	1	5	7676334548	7676354551	20003	776.76	657.34	659.18	658.11	0.68	118.93	1.00	34.04	2884.13	-2858.92	2011.71
Saccade R	1	5	7676334548	7676354551	20003	776.76	657.34	659.18	658.11	0.68	118.93	1.00	34.04	2884.13	-2858.92	2011.71
Fixation L	1	6	7676354551	7676593159	238608	674.39	659.61	18	4	-1	11.33	11.33
Fixation R	1	6	7676354551	7676593159	238608	674.39	659.61	18	4	-1	11.20	11.20
Saccade L	1	6	7676593159	7676613046	19887	677.85	659.16	991.26	655.82	2.05	316.75	1.00	102.87	7881.85	-7794.11	5975.74
Saccade R	1	6	7676593159	7676613046	19887	677.85	659.16	991.26	655.82	2.05	316.75	1.00	102.87	7881.85	-7794.11	5975.74
Fixation L	1	7	7676613046	7676891531	278485	1066.62	656.97	90	8	-1	11.33	11.33
Fixation R	1	7	7676613046	7676891531	278485	1066.62	656.97	90	8	-1	10.94	10.94
Saccade L	1	7	7676891531	7676911400	19869	1068.87	652.78	1067.06	650.90	0.05	4.04	1.00	2.60	38.57	-22.86	32.20
Saccade R	1	7	7676891531	7676911400	19869	1068.87	652.78	1067.06	650.90	0.05	4.04	1.00	2.60	38.57	-22.86	32.20
Fixation L	1	8	7676911400	7677150133	238733	1077.04	658.18	15	11	-1	11.17	11.17
Fixation R	1	8	7676911400	7677150133	238733	1077.04	658.18	15	11	-1	10.70	10.70
Saccade L	1	8	7677150133	7677170016	19883	1079.29	658.06	962.52	571.18	0.82	147.20	1.00	41.30	3597.66	-3517.31	2426.91
Saccade R	1	8	7677150133	7677170016	19883	1079.29	658.06	962.52	571.18	0.82	147.20	1.00	41.30	3597.66	-3517.31	2426.91
Fixation L	1	9	7677170016	7677706985	536969	986.88	567.04	88	11	-1	11.36	11.36
Fixation R	1	9	7677170016	7677706985	536969	986.88	567.04	88	11	-1	10.68	10.68
Saccade L	1	9	7677706985	7677826353	119368	1040.23	565.69	1257.12	521.29	3.26	143.69	0.83	27.31	3571.95	-3403.68	1370.03
Saccade R	1	9	7677706985	7677826353	119368	1040.23	565.69	1257.12	521.29	3.26	143.69	0.83	27.31	3571.95	-3403.68	1370.03
Fixation L	1	10	7677826353	7678025230	198877	1259.90	501.67	5	66	-1	12.16	12.16
Fixation R	1	10	7677826353	7678025230	198877	1259.90	501.67	5	66	-1	11.30	11.30
Saccade L	1	10	7678025230	7678045090	19860	1259.84	454.32	1262.69	191.50	1.62	265.71	1.00	81.52	6620.49	-6482.54	4702.40
Saccade R	1	10	7678025230	7678045090	19860	1259.84	454.32	1262.69	191.50	1.62	265.71	1.00	81.52	6620.49	-6482.54	4702.40
Fixation L	1	11	7678045090	7678343454	298364	1277.19	207.19	23	26	-1	12.03	12.03
Fixation R	1	11	7678045090	7678343454	298364	1277.19	207.19	23	26	-1	10.64	10.64
