[BeGaze]
Converted from:	C:\Documents and Settings\iViewX\Desktop\EXPERIMENTATIONS\Experiments\results\finaleart\S1022551-finaleart-1.idf
Date:	27.03.2019 15:37:44
Version:	BeGaze 2.5.77
Sample Rate:	50
Subject:	S1022551
Description:	Alexis Nebout

Table Header for Fixations:
Event Type	Trial	Number	Start	End	Duration	Location X	Location Y	Dispersion X	Dispersion Y	Plane	Avg. Pupil Size X	Avg. Pupil Size Y

Table Header for Saccades:
Event Type	Trial	Number	Start	End	Duration	Start Loc.X	Start Loc.Y	End Loc.X	End Loc.Y	Amplitude	Peak Speed	Peak Speed At	Average Speed	Peak Accel.	Peak Decel.	Average Accel.

Table Header for Blinks:
Event Type	Trial	Number	Start	End	Duration

Table Header for User Events:
Event Type	Trial	Number	Start	Description

UserEvent	1	1	7895443441	# Message: cross-La-fuite-des-nymphes-1906.jpg
Fixation L	1	1	7895448814	7895627850	179036	962.02	542.29	3	5	-1	12.86	12.86
Fixation R	1	1	7895448814	7895627850	179036	962.02	542.29	3	5	-1	10.91	10.91
Blink L	1	1	7895627850	7895786912	159062
Blink R	1	1	7895627850	7895786912	159062
Fixation L	1	2	7895786912	7896304015	517103	950.69	534.53	12	42	-1	11.90	11.90
Fixation R	1	2	7895786912	7896304015	517103	950.69	534.53	12	42	-1	10.98	10.98
Saccade L	1	1	7896304015	7896348673	44658	953.95	542.59	1064.67	443.84	1.62	90.34	0.44	36.25	2226.16	-2219.96	2182.31
Saccade R	1	1	7896304015	7896348673	44658	953.95	542.59	1064.67	443.84	1.62	90.34	0.44	36.25	2226.16	-2219.96	2182.31
Fixation L	1	3	7896348673	7896562632	213959	1069.30	442.95	9	38	-1	10.29	10.29
Fixation R	1	3	7896348673	7896562632	213959	1069.30	442.95	9	38	-1	9.87	9.87
Saccade L	1	2	7896562632	7896582521	19889	1072.07	414.47	1076.21	361.00	0.54	54.25	1.00	27.25	1305.92	-855.89	929.50
Saccade R	1	2	7896562632	7896582521	19889	1072.07	414.47	1076.21	361.00	0.54	54.25	1.00	27.25	1305.92	-855.89	929.50
Fixation L	1	4	7896582521	7896940486	357965	1090.69	331.93	21	41	-1	9.24	9.24
Fixation R	1	4	7896582521	7896940486	357965	1090.69	331.93	21	41	-1	9.07	9.07
Saccade L	1	3	7896940486	7896980362	39876	1091.42	342.83	1367.11	313.16	2.40	142.06	1.00	60.15	3441.41	-3272.57	3312.00
Saccade R	1	3	7896940486	7896980362	39876	1091.42	342.83	1367.11	313.16	2.40	142.06	1.00	60.15	3441.41	-3272.57	3312.00
Fixation L	1	5	7896980362	7897238848	258486	1349.32	316.61	24	22	-1	8.88	8.88
Fixation R	1	5	7896980362	7897238848	258486	1349.32	316.61	24	22	-1	8.68	8.68
Saccade L	1	4	7897238848	7897278729	39881	1343.68	304.48	1345.98	551.29	2.08	126.91	0.50	52.18	3113.05	-3076.42	3012.81
Saccade R	1	4	7897238848	7897278729	39881	1343.68	304.48	1345.98	551.29	2.08	126.91	0.50	52.18	3113.05	-3076.42	3012.81
Fixation L	1	6	7897278729	7897656582	377853	1340.21	560.01	19	23	-1	9.58	9.58
Fixation R	1	6	7897278729	7897656582	377853	1340.21	560.01	19	23	-1	9.17	9.17
Saccade L	1	5	7897656582	7897696323	39741	1331.27	574.62	1336.02	375.72	1.85	113.60	1.00	46.58	2785.10	-2636.97	2268.21
Saccade R	1	5	7897656582	7897696323	39741	1331.27	574.62	1336.02	375.72	1.85	113.60	1.00	46.58	2785.10	-2636.97	2268.21
Fixation L	1	7	7897696323	7897994691	298368	1366.20	395.05	38	35	-1	10.70	10.70
Fixation R	1	7	7897696323	7897994691	298368	1366.20	395.05	38	35	-1	10.04	10.04
Saccade L	1	6	7897994691	7898014559	19868	1362.39	411.55	1353.78	577.54	0.96	168.10	1.00	48.26	4156.09	-3999.13	2801.26
Saccade R	1	6	7897994691	7898014559	19868	1362.39	411.55	1353.78	577.54	0.96	168.10	1.00	48.26	4156.09	-3999.13	2801.26
Fixation L	1	8	7898014559	7898273172	258613	1327.05	584.71	39	15	-1	11.16	11.16
Fixation R	1	8	7898014559	7898273172	258613	1327.05	584.71	39	15	-1	10.23	10.23
Saccade L	1	7	7898273172	7898312926	39754	1315.47	589.02	834.94	686.80	4.16	250.61	1.00	104.59	6244.77	-5698.38	5956.69
Saccade R	1	7	7898273172	7898312926	39754	1315.47	589.02	834.94	686.80	4.16	250.61	1.00	104.59	6244.77	-5698.38	5956.69
Fixation L	1	9	7898312926	7898491911	178985	800.19	681.75	44	12	-1	11.31	11.31
Fixation R	1	9	7898312926	7898491911	178985	800.19	681.75	44	12	-1	10.58	10.58
Saccade L	1	8	7898491911	7898531790	39879	795.52	674.87	405.41	575.63	3.53	212.70	1.00	88.51	5259.53	-4878.82	5015.55
Saccade R	1	8	7898491911	7898531790	39879	795.52	674.87	405.41	575.63	3.53	212.70	1.00	88.51	5259.53	-4878.82	5015.55
Fixation L	1	10	7898531790	7898869892	338102	416.82	594.08	16	29	-1	10.73	10.73
Fixation R	1	10	7898531790	7898869892	338102	416.82	594.08	16	29	-1	10.36	10.36
Saccade L	1	9	7898869892	7898889762	19870	420.15	582.75	424.00	394.08	1.04	190.84	1.00	52.45	4673.83	-4711.54	3170.27
Saccade R	1	9	7898869892	7898889762	19870	420.15	582.75	424.00	394.08	1.04	190.84	1.00	52.45	4673.83	-4711.54	3170.27
Fixation L	1	11	7898889762	7899188129	298367	434.20	416.98	15	40	-1	10.32	10.32
Fixation R	1	11	7898889762	7899188129	298367	434.20	416.98	15	40	-1	10.18	10.18
Saccade L	1	10	7899188129	7899227892	39763	439.33	434.14	526.74	160.21	2.71	153.43	1.00	68.18	3810.53	-2998.30	3209.25
Saccade R	1	10	7899188129	7899227892	39763	439.33	434.14	526.74	160.21	2.71	153.43	1.00	68.18	3810.53	-2998.30	3209.25
Fixation L	1	12	7899227892	7899486494	258602	531.63	102.98	11	73	-1	10.37	10.37
Fixation R	1	12	7899227892	7899486494	258602	531.63	102.98	11	73	-1	10.22	10.22
