[BeGaze]
Converted from:	C:\Documents and Settings\iViewX\Desktop\EXPERIMENTATIONS\Experiments\results\finaleart\S1022551-finaleart-1.idf
Date:	27.03.2019 15:37:45
Version:	BeGaze 2.5.77
Sample Rate:	50
Subject:	S1022551
Description:	Alexis Nebout

Table Header for Fixations:
Event Type	Trial	Number	Start	End	Duration	Location X	Location Y	Dispersion X	Dispersion Y	Plane	Avg. Pupil Size X	Avg. Pupil Size Y

Table Header for Saccades:
Event Type	Trial	Number	Start	End	Duration	Start Loc.X	Start Loc.Y	End Loc.X	End Loc.Y	Amplitude	Peak Speed	Peak Speed At	Average Speed	Peak Accel.	Peak Decel.	Average Accel.

Table Header for Blinks:
Event Type	Trial	Number	Start	End	Duration

Table Header for User Events:
Event Type	Trial	Number	Start	Description

UserEvent	1	1	7918074126	# Message: void.jpg
Fixation L	1	1	7918083610	7918327198	243588	732.23	330.42	4	2	-1	9.45	9.45
Fixation R	1	1	7918083610	7918327198	243588	732.23	330.42	4	2	-1	9.68	9.68
Saccade L	1	1	7918327198	7918362102	34904	733.89	329.15	879.11	324.24	1.33	146.96	1.00	38.00	3640.97	-3578.26	2412.53
Saccade R	1	1	7918327198	7918362102	34904	733.89	329.15	879.11	324.24	1.33	146.96	1.00	38.00	3640.97	-3578.26	2412.53
Fixation L	1	2	7918362102	7918452648	90546	878.34	322.38	1	4	-1	9.43	9.43
Fixation R	1	2	7918362102	7918452648	90546	878.34	322.38	1	4	-1	9.59	9.59
Saccade L	1	2	7918452648	7918521213	68565	877.97	319.55	221.92	628.16	10.48	601.12	1.00	152.80	14932.34	-14301.16	9062.03
Saccade R	1	2	7918452648	7918521213	68565	877.97	319.55	221.92	628.16	10.48	601.12	1.00	152.80	14932.34	-14301.16	9062.03
Fixation L	1	3	7918521213	7918759949	238736	232.25	673.81	32	59	-1	8.84	8.84
Fixation R	1	3	7918521213	7918759949	238736	232.25	673.81	32	59	-1	9.49	9.49
Saccade L	1	3	7918759949	7918819569	59620	248.13	687.86	723.71	640.15	5.22	271.83	0.67	87.51	6685.43	-5933.55	4377.89
Saccade R	1	3	7918759949	7918819569	59620	248.13	687.86	723.71	640.15	5.22	271.83	0.67	87.51	6685.43	-5933.55	4377.89
Fixation L	1	4	7918819569	7919038312	218743	778.77	631.83	66	25	-1	9.38	9.38
Fixation R	1	4	7918819569	7919038312	218743	778.77	631.83	66	25	-1	10.05	10.05
Saccade L	1	4	7919038312	7919058192	19880	789.58	627.92	798.34	579.54	0.34	49.74	1.00	17.16	1199.52	-944.66	824.35
Saccade R	1	4	7919038312	7919058192	19880	789.58	627.92	798.34	579.54	0.34	49.74	1.00	17.16	1199.52	-944.66	824.35
Fixation L	1	5	7919058192	7919436161	377969	813.15	553.23	26	70	-1	10.39	10.39
Fixation R	1	5	7919058192	7919436161	377969	813.15	553.23	26	70	-1	10.64	10.64
Saccade L	1	5	7919436161	7919456051	19890	822.73	508.75	818.59	503.65	0.14	10.13	1.00	6.88	-31.62	-161.29	93.38
Saccade R	1	5	7919436161	7919456051	19890	822.73	508.75	818.59	503.65	0.14	10.13	1.00	6.88	-31.62	-161.29	93.38
Fixation L	1	6	7919456051	7919853889	397838	831.38	502.74	72	25	-1	11.36	11.36
Fixation R	1	6	7919456051	7919853889	397838	831.38	502.74	72	25	-1	11.29	11.29
Saccade L	1	6	7919853889	7919873775	19886	878.87	520.86	881.00	523.95	0.08	7.58	0.00	4.21	-7.35	-171.08	67.04
Saccade R	1	6	7919853889	7919873775	19886	878.87	520.86	881.00	523.95	0.08	7.58	0.00	4.21	-7.35	-171.08	67.04
Fixation L	1	7	7919873775	7920072634	198859	880.28	521.99	3	11	-1	11.69	11.69
Fixation R	1	7	7919873775	7920072634	198859	880.28	521.99	3	11	-1	11.68	11.68
