[BeGaze]
Converted from:	C:\Documents and Settings\iViewX\Desktop\EXPERIMENTATIONS\Experiments\results\finaleart\S1022551-finaleart-1.idf
Date:	27.03.2019 15:37:38
Version:	BeGaze 2.5.77
Sample Rate:	50
Subject:	S1022551
Description:	Alexis Nebout

Table Header for Fixations:
Event Type	Trial	Number	Start	End	Duration	Location X	Location Y	Dispersion X	Dispersion Y	Plane	Avg. Pupil Size X	Avg. Pupil Size Y

Table Header for Saccades:
Event Type	Trial	Number	Start	End	Duration	Start Loc.X	Start Loc.Y	End Loc.X	End Loc.Y	Amplitude	Peak Speed	Peak Speed At	Average Speed	Peak Accel.	Peak Decel.	Average Accel.

Table Header for Blinks:
Event Type	Trial	Number	Start	End	Duration

Table Header for User Events:
Event Type	Trial	Number	Start	Description

UserEvent	1	1	7740034588	# Message: void.jpg
Saccade L	1	1	7740042374	7740121898	79524	1567.46	324.40	1410.26	290.95	2.58	86.43	0.75	32.48	2100.76	-1737.06	1215.96
Saccade R	1	1	7740042374	7740121898	79524	1567.46	324.40	1410.26	290.95	2.58	86.43	0.75	32.48	2100.76	-1737.06	1215.96
Fixation L	1	1	7740121898	7740320861	198963	1404.33	266.38	10	38	-1	14.34	14.34
Fixation R	1	1	7740121898	7740320861	198963	1404.33	266.38	10	38	-1	11.49	11.49
Saccade L	1	2	7740320861	7740360610	39749	1402.38	252.89	688.81	27.71	6.43	427.55	0.50	161.66	10281.24	-10360.13	9146.62
Saccade R	1	2	7740320861	7740360610	39749	1402.38	252.89	688.81	27.71	6.43	427.55	0.50	161.66	10281.24	-10360.13	9146.62
Fixation L	1	2	7740360610	7740798233	437623	689.17	36.64	7	31	-1	13.98	13.98
Fixation R	1	2	7740360610	7740798233	437623	689.17	36.64	7	31	-1	11.57	11.57
Blink L	1	1	7740798233	7740957324	159091
Blink R	1	1	7740798233	7740957324	159091
Fixation L	1	3	7740957324	7741116443	159119	1000.49	647.17	3	48	-1	13.23	13.23
Fixation R	1	3	7740957324	7741116443	159119	1000.49	647.17	3	48	-1	12.26	12.26
Saccade L	1	3	7741116443	7741136319	19876	1002.79	626.84	1002.72	550.44	0.60	77.29	1.00	30.06	1838.41	-1866.38	1520.78
Saccade R	1	3	7741116443	7741136319	19876	1002.79	626.84	1002.72	550.44	0.60	77.29	1.00	30.06	1838.41	-1866.38	1520.78
Fixation L	1	4	7741136319	7741315318	178999	998.76	550.11	7	4	-1	13.43	13.43
Fixation R	1	4	7741136319	7741315318	178999	998.76	550.11	7	4	-1	12.63	12.63
Saccade L	1	4	7741315318	7741335191	19873	994.84	550.08	987.74	426.66	0.66	125.05	1.00	33.44	3063.12	-3041.01	2044.11
Saccade R	1	4	7741315318	7741335191	19873	994.84	550.08	987.74	426.66	0.66	125.05	1.00	33.44	3063.12	-3041.01	2044.11
Fixation L	1	5	7741335191	7741931913	596722	970.73	436.60	25	24	-1	13.74	13.74
Fixation R	1	5	7741335191	7741931913	596722	970.73	436.60	25	24	-1	12.66	12.66
Saccade L	1	5	7741931913	7741951779	19866	969.69	438.33	857.70	431.80	0.63	113.46	1.00	31.60	2740.60	-2824.33	1911.82
Saccade R	1	5	7741931913	7741951779	19866	969.69	438.33	857.70	431.80	0.63	113.46	1.00	31.60	2740.60	-2824.33	1911.82
Fixation L	1	6	7741951779	7742071151	119372	862.27	421.61	6	18	-1	13.91	13.91
Fixation R	1	6	7741951779	7742071151	119372	862.27	421.61	6	18	-1	12.82	12.82
