[BeGaze]
Converted from:	C:\Documents and Settings\iViewX\Desktop\EXPERIMENTATIONS\Experiments\results\finaleart\S1022551-finaleart-1.idf
Date:	27.03.2019 15:37:57
Version:	BeGaze 2.5.77
Sample Rate:	50
Subject:	S1022551
Description:	Alexis Nebout

Table Header for Fixations:
Event Type	Trial	Number	Start	End	Duration	Location X	Location Y	Dispersion X	Dispersion Y	Plane	Avg. Pupil Size X	Avg. Pupil Size Y

Table Header for Saccades:
Event Type	Trial	Number	Start	End	Duration	Start Loc.X	Start Loc.Y	End Loc.X	End Loc.Y	Amplitude	Peak Speed	Peak Speed At	Average Speed	Peak Accel.	Peak Decel.	Average Accel.

Table Header for Blinks:
Event Type	Trial	Number	Start	End	Duration

Table Header for User Events:
Event Type	Trial	Number	Start	Description

UserEvent	1	1	8218428732	# Message: void.jpg
Fixation L	1	1	8218443240	8218542743	99503	1413.26	611.80	9	3	-1	14.50	14.50
Fixation R	1	1	8218443240	8218542743	99503	1413.26	611.80	9	3	-1	13.04	13.04
Saccade L	1	1	8218542743	8218562595	19852	1408.02	609.76	1285.72	551.54	0.76	137.00	1.00	38.10	3387.05	-3132.73	2192.53
Saccade R	1	1	8218542743	8218562595	19852	1408.02	609.76	1285.72	551.54	0.76	137.00	1.00	38.10	3387.05	-3132.73	2192.53
Fixation L	1	2	8218562595	8218874124	311529	1290.36	532.12	7	28	-1	14.06	14.06
Fixation R	1	2	8218562595	8218874124	311529	1290.36	532.12	7	28	-1	12.79	12.79
Saccade L	1	2	8218874124	8218953325	79201	1289.05	524.05	977.86	352.47	7.24	359.01	1.00	91.46	8900.59	-8838.32	5915.34
Saccade R	1	2	8218874124	8218953325	79201	1289.05	524.05	977.86	352.47	7.24	359.01	1.00	91.46	8900.59	-8838.32	5915.34
Fixation L	1	3	8218953325	8219378054	424729	970.33	331.45	42	32	-1	12.87	12.87
Fixation R	1	3	8218953325	8219378054	424729	970.33	331.45	42	32	-1	11.93	11.93
Saccade L	1	3	8219378054	8219437673	59619	934.95	340.40	907.58	446.23	2.51	78.95	0.33	42.11	25041.94	-1541.27	5889.45
Saccade R	1	3	8219378054	8219437673	59619	934.95	340.40	907.58	446.23	2.51	78.95	0.33	42.11	25041.94	-1541.27	5889.45
Blink L	1	1	8219437673	8219636674	199001
Blink R	1	1	8219437673	8219636674	199001
Saccade L	1	4	8219636674	8219676417	39743	915.51	473.48	953.97	628.12	6.95	669.71	1.00	175.00	1800.97	-14895.06	4925.70
Saccade R	1	4	8219636674	8219676417	39743	915.51	473.48	953.97	628.12	6.95	669.71	1.00	175.00	1800.97	-14895.06	4925.70
Fixation L	1	4	8219676417	8220412382	735965	980.44	591.63	31	64	-1	12.09	12.09
Fixation R	1	4	8219676417	8220412382	735965	980.44	591.63	31	64	-1	11.27	11.27
Saccade L	1	5	8220412382	8220472003	59621	982.68	571.16	977.29	519.06	1.05	54.05	0.33	17.68	1307.07	-1235.35	743.07
Saccade R	1	5	8220412382	8220472003	59621	982.68	571.16	977.29	519.06	1.05	54.05	0.33	17.68	1307.07	-1235.35	743.07
