[BeGaze]
Converted from:	C:\Documents and Settings\iViewX\Desktop\EXPERIMENTATIONS\Experiments\results\finaleart\S1022551-finaleart-1.idf
Date:	27.03.2019 15:37:54
Version:	BeGaze 2.5.77
Sample Rate:	50
Subject:	S1022551
Description:	Alexis Nebout

Table Header for Fixations:
Event Type	Trial	Number	Start	End	Duration	Location X	Location Y	Dispersion X	Dispersion Y	Plane	Avg. Pupil Size X	Avg. Pupil Size Y

Table Header for Saccades:
Event Type	Trial	Number	Start	End	Duration	Start Loc.X	Start Loc.Y	End Loc.X	End Loc.Y	Amplitude	Peak Speed	Peak Speed At	Average Speed	Peak Accel.	Peak Decel.	Average Accel.

Table Header for Blinks:
Event Type	Trial	Number	Start	End	Duration

Table Header for User Events:
Event Type	Trial	Number	Start	Description

UserEvent	1	1	8181333387	# Message: void.jpg
Fixation L	1	1	8181348389	8181536858	188469	809.74	461.30	2	3	-1	16.93	16.93
Fixation R	1	1	8181348389	8181536858	188469	809.74	461.30	2	3	-1	15.36	15.36
Saccade L	1	1	8181536858	8181567129	30271	811.13	463.60	1019.44	548.61	1.98	227.49	1.00	65.55	5662.15	-5445.34	3927.84
Saccade R	1	1	8181536858	8181567129	30271	811.13	463.60	1019.44	548.61	1.98	227.49	1.00	65.55	5662.15	-5445.34	3927.84
Fixation L	1	2	8181567129	8181765975	198846	1035.32	585.49	20	53	-1	16.79	16.79
Fixation R	1	2	8181567129	8181765975	198846	1035.32	585.49	20	53	-1	15.50	15.50
Saccade L	1	2	8181765975	8181865481	99506	1040.09	602.39	1163.61	628.44	3.03	88.18	0.73	30.50	2167.11	-1685.27	1379.08
Saccade R	1	2	8181765975	8181865481	99506	1040.09	602.39	1163.61	628.44	3.03	88.18	0.73	30.50	2167.11	-1685.27	1379.08
Fixation L	1	3	8181865481	8182283202	417721	1175.15	669.59	17	51	-1	17.10	17.10
Fixation R	1	3	8181865481	8182283202	417721	1175.15	669.59	17	51	-1	14.91	14.91
Saccade L	1	3	8182283202	8182303077	19875	1172.86	673.87	1011.09	653.59	1.10	164.90	1.00	55.50	4107.06	-3911.19	3061.20
Saccade R	1	3	8182283202	8182303077	19875	1172.86	673.87	1011.09	653.59	1.10	164.90	1.00	55.50	4107.06	-3911.19	3061.20
Fixation L	1	4	8182303077	8182521825	218748	969.46	619.87	53	44	-1	15.89	15.89
Fixation R	1	4	8182303077	8182521825	218748	969.46	619.87	53	44	-1	13.56	13.56
Saccade L	1	4	8182521825	8182541693	19868	957.14	609.19	954.81	604.55	0.08	6.02	0.00	3.81	94.06	-104.80	95.86
Saccade R	1	4	8182521825	8182541693	19868	957.14	609.19	954.81	604.55	0.08	6.02	0.00	3.81	94.06	-104.80	95.86
Fixation L	1	5	8182541693	8183377153	835460	938.98	598.64	27	35	-1	15.35	15.35
Fixation R	1	5	8182541693	8183377153	835460	938.98	598.64	27	35	-1	13.28	13.28
