[BeGaze]
Converted from:	C:\Documents and Settings\iViewX\Desktop\EXPERIMENTATIONS\Experiments\results\finaleart\S1022551-finaleart-1.idf
Date:	27.03.2019 15:37:41
Version:	BeGaze 2.5.77
Sample Rate:	50
Subject:	S1022551
Description:	Alexis Nebout

Table Header for Fixations:
Event Type	Trial	Number	Start	End	Duration	Location X	Location Y	Dispersion X	Dispersion Y	Plane	Avg. Pupil Size X	Avg. Pupil Size Y

Table Header for Saccades:
Event Type	Trial	Number	Start	End	Duration	Start Loc.X	Start Loc.Y	End Loc.X	End Loc.Y	Amplitude	Peak Speed	Peak Speed At	Average Speed	Peak Accel.	Peak Decel.	Average Accel.

Table Header for Blinks:
Event Type	Trial	Number	Start	End	Duration

Table Header for User Events:
Event Type	Trial	Number	Start	Description

UserEvent	1	1	7850196623	# Message: void.jpg
Saccade L	1	1	7850198985	7850238727	39742	1289.03	929.91	1391.88	929.33	1.16	106.31	1.00	29.15	2657.81	-2594.26	1347.15
Saccade R	1	1	7850198985	7850238727	39742	1289.03	929.91	1391.88	929.33	1.16	106.31	1.00	29.15	2657.81	-2594.26	1347.15
Fixation L	1	1	7850238727	7850704101	465374	1383.22	935.01	81	8	-1	16.13	16.13
Fixation R	1	1	7850238727	7850704101	465374	1383.22	935.01	81	8	-1	14.53	14.53
Saccade L	1	2	7850704101	7850735958	31857	1310.05	936.93	755.12	929.79	5.17	559.65	1.00	162.29	13984.24	-13958.67	9908.80
Saccade R	1	2	7850704101	7850735958	31857	1310.05	936.93	755.12	929.79	5.17	559.65	1.00	162.29	13984.24	-13958.67	9908.80
Fixation L	1	2	7850735958	7851133819	397861	739.10	909.44	22	28	-1	16.86	16.86
Fixation R	1	2	7850735958	7851133819	397861	739.10	909.44	22	28	-1	15.11	15.11
Saccade L	1	3	7851133819	7851153676	19857	734.21	901.61	654.15	901.84	0.60	80.98	1.00	30.43	2002.00	-1878.07	1618.18
Saccade R	1	3	7851133819	7851153676	19857	734.21	901.61	654.15	901.84	0.60	80.98	1.00	30.43	2002.00	-1878.07	1618.18
Fixation L	1	3	7851153676	7851392312	238636	627.16	899.27	67	4	-1	15.95	15.95
Fixation R	1	3	7851153676	7851392312	238636	627.16	899.27	67	4	-1	14.91	14.91
Saccade L	1	4	7851392312	7851412290	19978	682.60	897.16	876.40	731.42	1.83	257.80	1.00	91.63	6396.72	-6252.15	4449.60
Saccade R	1	4	7851392312	7851412290	19978	682.60	897.16	876.40	731.42	1.83	257.80	1.00	91.63	6396.72	-6252.15	4449.60
Fixation L	1	4	7851412290	7851650916	238626	896.86	692.40	23	47	-1	15.41	15.41
Fixation R	1	4	7851412290	7851650916	238626	896.86	692.40	23	47	-1	14.63	14.63
Saccade L	1	5	7851650916	7851670779	19863	899.63	686.79	898.53	562.83	0.69	125.39	1.00	34.88	3094.64	-3091.60	2150.21
Saccade R	1	5	7851650916	7851670779	19863	899.63	686.79	898.53	562.83	0.69	125.39	1.00	34.88	3094.64	-3091.60	2150.21
Fixation L	1	5	7851670779	7852227748	556969	904.12	576.73	15	23	-1	14.61	14.61
Fixation R	1	5	7851670779	7852227748	556969	904.12	576.73	15	23	-1	13.61	13.61
