[BeGaze]
Converted from:	C:\Documents and Settings\iViewX\Desktop\EXPERIMENTATIONS\Experiments\results\finaleart\S1022551-finaleart-1.idf
Date:	27.03.2019 15:38:23
Version:	BeGaze 2.5.77
Sample Rate:	50
Subject:	S1022551
Description:	Alexis Nebout

Table Header for Fixations:
Event Type	Trial	Number	Start	End	Duration	Location X	Location Y	Dispersion X	Dispersion Y	Plane	Avg. Pupil Size X	Avg. Pupil Size Y

Table Header for Saccades:
Event Type	Trial	Number	Start	End	Duration	Start Loc.X	Start Loc.Y	End Loc.X	End Loc.Y	Amplitude	Peak Speed	Peak Speed At	Average Speed	Peak Accel.	Peak Decel.	Average Accel.

Table Header for Blinks:
Event Type	Trial	Number	Start	End	Duration

Table Header for User Events:
Event Type	Trial	Number	Start	Description

UserEvent	1	1	8917842936	# Message: void.jpg
Saccade L	1	1	8917846656	8917866520	19864	1339.28	645.05	978.80	631.29	2.54	364.45	1.00	128.00	488.82	-9069.76	3186.19
Saccade R	1	1	8917846656	8917866520	19864	1339.28	645.05	978.80	631.29	2.54	364.45	1.00	128.00	488.82	-9069.76	3186.19
Fixation L	1	1	8917866520	8918237669	371149	956.85	634.13	28	8	-1	12.49	12.49
Fixation R	1	1	8917866520	8918237669	371149	956.85	634.13	28	8	-1	10.71	10.71
Saccade L	1	2	8918237669	8918269985	32316	951.24	633.53	800.61	626.75	1.33	152.50	1.00	41.06	3759.54	-3795.43	2585.47
Saccade R	1	2	8918237669	8918269985	32316	951.24	633.53	800.61	626.75	1.33	152.50	1.00	41.06	3759.54	-3795.43	2585.47
Fixation L	1	2	8918269985	8918681973	411988	797.69	608.39	4	29	-1	11.68	11.68
Fixation R	1	2	8918269985	8918681973	411988	797.69	608.39	4	29	-1	10.33	10.33
Blink L	1	1	8918681973	8918980342	298369
Blink R	1	1	8918681973	8918980342	298369
Fixation L	1	3	8918980342	8919736198	755856	777.50	493.56	22	63	-1	10.88	10.88
Fixation R	1	3	8918980342	8919736198	755856	777.50	493.56	22	63	-1	10.28	10.28
Saccade L	1	3	8919736198	8919756056	19858	789.74	513.04	811.46	526.27	0.25	25.73	1.00	12.52	572.46	-195.92	320.50
Saccade R	1	3	8919736198	8919756056	19858	789.74	513.04	811.46	526.27	0.25	25.73	1.00	12.52	572.46	-195.92	320.50
Fixation L	1	4	8919756056	8919895302	139246	824.92	541.91	24	21	-1	11.00	11.00
Fixation R	1	4	8919756056	8919895302	139246	824.92	541.91	24	21	-1	10.59	10.59
