[BeGaze]
Converted from:	C:\Documents and Settings\iViewX\Desktop\EXPERIMENTATIONS\Experiments\results\finaleart\S1022551-finaleart-1.idf
Date:	27.03.2019 15:37:37
Version:	BeGaze 2.5.77
Sample Rate:	50
Subject:	S1022551
Description:	Alexis Nebout

Table Header for Fixations:
Event Type	Trial	Number	Start	End	Duration	Location X	Location Y	Dispersion X	Dispersion Y	Plane	Avg. Pupil Size X	Avg. Pupil Size Y

Table Header for Saccades:
Event Type	Trial	Number	Start	End	Duration	Start Loc.X	Start Loc.Y	End Loc.X	End Loc.Y	Amplitude	Peak Speed	Peak Speed At	Average Speed	Peak Accel.	Peak Decel.	Average Accel.

Table Header for Blinks:
Event Type	Trial	Number	Start	End	Duration

Table Header for User Events:
Event Type	Trial	Number	Start	Description

UserEvent	1	1	7723634661	# Message: manet-the-salmon-1868.jpg
Fixation L	1	1	7723652914	7724448619	795705	820.33	455.99	16	37	-1	12.20	12.20
Fixation R	1	1	7723652914	7724448619	795705	820.33	455.99	16	37	-1	11.43	11.43
Saccade L	1	1	7724448619	7724468503	19884	828.23	476.17	1055.24	477.05	1.21	229.53	1.00	61.02	5722.70	-5655.25	3816.52
Saccade R	1	1	7724448619	7724468503	19884	828.23	476.17	1055.24	477.05	1.21	229.53	1.00	61.02	5722.70	-5655.25	3816.52
Fixation L	1	2	7724468503	7724866222	397719	1051.15	473.50	8	14	-1	11.38	11.38
Fixation R	1	2	7724468503	7724866222	397719	1051.15	473.50	8	14	-1	10.64	10.64
Saccade L	1	2	7724866222	7724886097	19875	1049.47	462.65	956.51	458.47	0.51	94.13	1.00	25.87	2251.48	-2296.55	1528.03
Saccade R	1	2	7724866222	7724886097	19875	1049.47	462.65	956.51	458.47	0.51	94.13	1.00	25.87	2251.48	-2296.55	1528.03
Fixation L	1	3	7724886097	7725144706	258609	957.24	453.84	4	12	-1	11.21	11.21
Fixation R	1	3	7724886097	7725144706	258609	957.24	453.84	4	12	-1	10.38	10.38
Saccade L	1	3	7725144706	7725164598	19892	957.61	454.97	736.14	477.89	1.36	225.13	1.00	68.15	5499.01	-5106.49	3865.88
Saccade R	1	3	7725144706	7725164598	19892	957.61	454.97	736.14	477.89	1.36	225.13	1.00	68.15	5499.01	-5106.49	3865.88
Fixation L	1	4	7725164598	7725423204	258606	687.81	504.08	56	35	-1	11.56	11.56
Fixation R	1	4	7725164598	7725423204	258606	687.81	504.08	56	35	-1	10.90	10.90
Saccade L	1	4	7725423204	7725443081	19877	679.55	509.37	657.54	624.74	0.70	118.80	1.00	35.41	2873.36	-2699.05	1983.93
Saccade R	1	4	7725423204	7725443081	19877	679.55	509.37	657.54	624.74	0.70	118.80	1.00	35.41	2873.36	-2699.05	1983.93
Fixation L	1	5	7725443081	7726000038	556957	627.54	615.24	36	21	-1	12.15	12.15
Fixation R	1	5	7725443081	7726000038	556957	627.54	615.24	36	21	-1	11.44	11.44
Saccade L	1	5	7726000038	7726039803	39765	622.29	602.96	1126.06	485.84	4.40	334.64	0.50	110.72	8331.29	-7646.37	6320.00
Saccade R	1	5	7726000038	7726039803	39765	622.29	602.96	1126.06	485.84	4.40	334.64	0.50	110.72	8331.29	-7646.37	6320.00
Fixation L	1	6	7726039803	7726377899	338096	1125.41	458.05	6	34	-1	12.11	12.11
Fixation R	1	6	7726039803	7726377899	338096	1125.41	458.05	6	34	-1	11.12	11.12
Saccade L	1	6	7726377899	7726397777	19878	1121.45	463.10	1292.29	456.23	0.92	172.91	1.00	46.12	4267.89	-4080.57	2794.16
Saccade R	1	6	7726377899	7726397777	19878	1121.45	463.10	1292.29	456.23	0.92	172.91	1.00	46.12	4267.89	-4080.57	2794.16
Fixation L	1	7	7726397777	7726895006	497229	1287.07	414.08	7	56	-1	11.40	11.40
Fixation R	1	7	7726397777	7726895006	497229	1287.07	414.08	7	56	-1	10.75	10.75
Saccade L	1	7	7726895006	7726934874	39868	1287.82	399.25	921.82	407.86	3.04	250.45	1.00	76.19	6223.79	-5557.44	4385.02
Saccade R	1	7	7726895006	7726934874	39868	1287.82	399.25	921.82	407.86	3.04	250.45	1.00	76.19	6223.79	-5557.44	4385.02
Fixation L	1	8	7726934874	7727173494	238620	931.58	448.87	35	53	-1	11.12	11.12
Fixation R	1	8	7726934874	7727173494	238620	931.58	448.87	35	53	-1	10.49	10.49
Saccade L	1	8	7727173494	7727193365	19871	957.39	461.40	1006.34	459.25	0.42	49.57	1.00	20.90	1210.73	-1143.95	940.58
Saccade R	1	8	7727173494	7727193365	19871	957.39	461.40	1006.34	459.25	0.42	49.57	1.00	20.90	1210.73	-1143.95	940.58
Fixation L	1	9	7727193365	7727352478	159113	1005.49	462.99	12	8	-1	11.48	11.48
Fixation R	1	9	7727193365	7727352478	159113	1005.49	462.99	12	8	-1	10.78	10.78
Saccade L	1	9	7727352478	7727392233	39755	1011.91	467.07	1075.33	285.19	1.69	114.73	0.50	42.43	2758.86	-2708.48	2348.46
Saccade R	1	9	7727352478	7727392233	39755	1011.91	467.07	1075.33	285.19	1.69	114.73	0.50	42.43	2758.86	-2708.48	2348.46
Fixation L	1	10	7727392233	7727670709	278476	1085.53	294.35	20	20	-1	11.75	11.75
Fixation R	1	10	7727392233	7727670709	278476	1085.53	294.35	20	20	-1	10.80	10.80
