[BeGaze]
Converted from:	C:\Documents and Settings\iViewX\Desktop\EXPERIMENTATIONS\Experiments\results\finaleart\S1022551-finaleart-1.idf
Date:	27.03.2019 15:37:43
Version:	BeGaze 2.5.77
Sample Rate:	50
Subject:	S1022551
Description:	Alexis Nebout

Table Header for Fixations:
Event Type	Trial	Number	Start	End	Duration	Location X	Location Y	Dispersion X	Dispersion Y	Plane	Avg. Pupil Size X	Avg. Pupil Size Y

Table Header for Saccades:
Event Type	Trial	Number	Start	End	Duration	Start Loc.X	Start Loc.Y	End Loc.X	End Loc.Y	Amplitude	Peak Speed	Peak Speed At	Average Speed	Peak Accel.	Peak Decel.	Average Accel.

Table Header for Blinks:
Event Type	Trial	Number	Start	End	Duration

Table Header for User Events:
Event Type	Trial	Number	Start	Description

UserEvent	1	1	7876978732	# Message: kneeling-nude_degas_1888.jpg
Fixation L	1	1	7876990824	7877098058	107234	943.63	516.34	14	85	-1	14.79	14.79
Fixation R	1	1	7876990824	7877098058	107234	943.63	516.34	14	85	-1	13.19	13.19
Saccade L	1	1	7877098058	7877130153	32095	953.01	463.79	955.42	473.86	0.94	77.90	1.00	29.18	138.67	-1685.46	611.13
Saccade R	1	1	7877098058	7877130153	32095	953.01	463.79	955.42	473.86	0.94	77.90	1.00	29.18	138.67	-1685.46	611.13
Fixation L	1	2	7877130153	7877253391	123238	957.63	481.21	3	16	-1	14.55	14.55
Fixation R	1	2	7877130153	7877253391	123238	957.63	481.21	3	16	-1	13.24	13.24
Blink L	1	1	7877253391	7877527788	274397
Blink R	1	1	7877253391	7877527788	274397
Fixation L	1	3	7877527788	7877786410	258622	924.87	583.84	11	16	-1	14.01	14.01
Fixation R	1	3	7877527788	7877786410	258622	924.87	583.84	11	16	-1	12.77	12.77
Saccade L	1	2	7877786410	7877826167	39757	930.14	590.61	1241.84	649.89	2.80	162.18	0.50	70.48	4008.91	-3893.32	3813.71
Saccade R	1	2	7877786410	7877826167	39757	930.14	590.61	1241.84	649.89	2.80	162.18	0.50	70.48	4008.91	-3893.32	3813.71
Fixation L	1	4	7877826167	7877965392	139225	1241.92	675.18	3	35	-1	13.02	13.02
Fixation R	1	4	7877826167	7877965392	139225	1241.92	675.18	3	35	-1	11.82	11.82
Saccade L	1	3	7877965392	7878046125	80733	1244.11	680.67	768.25	516.19	8.63	384.27	0.74	106.94	9452.28	-9345.30	6235.47
Saccade R	1	3	7877965392	7878046125	80733	1244.11	680.67	768.25	516.19	8.63	384.27	0.74	106.94	9452.28	-9345.30	6235.47
Fixation L	1	5	7878046125	7878383119	336994	757.27	496.27	19	56	-1	10.86	10.86
Fixation R	1	5	7878046125	7878383119	336994	757.27	496.27	19	56	-1	10.12	10.12
Saccade L	1	4	7878383119	7878403011	19892	748.65	459.70	602.83	260.92	1.82	249.24	1.00	91.28	6219.51	-5989.56	4450.79
Saccade R	1	4	7878383119	7878403011	19892	748.65	459.70	602.83	260.92	1.82	249.24	1.00	91.28	6219.51	-5989.56	4450.79
Fixation L	1	6	7878403011	7878542243	139232	599.92	201.28	20	78	-1	9.73	9.73
Fixation R	1	6	7878403011	7878542243	139232	599.92	201.28	20	78	-1	9.16	9.16
Saccade L	1	5	7878542243	7878562126	19883	608.55	200.54	610.93	204.75	0.11	8.54	1.00	5.64	82.33	18.84	42.18
Saccade R	1	5	7878542243	7878562126	19883	608.55	200.54	610.93	204.75	0.11	8.54	1.00	5.64	82.33	18.84	42.18
Fixation L	1	7	7878562126	7878681483	119357	605.73	207.48	54	12	-1	9.31	9.31
Fixation R	1	7	7878562126	7878681483	119357	605.73	207.48	54	12	-1	8.81	8.81
Saccade L	1	6	7878681483	7878701363	19880	560.09	199.64	356.41	60.90	1.67	249.15	1.00	84.04	6199.42	-5960.51	4268.71
Saccade R	1	6	7878681483	7878701363	19880	560.09	199.64	356.41	60.90	1.67	249.15	1.00	84.04	6199.42	-5960.51	4268.71
Fixation L	1	8	7878701363	7878939974	238611	337.29	86.95	27	72	-1	9.24	9.24
Fixation R	1	8	7878701363	7878939974	238611	337.29	86.95	27	72	-1	8.77	8.77
Saccade L	1	7	7878939974	7879079215	139241	342.95	116.23	1198.17	277.85	12.94	385.57	0.71	92.90	9347.16	-7241.85	3661.12
Saccade R	1	7	7878939974	7879079215	139241	342.95	116.23	1198.17	277.85	12.94	385.57	0.71	92.90	9347.16	-7241.85	3661.12
Fixation L	1	9	7879079215	7879576448	497233	1213.67	293.53	72	21	-1	9.64	9.64
Fixation R	1	9	7879079215	7879576448	497233	1213.67	293.53	72	21	-1	9.25	9.25
Saccade L	1	8	7879576448	7879596446	19998	1153.57	283.18	897.63	237.17	1.92	262.88	1.00	96.08	6498.93	-6126.57	4208.86
Saccade R	1	8	7879576448	7879596446	19998	1153.57	283.18	897.63	237.17	1.92	262.88	1.00	96.08	6498.93	-6126.57	4208.86
Fixation L	1	10	7879596446	7879854933	258487	833.59	239.87	73	20	-1	10.17	10.17
Fixation R	1	10	7879596446	7879854933	258487	833.59	239.87	73	20	-1	9.30	9.30
Saccade L	1	9	7879854933	7879874801	19868	824.50	237.17	708.21	167.62	0.84	137.05	1.00	42.42	3404.48	-2298.14	2137.06
Saccade R	1	9	7879854933	7879874801	19868	824.50	237.17	708.21	167.62	0.84	137.05	1.00	42.42	3404.48	-2298.14	2137.06
Fixation L	1	11	7879874801	7879974313	99512	697.42	117.57	25	71	-1	10.21	10.21
Fixation R	1	11	7879874801	7879974313	99512	697.42	117.57	25	71	-1	9.49	9.49
Saccade L	1	10	7879974313	7880093667	119354	685.12	98.47	1005.69	579.71	8.50	378.29	0.83	71.18	8683.05	-9192.17	3252.03
Saccade R	1	10	7879974313	7880093667	119354	685.12	98.47	1005.69	579.71	8.50	378.29	0.83	71.18	8683.05	-9192.17	3252.03
Fixation L	1	12	7880093667	7880352158	258491	1019.12	570.77	23	47	-1	10.21	10.21
Fixation R	1	12	7880093667	7880352158	258491	1019.12	570.77	23	47	-1	9.69	9.69
Saccade L	1	11	7880352158	7880451682	99524	1029.39	610.29	1254.48	797.65	4.94	125.41	1.00	49.64	2956.32	-2986.85	2431.01
Saccade R	1	11	7880352158	7880451682	99524	1029.39	610.29	1254.48	797.65	4.94	125.41	1.00	49.64	2956.32	-2986.85	2431.01
Fixation L	1	13	7880451682	7880948878	497196	1229.77	787.26	70	18	-1	10.87	10.87
Fixation R	1	13	7880451682	7880948878	497196	1229.77	787.26	70	18	-1	9.99	9.99
Saccade L	1	12	7880948878	7881008627	59749	1185.59	778.96	961.76	637.21	3.37	264.62	0.33	56.40	6582.29	-6484.82	3305.70
Saccade R	1	12	7880948878	7881008627	59749	1185.59	778.96	961.76	637.21	3.37	264.62	0.33	56.40	6582.29	-6484.82	3305.70
