[BeGaze]
Converted from:	C:\Documents and Settings\iViewX\Desktop\EXPERIMENTATIONS\Experiments\results\finaleart\S1022551-finaleart-1.idf
Date:	27.03.2019 15:37:37
Version:	BeGaze 2.5.77
Sample Rate:	50
Subject:	S1022551
Description:	Alexis Nebout

Table Header for Fixations:
Event Type	Trial	Number	Start	End	Duration	Location X	Location Y	Dispersion X	Dispersion Y	Plane	Avg. Pupil Size X	Avg. Pupil Size Y

Table Header for Saccades:
Event Type	Trial	Number	Start	End	Duration	Start Loc.X	Start Loc.Y	End Loc.X	End Loc.Y	Amplitude	Peak Speed	Peak Speed At	Average Speed	Peak Accel.	Peak Decel.	Average Accel.

Table Header for Blinks:
Event Type	Trial	Number	Start	End	Duration

Table Header for User Events:
Event Type	Trial	Number	Start	Description

UserEvent	1	1	7733906169	# Message: void.jpg
Fixation L	1	1	7733916177	7734831133	914956	1057.77	726.30	15	43	-1	14.12	14.12
Fixation R	1	1	7733916177	7734831133	914956	1057.77	726.30	15	43	-1	12.90	12.90
Saccade L	1	1	7734831133	7734850993	19860	1054.51	745.70	849.95	730.00	1.23	207.45	1.00	62.04	5136.71	-4840.50	3392.00
Saccade R	1	1	7734831133	7734850993	19860	1054.51	745.70	849.95	730.00	1.23	207.45	1.00	62.04	5136.71	-4840.50	3392.00
Fixation L	1	2	7734850993	7735089737	238744	821.23	725.60	42	11	-1	14.16	14.16
Fixation R	1	2	7734850993	7735089737	238744	821.23	725.60	42	11	-1	12.84	12.84
Saccade L	1	2	7735089737	7735109608	19871	807.21	718.11	806.38	650.15	0.58	68.75	1.00	28.99	1542.40	-1215.67	1164.97
Saccade R	1	2	7735089737	7735109608	19871	807.21	718.11	806.38	650.15	0.58	68.75	1.00	28.99	1542.40	-1215.67	1164.97
Fixation L	1	3	7735109608	7735746084	636476	789.18	625.91	44	53	-1	13.60	13.60
Fixation R	1	3	7735109608	7735746084	636476	789.18	625.91	44	53	-1	12.85	12.85
Saccade L	1	3	7735746084	7735765949	19865	762.05	596.72	753.12	593.62	0.27	24.40	1.00	13.57	-68.69	-370.96	182.03
Saccade R	1	3	7735746084	7735765949	19865	762.05	596.72	753.12	593.62	0.27	24.40	1.00	13.57	-68.69	-370.96	182.03
Fixation L	1	4	7735765949	7735925066	159117	749.87	590.68	18	8	-1	13.73	13.73
Fixation R	1	4	7735765949	7735925066	159117	749.87	590.68	18	8	-1	13.22	13.22
