[BeGaze]
Converted from:	C:\Documents and Settings\iViewX\Desktop\EXPERIMENTATIONS\Experiments\results\finaleart\S1022551-finaleart-1.idf
Date:	27.03.2019 15:37:58
Version:	BeGaze 2.5.77
Sample Rate:	50
Subject:	S1022551
Description:	Alexis Nebout

Table Header for Fixations:
Event Type	Trial	Number	Start	End	Duration	Location X	Location Y	Dispersion X	Dispersion Y	Plane	Avg. Pupil Size X	Avg. Pupil Size Y

Table Header for Saccades:
Event Type	Trial	Number	Start	End	Duration	Start Loc.X	Start Loc.Y	End Loc.X	End Loc.Y	Amplitude	Peak Speed	Peak Speed At	Average Speed	Peak Accel.	Peak Decel.	Average Accel.

Table Header for Blinks:
Event Type	Trial	Number	Start	End	Duration

Table Header for User Events:
Event Type	Trial	Number	Start	Description

UserEvent	1	1	8236998709	# Message: void.jpg
Fixation L	1	1	8237000632	8237264864	264232	1700.51	668.09	10	10	-1	10.93	10.93
Fixation R	1	1	8237000632	8237264864	264232	1700.51	668.09	10	10	-1	9.97	9.97
Saccade L	1	1	8237264864	8237298965	34101	1704.90	670.21	1687.91	544.27	1.21	128.54	1.00	35.34	3116.27	-3112.64	2131.48
Saccade R	1	1	8237264864	8237298965	34101	1704.90	670.21	1687.91	544.27	1.21	128.54	1.00	35.34	3116.27	-3112.64	2131.48
Fixation L	1	2	8237298965	8237696804	397839	1647.73	553.87	61	19	-1	10.75	10.75
Fixation R	1	2	8237298965	8237696804	397839	1647.73	553.87	61	19	-1	9.80	9.80
Saccade L	1	2	8237696804	8237756447	59643	1625.93	563.41	1050.69	548.68	6.08	335.46	0.67	101.99	8311.25	-7794.29	5306.66
Saccade R	1	2	8237696804	8237756447	59643	1625.93	563.41	1050.69	548.68	6.08	335.46	0.67	101.99	8311.25	-7794.29	5306.66
Fixation L	1	3	8237756447	8238035090	278643	1003.94	532.29	62	34	-1	11.75	11.75
Fixation R	1	3	8237756447	8238035090	278643	1003.94	532.29	62	34	-1	10.89	10.89
Saccade L	1	3	8238035090	8238140451	105361	987.99	519.67	843.63	498.00	3.54	145.37	1.00	33.64	3587.38	-3267.13	1805.47
Saccade R	1	3	8238035090	8238140451	105361	987.99	519.67	843.63	498.00	3.54	145.37	1.00	33.64	3587.38	-3267.13	1805.47
Fixation L	1	4	8238140451	8238611767	471316	848.95	469.63	19	41	-1	13.72	13.72
Fixation R	1	4	8238140451	8238611767	471316	848.95	469.63	19	41	-1	12.44	12.44
Saccade L	1	4	8238611767	8238631640	19873	841.45	472.28	654.54	463.70	1.06	189.22	1.00	53.40	4651.18	-4658.42	3270.15
Saccade R	1	4	8238611767	8238631640	19873	841.45	472.28	654.54	463.70	1.06	189.22	1.00	53.40	4651.18	-4658.42	3270.15
Fixation L	1	5	8238631640	8238909992	278352	640.80	456.54	33	31	-1	14.75	14.75
Fixation R	1	5	8238631640	8238909992	278352	640.80	456.54	33	31	-1	13.28	13.28
Saccade L	1	5	8238909992	8239009497	99505	665.41	469.25	817.52	491.42	2.91	141.91	0.20	29.21	3238.57	-3373.82	1198.52
Saccade R	1	5	8238909992	8239009497	99505	665.41	469.25	817.52	491.42	2.91	141.91	0.20	29.21	3238.57	-3373.82	1198.52
