[BeGaze]
Converted from:	C:\Documents and Settings\iViewX\Desktop\EXPERIMENTATIONS\Experiments\results\finaleart\S1022551-finaleart-1.idf
Date:	27.03.2019 15:38:08
Version:	BeGaze 2.5.77
Sample Rate:	50
Subject:	S1022551
Description:	Alexis Nebout

Table Header for Fixations:
Event Type	Trial	Number	Start	End	Duration	Location X	Location Y	Dispersion X	Dispersion Y	Plane	Avg. Pupil Size X	Avg. Pupil Size Y

Table Header for Saccades:
Event Type	Trial	Number	Start	End	Duration	Start Loc.X	Start Loc.Y	End Loc.X	End Loc.Y	Amplitude	Peak Speed	Peak Speed At	Average Speed	Peak Accel.	Peak Decel.	Average Accel.

Table Header for Blinks:
Event Type	Trial	Number	Start	End	Duration

Table Header for User Events:
Event Type	Trial	Number	Start	Description

UserEvent	1	1	8497908832	# Message: the_model's_siesta_Rysselberghe_1920.jpg
Fixation L	1	1	8497924237	8498719820	795583	911.30	506.23	11	42	-1	13.82	13.82
Fixation R	1	1	8497924237	8498719820	795583	911.30	506.23	11	42	-1	12.30	12.30
Saccade L	1	1	8498719820	8498906169	186349	917.01	516.07	1014.78	274.68	11.74	155.18	0.11	63.01	3715.11	-2861.90	2976.62
Saccade R	1	1	8498719820	8498906169	186349	917.01	516.07	1014.78	274.68	11.74	155.18	0.11	63.01	3715.11	-2861.90	2976.62
Fixation L	1	2	8498906169	8499475653	569484	1057.06	252.67	48	50	-1	10.98	10.98
Fixation R	1	2	8498906169	8499475653	569484	1057.06	252.67	48	50	-1	9.93	9.93
Saccade L	1	2	8499475653	8499495540	19887	1052.96	227.10	1048.49	215.32	0.25	16.30	1.00	12.65	56.09	-114.01	86.31
Saccade R	1	2	8499475653	8499495540	19887	1052.96	227.10	1048.49	215.32	0.25	16.30	1.00	12.65	56.09	-114.01	86.31
Fixation L	1	3	8499495540	8499594902	99362	1042.85	227.66	10	21	-1	10.54	10.54
Fixation R	1	3	8499495540	8499594902	99362	1042.85	227.66	10	21	-1	9.78	9.78
Saccade L	1	3	8499594902	8499634782	39880	1038.49	225.28	1037.71	601.01	3.24	194.80	1.00	81.12	4740.69	-4345.34	4458.12
Saccade R	1	3	8499594902	8499634782	39880	1038.49	225.28	1037.71	601.01	3.24	194.80	1.00	81.12	4740.69	-4345.34	4458.12
Fixation L	1	4	8499634782	8500072265	437483	1061.85	627.58	31	41	-1	10.88	10.88
Fixation R	1	4	8499634782	8500072265	437483	1061.85	627.58	31	41	-1	10.10	10.10
Saccade L	1	4	8500072265	8500112123	39858	1064.96	634.27	1328.82	630.17	2.22	156.04	0.50	55.59	3843.08	-3709.28	3261.50
Saccade R	1	4	8500072265	8500112123	39858	1064.96	634.27	1328.82	630.17	2.22	156.04	0.50	55.59	3843.08	-3709.28	3261.50
Fixation L	1	5	8500112123	8500450245	338122	1338.38	627.20	12	9	-1	11.31	11.31
Fixation R	1	5	8500112123	8500450245	338122	1338.38	627.20	12	9	-1	10.30	10.30
Saccade L	1	5	8500450245	8500470115	19870	1341.80	634.13	1364.55	826.01	1.16	195.39	1.00	58.55	4818.21	-4620.63	3320.41
Saccade R	1	5	8500450245	8500470115	19870	1341.80	634.13	1364.55	826.01	1.16	195.39	1.00	58.55	4818.21	-4620.63	3320.41
Fixation L	1	6	8500470115	8501106606	636491	1399.64	853.41	42	54	-1	11.87	11.87
Fixation R	1	6	8500470115	8501106606	636491	1399.64	853.41	42	54	-1	10.86	10.86
Saccade L	1	6	8501106606	8501126466	19860	1394.07	880.01	1395.32	888.78	0.17	11.71	1.00	8.34	116.29	-69.72	89.85
Saccade R	1	6	8501106606	8501126466	19860	1394.07	880.01	1395.32	888.78	0.17	11.71	1.00	8.34	116.29	-69.72	89.85
Fixation L	1	7	8501126466	8501225958	99492	1397.00	901.01	4	17	-1	12.78	12.78
Fixation R	1	7	8501126466	8501225958	99492	1397.00	901.01	4	17	-1	11.37	11.37
Saccade L	1	7	8501225958	8501285578	59620	1398.90	903.65	573.62	881.86	8.65	431.24	0.67	145.11	10757.60	-9957.11	6958.22
Saccade R	1	7	8501225958	8501285578	59620	1398.90	903.65	573.62	881.86	8.65	431.24	0.67	145.11	10757.60	-9957.11	6958.22
Fixation L	1	8	8501285578	8501902167	616589	554.62	852.24	30	37	-1	12.28	12.28
Fixation R	1	8	8501285578	8501902167	616589	554.62	852.24	30	37	-1	11.53	11.53
