[BeGaze]
Converted from:	C:\Documents and Settings\iViewX\Desktop\EXPERIMENTATIONS\Experiments\results\finaleart\S1022551-finaleart-1.idf
Date:	27.03.2019 15:38:29
Version:	BeGaze 2.5.77
Sample Rate:	50
Subject:	S1022551
Description:	Alexis Nebout

Table Header for Fixations:
Event Type	Trial	Number	Start	End	Duration	Location X	Location Y	Dispersion X	Dispersion Y	Plane	Avg. Pupil Size X	Avg. Pupil Size Y

Table Header for Saccades:
Event Type	Trial	Number	Start	End	Duration	Start Loc.X	Start Loc.Y	End Loc.X	End Loc.Y	Amplitude	Peak Speed	Peak Speed At	Average Speed	Peak Accel.	Peak Decel.	Average Accel.

Table Header for Blinks:
Event Type	Trial	Number	Start	End	Duration

Table Header for User Events:
Event Type	Trial	Number	Start	Description

UserEvent	1	1	9006181642	# Message: Ma_Maison_Martin_XXXX.jpg
Fixation L	1	1	9006198174	9006973885	775711	864.53	401.17	36	41	-1	12.14	12.14
Fixation R	1	1	9006198174	9006973885	775711	864.53	401.17	36	41	-1	10.74	10.74
Blink L	1	1	9006973885	9007093120	119235
Blink R	1	1	9006973885	9007093120	119235
Fixation L	1	2	9007093120	9007331871	238751	937.40	575.45	10	22	-1	12.11	12.11
Fixation R	1	2	9007093120	9007331871	238751	937.40	575.45	10	22	-1	10.64	10.64
Saccade L	1	1	9007331871	9007371613	39742	940.63	587.19	1335.77	590.95	3.32	271.13	0.50	83.52	6667.31	-6558.07	4862.74
Saccade R	1	1	9007331871	9007371613	39742	940.63	587.19	1335.77	590.95	3.32	271.13	0.50	83.52	6667.31	-6558.07	4862.74
Fixation L	1	3	9007371613	9008047961	676348	1351.55	586.87	22	35	-1	11.61	11.61
Fixation R	1	3	9007371613	9008047961	676348	1351.55	586.87	22	35	-1	10.36	10.36
Saccade L	1	2	9008047961	9008087707	39746	1358.25	601.75	1476.69	535.90	1.56	106.31	0.50	39.21	2600.82	-1835.51	1649.29
Saccade R	1	2	9008047961	9008087707	39746	1358.25	601.75	1476.69	535.90	1.56	106.31	0.50	39.21	2600.82	-1835.51	1649.29
Fixation L	1	4	9008087707	9008286571	198864	1499.60	502.55	29	48	-1	12.17	12.17
Fixation R	1	4	9008087707	9008286571	198864	1499.60	502.55	29	48	-1	10.43	10.43
Saccade L	1	3	9008286571	9008306442	19871	1506.07	493.18	1513.84	314.52	1.20	180.84	1.00	60.21	4462.17	-4149.54	3246.13
Saccade R	1	3	9008286571	9008306442	19871	1506.07	493.18	1513.84	314.52	1.20	180.84	1.00	60.21	4462.17	-4149.54	3246.13
Fixation L	1	5	9008306442	9008644548	338106	1531.07	282.47	25	50	-1	11.70	11.70
Fixation R	1	5	9008306442	9008644548	338106	1531.07	282.47	25	50	-1	10.21	10.21
Saccade L	1	4	9008644548	9008664564	20016	1539.35	270.14	1536.15	203.39	0.47	67.60	1.00	23.43	1620.98	-1304.76	1000.78
Saccade R	1	4	9008644548	9008664564	20016	1539.35	270.14	1536.15	203.39	0.47	67.60	1.00	23.43	1620.98	-1304.76	1000.78
Fixation L	1	6	9008664564	9008903166	238602	1525.11	215.49	21	23	-1	11.27	11.27
Fixation R	1	6	9008664564	9008903166	238602	1525.11	215.49	21	23	-1	9.86	9.86
Saccade L	1	5	9008903166	9008962781	59615	1514.59	215.57	701.09	254.91	8.33	460.57	0.67	139.71	11455.94	-11352.75	6815.21
Saccade R	1	5	9008903166	9008962781	59615	1514.59	215.57	701.09	254.91	8.33	460.57	0.67	139.71	11455.94	-11352.75	6815.21
Fixation L	1	7	9008962781	9009241275	278494	694.03	273.31	16	24	-1	11.33	11.33
Fixation R	1	7	9008962781	9009241275	278494	694.03	273.31	16	24	-1	10.18	10.18
Saccade L	1	6	9009241275	9009281020	39745	685.98	269.68	444.06	286.64	2.18	168.80	0.50	54.82	4197.47	-3746.80	2879.58
Saccade R	1	6	9009241275	9009281020	39745	685.98	269.68	444.06	286.64	2.18	168.80	0.50	54.82	4197.47	-3746.80	2879.58
Fixation L	1	8	9009281020	9009639130	358110	433.76	319.50	14	44	-1	10.98	10.98
Fixation R	1	8	9009281020	9009639130	358110	433.76	319.50	14	44	-1	9.92	9.92
Saccade L	1	7	9009639130	9009678880	39750	440.42	330.41	370.46	139.17	1.82	110.74	1.00	45.69	2554.83	-2611.64	2434.08
Saccade R	1	7	9009639130	9009678880	39750	440.42	330.41	370.46	139.17	1.82	110.74	1.00	45.69	2554.83	-2611.64	2434.08
Fixation L	1	9	9009678880	9010017000	338120	360.83	158.66	16	39	-1	10.64	10.64
Fixation R	1	9	9009678880	9010017000	338120	360.83	158.66	16	39	-1	9.77	9.77
Saccade L	1	8	9010017000	9010056735	39735	363.08	178.22	710.32	252.08	2.96	264.45	1.00	74.42	6532.44	-6398.78	4375.98
Saccade R	1	8	9010017000	9010056735	39735	363.08	178.22	710.32	252.08	2.96	264.45	1.00	74.42	6532.44	-6398.78	4375.98
Fixation L	1	10	9010056735	9010235875	179140	709.26	244.32	2	23	-1	10.60	10.60
Fixation R	1	10	9010056735	9010235875	179140	709.26	244.32	2	23	-1	9.82	9.82
