[BeGaze]
Converted from:	C:\Documents and Settings\iViewX\Desktop\EXPERIMENTATIONS\Experiments\results\finaleart\S1022551-finaleart-1.idf
Date:	27.03.2019 15:37:54
Version:	BeGaze 2.5.77
Sample Rate:	50
Subject:	S1022551
Description:	Alexis Nebout

Table Header for Fixations:
Event Type	Trial	Number	Start	End	Duration	Location X	Location Y	Dispersion X	Dispersion Y	Plane	Avg. Pupil Size X	Avg. Pupil Size Y

Table Header for Saccades:
Event Type	Trial	Number	Start	End	Duration	Start Loc.X	Start Loc.Y	End Loc.X	End Loc.Y	Amplitude	Peak Speed	Peak Speed At	Average Speed	Peak Accel.	Peak Decel.	Average Accel.

Table Header for Blinks:
Event Type	Trial	Number	Start	End	Duration

Table Header for User Events:
Event Type	Trial	Number	Start	Description

UserEvent	1	1	8177254491	# Message: nasturtiums-dahlias-in-a-basket_gauguin_1884.jpg
Fixation L	1	1	8177270954	8177569178	298224	921.48	606.88	63	33	-1	16.29	16.29
Fixation R	1	1	8177270954	8177569178	298224	921.48	606.88	63	33	-1	13.71	13.71
Saccade L	1	1	8177569178	8177630465	61287	897.95	621.39	893.88	624.51	0.25	6.21	1.00	4.03	14.21	-101.53	47.11
Saccade R	1	1	8177569178	8177630465	61287	897.95	621.39	893.88	624.51	0.25	6.21	1.00	4.03	14.21	-101.53	47.11
Fixation L	1	2	8177630465	8177967034	336569	910.92	630.95	43	49	-1	16.24	16.24
Fixation R	1	2	8177630465	8177967034	336569	910.92	630.95	43	49	-1	13.71	13.71
Blink L	1	1	8177967034	8178126151	159117
Blink R	1	1	8177967034	8178126151	159117
Fixation L	1	3	8178126151	8178325025	198874	927.29	705.73	3	25	-1	16.31	16.31
Fixation R	1	3	8178126151	8178325025	198874	927.29	705.73	3	25	-1	13.71	13.71
Saccade L	1	2	8178325025	8178344897	19872	928.92	705.09	928.78	606.27	0.72	99.96	1.00	36.26	1920.70	-2302.73	1473.98
Saccade R	1	2	8178325025	8178344897	19872	928.92	705.09	928.78	606.27	0.72	99.96	1.00	36.26	1920.70	-2302.73	1473.98
Fixation L	1	4	8178344897	8178862129	517232	937.65	611.62	12	24	-1	16.16	16.16
Fixation R	1	4	8178344897	8178862129	517232	937.65	611.62	12	24	-1	13.88	13.88
Saccade L	1	3	8178862129	8178881994	19865	940.07	606.68	850.38	603.86	0.48	90.77	1.00	24.27	2233.86	-1939.20	1400.82
Saccade R	1	3	8178862129	8178881994	19865	940.07	606.68	850.38	603.86	0.48	90.77	1.00	24.27	2233.86	-1939.20	1400.82
Fixation L	1	5	8178881994	8179180374	298380	838.72	578.47	14	41	-1	15.71	15.71
Fixation R	1	5	8178881994	8179180374	298380	838.72	578.47	14	41	-1	13.97	13.97
Saccade L	1	4	8179180374	8179200235	19861	836.09	566.55	923.77	561.92	0.49	88.82	1.00	24.77	2201.02	-2190.86	1489.14
Saccade R	1	4	8179180374	8179200235	19861	836.09	566.55	923.77	561.92	0.49	88.82	1.00	24.77	2201.02	-2190.86	1489.14
Fixation L	1	6	8179200235	8179458847	258612	925.98	572.91	4	16	-1	15.38	15.38
Fixation R	1	6	8179200235	8179458847	258612	925.98	572.91	4	16	-1	13.90	13.90
Saccade L	1	5	8179458847	8179478716	19869	923.46	578.29	861.40	432.97	0.92	159.82	1.00	46.23	3979.33	-3478.89	2669.48
Saccade R	1	5	8179458847	8179478716	19869	923.46	578.29	861.40	432.97	0.92	159.82	1.00	46.23	3979.33	-3478.89	2669.48
Fixation L	1	7	8179478716	8179816821	338105	860.52	421.88	24	18	-1	15.57	15.57
Fixation R	1	7	8179478716	8179816821	338105	860.52	421.88	24	18	-1	13.68	13.68
Saccade L	1	6	8179816821	8179856575	39754	859.92	429.58	957.96	592.42	1.94	152.27	1.00	48.69	3757.00	-3614.26	2788.08
Saccade R	1	6	8179816821	8179856575	39754	859.92	429.58	957.96	592.42	1.94	152.27	1.00	48.69	3757.00	-3614.26	2788.08
Fixation L	1	8	8179856575	8180115182	258607	964.77	582.17	10	14	-1	15.65	15.65
Fixation R	1	8	8179856575	8180115182	258607	964.77	582.17	10	14	-1	13.75	13.75
Saccade L	1	7	8180115182	8180154947	39765	968.10	578.70	1255.25	698.64	2.57	191.51	1.00	64.69	4739.72	-4668.02	3921.91
Saccade R	1	7	8180115182	8180154947	39765	968.10	578.70	1255.25	698.64	2.57	191.51	1.00	64.69	4739.72	-4668.02	3921.91
Fixation L	1	9	8180154947	8180572661	417714	1249.42	696.73	9	8	-1	16.00	16.00
Fixation R	1	9	8180154947	8180572661	417714	1249.42	696.73	9	8	-1	13.89	13.89
Saccade L	1	8	8180572661	8180592548	19887	1246.77	693.13	1095.73	590.50	1.07	184.67	1.00	53.72	4611.17	-4375.71	3241.71
Saccade R	1	8	8180572661	8180592548	19887	1246.77	693.13	1095.73	590.50	1.07	184.67	1.00	53.72	4611.17	-4375.71	3241.71
Fixation L	1	10	8180592548	8180731789	139241	1076.00	570.79	27	27	-1	16.02	16.02
Fixation R	1	10	8180592548	8180731789	139241	1076.00	570.79	27	27	-1	13.79	13.79
Blink L	1	2	8180731789	8180890897	159108
Blink R	1	2	8180731789	8180890897	159108
Fixation L	1	11	8180890897	8181229012	338115	1065.72	584.28	11	36	-1	16.96	16.96
Fixation R	1	11	8180890897	8181229012	338115	1065.72	584.28	11	36	-1	14.92	14.92
Saccade L	1	9	8181229012	8181248879	19867	1065.43	581.97	935.18	586.70	0.96	131.83	1.00	48.18	3213.14	0.00	1606.57
Saccade R	1	9	8181229012	8181248879	19867	1065.43	581.97	935.18	586.70	0.96	131.83	1.00	48.18	3213.14	0.00	1606.57
