[BeGaze]
Converted from:	C:\Documents and Settings\iViewX\Desktop\EXPERIMENTATIONS\Experiments\results\finaleart\S1022551-finaleart-1.idf
Date:	27.03.2019 15:37:48
Version:	BeGaze 2.5.77
Sample Rate:	50
Subject:	S1022551
Description:	Alexis Nebout

Table Header for Fixations:
Event Type	Trial	Number	Start	End	Duration	Location X	Location Y	Dispersion X	Dispersion Y	Plane	Avg. Pupil Size X	Avg. Pupil Size Y

Table Header for Saccades:
Event Type	Trial	Number	Start	End	Duration	Start Loc.X	Start Loc.Y	End Loc.X	End Loc.Y	Amplitude	Peak Speed	Peak Speed At	Average Speed	Peak Accel.	Peak Decel.	Average Accel.

Table Header for Blinks:
Event Type	Trial	Number	Start	End	Duration

Table Header for User Events:
Event Type	Trial	Number	Start	Description

UserEvent	1	1	7951105932	# Message: still-life-with-bottle-of-wind_cross_1904.jpg
Saccade L	1	1	7951120901	7951180644	59743	856.91	537.72	780.83	503.49	1.22	80.28	1.00	20.45	1953.76	-1878.13	844.61
Saccade R	1	1	7951120901	7951180644	59743	856.91	537.72	780.83	503.49	1.22	80.28	1.00	20.45	1953.76	-1878.13	844.61
Fixation L	1	1	7951180644	7951638138	457494	771.02	478.48	14	35	-1	14.08	14.08
Fixation R	1	1	7951180644	7951638138	457494	771.02	478.48	14	35	-1	12.21	12.21
Saccade L	1	2	7951638138	7951658027	19889	776.21	467.82	899.91	465.47	0.70	125.15	1.00	35.15	3087.16	-2994.45	2079.20
Saccade R	1	2	7951638138	7951658027	19889	776.21	467.82	899.91	465.47	0.70	125.15	1.00	35.15	3087.16	-2994.45	2079.20
Fixation L	1	2	7951658027	7952098741	440714	906.06	472.22	16	17	-1	13.57	13.57
Fixation R	1	2	7951658027	7952098741	440714	906.06	472.22	16	17	-1	11.78	11.78
Saccade L	1	3	7952098741	7952135360	36619	912.02	481.25	1155.31	483.28	2.31	245.98	1.00	62.97	6111.65	-6084.94	4081.06
Saccade R	1	3	7952098741	7952135360	36619	912.02	481.25	1155.31	483.28	2.31	245.98	1.00	62.97	6111.65	-6084.94	4081.06
Fixation L	1	3	7952135360	7952294470	159110	1154.35	487.73	3	9	-1	12.15	12.15
Fixation R	1	3	7952135360	7952294470	159110	1154.35	487.73	3	9	-1	10.31	10.31
Saccade L	1	4	7952294470	7952314341	19871	1154.24	490.43	1241.76	556.73	0.59	111.06	1.00	29.61	2726.47	-2524.84	1755.23
Saccade R	1	4	7952294470	7952314341	19871	1154.24	490.43	1241.76	556.73	0.59	111.06	1.00	29.61	2726.47	-2524.84	1755.23
Fixation L	1	4	7952314341	7952632574	318233	1241.46	563.72	7	9	-1	12.16	12.16
Fixation R	1	4	7952314341	7952632574	318233	1241.46	563.72	7	9	-1	10.39	10.39
Blink L	1	1	7952632574	7952851437	218863
Blink R	1	1	7952632574	7952851437	218863
Fixation L	1	5	7952851437	7953746395	894958	1198.38	514.85	48	50	-1	11.90	11.90
Fixation R	1	5	7952851437	7953746395	894958	1198.38	514.85	48	50	-1	11.06	11.06
Saccade L	1	5	7953746395	7953766289	19894	1241.73	528.24	1252.44	528.08	0.35	25.42	1.00	17.44	-106.99	-364.74	234.44
Saccade R	1	5	7953746395	7953766289	19894	1241.73	528.24	1252.44	528.08	0.35	25.42	1.00	17.44	-106.99	-364.74	234.44
Fixation L	1	6	7953766289	7954064623	298334	1249.69	526.16	17	20	-1	12.56	12.56
Fixation R	1	6	7953766289	7954064623	298334	1249.69	526.16	17	20	-1	11.26	11.26
Saccade L	1	6	7954064623	7954104507	39884	1253.00	539.32	1504.16	507.12	2.26	131.24	1.00	56.70	3184.15	-2701.96	2859.35
Saccade R	1	6	7954064623	7954104507	39884	1253.00	539.32	1504.16	507.12	2.26	131.24	1.00	56.70	3184.15	-2701.96	2859.35
Fixation L	1	7	7954104507	7954303371	198864	1488.62	518.33	19	45	-1	11.91	11.91
Fixation R	1	7	7954104507	7954303371	198864	1488.62	518.33	19	45	-1	11.07	11.07
Saccade L	1	7	7954303371	7954343121	39750	1487.42	517.84	958.93	386.40	4.75	337.34	1.00	119.38	8422.82	-8239.09	6554.20
Saccade R	1	7	7954303371	7954343121	39750	1487.42	517.84	958.93	386.40	4.75	337.34	1.00	119.38	8422.82	-8239.09	6554.20
Fixation L	1	8	7954343121	7954621605	278484	912.95	362.58	56	34	-1	11.75	11.75
Fixation R	1	8	7954343121	7954621605	278484	912.95	362.58	56	34	-1	10.76	10.76
Saccade L	1	8	7954621605	7954661351	39746	902.75	352.22	809.80	465.99	1.43	83.11	0.50	35.97	2072.28	-1607.12	1751.96
Saccade R	1	8	7954621605	7954661351	39746	902.75	352.22	809.80	465.99	1.43	83.11	0.50	35.97	2072.28	-1607.12	1751.96
Fixation L	1	9	7954661351	7954880223	218872	790.81	483.69	30	23	-1	11.34	11.34
Fixation R	1	9	7954661351	7954880223	218872	790.81	483.69	30	23	-1	10.79	10.79
Saccade L	1	9	7954880223	7954919965	39742	779.37	486.66	453.52	863.69	4.51	380.23	0.50	113.45	9456.19	-8532.33	6206.11
Saccade R	1	9	7954880223	7954919965	39742	779.37	486.66	453.52	863.69	4.51	380.23	0.50	113.45	9456.19	-8532.33	6206.11
Fixation L	1	10	7954919965	7955098961	178996	430.77	848.80	34	30	-1	11.19	11.19
Fixation R	1	10	7954919965	7955098961	178996	430.77	848.80	34	30	-1	10.86	10.86
