[BeGaze]
Converted from:	C:\Documents and Settings\iViewX\Desktop\EXPERIMENTATIONS\Experiments\results\finaleart\S1022551-finaleart-1.idf
Date:	27.03.2019 15:38:18
Version:	BeGaze 2.5.77
Sample Rate:	50
Subject:	S1022551
Description:	Alexis Nebout

Table Header for Fixations:
Event Type	Trial	Number	Start	End	Duration	Location X	Location Y	Dispersion X	Dispersion Y	Plane	Avg. Pupil Size X	Avg. Pupil Size Y

Table Header for Saccades:
Event Type	Trial	Number	Start	End	Duration	Start Loc.X	Start Loc.Y	End Loc.X	End Loc.Y	Amplitude	Peak Speed	Peak Speed At	Average Speed	Peak Accel.	Peak Decel.	Average Accel.

Table Header for Blinks:
Event Type	Trial	Number	Start	End	Duration

Table Header for User Events:
Event Type	Trial	Number	Start	Description

UserEvent	1	1	8762516462	# Message: ronde_cross_1905.jpg
Fixation L	1	1	8762534953	8762972569	437616	831.14	496.25	73	13	-1	10.66	10.66
Fixation R	1	1	8762534953	8762972569	437616	831.14	496.25	73	13	-1	9.76	9.76
Saccade L	1	1	8762972569	8763055224	82655	815.90	497.77	894.41	496.72	2.24	79.43	1.00	27.15	1926.04	-1907.02	1419.67
Saccade R	1	1	8762972569	8763055224	82655	815.90	497.77	894.41	496.72	2.24	79.43	1.00	27.15	1926.04	-1907.02	1419.67
Fixation L	1	2	8763055224	8763589147	533923	855.56	496.13	85	13	-1	10.23	10.23
Fixation R	1	2	8763055224	8763589147	533923	855.56	496.13	85	13	-1	9.48	9.48
Saccade L	1	2	8763589147	8763609027	19880	808.52	505.19	806.70	505.53	0.05	3.52	1.00	2.44	8.13	-41.03	17.85
Saccade R	1	2	8763589147	8763609027	19880	808.52	505.19	806.70	505.53	0.05	3.52	1.00	2.44	8.13	-41.03	17.85
Fixation L	1	3	8763609027	8763708513	99486	796.90	501.15	39	36	-1	9.27	9.27
Fixation R	1	3	8763609027	8763708513	99486	796.90	501.15	39	36	-1	8.87	8.87
Saccade L	1	3	8763708513	8763728397	19884	766.79	473.81	761.25	435.92	0.56	38.74	1.00	28.02	582.98	-662.98	558.00
Saccade R	1	3	8763708513	8763728397	19884	766.79	473.81	761.25	435.92	0.56	38.74	1.00	28.02	582.98	-662.98	558.00
Fixation L	1	4	8763728397	8763927260	198863	739.63	432.09	32	30	-1	8.68	8.68
Fixation R	1	4	8763728397	8763927260	198863	739.63	432.09	32	30	-1	8.47	8.47
Saccade L	1	4	8763927260	8763966999	39739	729.11	423.23	453.88	451.94	2.55	143.59	0.50	64.19	3427.82	-3047.56	3160.66
Saccade R	1	4	8763927260	8763966999	39739	729.11	423.23	453.88	451.94	2.55	143.59	0.50	64.19	3427.82	-3047.56	3160.66
Fixation L	1	5	8763966999	8764484242	517243	459.42	505.12	20	67	-1	8.02	8.02
Fixation R	1	5	8763966999	8764484242	517243	459.42	505.12	20	67	-1	7.99	7.99
Saccade L	1	5	8764484242	8764523988	39746	472.16	519.26	754.37	497.00	2.43	161.46	0.50	61.15	3939.72	-3809.67	3360.70
Saccade R	1	5	8764484242	8764523988	39746	472.16	519.26	754.37	497.00	2.43	161.46	0.50	61.15	3939.72	-3809.67	3360.70
Fixation L	1	6	8764523988	8764742735	218747	771.43	473.33	38	35	-1	8.01	8.01
Fixation R	1	6	8764523988	8764742735	218747	771.43	473.33	38	35	-1	7.93	7.93
Saccade L	1	6	8764742735	8764762598	19863	792.96	461.79	1120.83	455.94	1.80	331.37	1.00	90.41	8227.80	-8235.47	5618.34
Saccade R	1	6	8764742735	8764762598	19863	792.96	461.79	1120.83	455.94	1.80	331.37	1.00	90.41	8227.80	-8235.47	5618.34
Fixation L	1	7	8764762598	8765200199	437601	1131.23	462.44	13	36	-1	8.34	8.34
Fixation R	1	7	8764762598	8765200199	437601	1131.23	462.44	13	36	-1	8.08	8.08
Saccade L	1	7	8765200199	8765220070	19871	1129.27	485.89	1032.83	489.80	0.80	97.63	1.00	40.25	2144.37	-1532.95	1602.15
Saccade R	1	7	8765200199	8765220070	19871	1129.27	485.89	1032.83	489.80	0.80	97.63	1.00	40.25	2144.37	-1532.95	1602.15
Fixation L	1	8	8765220070	8765617934	397864	1044.79	507.16	53	28	-1	9.38	9.38
Fixation R	1	8	8765220070	8765617934	397864	1044.79	507.16	53	28	-1	8.76	8.76
Saccade L	1	8	8765617934	8765637796	19862	1086.00	518.09	1157.73	533.97	0.71	74.31	1.00	35.78	1827.59	-1800.13	1500.33
Saccade R	1	8	8765617934	8765637796	19862	1086.00	518.09	1157.73	533.97	0.71	74.31	1.00	35.78	1827.59	-1800.13	1500.33
Fixation L	1	9	8765637796	8766075409	437613	1171.70	560.94	20	39	-1	10.16	10.16
Fixation R	1	9	8765637796	8766075409	437613	1171.70	560.94	20	39	-1	9.16	9.16
Saccade L	1	9	8766075409	8766095289	19880	1161.65	573.93	1116.98	571.94	0.35	45.23	1.00	17.84	1041.99	-1007.20	747.57
Saccade R	1	9	8766075409	8766095289	19880	1161.65	573.93	1116.98	571.94	0.35	45.23	1.00	17.84	1041.99	-1007.20	747.57
Fixation L	1	10	8766095289	8766513002	417713	1093.64	576.26	28	8	-1	10.21	10.21
Fixation R	1	10	8766095289	8766513002	417713	1093.64	576.26	28	8	-1	9.08	9.08
