[BeGaze]
Converted from:	C:\Documents and Settings\iViewX\Desktop\EXPERIMENTATIONS\Experiments\results\finaleart\S1022551-finaleart-1.idf
Date:	27.03.2019 15:37:53
Version:	BeGaze 2.5.77
Sample Rate:	50
Subject:	S1022551
Description:	Alexis Nebout

Table Header for Fixations:
Event Type	Trial	Number	Start	End	Duration	Location X	Location Y	Dispersion X	Dispersion Y	Plane	Avg. Pupil Size X	Avg. Pupil Size Y

Table Header for Saccades:
Event Type	Trial	Number	Start	End	Duration	Start Loc.X	Start Loc.Y	End Loc.X	End Loc.Y	Amplitude	Peak Speed	Peak Speed At	Average Speed	Peak Accel.	Peak Decel.	Average Accel.

Table Header for Blinks:
Event Type	Trial	Number	Start	End	Duration

Table Header for User Events:
Event Type	Trial	Number	Start	Description

UserEvent	1	1	8162842197	# Message: void.jpg
Fixation L	1	1	8162850650	8163037732	187082	1257.96	741.22	3	3	-1	17.62	17.62
Fixation R	1	1	8162850650	8163037732	187082	1257.96	741.22	3	3	-1	15.47	15.47
Saccade L	1	1	8163037732	8163069402	31670	1259.90	739.48	914.07	719.85	2.79	349.98	1.00	88.17	8741.53	-8655.47	5800.65
Saccade R	1	1	8163037732	8163069402	31670	1259.90	739.48	914.07	719.85	2.79	349.98	1.00	88.17	8741.53	-8655.47	5800.65
Fixation L	1	2	8163069402	8163339768	270366	915.77	709.75	3	18	-1	17.44	17.44
Fixation R	1	2	8163069402	8163339768	270366	915.77	709.75	3	18	-1	15.96	15.96
Saccade L	1	2	8163339768	8163387608	47840	917.38	702.94	1222.12	678.22	3.02	191.85	0.58	63.03	4772.48	-4706.97	3780.87
Saccade R	1	2	8163339768	8163387608	47840	917.38	702.94	1222.12	678.22	3.02	191.85	0.58	63.03	4772.48	-4706.97	3780.87
Fixation L	1	3	8163387608	8163785470	397862	1217.86	673.66	8	10	-1	16.87	16.87
Fixation R	1	3	8163387608	8163785470	397862	1217.86	673.66	8	10	-1	15.30	15.30
Saccade L	1	3	8163785470	8163825219	39749	1217.47	671.44	869.59	677.30	2.87	227.34	0.50	72.15	5652.28	-5565.13	4286.56
Saccade R	1	3	8163785470	8163825219	39749	1217.47	671.44	869.59	677.30	2.87	227.34	0.50	72.15	5652.28	-5565.13	4286.56
Fixation L	1	4	8163825219	8164035223	210004	881.12	675.32	16	4	-1	14.19	14.19
Fixation R	1	4	8163825219	8164035223	210004	881.12	675.32	16	4	-1	12.84	12.84
Saccade L	1	4	8164035223	8164063965	28742	886.28	673.04	1011.68	670.61	1.06	126.87	1.00	36.93	3150.11	-2980.69	2161.42
Saccade R	1	4	8164035223	8164063965	28742	886.28	673.04	1011.68	670.61	1.06	126.87	1.00	36.93	3150.11	-2980.69	2161.42
Fixation L	1	5	8164063965	8164521433	457468	1023.92	637.63	29	50	-1	13.57	13.57
Fixation R	1	5	8164063965	8164521433	457468	1023.92	637.63	29	50	-1	12.38	12.38
Blink L	1	1	8164521433	8164640679	119246
Blink R	1	1	8164521433	8164640679	119246
Fixation L	1	6	8164640679	8164839670	198991	975.05	595.74	20	75	-1	15.76	15.76
Fixation R	1	6	8164640679	8164839670	198991	975.05	595.74	20	75	-1	13.43	13.43
