[BeGaze]
Converted from:	C:\Documents and Settings\iViewX\Desktop\EXPERIMENTATIONS\Experiments\results\finaleart\S1022551-finaleart-1.idf
Date:	27.03.2019 15:38:27
Version:	BeGaze 2.5.77
Sample Rate:	50
Subject:	S1022551
Description:	Alexis Nebout

Table Header for Fixations:
Event Type	Trial	Number	Start	End	Duration	Location X	Location Y	Dispersion X	Dispersion Y	Plane	Avg. Pupil Size X	Avg. Pupil Size Y

Table Header for Saccades:
Event Type	Trial	Number	Start	End	Duration	Start Loc.X	Start Loc.Y	End Loc.X	End Loc.Y	Amplitude	Peak Speed	Peak Speed At	Average Speed	Peak Accel.	Peak Decel.	Average Accel.

Table Header for Blinks:
Event Type	Trial	Number	Start	End	Duration

Table Header for User Events:
Event Type	Trial	Number	Start	Description

UserEvent	1	1	8969190119	# Message: courbet-the-sleepers-1866.jpg
Fixation L	1	1	8969202697	8969322068	119371	918.72	352.60	16	17	-1	12.30	12.30
Fixation R	1	1	8969202697	8969322068	119371	918.72	352.60	16	17	-1	11.15	11.15
Saccade L	1	1	8969322068	8969409337	87269	927.12	355.39	978.64	421.59	2.47	84.85	1.00	28.29	2041.61	-2032.95	1465.15
Saccade R	1	1	8969322068	8969409337	87269	927.12	355.39	978.64	421.59	2.47	84.85	1.00	28.29	2041.61	-2032.95	1465.15
Fixation L	1	2	8969409337	8969998283	588946	995.68	428.09	24	25	-1	11.01	11.01
Fixation R	1	2	8969409337	8969998283	588946	995.68	428.09	24	25	-1	10.18	10.18
Saccade L	1	2	8969998283	8970038026	39743	990.68	429.00	665.24	424.17	2.71	237.20	0.50	68.18	5880.19	-5723.54	3985.07
Saccade R	1	2	8969998283	8970038026	39743	990.68	429.00	665.24	424.17	2.71	237.20	0.50	68.18	5880.19	-5723.54	3985.07
Fixation L	1	3	8970038026	8970256897	218871	660.65	411.15	25	25	-1	10.79	10.79
Fixation R	1	3	8970038026	8970256897	218871	660.65	411.15	25	25	-1	10.02	10.02
Saccade L	1	3	8970256897	8970276783	19886	642.50	398.93	448.29	294.09	1.53	223.16	1.00	77.10	5528.04	-5517.81	3911.65
Saccade R	1	3	8970256897	8970276783	19886	642.50	398.93	448.29	294.09	1.53	223.16	1.00	77.10	5528.04	-5517.81	3911.65
Fixation L	1	4	8970276783	8970515377	238594	395.18	275.32	64	31	-1	10.51	10.51
Fixation R	1	4	8970276783	8970515377	238594	395.18	275.32	64	31	-1	9.84	9.84
Saccade L	1	4	8970515377	8970535381	20004	391.47	289.58	488.52	281.52	0.61	98.51	1.00	30.48	2406.61	-2311.01	1627.68
Saccade R	1	4	8970515377	8970535381	20004	391.47	289.58	488.52	281.52	0.61	98.51	1.00	30.48	2406.61	-2311.01	1627.68
Fixation L	1	5	8970535381	8970734237	198856	496.99	308.17	11	41	-1	10.89	10.89
Fixation R	1	5	8970535381	8970734237	198856	496.99	308.17	11	41	-1	10.45	10.45
Saccade L	1	5	8970734237	8970773992	39755	499.86	323.50	334.05	285.57	1.59	104.28	0.50	40.04	2476.09	-2201.75	2024.67
Saccade R	1	5	8970734237	8970773992	39755	499.86	323.50	334.05	285.57	1.59	104.28	0.50	40.04	2476.09	-2201.75	2024.67
Fixation L	1	6	8970773992	8971112095	338103	336.63	291.93	34	15	-1	11.32	11.32
Fixation R	1	6	8970773992	8971112095	338103	336.63	291.93	34	15	-1	10.67	10.67
Saccade L	1	6	8971112095	8971151974	39879	362.58	291.88	843.28	704.25	5.37	473.28	0.50	134.56	11801.62	-11573.17	7758.24
Saccade R	1	6	8971112095	8971151974	39879	362.58	291.88	843.28	704.25	5.37	473.28	0.50	134.56	11801.62	-11573.17	7758.24
Fixation L	1	7	8971151974	8971728712	576738	871.15	708.29	61	38	-1	12.67	12.67
Fixation R	1	7	8971151974	8971728712	576738	871.15	708.29	61	38	-1	11.67	11.67
Saccade L	1	7	8971728712	8971768566	39854	903.87	688.04	1451.17	550.92	5.18	342.90	1.00	130.09	8532.65	-8454.36	6697.06
Saccade R	1	7	8971728712	8971768566	39854	903.87	688.04	1451.17	550.92	5.18	342.90	1.00	130.09	8532.65	-8454.36	6697.06
Fixation L	1	8	8971768566	8971867932	99366	1508.36	542.15	75	13	-1	12.50	12.50
Fixation R	1	8	8971768566	8971867932	99366	1508.36	542.15	75	13	-1	11.10	11.10
Saccade L	1	8	8971867932	8971887816	19884	1525.40	537.23	1537.44	521.45	0.24	20.08	1.00	12.25	286.30	-437.04	301.35
Saccade R	1	8	8971867932	8971887816	19884	1525.40	537.23	1537.44	521.45	0.24	20.08	1.00	12.25	286.30	-437.04	301.35
Fixation L	1	9	8971887816	8972027051	139235	1529.01	526.78	14	12	-1	12.71	12.71
Fixation R	1	9	8971887816	8972027051	139235	1529.01	526.78	14	12	-1	11.38	11.38
Saccade L	1	9	8972027051	8972106679	79628	1523.07	519.18	1650.77	268.51	4.62	233.47	0.25	58.01	5768.77	-5641.51	2616.97
Saccade R	1	9	8972027051	8972106679	79628	1523.07	519.18	1650.77	268.51	4.62	233.47	0.25	58.01	5768.77	-5641.51	2616.97
Fixation L	1	10	8972106679	8972444786	338107	1655.18	283.13	52	45	-1	12.75	12.75
Fixation R	1	10	8972106679	8972444786	338107	1655.18	283.13	52	45	-1	10.87	10.87
Saccade L	1	10	8972444786	8972464655	19869	1670.01	264.87	1665.78	234.93	0.32	30.59	1.00	15.88	644.57	-522.77	469.52
Saccade R	1	10	8972444786	8972464655	19869	1670.01	264.87	1665.78	234.93	0.32	30.59	1.00	15.88	644.57	-522.77	469.52
Fixation L	1	11	8972464655	8972802784	338129	1660.55	252.62	34	46	-1	12.98	12.98
Fixation R	1	11	8972464655	8972802784	338129	1660.55	252.62	34	46	-1	11.46	11.46
Saccade L	1	11	8972802784	8972842510	39726	1634.58	279.90	953.06	611.39	6.33	468.41	0.50	159.31	11429.39	-11656.90	9305.28
Saccade R	1	11	8972802784	8972842510	39726	1634.58	279.90	953.06	611.39	6.33	468.41	0.50	159.31	11429.39	-11656.90	9305.28
Fixation L	1	12	8972842510	8973021642	179132	936.29	610.71	30	3	-1	13.95	13.95
Fixation R	1	12	8972842510	8973021642	179132	936.29	610.71	30	3	-1	12.30	12.30
Saccade L	1	12	8973021642	8973041510	19868	922.78	609.42	1084.32	616.56	0.90	163.53	1.00	45.46	4074.39	-3984.10	2737.07
Saccade R	1	12	8973021642	8973041510	19868	922.78	609.42	1084.32	616.56	0.90	163.53	1.00	45.46	4074.39	-3984.10	2737.07
Fixation L	1	13	8973041510	8973200621	159111	1101.94	620.06	25	6	-1	14.02	14.02
Fixation R	1	13	8973041510	8973200621	159111	1101.94	620.06	25	6	-1	12.17	12.17
