[BeGaze]
Converted from:	C:\Documents and Settings\iViewX\Desktop\EXPERIMENTATIONS\Experiments\results\finaleart\S1022551-finaleart-1.idf
Date:	27.03.2019 15:38:28
Version:	BeGaze 2.5.77
Sample Rate:	50
Subject:	S1022551
Description:	Alexis Nebout

Table Header for Fixations:
Event Type	Trial	Number	Start	End	Duration	Location X	Location Y	Dispersion X	Dispersion Y	Plane	Avg. Pupil Size X	Avg. Pupil Size Y

Table Header for Saccades:
Event Type	Trial	Number	Start	End	Duration	Start Loc.X	Start Loc.Y	End Loc.X	End Loc.Y	Amplitude	Peak Speed	Peak Speed At	Average Speed	Peak Accel.	Peak Decel.	Average Accel.

Table Header for Blinks:
Event Type	Trial	Number	Start	End	Duration

Table Header for User Events:
Event Type	Trial	Number	Start	Description

UserEvent	1	1	8987676543	# Message: still-life-fruits-on-a-table_manet_1864.jpg
Fixation L	1	1	8987680579	8988476150	795571	930.36	511.76	44	30	-1	10.86	10.86
Fixation R	1	1	8987680579	8988476150	795571	930.36	511.76	44	30	-1	9.13	9.13
Saccade L	1	1	8988476150	8988496019	19869	945.41	522.74	842.28	522.80	0.62	104.32	1.00	31.18	2591.80	-2491.12	1845.07
Saccade R	1	1	8988476150	8988496019	19869	945.41	522.74	842.28	522.80	0.62	104.32	1.00	31.18	2591.80	-2491.12	1845.07
Fixation L	1	2	8988496019	8988673593	177574	828.35	523.40	23	1	-1	10.60	10.60
Fixation R	1	2	8988496019	8988673593	177574	828.35	523.40	23	1	-1	9.08	9.08
Saccade L	1	2	8988673593	8988694893	21300	819.18	524.43	344.38	628.12	2.83	490.44	1.00	132.67	11788.20	-11981.85	8023.14
Saccade R	1	2	8988673593	8988694893	21300	819.18	524.43	344.38	628.12	2.83	490.44	1.00	132.67	11788.20	-11981.85	8023.14
Fixation L	1	3	8988694893	8989331355	636462	326.16	637.16	26	22	-1	9.23	9.23
Fixation R	1	3	8988694893	8989331355	636462	326.16	637.16	26	22	-1	8.12	8.12
Saccade L	1	3	8989331355	8989351222	19867	326.34	646.23	399.49	636.59	0.66	74.64	1.00	33.06	1733.78	-1435.28	1442.26
Saccade R	1	3	8989331355	8989351222	19867	326.34	646.23	399.49	636.59	0.66	74.64	1.00	33.06	1733.78	-1435.28	1442.26
Fixation L	1	4	8989351222	8989550219	198997	457.30	624.21	69	23	-1	8.98	8.98
Fixation R	1	4	8989351222	8989550219	198997	457.30	624.21	69	23	-1	8.17	8.17
Saccade L	1	4	8989550219	8989589974	39755	468.82	625.13	889.55	616.98	3.59	324.58	1.00	90.42	8049.27	-7910.95	5099.28
Saccade R	1	4	8989550219	8989589974	39755	468.82	625.13	889.55	616.98	3.59	324.58	1.00	90.42	8049.27	-7910.95	5099.28
Fixation L	1	5	8989589974	8989888325	298351	916.56	625.34	33	22	-1	8.99	8.99
Fixation R	1	5	8989589974	8989888325	298351	916.56	625.34	33	22	-1	8.08	8.08
Saccade L	1	5	8989888325	8989908200	19875	910.44	630.82	788.24	631.08	0.70	123.61	1.00	35.12	3073.45	-3036.66	2117.80
Saccade R	1	5	8989888325	8989908200	19875	910.44	630.82	788.24	631.08	0.70	123.61	1.00	35.12	3073.45	-3036.66	2117.80
Fixation L	1	6	8989908200	8990126946	218746	787.05	638.51	2	12	-1	8.80	8.80
Fixation R	1	6	8989908200	8990126946	218746	787.05	638.51	2	12	-1	8.08	8.08
Saccade L	1	6	8990126946	8990166822	39876	787.28	644.01	1104.19	640.52	2.62	219.29	0.50	65.65	5424.46	-5361.22	3933.88
Saccade R	1	6	8990126946	8990166822	39876	787.28	644.01	1104.19	640.52	2.62	219.29	0.50	65.65	5424.46	-5361.22	3933.88
Fixation L	1	7	8990166822	8990385561	218739	1092.97	625.74	17	30	-1	8.87	8.87
Fixation R	1	7	8990166822	8990385561	218739	1092.97	625.74	17	30	-1	7.85	7.85
Saccade L	1	7	8990385561	8990405424	19863	1091.29	614.54	1398.15	729.26	2.07	331.05	1.00	104.01	8141.79	-8253.25	6028.41
Saccade R	1	7	8990385561	8990405424	19863	1091.29	614.54	1398.15	729.26	2.07	331.05	1.00	104.01	8141.79	-8253.25	6028.41
Fixation L	1	8	8990405424	8990644158	238734	1460.53	750.23	71	26	-1	9.02	9.02
Fixation R	1	8	8990405424	8990644158	238734	1460.53	750.23	71	26	-1	7.93	7.93
Saccade L	1	8	8990644158	8990664048	19890	1465.16	751.85	1368.23	795.31	0.69	107.45	1.00	34.78	2641.83	-2411.92	1854.16
Saccade R	1	8	8990644158	8990664048	19890	1465.16	751.85	1368.23	795.31	0.69	107.45	1.00	34.78	2641.83	-2411.92	1854.16
Fixation L	1	9	8990664048	8990862910	198862	1341.26	834.80	35	64	-1	9.51	9.51
Fixation R	1	9	8990664048	8990862910	198862	1341.26	834.80	35	64	-1	8.14	8.14
Saccade L	1	9	8990862910	8990882784	19874	1332.84	855.45	1330.39	859.32	0.07	4.64	1.00	3.51	54.88	-41.54	32.60
Saccade R	1	9	8990862910	8990882784	19874	1332.84	855.45	1330.39	859.32	0.07	4.64	1.00	3.51	54.88	-41.54	32.60
Fixation L	1	10	8990882784	8990982295	99511	1329.99	863.62	3	8	-1	9.66	9.66
Fixation R	1	10	8990882784	8990982295	99511	1329.99	863.62	3	8	-1	8.49	8.49
Saccade L	1	10	8990982295	8991022033	39738	1329.00	863.88	1626.44	714.45	3.12	204.84	1.00	78.41	5013.49	-5001.38	4221.07
Saccade R	1	10	8990982295	8991022033	39738	1329.00	863.88	1626.44	714.45	3.12	204.84	1.00	78.41	5013.49	-5001.38	4221.07
Fixation L	1	11	8991022033	8991439746	417713	1636.33	682.95	13	57	-1	9.61	9.61
Fixation R	1	11	8991022033	8991439746	417713	1636.33	682.95	13	57	-1	8.20	8.20
Saccade L	1	11	8991439746	8991479497	39751	1634.87	656.54	1526.51	250.33	3.67	304.42	0.50	92.40	7489.46	-7335.27	5053.82
Saccade R	1	11	8991439746	8991479497	39751	1634.87	656.54	1526.51	250.33	3.67	304.42	0.50	92.40	7489.46	-7335.27	5053.82
Fixation L	1	12	8991479497	8991678367	198870	1521.27	264.95	32	43	-1	9.18	9.18
Fixation R	1	12	8991479497	8991678367	198870	1521.27	264.95	32	43	-1	7.86	7.86
