[BeGaze]
Converted from:	C:\Documents and Settings\iViewX\Desktop\EXPERIMENTATIONS\Experiments\results\finaleart\S1022551-finaleart-1.idf
Date:	27.03.2019 15:37:58
Version:	BeGaze 2.5.77
Sample Rate:	50
Subject:	S1022551
Description:	Alexis Nebout

Table Header for Fixations:
Event Type	Trial	Number	Start	End	Duration	Location X	Location Y	Dispersion X	Dispersion Y	Plane	Avg. Pupil Size X	Avg. Pupil Size Y

Table Header for Saccades:
Event Type	Trial	Number	Start	End	Duration	Start Loc.X	Start Loc.Y	End Loc.X	End Loc.Y	Amplitude	Peak Speed	Peak Speed At	Average Speed	Peak Accel.	Peak Decel.	Average Accel.

Table Header for Blinks:
Event Type	Trial	Number	Start	End	Duration

Table Header for User Events:
Event Type	Trial	Number	Start	Description

UserEvent	1	1	8232874985	# Message: the-large-bathers_renoir_1887.jpg
Fixation L	1	1	8232883420	8233519891	636471	878.73	583.99	46	26	-1	12.13	12.13
Fixation R	1	1	8232883420	8233519891	636471	878.73	583.99	46	26	-1	11.75	11.75
Blink L	1	1	8233519891	8233639258	119367
Blink R	1	1	8233519891	8233639258	119367
Fixation L	1	2	8233639258	8233897737	258479	863.69	574.36	6	55	-1	12.87	12.87
Fixation R	1	2	8233639258	8233897737	258479	863.69	574.36	6	55	-1	11.65	11.65
Saccade L	1	1	8233897737	8233917610	19873	863.51	552.81	812.36	324.37	1.39	236.68	1.00	69.84	5816.15	-5703.64	4118.49
Saccade R	1	1	8233897737	8233917610	19873	863.51	552.81	812.36	324.37	1.39	236.68	1.00	69.84	5816.15	-5703.64	4118.49
Fixation L	1	3	8233917610	8234056854	139244	788.21	304.54	30	33	-1	11.02	11.02
Fixation R	1	3	8233917610	8234056854	139244	788.21	304.54	30	33	-1	9.88	9.88
Saccade L	1	2	8234056854	8234076732	19878	781.38	303.74	794.83	158.17	0.87	147.85	1.00	43.66	3620.34	-3452.69	2506.60
Saccade R	1	2	8234056854	8234076732	19878	781.38	303.74	794.83	158.17	0.87	147.85	1.00	43.66	3620.34	-3452.69	2506.60
Fixation L	1	4	8234076732	8234912189	835457	807.80	103.14	18	77	-1	9.19	9.19
Fixation R	1	4	8234076732	8234912189	835457	807.80	103.14	18	77	-1	8.76	8.76
Saccade L	1	3	8234912189	8234951948	39759	797.92	98.23	835.68	482.50	3.36	209.82	0.50	84.55	5056.82	-4777.13	4676.71
Saccade R	1	3	8234912189	8234951948	39759	797.92	98.23	835.68	482.50	3.36	209.82	0.50	84.55	5056.82	-4777.13	4676.71
Fixation L	1	5	8234951948	8235130926	178978	851.69	467.32	23	18	-1	9.35	9.35
Fixation R	1	5	8234951948	8235130926	178978	851.69	467.32	23	18	-1	8.98	8.98
Saccade L	1	4	8235130926	8235150800	19874	859.11	467.27	604.46	578.41	1.49	280.85	1.00	74.88	6978.86	-6471.01	4562.36
Saccade R	1	4	8235130926	8235150800	19874	859.11	467.27	604.46	578.41	1.49	280.85	1.00	74.88	6978.86	-6471.01	4562.36
Fixation L	1	6	8235150800	8235449163	298363	592.85	598.03	16	29	-1	9.81	9.81
Fixation R	1	6	8235150800	8235449163	298363	592.85	598.03	16	29	-1	9.41	9.41
Saccade L	1	5	8235449163	8235489054	39891	588.38	604.49	398.48	489.64	2.04	126.18	1.00	51.05	3065.01	-3142.44	3016.22
Saccade R	1	5	8235449163	8235489054	39891	588.38	604.49	398.48	489.64	2.04	126.18	1.00	51.05	3065.01	-3142.44	3016.22
Fixation L	1	7	8235489054	8235966385	477331	427.17	479.46	58	24	-1	9.85	9.85
Fixation R	1	7	8235489054	8235966385	477331	427.17	479.46	58	24	-1	9.30	9.30
Saccade L	1	6	8235966385	8236026014	59629	456.70	483.44	1391.36	626.53	9.70	471.09	0.33	162.71	11639.55	-8290.80	7928.58
Saccade R	1	6	8235966385	8236026014	59629	456.70	483.44	1391.36	626.53	9.70	471.09	0.33	162.71	11639.55	-8290.80	7928.58
Fixation L	1	8	8236026014	8236582987	556973	1414.29	632.70	35	55	-1	10.47	10.47
Fixation R	1	8	8236026014	8236582987	556973	1414.29	632.70	35	55	-1	9.75	9.75
Saccade L	1	7	8236582987	8236682348	99361	1423.54	594.50	1656.40	960.20	6.07	372.97	0.80	61.08	9207.70	-8993.51	3025.03
Saccade R	1	7	8236582987	8236682348	99361	1423.54	594.50	1656.40	960.20	6.07	372.97	0.80	61.08	9207.70	-8993.51	3025.03
Fixation L	1	9	8236682348	8236921087	238739	1669.86	971.57	17	16	-1	10.74	10.74
Fixation R	1	9	8236682348	8236921087	238739	1669.86	971.57	17	16	-1	9.67	9.67
