[BeGaze]
Converted from:	C:\Documents and Settings\iViewX\Desktop\EXPERIMENTATIONS\Experiments\results\finaleart\S1022551-finaleart-1.idf
Date:	27.03.2019 15:38:14
Version:	BeGaze 2.5.77
Sample Rate:	50
Subject:	S1022551
Description:	Alexis Nebout

Table Header for Fixations:
Event Type	Trial	Number	Start	End	Duration	Location X	Location Y	Dispersion X	Dispersion Y	Plane	Avg. Pupil Size X	Avg. Pupil Size Y

Table Header for Saccades:
Event Type	Trial	Number	Start	End	Duration	Start Loc.X	Start Loc.Y	End Loc.X	End Loc.Y	Amplitude	Peak Speed	Peak Speed At	Average Speed	Peak Accel.	Peak Decel.	Average Accel.

Table Header for Blinks:
Event Type	Trial	Number	Start	End	Duration

Table Header for User Events:
Event Type	Trial	Number	Start	Description

UserEvent	1	1	8700760683	# Message: red-mullets_monet_1869.jpg
Fixation L	1	1	8700776413	8701472627	696214	955.25	574.52	67	31	-1	12.52	12.52
Fixation R	1	1	8700776413	8701472627	696214	955.25	574.52	67	31	-1	11.73	11.73
Saccade L	1	1	8701472627	8701492498	19871	922.57	587.75	922.03	589.82	0.04	3.18	1.00	2.10	31.46	-25.63	22.87
Saccade R	1	1	8701472627	8701492498	19871	922.57	587.75	922.03	589.82	0.04	3.18	1.00	2.10	31.46	-25.63	22.87
Fixation L	1	2	8701492498	8701701156	208658	923.63	593.22	2	6	-1	12.13	12.13
Fixation R	1	2	8701492498	8701701156	208658	923.63	593.22	2	6	-1	11.65	11.65
Saccade L	1	2	8701701156	8701731121	29965	924.82	596.61	704.82	602.36	1.78	222.52	1.00	59.55	5508.78	-5409.05	3721.41
Saccade R	1	2	8701701156	8701731121	29965	924.82	596.61	704.82	602.36	1.78	222.52	1.00	59.55	5508.78	-5409.05	3721.41
Fixation L	1	3	8701731121	8701989717	258596	701.33	618.74	7	24	-1	10.50	10.50
Fixation R	1	3	8701731121	8701989717	258596	701.33	618.74	7	24	-1	10.50	10.50
Saccade L	1	3	8701989717	8702029476	39759	697.95	620.64	918.05	419.46	2.77	167.60	1.00	69.65	4150.97	-3697.37	3442.89
Saccade R	1	3	8701989717	8702029476	39759	697.95	620.64	918.05	419.46	2.77	167.60	1.00	69.65	4150.97	-3697.37	3442.89
Fixation L	1	4	8702029476	8702984180	954704	943.02	365.48	36	62	-1	10.86	10.86
Fixation R	1	4	8702029476	8702984180	954704	943.02	365.48	36	62	-1	10.94	10.94
Saccade L	1	4	8702984180	8703023919	39739	939.14	357.75	974.88	208.33	1.54	139.79	1.00	38.83	3470.20	-2826.56	1791.89
Saccade R	1	4	8702984180	8703023919	39739	939.14	357.75	974.88	208.33	1.54	139.79	1.00	38.83	3470.20	-2826.56	1791.89
Fixation L	1	5	8703023919	8703481408	457489	1004.06	227.28	38	34	-1	12.34	12.34
Fixation R	1	5	8703023919	8703481408	457489	1004.06	227.28	38	34	-1	12.36	12.36
Saccade L	1	5	8703481408	8703521141	39733	1010.23	242.49	942.54	426.78	1.80	162.77	1.00	45.29	3958.99	-3406.35	2146.87
Saccade R	1	5	8703481408	8703521141	39733	1010.23	242.49	942.54	426.78	1.80	162.77	1.00	45.29	3958.99	-3406.35	2146.87
Fixation L	1	6	8703521141	8703779754	258613	938.75	442.04	18	28	-1	13.44	13.44
Fixation R	1	6	8703521141	8703779754	258613	938.75	442.04	18	28	-1	13.20	13.20
Saccade L	1	6	8703779754	8703819506	39752	935.74	452.79	1203.59	499.77	2.41	139.57	1.00	60.62	3443.88	-3374.27	3234.97
Saccade R	1	6	8703779754	8703819506	39752	935.74	452.79	1203.59	499.77	2.41	139.57	1.00	60.62	3443.88	-3374.27	3234.97
Fixation L	1	7	8703819506	8704356603	537097	1208.17	524.67	10	35	-1	13.68	13.68
Fixation R	1	7	8703819506	8704356603	537097	1208.17	524.67	10	35	-1	13.26	13.26
Saccade L	1	7	8704356603	8704376479	19876	1212.32	523.82	1468.00	447.51	1.55	269.73	1.00	77.94	6633.96	-6644.70	4694.64
Saccade R	1	7	8704356603	8704376479	19876	1212.32	523.82	1468.00	447.51	1.55	269.73	1.00	77.94	6633.96	-6644.70	4694.64
Fixation L	1	8	8704376479	8704794207	417728	1508.47	439.47	49	35	-1	13.08	13.08
Fixation R	1	8	8704376479	8704794207	417728	1508.47	439.47	49	35	-1	12.48	12.48
