[BeGaze]
Converted from:	C:\Documents and Settings\iViewX\Desktop\EXPERIMENTATIONS\Experiments\results\finaleart\S1022551-finaleart-1.idf
Date:	27.03.2019 15:37:35
Version:	BeGaze 2.5.77
Sample Rate:	50
Subject:	S1022551
Description:	Alexis Nebout

Table Header for Fixations:
Event Type	Trial	Number	Start	End	Duration	Location X	Location Y	Dispersion X	Dispersion Y	Plane	Avg. Pupil Size X	Avg. Pupil Size Y

Table Header for Saccades:
Event Type	Trial	Number	Start	End	Duration	Start Loc.X	Start Loc.Y	End Loc.X	End Loc.Y	Amplitude	Peak Speed	Peak Speed At	Average Speed	Peak Accel.	Peak Decel.	Average Accel.

Table Header for Blinks:
Event Type	Trial	Number	Start	End	Duration

Table Header for User Events:
Event Type	Trial	Number	Start	Description

UserEvent	1	1	7692833477	# Message: courbet-woman-with-a-parrot-1866.jpg
Fixation L	1	1	7692843392	7693286091	442699	861.25	390.07	10	27	-1	14.14	14.14
Fixation R	1	1	7692843392	7693286091	442699	861.25	390.07	10	27	-1	12.91	12.91
Saccade L	1	1	7693286091	7693320744	34653	854.82	404.76	782.09	404.38	0.78	73.58	1.00	22.41	1743.67	-1695.47	1218.49
Saccade R	1	1	7693286091	7693320744	34653	854.82	404.76	782.09	404.38	0.78	73.58	1.00	22.41	1743.67	-1695.47	1218.49
Fixation L	1	2	7693320744	7693798806	478062	766.83	402.40	21	6	-1	13.66	13.66
Fixation R	1	2	7693320744	7693798806	478062	766.83	402.40	21	6	-1	12.93	12.93
Saccade L	1	2	7693798806	7693837884	39078	761.05	400.46	622.92	451.03	1.81	148.77	1.00	46.20	3690.16	-3571.70	2627.87
Saccade R	1	2	7693798806	7693837884	39078	761.05	400.46	622.92	451.03	1.81	148.77	1.00	46.20	3690.16	-3571.70	2627.87
Fixation L	1	3	7693837884	7693937342	99458	629.28	471.92	9	28	-1	13.07	13.07
Fixation R	1	3	7693837884	7693937342	99458	629.28	471.92	9	28	-1	12.43	12.43
Saccade L	1	3	7693937342	7693977098	39756	630.64	476.90	360.62	577.05	2.55	213.61	1.00	64.09	5299.39	-5249.59	3442.89
Saccade R	1	3	7693937342	7693977098	39756	630.64	476.90	360.62	577.05	2.55	213.61	1.00	64.09	5299.39	-5249.59	3442.89
Fixation L	1	4	7693977098	7694494180	517082	373.43	596.98	18	28	-1	12.95	12.95
Fixation R	1	4	7693977098	7694494180	517082	373.43	596.98	18	28	-1	12.57	12.57
Saccade L	1	4	7694494180	7694514047	19867	374.14	584.48	478.38	561.74	0.61	107.93	1.00	30.54	2657.78	-2522.07	1754.93
Saccade R	1	4	7694494180	7694514047	19867	374.14	584.48	478.38	561.74	0.61	107.93	1.00	30.54	2657.78	-2522.07	1754.93
Fixation L	1	5	7694514047	7694693073	179026	493.22	555.87	21	21	-1	12.97	12.97
Fixation R	1	5	7694514047	7694693073	179026	493.22	555.87	21	21	-1	13.31	13.31
Saccade L	1	5	7694693073	7694732932	39859	499.39	543.20	570.99	177.39	3.18	210.12	0.50	79.88	5140.74	-4990.39	4562.74
Saccade R	1	5	7694693073	7694732932	39859	499.39	543.20	570.99	177.39	3.18	210.12	0.50	79.88	5140.74	-4990.39	4562.74
Fixation L	1	6	7694732932	7694931782	198850	576.70	195.12	7	67	-1	13.32	13.32
Fixation R	1	6	7694732932	7694931782	198850	576.70	195.12	7	67	-1	13.31	13.31
Saccade L	1	6	7694931782	7694951661	19879	577.08	145.91	575.36	73.01	0.72	73.76	1.00	36.37	1644.45	-1714.64	1580.41
Saccade R	1	6	7694931782	7694951661	19879	577.08	145.91	575.36	73.01	0.72	73.76	1.00	36.37	1644.45	-1714.64	1580.41
Fixation L	1	7	7694951661	7695786995	835334	570.66	70.21	16	69	-1	14.36	14.36
Fixation R	1	7	7694951661	7695786995	835334	570.66	70.21	16	69	-1	13.70	13.70
Saccade L	1	7	7695786995	7695826864	39869	581.01	43.42	894.34	350.41	3.84	243.45	1.00	96.31	5709.95	-5771.19	5389.08
Saccade R	1	7	7695786995	7695826864	39869	581.01	43.42	894.34	350.41	3.84	243.45	1.00	96.31	5709.95	-5771.19	5389.08
Fixation L	1	8	7695826864	7696045606	218742	904.62	378.01	16	40	-1	15.53	15.53
Fixation R	1	8	7695826864	7696045606	218742	904.62	378.01	16	40	-1	14.67	14.67
Saccade L	1	8	7696045606	7696085354	39748	910.73	380.32	1505.09	375.95	4.92	317.47	0.50	123.72	7866.06	-7741.62	7382.02
Saccade R	1	8	7696045606	7696085354	39748	910.73	380.32	1505.09	375.95	4.92	317.47	0.50	123.72	7866.06	-7741.62	7382.02
Fixation L	1	9	7696085354	7696304986	219632	1511.49	377.01	10	5	-1	15.33	15.33
Fixation R	1	9	7696085354	7696304986	219632	1511.49	377.01	10	5	-1	14.20	14.20
Saccade L	1	9	7696304986	7696343975	38989	1509.90	379.37	1504.90	193.64	1.89	187.89	1.00	48.39	4681.44	-4645.07	3138.14
Saccade R	1	9	7696304986	7696343975	38989	1509.90	379.37	1504.90	193.64	1.89	187.89	1.00	48.39	4681.44	-4645.07	3138.14
Fixation L	1	10	7696343975	7696662198	318223	1486.09	224.44	33	64	-1	14.86	14.86
Fixation R	1	10	7696343975	7696662198	318223	1486.09	224.44	33	64	-1	13.45	13.45
Saccade L	1	10	7696662198	7696741825	79627	1475.00	247.30	1097.71	708.14	7.52	318.64	0.75	94.49	7778.56	-6959.40	3695.09
Saccade R	1	10	7696662198	7696741825	79627	1475.00	247.30	1097.71	708.14	7.52	318.64	0.75	94.49	7778.56	-6959.40	3695.09
Fixation L	1	11	7696741825	7696861167	119342	1065.42	682.81	45	45	-1	16.10	16.10
Fixation R	1	11	7696741825	7696861167	119342	1065.42	682.81	45	45	-1	14.20	14.20
