[BeGaze]
Converted from:	C:\Documents and Settings\iViewX\Desktop\EXPERIMENTATIONS\Experiments\results\finaleart\S1022551-finaleart-1.idf
Date:	27.03.2019 15:37:38
Version:	BeGaze 2.5.77
Sample Rate:	50
Subject:	S1022551
Description:	Alexis Nebout

Table Header for Fixations:
Event Type	Trial	Number	Start	End	Duration	Location X	Location Y	Dispersion X	Dispersion Y	Plane	Avg. Pupil Size X	Avg. Pupil Size Y

Table Header for Saccades:
Event Type	Trial	Number	Start	End	Duration	Start Loc.X	Start Loc.Y	End Loc.X	End Loc.Y	Amplitude	Peak Speed	Peak Speed At	Average Speed	Peak Accel.	Peak Decel.	Average Accel.

Table Header for Blinks:
Event Type	Trial	Number	Start	End	Duration

Table Header for User Events:
Event Type	Trial	Number	Start	Description

UserEvent	1	1	7752378557	# Message: void.jpg
Fixation L	1	1	7752394067	7752762369	368302	792.53	89.43	43	14	-1	10.96	10.96
Fixation R	1	1	7752394067	7752762369	368302	792.53	89.43	43	14	-1	10.06	10.06
Saccade L	1	1	7752762369	7752914885	152516	817.39	98.56	1370.22	694.95	21.63	389.18	1.00	141.80	9240.69	-9554.04	6163.71
Saccade R	1	1	7752762369	7752914885	152516	817.39	98.56	1370.22	694.95	21.63	389.18	1.00	141.80	9240.69	-9554.04	6163.71
Fixation L	1	2	7752914885	7753444425	529540	1407.90	679.22	47	22	-1	11.42	11.42
Fixation R	1	2	7752914885	7753444425	529540	1407.90	679.22	47	22	-1	10.44	10.44
Saccade L	1	2	7753444425	7753468117	23692	1413.64	677.33	1009.64	508.26	2.67	442.16	1.00	112.67	10940.24	-11001.66	7322.86
Saccade R	1	2	7753444425	7753468117	23692	1413.64	677.33	1009.64	508.26	2.67	442.16	1.00	112.67	10940.24	-11001.66	7322.86
Fixation L	1	3	7753468117	7753706844	238727	1009.57	510.07	7	7	-1	11.37	11.37
Fixation R	1	3	7753468117	7753706844	238727	1009.57	510.07	7	7	-1	10.01	10.01
Saccade L	1	3	7753706844	7753726716	19872	1004.58	513.61	904.94	445.93	0.64	121.84	1.00	32.38	2990.47	-2775.24	1938.23
Saccade R	1	3	7753706844	7753726716	19872	1004.58	513.61	904.94	445.93	0.64	121.84	1.00	32.38	2990.47	-2775.24	1938.23
Fixation L	1	4	7753726716	7754383070	656354	901.20	444.96	7	40	-1	11.83	11.83
Fixation R	1	4	7753726716	7754383070	656354	901.20	444.96	7	40	-1	10.60	10.60
