[BeGaze]
Converted from:	C:\Documents and Settings\iViewX\Desktop\EXPERIMENTATIONS\Experiments\results\finaleart\S1022551-finaleart-1.idf
Date:	27.03.2019 15:38:09
Version:	BeGaze 2.5.77
Sample Rate:	50
Subject:	S1022551
Description:	Alexis Nebout

Table Header for Fixations:
Event Type	Trial	Number	Start	End	Duration	Location X	Location Y	Dispersion X	Dispersion Y	Plane	Avg. Pupil Size X	Avg. Pupil Size Y

Table Header for Saccades:
Event Type	Trial	Number	Start	End	Duration	Start Loc.X	Start Loc.Y	End Loc.X	End Loc.Y	Amplitude	Peak Speed	Peak Speed At	Average Speed	Peak Accel.	Peak Decel.	Average Accel.

Table Header for Blinks:
Event Type	Trial	Number	Start	End	Duration

Table Header for User Events:
Event Type	Trial	Number	Start	Description

UserEvent	1	1	8508144881	# Message: void.jpg
Saccade L	1	1	8508147633	8508227252	79619	467.63	704.94	773.61	1019.05	6.03	306.28	1.00	75.73	7622.52	-7532.77	3661.55
Saccade R	1	1	8508147633	8508227252	79619	467.63	704.94	773.61	1019.05	6.03	306.28	1.00	75.73	7622.52	-7532.77	3661.55
Fixation L	1	1	8508227252	8508493405	266153	777.99	1019.89	6	13	-1	14.39	14.39
Fixation R	1	1	8508227252	8508493405	266153	777.99	1019.89	6	13	-1	12.87	12.87
Saccade L	1	2	8508493405	8508563343	69938	776.20	1013.77	1548.85	707.01	14.82	835.02	1.00	211.85	20805.59	-20690.44	13836.31
Saccade R	1	2	8508493405	8508563343	69938	776.20	1013.77	1548.85	707.01	14.82	835.02	1.00	211.85	20805.59	-20690.44	13836.31
Fixation L	1	2	8508563343	8509122335	558992	1540.09	713.51	20	16	-1	14.37	14.37
Fixation R	1	2	8508563343	8509122335	558992	1540.09	713.51	20	16	-1	12.24	12.24
Saccade L	1	3	8509122335	8509181950	59615	1534.27	710.40	1063.08	557.17	5.29	253.05	0.67	88.71	6313.16	-5954.38	4260.34
Saccade R	1	3	8509122335	8509181950	59615	1534.27	710.40	1063.08	557.17	5.29	253.05	0.67	88.71	6313.16	-5954.38	4260.34
Fixation L	1	3	8509181950	8509818408	636458	1036.39	553.76	47	25	-1	14.53	14.53
Fixation R	1	3	8509181950	8509818408	636458	1036.39	553.76	47	25	-1	12.26	12.26
Saccade L	1	4	8509818408	8509838295	19887	1015.98	555.68	934.16	532.55	0.46	86.01	1.00	23.28	2102.38	-1646.83	1271.30
Saccade R	1	4	8509818408	8509838295	19887	1015.98	555.68	934.16	532.55	0.46	86.01	1.00	23.28	2102.38	-1646.83	1271.30
Fixation L	1	4	8509838295	8510136647	298352	930.04	505.31	16	38	-1	15.46	15.46
Fixation R	1	4	8509838295	8510136647	298352	930.04	505.31	16	38	-1	13.03	13.03
