[BeGaze]
Converted from:	C:\Documents and Settings\iViewX\Desktop\EXPERIMENTATIONS\Experiments\results\finaleart\S1022551-finaleart-1.idf
Date:	27.03.2019 15:38:01
Version:	BeGaze 2.5.77
Sample Rate:	50
Subject:	S1022551
Description:	Alexis Nebout

Table Header for Fixations:
Event Type	Trial	Number	Start	End	Duration	Location X	Location Y	Dispersion X	Dispersion Y	Plane	Avg. Pupil Size X	Avg. Pupil Size Y

Table Header for Saccades:
Event Type	Trial	Number	Start	End	Duration	Start Loc.X	Start Loc.Y	End Loc.X	End Loc.Y	Amplitude	Peak Speed	Peak Speed At	Average Speed	Peak Accel.	Peak Decel.	Average Accel.

Table Header for Blinks:
Event Type	Trial	Number	Start	End	Duration

Table Header for User Events:
Event Type	Trial	Number	Start	Description

UserEvent	1	1	8286240090	# Message: void.jpg
Fixation L	1	1	8286248373	8286444473	196100	226.04	800.52	9	4	-1	14.33	14.33
Fixation R	1	1	8286248373	8286444473	196100	226.04	800.52	9	4	-1	12.73	12.73
Saccade L	1	1	8286444473	8286467115	22642	221.43	799.72	768.56	843.00	3.33	553.49	1.00	147.19	13751.71	-13163.16	9214.57
Saccade R	1	1	8286444473	8286467115	22642	221.43	799.72	768.56	843.00	3.33	553.49	1.00	147.19	13751.71	-13163.16	9214.57
Fixation L	1	2	8286467115	8286600878	133763	768.02	837.08	10	39	-1	13.89	13.89
Fixation R	1	2	8286467115	8286600878	133763	768.02	837.08	10	39	-1	12.88	12.88
Saccade L	1	2	8286600878	8286626227	25349	763.18	852.93	1730.05	958.75	6.51	974.45	1.00	256.96	23687.13	-24273.61	16007.93
Saccade R	1	2	8286600878	8286626227	25349	763.18	852.93	1730.05	958.75	6.51	974.45	1.00	256.96	23687.13	-24273.61	16007.93
Fixation L	1	3	8286626227	8287063818	437591	1711.30	976.02	27	28	-1	15.63	15.63
Fixation R	1	3	8286626227	8287063818	437591	1711.30	976.02	27	28	-1	12.93	12.93
Blink L	1	1	8287063818	8287421802	357984
Saccade R	1	3	8287063818	8287326023	262205	1702.56	981.53	660.01	630.56	58.72	1025.86	0.68	223.94	25617.77	-16714.26	8692.51
Fixation R	1	4	8287326023	8287660536	334513	704.15	602.47	60	38	-1	12.32	12.32
Fixation L	1	4	8287421802	8287660536	238734	709.07	599.43	20	9	-1	13.78	13.78
Saccade L	1	3	8287660536	8287680407	19871	720.14	601.28	829.48	592.44	0.70	110.95	1.00	35.32	2670.89	-2391.12	1837.33
Saccade R	1	4	8287660536	8287680407	19871	720.14	601.28	829.48	592.44	0.70	110.95	1.00	35.32	2670.89	-2391.12	1837.33
Fixation L	1	5	8287680407	8288237394	556987	819.81	571.91	28	27	-1	13.95	13.95
Fixation R	1	5	8287680407	8288237394	556987	819.81	571.91	28	27	-1	12.76	12.76
