[BeGaze]
Converted from:	C:\Documents and Settings\iViewX\Desktop\EXPERIMENTATIONS\Experiments\results\finaleart\S1022551-finaleart-1.idf
Date:	27.03.2019 15:38:08
Version:	BeGaze 2.5.77
Sample Rate:	50
Subject:	S1022551
Description:	Alexis Nebout

Table Header for Fixations:
Event Type	Trial	Number	Start	End	Duration	Location X	Location Y	Dispersion X	Dispersion Y	Plane	Avg. Pupil Size X	Avg. Pupil Size Y

Table Header for Saccades:
Event Type	Trial	Number	Start	End	Duration	Start Loc.X	Start Loc.Y	End Loc.X	End Loc.Y	Amplitude	Peak Speed	Peak Speed At	Average Speed	Peak Accel.	Peak Decel.	Average Accel.

Table Header for Blinks:
Event Type	Trial	Number	Start	End	Duration

Table Header for User Events:
Event Type	Trial	Number	Start	Description

UserEvent	1	1	8501970161	# Message: void.jpg
Fixation L	1	1	8501981800	8502223133	241333	626.03	648.69	15	7	-1	13.03	13.03
Fixation R	1	1	8501981800	8502223133	241333	626.03	648.69	15	7	-1	12.36	12.36
Saccade L	1	1	8502223133	8502260150	37017	631.42	649.02	818.02	285.72	4.10	412.46	1.00	110.80	10248.37	-10073.73	6945.61
Saccade R	1	1	8502223133	8502260150	37017	631.42	649.02	818.02	285.72	4.10	412.46	1.00	110.80	10248.37	-10073.73	6945.61
Fixation L	1	2	8502260150	8502638135	377985	834.70	254.69	31	39	-1	13.13	13.13
Fixation R	1	2	8502260150	8502638135	377985	834.70	254.69	31	39	-1	12.25	12.25
Saccade L	1	2	8502638135	8502677875	39740	849.20	253.64	1129.60	408.41	3.00	194.34	0.50	75.44	4814.10	-4291.31	3792.69
Saccade R	1	2	8502638135	8502677875	39740	849.20	253.64	1129.60	408.41	3.00	194.34	0.50	75.44	4814.10	-4291.31	3792.69
Fixation L	1	3	8502677875	8502876739	198864	1130.72	434.76	16	80	-1	12.48	12.48
Fixation R	1	3	8502677875	8502876739	198864	1130.72	434.76	16	80	-1	11.72	11.72
Saccade L	1	3	8502876739	8502896756	20017	1130.14	466.41	1126.14	476.36	0.14	10.84	1.00	7.05	72.16	-183.64	97.93
Saccade R	1	3	8502876739	8502896756	20017	1130.14	466.41	1126.14	476.36	0.14	10.84	1.00	7.05	72.16	-183.64	97.93
Fixation L	1	4	8502896756	8503274605	377849	1114.23	473.04	17	6	-1	12.57	12.57
Fixation R	1	4	8502896756	8503274605	377849	1114.23	473.04	17	6	-1	11.43	11.43
Saccade L	1	4	8503274605	8503294479	19874	1108.55	470.66	1007.49	467.13	0.62	102.29	1.00	31.28	2497.94	-2452.15	1813.99
Saccade R	1	4	8503274605	8503294479	19874	1108.55	470.66	1007.49	467.13	0.62	102.29	1.00	31.28	2497.94	-2452.15	1813.99
Fixation L	1	5	8503294479	8503851457	556978	974.34	447.00	39	58	-1	13.35	13.35
Fixation R	1	5	8503294479	8503851457	556978	974.34	447.00	39	58	-1	11.92	11.92
Saccade L	1	5	8503851457	8504010575	159118	967.90	494.93	949.14	537.87	71.10	2066.00	0.75	446.82	51650.00	-49662.67	20980.38
Saccade R	1	5	8503851457	8504010575	159118	967.90	494.93	949.14	537.87	71.10	2066.00	0.75	446.82	51650.00	-49662.67	20980.38
