[BeGaze]
Converted from:	C:\Documents and Settings\iViewX\Desktop\EXPERIMENTATIONS\Experiments\results\finaleart\S1022551-finaleart-1.idf
Date:	27.03.2019 15:38:20
Version:	BeGaze 2.5.77
Sample Rate:	50
Subject:	S1022551
Description:	Alexis Nebout

Table Header for Fixations:
Event Type	Trial	Number	Start	End	Duration	Location X	Location Y	Dispersion X	Dispersion Y	Plane	Avg. Pupil Size X	Avg. Pupil Size Y

Table Header for Saccades:
Event Type	Trial	Number	Start	End	Duration	Start Loc.X	Start Loc.Y	End Loc.X	End Loc.Y	Amplitude	Peak Speed	Peak Speed At	Average Speed	Peak Accel.	Peak Decel.	Average Accel.

Table Header for Blinks:
Event Type	Trial	Number	Start	End	Duration

Table Header for User Events:
Event Type	Trial	Number	Start	Description

UserEvent	1	1	8803531742	# Message: void.jpg
Saccade L	1	1	8803550626	8803630130	79504	1226.34	707.56	1368.58	714.13	2.24	118.09	1.00	28.17	2871.77	-2813.75	1135.75
Saccade R	1	1	8803550626	8803630130	79504	1226.34	707.56	1368.58	714.13	2.24	118.09	1.00	28.17	2871.77	-2813.75	1135.75
Fixation L	1	1	8803630130	8803881068	250938	1385.83	712.33	24	4	-1	13.38	13.38
Fixation R	1	1	8803630130	8803881068	250938	1385.83	712.33	24	4	-1	10.97	10.97
Saccade L	1	2	8803881068	8803908610	27542	1392.64	711.68	1496.41	599.00	1.15	154.93	1.00	41.68	3780.78	-3420.57	2400.78
Saccade R	1	2	8803881068	8803908610	27542	1392.64	711.68	1496.41	599.00	1.15	154.93	1.00	41.68	3780.78	-3420.57	2400.78
Fixation L	1	2	8803908610	8804034519	125909	1493.22	600.86	12	13	-1	13.93	13.93
Fixation R	1	2	8803908610	8804034519	125909	1493.22	600.86	12	13	-1	10.95	10.95
Saccade L	1	3	8804034519	8804107463	72944	1485.55	608.37	1160.72	328.49	6.76	311.70	1.00	92.66	7339.84	-7617.73	5201.80
Saccade R	1	3	8804034519	8804107463	72944	1485.55	608.37	1160.72	328.49	6.76	311.70	1.00	92.66	7339.84	-7617.73	5201.80
Fixation L	1	3	8804107463	8804366076	258613	1153.48	332.97	14	24	-1	13.49	13.49
Fixation R	1	3	8804107463	8804366076	258613	1153.48	332.97	14	24	-1	10.70	10.70
Blink L	1	1	8804366076	8804564952	198876
Blink R	1	1	8804366076	8804564952	198876
Fixation L	1	4	8804564952	8805201404	636452	888.43	419.90	9	88	-1	13.20	13.20
Fixation R	1	4	8804564952	8805201404	636452	888.43	419.90	9	88	-1	11.68	11.68
Saccade L	1	4	8805201404	8805221281	19877	889.00	476.76	895.34	471.30	0.23	16.38	1.00	11.61	-106.99	-197.91	155.41
Saccade R	1	4	8805201404	8805221281	19877	889.00	476.76	895.34	471.30	0.23	16.38	1.00	11.61	-106.99	-197.91	155.41
Fixation L	1	5	8805221281	8805579395	358114	911.13	488.06	48	23	-1	13.27	13.27
Fixation R	1	5	8805221281	8805579395	358114	911.13	488.06	48	23	-1	11.92	11.92
