[BeGaze]
Converted from:	C:\Documents and Settings\iViewX\Desktop\EXPERIMENTATIONS\Experiments\results\finaleart\S22H22551-finaleart-1.idf
Date:	27.03.2019 15:57:53
Version:	BeGaze 2.5.77
Sample Rate:	50
Subject:	S22H22551
Description:	Mathieu Chambre

Table Header for Fixations:
Event Type	Trial	Number	Start	End	Duration	Location X	Location Y	Dispersion X	Dispersion Y	Plane	Avg. Pupil Size X	Avg. Pupil Size Y

Table Header for Saccades:
Event Type	Trial	Number	Start	End	Duration	Start Loc.X	Start Loc.Y	End Loc.X	End Loc.Y	Amplitude	Peak Speed	Peak Speed At	Average Speed	Peak Accel.	Peak Decel.	Average Accel.

Table Header for Blinks:
Event Type	Trial	Number	Start	End	Duration

Table Header for User Events:
Event Type	Trial	Number	Start	Description

UserEvent	1	1	5223411109	# Message: oysters_manet_1862.jpg
Saccade L	1	1	5223428766	5223468520	39754	1034.04	431.16	1025.48	439.78	1.07	95.43	1.00	26.97	2204.18	0.00	1109.95
Saccade R	1	1	5223428766	5223468520	39754	1034.04	431.16	1025.48	439.78	1.07	95.43	1.00	26.97	2204.18	0.00	1109.95
Fixation L	1	1	5223468520	5223627621	159101	994.74	441.64	94	5	-1	18.21	18.21
Fixation R	1	1	5223468520	5223627621	159101	994.74	441.64	94	5	-1	18.13	18.13
Saccade L	1	2	5223627621	5223687373	59752	938.35	444.02	954.03	441.14	2.85	73.57	0.67	47.68	1580.09	-1026.96	700.85
Saccade R	1	2	5223627621	5223687373	59752	938.35	444.02	954.03	441.14	2.85	73.57	0.67	47.68	1580.09	-1026.96	700.85
Fixation L	1	2	5223687373	5223806748	119375	983.28	429.65	67	20	-1	18.02	18.02
Fixation R	1	2	5223687373	5223806748	119375	983.28	429.65	67	20	-1	17.83	17.83
Saccade L	1	3	5223806748	5223906115	99367	972.59	427.56	864.21	436.72	3.88	88.22	0.80	39.05	1977.03	-2086.68	1391.76
Saccade R	1	3	5223806748	5223906115	99367	972.59	427.56	864.21	436.72	3.88	88.22	0.80	39.05	1977.03	-2086.68	1391.76
Fixation L	1	3	5223906115	5224065233	159118	877.13	477.41	22	52	-1	17.97	17.97
Fixation R	1	3	5223906115	5224065233	159118	877.13	477.41	22	52	-1	17.78	17.78
Saccade L	1	4	5224065233	5224085108	19875	864.66	489.15	630.44	494.99	1.30	236.88	1.00	65.33	5832.77	-5770.82	3979.88
Saccade R	1	4	5224065233	5224085108	19875	864.66	489.15	630.44	494.99	1.30	236.88	1.00	65.33	5832.77	-5770.82	3979.88
Fixation L	1	4	5224085108	5224343726	258618	625.57	508.00	10	25	-1	18.11	18.11
Fixation R	1	4	5224085108	5224343726	258618	625.57	508.00	10	25	-1	17.80	17.80
Saccade L	1	5	5224343726	5224383465	39739	625.21	515.09	879.09	546.67	2.33	206.45	0.50	58.71	5139.85	-4574.07	3115.06
Saccade R	1	5	5224343726	5224383465	39739	625.21	515.09	879.09	546.67	2.33	206.45	0.50	58.71	5139.85	-4574.07	3115.06
Fixation L	1	5	5224383465	5224602322	218857	887.88	547.78	14	68	-1	17.79	17.79
Fixation R	1	5	5224383465	5224602322	218857	887.88	547.78	14	68	-1	17.54	17.54
Saccade L	1	6	5224602322	5224681823	79501	893.59	557.47	1328.96	547.34	7.24	317.89	0.25	91.03	7801.22	-5814.54	3651.70
Saccade R	1	6	5224602322	5224681823	79501	893.59	557.47	1328.96	547.34	7.24	317.89	0.25	91.03	7801.22	-5814.54	3651.70
Fixation L	1	6	5224681823	5224860815	178992	1324.65	532.28	8	73	-1	18.03	18.03
Fixation R	1	6	5224681823	5224860815	178992	1324.65	532.28	8	73	-1	17.35	17.35
Saccade L	1	7	5224860815	5224880691	19876	1329.37	556.53	1347.85	583.02	0.26	32.67	1.00	12.84	780.72	-579.75	463.13
Saccade R	1	7	5224860815	5224880691	19876	1329.37	556.53	1347.85	583.02	0.26	32.67	1.00	12.84	780.72	-579.75	463.13
Fixation L	1	7	5224880691	5224980186	99495	1353.27	595.59	19	29	-1	17.67	17.67
Fixation R	1	7	5224880691	5224980186	99495	1353.27	595.59	19	29	-1	17.06	17.06
Saccade L	1	8	5224980186	5225000052	19866	1351.50	612.80	1299.55	703.10	0.80	105.37	1.00	40.11	2103.07	-2428.05	1699.51
Saccade R	1	8	5224980186	5225000052	19866	1351.50	612.80	1299.55	703.10	0.80	105.37	1.00	40.11	2103.07	-2428.05	1699.51
Fixation L	1	8	5225000052	5225139309	139257	1287.87	709.53	19	22	-1	17.67	17.67
Fixation R	1	8	5225000052	5225139309	139257	1287.87	709.53	19	22	-1	16.50	16.50
Saccade L	1	9	5225139309	5225179048	39739	1280.24	720.06	896.13	865.49	3.42	303.71	0.50	85.99	7509.69	-7410.87	5084.29
Saccade R	1	9	5225139309	5225179048	39739	1280.24	720.06	896.13	865.49	3.42	303.71	0.50	85.99	7509.69	-7410.87	5084.29
Fixation L	1	9	5225179048	5225537155	358107	878.45	866.97	39	10	-1	17.85	17.85
Fixation R	1	9	5225179048	5225537155	358107	878.45	866.97	39	10	-1	16.78	16.78
Saccade L	1	10	5225537155	5225576897	39742	862.86	865.28	1194.47	850.79	2.78	243.65	0.50	69.91	5994.39	-5906.75	4065.72
Saccade R	1	10	5225537155	5225576897	39742	862.86	865.28	1194.47	850.79	2.78	243.65	0.50	69.91	5994.39	-5906.75	4065.72
Fixation L	1	10	5225576897	5225875261	298364	1194.14	833.33	7	24	-1	17.24	17.24
Fixation R	1	10	5225576897	5225875261	298364	1194.14	833.33	7	24	-1	16.71	16.71
Saccade L	1	11	5225875261	5225895129	19868	1192.61	829.73	1348.54	828.57	0.86	157.70	1.00	43.24	3938.28	-3883.46	2712.50
Saccade R	1	11	5225875261	5225895129	19868	1192.61	829.73	1348.54	828.57	0.86	157.70	1.00	43.24	3938.28	-3883.46	2712.50
Fixation L	1	11	5225895129	5226074127	178998	1372.10	823.79	33	9	-1	17.82	17.82
Fixation R	1	11	5225895129	5226074127	178998	1372.10	823.79	33	9	-1	16.65	16.65
Saccade L	1	12	5226074127	5226094000	19873	1375.20	819.27	1365.86	668.37	0.81	152.90	1.00	40.83	3773.56	-3584.85	2462.84
Saccade R	1	12	5226074127	5226094000	19873	1375.20	819.27	1365.86	668.37	0.81	152.90	1.00	40.83	3773.56	-3584.85	2462.84
Fixation L	1	12	5226094000	5226352611	258611	1341.15	675.20	35	16	-1	18.11	18.11
Fixation R	1	12	5226094000	5226352611	258611	1341.15	675.20	35	16	-1	17.22	17.22
Saccade L	1	13	5226352611	5226372478	19867	1332.92	674.41	1332.36	554.24	0.69	121.55	1.00	34.71	3005.40	-2814.01	2015.45
Saccade R	1	13	5226352611	5226372478	19867	1332.92	674.41	1332.36	554.24	0.69	121.55	1.00	34.71	3005.40	-2814.01	2015.45
Fixation L	1	13	5226372478	5226710594	338116	1344.95	550.09	45	28	-1	18.38	18.38
Fixation R	1	13	5226372478	5226710594	338116	1344.95	550.09	45	28	-1	17.56	17.56
Blink L	1	1	5226710594	5226929463	218869
Blink R	1	1	5226710594	5226929463	218869
Fixation L	1	14	5226929463	5227028820	99357	1101.67	488.82	8	10	-1	20.56	20.56
Fixation R	1	14	5226929463	5227028820	99357	1101.67	488.82	8	10	-1	20.27	20.27
Saccade L	1	14	5227028820	5227048699	19879	1099.16	485.73	985.91	503.09	0.67	115.88	1.00	33.66	2878.21	-1510.57	1569.47
Saccade R	1	14	5227028820	5227048699	19879	1099.16	485.73	985.91	503.09	0.67	115.88	1.00	33.66	2878.21	-1510.57	1569.47
Fixation L	1	15	5227048699	5227426689	377990	965.36	518.34	64	27	-1	20.69	20.69
Fixation R	1	15	5227048699	5227426689	377990	965.36	518.34	64	27	-1	20.27	20.27
