[BeGaze]
Converted from:	C:\Documents and Settings\iViewX\Desktop\EXPERIMENTATIONS\Experiments\results\finaleart\S22H22551-finaleart-1.idf
Date:	27.03.2019 15:58:32
Version:	BeGaze 2.5.77
Sample Rate:	50
Subject:	S22H22551
Description:	Mathieu Chambre

Table Header for Fixations:
Event Type	Trial	Number	Start	End	Duration	Location X	Location Y	Dispersion X	Dispersion Y	Plane	Avg. Pupil Size X	Avg. Pupil Size Y

Table Header for Saccades:
Event Type	Trial	Number	Start	End	Duration	Start Loc.X	Start Loc.Y	End Loc.X	End Loc.Y	Amplitude	Peak Speed	Peak Speed At	Average Speed	Peak Accel.	Peak Decel.	Average Accel.

Table Header for Blinks:
Event Type	Trial	Number	Start	End	Duration

Table Header for User Events:
Event Type	Trial	Number	Start	Description

UserEvent	1	1	5609617418	# Message: still-life-fruits-on-a-table_manet_1864.jpg
Fixation L	1	1	5609635915	5610133138	497223	975.01	416.33	53	42	-1	17.06	17.06
Fixation R	1	1	5609635915	5610133138	497223	975.01	416.33	53	42	-1	16.65	16.65
Saccade L	1	1	5610133138	5610153026	19888	938.35	428.64	932.55	421.30	0.26	35.02	1.00	13.08	154.40	-638.85	267.16
Saccade R	1	1	5610133138	5610153026	19888	938.35	428.64	932.55	421.30	0.26	35.02	1.00	13.08	154.40	-638.85	267.16
Fixation L	1	2	5610153026	5610272374	119348	922.63	402.77	19	41	-1	15.15	15.15
Fixation R	1	2	5610153026	5610272374	119348	922.63	402.77	19	41	-1	14.73	14.73
Saccade L	1	2	5610272374	5610292257	19883	916.24	380.14	775.98	338.40	1.00	148.00	1.00	50.53	3458.75	-3459.64	2577.02
Saccade R	1	2	5610272374	5610292257	19883	916.24	380.14	775.98	338.40	1.00	148.00	1.00	50.53	3458.75	-3459.64	2577.02
Fixation L	1	3	5610292257	5610511011	218754	733.37	335.38	56	12	-1	13.89	13.89
Fixation R	1	3	5610292257	5610511011	218754	733.37	335.38	56	12	-1	13.44	13.44
Saccade L	1	3	5610511011	5610530998	19987	719.07	334.68	681.16	333.68	0.27	38.36	1.00	13.75	909.05	-504.86	491.99
Saccade R	1	3	5610511011	5610530998	19987	719.07	334.68	681.16	333.68	0.27	38.36	1.00	13.75	909.05	-504.86	491.99
Fixation L	1	4	5610530998	5610630367	99369	667.30	336.35	33	14	-1	13.69	13.69
Fixation R	1	4	5610530998	5610630367	99369	667.30	336.35	33	14	-1	13.34	13.34
Saccade L	1	4	5610630367	5610650240	19873	654.03	347.29	643.63	551.78	1.41	207.04	1.00	71.13	5111.08	-4883.50	3718.28
Saccade R	1	4	5610630367	5610650240	19873	654.03	347.29	643.63	551.78	1.41	207.04	1.00	71.13	5111.08	-4883.50	3718.28
Fixation L	1	5	5610650240	5610888979	238739	634.87	618.13	15	83	-1	14.09	14.09
Fixation R	1	5	5610650240	5610888979	238739	634.87	618.13	15	83	-1	14.02	14.02
Saccade L	1	5	5610888979	5610968474	79495	630.96	634.81	1001.37	675.17	4.93	291.95	1.00	61.97	7293.69	-6822.12	2867.95
Saccade R	1	5	5610888979	5610968474	79495	630.96	634.81	1001.37	675.17	4.93	291.95	1.00	61.97	7293.69	-6822.12	2867.95
Fixation L	1	6	5610968474	5611227089	258615	1039.25	714.24	44	49	-1	14.06	14.06
Fixation R	1	6	5610968474	5611227089	258615	1039.25	714.24	44	49	-1	13.90	13.90
Saccade L	1	6	5611227089	5611266846	39757	1045.45	725.04	1299.24	756.80	2.16	137.94	1.00	54.25	3406.31	-3091.84	3070.30
Saccade R	1	6	5611227089	5611266846	39757	1045.45	725.04	1299.24	756.80	2.16	137.94	1.00	54.25	3406.31	-3091.84	3070.30
Fixation L	1	7	5611266846	5611445823	178977	1294.06	779.64	9	32	-1	14.24	14.24
Fixation R	1	7	5611266846	5611445823	178977	1294.06	779.64	9	32	-1	13.74	13.74
Saccade L	1	7	5611445823	5611465823	20000	1293.14	788.83	1413.96	976.40	1.22	225.59	1.00	61.01	5616.20	-5351.24	3715.13
Saccade R	1	7	5611445823	5611465823	20000	1293.14	788.83	1413.96	976.40	1.22	225.59	1.00	61.01	5616.20	-5351.24	3715.13
Fixation L	1	8	5611465823	5611604941	139118	1429.94	994.22	25	23	-1	14.72	14.72
Fixation R	1	8	5611465823	5611604941	139118	1429.94	994.22	25	23	-1	14.28	14.28
Saccade L	1	8	5611604941	5611624937	19996	1439.34	999.67	1604.48	1097.25	1.06	193.97	1.00	53.11	4822.97	-4815.99	3295.25
Saccade R	1	8	5611604941	5611624937	19996	1439.34	999.67	1604.48	1097.25	1.06	193.97	1.00	53.11	4822.97	-4815.99	3295.25
Fixation L	1	9	5611624937	5612858122	1233185	1586.10	1094.27	67	28	-1	14.79	14.79
Fixation R	1	9	5611624937	5612858122	1233185	1586.10	1094.27	67	28	-1	14.16	14.16
Saccade L	1	9	5612858122	5612897875	39753	1573.49	1081.42	1367.46	961.46	2.05	218.46	1.00	51.53	5438.23	-5296.81	2973.30
Saccade R	1	9	5612858122	5612897875	39753	1573.49	1081.42	1367.46	961.46	2.05	218.46	1.00	51.53	5438.23	-5296.81	2973.30
Fixation L	1	10	5612897875	5613255858	357983	1347.86	937.32	47	43	-1	14.74	14.74
Fixation R	1	10	5612897875	5613255858	357983	1347.86	937.32	47	43	-1	14.13	14.13
Saccade L	1	10	5613255858	5613295605	39747	1320.17	923.43	1405.13	795.73	1.52	123.72	1.00	38.26	3037.87	-2822.12	1651.53
Saccade R	1	10	5613255858	5613295605	39747	1320.17	923.43	1405.13	795.73	1.52	123.72	1.00	38.26	3037.87	-2822.12	1651.53
Fixation L	1	11	5613295605	5613414979	119374	1431.73	802.25	42	25	-1	14.84	14.84
Fixation R	1	11	5613295605	5613414979	119374	1431.73	802.25	42	25	-1	14.24	14.24
Saccade L	1	11	5613414979	5613454715	39736	1432.07	818.95	1457.38	305.83	4.42	289.89	1.00	111.21	6939.05	-6915.06	6179.61
Saccade R	1	11	5613414979	5613454715	39736	1432.07	818.95	1457.38	305.83	4.42	289.89	1.00	111.21	6939.05	-6915.06	6179.61
Fixation L	1	12	5613454715	5613613829	159114	1472.06	322.09	22	38	-1	14.37	14.37
Fixation R	1	12	5613454715	5613613829	159114	1472.06	322.09	22	38	-1	14.13	14.13
