[BeGaze]
Converted from:	C:\Documents and Settings\iViewX\Desktop\EXPERIMENTATIONS\Experiments\results\finaleart\S22H22551-finaleart-1.idf
Date:	27.03.2019 15:58:47
Version:	BeGaze 2.5.77
Sample Rate:	50
Subject:	S22H22551
Description:	Mathieu Chambre

Table Header for Fixations:
Event Type	Trial	Number	Start	End	Duration	Location X	Location Y	Dispersion X	Dispersion Y	Plane	Avg. Pupil Size X	Avg. Pupil Size Y

Table Header for Saccades:
Event Type	Trial	Number	Start	End	Duration	Start Loc.X	Start Loc.Y	End Loc.X	End Loc.Y	Amplitude	Peak Speed	Peak Speed At	Average Speed	Peak Accel.	Peak Decel.	Average Accel.

Table Header for Blinks:
Event Type	Trial	Number	Start	End	Duration

Table Header for User Events:
Event Type	Trial	Number	Start	Description

UserEvent	1	1	5739048627	# Message: void.jpg
Saccade L	1	1	5739059689	5739139307	79618	635.54	331.38	731.49	223.68	2.91	148.33	1.00	36.53	3576.42	-3382.28	1412.92
Saccade R	1	1	5739059689	5739139307	79618	635.54	331.38	731.49	223.68	2.91	148.33	1.00	36.53	3576.42	-3382.28	1412.92
Fixation L	1	1	5739139307	5739318300	178993	767.72	188.51	45	44	-1	15.19	15.19
Fixation R	1	1	5739139307	5739318300	178993	767.72	188.51	45	44	-1	15.00	15.00
Saccade L	1	2	5739318300	5739338169	19869	775.27	181.93	987.67	225.06	1.26	219.16	1.00	63.46	5393.26	-5285.20	3801.03
Saccade R	1	2	5739318300	5739338169	19869	775.27	181.93	987.67	225.06	1.26	219.16	1.00	63.46	5393.26	-5285.20	3801.03
Fixation L	1	2	5739338169	5739497280	159111	1001.16	251.94	20	35	-1	15.61	15.61
Fixation R	1	2	5739338169	5739497280	159111	1001.16	251.94	20	35	-1	15.62	15.62
Blink L	1	1	5739497280	5739656402	159122
Blink R	1	1	5739497280	5739656402	159122
Fixation L	1	3	5739656402	5740750345	1093943	1132.22	345.80	63	35	-1	15.81	15.81
Fixation R	1	3	5739656402	5740750345	1093943	1132.22	345.80	63	35	-1	16.06	16.06
Saccade L	1	3	5740750345	5740770222	19877	1089.59	343.60	1087.43	341.71	0.07	4.74	1.00	3.42	12.15	-50.65	36.32
Saccade R	1	3	5740750345	5740770222	19877	1089.59	343.60	1087.43	341.71	0.07	4.74	1.00	3.42	12.15	-50.65	36.32
Fixation L	1	4	5740770222	5741048712	278490	1076.82	345.50	55	21	-1	16.51	16.51
Fixation R	1	4	5740770222	5741048712	278490	1076.82	345.50	55	21	-1	16.70	16.70
