[BeGaze]
Converted from:	C:\Documents and Settings\iViewX\Desktop\EXPERIMENTATIONS\Experiments\results\finaleart\S22H22551-finaleart-1.idf
Date:	27.03.2019 15:57:24
Version:	BeGaze 2.5.77
Sample Rate:	50
Subject:	S22H22551
Description:	Mathieu Chambre

Table Header for Fixations:
Event Type	Trial	Number	Start	End	Duration	Location X	Location Y	Dispersion X	Dispersion Y	Plane	Avg. Pupil Size X	Avg. Pupil Size Y

Table Header for Saccades:
Event Type	Trial	Number	Start	End	Duration	Start Loc.X	Start Loc.Y	End Loc.X	End Loc.Y	Amplitude	Peak Speed	Peak Speed At	Average Speed	Peak Accel.	Peak Decel.	Average Accel.

Table Header for Blinks:
Event Type	Trial	Number	Start	End	Duration

Table Header for User Events:
Event Type	Trial	Number	Start	Description

UserEvent	1	1	4973991818	# Message: Sailboats_On_The_River_Sheldt_van_Rysselberghe_1892.jpg
Fixation L	1	1	4973992761	4974509855	517094	986.36	391.84	38	44	-1	17.55	17.55
Fixation R	1	1	4973992761	4974509855	517094	986.36	391.84	38	44	-1	16.90	16.90
Saccade L	1	1	4974509855	4974529722	19867	1002.84	370.34	908.29	386.51	0.71	97.03	1.00	35.69	2406.52	-1731.44	1727.62
Saccade R	1	1	4974509855	4974529722	19867	1002.84	370.34	908.29	386.51	0.71	97.03	1.00	35.69	2406.52	-1731.44	1727.62
Fixation L	1	2	4974529722	4974728709	198987	880.79	426.00	34	52	-1	15.64	15.64
Fixation R	1	2	4974529722	4974728709	198987	880.79	426.00	34	52	-1	15.42	15.42
Saccade L	1	2	4974728709	4974828075	99366	877.44	433.44	491.03	-7.74	9.77	248.29	0.20	98.30	6132.52	-3573.82	3188.78
Saccade R	1	2	4974728709	4974828075	99366	877.44	433.44	491.03	-7.74	9.77	248.29	0.20	98.30	6132.52	-3573.82	3188.78
Fixation L	1	3	4974828075	4974947447	119372	484.83	29.01	15	64	-1	13.54	13.54
Fixation R	1	3	4974828075	4974947447	119372	484.83	29.01	15	64	-1	13.05	13.05
Saccade L	1	3	4974947447	4975007065	59618	483.39	56.42	945.13	408.58	6.17	371.92	0.67	103.52	9106.65	-9223.86	4979.32
Saccade R	1	3	4974947447	4975007065	59618	483.39	56.42	945.13	408.58	6.17	371.92	0.67	103.52	9106.65	-9223.86	4979.32
Fixation L	1	4	4975007065	4975206060	198995	937.90	391.77	11	32	-1	13.68	13.68
Fixation R	1	4	4975007065	4975206060	198995	937.90	391.77	11	32	-1	13.45	13.45
Saccade L	1	4	4975206060	4975245810	39750	936.54	375.68	1162.79	324.06	1.97	148.29	0.50	49.52	3698.48	-3485.99	2849.40
Saccade R	1	4	4975206060	4975245810	39750	936.54	375.68	1162.79	324.06	1.97	148.29	0.50	49.52	3698.48	-3485.99	2849.40
Fixation L	1	5	4975245810	4975424796	178986	1162.84	318.40	6	12	-1	14.26	14.26
Fixation R	1	5	4975245810	4975424796	178986	1162.84	318.40	6	12	-1	14.11	14.11
Saccade L	1	5	4975424796	4975444676	19880	1165.38	315.18	1223.20	272.93	0.43	72.45	1.00	21.49	1742.15	-1192.99	1034.20
Saccade R	1	5	4975424796	4975444676	19880	1165.38	315.18	1223.20	272.93	0.43	72.45	1.00	21.49	1742.15	-1192.99	1034.20
Fixation L	1	6	4975444676	4975782781	338105	1235.89	257.97	18	30	-1	13.90	13.90
Fixation R	1	6	4975444676	4975782781	338105	1235.89	257.97	18	30	-1	13.53	13.53
Saccade L	1	6	4975782781	4975802779	19998	1234.71	260.17	1342.78	261.65	0.59	109.32	1.00	29.62	2673.83	-2523.65	1775.51
Saccade R	1	6	4975782781	4975802779	19998	1234.71	260.17	1342.78	261.65	0.59	109.32	1.00	29.62	2673.83	-2523.65	1775.51
Fixation L	1	7	4975802779	4976001644	198865	1345.04	280.78	6	28	-1	14.27	14.27
Fixation R	1	7	4975802779	4976001644	198865	1345.04	280.78	6	28	-1	13.80	13.80
Saccade L	1	7	4976001644	4976021515	19871	1349.29	289.40	1538.95	294.83	1.17	191.88	1.00	59.00	4784.44	-4570.64	3417.46
Saccade R	1	7	4976001644	4976021515	19871	1349.29	289.40	1538.95	294.83	1.17	191.88	1.00	59.00	4784.44	-4570.64	3417.46
Fixation L	1	8	4976021515	4976160768	139253	1521.49	302.74	46	14	-1	14.19	14.19
Fixation R	1	8	4976021515	4976160768	139253	1521.49	302.74	46	14	-1	13.87	13.87
Saccade L	1	8	4976160768	4976180638	19870	1534.75	303.58	1453.34	480.15	1.12	196.62	1.00	56.57	4801.04	-4889.17	3331.50
Saccade R	1	8	4976160768	4976180638	19870	1534.75	303.58	1453.34	480.15	1.12	196.62	1.00	56.57	4801.04	-4889.17	3331.50
Fixation L	1	9	4976180638	4976399376	218738	1439.22	485.22	23	14	-1	14.31	14.31
Fixation R	1	9	4976180638	4976399376	218738	1439.22	485.22	23	14	-1	13.98	13.98
Saccade L	1	9	4976399376	4976439245	39869	1429.37	488.03	1169.32	496.99	2.28	220.68	0.50	57.19	5482.56	-5291.34	3099.06
Saccade R	1	9	4976399376	4976439245	39869	1429.37	488.03	1169.32	496.99	2.28	220.68	0.50	57.19	5482.56	-5291.34	3099.06
Fixation L	1	10	4976439245	4976598364	159119	1155.61	498.89	83	8	-1	14.70	14.70
Fixation R	1	10	4976439245	4976598364	159119	1155.61	498.89	83	8	-1	13.80	13.80
Saccade L	1	10	4976598364	4976638112	39748	1162.06	504.55	1168.06	898.57	3.61	233.29	1.00	90.92	5762.64	-5629.54	4579.42
Saccade R	1	10	4976598364	4976638112	39748	1162.06	504.55	1168.06	898.57	3.61	233.29	1.00	90.92	5762.64	-5629.54	4579.42
Fixation L	1	11	4976638112	4976876722	238610	1182.71	954.63	23	68	-1	14.54	14.54
Fixation R	1	11	4976638112	4976876722	238610	1182.71	954.63	23	68	-1	13.81	13.81
Saccade L	1	11	4976876722	4976896738	20016	1191.99	967.45	1189.92	1062.51	0.59	96.18	1.00	29.52	2388.90	-2321.86	1718.56
Saccade R	1	11	4976876722	4976896738	20016	1191.99	967.45	1189.92	1062.51	0.59	96.18	1.00	29.52	2388.90	-2321.86	1718.56
Fixation L	1	12	4976896738	4977075716	178978	1196.08	1039.74	9	32	-1	14.33	14.33
Fixation R	1	12	4976896738	4977075716	178978	1196.08	1039.74	9	32	-1	13.71	13.71
Saccade L	1	12	4977075716	4977095580	19864	1199.55	1038.53	1388.18	1040.98	1.05	190.77	1.00	52.82	4758.73	-4544.49	3262.24
Saccade R	1	12	4977075716	4977095580	19864	1199.55	1038.53	1388.18	1040.98	1.05	190.77	1.00	52.82	4758.73	-4544.49	3262.24
Fixation L	1	13	4977095580	4977274581	179001	1414.36	1047.10	33	12	-1	14.32	14.32
Fixation R	1	13	4977095580	4977274581	179001	1414.36	1047.10	33	12	-1	13.69	13.69
Saccade L	1	13	4977274581	4977314317	39736	1412.66	1053.67	845.61	954.13	4.88	354.46	0.50	122.91	8807.50	-8520.44	7070.31
Saccade R	1	13	4977274581	4977314317	39736	1412.66	1053.67	845.61	954.13	4.88	354.46	0.50	122.91	8807.50	-8520.44	7070.31
Fixation L	1	14	4977314317	4977473442	159125	811.16	950.65	47	8	-1	14.58	14.58
Fixation R	1	14	4977314317	4977473442	159125	811.16	950.65	47	8	-1	14.17	14.17
Saccade L	1	14	4977473442	4977513322	39880	806.54	949.63	696.72	522.33	3.95	271.95	0.50	98.98	6721.73	-5903.58	5307.97
Saccade R	1	14	4977473442	4977513322	39880	806.54	949.63	696.72	522.33	3.95	271.95	0.50	98.98	6721.73	-5903.58	5307.97
Fixation L	1	15	4977513322	4977652432	139110	693.46	490.27	11	44	-1	13.82	13.82
Fixation R	1	15	4977513322	4977652432	139110	693.46	490.27	11	44	-1	13.43	13.43
Saccade L	1	15	4977652432	4977672437	20005	688.40	477.64	588.78	293.32	1.25	211.85	1.00	62.57	5062.32	-5107.16	3561.28
Saccade R	1	15	4977652432	4977672437	20005	688.40	477.64	588.78	293.32	1.25	211.85	1.00	62.57	5062.32	-5107.16	3561.28
Fixation L	1	16	4977672437	4977891173	218736	566.38	273.16	39	48	-1	13.36	13.36
Fixation R	1	16	4977672437	4977891173	218736	566.38	273.16	39	48	-1	13.21	13.21
Saccade L	1	16	4977891173	4977990668	99495	549.71	244.85	529.91	225.53	1.36	33.62	0.00	13.66	268.98	-631.02	271.17
Saccade R	1	16	4977891173	4977990668	99495	549.71	244.85	529.91	225.53	1.36	33.62	0.00	13.66	268.98	-631.02	271.17
