[BeGaze]
Converted from:	C:\Documents and Settings\iViewX\Desktop\EXPERIMENTATIONS\Experiments\results\finaleart\S22H22551-finaleart-1.idf
Date:	27.03.2019 15:57:47
Version:	BeGaze 2.5.77
Sample Rate:	50
Subject:	S22H22551
Description:	Mathieu Chambre

Table Header for Fixations:
Event Type	Trial	Number	Start	End	Duration	Location X	Location Y	Dispersion X	Dispersion Y	Plane	Avg. Pupil Size X	Avg. Pupil Size Y

Table Header for Saccades:
Event Type	Trial	Number	Start	End	Duration	Start Loc.X	Start Loc.Y	End Loc.X	End Loc.Y	Amplitude	Peak Speed	Peak Speed At	Average Speed	Peak Accel.	Peak Decel.	Average Accel.

Table Header for Blinks:
Event Type	Trial	Number	Start	End	Duration

Table Header for User Events:
Event Type	Trial	Number	Start	Description

UserEvent	1	1	5184528345	# Message: void.jpg
Fixation L	1	1	5184543914	5184643430	99516	420.03	1063.20	50	16	-1	17.73	17.73
Fixation R	1	1	5184543914	5184643430	99516	420.03	1063.20	50	16	-1	18.72	18.72
Saccade L	1	1	5184643430	5184663292	19862	407.28	1056.20	341.55	1068.37	0.81	67.62	1.00	40.86	861.49	-1572.46	1017.61
Saccade R	1	1	5184643430	5184663292	19862	407.28	1056.20	341.55	1068.37	0.81	67.62	1.00	40.86	861.49	-1572.46	1017.61
Fixation L	1	2	5184663292	5184941764	278472	367.97	1080.68	47	20	-1	17.17	17.17
Fixation R	1	2	5184663292	5184941764	278472	367.97	1080.68	47	20	-1	18.49	18.49
Blink L	1	1	5184941764	5185180504	238740
Blink R	1	1	5184941764	5185180504	238740
Fixation L	1	3	5185180504	5185319742	139238	1269.05	191.55	48	28	-1	16.36	16.36
Fixation R	1	3	5185180504	5185319742	139238	1269.05	191.55	48	28	-1	17.38	17.38
Saccade L	1	2	5185319742	5185339628	19886	1232.66	211.67	1043.88	205.67	1.36	191.00	1.00	68.53	4753.03	-4585.36	3142.85
Saccade R	1	2	5185319742	5185339628	19886	1232.66	211.67	1043.88	205.67	1.36	191.00	1.00	68.53	4753.03	-4585.36	3142.85
Fixation L	1	4	5185339628	5185478873	139245	1064.56	244.28	26	58	-1	16.82	16.82
Fixation R	1	4	5185339628	5185478873	139245	1064.56	244.28	26	58	-1	17.61	17.61
Saccade L	1	3	5185478873	5185498734	19861	1066.34	263.91	1026.37	250.90	0.50	45.12	1.00	25.08	956.86	-909.13	927.83
Saccade R	1	3	5185478873	5185498734	19861	1066.34	263.91	1026.37	250.90	0.50	45.12	1.00	25.08	956.86	-909.13	927.83
Fixation L	1	5	5185498734	5185618109	119375	1048.99	265.85	61	20	-1	18.05	18.05
Fixation R	1	5	5185498734	5185618109	119375	1048.99	265.85	61	20	-1	18.55	18.55
Saccade L	1	4	5185618109	5185637979	19870	1007.09	262.26	1110.11	256.56	0.88	104.36	1.00	44.20	2535.35	-2209.55	1847.82
Saccade R	1	4	5185618109	5185637979	19870	1007.09	262.26	1110.11	256.56	0.88	104.36	1.00	44.20	2535.35	-2209.55	1847.82
Fixation L	1	6	5185637979	5185777226	139247	1124.31	273.19	34	62	-1	18.51	18.51
Fixation R	1	6	5185637979	5185777226	139247	1124.31	273.19	34	62	-1	19.11	19.11
Saccade L	1	5	5185777226	5185797096	19870	1136.20	299.83	1136.31	304.49	0.09	7.10	0.00	4.56	58.55	-76.12	68.66
Saccade R	1	5	5185777226	5185797096	19870	1136.20	299.83	1136.31	304.49	0.09	7.10	0.00	4.56	58.55	-76.12	68.66
Fixation L	1	7	5185797096	5186155099	358003	1152.38	338.75	44	53	-1	18.75	18.75
Fixation R	1	7	5185797096	5186155099	358003	1152.38	338.75	44	53	-1	19.28	19.28
Saccade L	1	6	5186155099	5186174950	19851	1177.21	354.83	1178.99	353.62	0.05	4.30	0.00	2.68	18.12	-38.28	19.62
Saccade R	1	6	5186155099	5186174950	19851	1177.21	354.83	1178.99	353.62	0.05	4.30	0.00	2.68	18.12	-38.28	19.62
Fixation L	1	8	5186174950	5186373818	198868	1195.23	336.91	41	51	-1	18.77	18.77
Fixation R	1	8	5186174950	5186373818	198868	1195.23	336.91	41	51	-1	19.29	19.29
Saccade L	1	7	5186373818	5186393813	19995	1220.63	318.94	1228.23	320.94	0.23	21.90	1.00	11.75	64.94	-348.56	197.08
Saccade R	1	7	5186373818	5186393813	19995	1220.63	318.94	1228.23	320.94	0.23	21.90	1.00	11.75	64.94	-348.56	197.08
Fixation L	1	9	5186393813	5186552935	159122	1225.88	315.42	5	16	-1	18.76	18.76
Fixation R	1	9	5186393813	5186552935	159122	1225.88	315.42	5	16	-1	19.58	19.58
