[BeGaze]
Converted from:	C:\Documents and Settings\iViewX\Desktop\EXPERIMENTATIONS\Experiments\results\finaleart\S22H22551-finaleart-1.idf
Date:	27.03.2019 15:58:12
Version:	BeGaze 2.5.77
Sample Rate:	50
Subject:	S22H22551
Description:	Mathieu Chambre

Table Header for Fixations:
Event Type	Trial	Number	Start	End	Duration	Location X	Location Y	Dispersion X	Dispersion Y	Plane	Avg. Pupil Size X	Avg. Pupil Size Y

Table Header for Saccades:
Event Type	Trial	Number	Start	End	Duration	Start Loc.X	Start Loc.Y	End Loc.X	End Loc.Y	Amplitude	Peak Speed	Peak Speed At	Average Speed	Peak Accel.	Peak Decel.	Average Accel.

Table Header for Blinks:
Event Type	Trial	Number	Start	End	Duration

Table Header for User Events:
Event Type	Trial	Number	Start	Description

UserEvent	1	1	5389823976	# Message: reclining-nude_renoir_1883.jpg
Fixation L	1	1	5389837606	5390195582	357976	989.08	398.38	51	47	-1	17.05	17.05
Fixation R	1	1	5389837606	5390195582	357976	989.08	398.38	51	47	-1	17.57	17.57
Saccade L	1	1	5390195582	5390275257	79675	977.31	421.99	711.25	269.21	3.97	197.28	1.00	49.82	4915.20	-4731.86	2710.65
Saccade R	1	1	5390195582	5390275257	79675	977.31	421.99	711.25	269.21	3.97	197.28	1.00	49.82	4915.20	-4731.86	2710.65
Fixation L	1	2	5390275257	5390911675	636418	733.24	263.07	41	45	-1	15.81	15.81
Fixation R	1	2	5390275257	5390911675	636418	733.24	263.07	41	45	-1	16.87	16.87
Saccade L	1	2	5390911675	5390951419	39744	746.11	258.94	1011.07	547.52	3.25	206.33	0.50	81.69	5141.82	-5011.73	4878.02
Saccade R	1	2	5390911675	5390951419	39744	746.11	258.94	1011.07	547.52	3.25	206.33	0.50	81.69	5141.82	-5011.73	4878.02
Fixation L	1	3	5390951419	5391170282	218863	1011.55	566.55	8	38	-1	16.31	16.31
Fixation R	1	3	5390951419	5391170282	218863	1011.55	566.55	8	38	-1	17.51	17.51
Saccade L	1	3	5391170282	5391190158	19876	1015.91	585.79	1158.00	643.58	0.86	155.14	1.00	43.22	3744.34	-3181.50	2323.13
Saccade R	1	3	5391170282	5391190158	19876	1015.91	585.79	1158.00	643.58	0.86	155.14	1.00	43.22	3744.34	-3181.50	2323.13
Fixation L	1	4	5391190158	5391408897	218739	1153.00	658.69	7	27	-1	15.87	15.87
Fixation R	1	4	5391190158	5391408897	218739	1153.00	658.69	7	27	-1	16.81	16.81
Saccade L	1	4	5391408897	5391448645	39748	1153.43	658.64	1400.10	744.82	2.24	142.94	1.00	56.37	3443.59	-3279.75	3217.53
Saccade R	1	4	5391408897	5391448645	39748	1153.43	658.64	1400.10	744.82	2.24	142.94	1.00	56.37	3443.59	-3279.75	3217.53
Fixation L	1	5	5391448645	5391727131	278486	1391.83	745.62	11	12	-1	15.57	15.57
Fixation R	1	5	5391448645	5391727131	278486	1391.83	745.62	11	12	-1	15.85	15.85
Saccade L	1	5	5391727131	5391747004	19873	1389.15	738.89	1530.75	738.95	0.75	143.22	1.00	37.49	3537.09	-3529.69	2358.12
Saccade R	1	5	5391727131	5391747004	19873	1389.15	738.89	1530.75	738.95	0.75	143.22	1.00	37.49	3537.09	-3529.69	2358.12
Fixation L	1	6	5391747004	5392045366	298362	1525.87	735.66	12	18	-1	15.52	15.52
Fixation R	1	6	5391747004	5392045366	298362	1525.87	735.66	12	18	-1	15.53	15.53
Saccade L	1	6	5392045366	5392065238	19872	1522.55	748.49	1559.24	789.89	0.40	55.96	1.00	20.35	1364.93	-941.97	769.80
Saccade R	1	6	5392045366	5392065238	19872	1522.55	748.49	1559.24	789.89	0.40	55.96	1.00	20.35	1364.93	-941.97	769.80
Fixation L	1	7	5392065238	5392224353	159115	1545.23	812.02	26	34	-1	15.77	15.77
Fixation R	1	7	5392065238	5392224353	159115	1545.23	812.02	26	34	-1	15.47	15.47
Saccade L	1	7	5392224353	5392244222	19869	1543.74	824.49	1543.54	911.60	0.66	88.12	1.00	33.38	2147.59	-1784.19	1565.24
Saccade R	1	7	5392224353	5392244222	19869	1543.74	824.49	1543.54	911.60	0.66	88.12	1.00	33.38	2147.59	-1784.19	1565.24
Fixation L	1	8	5392244222	5392343722	99500	1520.14	951.64	39	59	-1	15.74	15.74
Fixation R	1	8	5392244222	5392343722	99500	1520.14	951.64	39	59	-1	15.59	15.59
Saccade L	1	8	5392343722	5392363593	19871	1503.80	970.67	1495.83	974.29	0.17	10.12	0.00	8.51	21.95	-153.86	84.01
Saccade R	1	8	5392343722	5392363593	19871	1503.80	970.67	1495.83	974.29	0.17	10.12	0.00	8.51	21.95	-153.86	84.01
Fixation L	1	9	5392363593	5392463083	99490	1493.87	970.21	19	8	-1	15.84	15.84
Fixation R	1	9	5392363593	5392463083	99490	1493.87	970.21	19	8	-1	15.73	15.73
Saccade L	1	9	5392463083	5392502843	39760	1479.63	973.20	856.91	1015.87	5.33	388.29	0.50	134.01	9552.18	-9427.60	7588.81
Saccade R	1	9	5392463083	5392502843	39760	1479.63	973.20	856.91	1015.87	5.33	388.29	0.50	134.01	9552.18	-9427.60	7588.81
Fixation L	1	10	5392502843	5392642099	139256	840.19	1033.73	29	27	-1	16.11	16.11
Fixation R	1	10	5392502843	5392642099	139256	840.19	1033.73	29	27	-1	16.37	16.37
Saccade L	1	10	5392642099	5392681828	39729	827.74	1043.23	515.11	888.09	3.06	244.46	1.00	77.10	6061.19	-5857.58	4529.41
Saccade R	1	10	5392642099	5392681828	39729	827.74	1043.23	515.11	888.09	3.06	244.46	1.00	77.10	6061.19	-5857.58	4529.41
Fixation L	1	11	5392681828	5392821073	139245	522.31	904.52	12	32	-1	15.44	15.44
Fixation R	1	11	5392681828	5392821073	139245	522.31	904.52	12	32	-1	15.91	15.91
Saccade L	1	11	5392821073	5392860836	39763	525.27	918.57	526.07	330.84	4.90	321.02	0.50	123.31	7990.30	-7623.31	7268.33
Saccade R	1	11	5392821073	5392860836	39763	525.27	918.57	526.07	330.84	4.90	321.02	0.50	123.31	7990.30	-7623.31	7268.33
Fixation L	1	12	5392860836	5393019953	159117	523.08	331.06	6	43	-1	14.22	14.22
Fixation R	1	12	5392860836	5393019953	159117	523.08	331.06	6	43	-1	14.80	14.80
Saccade L	1	12	5393019953	5393059804	39851	525.88	346.16	1024.10	267.89	4.46	259.09	0.50	111.85	6138.14	-5902.74	5923.46
Saccade R	1	12	5393019953	5393059804	39851	525.88	346.16	1024.10	267.89	4.46	259.09	0.50	111.85	6138.14	-5902.74	5923.46
Fixation L	1	13	5393059804	5393218927	159123	1064.00	248.50	54	27	-1	14.54	14.54
Fixation R	1	13	5393059804	5393218927	159123	1064.00	248.50	54	27	-1	15.54	15.54
Saccade L	1	13	5393218927	5393258675	39748	1078.36	240.04	1488.56	243.46	3.38	220.84	1.00	85.01	5502.47	-5406.25	5092.86
Saccade R	1	13	5393218927	5393258675	39748	1078.36	240.04	1488.56	243.46	3.38	220.84	1.00	85.01	5502.47	-5406.25	5092.86
Fixation L	1	14	5393258675	5393457544	198869	1481.82	285.17	16	71	-1	15.66	15.66
Fixation R	1	14	5393258675	5393457544	198869	1481.82	285.17	16	71	-1	16.36	16.36
Saccade L	1	14	5393457544	5393497410	39866	1472.61	313.88	1550.24	316.89	1.13	87.66	1.00	28.34	2076.67	-2088.23	1167.28
Saccade R	1	14	5393457544	5393497410	39866	1472.61	313.88	1550.24	316.89	1.13	87.66	1.00	28.34	2076.67	-2088.23	1167.28
Fixation L	1	15	5393497410	5393736028	238618	1565.36	323.33	30	17	-1	15.59	15.59
Fixation R	1	15	5393497410	5393736028	238618	1565.36	323.33	30	17	-1	16.19	16.19
