[BeGaze]
Converted from:	C:\Documents and Settings\iViewX\Desktop\EXPERIMENTATIONS\Experiments\results\finaleart\S22H22551-finaleart-1.idf
Date:	27.03.2019 15:58:07
Version:	BeGaze 2.5.77
Sample Rate:	50
Subject:	S22H22551
Description:	Mathieu Chambre

Table Header for Fixations:
Event Type	Trial	Number	Start	End	Duration	Location X	Location Y	Dispersion X	Dispersion Y	Plane	Avg. Pupil Size X	Avg. Pupil Size Y

Table Header for Saccades:
Event Type	Trial	Number	Start	End	Duration	Start Loc.X	Start Loc.Y	End Loc.X	End Loc.Y	Amplitude	Peak Speed	Peak Speed At	Average Speed	Peak Accel.	Peak Decel.	Average Accel.

Table Header for Blinks:
Event Type	Trial	Number	Start	End	Duration

Table Header for User Events:
Event Type	Trial	Number	Start	Description

UserEvent	1	1	5352995173	# Message: Nature_morte_au_panier_Derain_1927.jpg
Fixation L	1	1	5353001400	5353419130	417730	1000.15	380.54	28	38	-1	16.27	16.27
Fixation R	1	1	5353001400	5353419130	417730	1000.15	380.54	28	38	-1	16.84	16.84
Saccade L	1	1	5353419130	5353439002	19872	989.19	405.86	986.68	561.97	0.90	157.91	1.00	45.17	3876.86	-3891.11	2651.91
Saccade R	1	1	5353419130	5353439002	19872	989.19	405.86	986.68	561.97	0.90	157.91	1.00	45.17	3876.86	-3891.11	2651.91
Fixation L	1	2	5353439002	5353578233	139231	980.80	560.25	10	7	-1	15.78	15.78
Fixation R	1	2	5353439002	5353578233	139231	980.80	560.25	10	7	-1	16.19	16.19
Saccade L	1	2	5353578233	5353598117	19884	976.37	560.90	1120.49	610.82	0.82	154.25	1.00	41.11	3800.68	-3553.54	2499.18
Saccade R	1	2	5353578233	5353598117	19884	976.37	560.90	1120.49	610.82	0.82	154.25	1.00	41.11	3800.68	-3553.54	2499.18
Fixation L	1	3	5353598117	5354015835	417718	1128.12	633.31	33	37	-1	12.80	12.80
Fixation R	1	3	5353598117	5354015835	417718	1128.12	633.31	33	37	-1	13.39	13.39
Saccade L	1	3	5354015835	5354035719	19884	1146.27	647.60	1147.48	683.94	0.36	36.78	1.00	17.98	850.74	-474.93	696.79
Saccade R	1	3	5354015835	5354035719	19884	1146.27	647.60	1147.48	683.94	0.36	36.78	1.00	17.98	850.74	-474.93	696.79
Fixation L	1	4	5354035719	5354274451	238732	1151.58	717.65	12	48	-1	13.08	13.08
Fixation R	1	4	5354035719	5354274451	238732	1151.58	717.65	12	48	-1	13.61	13.61
Saccade L	1	4	5354274451	5354294328	19877	1159.60	717.08	1160.31	851.85	0.74	136.31	1.00	37.40	3297.15	-3260.53	2195.97
Saccade R	1	4	5354274451	5354294328	19877	1159.60	717.08	1160.31	851.85	0.74	136.31	1.00	37.40	3297.15	-3260.53	2195.97
Fixation L	1	5	5354294328	5354473319	178991	1162.79	860.95	3	12	-1	13.91	13.91
Fixation R	1	5	5354294328	5354473319	178991	1162.79	860.95	3	12	-1	14.78	14.78
Saccade L	1	5	5354473319	5354493190	19871	1162.96	861.05	1146.25	948.99	0.59	90.54	1.00	29.84	2247.31	-2193.23	1690.70
Saccade R	1	5	5354473319	5354493190	19871	1162.96	861.05	1146.25	948.99	0.59	90.54	1.00	29.84	2247.31	-2193.23	1690.70
Fixation L	1	6	5354493190	5354692056	198866	1119.35	982.86	41	52	-1	14.81	14.81
Fixation R	1	6	5354493190	5354692056	198866	1119.35	982.86	41	52	-1	15.34	15.34
Saccade L	1	6	5354692056	5354811421	119365	1104.43	998.83	1131.57	738.14	4.91	221.76	0.83	41.14	4659.47	-5237.34	1600.54
Saccade R	1	6	5354692056	5354811421	119365	1104.43	998.83	1131.57	738.14	4.91	221.76	0.83	41.14	4659.47	-5237.34	1600.54
Fixation L	1	7	5354811421	5355507515	696094	1145.42	721.74	52	43	-1	15.70	15.70
Fixation R	1	7	5354811421	5355507515	696094	1145.42	721.74	52	43	-1	15.99	15.99
Saccade L	1	7	5355507515	5355607005	99490	1150.11	694.87	1143.46	1019.55	4.99	247.70	0.80	50.15	6168.43	-5652.31	2303.98
Saccade R	1	7	5355507515	5355607005	99490	1150.11	694.87	1143.46	1019.55	4.99	247.70	0.80	50.15	6168.43	-5652.31	2303.98
Fixation L	1	8	5355607005	5355805898	198893	1106.78	1025.68	50	28	-1	15.78	15.78
Fixation R	1	8	5355607005	5355805898	198893	1106.78	1025.68	50	28	-1	16.08	16.08
Saccade L	1	8	5355805898	5355825869	19971	1093.23	1020.05	1093.27	876.64	1.00	145.05	1.00	50.19	3468.83	-3348.46	2614.48
Saccade R	1	8	5355805898	5355825869	19971	1093.23	1020.05	1093.27	876.64	1.00	145.05	1.00	50.19	3468.83	-3348.46	2614.48
Fixation L	1	9	5355825869	5356024740	198871	1104.55	836.18	19	51	-1	15.19	15.19
Fixation R	1	9	5355825869	5356024740	198871	1104.55	836.18	19	51	-1	15.67	15.67
Saccade L	1	9	5356024740	5356044610	19870	1112.85	826.51	1114.08	648.39	0.93	180.13	1.00	47.05	4453.05	-4464.02	2977.26
Saccade R	1	9	5356024740	5356044610	19870	1112.85	826.51	1114.08	648.39	0.93	180.13	1.00	47.05	4453.05	-4464.02	2977.26
Fixation L	1	10	5356044610	5356223604	178994	1117.43	642.88	7	13	-1	14.79	14.79
Fixation R	1	10	5356044610	5356223604	178994	1117.43	642.88	7	13	-1	15.10	15.10
Saccade L	1	10	5356223604	5356263349	39745	1121.47	640.77	802.25	768.78	3.23	257.71	1.00	81.29	6399.72	-5900.92	3976.74
Saccade R	1	10	5356223604	5356263349	39745	1121.47	640.77	802.25	768.78	3.23	257.71	1.00	81.29	6399.72	-5900.92	3976.74
Fixation L	1	11	5356263349	5356442336	178987	773.69	816.87	37	62	-1	15.28	15.28
Fixation R	1	11	5356263349	5356442336	178987	773.69	816.87	37	62	-1	15.83	15.83
Saccade L	1	11	5356442336	5356521965	79629	765.45	831.29	1096.28	711.49	4.47	344.53	1.00	56.13	8501.22	-7955.74	2835.59
Saccade R	1	11	5356442336	5356521965	79629	765.45	831.29	1096.28	711.49	4.47	344.53	1.00	56.13	8501.22	-7955.74	2835.59
Fixation L	1	12	5356521965	5356800447	278482	1127.15	675.40	43	48	-1	14.67	14.67
Fixation R	1	12	5356521965	5356800447	278482	1127.15	675.40	43	48	-1	15.20	15.20
Saccade L	1	12	5356800447	5356820331	19884	1139.63	668.00	1204.39	656.09	0.42	66.61	1.00	21.09	1620.25	-1190.51	956.23
Saccade R	1	12	5356800447	5356820331	19884	1139.63	668.00	1204.39	656.09	0.42	66.61	1.00	21.09	1620.25	-1190.51	956.23
Fixation L	1	13	5356820331	5356979440	159109	1211.11	635.39	18	30	-1	14.88	14.88
Fixation R	1	13	5356820331	5356979440	159109	1211.11	635.39	18	30	-1	15.55	15.55
