[BeGaze]
Converted from:	C:\Documents and Settings\iViewX\Desktop\EXPERIMENTATIONS\Experiments\results\finaleart\S22H22551-finaleart-1.idf
Date:	27.03.2019 15:57:48
Version:	BeGaze 2.5.77
Sample Rate:	50
Subject:	S22H22551
Description:	Mathieu Chambre

Table Header for Fixations:
Event Type	Trial	Number	Start	End	Duration	Location X	Location Y	Dispersion X	Dispersion Y	Plane	Avg. Pupil Size X	Avg. Pupil Size Y

Table Header for Saccades:
Event Type	Trial	Number	Start	End	Duration	Start Loc.X	Start Loc.Y	End Loc.X	End Loc.Y	Amplitude	Peak Speed	Peak Speed At	Average Speed	Peak Accel.	Peak Decel.	Average Accel.

Table Header for Blinks:
Event Type	Trial	Number	Start	End	Duration

Table Header for User Events:
Event Type	Trial	Number	Start	Description

UserEvent	1	1	5192716675	# Message: courbet-the-sleepers-1866.jpg
Fixation L	1	1	5192718775	5193136355	417580	983.86	420.05	49	26	-1	17.64	17.64
Fixation R	1	1	5192718775	5193136355	417580	983.86	420.05	49	26	-1	16.80	16.80
Saccade L	1	1	5193136355	5193176215	39860	974.40	404.55	566.76	402.36	3.44	207.45	1.00	86.38	5160.07	-4946.27	4970.80
Saccade R	1	1	5193136355	5193176215	39860	974.40	404.55	566.76	402.36	3.44	207.45	1.00	86.38	5160.07	-4946.27	4970.80
Fixation L	1	2	5193176215	5193335330	159115	565.63	397.22	75	9	-1	17.41	17.41
Fixation R	1	2	5193176215	5193335330	159115	565.63	397.22	75	9	-1	16.73	16.73
Saccade L	1	2	5193335330	5193355198	19868	506.84	392.70	375.37	368.83	1.21	135.14	1.00	60.79	3266.83	-3308.19	2456.11
Saccade R	1	2	5193335330	5193355198	19868	506.84	392.70	375.37	368.83	1.21	135.14	1.00	60.79	3266.83	-3308.19	2456.11
Fixation L	1	3	5193355198	5193573940	218742	402.70	375.84	53	45	-1	16.23	16.23
Fixation R	1	3	5193355198	5193573940	218742	402.70	375.84	53	45	-1	15.46	15.46
Saccade L	1	3	5193573940	5193593943	20003	396.80	340.79	395.61	334.68	0.33	31.47	1.00	16.63	239.58	-629.28	299.68
Saccade R	1	3	5193573940	5193593943	20003	396.80	340.79	395.61	334.68	0.33	31.47	1.00	16.63	239.58	-629.28	299.68
Fixation L	1	4	5193593943	5193753055	159112	388.91	358.65	11	34	-1	15.97	15.97
Fixation R	1	4	5193593943	5193753055	159112	388.91	358.65	11	34	-1	15.83	15.83
Saccade L	1	4	5193753055	5193772939	19884	390.55	361.21	509.60	371.05	0.73	120.82	1.00	36.75	2810.03	-2732.69	1875.21
Saccade R	1	4	5193753055	5193772939	19884	390.55	361.21	509.60	371.05	0.73	120.82	1.00	36.75	2810.03	-2732.69	1875.21
Fixation L	1	5	5193772939	5194051419	278480	497.36	376.97	20	20	-1	16.89	16.89
Fixation R	1	5	5193772939	5194051419	278480	497.36	376.97	20	20	-1	16.75	16.75
Saccade L	1	5	5194051419	5194071291	19872	510.76	390.30	807.49	454.23	1.68	306.77	1.00	84.49	7577.24	-7505.59	5141.91
Saccade R	1	5	5194051419	5194071291	19872	510.76	390.30	807.49	454.23	1.68	306.77	1.00	84.49	7577.24	-7505.59	5141.91
Fixation L	1	6	5194071291	5194230404	159113	788.45	435.42	40	58	-1	17.96	17.96
Fixation R	1	6	5194071291	5194230404	159113	788.45	435.42	40	58	-1	17.91	17.91
Saccade L	1	6	5194230404	5194290028	59624	767.31	407.61	967.44	554.59	3.88	264.50	1.00	65.04	5383.56	-6240.34	2907.13
Saccade R	1	6	5194230404	5194290028	59624	767.31	407.61	967.44	554.59	3.88	264.50	1.00	65.04	5383.56	-6240.34	2907.13
Fixation L	1	7	5194290028	5194508762	218734	971.54	563.82	12	28	-1	18.96	18.96
Fixation R	1	7	5194290028	5194508762	218734	971.54	563.82	12	28	-1	18.39	18.39
Saccade L	1	7	5194508762	5194528770	20008	976.57	574.18	1029.03	612.56	0.43	65.75	1.00	21.40	1600.87	-1518.05	1120.69
Saccade R	1	7	5194508762	5194528770	20008	976.57	574.18	1029.03	612.56	0.43	65.75	1.00	21.40	1600.87	-1518.05	1120.69
Fixation L	1	8	5194528770	5194628139	99369	1018.21	629.81	69	29	-1	19.20	19.20
Fixation R	1	8	5194528770	5194628139	99369	1018.21	629.81	69	29	-1	18.25	18.25
Saccade L	1	8	5194628139	5194687884	59745	964.01	641.58	979.65	587.42	3.91	226.97	1.00	65.51	13883.18	-1136.97	4385.62
Saccade R	1	8	5194628139	5194687884	59745	964.01	641.58	979.65	587.42	3.91	226.97	1.00	65.51	13883.18	-1136.97	4385.62
Blink L	1	1	5194687884	5194926492	238608
Blink R	1	1	5194687884	5194926492	238608
Saccade L	1	9	5194926492	5195006120	79628	1604.86	270.41	1581.93	314.03	2.98	78.66	1.00	37.45	1534.15	-1849.51	696.02
Saccade R	1	9	5194926492	5195006120	79628	1604.86	270.41	1581.93	314.03	2.98	78.66	1.00	37.45	1534.15	-1849.51	696.02
Fixation L	1	9	5195006120	5195145355	139235	1585.19	308.93	13	17	-1	18.30	18.30
Fixation R	1	9	5195006120	5195145355	139235	1585.19	308.93	13	17	-1	17.92	17.92
Saccade L	1	10	5195145355	5195165235	19880	1579.78	318.37	1579.65	396.05	0.54	78.58	1.00	27.05	1784.72	-409.04	817.88
Saccade R	1	10	5195145355	5195165235	19880	1579.78	318.37	1579.65	396.05	0.54	78.58	1.00	27.05	1784.72	-409.04	817.88
Fixation L	1	10	5195165235	5195304477	139242	1576.60	392.36	11	61	-1	18.55	18.55
Fixation R	1	10	5195165235	5195304477	139242	1576.60	392.36	11	61	-1	18.07	18.07
Saccade L	1	11	5195304477	5195344223	39746	1570.46	398.80	1564.86	767.39	3.24	208.10	0.50	81.56	5044.21	-4516.70	4421.50
Saccade R	1	11	5195304477	5195344223	39746	1570.46	398.80	1564.86	767.39	3.24	208.10	0.50	81.56	5044.21	-4516.70	4421.50
Fixation L	1	11	5195344223	5195523214	178991	1573.43	725.29	21	63	-1	19.38	19.38
Fixation R	1	11	5195344223	5195523214	178991	1573.43	725.29	21	63	-1	18.74	18.74
Saccade L	1	12	5195523214	5195543106	19892	1585.97	705.20	1617.25	743.97	0.38	50.39	1.00	19.12	1036.40	-1064.64	714.01
Saccade R	1	12	5195523214	5195543106	19892	1585.97	705.20	1617.25	743.97	0.38	50.39	1.00	19.12	1036.40	-1064.64	714.01
Fixation L	1	12	5195543106	5195702222	159116	1637.32	734.90	46	28	-1	18.91	18.91
Fixation R	1	12	5195543106	5195702222	159116	1637.32	734.90	46	28	-1	17.96	17.96
Saccade L	1	13	5195702222	5195722083	19861	1656.31	738.18	1568.09	740.51	0.55	89.27	1.00	27.87	2093.58	-1935.64	1347.91
Saccade R	1	13	5195702222	5195722083	19861	1656.31	738.18	1568.09	740.51	0.55	89.27	1.00	27.87	2093.58	-1935.64	1347.91
Fixation L	1	13	5195722083	5195881197	159114	1571.60	738.47	18	6	-1	18.40	18.40
Fixation R	1	13	5195722083	5195881197	159114	1571.60	738.47	18	6	-1	17.15	17.15
Saccade L	1	14	5195881197	5195960815	79618	1571.25	739.05	739.60	993.30	10.73	279.47	0.75	134.72	5956.95	-6652.15	4251.51
Saccade R	1	14	5195881197	5195960815	79618	1571.25	739.05	739.60	993.30	10.73	279.47	0.75	134.72	5956.95	-6652.15	4251.51
Fixation L	1	14	5195960815	5196119933	159118	752.20	996.00	18	8	-1	18.18	18.18
Fixation R	1	14	5195960815	5196119933	159118	752.20	996.00	18	8	-1	17.65	17.65
Saccade L	1	15	5196119933	5196139810	19877	742.02	995.17	466.24	988.01	1.59	278.86	1.00	79.89	6846.40	-6679.30	4536.35
Saccade R	1	15	5196119933	5196139810	19877	742.02	995.17	466.24	988.01	1.59	278.86	1.00	79.89	6846.40	-6679.30	4536.35
Fixation L	1	15	5196139810	5196338669	198859	452.10	976.91	56	23	-1	17.07	17.07
Fixation R	1	15	5196139810	5196338669	198859	452.10	976.91	56	23	-1	17.35	17.35
Saccade L	1	16	5196338669	5196358552	19883	409.69	964.92	262.66	843.71	1.31	192.70	1.00	66.06	4802.97	-4102.94	3294.68
Saccade R	1	16	5196338669	5196358552	19883	409.69	964.92	262.66	843.71	1.31	192.70	1.00	66.06	4802.97	-4102.94	3294.68
Fixation L	1	16	5196358552	5196577409	218857	292.30	885.17	43	55	-1	16.42	16.42
Fixation R	1	16	5196358552	5196577409	218857	292.30	885.17	43	55	-1	16.63	16.63
Saccade L	1	17	5196577409	5196597277	19868	306.57	898.74	232.14	903.97	0.59	75.48	1.00	29.80	1822.34	-1526.71	1401.48
Saccade R	1	17	5196577409	5196597277	19868	306.57	898.74	232.14	903.97	0.59	75.48	1.00	29.80	1822.34	-1526.71	1401.48
Fixation L	1	17	5196597277	5196716653	119376	226.06	942.47	28	57	-1	16.95	16.95
Fixation R	1	17	5196597277	5196716653	119376	226.06	942.47	28	57	-1	17.89	17.89
