[BeGaze]
Converted from:	C:\Documents and Settings\iViewX\Desktop\EXPERIMENTATIONS\Experiments\results\finaleart\S22H22551-finaleart-1.idf
Date:	27.03.2019 15:56:56
Version:	BeGaze 2.5.77
Sample Rate:	50
Subject:	S22H22551
Description:	Mathieu Chambre

Table Header for Fixations:
Event Type	Trial	Number	Start	End	Duration	Location X	Location Y	Dispersion X	Dispersion Y	Plane	Avg. Pupil Size X	Avg. Pupil Size Y

Table Header for Saccades:
Event Type	Trial	Number	Start	End	Duration	Start Loc.X	Start Loc.Y	End Loc.X	End Loc.Y	Amplitude	Peak Speed	Peak Speed At	Average Speed	Peak Accel.	Peak Decel.	Average Accel.

Table Header for Blinks:
Event Type	Trial	Number	Start	End	Duration

Table Header for User Events:
Event Type	Trial	Number	Start	Description

UserEvent	1	1	4768843170	# Message: lying-nude_ury_1889.jpg
Fixation L	1	1	4768845568	4769104174	258606	1029.03	420.50	80	19	-1	19.40	19.40
Fixation R	1	1	4768845568	4769104174	258606	1029.03	420.50	80	19	-1	20.34	20.34
Saccade L	1	1	4769104174	4769124038	19864	1019.95	433.57	951.15	433.25	0.43	69.59	1.00	21.52	1710.31	-1584.88	1144.85
Saccade R	1	1	4769104174	4769124038	19864	1019.95	433.57	951.15	433.25	0.43	69.59	1.00	21.52	1710.31	-1584.88	1144.85
Fixation L	1	2	4769124038	4769243415	119377	948.10	437.64	7	11	-1	19.38	19.38
Fixation R	1	2	4769124038	4769243415	119377	948.10	437.64	7	11	-1	20.28	20.28
Saccade L	1	2	4769243415	4769303060	59645	947.98	444.28	428.71	614.55	5.84	317.70	0.67	97.87	7852.78	-7464.85	4391.18
Saccade R	1	2	4769243415	4769303060	59645	947.98	444.28	428.71	614.55	5.84	317.70	0.67	97.87	7852.78	-7464.85	4391.18
Fixation L	1	3	4769303060	4769482150	179090	445.95	630.76	27	26	-1	19.42	19.42
Fixation R	1	3	4769303060	4769482150	179090	445.95	630.76	27	26	-1	20.56	20.56
Saccade L	1	3	4769482150	4769502024	19874	444.64	641.16	427.18	727.44	0.69	89.05	1.00	34.66	1958.52	-1543.24	1280.92
Saccade R	1	3	4769482150	4769502024	19874	444.64	641.16	427.18	727.44	0.69	89.05	1.00	34.66	1958.52	-1543.24	1280.92
Fixation L	1	4	4769502024	4769740631	238607	393.29	729.47	58	34	-1	18.20	18.20
Fixation R	1	4	4769502024	4769740631	238607	393.29	729.47	58	34	-1	19.67	19.67
Saccade L	1	4	4769740631	4769760526	19895	371.44	734.05	361.69	733.85	0.17	17.55	1.00	8.76	3.59	-222.90	139.46
Saccade R	1	4	4769740631	4769760526	19895	371.44	734.05	361.69	733.85	0.17	17.55	1.00	8.76	3.59	-222.90	139.46
Fixation L	1	5	4769760526	4769899754	139228	358.98	734.73	46	2	-1	17.41	17.41
Fixation R	1	5	4769760526	4769899754	139228	358.98	734.73	46	2	-1	19.41	19.41
Saccade L	1	5	4769899754	4769919634	19880	391.54	736.30	447.50	735.69	0.60	56.61	1.00	30.04	1328.26	-1008.74	1012.56
Saccade R	1	5	4769899754	4769919634	19880	391.54	736.30	447.50	735.69	0.60	56.61	1.00	30.04	1328.26	-1008.74	1012.56
Fixation L	1	6	4769919634	4770118621	198987	476.89	734.98	41	13	-1	17.76	17.76
Fixation R	1	6	4769919634	4770118621	198987	476.89	734.98	41	13	-1	19.98	19.98
Saccade L	1	6	4770118621	4770158366	39745	468.42	724.95	936.71	712.52	3.99	248.42	0.50	100.31	6102.18	-5958.41	5670.14
Saccade R	1	6	4770118621	4770158366	39745	468.42	724.95	936.71	712.52	3.99	248.42	0.50	100.31	6102.18	-5958.41	5670.14
Fixation L	1	7	4770158366	4770257861	99495	927.49	696.67	27	43	-1	18.43	18.43
Fixation R	1	7	4770158366	4770257861	99495	927.49	696.67	27	43	-1	19.97	19.97
Saccade L	1	7	4770257861	4770396974	139113	909.34	669.38	1218.12	639.30	6.52	253.25	1.00	46.83	6113.69	-5833.95	1737.91
Saccade R	1	7	4770257861	4770396974	139113	909.34	669.38	1218.12	639.30	6.52	253.25	1.00	46.83	6113.69	-5833.95	1737.91
Fixation L	1	8	4770396974	4770576095	179121	1267.95	656.49	59	29	-1	18.52	18.52
Fixation R	1	8	4770396974	4770576095	179121	1267.95	656.49	59	29	-1	19.66	19.66
Saccade L	1	8	4770576095	4770615845	39750	1276.13	669.08	1533.60	683.18	2.16	171.39	0.50	54.35	4232.42	-4097.62	3116.38
Saccade R	1	8	4770576095	4770615845	39750	1276.13	669.08	1533.60	683.18	2.16	171.39	0.50	54.35	4232.42	-4097.62	3116.38
Fixation L	1	9	4770615845	4770854453	238608	1515.27	709.45	28	47	-1	18.50	18.50
Fixation R	1	9	4770615845	4770854453	238608	1515.27	709.45	28	47	-1	18.77	18.77
Saccade L	1	9	4770854453	4770874447	19994	1504.83	730.73	1584.09	750.73	0.68	82.69	1.00	33.88	2029.50	-1756.39	1613.16
Saccade R	1	9	4770854453	4770874447	19994	1504.83	730.73	1584.09	750.73	0.68	82.69	1.00	33.88	2029.50	-1756.39	1613.16
Fixation L	1	10	4770874447	4770993700	119253	1624.25	761.76	55	38	-1	18.86	18.86
Fixation R	1	10	4770874447	4770993700	119253	1624.25	761.76	55	38	-1	18.02	18.02
Saccade L	1	10	4770993700	4771073315	79615	1631.48	778.23	1624.39	227.79	7.12	339.45	0.75	89.44	8258.33	-7355.90	3637.30
Saccade R	1	10	4770993700	4771073315	79615	1631.48	778.23	1624.39	227.79	7.12	339.45	0.75	89.44	8258.33	-7355.90	3637.30
Fixation L	1	11	4771073315	4771172690	99375	1614.41	280.28	18	74	-1	17.36	17.36
Fixation R	1	11	4771073315	4771172690	99375	1614.41	280.28	18	74	-1	17.35	17.35
Saccade L	1	11	4771172690	4771252307	79617	1607.45	301.98	985.50	325.91	7.37	371.81	0.75	92.63	9111.18	-9197.07	4947.55
Saccade R	1	11	4771172690	4771252307	79617	1607.45	301.98	985.50	325.91	7.37	371.81	0.75	92.63	9111.18	-9197.07	4947.55
Fixation L	1	12	4771252307	4771411422	159115	970.96	311.09	23	40	-1	17.94	17.94
Fixation R	1	12	4771252307	4771411422	159115	970.96	311.09	23	40	-1	17.57	17.57
Saccade L	1	12	4771411422	4771451172	39750	967.08	285.06	662.18	280.49	2.69	232.80	0.50	67.75	5322.83	-5688.70	3635.53
Saccade R	1	12	4771411422	4771451172	39750	967.08	285.06	662.18	280.49	2.69	232.80	0.50	67.75	5322.83	-5688.70	3635.53
Fixation L	1	13	4771451172	4771709786	258614	659.47	292.42	7	24	-1	18.36	18.36
Fixation R	1	13	4771451172	4771709786	258614	659.47	292.42	7	24	-1	18.58	18.58
Saccade L	1	13	4771709786	4771749536	39750	660.20	305.03	352.78	770.17	4.72	359.97	0.50	118.62	8992.28	-8722.38	6993.37
Saccade R	1	13	4771709786	4771749536	39750	660.20	305.03	352.78	770.17	4.72	359.97	0.50	118.62	8992.28	-8722.38	6993.37
Fixation L	1	14	4771749536	4772008147	258611	346.89	789.56	24	31	-1	19.10	19.10
Fixation R	1	14	4771749536	4772008147	258611	346.89	789.56	24	31	-1	20.26	20.26
Blink L	1	1	4772008147	4772366121	357974
Blink R	1	1	4772008147	4772366121	357974
Blink L	1	2	4772386000	4772604857	218857
Blink R	1	2	4772386000	4772604857	218857
Fixation L	1	15	4772604857	4772843475	238618	999.65	590.87	11	6	-1	21.27	21.27
Fixation R	1	15	4772604857	4772843475	238618	999.65	590.87	11	6	-1	20.71	20.71
