[BeGaze]
Converted from:	C:\Documents and Settings\iViewX\Desktop\EXPERIMENTATIONS\Experiments\results\finaleart\S22H22551-finaleart-1.idf
Date:	27.03.2019 15:57:06
Version:	BeGaze 2.5.77
Sample Rate:	50
Subject:	S22H22551
Description:	Mathieu Chambre

Table Header for Fixations:
Event Type	Trial	Number	Start	End	Duration	Location X	Location Y	Dispersion X	Dispersion Y	Plane	Avg. Pupil Size X	Avg. Pupil Size Y

Table Header for Saccades:
Event Type	Trial	Number	Start	End	Duration	Start Loc.X	Start Loc.Y	End Loc.X	End Loc.Y	Amplitude	Peak Speed	Peak Speed At	Average Speed	Peak Accel.	Peak Decel.	Average Accel.

Table Header for Blinks:
Event Type	Trial	Number	Start	End	Duration

Table Header for User Events:
Event Type	Trial	Number	Start	Description

UserEvent	1	1	4834096662	# Message: void.jpg
Saccade L	1	1	4834104538	4834144281	39743	410.88	453.78	915.87	450.29	5.13	301.82	0.50	128.99	5217.52	-7409.45	4429.13
Saccade R	1	1	4834104538	4834144281	39743	410.88	453.78	915.87	450.29	5.13	301.82	0.50	128.99	5217.52	-7409.45	4429.13
Fixation L	1	1	4834144281	4834343274	198993	911.48	440.74	5	22	-1	17.32	17.32
Fixation R	1	1	4834144281	4834343274	198993	911.48	440.74	5	22	-1	18.06	18.06
Saccade L	1	2	4834343274	4834383021	39747	910.50	429.34	1348.39	418.88	3.96	287.09	1.00	99.69	7124.00	-6876.15	5112.34
Saccade R	1	2	4834343274	4834383021	39747	910.50	429.34	1348.39	418.88	3.96	287.09	1.00	99.69	7124.00	-6876.15	5112.34
Fixation L	1	2	4834383021	4834502394	119373	1376.29	410.30	43	22	-1	17.23	17.23
Fixation R	1	2	4834383021	4834502394	119373	1376.29	410.30	43	22	-1	17.66	17.66
Blink L	1	1	4834502394	4834760874	258480
Blink R	1	1	4834502394	4834760874	258480
Fixation L	1	3	4834760874	4834900114	139240	1087.30	386.02	24	54	-1	18.27	18.27
Fixation R	1	3	4834760874	4834900114	139240	1087.30	386.02	24	54	-1	18.19	18.19
Blink L	1	2	4834900114	4835098985	198871
Blink R	1	2	4834900114	4835098985	198871
Fixation L	1	4	4835098985	4836093576	994591	1086.86	439.10	26	52	-1	17.80	17.80
Fixation R	1	4	4835098985	4836093576	994591	1086.86	439.10	26	52	-1	18.26	18.26
