[BeGaze]
Converted from:	C:\Documents and Settings\iViewX\Desktop\EXPERIMENTATIONS\Experiments\results\finaleart\S22H22551-finaleart-1.idf
Date:	27.03.2019 15:56:41
Version:	BeGaze 2.5.77
Sample Rate:	50
Subject:	S22H22551
Description:	Mathieu Chambre

Table Header for Fixations:
Event Type	Trial	Number	Start	End	Duration	Location X	Location Y	Dispersion X	Dispersion Y	Plane	Avg. Pupil Size X	Avg. Pupil Size Y

Table Header for Saccades:
Event Type	Trial	Number	Start	End	Duration	Start Loc.X	Start Loc.Y	End Loc.X	End Loc.Y	Amplitude	Peak Speed	Peak Speed At	Average Speed	Peak Accel.	Peak Decel.	Average Accel.

Table Header for Blinks:
Event Type	Trial	Number	Start	End	Duration

Table Header for User Events:
Event Type	Trial	Number	Start	Description

UserEvent	1	1	4640873428	# Message: REJECTED_rose_in_a_bowl_fantin_latour_1883.jpg
Saccade L	1	1	4640873728	4640913481	39753	993.42	405.94	916.04	565.26	1.96	174.73	1.00	49.40	4368.21	-3981.72	2172.62
Saccade R	1	1	4640873728	4640913481	39753	993.42	405.94	916.04	565.26	1.96	174.73	1.00	49.40	4368.21	-3981.72	2172.62
Fixation L	1	1	4640913481	4641430708	517227	925.60	559.14	44	48	-1	21.20	21.20
Fixation R	1	1	4640913481	4641430708	517227	925.60	559.14	44	48	-1	21.17	21.17
Saccade L	1	2	4641430708	4641450576	19868	951.22	531.45	813.42	561.92	0.93	142.74	1.00	46.65	3535.78	-2740.56	2419.45
Saccade R	1	2	4641430708	4641450576	19868	951.22	531.45	813.42	561.92	0.93	142.74	1.00	46.65	3535.78	-2740.56	2419.45
Fixation L	1	2	4641450576	4641669308	218732	820.77	558.77	34	25	-1	21.41	21.41
Fixation R	1	2	4641450576	4641669308	218732	820.77	558.77	34	25	-1	21.25	21.25
Saccade L	1	3	4641669308	4641709060	39752	817.38	563.38	814.62	541.88	1.39	89.28	0.50	34.86	2101.82	-2017.93	1773.50
Saccade R	1	3	4641669308	4641709060	39752	817.38	563.38	814.62	541.88	1.39	89.28	0.50	34.86	2101.82	-2017.93	1773.50
Fixation L	1	3	4641709060	4641848301	139241	817.07	589.86	6	90	-1	21.91	21.91
Fixation R	1	3	4641709060	4641848301	139241	817.07	589.86	6	90	-1	22.03	22.03
Saccade L	1	4	4641848301	4641868170	19869	820.48	629.23	822.01	633.56	0.08	4.78	1.00	4.05	47.58	-44.01	31.62
Saccade R	1	4	4641848301	4641868170	19869	820.48	629.23	822.01	633.56	0.08	4.78	1.00	4.05	47.58	-44.01	31.62
Fixation L	1	4	4641868170	4642027297	159127	828.60	646.02	10	26	-1	21.96	21.96
Fixation R	1	4	4641868170	4642027297	159127	828.60	646.02	10	26	-1	22.50	22.50
Saccade L	1	5	4642027297	4642047286	19989	832.01	659.62	971.34	664.23	0.96	141.00	1.00	48.17	3446.38	-3295.45	2577.14
Saccade R	1	5	4642027297	4642047286	19989	832.01	659.62	971.34	664.23	0.96	141.00	1.00	48.17	3446.38	-3295.45	2577.14
Fixation L	1	5	4642047286	4642266031	218745	1025.84	669.62	68	9	-1	22.15	22.15
Fixation R	1	5	4642047286	4642266031	218745	1025.84	669.62	68	9	-1	22.48	22.48
Saccade L	1	6	4642266031	4642305779	39748	1039.76	672.05	1404.26	666.83	3.01	244.91	0.50	75.77	6105.56	-5990.18	4538.12
Saccade R	1	6	4642266031	4642305779	39748	1039.76	672.05	1404.26	666.83	3.01	244.91	0.50	75.77	6105.56	-5990.18	4538.12
Fixation L	1	6	4642305779	4642524639	218860	1406.00	665.64	93	4	-1	22.58	22.58
Fixation R	1	6	4642305779	4642524639	218860	1406.00	665.64	93	4	-1	22.76	22.76
Saccade L	1	7	4642524639	4642604148	79509	1484.29	663.88	1488.99	673.05	1.79	46.66	1.00	22.53	40422.19	-973.83	7154.64
Saccade R	1	7	4642524639	4642604148	79509	1484.29	663.88	1488.99	673.05	1.79	46.66	1.00	22.53	40422.19	-973.83	7154.64
Blink L	1	1	4642604148	4642763245	159097
Blink R	1	1	4642604148	4642763245	159097
Fixation L	1	7	4642763245	4642882622	119377	1357.96	382.60	10	6	-1	22.25	22.25
Fixation R	1	7	4642763245	4642882622	119377	1357.96	382.60	10	6	-1	22.34	22.34
Saccade L	1	8	4642882622	4642922384	39762	1351.71	379.43	975.44	469.99	3.26	317.23	0.50	81.88	7905.81	-7787.47	4772.76
Saccade R	1	8	4642882622	4642922384	39762	1351.71	379.43	975.44	469.99	3.26	317.23	0.50	81.88	7905.81	-7787.47	4772.76
Fixation L	1	8	4642922384	4643200882	278498	969.17	480.10	9	17	-1	22.46	22.46
Fixation R	1	8	4642922384	4643200882	278498	969.17	480.10	9	17	-1	22.40	22.40
Saccade L	1	9	4643200882	4643240598	39716	970.52	474.88	891.37	606.99	2.57	205.98	0.50	64.66	5061.27	-4425.50	3394.85
Saccade R	1	9	4643200882	4643240598	39716	970.52	474.88	891.37	606.99	2.57	205.98	0.50	64.66	5061.27	-4425.50	3394.85
Fixation L	1	9	4643240598	4643499227	258629	861.89	617.24	51	19	-1	22.63	22.63
Fixation R	1	9	4643240598	4643499227	258629	861.89	617.24	51	19	-1	22.88	22.88
Saccade L	1	10	4643499227	4643519093	19866	840.11	626.65	792.36	668.94	0.52	64.52	1.00	26.08	1565.40	-1236.74	938.29
Saccade R	1	10	4643499227	4643519093	19866	840.11	626.65	792.36	668.94	0.52	64.52	1.00	26.08	1565.40	-1236.74	938.29
Fixation L	1	10	4643519093	4643817449	298356	777.91	668.91	19	34	-1	22.30	22.30
Fixation R	1	10	4643519093	4643817449	298356	777.91	668.91	19	34	-1	22.79	22.79
Blink L	1	2	4643817449	4643976561	159112
Blink R	1	2	4643817449	4643976561	159112
Fixation L	1	11	4643976561	4644135681	159120	787.50	680.54	27	16	-1	21.51	21.51
Fixation R	1	11	4643976561	4644135681	159120	787.50	680.54	27	16	-1	22.59	22.59
Saccade L	1	11	4644135681	4644155550	19869	800.82	674.08	1030.56	587.67	1.34	248.15	1.00	67.33	6137.76	-6101.43	4147.56
Saccade R	1	11	4644135681	4644155550	19869	800.82	674.08	1030.56	587.67	1.34	248.15	1.00	67.33	6137.76	-6101.43	4147.56
Fixation L	1	12	4644155550	4644473789	318239	1043.50	575.89	77	21	-1	21.02	21.02
Fixation R	1	12	4644155550	4644473789	318239	1043.50	575.89	77	21	-1	21.61	21.61
Saccade L	1	12	4644473789	4644493664	19875	1107.83	575.62	1191.79	577.18	0.83	84.94	1.00	41.79	1954.93	-2073.76	1817.02
Saccade R	1	12	4644473789	4644493664	19875	1107.83	575.62	1191.79	577.18	0.83	84.94	1.00	41.79	1954.93	-2073.76	1817.02
Fixation L	1	13	4644493664	4644772140	278476	1206.62	578.18	81	8	-1	21.03	21.03
Fixation R	1	13	4644493664	4644772140	278476	1206.62	578.18	81	8	-1	21.20	21.20
Saccade L	1	13	4644772140	4644871653	99513	1273.27	580.02	1463.98	673.25	4.48	217.10	0.20	45.04	5387.97	-5333.79	2104.50
Saccade R	1	13	4644772140	4644871653	99513	1273.27	580.02	1463.98	673.25	4.48	217.10	0.20	45.04	5387.97	-5333.79	2104.50
