[BeGaze]
Converted from:	C:\Documents and Settings\iViewX\Desktop\EXPERIMENTATIONS\Experiments\results\finaleart\S22H22551-finaleart-1.idf
Date:	27.03.2019 15:56:57
Version:	BeGaze 2.5.77
Sample Rate:	50
Subject:	S22H22551
Description:	Mathieu Chambre

Table Header for Fixations:
Event Type	Trial	Number	Start	End	Duration	Location X	Location Y	Dispersion X	Dispersion Y	Plane	Avg. Pupil Size X	Avg. Pupil Size Y

Table Header for Saccades:
Event Type	Trial	Number	Start	End	Duration	Start Loc.X	Start Loc.Y	End Loc.X	End Loc.Y	Amplitude	Peak Speed	Peak Speed At	Average Speed	Peak Accel.	Peak Decel.	Average Accel.

Table Header for Blinks:
Event Type	Trial	Number	Start	End	Duration

Table Header for User Events:
Event Type	Trial	Number	Start	Description

UserEvent	1	1	4774962245	# Message: dead_hare_ward.jpg
Fixation L	1	1	4774971738	4775488867	517129	954.66	481.73	59	10	-1	20.66	20.66
Fixation R	1	1	4774971738	4775488867	517129	954.66	481.73	59	10	-1	19.95	19.95
Saccade L	1	1	4775488867	4775508715	19848	973.76	488.96	1088.53	545.38	0.90	129.35	1.00	45.30	3165.73	-3075.65	2137.17
Saccade R	1	1	4775488867	4775508715	19848	973.76	488.96	1088.53	545.38	0.90	129.35	1.00	45.30	3165.73	-3075.65	2137.17
Fixation L	1	2	4775508715	4775687831	179116	1079.95	548.35	13	30	-1	21.06	21.06
Fixation R	1	2	4775508715	4775687831	179116	1079.95	548.35	13	30	-1	20.54	20.54
Saccade L	1	2	4775687831	4775707700	19869	1081.78	559.57	962.77	653.48	1.12	153.32	1.00	56.17	3761.80	-3625.09	2945.07
Saccade R	1	2	4775687831	4775707700	19869	1081.78	559.57	962.77	653.48	1.12	153.32	1.00	56.17	3761.80	-3625.09	2945.07
Fixation L	1	3	4775707700	4775827066	119366	921.53	690.36	51	46	-1	21.61	21.61
Fixation R	1	3	4775707700	4775827066	119366	921.53	690.36	51	46	-1	20.87	20.87
Saccade L	1	3	4775827066	4775946314	119248	912.03	695.92	720.71	810.13	4.00	223.54	1.00	33.56	5527.85	-5362.86	1572.91
Saccade R	1	3	4775827066	4775946314	119248	912.03	695.92	720.71	810.13	4.00	223.54	1.00	33.56	5527.85	-5362.86	1572.91
Fixation L	1	4	4775946314	4776125318	179004	672.94	832.61	63	35	-1	21.61	21.61
Fixation R	1	4	4775946314	4776125318	179004	672.94	832.61	63	35	-1	21.07	21.07
Saccade L	1	4	4776125318	4776145305	19987	671.78	845.57	556.07	934.55	0.97	147.63	1.00	48.31	3577.02	-3114.17	2447.64
Saccade R	1	4	4776125318	4776145305	19987	671.78	845.57	556.07	934.55	0.97	147.63	1.00	48.31	3577.02	-3114.17	2447.64
Fixation L	1	5	4776145305	4776284421	139116	563.08	922.48	12	33	-1	21.07	21.07
Fixation R	1	5	4776145305	4776284421	139116	563.08	922.48	12	33	-1	20.72	20.72
Saccade L	1	5	4776284421	4776344169	59748	568.96	927.71	1041.49	506.07	6.59	378.13	0.67	110.32	9376.11	-9229.84	5292.81
Saccade R	1	5	4776284421	4776344169	59748	568.96	927.71	1041.49	506.07	6.59	378.13	0.67	110.32	9376.11	-9229.84	5292.81
Fixation L	1	6	4776344169	4776523161	178992	1047.46	508.97	9	17	-1	20.09	20.09
Fixation R	1	6	4776344169	4776523161	178992	1047.46	508.97	9	17	-1	19.43	19.43
Saccade L	1	6	4776523161	4776543034	19873	1050.63	518.25	1195.95	387.08	1.21	197.97	1.00	61.05	4847.64	-4334.98	3351.20
Saccade R	1	6	4776523161	4776543034	19873	1050.63	518.25	1195.95	387.08	1.21	197.97	1.00	61.05	4847.64	-4334.98	3351.20
Fixation L	1	7	4776543034	4776722027	178993	1220.88	354.59	33	53	-1	19.42	19.42
Fixation R	1	7	4776543034	4776722027	178993	1220.88	354.59	33	53	-1	19.04	19.04
Saccade L	1	7	4776722027	4776761891	39864	1229.95	345.83	1265.39	265.13	2.37	165.04	0.50	59.46	3961.08	-3196.64	2638.22
Saccade R	1	7	4776722027	4776761891	39864	1229.95	345.83	1265.39	265.13	2.37	165.04	0.50	59.46	3961.08	-3196.64	2638.22
Fixation L	1	8	4776761891	4777179500	417609	1283.86	232.86	23	62	-1	20.06	20.06
Fixation R	1	8	4776761891	4777179500	417609	1283.86	232.86	23	62	-1	19.10	19.10
Blink L	1	1	4777179500	4777358490	178990
Blink R	1	1	4777179500	4777358490	178990
Fixation L	1	9	4777358490	4777537606	179116	1070.64	519.78	6	15	-1	20.45	20.45
Fixation R	1	9	4777358490	4777537606	179116	1070.64	519.78	6	15	-1	20.17	20.17
Saccade L	1	8	4777537606	4777577356	39750	1071.91	523.65	977.20	671.63	1.78	112.16	0.50	44.71	2742.06	-2292.53	2254.22
Saccade R	1	8	4777537606	4777577356	39750	1071.91	523.65	977.20	671.63	1.78	112.16	0.50	44.71	2742.06	-2292.53	2254.22
Fixation L	1	10	4777577356	4777895589	318233	984.59	689.62	39	43	-1	21.09	21.09
Fixation R	1	10	4777577356	4777895589	318233	984.59	689.62	39	43	-1	21.01	21.01
Saccade L	1	9	4777895589	4777915469	19880	955.30	661.17	944.88	654.88	0.38	37.49	1.00	19.26	475.82	-629.28	482.56
Saccade R	1	9	4777895589	4777915469	19880	955.30	661.17	944.88	654.88	0.38	37.49	1.00	19.26	475.82	-629.28	482.56
Fixation L	1	11	4777915469	4778054702	139233	969.43	628.90	48	51	-1	20.87	20.87
Fixation R	1	11	4777915469	4778054702	139233	969.43	628.90	48	51	-1	20.63	20.63
Saccade L	1	10	4778054702	4778074579	19877	982.81	637.34	1000.08	691.87	0.77	57.86	1.00	38.97	448.18	-1214.14	794.04
Saccade R	1	10	4778054702	4778074579	19877	982.81	637.34	1000.08	691.87	0.77	57.86	1.00	38.97	448.18	-1214.14	794.04
Fixation L	1	12	4778074579	4778353064	278485	1015.02	698.12	25	27	-1	20.52	20.52
Fixation R	1	12	4778074579	4778353064	278485	1015.02	698.12	25	27	-1	20.30	20.30
Saccade L	1	11	4778353064	4778372934	19870	1014.26	707.14	811.75	721.63	1.30	205.31	1.00	65.48	5091.23	-4954.58	3602.49
Saccade R	1	11	4778353064	4778372934	19870	1014.26	707.14	811.75	721.63	1.30	205.31	1.00	65.48	5091.23	-4954.58	3602.49
Fixation L	1	13	4778372934	4778631549	258615	770.28	738.36	48	51	-1	20.67	20.67
Fixation R	1	13	4778372934	4778631549	258615	770.28	738.36	48	51	-1	20.86	20.86
Saccade L	1	12	4778631549	4778730921	99372	769.72	763.00	621.25	787.10	2.59	153.57	1.00	26.05	3801.46	-3568.97	1206.79
Saccade R	1	12	4778631549	4778730921	99372	769.72	763.00	621.25	787.10	2.59	153.57	1.00	26.05	3801.46	-3568.97	1206.79
Fixation L	1	14	4778730921	4778949787	218866	590.73	824.03	36	48	-1	19.14	19.14
Fixation R	1	14	4778730921	4778949787	218866	590.73	824.03	36	48	-1	20.42	20.42
