[BeGaze]
Converted from:	C:\Documents and Settings\iViewX\Desktop\EXPERIMENTATIONS\Experiments\results\finaleart\S22H22551-finaleart-1.idf
Date:	27.03.2019 15:57:55
Version:	BeGaze 2.5.77
Sample Rate:	50
Subject:	S22H22551
Description:	Mathieu Chambre

Table Header for Fixations:
Event Type	Trial	Number	Start	End	Duration	Location X	Location Y	Dispersion X	Dispersion Y	Plane	Avg. Pupil Size X	Avg. Pupil Size Y

Table Header for Saccades:
Event Type	Trial	Number	Start	End	Duration	Start Loc.X	Start Loc.Y	End Loc.X	End Loc.Y	Amplitude	Peak Speed	Peak Speed At	Average Speed	Peak Accel.	Peak Decel.	Average Accel.

Table Header for Blinks:
Event Type	Trial	Number	Start	End	Duration

Table Header for User Events:
Event Type	Trial	Number	Start	Description

UserEvent	1	1	5235659843	# Message: Matisse-Nature-morte-a-la-cruche-bleue.jpg
Fixation L	1	1	5235661129	5236138484	477355	1025.68	517.31	24	28	-1	18.57	18.57
Fixation R	1	1	5235661129	5236138484	477355	1025.68	517.31	24	28	-1	18.45	18.45
Saccade L	1	1	5236138484	5236158356	19872	1016.40	493.62	886.27	410.38	1.00	156.23	1.00	50.11	3897.94	-3829.69	2745.25
Saccade R	1	1	5236138484	5236158356	19872	1016.40	493.62	886.27	410.38	1.00	156.23	1.00	50.11	3897.94	-3829.69	2745.25
Fixation L	1	2	5236158356	5236357204	198848	889.27	401.95	33	13	-1	18.84	18.84
Fixation R	1	2	5236158356	5236357204	198848	889.27	401.95	33	13	-1	18.80	18.80
Saccade L	1	2	5236357204	5236377088	19884	861.44	401.37	794.42	365.54	0.66	76.87	1.00	33.18	1845.65	-1689.02	1300.78
Saccade R	1	2	5236357204	5236377088	19884	861.44	401.37	794.42	365.54	0.66	76.87	1.00	33.18	1845.65	-1689.02	1300.78
Fixation L	1	3	5236377088	5236575951	198863	789.72	342.09	7	33	-1	19.52	19.52
Fixation R	1	3	5236377088	5236575951	198863	789.72	342.09	7	33	-1	19.32	19.32
Saccade L	1	3	5236575951	5236615828	39877	786.95	332.23	1017.25	481.72	2.28	183.37	1.00	57.18	4547.18	-4330.92	3383.37
Saccade R	1	3	5236575951	5236615828	39877	786.95	332.23	1017.25	481.72	2.28	183.37	1.00	57.18	4547.18	-4330.92	3383.37
Fixation L	1	4	5236615828	5236834561	218733	1030.65	494.42	19	37	-1	20.14	20.14
Fixation R	1	4	5236615828	5236834561	218733	1030.65	494.42	19	37	-1	20.25	20.25
Saccade L	1	4	5236834561	5236854442	19881	1036.45	516.37	1169.29	535.39	0.82	135.73	1.00	41.08	3336.38	-3257.08	2206.23
Saccade R	1	4	5236834561	5236854442	19881	1036.45	516.37	1169.29	535.39	0.82	135.73	1.00	41.08	3336.38	-3257.08	2206.23
Fixation L	1	5	5236854442	5237192549	338107	1159.52	562.30	18	76	-1	20.96	20.96
Fixation R	1	5	5236854442	5237192549	338107	1159.52	562.30	18	76	-1	21.01	21.01
Saccade L	1	5	5237192549	5237212549	20000	1169.06	611.51	1182.63	615.19	0.37	48.38	1.00	18.48	60.52	-853.96	377.99
Saccade R	1	5	5237192549	5237212549	20000	1169.06	611.51	1182.63	615.19	0.37	48.38	1.00	18.48	60.52	-853.96	377.99
Fixation L	1	6	5237212549	5237351664	139115	1195.08	619.37	18	15	-1	21.63	21.63
Fixation R	1	6	5237212549	5237351664	139115	1195.08	619.37	18	15	-1	21.37	21.37
Saccade L	1	6	5237351664	5237371657	19993	1201.07	625.26	1205.03	707.64	0.84	83.43	1.00	41.91	1945.01	-1658.39	1845.82
Saccade R	1	6	5237351664	5237371657	19993	1201.07	625.26	1205.03	707.64	0.84	83.43	1.00	41.91	1945.01	-1658.39	1845.82
Fixation L	1	7	5237371657	5237490911	119254	1212.87	768.66	14	80	-1	21.79	21.79
Fixation R	1	7	5237371657	5237490911	119254	1212.87	768.66	14	80	-1	21.60	21.60
Saccade L	1	7	5237490911	5237510783	19872	1219.83	788.39	1222.86	790.76	0.14	14.29	1.00	7.04	129.75	-259.93	143.86
Saccade R	1	7	5237490911	5237510783	19872	1219.83	788.39	1222.86	790.76	0.14	14.29	1.00	7.04	129.75	-259.93	143.86
Fixation L	1	8	5237510783	5237669908	159125	1229.72	802.06	21	29	-1	22.03	22.03
Fixation R	1	8	5237510783	5237669908	159125	1229.72	802.06	21	29	-1	21.66	21.66
Saccade L	1	8	5237669908	5237689896	19988	1244.52	819.98	1364.78	969.25	1.20	193.84	1.00	60.09	4792.06	-4520.87	3138.28
Saccade R	1	8	5237669908	5237689896	19988	1244.52	819.98	1364.78	969.25	1.20	193.84	1.00	60.09	4792.06	-4520.87	3138.28
Fixation L	1	9	5237689896	5237908635	218739	1330.52	965.63	43	6	-1	22.14	22.14
Fixation R	1	9	5237689896	5237908635	218739	1330.52	965.63	43	6	-1	21.54	21.54
Saccade L	1	9	5237908635	5237928507	19872	1323.69	966.45	1356.45	1093.52	0.82	132.72	1.00	41.08	3262.09	-3005.08	2287.32
Saccade R	1	9	5237908635	5237928507	19872	1323.69	966.45	1356.45	1093.52	0.82	132.72	1.00	41.08	3262.09	-3005.08	2287.32
Fixation L	1	10	5237928507	5238087626	159119	1383.94	1089.30	39	6	-1	22.03	22.03
Fixation R	1	10	5237928507	5238087626	159119	1383.94	1089.30	39	6	-1	21.31	21.31
Saccade L	1	10	5238087626	5238147389	59763	1395.53	1088.91	678.73	1125.07	7.31	315.33	0.67	122.39	7824.85	-7790.81	5351.71
Saccade R	1	10	5238087626	5238147389	59763	1395.53	1088.91	678.73	1125.07	7.31	315.33	0.67	122.39	7824.85	-7790.81	5351.71
Fixation L	1	11	5238147389	5238346235	198846	674.57	1123.26	15	13	-1	21.55	21.55
Fixation R	1	11	5238147389	5238346235	198846	674.57	1123.26	15	13	-1	21.25	21.25
Saccade L	1	11	5238346235	5238366127	19892	672.40	1126.60	534.60	1148.47	1.01	141.12	1.00	50.87	3485.53	-3163.01	2673.51
Saccade R	1	11	5238346235	5238366127	19892	672.40	1126.60	534.60	1148.47	1.01	141.12	1.00	50.87	3485.53	-3163.01	2673.51
Fixation L	1	12	5238366127	5238545104	178977	566.92	1143.16	53	25	-1	20.16	20.16
Fixation R	1	12	5238366127	5238545104	178977	566.92	1143.16	53	25	-1	20.52	20.52
Saccade L	1	12	5238545104	5238564972	19868	558.65	1152.77	481.61	1147.95	0.55	78.08	1.00	27.58	1726.04	-1538.26	1156.37
Saccade R	1	12	5238545104	5238564972	19868	558.65	1152.77	481.61	1147.95	0.55	78.08	1.00	27.58	1726.04	-1538.26	1156.37
Fixation L	1	13	5238564972	5238903086	338114	483.18	1133.20	19	25	-1	19.57	19.57
Fixation R	1	13	5238564972	5238903086	338114	483.18	1133.20	19	25	-1	20.22	20.22
Saccade L	1	13	5238903086	5238922957	19871	487.73	1124.66	557.68	1131.38	0.44	71.08	1.00	21.94	1654.47	-1674.27	1144.04
Saccade R	1	13	5238903086	5238922957	19871	487.73	1124.66	557.68	1131.38	0.44	71.08	1.00	21.94	1654.47	-1674.27	1144.04
Fixation L	1	14	5238922957	5239400433	477476	567.42	1142.52	41	18	-1	20.29	20.29
Fixation R	1	14	5238922957	5239400433	477476	567.42	1142.52	41	18	-1	21.42	21.42
Saccade L	1	14	5239400433	5239460052	59619	591.06	1150.08	630.99	477.09	7.06	312.80	0.67	118.34	7763.09	-7228.13	5334.53
Saccade R	1	14	5239400433	5239460052	59619	591.06	1150.08	630.99	477.09	7.06	312.80	0.67	118.34	7763.09	-7228.13	5334.53
Fixation L	1	15	5239460052	5239639040	178988	671.83	457.56	55	37	-1	20.30	20.30
Fixation R	1	15	5239460052	5239639040	178988	671.83	457.56	55	37	-1	20.81	20.81
Saccade L	1	15	5239639040	5239658921	19881	685.78	455.40	696.67	452.63	0.14	11.37	1.00	7.11	92.18	0.00	46.09
Saccade R	1	15	5239639040	5239658921	19881	685.78	455.40	696.67	452.63	0.14	11.37	1.00	7.11	92.18	0.00	46.09
