[BeGaze]
Converted from:	C:\Documents and Settings\iViewX\Desktop\EXPERIMENTATIONS\Experiments\results\finaleart\S22H22551-finaleart-1.idf
Date:	27.03.2019 15:57:23
Version:	BeGaze 2.5.77
Sample Rate:	50
Subject:	S22H22551
Description:	Mathieu Chambre

Table Header for Fixations:
Event Type	Trial	Number	Start	End	Duration	Location X	Location Y	Dispersion X	Dispersion Y	Plane	Avg. Pupil Size X	Avg. Pupil Size Y

Table Header for Saccades:
Event Type	Trial	Number	Start	End	Duration	Start Loc.X	Start Loc.Y	End Loc.X	End Loc.Y	Amplitude	Peak Speed	Peak Speed At	Average Speed	Peak Accel.	Peak Decel.	Average Accel.

Table Header for Blinks:
Event Type	Trial	Number	Start	End	Duration

Table Header for User Events:
Event Type	Trial	Number	Start	Description

UserEvent	1	1	4967898833	# Message: study_of_a_reclining_nude_Delacroix_1824.jpg
Fixation L	1	1	4967906445	4968344078	437633	1096.17	338.56	42	26	-1	18.76	18.76
Fixation R	1	1	4967906445	4968344078	437633	1096.17	338.56	42	26	-1	18.92	18.92
Saccade L	1	1	4968344078	4968363918	19840	1074.53	345.66	1181.28	362.19	0.77	109.27	1.00	38.83	2559.75	-2591.56	1940.89
Saccade R	1	1	4968344078	4968363918	19840	1074.53	345.66	1181.28	362.19	0.77	109.27	1.00	38.83	2559.75	-2591.56	1940.89
Fixation L	1	2	4968363918	4968503158	139240	1202.67	348.41	26	22	-1	19.19	19.19
Fixation R	1	2	4968363918	4968503158	139240	1202.67	348.41	26	22	-1	19.21	19.21
Saccade L	1	2	4968503158	4968523027	19869	1207.93	349.44	1303.39	340.21	0.70	97.01	1.00	35.09	2411.95	-2078.01	1781.66
Saccade R	1	2	4968503158	4968523027	19869	1207.93	349.44	1303.39	340.21	0.70	97.01	1.00	35.09	2411.95	-2078.01	1781.66
Fixation L	1	3	4968523027	4968721899	198872	1340.72	311.67	43	40	-1	18.79	18.79
Fixation R	1	3	4968523027	4968721899	198872	1340.72	311.67	43	40	-1	19.02	19.02
Saccade L	1	3	4968721899	4968741774	19875	1345.28	299.78	1344.37	358.95	0.59	59.86	1.00	29.79	1464.77	-1159.45	1349.24
Saccade R	1	3	4968721899	4968741774	19875	1345.28	299.78	1344.37	358.95	0.59	59.86	1.00	29.79	1464.77	-1159.45	1349.24
Fixation L	1	4	4968741774	4968881018	139244	1332.83	421.93	20	78	-1	19.13	19.13
Fixation R	1	4	4968741774	4968881018	139244	1332.83	421.93	20	78	-1	19.41	19.41
Saccade L	1	4	4968881018	4968980511	99493	1327.86	435.52	1224.31	603.63	2.67	115.73	0.80	26.85	2857.86	-2805.87	1390.95
Saccade R	1	4	4968881018	4968980511	99493	1327.86	435.52	1224.31	603.63	2.67	115.73	0.80	26.85	2857.86	-2805.87	1390.95
Fixation L	1	5	4968980511	4969139631	159120	1219.19	608.10	7	14	-1	20.12	20.12
Fixation R	1	5	4968980511	4969139631	159120	1219.19	608.10	7	14	-1	20.11	20.11
Saccade L	1	5	4969139631	4969238990	99359	1216.37	615.36	925.38	658.59	6.34	218.49	0.40	63.76	5346.13	-3109.94	2711.20
Saccade R	1	5	4969139631	4969238990	99359	1216.37	615.36	925.38	658.59	6.34	218.49	0.40	63.76	5346.13	-3109.94	2711.20
Fixation L	1	6	4969238990	4969437980	198990	920.28	662.52	15	6	-1	20.20	20.20
Fixation R	1	6	4969238990	4969437980	198990	920.28	662.52	15	6	-1	20.04	20.04
Saccade L	1	6	4969437980	4969457862	19882	909.53	663.00	588.89	737.67	2.01	332.68	1.00	101.17	8260.50	-8110.30	5920.98
Saccade R	1	6	4969437980	4969457862	19882	909.53	663.00	588.89	737.67	2.01	332.68	1.00	101.17	8260.50	-8110.30	5920.98
Fixation L	1	7	4969457862	4969616974	159112	533.43	752.41	70	22	-1	18.65	18.65
Fixation R	1	7	4969457862	4969616974	159112	533.43	752.41	70	22	-1	18.91	18.91
Saccade L	1	7	4969616974	4969656725	39751	531.93	760.59	278.94	766.62	2.13	163.75	1.00	53.49	4026.70	-3878.67	3075.55
Saccade R	1	7	4969616974	4969656725	39751	531.93	760.59	278.94	766.62	2.13	163.75	1.00	53.49	4026.70	-3878.67	3075.55
Fixation L	1	8	4969656725	4969815838	159113	288.10	780.65	31	25	-1	17.64	17.64
Fixation R	1	8	4969656725	4969815838	159113	288.10	780.65	31	25	-1	18.80	18.80
Saccade L	1	8	4969815838	4969895468	79630	284.97	786.51	1201.65	910.93	11.21	331.80	0.50	140.74	7637.64	-6630.12	4806.99
Saccade R	1	8	4969815838	4969895468	79630	284.97	786.51	1201.65	910.93	11.21	331.80	0.50	140.74	7637.64	-6630.12	4806.99
Fixation L	1	9	4969895468	4970034573	139105	1205.67	917.90	12	13	-1	18.24	18.24
Fixation R	1	9	4969895468	4970034573	139105	1205.67	917.90	12	13	-1	19.05	19.05
Saccade L	1	9	4970034573	4970074452	39879	1212.87	921.31	1450.97	901.00	2.05	130.70	1.00	51.48	3193.07	-3144.41	2903.32
Saccade R	1	9	4970034573	4970074452	39879	1212.87	921.31	1450.97	901.00	2.05	130.70	1.00	51.48	3193.07	-3144.41	2903.32
Fixation L	1	10	4970074452	4970213711	139259	1444.11	890.50	10	23	-1	19.00	19.00
Fixation R	1	10	4970074452	4970213711	139259	1444.11	890.50	10	23	-1	19.29	19.29
Saccade L	1	10	4970213711	4970273320	59609	1443.99	878.92	1447.76	227.65	7.19	313.85	0.67	120.59	7730.06	-6762.07	4644.52
Saccade R	1	10	4970213711	4970273320	59609	1443.99	878.92	1447.76	227.65	7.19	313.85	0.67	120.59	7730.06	-6762.07	4644.52
Fixation L	1	11	4970273320	4970392691	119371	1473.48	238.49	42	57	-1	18.23	18.23
Fixation R	1	11	4970273320	4970392691	119371	1473.48	238.49	42	57	-1	18.88	18.88
Saccade L	1	11	4970392691	4970472179	79488	1475.83	276.52	997.06	306.31	6.34	245.32	0.75	79.73	5943.83	-5908.46	4060.68
Saccade R	1	11	4970392691	4970472179	79488	1475.83	276.52	997.06	306.31	6.34	245.32	0.75	79.73	5943.83	-5908.46	4060.68
Fixation L	1	12	4970472179	4970591553	119374	1001.90	295.98	8	20	-1	18.97	18.97
Fixation R	1	12	4970472179	4970591553	119374	1001.90	295.98	8	20	-1	19.39	19.39
Saccade L	1	12	4970591553	4970631293	39740	1005.26	285.60	596.81	308.22	3.49	292.13	0.50	87.95	7098.21	-6922.15	4945.66
Saccade R	1	12	4970591553	4970631293	39740	1005.26	285.60	596.81	308.22	3.49	292.13	0.50	87.95	7098.21	-6922.15	4945.66
Fixation L	1	13	4970631293	4970850157	218864	619.36	340.30	54	44	-1	19.71	19.71
Fixation R	1	13	4970631293	4970850157	218864	619.36	340.30	54	44	-1	19.98	19.98
Saccade L	1	13	4970850157	4970870040	19883	651.34	348.59	889.83	313.33	1.42	243.74	1.00	71.29	6016.98	-5546.78	4024.25
Saccade R	1	13	4970850157	4970870040	19883	651.34	348.59	889.83	313.33	1.42	243.74	1.00	71.29	6016.98	-5546.78	4024.25
Fixation L	1	14	4970870040	4971068901	198861	897.34	295.37	17	39	-1	19.76	19.76
Fixation R	1	14	4970870040	4971068901	198861	897.34	295.37	17	39	-1	20.50	20.50
Saccade L	1	14	4971068901	4971088773	19872	900.16	284.05	810.31	284.07	0.59	90.89	1.00	29.51	2233.61	-2162.06	1573.95
Saccade R	1	14	4971068901	4971088773	19872	900.16	284.05	810.31	284.07	0.59	90.89	1.00	29.51	2233.61	-2162.06	1573.95
Fixation L	1	15	4971088773	4971387135	298362	789.10	282.63	29	20	-1	20.91	20.91
Fixation R	1	15	4971088773	4971387135	298362	789.10	282.63	29	20	-1	21.55	21.55
Saccade L	1	15	4971387135	4971407012	19877	796.52	286.62	1036.10	290.57	1.52	242.25	1.00	76.46	5982.33	-5752.78	4285.75
Saccade R	1	15	4971387135	4971407012	19877	796.52	286.62	1036.10	290.57	1.52	242.25	1.00	76.46	5982.33	-5752.78	4285.75
Fixation L	1	16	4971407012	4971526376	119364	1088.17	307.81	66	32	-1	20.96	20.96
Fixation R	1	16	4971407012	4971526376	119364	1088.17	307.81	66	32	-1	21.82	21.82
Saccade L	1	16	4971526376	4971625875	99499	1095.51	323.56	1410.23	321.99	4.92	205.61	0.80	49.44	5015.07	-3828.18	2014.70
Saccade R	1	16	4971526376	4971625875	99499	1095.51	323.56	1410.23	321.99	4.92	205.61	0.80	49.44	5015.07	-3828.18	2014.70
Fixation L	1	17	4971625875	4971884363	258488	1379.44	323.75	51	40	-1	20.68	20.68
Fixation R	1	17	4971625875	4971884363	258488	1379.44	323.75	51	40	-1	21.05	21.05
