[BeGaze]
Converted from:	C:\Documents and Settings\iViewX\Desktop\EXPERIMENTATIONS\Experiments\results\finaleart\S22H22551-finaleart-1.idf
Date:	27.03.2019 15:57:16
Version:	BeGaze 2.5.77
Sample Rate:	50
Subject:	S22H22551
Description:	Mathieu Chambre

Table Header for Fixations:
Event Type	Trial	Number	Start	End	Duration	Location X	Location Y	Dispersion X	Dispersion Y	Plane	Avg. Pupil Size X	Avg. Pupil Size Y

Table Header for Saccades:
Event Type	Trial	Number	Start	End	Duration	Start Loc.X	Start Loc.Y	End Loc.X	End Loc.Y	Amplitude	Peak Speed	Peak Speed At	Average Speed	Peak Accel.	Peak Decel.	Average Accel.

Table Header for Blinks:
Event Type	Trial	Number	Start	End	Duration

Table Header for User Events:
Event Type	Trial	Number	Start	Description

UserEvent	1	1	4924941772	# Message: bowl_of_fruits_Fantin-Latour_1857.jpg
Fixation L	1	1	4924944175	4925501061	556886	1131.47	346.95	31	20	-1	19.33	19.33
Fixation R	1	1	4924944175	4925501061	556886	1131.47	346.95	31	20	-1	19.46	19.46
Saccade L	1	1	4925501061	4925540771	39710	1151.73	357.29	807.89	508.93	3.30	240.51	1.00	83.21	6002.60	-5735.74	4557.87
Saccade R	1	1	4925501061	4925540771	39710	1151.73	357.29	807.89	508.93	3.30	240.51	1.00	83.21	6002.60	-5735.74	4557.87
Fixation L	1	2	4925540771	4925839130	298359	826.12	515.14	29	27	-1	18.79	18.79
Fixation R	1	2	4925540771	4925839130	298359	826.12	515.14	29	27	-1	19.33	19.33
Saccade L	1	2	4925839130	4925859005	19875	828.72	517.96	913.49	360.27	1.08	181.05	1.00	54.53	4433.02	-4235.15	2909.50
Saccade R	1	2	4925839130	4925859005	19875	828.72	517.96	913.49	360.27	1.08	181.05	1.00	54.53	4433.02	-4235.15	2909.50
Fixation L	1	3	4925859005	4926018117	159112	942.29	349.03	40	36	-1	17.65	17.65
Fixation R	1	3	4925859005	4926018117	159112	942.29	349.03	40	36	-1	18.22	18.22
Saccade L	1	3	4926018117	4926057998	39881	954.14	335.01	1234.83	371.26	2.43	161.92	1.00	60.95	3971.43	-3719.51	3380.16
Saccade R	1	3	4926018117	4926057998	39881	954.14	335.01	1234.83	371.26	2.43	161.92	1.00	60.95	3971.43	-3719.51	3380.16
Fixation L	1	4	4926057998	4926376231	318233	1241.49	408.53	11	51	-1	17.60	17.60
Fixation R	1	4	4926057998	4926376231	318233	1241.49	408.53	11	51	-1	18.25	18.25
Saccade L	1	4	4926376231	4926396098	19867	1243.55	422.35	1353.01	475.75	0.92	123.19	1.00	46.28	3032.74	-2985.93	2474.00
Saccade R	1	4	4926376231	4926396098	19867	1243.55	422.35	1353.01	475.75	0.92	123.19	1.00	46.28	3032.74	-2985.93	2474.00
Fixation L	1	5	4926396098	4926674580	278482	1360.45	532.62	15	71	-1	18.48	18.48
Fixation R	1	5	4926396098	4926674580	278482	1360.45	532.62	15	71	-1	18.83	18.83
Saccade L	1	5	4926674580	4926714336	39756	1366.02	547.33	1243.93	848.06	2.86	232.10	1.00	71.98	5703.85	-5574.10	3876.83
Saccade R	1	5	4926674580	4926714336	39756	1366.02	547.33	1243.93	848.06	2.86	232.10	1.00	71.98	5703.85	-5574.10	3876.83
Fixation L	1	6	4926714336	4926913205	198869	1250.62	874.89	18	35	-1	18.51	18.51
Fixation R	1	6	4926714336	4926913205	198869	1250.62	874.89	18	35	-1	18.62	18.62
Saccade L	1	6	4926913205	4926933076	19871	1246.69	881.08	1077.50	884.25	0.91	171.13	1.00	45.74	4237.80	-4230.97	2881.24
Saccade R	1	6	4926913205	4926933076	19871	1246.69	881.08	1077.50	884.25	0.91	171.13	1.00	45.74	4237.80	-4230.97	2881.24
Fixation L	1	7	4926933076	4927112061	178985	1079.15	886.81	70	6	-1	17.73	17.73
Fixation R	1	7	4926933076	4927112061	178985	1079.15	886.81	70	6	-1	17.85	17.85
Saccade L	1	7	4927112061	4927151939	39878	1018.07	890.28	483.50	865.66	4.94	324.22	0.50	123.93	8091.20	-7939.08	6224.32
Saccade R	1	7	4927112061	4927151939	39878	1018.07	890.28	483.50	865.66	4.94	324.22	0.50	123.93	8091.20	-7939.08	6224.32
Fixation L	1	8	4927151939	4927350807	198868	498.74	856.38	29	12	-1	17.09	17.09
Fixation R	1	8	4927151939	4927350807	198868	498.74	856.38	29	12	-1	17.47	17.47
Saccade L	1	8	4927350807	4927390554	39747	512.88	856.58	1029.54	862.21	4.26	310.82	1.00	107.21	7661.01	-7597.64	6399.68
Saccade R	1	8	4927350807	4927390554	39747	512.88	856.58	1029.54	862.21	4.26	310.82	1.00	107.21	7661.01	-7597.64	6399.68
Fixation L	1	9	4927390554	4927609423	218869	1043.55	873.22	23	17	-1	16.86	16.86
Fixation R	1	9	4927390554	4927609423	218869	1043.55	873.22	23	17	-1	17.42	17.42
Saccade L	1	9	4927609423	4927629288	19865	1046.03	876.07	1199.90	878.06	1.13	155.63	1.00	56.70	3836.11	-3854.85	3118.91
Saccade R	1	9	4927609423	4927629288	19865	1046.03	876.07	1199.90	878.06	1.13	155.63	1.00	56.70	3836.11	-3854.85	3118.91
Fixation L	1	10	4927629288	4927808271	178983	1262.66	871.11	74	11	-1	16.96	16.96
Fixation R	1	10	4927629288	4927808271	178983	1262.66	871.11	74	11	-1	17.53	17.53
Saccade L	1	10	4927808271	4927887777	79506	1267.94	866.35	480.44	844.71	9.22	364.52	0.50	115.97	9077.67	-7599.02	5187.48
Saccade R	1	10	4927808271	4927887777	79506	1267.94	866.35	480.44	844.71	9.22	364.52	0.50	115.97	9077.67	-7599.02	5187.48
Fixation L	1	11	4927887777	4928066891	179114	468.43	822.76	22	34	-1	18.00	18.00
Fixation R	1	11	4927887777	4928066891	179114	468.43	822.76	22	34	-1	18.82	18.82
Saccade L	1	11	4928066891	4928106642	39751	463.04	813.54	687.37	435.64	3.82	223.27	0.50	96.05	5400.25	-5429.61	5318.22
Saccade R	1	11	4928066891	4928106642	39751	463.04	813.54	687.37	435.64	3.82	223.27	0.50	96.05	5400.25	-5429.61	5318.22
Fixation L	1	12	4928106642	4928325378	218736	707.96	459.98	29	34	-1	17.24	17.24
Fixation R	1	12	4928106642	4928325378	218736	707.96	459.98	29	34	-1	18.01	18.01
Saccade L	1	12	4928325378	4928345247	19869	717.36	469.27	890.40	441.87	1.03	177.17	1.00	51.84	4366.25	-3467.52	2786.44
Saccade R	1	12	4928325378	4928345247	19869	717.36	469.27	890.40	441.87	1.03	177.17	1.00	51.84	4366.25	-3467.52	2786.44
Fixation L	1	13	4928345247	4928484491	139244	913.55	394.62	33	64	-1	17.18	17.18
Fixation R	1	13	4928345247	4928484491	139244	913.55	394.62	33	64	-1	17.98	17.98
Saccade L	1	13	4928484491	4928504359	19868	924.29	378.71	928.21	375.94	0.08	7.50	1.00	4.07	115.08	-66.09	70.63
Saccade R	1	13	4928484491	4928504359	19868	924.29	378.71	928.21	375.94	0.08	7.50	1.00	4.07	115.08	-66.09	70.63
Fixation L	1	14	4928504359	4928703356	198997	933.67	378.42	9	16	-1	17.58	17.58
Fixation R	1	14	4928504359	4928703356	198997	933.67	378.42	9	16	-1	17.99	17.99
Saccade L	1	14	4928703356	4928723227	19871	937.42	390.49	1154.26	395.88	1.25	219.33	1.00	62.82	5401.41	-5155.47	3597.93
Saccade R	1	14	4928703356	4928723227	19871	937.42	390.49	1154.26	395.88	1.25	219.33	1.00	62.82	5401.41	-5155.47	3597.93
Fixation L	1	15	4928723227	4928902223	178996	1174.48	423.87	26	47	-1	17.81	17.81
Fixation R	1	15	4928723227	4928902223	178996	1174.48	423.87	26	47	-1	17.90	17.90
Saccade L	1	15	4928902223	4928941963	39740	1177.44	442.97	1422.00	466.88	2.65	212.96	1.00	66.69	4981.02	0.00	1919.36
Saccade R	1	15	4928902223	4928941963	39740	1177.44	442.97	1422.00	466.88	2.65	212.96	1.00	66.69	4981.02	0.00	1919.36
