[BeGaze]
Converted from:	C:\Documents and Settings\iViewX\Desktop\EXPERIMENTATIONS\Experiments\results\finaleart\S22H22551-finaleart-1.idf
Date:	27.03.2019 15:57:34
Version:	BeGaze 2.5.77
Sample Rate:	50
Subject:	S22H22551
Description:	Mathieu Chambre

Table Header for Fixations:
Event Type	Trial	Number	Start	End	Duration	Location X	Location Y	Dispersion X	Dispersion Y	Plane	Avg. Pupil Size X	Avg. Pupil Size Y

Table Header for Saccades:
Event Type	Trial	Number	Start	End	Duration	Start Loc.X	Start Loc.Y	End Loc.X	End Loc.Y	Amplitude	Peak Speed	Peak Speed At	Average Speed	Peak Accel.	Peak Decel.	Average Accel.

Table Header for Blinks:
Event Type	Trial	Number	Start	End	Duration

Table Header for User Events:
Event Type	Trial	Number	Start	Description

UserEvent	1	1	5100700836	# Message: courbet-the-bathers-1858.jpg
Fixation L	1	1	5100701780	5100821204	119424	1027.66	413.42	21	37	-1	19.23	19.23
Fixation R	1	1	5100701780	5100821204	119424	1027.66	413.42	21	37	-1	19.41	19.41
Saccade L	1	1	5100821204	5100841035	19831	1021.04	429.82	944.93	426.96	0.55	77.04	1.00	27.79	1595.44	-1896.19	1211.94
Saccade R	1	1	5100821204	5100841035	19831	1021.04	429.82	944.93	426.96	0.55	77.04	1.00	27.79	1595.44	-1896.19	1211.94
Fixation L	1	2	5100841035	5101039888	198853	945.93	449.95	54	41	-1	19.74	19.74
Fixation R	1	2	5100841035	5101039888	198853	945.93	449.95	54	41	-1	19.72	19.72
Saccade L	1	2	5101039888	5101179130	139242	981.04	464.24	785.17	188.04	6.36	182.34	0.86	45.66	4483.32	-4353.61	2160.73
Saccade R	1	2	5101039888	5101179130	139242	981.04	464.24	785.17	188.04	6.36	182.34	0.86	45.66	4483.32	-4353.61	2160.73
Fixation L	1	3	5101179130	5101298489	119359	786.85	192.90	12	9	-1	18.74	18.74
Fixation R	1	3	5101179130	5101298489	119359	786.85	192.90	12	9	-1	18.80	18.80
Saccade L	1	3	5101298489	5101318365	19876	779.79	186.14	787.32	92.68	0.78	94.85	1.00	39.03	2261.77	-2170.29	1783.55
Saccade R	1	3	5101298489	5101318365	19876	779.79	186.14	787.32	92.68	0.78	94.85	1.00	39.03	2261.77	-2170.29	1783.55
Fixation L	1	4	5101318365	5101417863	99498	817.74	82.39	55	40	-1	18.19	18.19
Fixation R	1	4	5101318365	5101417863	99498	817.74	82.39	55	40	-1	17.72	17.72
Saccade L	1	4	5101417863	5101437739	19876	805.55	108.86	822.48	48.08	0.70	63.83	1.00	35.32	670.49	-1318.52	841.38
Saccade R	1	4	5101417863	5101437739	19876	805.55	108.86	822.48	48.08	0.70	63.83	1.00	35.32	670.49	-1318.52	841.38
Fixation L	1	5	5101437739	5101537114	99375	824.21	45.06	4	10	-1	17.94	17.94
Fixation R	1	5	5101437739	5101537114	99375	824.21	45.06	4	10	-1	17.59	17.59
Saccade L	1	5	5101537114	5101616726	79612	825.93	41.71	877.00	241.30	5.37	206.96	1.00	67.45	2579.73	-4484.62	2312.87
Saccade R	1	5	5101537114	5101616726	79612	825.93	41.71	877.00	241.30	5.37	206.96	1.00	67.45	2579.73	-4484.62	2312.87
Fixation L	1	6	5101616726	5101835474	218748	879.10	249.52	49	15	-1	18.58	18.58
Fixation R	1	6	5101616726	5101835474	218748	879.10	249.52	49	15	-1	18.47	18.47
Saccade L	1	6	5101835474	5101855334	19860	845.44	256.53	574.88	260.16	1.74	273.52	1.00	87.72	6762.00	-6138.49	4526.55
Saccade R	1	6	5101835474	5101855334	19860	845.44	256.53	574.88	260.16	1.74	273.52	1.00	87.72	6762.00	-6138.49	4526.55
Fixation L	1	7	5101855334	5101994582	139248	588.02	295.76	22	76	-1	19.38	19.38
Fixation R	1	7	5101855334	5101994582	139248	588.02	295.76	22	76	-1	19.56	19.56
Saccade L	1	7	5101994582	5102094080	99498	593.45	336.25	594.06	513.42	2.92	175.62	1.00	29.35	4340.22	-4308.89	1363.16
Saccade R	1	7	5101994582	5102094080	99498	593.45	336.25	594.06	513.42	2.92	175.62	1.00	29.35	4340.22	-4308.89	1363.16
Fixation L	1	8	5102094080	5102332691	238611	590.40	504.86	12	11	-1	19.96	19.96
Fixation R	1	8	5102094080	5102332691	238611	590.40	504.86	12	11	-1	20.57	20.57
Saccade L	1	8	5102332691	5102372562	39871	585.40	504.79	851.73	677.78	3.01	202.25	0.50	75.55	5022.25	-4901.25	4138.21
Saccade R	1	8	5102332691	5102372562	39871	585.40	504.79	851.73	677.78	3.01	202.25	0.50	75.55	5022.25	-4901.25	4138.21
Fixation L	1	9	5102372562	5102571435	198873	842.15	704.01	15	65	-1	20.69	20.69
Fixation R	1	9	5102372562	5102571435	198873	842.15	704.01	15	65	-1	20.82	20.82
Saccade L	1	9	5102571435	5102591304	19869	837.28	682.58	846.59	839.48	0.90	158.96	1.00	45.17	3938.49	-3697.38	2679.54
Saccade R	1	9	5102571435	5102591304	19869	837.28	682.58	846.59	839.48	0.90	158.96	1.00	45.17	3938.49	-3697.38	2679.54
Fixation L	1	10	5102591304	5102810161	218857	871.62	864.91	40	31	-1	20.35	20.35
Fixation R	1	10	5102591304	5102810161	218857	871.62	864.91	40	31	-1	20.18	20.18
Saccade L	1	10	5102810161	5102830041	19880	883.22	870.72	790.04	873.93	0.66	94.32	1.00	33.36	2289.70	-1986.03	1680.45
Saccade R	1	10	5102810161	5102830041	19880	883.22	870.72	790.04	873.93	0.66	94.32	1.00	33.36	2289.70	-1986.03	1680.45
Fixation L	1	11	5102830041	5103028904	198863	807.06	878.85	32	10	-1	19.87	19.87
Fixation R	1	11	5102830041	5103028904	198863	807.06	878.85	32	10	-1	19.97	19.97
Saccade L	1	11	5103028904	5103227766	198862	801.58	880.02	1479.14	837.91	13.95	283.07	1.00	70.14	6789.97	-6776.03	2764.56
Saccade R	1	11	5103028904	5103227766	198862	801.58	880.02	1479.14	837.91	13.95	283.07	1.00	70.14	6789.97	-6776.03	2764.56
Fixation L	1	12	5103227766	5103446637	218871	1490.96	863.91	17	41	-1	19.70	19.70
Fixation R	1	12	5103227766	5103446637	218871	1490.96	863.91	17	41	-1	19.62	19.62
Saccade L	1	12	5103446637	5103486380	39743	1493.91	878.49	1506.72	401.28	4.45	348.12	1.00	112.00	8661.20	-8564.14	5513.44
Saccade R	1	12	5103446637	5103486380	39743	1493.91	878.49	1506.72	401.28	4.45	348.12	1.00	112.00	8661.20	-8564.14	5513.44
Fixation L	1	13	5103486380	5103724992	238612	1493.45	372.55	22	71	-1	19.45	19.45
Fixation R	1	13	5103486380	5103724992	238612	1493.45	372.55	22	71	-1	19.07	19.07
Saccade L	1	13	5103724992	5103745005	20013	1484.01	374.61	1488.33	148.04	1.36	229.13	1.00	68.04	5498.34	-5617.58	3853.79
Saccade R	1	13	5103724992	5103745005	20013	1484.01	374.61	1488.33	148.04	1.36	229.13	1.00	68.04	5498.34	-5617.58	3853.79
Fixation L	1	14	5103745005	5103904110	159105	1484.24	169.21	10	49	-1	19.09	19.09
Fixation R	1	14	5103745005	5103904110	159105	1484.24	169.21	10	49	-1	18.93	18.93
Saccade L	1	14	5103904110	5103943858	39748	1481.66	187.53	1041.39	152.85	3.96	325.50	1.00	99.62	7966.57	-7759.53	5181.34
Saccade R	1	14	5103904110	5103943858	39748	1481.66	187.53	1041.39	152.85	3.96	325.50	1.00	99.62	7966.57	-7759.53	5181.34
Fixation L	1	15	5103943858	5104122855	178997	1015.58	139.31	34	30	-1	19.53	19.53
Fixation R	1	15	5103943858	5104122855	178997	1015.58	139.31	34	30	-1	19.49	19.49
Saccade L	1	15	5104122855	5104142723	19868	1012.27	128.08	916.01	308.89	1.20	207.14	1.00	60.25	5097.54	-4982.44	3602.47
Saccade R	1	15	5104122855	5104142723	19868	1012.27	128.08	916.01	308.89	1.20	207.14	1.00	60.25	5097.54	-4982.44	3602.47
Fixation L	1	16	5104142723	5104441082	298359	931.94	306.42	28	17	-1	20.35	20.35
Fixation R	1	16	5104142723	5104441082	298359	931.94	306.42	28	17	-1	20.45	20.45
Saccade L	1	16	5104441082	5104480829	39747	936.61	301.29	575.75	453.50	3.30	280.32	0.50	83.08	6986.50	-6715.40	4832.81
Saccade R	1	16	5104441082	5104480829	39747	936.61	301.29	575.75	453.50	3.30	280.32	0.50	83.08	6986.50	-6715.40	4832.81
Fixation L	1	17	5104480829	5104659822	178993	538.82	463.62	77	21	-1	20.76	20.76
Fixation R	1	17	5104480829	5104659822	178993	538.82	463.62	77	21	-1	21.07	21.07
Saccade L	1	17	5104659822	5104719572	59750	512.94	463.60	521.81	499.92	1.35	46.43	0.67	22.61	1073.58	0.00	481.88
Saccade R	1	17	5104659822	5104719572	59750	512.94	463.60	521.81	499.92	1.35	46.43	0.67	22.61	1073.58	0.00	481.88
