[BeGaze]
Converted from:	C:\Documents and Settings\iViewX\Desktop\EXPERIMENTATIONS\Experiments\results\finaleart\S22H22551-finaleart-1.idf
Date:	27.03.2019 15:56:58
Version:	BeGaze 2.5.77
Sample Rate:	50
Subject:	S22H22551
Description:	Mathieu Chambre

Table Header for Fixations:
Event Type	Trial	Number	Start	End	Duration	Location X	Location Y	Dispersion X	Dispersion Y	Plane	Avg. Pupil Size X	Avg. Pupil Size Y

Table Header for Saccades:
Event Type	Trial	Number	Start	End	Duration	Start Loc.X	Start Loc.Y	End Loc.X	End Loc.Y	Amplitude	Peak Speed	Peak Speed At	Average Speed	Peak Accel.	Peak Decel.	Average Accel.

Table Header for Blinks:
Event Type	Trial	Number	Start	End	Duration

Table Header for User Events:
Event Type	Trial	Number	Start	Description

UserEvent	1	1	4779050050	# Message: void.jpg
Fixation L	1	1	4779069023	4779427139	358116	537.22	906.28	20	7	-1	18.56	18.56
Fixation R	1	1	4779069023	4779427139	358116	537.22	906.28	20	7	-1	19.75	19.75
Saccade L	1	1	4779427139	4779486751	59612	538.11	906.59	986.17	487.06	6.55	319.77	0.67	109.85	7972.08	-7492.40	5267.56
Saccade R	1	1	4779427139	4779486751	59612	538.11	906.59	986.17	487.06	6.55	319.77	0.67	109.85	7972.08	-7492.40	5267.56
Fixation L	1	2	4779486751	4779705520	218769	1010.82	468.69	35	31	-1	17.53	17.53
Fixation R	1	2	4779486751	4779705520	218769	1010.82	468.69	35	31	-1	18.36	18.36
Blink L	1	1	4779705520	4779884611	179091
Blink R	1	1	4779705520	4779884611	179091
Fixation L	1	3	4779884611	4780381864	497253	1110.44	417.50	39	43	-1	17.60	17.60
Fixation R	1	3	4779884611	4780381864	497253	1110.44	417.50	39	43	-1	18.64	18.64
Saccade L	1	2	4780381864	4780401711	19847	1109.80	435.85	1070.18	446.15	0.25	41.42	1.00	12.81	907.61	-513.39	491.74
Saccade R	1	2	4780381864	4780401711	19847	1109.80	435.85	1070.18	446.15	0.25	41.42	1.00	12.81	907.61	-513.39	491.74
Fixation L	1	4	4780401711	4780501203	99492	1083.90	455.12	65	27	-1	18.38	18.38
Fixation R	1	4	4780401711	4780501203	99492	1083.90	455.12	65	27	-1	19.35	19.35
Saccade L	1	3	4780501203	4780521077	19874	1072.27	473.94	1064.13	492.86	0.63	49.43	0.00	31.69	913.25	-30.48	419.32
Saccade R	1	3	4780501203	4780521077	19874	1072.27	473.94	1064.13	492.86	0.63	49.43	0.00	31.69	913.25	-30.48	419.32
Fixation L	1	5	4780521077	4780998433	477356	1086.02	485.76	71	27	-1	18.44	18.44
Fixation R	1	5	4780521077	4780998433	477356	1086.02	485.76	71	27	-1	18.93	18.93
Saccade L	1	4	4780998433	4781038177	39744	1040.12	484.52	1042.14	488.53	0.17	5.40	1.00	4.32	15.67	0.00	6.39
Saccade R	1	4	4780998433	4781038177	39744	1040.12	484.52	1042.14	488.53	0.17	5.40	1.00	4.32	15.67	0.00	6.39
