[BeGaze]
Converted from:	C:\Documents and Settings\iViewX\Desktop\EXPERIMENTATIONS\Experiments\results\finaleart\S22H22551-finaleart-1.idf
Date:	27.03.2019 15:56:47
Version:	BeGaze 2.5.77
Sample Rate:	50
Subject:	S22H22551
Description:	Mathieu Chambre

Table Header for Fixations:
Event Type	Trial	Number	Start	End	Duration	Location X	Location Y	Dispersion X	Dispersion Y	Plane	Avg. Pupil Size X	Avg. Pupil Size Y

Table Header for Saccades:
Event Type	Trial	Number	Start	End	Duration	Start Loc.X	Start Loc.Y	End Loc.X	End Loc.Y	Amplitude	Peak Speed	Peak Speed At	Average Speed	Peak Accel.	Peak Decel.	Average Accel.

Table Header for Blinks:
Event Type	Trial	Number	Start	End	Duration

Table Header for User Events:
Event Type	Trial	Number	Start	Description

UserEvent	1	1	4707338382	# Message: Poppy_Fields_near_Argenteuil_Monet_1875.jpg
Fixation L	1	1	4707345893	4707803372	457479	996.55	505.81	41	24	-1	21.60	21.60
Fixation R	1	1	4707345893	4707803372	457479	996.55	505.81	41	24	-1	21.21	21.21
Saccade L	1	1	4707803372	4707823239	19867	992.96	518.87	996.53	668.08	0.97	150.95	1.00	48.91	3709.56	-3686.47	2530.54
Saccade R	1	1	4707803372	4707823239	19867	992.96	518.87	996.53	668.08	0.97	150.95	1.00	48.91	3709.56	-3686.47	2530.54
Fixation L	1	2	4707823239	4708061972	238733	994.83	660.37	7	48	-1	18.92	18.92
Fixation R	1	2	4707823239	4708061972	238733	994.83	660.37	7	48	-1	18.68	18.68
Saccade L	1	2	4708061972	4708101719	39747	991.34	633.94	1211.96	671.06	2.01	133.40	0.50	50.47	2926.04	-3186.81	2649.83
Saccade R	1	2	4708061972	4708101719	39747	991.34	633.94	1211.96	671.06	2.01	133.40	0.50	50.47	2926.04	-3186.81	2649.83
Fixation L	1	3	4708101719	4708380207	278488	1230.08	677.37	70	26	-1	16.57	16.57
Fixation R	1	3	4708101719	4708380207	278488	1230.08	677.37	70	26	-1	16.07	16.07
Saccade L	1	3	4708380207	4708479710	99503	1278.52	694.48	775.12	473.13	7.63	305.48	0.80	76.64	7581.61	-7346.91	3977.60
Saccade R	1	3	4708380207	4708479710	99503	1278.52	694.48	775.12	473.13	7.63	305.48	0.80	76.64	7581.61	-7346.91	3977.60
Fixation L	1	4	4708479710	4708718314	238604	762.64	460.98	17	16	-1	16.27	16.27
Fixation R	1	4	4708479710	4708718314	238604	762.64	460.98	17	16	-1	16.00	16.00
Saccade L	1	4	4708718314	4708738183	19869	760.58	460.40	980.57	647.55	1.55	291.93	1.00	77.98	7201.36	-7110.84	4822.93
Saccade R	1	4	4708718314	4708738183	19869	760.58	460.40	980.57	647.55	1.55	291.93	1.00	77.98	7201.36	-7110.84	4822.93
Fixation L	1	5	4708738183	4709016671	278488	1001.46	662.32	59	23	-1	16.74	16.74
Fixation R	1	5	4708738183	4709016671	278488	1001.46	662.32	59	23	-1	16.32	16.32
Saccade L	1	5	4709016671	4709036552	19881	1040.48	668.88	1242.15	665.17	1.26	203.96	1.00	63.13	5036.16	-4990.01	3598.06
Saccade R	1	5	4709016671	4709036552	19881	1040.48	668.88	1242.15	665.17	1.26	203.96	1.00	63.13	5036.16	-4990.01	3598.06
Fixation L	1	6	4709036552	4709175785	139233	1237.68	668.84	11	8	-1	17.67	17.67
Fixation R	1	6	4709036552	4709175785	139233	1237.68	668.84	11	8	-1	17.28	17.28
Saccade L	1	6	4709175785	4709195670	19885	1244.38	666.58	1395.27	482.57	1.29	240.59	1.00	65.09	5926.15	-5929.90	4000.44
Saccade R	1	6	4709175785	4709195670	19885	1244.38	666.58	1395.27	482.57	1.29	240.59	1.00	65.09	5926.15	-5929.90	4000.44
Fixation L	1	7	4709195670	4709374655	178985	1398.21	482.60	7	15	-1	17.56	17.56
Fixation R	1	7	4709195670	4709374655	178985	1398.21	482.60	7	15	-1	17.38	17.38
Saccade L	1	7	4709374655	4709414532	39877	1396.55	485.03	1501.78	324.78	1.82	108.10	1.00	45.58	2569.47	-2632.05	2256.26
Saccade R	1	7	4709374655	4709414532	39877	1396.55	485.03	1501.78	324.78	1.82	108.10	1.00	45.58	2569.47	-2632.05	2256.26
Fixation L	1	8	4709414532	4709513903	99371	1485.77	339.67	21	23	-1	17.30	17.30
Fixation R	1	8	4709414532	4709513903	99371	1485.77	339.67	21	23	-1	16.80	16.80
Saccade L	1	8	4709513903	4709553641	39738	1482.47	348.06	1179.35	334.43	2.66	235.20	1.00	66.89	5764.54	-5705.71	3619.41
Saccade R	1	8	4709513903	4709553641	39738	1482.47	348.06	1179.35	334.43	2.66	235.20	1.00	66.89	5764.54	-5705.71	3619.41
Fixation L	1	9	4709553641	4709772507	218866	1192.25	288.47	24	62	-1	17.32	17.32
Fixation R	1	9	4709553641	4709772507	218866	1192.25	288.47	24	62	-1	16.33	16.33
Saccade L	1	9	4709772507	4709792389	19882	1203.61	271.80	991.30	274.40	1.13	214.69	1.00	57.05	5345.40	-5232.68	3545.44
Saccade R	1	9	4709772507	4709792389	19882	1203.61	271.80	991.30	274.40	1.13	214.69	1.00	57.05	5345.40	-5232.68	3545.44
Fixation L	1	10	4709792389	4709931636	139247	989.40	286.98	12	23	-1	17.19	17.19
Fixation R	1	10	4709792389	4709931636	139247	989.40	286.98	12	23	-1	16.45	16.45
Saccade L	1	10	4709931636	4709991245	59609	985.98	297.76	957.97	846.57	5.73	214.67	0.67	96.21	5285.41	-4933.34	3787.64
Saccade R	1	10	4709931636	4709991245	59609	985.98	297.76	957.97	846.57	5.73	214.67	0.67	96.21	5285.41	-4933.34	3787.64
Fixation L	1	11	4709991245	4710249855	258610	954.48	867.85	14	25	-1	18.15	18.15
Fixation R	1	11	4709991245	4710249855	258610	954.48	867.85	14	25	-1	17.50	17.50
Saccade L	1	11	4710249855	4710289610	39755	951.40	869.67	1265.75	873.66	2.55	206.18	0.50	64.22	5138.24	-5101.20	3933.27
Saccade R	1	11	4710249855	4710289610	39755	951.40	869.67	1265.75	873.66	2.55	206.18	0.50	64.22	5138.24	-5101.20	3933.27
Fixation L	1	12	4710289610	4710448727	159117	1262.13	882.46	6	20	-1	17.91	17.91
Fixation R	1	12	4710289610	4710448727	159117	1262.13	882.46	6	20	-1	17.25	17.25
Saccade L	1	12	4710448727	4710468595	19868	1261.54	891.85	1472.40	886.14	1.12	213.29	1.00	56.49	5302.27	-5213.84	3563.52
Saccade R	1	12	4710448727	4710468595	19868	1261.54	891.85	1472.40	886.14	1.12	213.29	1.00	56.49	5302.27	-5213.84	3563.52
Fixation L	1	13	4710468595	4710607842	139247	1479.85	871.51	11	30	-1	17.97	17.97
Fixation R	1	13	4710468595	4710607842	139247	1479.85	871.51	11	30	-1	17.16	17.16
Saccade L	1	13	4710607842	4710647714	39872	1475.84	856.02	1231.24	448.71	4.25	328.75	0.50	106.48	8158.99	-7659.02	5899.98
Saccade R	1	13	4710607842	4710647714	39872	1475.84	856.02	1231.24	448.71	4.25	328.75	0.50	106.48	8158.99	-7659.02	5899.98
Fixation L	1	14	4710647714	4710806853	159139	1206.83	462.28	31	19	-1	17.98	17.98
Fixation R	1	14	4710647714	4710806853	159139	1206.83	462.28	31	19	-1	17.18	17.18
Saccade L	1	14	4710806853	4710846577	39724	1204.48	465.24	675.16	458.67	4.34	315.00	0.50	109.22	7824.29	-7715.03	6616.54
Saccade R	1	14	4710806853	4710846577	39724	1204.48	465.24	675.16	458.67	4.34	315.00	0.50	109.22	7824.29	-7715.03	6616.54
Fixation L	1	15	4710846577	4711025572	178995	682.96	469.57	14	22	-1	18.57	18.57
Fixation R	1	15	4710846577	4711025572	178995	682.96	469.57	14	22	-1	17.69	17.69
Saccade L	1	15	4711025572	4711065318	39746	689.47	481.06	537.52	601.23	2.17	130.09	0.50	54.56	3150.55	-2739.33	2834.40
Saccade R	1	15	4711025572	4711065318	39746	689.47	481.06	537.52	601.23	2.17	130.09	0.50	54.56	3150.55	-2739.33	2834.40
Fixation L	1	16	4711065318	4711264184	198866	520.83	604.30	91	4	-1	18.50	18.50
Fixation R	1	16	4711065318	4711264184	198866	520.83	604.30	91	4	-1	18.36	18.36
Saccade L	1	16	4711264184	4711323929	59745	600.35	605.41	866.54	733.12	5.82	254.30	0.33	97.35	6335.84	-3056.01	2887.96
Saccade R	1	16	4711264184	4711323929	59745	600.35	605.41	866.54	733.12	5.82	254.30	0.33	97.35	6335.84	-3056.01	2887.96
