[BeGaze]
Converted from:	C:\Documents and Settings\iViewX\Desktop\EXPERIMENTATIONS\Experiments\results\finaleart\S22H22551-finaleart-1.idf
Date:	27.03.2019 15:59:04
Version:	BeGaze 2.5.77
Sample Rate:	50
Subject:	S22H22551
Description:	Mathieu Chambre

Table Header for Fixations:
Event Type	Trial	Number	Start	End	Duration	Location X	Location Y	Dispersion X	Dispersion Y	Plane	Avg. Pupil Size X	Avg. Pupil Size Y

Table Header for Saccades:
Event Type	Trial	Number	Start	End	Duration	Start Loc.X	Start Loc.Y	End Loc.X	End Loc.Y	Amplitude	Peak Speed	Peak Speed At	Average Speed	Peak Accel.	Peak Decel.	Average Accel.

Table Header for Blinks:
Event Type	Trial	Number	Start	End	Duration

Table Header for User Events:
Event Type	Trial	Number	Start	Description

UserEvent	1	1	5851539713	# Message: millet-the-bather-1848.jpg
Fixation L	1	1	5851557217	5851994821	437604	977.08	407.95	61	9	-1	16.92	16.92
Fixation R	1	1	5851557217	5851994821	437604	977.08	407.95	61	9	-1	17.48	17.48
Saccade L	1	1	5851994821	5852014702	19881	930.50	405.91	889.03	414.57	0.50	45.92	0.00	24.98	1056.78	-883.52	911.10
Saccade R	1	1	5851994821	5852014702	19881	930.50	405.91	889.03	414.57	0.50	45.92	0.00	24.98	1056.78	-883.52	911.10
Fixation L	1	2	5852014702	5852233546	218844	883.52	439.25	16	37	-1	17.32	17.32
Fixation R	1	2	5852014702	5852233546	218844	883.52	439.25	16	37	-1	17.63	17.63
Saccade L	1	2	5852233546	5852253421	19875	875.74	452.55	873.52	593.94	0.76	143.03	1.00	38.09	3522.40	-3370.68	2300.91
Saccade R	1	2	5852233546	5852253421	19875	875.74	452.55	873.52	593.94	0.76	143.03	1.00	38.09	3522.40	-3370.68	2300.91
Fixation L	1	3	5852253421	5852551774	298353	871.05	610.36	5	22	-1	17.76	17.76
Fixation R	1	3	5852253421	5852551774	298353	871.05	610.36	5	22	-1	18.08	18.08
Saccade L	1	3	5852551774	5852591532	39758	871.88	615.39	870.08	800.80	1.55	108.05	1.00	38.98	2688.94	-2653.25	2286.70
Saccade R	1	3	5852551774	5852591532	39758	871.88	615.39	870.08	800.80	1.55	108.05	1.00	38.98	2688.94	-2653.25	2286.70
Fixation L	1	4	5852591532	5852830275	238743	868.30	798.12	5	7	-1	17.66	17.66
Fixation R	1	4	5852591532	5852830275	238743	868.30	798.12	5	7	-1	18.34	18.34
Saccade L	1	4	5852830275	5852850140	19865	867.92	803.07	861.60	926.86	0.90	125.38	1.00	45.33	3103.30	-2991.18	2436.68
Saccade R	1	4	5852830275	5852850140	19865	867.92	803.07	861.60	926.86	0.90	125.38	1.00	45.33	3103.30	-2991.18	2436.68
Fixation L	1	5	5852850140	5853029132	178992	813.84	923.42	59	12	-1	18.13	18.13
Fixation R	1	5	5852850140	5853029132	178992	813.84	923.42	59	12	-1	18.99	18.99
Saccade L	1	5	5853029132	5853088755	59623	801.95	923.23	355.37	1038.70	4.85	315.74	0.67	81.34	7785.66	-7512.77	4197.72
Saccade R	1	5	5853029132	5853088755	59623	801.95	923.23	355.37	1038.70	4.85	315.74	0.67	81.34	7785.66	-7512.77	4197.72
Fixation L	1	6	5853088755	5853247868	159113	372.39	1046.29	25	11	-1	18.33	18.33
Fixation R	1	6	5853088755	5853247868	159113	372.39	1046.29	25	11	-1	19.45	19.45
Saccade L	1	6	5853247868	5853307611	59743	381.14	1048.55	1296.57	1002.16	9.64	366.66	0.33	161.32	9121.11	-7475.25	6659.89
Saccade R	1	6	5853247868	5853307611	59743	381.14	1048.55	1296.57	1002.16	9.64	366.66	0.33	161.32	9121.11	-7475.25	6659.89
Fixation L	1	7	5853307611	5853466731	159120	1338.51	998.65	52	31	-1	18.86	18.86
Fixation R	1	7	5853307611	5853466731	159120	1338.51	998.65	52	31	-1	19.21	19.21
Saccade L	1	7	5853466731	5853506476	39745	1347.67	988.31	1533.49	1040.48	3.73	304.28	0.50	93.74	7575.29	-6400.94	4784.78
Saccade R	1	7	5853466731	5853506476	39745	1347.67	988.31	1533.49	1040.48	3.73	304.28	0.50	93.74	7575.29	-6400.94	4784.78
Fixation L	1	8	5853506476	5853645725	139249	1559.59	1065.62	44	37	-1	18.77	18.77
Fixation R	1	8	5853506476	5853645725	139249	1559.59	1065.62	44	37	-1	19.08	19.08
Saccade L	1	8	5853645725	5853705352	59627	1560.77	1067.44	1478.18	663.22	5.31	213.01	0.33	88.99	5033.43	-3963.09	3276.78
Saccade R	1	8	5853645725	5853705352	59627	1560.77	1067.44	1478.18	663.22	5.31	213.01	0.33	88.99	5033.43	-3963.09	3276.78
Fixation L	1	9	5853705352	5853844586	139234	1481.25	617.40	26	68	-1	18.58	18.58
Fixation R	1	9	5853705352	5853844586	139234	1481.25	617.40	26	68	-1	18.89	18.89
Saccade L	1	9	5853844586	5853884340	39754	1474.45	621.92	1446.72	418.22	1.80	191.40	1.00	45.33	4615.97	-4679.31	2464.06
Saccade R	1	9	5853844586	5853884340	39754	1474.45	621.92	1446.72	418.22	1.80	191.40	1.00	45.33	4615.97	-4679.31	2464.06
Fixation L	1	10	5853884340	5854083329	198989	1425.71	418.75	38	17	-1	18.72	18.72
Fixation R	1	10	5853884340	5854083329	198989	1425.71	418.75	38	17	-1	19.16	19.16
Saccade L	1	10	5854083329	5854103200	19871	1414.50	412.91	1481.74	289.06	0.96	142.53	1.00	48.29	3473.54	-3545.10	2461.90
Saccade R	1	10	5854083329	5854103200	19871	1414.50	412.91	1481.74	289.06	0.96	142.53	1.00	48.29	3473.54	-3545.10	2461.90
Fixation L	1	11	5854103200	5854222570	119370	1496.80	312.50	20	35	-1	18.43	18.43
Fixation R	1	11	5854103200	5854222570	119370	1496.80	312.50	20	35	-1	19.31	19.31
Saccade L	1	11	5854222570	5854282193	59623	1493.89	324.32	1127.88	186.69	4.37	284.06	0.67	73.28	6921.08	-6508.26	3435.93
Saccade R	1	11	5854222570	5854282193	59623	1493.89	324.32	1127.88	186.69	4.37	284.06	0.67	73.28	6921.08	-6508.26	3435.93
Fixation L	1	12	5854282193	5854560676	278483	1101.01	160.64	32	33	-1	19.09	19.09
Fixation R	1	12	5854282193	5854560676	278483	1101.01	160.64	32	33	-1	19.28	19.28
Saccade L	1	12	5854560676	5854580553	19877	1098.32	158.70	1316.97	134.99	1.33	222.37	1.00	67.14	5494.29	-4505.61	3669.28
Saccade R	1	12	5854560676	5854580553	19877	1098.32	158.70	1316.97	134.99	1.33	222.37	1.00	67.14	5494.29	-4505.61	3669.28
Fixation L	1	13	5854580553	5854998158	417605	1317.42	130.18	46	51	-1	18.83	18.83
Fixation R	1	13	5854580553	5854998158	417605	1317.42	130.18	46	51	-1	19.65	19.65
Saccade L	1	13	5854998158	5855018153	19995	1345.27	145.33	1345.17	148.06	0.10	7.87	0.00	5.02	-49.60	-105.48	76.92
Saccade R	1	13	5854998158	5855018153	19995	1345.27	145.33	1345.17	148.06	0.10	7.87	0.00	5.02	-49.60	-105.48	76.92
Fixation L	1	14	5855018153	5855197144	178991	1347.70	151.26	5	7	-1	18.91	18.91
Fixation R	1	14	5855018153	5855197144	178991	1347.70	151.26	5	7	-1	19.90	19.90
Saccade L	1	14	5855197144	5855217018	19874	1350.19	155.22	1141.98	155.04	1.44	210.53	1.00	72.35	5238.41	-4917.21	3947.44
Saccade R	1	14	5855197144	5855217018	19874	1350.19	155.22	1141.98	155.04	1.44	210.53	1.00	72.35	5238.41	-4917.21	3947.44
Fixation L	1	15	5855217018	5855376139	159121	1087.85	148.36	71	22	-1	19.25	19.25
Fixation R	1	15	5855217018	5855376139	159121	1087.85	148.36	71	22	-1	19.77	19.77
Saccade L	1	15	5855376139	5855415884	39745	1082.44	134.19	866.65	491.09	3.74	291.66	1.00	94.09	7186.79	-6700.81	4818.04
Saccade R	1	15	5855376139	5855415884	39745	1082.44	134.19	866.65	491.09	3.74	291.66	1.00	94.09	7186.79	-6700.81	4818.04
Fixation L	1	16	5855415884	5855535265	119381	878.75	476.18	17	36	-1	19.56	19.56
Fixation R	1	16	5855415884	5855535265	119381	878.75	476.18	17	36	-1	20.24	20.24
