[BeGaze]
Converted from:	C:\Documents and Settings\iViewX\Desktop\EXPERIMENTATIONS\Experiments\results\finaleart\S22H22551-finaleart-1.idf
Date:	27.03.2019 15:56:42
Version:	BeGaze 2.5.77
Sample Rate:	50
Subject:	S22H22551
Description:	Mathieu Chambre

Table Header for Fixations:
Event Type	Trial	Number	Start	End	Duration	Location X	Location Y	Dispersion X	Dispersion Y	Plane	Avg. Pupil Size X	Avg. Pupil Size Y

Table Header for Saccades:
Event Type	Trial	Number	Start	End	Duration	Start Loc.X	Start Loc.Y	End Loc.X	End Loc.Y	Amplitude	Peak Speed	Peak Speed At	Average Speed	Peak Accel.	Peak Decel.	Average Accel.

Table Header for Blinks:
Event Type	Trial	Number	Start	End	Duration

Table Header for User Events:
Event Type	Trial	Number	Start	Description

UserEvent	1	1	4645059396	# Message: void.jpg
Saccade L	1	1	4645070534	4645130279	59745	1446.03	686.65	1097.53	845.13	4.67	250.22	0.67	78.15	6255.49	-6207.65	3845.02
Saccade R	1	1	4645070534	4645130279	59745	1446.03	686.65	1097.53	845.13	4.67	250.22	0.67	78.15	6255.49	-6207.65	3845.02
Fixation L	1	1	4645130279	4645428499	298220	1091.18	841.65	32	20	-1	22.36	22.36
Fixation R	1	1	4645130279	4645428499	298220	1091.18	841.65	32	20	-1	22.19	22.19
Saccade L	1	2	4645428499	4645448373	19874	1065.05	825.33	964.17	611.50	1.36	239.04	1.00	68.40	5955.67	-5876.66	4147.08
Saccade R	1	2	4645428499	4645448373	19874	1065.05	825.33	964.17	611.50	1.36	239.04	1.00	68.40	5955.67	-5876.66	4147.08
Fixation L	1	2	4645448373	4645706975	258602	957.17	609.17	46	51	-1	20.54	20.54
Fixation R	1	2	4645448373	4645706975	258602	957.17	609.17	46	51	-1	20.66	20.66
Saccade L	1	3	4645706975	4645726845	19870	973.88	565.70	987.02	533.58	0.53	59.33	0.00	26.80	718.38	-1323.92	892.87
Saccade R	1	3	4645706975	4645726845	19870	973.88	565.70	987.02	533.58	0.53	59.33	0.00	26.80	718.38	-1323.92	892.87
Fixation L	1	3	4645726845	4646005334	278489	998.42	531.15	15	19	-1	18.38	18.38
Fixation R	1	3	4645726845	4646005334	278489	998.42	531.15	15	19	-1	18.67	18.67
Blink L	1	1	4646005334	4646164451	159117
Blink R	1	1	4646005334	4646164451	159117
Fixation L	1	4	4646164451	4646323559	159108	1014.54	485.16	13	82	-1	18.95	18.95
Fixation R	1	4	4646164451	4646323559	159108	1014.54	485.16	13	82	-1	19.93	19.93
Saccade L	1	4	4646323559	4646343432	19873	1017.13	483.09	1023.38	487.44	0.11	11.17	1.00	5.71	229.23	-71.18	148.09
Saccade R	1	4	4646323559	4646343432	19873	1017.13	483.09	1023.38	487.44	0.11	11.17	1.00	5.71	229.23	-71.18	148.09
Fixation L	1	5	4646343432	4647059549	716117	1008.83	504.84	45	31	-1	19.40	19.40
Fixation R	1	5	4646343432	4647059549	716117	1008.83	504.84	45	31	-1	20.30	20.30
