[BeGaze]
Converted from:	C:\Documents and Settings\iViewX\Desktop\EXPERIMENTATIONS\Experiments\results\finaleart\S22H22551-finaleart-1.idf
Date:	27.03.2019 15:58:59
Version:	BeGaze 2.5.77
Sample Rate:	50
Subject:	S22H22551
Description:	Mathieu Chambre

Table Header for Fixations:
Event Type	Trial	Number	Start	End	Duration	Location X	Location Y	Dispersion X	Dispersion Y	Plane	Avg. Pupil Size X	Avg. Pupil Size Y

Table Header for Saccades:
Event Type	Trial	Number	Start	End	Duration	Start Loc.X	Start Loc.Y	End Loc.X	End Loc.Y	Amplitude	Peak Speed	Peak Speed At	Average Speed	Peak Accel.	Peak Decel.	Average Accel.

Table Header for Blinks:
Event Type	Trial	Number	Start	End	Duration

Table Header for User Events:
Event Type	Trial	Number	Start	Description

UserEvent	1	1	5820779650	# Message: luxe-calme-et-volupté_matisse_1905.jpg
Fixation L	1	1	5820787560	5821284787	497227	1029.95	420.22	57	39	-1	15.08	15.08
Fixation R	1	1	5820787560	5821284787	497227	1029.95	420.22	57	39	-1	15.25	15.25
Saccade L	1	1	5821284787	5821304678	19891	1073.33	447.36	1068.51	500.97	0.66	62.11	0.00	33.04	1293.46	-1229.99	1237.52
Saccade R	1	1	5821284787	5821304678	19891	1073.33	447.36	1068.51	500.97	0.66	62.11	0.00	33.04	1293.46	-1229.99	1237.52
Fixation L	1	2	5821304678	5821443896	139218	1084.32	508.15	42	53	-1	13.63	13.63
Fixation R	1	2	5821304678	5821443896	139218	1084.32	508.15	42	53	-1	13.62	13.62
Saccade L	1	2	5821443896	5821463763	19867	1111.23	545.89	1131.44	586.92	0.52	49.54	0.00	26.21	1091.16	-1078.75	958.45
Saccade R	1	2	5821443896	5821463763	19867	1111.23	545.89	1131.44	586.92	0.52	49.54	0.00	26.21	1091.16	-1078.75	958.45
Fixation L	1	3	5821463763	5821742259	278496	1150.38	597.06	39	55	-1	11.97	11.97
Fixation R	1	3	5821463763	5821742259	278496	1150.38	597.06	39	55	-1	12.16	12.16
Saccade L	1	3	5821742259	5821762133	19874	1170.61	635.79	1175.07	644.86	0.18	12.47	1.00	9.04	-55.98	-223.76	122.17
Saccade R	1	3	5821742259	5821762133	19874	1170.61	635.79	1175.07	644.86	0.18	12.47	1.00	9.04	-55.98	-223.76	122.17
Fixation L	1	4	5821762133	5821901377	139244	1182.00	648.37	10	6	-1	11.48	11.48
Fixation R	1	4	5821762133	5821901377	139244	1182.00	648.37	10	6	-1	11.63	11.63
Saccade L	1	4	5821901377	5821921246	19869	1185.59	650.98	1199.98	722.14	0.46	73.44	1.00	23.07	1797.25	-1561.07	1249.84
Saccade R	1	4	5821901377	5821921246	19869	1185.59	650.98	1199.98	722.14	0.46	73.44	1.00	23.07	1797.25	-1561.07	1249.84
Fixation L	1	5	5821921246	5822100251	179005	1213.69	720.61	42	24	-1	11.55	11.55
Fixation R	1	5	5821921246	5822100251	179005	1213.69	720.61	42	24	-1	11.64	11.64
Saccade L	1	5	5822100251	5822120114	19863	1182.20	736.60	946.43	816.28	1.59	251.60	1.00	80.23	6111.35	-5613.93	4143.68
Saccade R	1	5	5822100251	5822120114	19863	1182.20	736.60	946.43	816.28	1.59	251.60	1.00	80.23	6111.35	-5613.93	4143.68
Fixation L	1	6	5822120114	5822378734	258620	923.31	812.70	32	38	-1	11.15	11.15
Fixation R	1	6	5822120114	5822378734	258620	923.31	812.70	32	38	-1	11.77	11.77
Saccade L	1	6	5822378734	5822418473	39739	920.49	815.01	700.28	707.20	2.26	153.18	0.50	56.76	3778.23	-3381.25	3025.38
Saccade R	1	6	5822378734	5822418473	39739	920.49	815.01	700.28	707.20	2.26	153.18	0.50	56.76	3778.23	-3381.25	3025.38
Fixation L	1	7	5822418473	5822597466	178993	702.59	720.39	7	17	-1	11.55	11.55
Fixation R	1	7	5822418473	5822597466	178993	702.59	720.39	7	17	-1	12.13	12.13
Saccade L	1	7	5822597466	5822617341	19875	704.73	723.34	628.75	815.29	0.84	120.65	1.00	42.36	2869.64	-2828.99	2236.56
Saccade R	1	7	5822597466	5822617341	19875	704.73	723.34	628.75	815.29	0.84	120.65	1.00	42.36	2869.64	-2828.99	2236.56
Fixation L	1	8	5822617341	5822796480	179139	601.55	789.89	34	37	-1	11.60	11.60
Fixation R	1	8	5822617341	5822796480	179139	601.55	789.89	34	37	-1	12.22	12.22
Saccade L	1	8	5822796480	5822836203	39723	595.56	788.48	375.40	684.09	2.13	129.81	1.00	53.60	3223.49	-3151.10	3166.16
Saccade R	1	8	5822796480	5822836203	39723	595.56	788.48	375.40	684.09	2.13	129.81	1.00	53.60	3223.49	-3151.10	3166.16
Fixation L	1	9	5822836203	5823035068	198865	372.61	677.41	7	15	-1	11.72	11.72
Fixation R	1	9	5822836203	5823035068	198865	372.61	677.41	7	15	-1	12.20	12.20
Saccade L	1	9	5823035068	5823074815	39747	377.01	688.11	457.17	994.95	2.81	231.05	0.50	70.59	5712.25	-5449.35	3811.50
Saccade R	1	9	5823035068	5823074815	39747	377.01	688.11	457.17	994.95	2.81	231.05	0.50	70.59	5712.25	-5449.35	3811.50
Fixation L	1	10	5823074815	5823293679	218864	475.70	1009.65	30	21	-1	11.85	11.85
Fixation R	1	10	5823074815	5823293679	218864	475.70	1009.65	30	21	-1	12.73	12.73
Saccade L	1	10	5823293679	5823313550	19871	487.36	1016.57	645.34	1015.19	0.85	159.78	1.00	42.89	3979.79	-3932.96	2653.19
Saccade R	1	10	5823293679	5823313550	19871	487.36	1016.57	645.34	1015.19	0.85	159.78	1.00	42.89	3979.79	-3932.96	2653.19
Fixation L	1	11	5823313550	5823572170	258620	645.97	999.97	9	32	-1	12.43	12.43
Fixation R	1	11	5823313550	5823572170	258620	645.97	999.97	9	32	-1	13.53	13.53
Saccade L	1	11	5823572170	5823592034	19864	646.36	982.30	732.78	983.68	0.50	87.43	1.00	25.17	2116.09	-1838.03	1349.31
Saccade R	1	11	5823572170	5823592034	19864	646.36	982.30	732.78	983.68	0.50	87.43	1.00	25.17	2116.09	-1838.03	1349.31
Fixation L	1	12	5823592034	5823731283	139249	739.86	987.19	20	13	-1	12.93	12.93
Fixation R	1	12	5823592034	5823731283	139249	739.86	987.19	20	13	-1	13.64	13.64
Saccade L	1	12	5823731283	5823771026	39743	741.16	994.20	1051.24	990.33	2.57	186.19	0.50	64.64	4603.67	-4560.02	3852.07
Saccade R	1	12	5823731283	5823771026	39743	741.16	994.20	1051.24	990.33	2.57	186.19	0.50	64.64	4603.67	-4560.02	3852.07
Fixation L	1	13	5823771026	5823910269	139243	1048.07	988.41	15	6	-1	12.94	12.94
Fixation R	1	13	5823771026	5823910269	139243	1048.07	988.41	15	6	-1	13.19	13.19
Saccade L	1	13	5823910269	5823950022	39753	1059.48	983.69	1453.92	770.37	3.82	342.31	0.50	96.08	8508.40	-8347.12	5507.67
Saccade R	1	13	5823910269	5823950022	39753	1059.48	983.69	1453.92	770.37	3.82	342.31	0.50	96.08	8508.40	-8347.12	5507.67
Fixation L	1	14	5823950022	5824089267	139245	1452.51	775.57	9	8	-1	12.75	12.75
Fixation R	1	14	5823950022	5824089267	139245	1452.51	775.57	9	8	-1	12.58	12.58
Saccade L	1	14	5824089267	5824148888	59621	1448.65	779.00	1245.95	272.21	5.70	322.53	0.67	95.60	8017.87	-7622.23	4561.37
Saccade R	1	14	5824089267	5824148888	59621	1448.65	779.00	1245.95	272.21	5.70	322.53	0.67	95.60	8017.87	-7622.23	4561.37
Fixation L	1	15	5824148888	5824288126	139238	1242.09	307.64	14	65	-1	11.99	11.99
Fixation R	1	15	5824148888	5824288126	139238	1242.09	307.64	14	65	-1	12.22	12.22
Saccade L	1	15	5824288126	5824327873	39747	1234.00	338.17	836.94	347.85	3.38	232.22	1.00	84.92	5472.28	-5460.92	4803.37
Saccade R	1	15	5824288126	5824327873	39747	1234.00	338.17	836.94	347.85	3.38	232.22	1.00	84.92	5472.28	-5460.92	4803.37
Fixation L	1	16	5824327873	5824486994	159121	815.61	363.80	30	27	-1	12.01	12.01
Fixation R	1	16	5824327873	5824486994	159121	815.61	363.80	30	27	-1	12.04	12.04
Saccade L	1	16	5824486994	5824526866	39872	807.03	375.27	482.51	443.25	2.92	167.91	0.50	73.22	4129.31	-4022.61	3958.86
Saccade R	1	16	5824486994	5824526866	39872	807.03	375.27	482.51	443.25	2.92	167.91	0.50	73.22	4129.31	-4022.61	3958.86
Fixation L	1	17	5824526866	5824665981	139115	495.03	471.49	17	39	-1	12.26	12.26
Fixation R	1	17	5824526866	5824665981	139115	495.03	471.49	17	39	-1	12.44	12.44
Saccade L	1	17	5824665981	5824765471	99490	497.17	480.02	777.45	136.39	6.92	235.22	0.20	69.51	5792.93	-5758.59	3851.79
Saccade R	1	17	5824665981	5824765471	99490	497.17	480.02	777.45	136.39	6.92	235.22	0.20	69.51	5792.93	-5758.59	3851.79
