[BeGaze]
Converted from:	C:\Documents and Settings\iViewX\Desktop\EXPERIMENTATIONS\Experiments\results\finaleart\S22H22551-finaleart-1.idf
Date:	27.03.2019 15:58:20
Version:	BeGaze 2.5.77
Sample Rate:	50
Subject:	S22H22551
Description:	Mathieu Chambre

Table Header for Fixations:
Event Type	Trial	Number	Start	End	Duration	Location X	Location Y	Dispersion X	Dispersion Y	Plane	Avg. Pupil Size X	Avg. Pupil Size Y

Table Header for Saccades:
Event Type	Trial	Number	Start	End	Duration	Start Loc.X	Start Loc.Y	End Loc.X	End Loc.Y	Amplitude	Peak Speed	Peak Speed At	Average Speed	Peak Accel.	Peak Decel.	Average Accel.

Table Header for Blinks:
Event Type	Trial	Number	Start	End	Duration

Table Header for User Events:
Event Type	Trial	Number	Start	Description

UserEvent	1	1	5436833616	# Message: void.jpg
Saccade L	1	1	5436837532	5436917162	79630	1745.97	219.12	1514.50	125.96	4.06	152.42	0.75	50.96	3650.25	-2981.43	1821.20
Saccade R	1	1	5436837532	5436917162	79630	1745.97	219.12	1514.50	125.96	4.06	152.42	0.75	50.96	3650.25	-2981.43	1821.20
Fixation L	1	1	5436917162	5437056399	139237	1526.01	131.41	19	50	-1	19.62	19.62
Fixation R	1	1	5436917162	5437056399	139237	1526.01	131.41	19	50	-1	19.72	19.72
Saccade L	1	2	5437056399	5437116014	59615	1527.94	149.57	1018.49	109.02	5.58	336.89	0.67	93.64	8098.99	-8004.75	4182.54
Saccade R	1	2	5437056399	5437116014	59615	1527.94	149.57	1018.49	109.02	5.58	336.89	0.67	93.64	8098.99	-8004.75	4182.54
Fixation L	1	2	5437116014	5437374635	258621	1021.45	127.54	18	36	-1	19.95	19.95
Fixation R	1	2	5437116014	5437374635	258621	1021.45	127.54	18	36	-1	20.26	20.26
Blink L	1	1	5437493873	5437573488	79615
Blink R	1	1	5437493873	5437573488	79615
Fixation L	1	3	5437573488	5437673001	99513	1021.70	384.92	4	36	-1	16.83	16.83
Fixation R	1	3	5437573488	5437673001	99513	1021.70	384.92	4	36	-1	17.87	17.87
Saccade L	1	3	5437673001	5437891735	218734	1022.56	396.06	1026.89	382.22	10.84	112.34	0.36	49.57	2628.66	-2597.17	1187.49
Saccade R	1	3	5437673001	5437891735	218734	1022.56	396.06	1026.89	382.22	10.84	112.34	0.36	49.57	2628.66	-2597.17	1187.49
Fixation L	1	4	5437891735	5438349206	457471	1016.23	397.80	55	37	-1	16.14	16.14
Fixation R	1	4	5437891735	5438349206	457471	1016.23	397.80	55	37	-1	17.07	17.07
Saccade L	1	4	5438349206	5438369079	19873	981.81	417.65	980.25	424.57	0.14	9.10	1.00	6.86	70.63	-36.72	55.00
Saccade R	1	4	5438349206	5438369079	19873	981.81	417.65	980.25	424.57	0.14	9.10	1.00	6.86	70.63	-36.72	55.00
Fixation L	1	5	5438369079	5438826559	457480	981.78	417.54	9	13	-1	16.33	16.33
Fixation R	1	5	5438369079	5438826559	457480	981.78	417.54	9	13	-1	16.82	16.82
