[BeGaze]
Converted from:	C:\Documents and Settings\iViewX\Desktop\EXPERIMENTATIONS\Experiments\results\finaleart\S22H22551-finaleart-1.idf
Date:	27.03.2019 15:59:07
Version:	BeGaze 2.5.77
Sample Rate:	50
Subject:	S22H22551
Description:	Mathieu Chambre

Table Header for Fixations:
Event Type	Trial	Number	Start	End	Duration	Location X	Location Y	Dispersion X	Dispersion Y	Plane	Avg. Pupil Size X	Avg. Pupil Size Y

Table Header for Saccades:
Event Type	Trial	Number	Start	End	Duration	Start Loc.X	Start Loc.Y	End Loc.X	End Loc.Y	Amplitude	Peak Speed	Peak Speed At	Average Speed	Peak Accel.	Peak Decel.	Average Accel.

Table Header for Blinks:
Event Type	Trial	Number	Start	End	Duration

Table Header for User Events:
Event Type	Trial	Number	Start	Description

UserEvent	1	1	5873961252	# Message: void.jpg
Fixation L	1	1	5873973167	5874430642	457475	1047.90	379.72	51	29	-1	15.51	15.51
Fixation R	1	1	5873973167	5874430642	457475	1047.90	379.72	51	29	-1	16.15	16.15
Blink L	1	1	5874430642	5874669381	238739
Blink R	1	1	5874430642	5874669381	238739
Fixation L	1	2	5874669381	5874788640	119259	1139.62	284.96	17	72	-1	12.53	12.53
Fixation R	1	2	5874669381	5874788640	119259	1139.62	284.96	17	72	-1	15.21	15.21
Blink L	1	2	5874788640	5875007495	218855
Blink R	1	2	5874788640	5875007495	218855
Blink L	1	3	5875007495	5875086988	79493
Fixation R	1	3	5875007495	5875305846	298351	1191.69	237.77	40	54	-1	15.78	15.78
Fixation L	1	3	5875086988	5875305846	218858	1187.76	238.41	39	54	-1	16.24	16.24
Saccade L	1	1	5875305846	5875325726	19880	1168.36	270.22	1160.14	276.49	0.17	10.46	1.00	8.73	21.47	-115.80	49.56
Saccade R	1	1	5875305846	5875325726	19880	1168.36	270.22	1160.14	276.49	0.17	10.46	1.00	8.73	21.47	-115.80	49.56
Fixation L	1	4	5875325726	5875504715	178989	1131.49	296.90	53	44	-1	15.78	15.78
Fixation R	1	4	5875325726	5875504715	178989	1131.49	296.90	53	44	-1	15.23	15.23
Saccade L	1	2	5875504715	5875524587	19872	1106.53	320.77	1103.89	317.25	0.12	9.33	1.00	5.97	-36.35	-121.94	65.39
Saccade R	1	2	5875504715	5875524587	19872	1106.53	320.77	1103.89	317.25	0.12	9.33	1.00	5.97	-36.35	-121.94	65.39
Fixation L	1	5	5875524587	5875942313	417726	1093.50	323.52	58	11	-1	14.31	14.31
Fixation R	1	5	5875524587	5875942313	417726	1093.50	323.52	58	11	-1	14.12	14.12
