[BeGaze]
Converted from:	C:\Documents and Settings\iViewX\Desktop\EXPERIMENTATIONS\Experiments\results\finaleart\S22H22551-finaleart-1.idf
Date:	27.03.2019 15:57:55
Version:	BeGaze 2.5.77
Sample Rate:	50
Subject:	S22H22551
Description:	Mathieu Chambre

Table Header for Fixations:
Event Type	Trial	Number	Start	End	Duration	Location X	Location Y	Dispersion X	Dispersion Y	Plane	Avg. Pupil Size X	Avg. Pupil Size Y

Table Header for Saccades:
Event Type	Trial	Number	Start	End	Duration	Start Loc.X	Start Loc.Y	End Loc.X	End Loc.Y	Amplitude	Peak Speed	Peak Speed At	Average Speed	Peak Accel.	Peak Decel.	Average Accel.

Table Header for Blinks:
Event Type	Trial	Number	Start	End	Duration

Table Header for User Events:
Event Type	Trial	Number	Start	Description

UserEvent	1	1	5239718072	# Message: void.jpg
Fixation L	1	1	5239718673	5239937394	218721	858.38	414.81	12	29	-1	20.00	20.00
Fixation R	1	1	5239718673	5239937394	218721	858.38	414.81	12	29	-1	20.85	20.85
Saccade L	1	1	5239937394	5239957281	19887	865.17	411.32	1040.94	578.69	1.32	245.38	1.00	66.56	6048.84	-5920.27	4031.57
Saccade R	1	1	5239937394	5239957281	19887	865.17	411.32	1040.94	578.69	1.32	245.38	1.00	66.56	6048.84	-5920.27	4031.57
Fixation L	1	2	5239957281	5240156140	198859	1049.77	588.70	14	19	-1	20.86	20.86
Fixation R	1	2	5239957281	5240156140	198859	1049.77	588.70	14	19	-1	21.36	21.36
Blink L	1	1	5240156140	5240375004	218864
Blink R	1	1	5240156140	5240375004	218864
Fixation L	1	3	5240375004	5241309827	934823	1130.82	373.64	32	60	-1	19.75	19.75
Fixation R	1	3	5240375004	5241309827	934823	1130.82	373.64	32	60	-1	19.64	19.64
Saccade L	1	2	5241309827	5241329708	19881	1149.34	358.30	1109.42	358.67	0.26	40.38	1.00	12.99	974.90	-774.27	640.80
Saccade R	1	2	5241309827	5241329708	19881	1149.34	358.30	1109.42	358.67	0.26	40.38	1.00	12.99	974.90	-774.27	640.80
Fixation L	1	4	5241329708	5241548449	218741	1096.55	370.76	30	26	-1	19.74	19.74
Fixation R	1	4	5241329708	5241548449	218741	1096.55	370.76	30	26	-1	19.60	19.60
Saccade L	1	3	5241548449	5241568321	19872	1087.15	385.01	973.42	388.34	0.61	115.08	1.00	30.82	2844.65	-2812.72	1906.57
Saccade R	1	3	5241548449	5241568321	19872	1087.15	385.01	973.42	388.34	0.61	115.08	1.00	30.82	2844.65	-2812.72	1906.57
Fixation L	1	5	5241568321	5241707571	139250	972.48	396.99	3	20	-1	20.01	20.01
Fixation R	1	5	5241568321	5241707571	139250	972.48	396.99	3	20	-1	19.92	19.92
