[BeGaze]
Converted from:	C:\Documents and Settings\iViewX\Desktop\EXPERIMENTATIONS\Experiments\results\finaleart\S22H22551-finaleart-1.idf
Date:	27.03.2019 15:57:46
Version:	BeGaze 2.5.77
Sample Rate:	50
Subject:	S22H22551
Description:	Mathieu Chambre

Table Header for Fixations:
Event Type	Trial	Number	Start	End	Duration	Location X	Location Y	Dispersion X	Dispersion Y	Plane	Avg. Pupil Size X	Avg. Pupil Size Y

Table Header for Saccades:
Event Type	Trial	Number	Start	End	Duration	Start Loc.X	Start Loc.Y	End Loc.X	End Loc.Y	Amplitude	Peak Speed	Peak Speed At	Average Speed	Peak Accel.	Peak Decel.	Average Accel.

Table Header for Blinks:
Event Type	Trial	Number	Start	End	Duration

Table Header for User Events:
Event Type	Trial	Number	Start	Description

UserEvent	1	1	5178400422	# Message: void.jpg
Saccade L	1	1	5178417850	5178457604	39754	293.13	474.32	916.98	477.26	6.94	339.28	1.00	174.49	8482.06	-8328.13	5605.31
Saccade R	1	1	5178417850	5178457604	39754	293.13	474.32	916.98	477.26	6.94	339.28	1.00	174.49	8482.06	-8328.13	5605.31
Fixation L	1	1	5178457604	5178676469	218865	983.15	482.27	75	11	-1	15.45	15.45
Fixation R	1	1	5178457604	5178676469	218865	983.15	482.27	75	11	-1	16.21	16.21
Saccade L	1	2	5178676469	5178716216	39747	992.55	476.00	1156.21	339.80	1.85	147.87	1.00	46.44	3667.10	-3594.81	2579.44
Saccade R	1	2	5178676469	5178716216	39747	992.55	476.00	1156.21	339.80	1.85	147.87	1.00	46.44	3667.10	-3594.81	2579.44
Fixation L	1	2	5178716216	5178875329	159113	1154.57	349.10	5	12	-1	15.16	15.16
Fixation R	1	2	5178716216	5178875329	159113	1154.57	349.10	5	12	-1	15.64	15.64
Blink L	1	1	5178875329	5179114088	238759
Blink R	1	1	5178875329	5179114088	238759
Saccade L	1	3	5179114088	5179273191	159103	1150.64	307.93	1163.75	284.82	6.45	134.47	0.75	40.52	2970.95	-1717.74	1198.92
Saccade R	1	3	5179114088	5179273191	159103	1150.64	307.93	1163.75	284.82	6.45	134.47	0.75	40.52	2970.95	-1717.74	1198.92
Fixation L	1	3	5179273191	5179511793	238602	1153.26	321.25	14	49	-1	16.04	16.04
Fixation R	1	3	5179273191	5179511793	238602	1153.26	321.25	14	49	-1	16.23	16.23
Saccade L	1	4	5179511793	5179531678	19885	1149.60	327.10	1110.14	330.63	0.32	40.08	1.00	15.86	984.56	-616.18	684.53
Saccade R	1	4	5179511793	5179531678	19885	1149.60	327.10	1110.14	330.63	0.32	40.08	1.00	15.86	984.56	-616.18	684.53
Fixation L	1	4	5179531678	5180387005	855327	1097.35	351.60	21	39	-1	16.51	16.51
Fixation R	1	4	5179531678	5180387005	855327	1097.35	351.60	21	39	-1	16.79	16.79
