[BeGaze]
Converted from:	C:\Documents and Settings\iViewX\Desktop\EXPERIMENTATIONS\Experiments\results\finaleart\S22H22551-finaleart-1.idf
Date:	27.03.2019 15:58:27
Version:	BeGaze 2.5.77
Sample Rate:	50
Subject:	S22H22551
Description:	Mathieu Chambre

Table Header for Fixations:
Event Type	Trial	Number	Start	End	Duration	Location X	Location Y	Dispersion X	Dispersion Y	Plane	Avg. Pupil Size X	Avg. Pupil Size Y

Table Header for Saccades:
Event Type	Trial	Number	Start	End	Duration	Start Loc.X	Start Loc.Y	End Loc.X	End Loc.Y	Amplitude	Peak Speed	Peak Speed At	Average Speed	Peak Accel.	Peak Decel.	Average Accel.

Table Header for Blinks:
Event Type	Trial	Number	Start	End	Duration

Table Header for User Events:
Event Type	Trial	Number	Start	Description

UserEvent	1	1	5572636848	# Message: the-wood_cross_907.jpg
Fixation L	1	1	5572640596	5573476053	835457	997.33	437.90	44	45	-1	17.87	17.87
Fixation R	1	1	5572640596	5573476053	835457	997.33	437.90	44	45	-1	18.20	18.20
Saccade L	1	1	5573476053	5573495922	19869	963.48	461.22	950.28	491.23	0.31	33.17	1.00	15.52	780.54	-524.73	500.24
Saccade R	1	1	5573476053	5573495922	19869	963.48	461.22	950.28	491.23	0.31	33.17	1.00	15.52	780.54	-524.73	500.24
Fixation L	1	2	5573495922	5573635166	139244	943.58	493.65	15	41	-1	15.55	15.55
Fixation R	1	2	5573495922	5573635166	139244	943.58	493.65	15	41	-1	16.12	16.12
Saccade L	1	2	5573635166	5573655038	19872	935.55	523.17	934.02	688.49	1.11	167.20	1.00	55.82	4130.71	-4082.88	2819.68
Saccade R	1	2	5573635166	5573655038	19872	935.55	523.17	934.02	688.49	1.11	167.20	1.00	55.82	4130.71	-4082.88	2819.68
Fixation L	1	3	5573655038	5574032894	377856	930.98	717.85	45	36	-1	15.41	15.41
Fixation R	1	3	5573655038	5574032894	377856	930.98	717.85	45	36	-1	15.83	15.83
Saccade L	1	3	5574032894	5574052784	19890	958.89	721.57	1122.10	633.92	1.05	187.35	1.00	52.79	4568.51	-4570.57	3132.69
Saccade R	1	3	5574032894	5574052784	19890	958.89	721.57	1122.10	633.92	1.05	187.35	1.00	52.79	4568.51	-4570.57	3132.69
Fixation L	1	4	5574052784	5574291499	238715	1113.31	633.94	11	16	-1	15.10	15.10
Fixation R	1	4	5574052784	5574291499	238715	1113.31	633.94	11	16	-1	15.29	15.29
Saccade L	1	4	5574291499	5574311385	19886	1115.34	628.32	1416.28	616.53	1.78	304.39	1.00	89.69	7549.72	-7353.49	5305.85
Saccade R	1	4	5574291499	5574311385	19886	1115.34	628.32	1416.28	616.53	1.78	304.39	1.00	89.69	7549.72	-7353.49	5305.85
Fixation L	1	5	5574311385	5574569987	258602	1472.49	590.97	65	34	-1	15.15	15.15
Fixation R	1	5	5574311385	5574569987	258602	1472.49	590.97	65	34	-1	15.75	15.75
Saccade L	1	5	5574569987	5574629612	59625	1477.99	584.91	1365.00	1152.82	6.13	247.33	0.67	102.84	6128.80	-5889.85	4160.80
Saccade R	1	5	5574569987	5574629612	59625	1477.99	584.91	1365.00	1152.82	6.13	247.33	0.67	102.84	6128.80	-5889.85	4160.80
Fixation L	1	6	5574629612	5575146707	517095	1367.39	1137.70	66	33	-1	16.38	16.38
Fixation R	1	6	5574629612	5575146707	517095	1367.39	1137.70	66	33	-1	16.29	16.29
Saccade L	1	6	5575146707	5575166743	20036	1406.51	1121.77	1409.07	1120.05	0.07	5.77	1.00	3.64	57.97	-66.19	48.32
Saccade R	1	6	5575146707	5575166743	20036	1406.51	1121.77	1409.07	1120.05	0.07	5.77	1.00	3.64	57.97	-66.19	48.32
Fixation L	1	7	5575166743	5575425196	258453	1420.69	1119.92	73	6	-1	15.93	15.93
Fixation R	1	7	5575166743	5575425196	258453	1420.69	1119.92	73	6	-1	15.87	15.87
Saccade L	1	7	5575425196	5575445080	19884	1482.73	1123.23	1507.21	1122.41	0.46	53.92	0.00	23.27	286.68	-1321.24	686.50
Saccade R	1	7	5575425196	5575445080	19884	1482.73	1123.23	1507.21	1122.41	0.46	53.92	0.00	23.27	286.68	-1321.24	686.50
Fixation L	1	8	5575445080	5575842932	397852	1504.40	1119.55	17	6	-1	15.54	15.54
Fixation R	1	8	5575445080	5575842932	397852	1504.40	1119.55	17	6	-1	15.31	15.31
Saccade L	1	8	5575842932	5575902549	59617	1513.98	1119.71	782.13	840.31	8.25	336.97	0.67	138.44	8343.28	-8165.41	5721.24
Saccade R	1	8	5575842932	5575902549	59617	1513.98	1119.71	782.13	840.31	8.25	336.97	0.67	138.44	8343.28	-8165.41	5721.24
Fixation L	1	9	5575902549	5576061667	159118	774.52	853.82	11	19	-1	15.14	15.14
Fixation R	1	9	5575902549	5576061667	159118	774.52	853.82	11	19	-1	15.24	15.24
Saccade L	1	9	5576061667	5576101541	39874	773.95	853.65	563.46	701.60	2.72	196.84	1.00	68.34	4877.57	-4851.61	2856.26
Saccade R	1	9	5576061667	5576101541	39874	773.95	853.65	563.46	701.60	2.72	196.84	1.00	68.34	4877.57	-4851.61	2856.26
Fixation L	1	10	5576101541	5576260653	159112	552.43	642.54	15	78	-1	14.31	14.31
Fixation R	1	10	5576101541	5576260653	159112	552.43	642.54	15	78	-1	14.54	14.54
Saccade L	1	10	5576260653	5576300392	39739	549.32	623.45	588.36	277.95	3.18	288.72	0.50	79.95	7150.78	-6511.95	4072.83
Saccade R	1	10	5576260653	5576300392	39739	549.32	623.45	588.36	277.95	3.18	288.72	0.50	79.95	7150.78	-6511.95	4072.83
Fixation L	1	11	5576300392	5576479398	179006	611.89	300.89	32	28	-1	13.75	13.75
Fixation R	1	11	5576300392	5576479398	179006	611.89	300.89	32	28	-1	14.40	14.40
Saccade L	1	11	5576479398	5576519140	39742	618.68	306.76	976.76	267.04	3.12	204.43	1.00	78.45	5012.84	-4761.34	4305.82
Saccade R	1	11	5576479398	5576519140	39742	618.68	306.76	976.76	267.04	3.12	204.43	1.00	78.45	5012.84	-4761.34	4305.82
Fixation L	1	12	5576519140	5576618628	99488	986.09	243.66	13	37	-1	14.24	14.24
Fixation R	1	12	5576519140	5576618628	99488	986.09	243.66	13	37	-1	14.89	14.89
