[BeGaze]
Converted from:	C:\Documents and Settings\iViewX\Desktop\EXPERIMENTATIONS\Experiments\results\finaleart\S22H22551-finaleart-1.idf
Date:	27.03.2019 15:57:14
Version:	BeGaze 2.5.77
Sample Rate:	50
Subject:	S22H22551
Description:	Mathieu Chambre

Table Header for Fixations:
Event Type	Trial	Number	Start	End	Duration	Location X	Location Y	Dispersion X	Dispersion Y	Plane	Avg. Pupil Size X	Avg. Pupil Size Y

Table Header for Saccades:
Event Type	Trial	Number	Start	End	Duration	Start Loc.X	Start Loc.Y	End Loc.X	End Loc.Y	Amplitude	Peak Speed	Peak Speed At	Average Speed	Peak Accel.	Peak Decel.	Average Accel.

Table Header for Blinks:
Event Type	Trial	Number	Start	End	Duration

Table Header for User Events:
Event Type	Trial	Number	Start	Description

UserEvent	1	1	4912672004	# Message: metzinger-nature-morte-1905.jpg
Fixation R	1	1	4912672078	4913169310	497232	1067.81	359.18	24	71	-1	19.18	19.18
Fixation L	1	1	4912731706	4913169310	437604	1066.26	362.72	12	10	-1	18.35	18.35
Saccade L	1	1	4913169310	4913189171	19861	1059.65	368.63	1012.43	421.20	0.55	71.48	1.00	27.50	1743.01	-1419.56	1326.97
Saccade R	1	1	4913169310	4913189171	19861	1059.65	368.63	1012.43	421.20	0.55	71.48	1.00	27.50	1743.01	-1419.56	1326.97
Fixation L	1	2	4913189171	4913447770	258599	971.91	449.38	47	38	-1	16.88	16.88
Fixation R	1	2	4913189171	4913447770	258599	971.91	449.38	47	38	-1	17.47	17.47
Saccade L	1	2	4913447770	4913467643	19873	966.14	459.37	979.19	587.43	0.70	130.19	1.00	35.19	3164.50	-3185.86	2134.17
Saccade R	1	2	4913447770	4913467643	19873	966.14	459.37	979.19	587.43	0.70	130.19	1.00	35.19	3164.50	-3185.86	2134.17
Fixation L	1	3	4913467643	4913726137	258494	988.09	588.91	73	19	-1	15.43	15.43
Fixation R	1	3	4913467643	4913726137	258494	988.09	588.91	73	19	-1	15.74	15.74
Saccade L	1	3	4913726137	4913746139	20002	927.18	583.17	893.14	562.10	0.66	72.51	0.00	32.82	919.60	-1448.38	1088.81
Saccade R	1	3	4913726137	4913746139	20002	927.18	583.17	893.14	562.10	0.66	72.51	0.00	32.82	919.60	-1448.38	1088.81
Fixation L	1	4	4913746139	4914064370	318231	882.71	539.21	13	33	-1	14.68	14.68
Fixation R	1	4	4913746139	4914064370	318231	882.71	539.21	13	33	-1	15.12	15.12
Saccade L	1	4	4914064370	4914104118	39748	881.50	543.07	1100.85	803.64	2.89	196.80	1.00	72.80	4885.07	-4768.96	4161.07
Saccade R	1	4	4914064370	4914104118	39748	881.50	543.07	1100.85	803.64	2.89	196.80	1.00	72.80	4885.07	-4768.96	4161.07
Fixation L	1	5	4914104118	4914283109	178991	1121.16	815.95	29	22	-1	14.58	14.58
Fixation R	1	5	4914104118	4914283109	178991	1121.16	815.95	29	22	-1	15.12	15.12
Saccade L	1	5	4914283109	4914322846	39737	1130.10	825.74	1365.93	832.27	2.03	130.56	1.00	50.96	3223.61	-3019.20	2825.00
Saccade R	1	5	4914283109	4914322846	39737	1130.10	825.74	1365.93	832.27	2.03	130.56	1.00	50.96	3223.61	-3019.20	2825.00
Fixation L	1	6	4914322846	4914899702	576856	1345.91	867.29	33	63	-1	14.90	14.90
Fixation R	1	6	4914322846	4914899702	576856	1345.91	867.29	33	63	-1	15.11	15.11
Saccade L	1	6	4914899702	4914959318	59616	1355.59	888.02	1003.34	949.81	3.77	147.33	0.67	63.20	3661.71	-3304.04	2466.72
Saccade R	1	6	4914899702	4914959318	59616	1355.59	888.02	1003.34	949.81	3.77	147.33	0.67	63.20	3661.71	-3304.04	2466.72
Fixation L	1	7	4914959318	4915078689	119371	1004.83	947.13	3	17	-1	14.89	14.89
Fixation R	1	7	4914959318	4915078689	119371	1004.83	947.13	3	17	-1	14.68	14.68
Saccade L	1	7	4915078689	4915098582	19893	1003.14	952.38	757.92	955.69	1.46	247.93	1.00	73.43	6145.94	-6074.64	4331.07
Saccade R	1	7	4915078689	4915098582	19893	1003.14	952.38	757.92	955.69	1.46	247.93	1.00	73.43	6145.94	-6074.64	4331.07
Fixation L	1	8	4915098582	4915237802	139220	718.98	959.64	50	7	-1	14.84	14.84
Fixation R	1	8	4915098582	4915237802	139220	718.98	959.64	50	7	-1	14.90	14.90
Saccade L	1	8	4915237802	4915277556	39754	707.10	963.05	436.31	902.27	2.43	210.95	1.00	61.01	5138.58	-4887.57	3300.97
Saccade R	1	8	4915237802	4915277556	39754	707.10	963.05	436.31	902.27	2.43	210.95	1.00	61.01	5138.58	-4887.57	3300.97
Fixation L	1	9	4915277556	4915635667	358111	413.07	877.72	64	33	-1	14.50	14.50
Fixation R	1	9	4915277556	4915635667	358111	413.07	877.72	64	33	-1	14.99	14.99
Saccade L	1	9	4915635667	4915715159	79492	371.86	875.99	459.98	252.04	8.29	374.78	0.75	104.26	9139.01	-8119.20	5011.16
Saccade R	1	9	4915635667	4915715159	79492	371.86	875.99	459.98	252.04	8.29	374.78	0.75	104.26	9139.01	-8119.20	5011.16
Fixation L	1	10	4915715159	4915973772	258613	482.16	250.81	30	64	-1	14.47	14.47
Fixation R	1	10	4915715159	4915973772	258613	482.16	250.81	30	64	-1	14.93	14.93
Saccade L	1	10	4915973772	4916013521	39749	481.97	268.08	877.48	257.76	3.34	284.15	1.00	84.00	6975.92	-6835.11	4808.48
Saccade R	1	10	4915973772	4916013521	39749	481.97	268.08	877.48	257.76	3.34	284.15	1.00	84.00	6975.92	-6835.11	4808.48
Fixation L	1	11	4916013521	4916192510	178989	900.32	246.02	30	22	-1	15.05	15.05
Fixation R	1	11	4916013521	4916192510	178989	900.32	246.02	30	22	-1	15.70	15.70
Saccade L	1	11	4916192510	4916232448	39938	907.47	238.86	1232.19	236.93	2.80	204.86	1.00	70.07	5036.77	-4894.90	3911.21
Saccade R	1	11	4916192510	4916232448	39938	907.47	238.86	1232.19	236.93	2.80	204.86	1.00	70.07	5036.77	-4894.90	3911.21
Fixation L	1	12	4916232448	4916471004	238556	1210.24	248.62	31	26	-1	15.80	15.80
Fixation R	1	12	4916232448	4916471004	238556	1210.24	248.62	31	26	-1	16.33	16.33
Saccade L	1	12	4916471004	4916490868	19864	1200.27	260.52	1045.12	442.08	1.45	241.45	1.00	73.21	5847.06	-5686.29	4162.32
Saccade R	1	12	4916471004	4916490868	19864	1200.27	260.52	1045.12	442.08	1.45	241.45	1.00	73.21	5847.06	-5686.29	4162.32
Fixation L	1	13	4916490868	4916669863	178995	1011.96	482.03	41	48	-1	16.31	16.31
Fixation R	1	13	4916490868	4916669863	178995	1011.96	482.03	41	48	-1	16.71	16.71
