[BeGaze]
Converted from:	C:\Documents and Settings\iViewX\Desktop\EXPERIMENTATIONS\Experiments\results\finaleart\S22H22551-finaleart-1.idf
Date:	27.03.2019 15:59:01
Version:	BeGaze 2.5.77
Sample Rate:	50
Subject:	S22H22551
Description:	Mathieu Chambre

Table Header for Fixations:
Event Type	Trial	Number	Start	End	Duration	Location X	Location Y	Dispersion X	Dispersion Y	Plane	Avg. Pupil Size X	Avg. Pupil Size Y

Table Header for Saccades:
Event Type	Trial	Number	Start	End	Duration	Start Loc.X	Start Loc.Y	End Loc.X	End Loc.Y	Amplitude	Peak Speed	Peak Speed At	Average Speed	Peak Accel.	Peak Decel.	Average Accel.

Table Header for Blinks:
Event Type	Trial	Number	Start	End	Duration

Table Header for User Events:
Event Type	Trial	Number	Start	Description

UserEvent	1	1	5833042909	# Message: Le_Chemin_De_Fer_Berlin_Potsdam_Menzel_1847.jpg
Fixation L	1	1	5833059542	5833477279	417737	1181.25	419.06	13	31	-1	18.05	18.05
Fixation R	1	1	5833059542	5833477279	417737	1181.25	419.06	13	31	-1	17.27	17.27
Saccade L	1	1	5833477279	5833497159	19880	1180.71	419.44	962.67	476.47	1.40	227.88	1.00	70.28	5637.48	-5614.57	4100.14
Saccade R	1	1	5833477279	5833497159	19880	1180.71	419.44	962.67	476.47	1.40	227.88	1.00	70.28	5637.48	-5614.57	4100.14
Fixation L	1	2	5833497159	5833735885	238726	964.84	522.07	3	55	-1	17.32	17.32
Fixation R	1	2	5833497159	5833735885	238726	964.84	522.07	3	55	-1	16.77	16.77
Saccade L	1	2	5833735885	5833755759	19874	964.37	530.99	857.87	533.70	0.96	107.76	1.00	48.40	2675.92	-2604.20	2446.72
Saccade R	1	2	5833735885	5833755759	19874	964.37	530.99	857.87	533.70	0.96	107.76	1.00	48.40	2675.92	-2604.20	2446.72
Fixation L	1	3	5833755759	5833974502	218743	782.31	537.73	84	6	-1	15.95	15.95
Fixation R	1	3	5833755759	5833974502	218743	782.31	537.73	84	6	-1	15.43	15.43
Saccade L	1	3	5833974502	5833994380	19878	775.03	534.67	652.59	519.28	0.72	124.82	1.00	36.22	3086.06	-3069.17	2130.19
Saccade R	1	3	5833974502	5833994380	19878	775.03	534.67	652.59	519.28	0.72	124.82	1.00	36.22	3086.06	-3069.17	2130.19
Fixation L	1	4	5833994380	5834312617	318237	655.24	508.02	9	15	-1	15.76	15.76
Fixation R	1	4	5833994380	5834312617	318237	655.24	508.02	9	15	-1	15.61	15.61
Saccade L	1	4	5834312617	5834352483	39866	650.07	511.20	712.74	722.64	1.90	131.78	0.50	47.67	3272.32	-3058.63	2653.55
Saccade R	1	4	5834312617	5834352483	39866	650.07	511.20	712.74	722.64	1.90	131.78	0.50	47.67	3272.32	-3058.63	2653.55
Fixation L	1	5	5834352483	5834591086	238603	735.65	747.45	33	47	-1	16.72	16.72
Fixation R	1	5	5834352483	5834591086	238603	735.65	747.45	33	47	-1	16.88	16.88
Saccade L	1	5	5834591086	5834630831	39745	746.52	761.82	919.96	957.62	2.28	197.17	1.00	57.25	4891.62	-4871.05	3215.55
Saccade R	1	5	5834591086	5834630831	39745	746.52	761.82	919.96	957.62	2.28	197.17	1.00	57.25	4891.62	-4871.05	3215.55
Fixation L	1	6	5834630831	5835008819	377988	905.11	952.18	17	11	-1	18.05	18.05
Fixation R	1	6	5834630831	5835008819	377988	905.11	952.18	17	11	-1	17.94	17.94
Saccade L	1	6	5835008819	5835028692	19873	902.05	946.45	1093.60	948.01	1.16	193.71	1.00	58.62	4807.01	-4822.61	3514.61
Saccade R	1	6	5835008819	5835028692	19873	902.05	946.45	1093.60	948.01	1.16	193.71	1.00	58.62	4807.01	-4822.61	3514.61
Fixation L	1	7	5835028692	5835386680	357988	1140.54	944.11	59	9	-1	17.57	17.57
Fixation R	1	7	5835028692	5835386680	357988	1140.54	944.11	59	9	-1	17.28	17.28
Saccade L	1	7	5835386680	5835406547	19867	1153.07	946.50	1314.60	940.67	0.86	163.47	1.00	43.50	4019.00	-3928.13	2665.04
Saccade R	1	7	5835386680	5835406547	19867	1153.07	946.50	1314.60	940.67	0.86	163.47	1.00	43.50	4019.00	-3928.13	2665.04
Fixation L	1	8	5835406547	5835665160	258613	1310.40	932.15	9	14	-1	17.70	17.70
Fixation R	1	8	5835406547	5835665160	258613	1310.40	932.15	9	14	-1	17.09	17.09
Saccade L	1	8	5835665160	5835704909	39749	1305.11	926.49	1492.05	926.98	1.63	98.12	1.00	40.92	2423.24	-2418.85	2268.85
Saccade R	1	8	5835665160	5835704909	39749	1305.11	926.49	1492.05	926.98	1.63	98.12	1.00	40.92	2423.24	-2418.85	2268.85
Fixation L	1	9	5835704909	5835844154	139245	1484.51	931.01	12	17	-1	17.75	17.75
Fixation R	1	9	5835704909	5835844154	139245	1484.51	931.01	12	17	-1	16.99	16.99
Saccade L	1	9	5835844154	5835864018	19864	1488.32	944.78	1502.82	1125.36	1.15	183.21	1.00	57.81	4525.64	-4186.32	3054.77
Saccade R	1	9	5835844154	5835864018	19864	1488.32	944.78	1502.82	1125.36	1.15	183.21	1.00	57.81	4525.64	-4186.32	3054.77
Fixation L	1	10	5835864018	5836281752	417734	1532.41	1101.66	50	46	-1	17.91	17.91
Fixation R	1	10	5835864018	5836281752	417734	1532.41	1101.66	50	46	-1	16.83	16.83
Saccade L	1	10	5836281752	5836301630	19878	1551.74	1108.43	1558.17	1108.97	0.06	6.53	1.00	2.90	129.01	-94.68	82.97
Saccade R	1	10	5836281752	5836301630	19878	1551.74	1108.43	1558.17	1108.97	0.06	6.53	1.00	2.90	129.01	-94.68	82.97
Fixation L	1	11	5836301630	5836440870	139240	1561.39	1112.01	7	5	-1	17.86	17.86
Fixation R	1	11	5836301630	5836440870	139240	1561.39	1112.01	7	5	-1	16.95	16.95
Saccade L	1	11	5836440870	5836480615	39745	1565.08	1111.96	1484.84	523.22	4.89	440.06	0.50	123.04	10993.05	-10812.31	7344.24
Saccade R	1	11	5836440870	5836480615	39745	1565.08	1111.96	1484.84	523.22	4.89	440.06	0.50	123.04	10993.05	-10812.31	7344.24
Fixation L	1	12	5836480615	5836719358	238743	1483.16	501.90	22	44	-1	17.29	17.29
Fixation R	1	12	5836480615	5836719358	238743	1483.16	501.90	22	44	-1	16.24	16.24
Saccade L	1	12	5836719358	5836739226	19868	1470.16	478.36	1307.77	427.91	1.05	171.98	1.00	53.08	4224.08	-4151.05	2824.52
Saccade R	1	12	5836719358	5836739226	19868	1470.16	478.36	1307.77	427.91	1.05	171.98	1.00	53.08	4224.08	-4151.05	2824.52
Fixation L	1	13	5836739226	5836957966	218740	1324.49	404.72	24	31	-1	16.20	16.20
Fixation R	1	13	5836739226	5836957966	218740	1324.49	404.72	24	31	-1	15.25	15.25
Saccade L	1	13	5836957966	5837037604	79638	1332.03	395.97	1174.78	389.07	2.20	144.97	0.25	27.60	3581.67	-3479.96	1426.25
Saccade R	1	13	5836957966	5837037604	79638	1332.03	395.97	1174.78	389.07	2.20	144.97	0.25	27.60	3581.67	-3479.96	1426.25
