[BeGaze]
Converted from:	C:\Documents and Settings\iViewX\Desktop\EXPERIMENTATIONS\Experiments\results\finaleart\S22H22551-finaleart-1.idf
Date:	27.03.2019 15:58:03
Version:	BeGaze 2.5.77
Sample Rate:	50
Subject:	S22H22551
Description:	Mathieu Chambre

Table Header for Fixations:
Event Type	Trial	Number	Start	End	Duration	Location X	Location Y	Dispersion X	Dispersion Y	Plane	Avg. Pupil Size X	Avg. Pupil Size Y

Table Header for Saccades:
Event Type	Trial	Number	Start	End	Duration	Start Loc.X	Start Loc.Y	End Loc.X	End Loc.Y	Amplitude	Peak Speed	Peak Speed At	Average Speed	Peak Accel.	Peak Decel.	Average Accel.

Table Header for Blinks:
Event Type	Trial	Number	Start	End	Duration

Table Header for User Events:
Event Type	Trial	Number	Start	Description

UserEvent	1	1	5332559014	# Message: void.jpg
Fixation L	1	1	5332574454	5332673964	99510	407.19	130.11	3	11	-1	12.93	12.93
Fixation R	1	1	5332574454	5332673964	99510	407.19	130.11	3	11	-1	13.71	13.71
Saccade L	1	1	5332673964	5332713701	39737	405.15	136.97	387.25	521.39	3.66	238.60	0.50	92.20	5890.17	-5539.79	5170.55
Saccade R	1	1	5332673964	5332713701	39737	405.15	136.97	387.25	521.39	3.66	238.60	0.50	92.20	5890.17	-5539.79	5170.55
Fixation L	1	2	5332713701	5332972305	258604	340.99	516.76	61	8	-1	13.28	13.28
Fixation R	1	2	5332713701	5332972305	258604	340.99	516.76	61	8	-1	13.77	13.77
Blink L	1	1	5332972305	5333210924	238619
Blink R	1	1	5332972305	5333210924	238619
Fixation L	1	3	5333210924	5333787768	576844	1118.71	345.29	57	39	-1	15.51	15.51
Fixation R	1	3	5333210924	5333787768	576844	1118.71	345.29	57	39	-1	15.50	15.50
Saccade L	1	2	5333787768	5333807639	19871	1087.22	325.37	1082.80	327.27	0.14	15.53	1.00	7.18	-12.79	-266.69	122.31
Saccade R	1	2	5333787768	5333807639	19871	1087.22	325.37	1082.80	327.27	0.14	15.53	1.00	7.18	-12.79	-266.69	122.31
Fixation L	1	4	5333807639	5334384484	576845	1058.76	317.66	69	24	-1	16.37	16.37
Fixation R	1	4	5333807639	5334384484	576845	1058.76	317.66	69	24	-1	16.26	16.26
Saccade L	1	3	5334384484	5334404361	19877	1014.06	307.22	991.44	314.32	0.22	23.99	1.00	11.13	478.65	-368.12	383.23
Saccade R	1	3	5334384484	5334404361	19877	1014.06	307.22	991.44	314.32	0.22	23.99	1.00	11.13	478.65	-368.12	383.23
Fixation L	1	5	5334404361	5334543601	139240	959.29	331.05	48	31	-1	17.32	17.32
Fixation R	1	5	5334404361	5334543601	139240	959.29	331.05	48	31	-1	17.26	17.26
