[BeGaze]
Converted from:	C:\Documents and Settings\iViewX\Desktop\EXPERIMENTATIONS\Experiments\results\finaleart\S22H22551-finaleart-1.idf
Date:	27.03.2019 15:56:48
Version:	BeGaze 2.5.77
Sample Rate:	50
Subject:	S22H22551
Description:	Mathieu Chambre

Table Header for Fixations:
Event Type	Trial	Number	Start	End	Duration	Location X	Location Y	Dispersion X	Dispersion Y	Plane	Avg. Pupil Size X	Avg. Pupil Size Y

Table Header for Saccades:
Event Type	Trial	Number	Start	End	Duration	Start Loc.X	Start Loc.Y	End Loc.X	End Loc.Y	Amplitude	Peak Speed	Peak Speed At	Average Speed	Peak Accel.	Peak Decel.	Average Accel.

Table Header for Blinks:
Event Type	Trial	Number	Start	End	Duration

Table Header for User Events:
Event Type	Trial	Number	Start	Description

UserEvent	1	1	4717548294	# Message: void.jpg
Fixation L	1	1	4717549483	4717648856	99373	1221.78	675.79	6	37	-1	21.39	21.39
Fixation R	1	1	4717549483	4717648856	99373	1221.78	675.79	6	37	-1	21.21	21.21
Saccade L	1	1	4717648856	4717689121	40265	1221.28	668.49	1525.73	687.33	2.63	236.78	0.50	65.41	5856.88	-5712.36	3645.28
Saccade R	1	1	4717648856	4717689121	40265	1221.28	668.49	1525.73	687.33	2.63	236.78	0.50	65.41	5856.88	-5712.36	3645.28
Fixation L	1	2	4717689121	4717847834	158713	1514.33	730.85	22	70	-1	21.39	21.39
Fixation R	1	2	4717689121	4717847834	158713	1514.33	730.85	22	70	-1	21.07	21.07
Saccade L	1	2	4717847834	4717867713	19879	1503.51	757.42	1528.23	764.92	0.21	26.14	1.00	10.51	520.25	-474.31	368.52
Saccade R	1	2	4717847834	4717867713	19879	1503.51	757.42	1528.23	764.92	0.21	26.14	1.00	10.51	520.25	-474.31	368.52
Fixation L	1	3	4717867713	4717967207	99494	1518.01	775.08	43	18	-1	21.56	21.56
Fixation R	1	3	4717867713	4717967207	99494	1518.01	775.08	43	18	-1	21.15	21.15
Saccade L	1	3	4717967207	4718185941	218734	1485.22	773.87	1053.70	485.23	15.33	350.17	0.09	70.10	30662.29	-8502.35	4961.24
Saccade R	1	3	4717967207	4718185941	218734	1485.22	773.87	1053.70	485.23	15.33	350.17	0.09	70.10	30662.29	-8502.35	4961.24
Blink L	1	1	4718185941	4718384804	198863
Blink R	1	1	4718185941	4718384804	198863
Fixation L	1	4	4718384804	4719558391	1173587	1065.43	478.34	43	20	-1	19.03	19.03
Fixation R	1	4	4718384804	4719558391	1173587	1065.43	478.34	43	20	-1	19.07	19.07
