[BeGaze]
Converted from:	C:\Documents and Settings\iViewX\Desktop\EXPERIMENTATIONS\Experiments\results\finaleart\S22H22551-finaleart-1.idf
Date:	27.03.2019 15:57:32
Version:	BeGaze 2.5.77
Sample Rate:	50
Subject:	S22H22551
Description:	Mathieu Chambre

Table Header for Fixations:
Event Type	Trial	Number	Start	End	Duration	Location X	Location Y	Dispersion X	Dispersion Y	Plane	Avg. Pupil Size X	Avg. Pupil Size Y

Table Header for Saccades:
Event Type	Trial	Number	Start	End	Duration	Start Loc.X	Start Loc.Y	End Loc.X	End Loc.Y	Amplitude	Peak Speed	Peak Speed At	Average Speed	Peak Accel.	Peak Decel.	Average Accel.

Table Header for Blinks:
Event Type	Trial	Number	Start	End	Duration

Table Header for User Events:
Event Type	Trial	Number	Start	Description

UserEvent	1	1	5027237057	# Message: void.jpg
Fixation L	1	1	5027238108	5027377410	139302	441.22	340.59	21	38	-1	16.85	16.85
Fixation R	1	1	5027238108	5027377410	139302	441.22	340.59	21	38	-1	18.20	18.20
Saccade L	1	1	5027377410	5027436964	59554	453.25	358.34	1130.54	348.20	7.06	344.12	0.67	118.52	8450.84	-8352.49	5084.01
Saccade R	1	1	5027377410	5027436964	59554	453.25	358.34	1130.54	348.20	7.06	344.12	0.67	118.52	8450.84	-8352.49	5084.01
Fixation L	1	2	5027436964	5027735335	298371	1143.50	302.43	18	67	-1	17.02	17.02
Fixation R	1	2	5027436964	5027735335	298371	1143.50	302.43	18	67	-1	18.39	18.39
Blink L	1	1	5027735335	5027974062	238727
Blink R	1	1	5027735335	5027974062	238727
Fixation L	1	3	5027974062	5028073430	99368	1238.04	229.20	42	30	-1	18.17	18.17
Fixation R	1	3	5027974062	5028073430	99368	1238.04	229.20	42	30	-1	18.15	18.15
Blink L	1	2	5028073430	5028292296	218866
Blink R	1	2	5028073430	5028292296	218866
Fixation L	1	4	5028292296	5028729919	437623	1268.51	254.89	41	18	-1	18.70	18.70
Fixation R	1	4	5028292296	5028729919	437623	1268.51	254.89	41	18	-1	18.68	18.68
Saccade L	1	2	5028729919	5028749772	19853	1253.36	264.34	1193.74	265.08	0.47	60.32	1.00	23.49	1481.60	-1423.03	1205.99
Saccade R	1	2	5028729919	5028749772	19853	1253.36	264.34	1193.74	265.08	0.47	60.32	1.00	23.49	1481.60	-1423.03	1205.99
Fixation L	1	5	5028749772	5029107757	357985	1201.08	261.63	30	7	-1	18.11	18.11
Fixation R	1	5	5028749772	5029107757	357985	1201.08	261.63	30	7	-1	18.02	18.02
Saccade L	1	3	5029107757	5029227124	119367	1195.17	264.32	1028.70	328.04	3.22	98.22	0.17	27.00	2420.65	-2022.25	1128.18
Saccade R	1	3	5029107757	5029227124	119367	1195.17	264.32	1028.70	328.04	3.22	98.22	0.17	27.00	2420.65	-2022.25	1128.18
