[BeGaze]
Converted from:	C:\Documents and Settings\iViewX\Desktop\EXPERIMENTATIONS\Experiments\results\finaleart\S22H22551-finaleart-1.idf
Date:	27.03.2019 15:57:15
Version:	BeGaze 2.5.77
Sample Rate:	50
Subject:	S22H22551
Description:	Mathieu Chambre

Table Header for Fixations:
Event Type	Trial	Number	Start	End	Duration	Location X	Location Y	Dispersion X	Dispersion Y	Plane	Avg. Pupil Size X	Avg. Pupil Size Y

Table Header for Saccades:
Event Type	Trial	Number	Start	End	Duration	Start Loc.X	Start Loc.Y	End Loc.X	End Loc.Y	Amplitude	Peak Speed	Peak Speed At	Average Speed	Peak Accel.	Peak Decel.	Average Accel.

Table Header for Blinks:
Event Type	Trial	Number	Start	End	Duration

Table Header for User Events:
Event Type	Trial	Number	Start	Description

UserEvent	1	1	4918839935	# Message: delacroix-Reclining-Odalisque-or-Woman-with-a-Parakeet-1827.jpg
Fixation L	1	1	4918857749	4919275473	417724	996.06	382.73	42	26	-1	18.27	18.27
Fixation R	1	1	4918857749	4919275473	417724	996.06	382.73	42	26	-1	18.47	18.47
Saccade L	1	1	4919275473	4919315220	39747	1002.79	397.64	1391.69	209.72	3.70	257.13	1.00	93.14	6323.65	-6263.75	5247.77
Saccade R	1	1	4919275473	4919315220	39747	1002.79	397.64	1391.69	209.72	3.70	257.13	1.00	93.14	6323.65	-6263.75	5247.77
Fixation L	1	2	4919315220	4919713071	397851	1398.88	236.67	44	45	-1	16.90	16.90
Fixation R	1	2	4919315220	4919713071	397851	1398.88	236.67	44	45	-1	16.93	16.93
Saccade L	1	2	4919713071	4919752820	39749	1420.68	253.08	1213.55	404.89	2.23	160.54	1.00	56.10	3958.09	-3733.62	3061.12
Saccade R	1	2	4919713071	4919752820	39749	1420.68	253.08	1213.55	404.89	2.23	160.54	1.00	56.10	3958.09	-3733.62	3061.12
Fixation L	1	3	4919752820	4919951691	198871	1222.31	413.12	12	14	-1	17.63	17.63
Fixation R	1	3	4919752820	4919951691	198871	1222.31	413.12	12	14	-1	17.39	17.39
Saccade L	1	3	4919951691	4919971687	19996	1224.01	415.16	1026.43	523.12	1.42	227.66	1.00	71.06	5648.98	-5638.32	4182.82
Saccade R	1	3	4919951691	4919971687	19996	1224.01	415.16	1026.43	523.12	1.42	227.66	1.00	71.06	5648.98	-5638.32	4182.82
Fixation L	1	4	4919971687	4920170551	198864	982.64	531.86	51	12	-1	18.69	18.69
Fixation R	1	4	4919971687	4920170551	198864	982.64	531.86	51	12	-1	18.65	18.65
Saccade L	1	4	4920170551	4920210294	39743	979.05	531.32	655.72	658.15	2.98	220.78	0.50	75.01	5510.91	-5178.48	4290.85
Saccade R	1	4	4920170551	4920210294	39743	979.05	531.32	655.72	658.15	2.98	220.78	0.50	75.01	5510.91	-5178.48	4290.85
Fixation L	1	5	4920210294	4920508654	298360	665.33	673.28	14	23	-1	18.90	18.90
Fixation R	1	5	4920210294	4920508654	298360	665.33	673.28	14	23	-1	19.46	19.46
Saccade L	1	5	4920508654	4920548414	39760	668.57	678.77	420.02	956.85	3.18	203.13	0.50	79.99	5036.85	-4644.43	4506.45
Saccade R	1	5	4920508654	4920548414	39760	668.57	678.77	420.02	956.85	3.18	203.13	0.50	79.99	5036.85	-4644.43	4506.45
Fixation L	1	6	4920548414	4920747395	198981	438.34	955.61	61	15	-1	19.36	19.36
Fixation R	1	6	4920548414	4920747395	198981	438.34	955.61	61	15	-1	19.88	19.88
Saccade L	1	6	4920747395	4920767281	19886	481.67	964.07	858.96	964.50	2.21	381.11	1.00	110.90	9397.32	-9282.95	6479.15
Saccade R	1	6	4920747395	4920767281	19886	481.67	964.07	858.96	964.50	2.21	381.11	1.00	110.90	9397.32	-9282.95	6479.15
Fixation L	1	7	4920767281	4920946257	178976	881.91	969.48	36	8	-1	19.52	19.52
Fixation R	1	7	4920767281	4920946257	178976	881.91	969.48	36	8	-1	19.83	19.83
Saccade L	1	7	4920946257	4920986009	39752	895.10	971.09	1373.21	865.08	4.15	309.17	0.50	104.37	7659.63	-7393.59	6056.83
Saccade R	1	7	4920946257	4920986009	39752	895.10	971.09	1373.21	865.08	4.15	309.17	0.50	104.37	7659.63	-7393.59	6056.83
Fixation L	1	8	4920986009	4921224743	238734	1368.28	869.64	83	9	-1	19.43	19.43
Fixation R	1	8	4920986009	4921224743	238734	1368.28	869.64	83	9	-1	19.27	19.27
Saccade L	1	8	4921224743	4921244632	19889	1439.12	872.21	1497.02	871.13	0.84	84.53	0.00	42.31	1419.41	-1505.25	1410.99
Saccade R	1	8	4921224743	4921244632	19889	1439.12	872.21	1497.02	871.13	0.84	84.53	0.00	42.31	1419.41	-1505.25	1410.99
Fixation L	1	9	4921244632	4921483234	238602	1477.68	864.04	23	13	-1	20.11	20.11
Fixation R	1	9	4921244632	4921483234	238602	1477.68	864.04	23	13	-1	19.72	19.72
Saccade L	1	9	4921483234	4921523105	39871	1476.39	857.65	1513.91	335.72	4.53	306.73	0.50	113.65	7616.32	-6811.96	6350.64
Saccade R	1	9	4921483234	4921523105	39871	1476.39	857.65	1513.91	335.72	4.53	306.73	0.50	113.65	7616.32	-6811.96	6350.64
Fixation L	1	10	4921523105	4921702097	178992	1521.78	342.80	41	44	-1	19.34	19.34
Fixation R	1	10	4921523105	4921702097	178992	1521.78	342.80	41	44	-1	19.94	19.94
Saccade L	1	10	4921702097	4921721963	19866	1526.97	366.88	1337.29	311.93	1.22	199.70	1.00	61.37	4837.17	-4712.60	3267.98
Saccade R	1	10	4921702097	4921721963	19866	1526.97	366.88	1337.29	311.93	1.22	199.70	1.00	61.37	4837.17	-4712.60	3267.98
Fixation L	1	11	4921721963	4921900961	178998	1355.07	282.63	25	47	-1	20.09	20.09
Fixation R	1	11	4921721963	4921900961	178998	1355.07	282.63	25	47	-1	19.98	19.98
Saccade L	1	11	4921900961	4921940709	39748	1352.92	269.33	869.82	328.34	4.08	292.93	0.50	102.57	7146.92	-7295.08	6055.35
Saccade R	1	11	4921900961	4921940709	39748	1352.92	269.33	869.82	328.34	4.08	292.93	0.50	102.57	7146.92	-7295.08	6055.35
Fixation L	1	12	4921940709	4922159572	218863	864.76	332.84	41	15	-1	20.70	20.70
Fixation R	1	12	4921940709	4922159572	218863	864.76	332.84	41	15	-1	20.75	20.75
Saccade L	1	12	4922159572	4922179447	19875	828.29	338.97	605.02	344.51	1.40	225.82	1.00	70.54	5606.75	-5266.12	3796.17
Saccade R	1	12	4922159572	4922179447	19875	828.29	338.97	605.02	344.51	1.40	225.82	1.00	70.54	5606.75	-5266.12	3796.17
Fixation L	1	13	4922179447	4922358434	178987	601.58	370.32	20	34	-1	20.56	20.56
Fixation R	1	13	4922179447	4922358434	178987	601.58	370.32	20	34	-1	20.75	20.75
Saccade L	1	13	4922358434	4922378327	19893	603.80	371.98	813.99	145.06	1.79	312.61	1.00	90.08	7799.36	-7561.67	5369.09
Saccade R	1	13	4922358434	4922378327	19893	603.80	371.98	813.99	145.06	1.79	312.61	1.00	90.08	7799.36	-7561.67	5369.09
Fixation L	1	14	4922378327	4922537430	159103	854.86	163.80	49	41	-1	19.73	19.73
Fixation R	1	14	4922378327	4922537430	159103	854.86	163.80	49	41	-1	20.30	20.30
Saccade L	1	14	4922537430	4922557302	19872	862.50	183.99	877.32	185.78	0.22	18.15	1.00	11.16	326.12	-28.63	191.73
Saccade R	1	14	4922537430	4922557302	19872	862.50	183.99	877.32	185.78	0.22	18.15	1.00	11.16	326.12	-28.63	191.73
Fixation L	1	15	4922557302	4922696559	139257	905.15	180.13	40	13	-1	19.11	19.11
Fixation R	1	15	4922557302	4922696559	139257	905.15	180.13	40	13	-1	19.51	19.51
Saccade L	1	15	4922696559	4922835781	139222	917.40	172.58	376.02	280.50	11.27	335.11	0.29	80.93	8321.83	-7475.05	3258.01
Saccade R	1	15	4922696559	4922835781	139222	917.40	172.58	376.02	280.50	11.27	335.11	0.29	80.93	8321.83	-7475.05	3258.01
