[BeGaze]
Converted from:	C:\Documents and Settings\iViewX\Desktop\EXPERIMENTATIONS\Experiments\results\finaleart\S22H22551-finaleart-1.idf
Date:	27.03.2019 15:58:44
Version:	BeGaze 2.5.77
Sample Rate:	50
Subject:	S22H22551
Description:	Mathieu Chambre

Table Header for Fixations:
Event Type	Trial	Number	Start	End	Duration	Location X	Location Y	Dispersion X	Dispersion Y	Plane	Avg. Pupil Size X	Avg. Pupil Size Y

Table Header for Saccades:
Event Type	Trial	Number	Start	End	Duration	Start Loc.X	Start Loc.Y	End Loc.X	End Loc.Y	Amplitude	Peak Speed	Peak Speed At	Average Speed	Peak Accel.	Peak Decel.	Average Accel.

Table Header for Blinks:
Event Type	Trial	Number	Start	End	Duration

Table Header for User Events:
Event Type	Trial	Number	Start	Description

UserEvent	1	1	5689363211	# Message: still-life-with-bottle-of-wind_cross_1904.jpg
Fixation L	1	1	5689374646	5689871990	497344	1049.05	401.74	63	11	-1	17.50	17.50
Fixation R	1	1	5689374646	5689871990	497344	1049.05	401.74	63	11	-1	17.85	17.85
Saccade L	1	1	5689871990	5689891868	19878	1035.35	395.90	928.04	398.10	0.59	108.57	1.00	29.89	2598.71	-2647.97	1768.47
Saccade R	1	1	5689871990	5689891868	19878	1035.35	395.90	928.04	398.10	0.59	108.57	1.00	29.89	2598.71	-2647.97	1768.47
Fixation L	1	2	5689891868	5690031111	139243	922.85	405.20	9	16	-1	15.09	15.09
Fixation R	1	2	5689891868	5690031111	139243	922.85	405.20	9	16	-1	15.44	15.44
Saccade L	1	2	5690031111	5690070854	39743	921.88	414.85	611.25	418.81	2.65	208.76	1.00	66.74	5111.06	-4978.33	3744.83
Saccade R	1	2	5690031111	5690070854	39743	921.88	414.85	611.25	418.81	2.65	208.76	1.00	66.74	5111.06	-4978.33	3744.83
Fixation L	1	3	5690070854	5690249853	178999	609.51	434.09	11	34	-1	13.54	13.54
Fixation R	1	3	5690070854	5690249853	178999	609.51	434.09	11	34	-1	13.70	13.70
Saccade L	1	3	5690249853	5690269750	19897	602.86	453.47	414.19	642.05	1.80	269.66	1.00	90.44	6655.63	-6631.10	5000.27
Saccade R	1	3	5690249853	5690269750	19897	602.86	453.47	414.19	642.05	1.80	269.66	1.00	90.44	6655.63	-6631.10	5000.27
Fixation L	1	4	5690269750	5690468585	198835	412.89	713.96	2	82	-1	13.20	13.20
Fixation R	1	4	5690269750	5690468585	198835	412.89	713.96	2	82	-1	13.24	13.24
Saccade L	1	4	5690468585	5690508459	39874	412.30	720.54	426.87	919.37	1.75	108.73	1.00	43.99	2698.59	-2364.53	2324.36
Saccade R	1	4	5690468585	5690508459	39874	412.30	720.54	426.87	919.37	1.75	108.73	1.00	43.99	2698.59	-2364.53	2324.36
Fixation L	1	5	5690508459	5690647705	139246	410.79	900.42	25	24	-1	13.13	13.13
Fixation R	1	5	5690508459	5690647705	139246	410.79	900.42	25	24	-1	13.54	13.54
Blink L	1	1	5690647705	5690806820	159115
Blink R	1	1	5690647705	5690806820	159115
Saccade L	1	5	5690806820	5690846567	39747	1444.08	887.87	1350.30	856.75	15.06	1675.33	1.00	378.83	1699.73	-40236.94	10916.44
Saccade R	1	5	5690806820	5690846567	39747	1444.08	887.87	1350.30	856.75	15.06	1675.33	1.00	378.83	1699.73	-40236.94	10916.44
Fixation L	1	6	5690846567	5690965933	119366	1363.99	851.03	33	40	-1	14.12	14.12
Fixation R	1	6	5690846567	5690965933	119366	1363.99	851.03	33	40	-1	14.46	14.46
Saccade L	1	6	5690965933	5690985814	19881	1365.95	856.13	1470.81	937.44	0.94	134.21	1.00	47.03	3073.47	-2178.30	2092.35
Saccade R	1	6	5690965933	5690985814	19881	1365.95	856.13	1470.81	937.44	0.94	134.21	1.00	47.03	3073.47	-2178.30	2092.35
Fixation L	1	7	5690985814	5691125052	139238	1484.64	936.24	18	60	-1	14.62	14.62
Fixation R	1	7	5690985814	5691125052	139238	1484.64	936.24	18	60	-1	14.76	14.76
Saccade L	1	7	5691125052	5691144928	19876	1487.68	958.45	1599.93	1102.34	1.22	184.55	1.00	61.23	4545.58	-4287.83	3171.61
Saccade R	1	7	5691125052	5691144928	19876	1487.68	958.45	1599.93	1102.34	1.22	184.55	1.00	61.23	4545.58	-4287.83	3171.61
Fixation L	1	8	5691144928	5691383538	238610	1564.26	1092.92	55	40	-1	15.02	15.02
Fixation R	1	8	5691144928	5691383538	238610	1564.26	1092.92	55	40	-1	14.74	14.74
Saccade L	1	8	5691383538	5691403535	19997	1544.08	1113.16	1541.81	1120.72	0.18	14.07	1.00	9.25	-6.02	-152.10	61.64
Saccade R	1	8	5691383538	5691403535	19997	1544.08	1113.16	1541.81	1120.72	0.18	14.07	1.00	9.25	-6.02	-152.10	61.64
Fixation L	1	9	5691403535	5691801270	397735	1544.45	1131.23	28	16	-1	15.68	15.68
Fixation R	1	9	5691403535	5691801270	397735	1544.45	1131.23	28	16	-1	15.39	15.39
Saccade L	1	9	5691801270	5691860889	59619	1548.89	1130.43	1328.88	511.75	6.67	347.58	0.33	111.84	8667.47	-6835.60	5844.42
Saccade R	1	9	5691801270	5691860889	59619	1548.89	1130.43	1328.88	511.75	6.67	347.58	0.33	111.84	8667.47	-6835.60	5844.42
Fixation L	1	10	5691860889	5692099627	238738	1312.57	518.22	43	11	-1	15.25	15.25
Fixation R	1	10	5691860889	5692099627	238738	1312.57	518.22	43	11	-1	15.01	15.01
Saccade L	1	10	5692099627	5692119509	19882	1285.21	517.12	1127.35	368.79	1.31	219.03	1.00	65.85	5399.98	-5347.11	3637.89
Saccade R	1	10	5692099627	5692119509	19882	1285.21	517.12	1127.35	368.79	1.31	219.03	1.00	65.85	5399.98	-5347.11	3637.89
Fixation L	1	11	5692119509	5692278615	159106	1117.40	351.20	19	24	-1	14.86	14.86
Fixation R	1	11	5692119509	5692278615	159106	1117.40	351.20	19	24	-1	14.77	14.77
Saccade L	1	11	5692278615	5692318369	39754	1112.13	344.17	688.10	235.94	3.77	244.38	0.50	94.85	6048.24	-5642.02	5436.66
Saccade R	1	11	5692278615	5692318369	39754	1112.13	344.17	688.10	235.94	3.77	244.38	0.50	94.85	6048.24	-5642.02	5436.66
Fixation L	1	12	5692318369	5692477484	159115	701.88	240.58	18	25	-1	14.83	14.83
Fixation R	1	12	5692318369	5692477484	159115	701.88	240.58	18	25	-1	14.80	14.80
Saccade L	1	12	5692477484	5692557107	79623	702.00	245.39	390.86	189.58	5.53	205.79	0.25	69.44	5046.11	-3539.68	2795.72
Saccade R	1	12	5692477484	5692557107	79623	702.00	245.39	390.86	189.58	5.53	205.79	0.25	69.44	5046.11	-3539.68	2795.72
Fixation L	1	13	5692557107	5692736086	178979	417.65	221.45	37	57	-1	14.53	14.53
Fixation R	1	13	5692557107	5692736086	178979	417.65	221.45	37	57	-1	14.68	14.68
Saccade L	1	13	5692736086	5692775843	39757	428.52	246.93	816.92	290.45	3.46	256.11	0.50	86.93	6135.42	-5868.95	4644.40
Saccade R	1	13	5692736086	5692775843	39757	428.52	246.93	816.92	290.45	3.46	256.11	0.50	86.93	6135.42	-5868.95	4644.40
Fixation L	1	14	5692775843	5692954831	178988	821.87	263.37	8	42	-1	14.71	14.71
Fixation R	1	14	5692775843	5692954831	178988	821.87	263.37	8	42	-1	14.81	14.81
Saccade L	1	14	5692954831	5692994702	39871	820.86	248.27	1082.05	280.99	2.29	160.98	1.00	57.38	3916.77	-3564.69	3126.45
Saccade R	1	14	5692954831	5692994702	39871	820.86	248.27	1082.05	280.99	2.29	160.98	1.00	57.38	3916.77	-3564.69	3126.45
Fixation L	1	15	5692994702	5693213446	218744	1076.36	290.04	12	18	-1	14.91	14.91
Fixation R	1	15	5692994702	5693213446	218744	1076.36	290.04	12	18	-1	15.21	15.21
Saccade L	1	15	5693213446	5693233314	19868	1080.82	297.28	1222.00	380.01	0.91	165.49	1.00	45.60	4110.76	-4056.13	2797.41
Saccade R	1	15	5693213446	5693233314	19868	1080.82	297.28	1222.00	380.01	0.91	165.49	1.00	45.60	4110.76	-4056.13	2797.41
Fixation L	1	16	5693233314	5693352702	119388	1214.60	394.13	10	25	-1	15.24	15.24
Fixation R	1	16	5693233314	5693352702	119388	1214.60	394.13	10	25	-1	15.49	15.49
