[BeGaze]
Converted from:	C:\Documents and Settings\iViewX\Desktop\EXPERIMENTATIONS\Experiments\results\finaleart\S22H22551-finaleart-1.idf
Date:	27.03.2019 15:58:38
Version:	BeGaze 2.5.77
Sample Rate:	50
Subject:	S22H22551
Description:	Mathieu Chambre

Table Header for Fixations:
Event Type	Trial	Number	Start	End	Duration	Location X	Location Y	Dispersion X	Dispersion Y	Plane	Avg. Pupil Size X	Avg. Pupil Size Y

Table Header for Saccades:
Event Type	Trial	Number	Start	End	Duration	Start Loc.X	Start Loc.Y	End Loc.X	End Loc.Y	Amplitude	Peak Speed	Peak Speed At	Average Speed	Peak Accel.	Peak Decel.	Average Accel.

Table Header for Blinks:
Event Type	Trial	Number	Start	End	Duration

Table Header for User Events:
Event Type	Trial	Number	Start	Description

UserEvent	1	1	5646451194	# Message: parrot-tulips-(II)_matisse_1905.jpg
Fixation L	1	1	5646452249	5646969365	517116	964.01	463.59	30	44	-1	16.16	16.16
Fixation R	1	1	5646452249	5646969365	517116	964.01	463.59	30	44	-1	15.83	15.83
Saccade L	1	1	5646969365	5646989240	19875	950.38	445.57	925.32	427.49	0.37	31.26	1.00	18.41	761.86	-377.99	539.31
Saccade R	1	1	5646969365	5646989240	19875	950.38	445.57	925.32	427.49	0.37	31.26	1.00	18.41	761.86	-377.99	539.31
Fixation L	1	2	5646989240	5647267718	278478	904.25	384.15	37	56	-1	13.93	13.93
Fixation R	1	2	5646989240	5647267718	278478	904.25	384.15	37	56	-1	13.68	13.68
Saccade L	1	2	5647267718	5647307484	39766	896.47	381.54	872.40	712.73	2.91	226.73	0.50	73.20	5622.67	-5254.34	3984.64
Saccade R	1	2	5647267718	5647307484	39766	896.47	381.54	872.40	712.73	2.91	226.73	0.50	73.20	5622.67	-5254.34	3984.64
Fixation L	1	3	5647307484	5647486445	178961	844.12	711.82	39	12	-1	12.88	12.88
Fixation R	1	3	5647307484	5647486445	178961	844.12	711.82	39	12	-1	13.07	13.07
Saccade L	1	3	5647486445	5647546196	59751	832.88	711.00	1461.04	933.75	7.12	351.16	0.67	119.16	8711.83	-7882.82	5030.95
Saccade R	1	3	5647486445	5647546196	59751	832.88	711.00	1461.04	933.75	7.12	351.16	0.67	119.16	8711.83	-7882.82	5030.95
Fixation L	1	4	5647546196	5647685314	139118	1441.16	962.31	28	43	-1	13.54	13.54
Fixation R	1	4	5647546196	5647685314	139118	1441.16	962.31	28	43	-1	13.04	13.04
Saccade L	1	4	5647685314	5647705308	19994	1440.84	976.78	1537.76	1103.01	0.95	160.95	1.00	47.35	3862.41	-3995.76	2720.80
Saccade R	1	4	5647685314	5647705308	19994	1440.84	976.78	1537.76	1103.01	0.95	160.95	1.00	47.35	3862.41	-3995.76	2720.80
Fixation L	1	5	5647705308	5649356104	1650796	1567.03	1104.25	66	20	-1	14.27	14.27
Fixation R	1	5	5647705308	5649356104	1650796	1567.03	1104.25	66	20	-1	13.51	13.51
Blink L	1	1	5649356104	5649574966	218862
Blink R	1	1	5649356104	5649574966	218862
Fixation L	1	6	5649574966	5649753956	178990	1380.53	414.63	8	10	-1	16.17	16.17
Fixation R	1	6	5649574966	5649753956	178990	1380.53	414.63	8	10	-1	15.26	15.26
Saccade L	1	5	5649753956	5649773834	19878	1377.07	412.07	1251.96	348.25	1.04	142.05	1.00	52.50	3518.45	-3369.18	2782.91
Saccade R	1	5	5649753956	5649773834	19878	1377.07	412.07	1251.96	348.25	1.04	142.05	1.00	52.50	3518.45	-3369.18	2782.91
Fixation L	1	7	5649773834	5649952822	178988	1234.50	314.14	29	67	-1	16.54	16.54
Fixation R	1	7	5649773834	5649952822	178988	1234.50	314.14	29	67	-1	15.93	15.93
Saccade L	1	6	5649952822	5649972689	19867	1222.75	324.97	992.51	336.40	1.23	233.08	1.00	61.83	5781.31	-5567.88	3790.13
Saccade R	1	6	5649952822	5649972689	19867	1222.75	324.97	992.51	336.40	1.23	233.08	1.00	61.83	5781.31	-5567.88	3790.13
Fixation L	1	8	5649972689	5650171558	198869	994.95	340.62	8	24	-1	16.55	16.55
Fixation R	1	8	5649972689	5650171558	198869	994.95	340.62	8	24	-1	15.94	15.94
Saccade L	1	7	5650171558	5650191558	20000	988.60	325.69	756.82	291.30	1.61	236.91	1.00	80.48	5823.42	-5566.19	4155.58
Saccade R	1	7	5650171558	5650191558	20000	988.60	325.69	756.82	291.30	1.61	236.91	1.00	80.48	5823.42	-5566.19	4155.58
Fixation L	1	9	5650191558	5650370558	179000	708.26	267.05	57	34	-1	15.55	15.55
Fixation R	1	9	5650191558	5650370558	179000	708.26	267.05	57	34	-1	15.34	15.34
Saccade L	1	8	5650370558	5650469931	99373	700.16	265.24	503.88	204.39	3.93	203.77	0.20	39.55	4974.12	-4570.82	1759.49
Saccade R	1	8	5650370558	5650469931	99373	700.16	265.24	503.88	204.39	3.93	203.77	0.20	39.55	4974.12	-4570.82	1759.49
