[BeGaze]
Converted from:	C:\Documents and Settings\iViewX\Desktop\EXPERIMENTATIONS\Experiments\results\finaleart\S22H22551-finaleart-1.idf
Date:	27.03.2019 15:57:37
Version:	BeGaze 2.5.77
Sample Rate:	50
Subject:	S22H22551
Description:	Mathieu Chambre

Table Header for Fixations:
Event Type	Trial	Number	Start	End	Duration	Location X	Location Y	Dispersion X	Dispersion Y	Plane	Avg. Pupil Size X	Avg. Pupil Size Y

Table Header for Saccades:
Event Type	Trial	Number	Start	End	Duration	Start Loc.X	Start Loc.Y	End Loc.X	End Loc.Y	Amplitude	Peak Speed	Peak Speed At	Average Speed	Peak Accel.	Peak Decel.	Average Accel.

Table Header for Blinks:
Event Type	Trial	Number	Start	End	Duration

Table Header for User Events:
Event Type	Trial	Number	Start	Description

UserEvent	1	1	5123217614	# Message: void.jpg
Fixation L	1	1	5123237120	5123495591	258471	1324.89	1109.08	86	9	-1	18.86	18.86
Fixation R	1	1	5123237120	5123495591	258471	1324.89	1109.08	86	9	-1	17.97	17.97
Saccade L	1	1	5123495591	5123515461	19870	1266.02	1112.66	1266.69	1115.81	0.10	12.19	1.00	4.94	81.43	-223.28	125.39
Saccade R	1	1	5123495591	5123515461	19870	1266.02	1112.66	1266.69	1115.81	0.10	12.19	1.00	4.94	81.43	-223.28	125.39
Fixation L	1	2	5123515461	5123674570	159109	1265.96	1122.64	5	22	-1	18.99	18.99
Fixation R	1	2	5123515461	5123674570	159109	1265.96	1122.64	5	22	-1	18.27	18.27
Blink L	1	1	5123674570	5123893434	218864
Blink R	1	1	5123674570	5123893434	218864
Fixation L	1	3	5123893434	5124450310	556876	1011.18	389.79	23	76	-1	15.57	15.57
Fixation R	1	3	5123893434	5124450310	556876	1011.18	389.79	23	76	-1	15.27	15.27
Saccade L	1	2	5124450310	5124470283	19973	997.63	345.13	994.74	350.32	0.12	11.60	0.00	6.11	52.96	-216.12	102.02
Saccade R	1	2	5124450310	5124470283	19973	997.63	345.13	994.74	350.32	0.12	11.60	0.00	6.11	52.96	-216.12	102.02
Fixation L	1	4	5124470283	5124629408	159125	1009.52	350.62	46	39	-1	16.00	16.00
Fixation R	1	4	5124470283	5124629408	159125	1009.52	350.62	46	39	-1	16.13	16.13
Saccade L	1	3	5124629408	5124649284	19876	1039.31	374.28	1042.34	387.34	0.20	15.53	0.00	10.19	120.03	-315.82	194.84
Saccade R	1	3	5124629408	5124649284	19876	1039.31	374.28	1042.34	387.34	0.20	15.53	0.00	10.19	120.03	-315.82	194.84
Fixation L	1	5	5124649284	5125027133	377849	1058.95	404.04	41	56	-1	16.40	16.40
Fixation R	1	5	5124649284	5125027133	377849	1058.95	404.04	41	56	-1	16.64	16.64
Saccade L	1	4	5125027133	5125047004	19871	1046.38	363.71	1039.64	342.56	0.43	54.42	0.00	21.39	435.50	-1269.79	636.30
Saccade R	1	4	5125027133	5125047004	19871	1046.38	363.71	1039.64	342.56	0.43	54.42	0.00	21.39	435.50	-1269.79	636.30
Fixation L	1	6	5125047004	5125206124	159120	1037.27	346.25	8	51	-1	17.52	17.52
Fixation R	1	6	5125047004	5125206124	159120	1037.27	346.25	8	51	-1	17.62	17.62
