[BeGaze]
Converted from:	C:\Documents and Settings\iViewX\Desktop\EXPERIMENTATIONS\Experiments\results\finaleart\S22H22551-finaleart-1.idf
Date:	27.03.2019 15:57:12
Version:	BeGaze 2.5.77
Sample Rate:	50
Subject:	S22H22551
Description:	Mathieu Chambre

Table Header for Fixations:
Event Type	Trial	Number	Start	End	Duration	Location X	Location Y	Dispersion X	Dispersion Y	Plane	Avg. Pupil Size X	Avg. Pupil Size Y

Table Header for Saccades:
Event Type	Trial	Number	Start	End	Duration	Start Loc.X	Start Loc.Y	End Loc.X	End Loc.Y	Amplitude	Peak Speed	Peak Speed At	Average Speed	Peak Accel.	Peak Decel.	Average Accel.

Table Header for Blinks:
Event Type	Trial	Number	Start	End	Duration

Table Header for User Events:
Event Type	Trial	Number	Start	Description

UserEvent	1	1	4900450891	# Message: Kiprensky-standing-sitter-with-a-stick-sitter-on-a-rock-1801.jpg
Fixation L	1	1	4900459598	4900797712	338114	1103.57	337.24	28	50	-1	19.64	19.64
Fixation R	1	1	4900459598	4900797712	338114	1103.57	337.24	28	50	-1	20.17	20.17
Saccade L	1	1	4900797712	4900857437	59725	1087.45	331.38	616.60	210.70	5.26	215.17	0.67	88.13	5231.56	-4722.14	3379.71
Saccade R	1	1	4900797712	4900857437	59725	1087.45	331.38	616.60	210.70	5.26	215.17	0.67	88.13	5231.56	-4722.14	3379.71
Fixation L	1	2	4900857437	4901016554	159117	633.94	219.28	25	17	-1	17.41	17.41
Fixation R	1	2	4900857437	4901016554	159117	633.94	219.28	25	17	-1	17.83	17.83
Saccade L	1	2	4901016554	4901036423	19869	629.06	214.95	617.84	145.34	0.53	71.32	1.00	26.75	1702.73	-1718.33	1220.62
Saccade R	1	2	4901016554	4901036423	19869	629.06	214.95	617.84	145.34	0.53	71.32	1.00	26.75	1702.73	-1718.33	1220.62
Fixation L	1	3	4901036423	4901215416	178993	599.99	157.52	22	47	-1	14.71	14.71
Fixation R	1	3	4901036423	4901215416	178993	599.99	157.52	22	47	-1	15.26	15.26
Saccade L	1	3	4901215416	4901235287	19871	596.47	193.08	591.89	441.66	1.53	251.36	1.00	77.17	6183.78	-6076.50	4415.32
Saccade R	1	3	4901215416	4901235287	19871	596.47	193.08	591.89	441.66	1.53	251.36	1.00	77.17	6183.78	-6076.50	4415.32
Fixation L	1	4	4901235287	4901434150	198863	581.52	459.51	20	77	-1	14.44	14.44
Fixation R	1	4	4901235287	4901434150	198863	581.52	459.51	20	77	-1	15.08	15.08
Saccade L	1	4	4901434150	4901573400	139250	572.06	515.59	1251.58	512.88	11.25	326.19	0.86	80.81	8078.51	-7959.52	3489.67
Saccade R	1	4	4901434150	4901573400	139250	572.06	515.59	1251.58	512.88	11.25	326.19	0.86	80.81	8078.51	-7959.52	3489.67
Fixation L	1	5	4901573400	4901752514	179114	1267.94	500.64	35	25	-1	15.42	15.42
Fixation R	1	5	4901573400	4901752514	179114	1267.94	500.64	35	25	-1	16.55	16.55
Saccade L	1	5	4901752514	4901772403	19889	1286.71	500.21	1407.00	500.45	0.81	121.68	1.00	40.69	3014.88	-2489.05	1859.45
Saccade R	1	5	4901752514	4901772403	19889	1286.71	500.21	1407.00	500.45	0.81	121.68	1.00	40.69	3014.88	-2489.05	1859.45
Fixation L	1	6	4901772403	4901971249	198846	1390.30	536.08	20	50	-1	15.73	15.73
Fixation R	1	6	4901772403	4901971249	198846	1390.30	536.08	20	50	-1	16.57	16.57
Saccade L	1	6	4901971249	4902010999	39750	1386.64	548.70	1398.18	188.52	3.31	206.76	1.00	83.19	5069.09	-4874.65	4160.05
Saccade R	1	6	4901971249	4902010999	39750	1386.64	548.70	1398.18	188.52	3.31	206.76	1.00	83.19	5069.09	-4874.65	4160.05
Fixation L	1	7	4902010999	4902349099	338100	1415.00	242.03	25	70	-1	15.66	15.66
Fixation R	1	7	4902010999	4902349099	338100	1415.00	242.03	25	70	-1	16.23	16.23
Saccade L	1	7	4902349099	4902428730	79631	1404.65	259.15	1541.13	653.99	5.81	286.65	1.00	73.01	7096.18	-7126.99	3209.77
Saccade R	1	7	4902349099	4902428730	79631	1404.65	259.15	1541.13	653.99	5.81	286.65	1.00	73.01	7096.18	-7126.99	3209.77
Fixation L	1	8	4902428730	4902607719	178989	1533.64	713.21	17	72	-1	17.19	17.19
Fixation R	1	8	4902428730	4902607719	178989	1533.64	713.21	17	72	-1	16.77	16.77
Saccade L	1	8	4902607719	4902627587	19868	1523.88	726.61	1510.83	725.97	0.24	24.39	1.00	12.32	357.25	-177.23	275.24
Saccade R	1	8	4902607719	4902627587	19868	1523.88	726.61	1510.83	725.97	0.24	24.39	1.00	12.32	357.25	-177.23	275.24
Fixation L	1	9	4902627587	4902727087	99500	1538.59	717.09	39	17	-1	16.73	16.73
Fixation R	1	9	4902627587	4902727087	99500	1538.59	717.09	39	17	-1	16.54	16.54
Saccade L	1	9	4902727087	4902746965	19878	1549.89	714.25	1395.44	873.94	1.39	224.63	1.00	69.69	5422.62	-5498.68	3935.53
Saccade R	1	9	4902727087	4902746965	19878	1549.89	714.25	1395.44	873.94	1.39	224.63	1.00	69.69	5422.62	-5498.68	3935.53
Fixation L	1	10	4902746965	4902965719	218754	1391.44	918.03	7	51	-1	16.46	16.46
Fixation R	1	10	4902746965	4902965719	218754	1391.44	918.03	7	51	-1	15.82	15.82
Saccade L	1	10	4902965719	4902985573	19854	1387.57	925.10	1231.17	830.30	1.09	184.95	1.00	55.15	4591.02	-4324.72	3232.22
Saccade R	1	10	4902965719	4902985573	19854	1387.57	925.10	1231.17	830.30	1.09	184.95	1.00	55.15	4591.02	-4324.72	3232.22
Fixation L	1	11	4902985573	4903204435	218862	1206.11	802.94	32	38	-1	16.28	16.28
Fixation R	1	11	4902985573	4903204435	218862	1206.11	802.94	32	38	-1	15.70	15.70
Saccade L	1	11	4903204435	4903264053	59618	1203.88	791.79	600.85	892.88	6.27	263.16	0.67	105.20	6542.65	-6524.36	4681.77
Saccade R	1	11	4903204435	4903264053	59618	1203.88	791.79	600.85	892.88	6.27	263.16	0.67	105.20	6542.65	-6524.36	4681.77
Fixation L	1	12	4903264053	4903502799	238746	599.43	886.85	4	21	-1	16.08	16.08
Fixation R	1	12	4903264053	4903502799	238746	599.43	886.85	4	21	-1	16.29	16.29
Saccade L	1	12	4903502799	4903542537	39738	598.30	884.38	419.93	511.36	3.83	293.69	0.50	96.49	7197.82	-6659.29	5242.52
Saccade R	1	12	4903502799	4903542537	39738	598.30	884.38	419.93	511.36	3.83	293.69	0.50	96.49	7197.82	-6659.29	5242.52
Fixation L	1	13	4903542537	4903801153	258616	418.10	538.89	53	41	-1	15.52	15.52
Fixation R	1	13	4903542537	4903801153	258616	418.10	538.89	53	41	-1	15.83	15.83
Saccade L	1	13	4903801153	4903821022	19869	379.80	553.33	370.80	558.64	0.10	10.57	1.00	5.20	180.39	-185.83	172.27
Saccade R	1	13	4903801153	4903821022	19869	379.80	553.33	370.80	558.64	0.10	10.57	1.00	5.20	180.39	-185.83	172.27
Fixation L	1	14	4903821022	4904000024	179002	367.17	564.42	13	14	-1	15.67	15.67
Fixation R	1	14	4903821022	4904000024	179002	367.17	564.42	13	14	-1	16.07	16.07
Saccade L	1	14	4904000024	4904039769	39745	373.99	571.33	666.80	48.44	5.39	418.64	0.50	135.65	10349.25	-9470.24	7385.03
Saccade R	1	14	4904000024	4904039769	39745	373.99	571.33	666.80	48.44	5.39	418.64	0.50	135.65	10349.25	-9470.24	7385.03
Fixation L	1	15	4904039769	4904159138	119369	661.20	91.04	30	69	-1	15.63	15.63
Fixation R	1	15	4904039769	4904159138	119369	661.20	91.04	30	69	-1	16.19	16.19
Saccade L	1	15	4904159138	4904238754	79616	655.63	117.51	828.58	23.02	3.14	185.34	1.00	39.44	4592.48	-4447.72	1653.62
Saccade R	1	15	4904159138	4904238754	79616	655.63	117.51	828.58	23.02	3.14	185.34	1.00	39.44	4592.48	-4447.72	1653.62
Fixation L	1	16	4904238754	4904358001	119247	828.62	45.00	21	43	-1	15.50	15.50
Fixation R	1	16	4904238754	4904358001	119247	828.62	45.00	21	43	-1	16.29	16.29
Saccade L	1	16	4904358001	4904437618	79617	840.00	41.08	1349.29	244.54	7.82	323.27	0.25	98.17	7944.60	-7869.35	5511.00
Saccade R	1	16	4904358001	4904437618	79617	840.00	41.08	1349.29	244.54	7.82	323.27	0.25	98.17	7944.60	-7869.35	5511.00
