[BeGaze]
Converted from:	C:\Documents and Settings\iViewX\Desktop\EXPERIMENTATIONS\Experiments\results\finaleart\S22H22551-finaleart-1.idf
Date:	27.03.2019 15:57:54
Version:	BeGaze 2.5.77
Sample Rate:	50
Subject:	S22H22551
Description:	Mathieu Chambre

Table Header for Fixations:
Event Type	Trial	Number	Start	End	Duration	Location X	Location Y	Dispersion X	Dispersion Y	Plane	Avg. Pupil Size X	Avg. Pupil Size Y

Table Header for Saccades:
Event Type	Trial	Number	Start	End	Duration	Start Loc.X	Start Loc.Y	End Loc.X	End Loc.Y	Amplitude	Peak Speed	Peak Speed At	Average Speed	Peak Accel.	Peak Decel.	Average Accel.

Table Header for Blinks:
Event Type	Trial	Number	Start	End	Duration

Table Header for User Events:
Event Type	Trial	Number	Start	Description

UserEvent	1	1	5233607470	# Message: void.jpg
Fixation L	1	1	5233612359	5233870964	258605	866.30	503.07	14	77	-1	18.16	18.16
Fixation R	1	1	5233612359	5233870964	258605	866.30	503.07	14	77	-1	19.63	19.63
Saccade L	1	1	5233870964	5233890844	19880	873.13	514.32	1004.07	486.71	0.72	135.35	1.00	35.99	3323.81	-3322.66	2255.15
Saccade R	1	1	5233870964	5233890844	19880	873.13	514.32	1004.07	486.71	0.72	135.35	1.00	35.99	3323.81	-3322.66	2255.15
Fixation L	1	2	5233890844	5234129582	238738	1005.01	478.43	8	24	-1	18.84	18.84
Fixation R	1	2	5233890844	5234129582	238738	1005.01	478.43	8	24	-1	19.79	19.79
Blink L	1	1	5234129582	5234348313	218731
Blink R	1	1	5234129582	5234348313	218731
Fixation L	1	3	5234348313	5234447819	99506	1193.23	345.76	8	21	-1	18.04	18.04
Fixation R	1	3	5234348313	5234447819	99506	1193.23	345.76	8	21	-1	18.14	18.14
Blink L	1	2	5234447819	5234606934	159115
Blink R	1	2	5234447819	5234606934	159115
Fixation L	1	4	5234606934	5235203649	596715	1101.49	419.64	59	36	-1	18.61	18.61
Fixation R	1	4	5234606934	5235203649	596715	1101.49	419.64	59	36	-1	18.45	18.45
Saccade L	1	2	5235203649	5235223522	19873	1073.10	422.83	1068.83	422.47	0.08	4.59	1.00	3.92	33.56	-34.43	24.84
Saccade R	1	2	5235203649	5235223522	19873	1073.10	422.83	1068.83	422.47	0.08	4.59	1.00	3.92	33.56	-34.43	24.84
Fixation L	1	5	5235223522	5235382635	159113	1063.86	431.68	10	15	-1	18.24	18.24
Fixation R	1	5	5235223522	5235382635	159113	1063.86	431.68	10	15	-1	18.22	18.22
Saccade L	1	3	5235382635	5235402515	19880	1058.81	437.72	1046.81	528.59	0.60	92.72	1.00	29.96	2210.14	-1877.37	1440.76
Saccade R	1	3	5235382635	5235402515	19880	1058.81	437.72	1046.81	528.59	0.60	92.72	1.00	29.96	2210.14	-1877.37	1440.76
Fixation L	1	6	5235402515	5235601377	198862	1025.94	521.54	34	16	-1	18.42	18.42
Fixation R	1	6	5235402515	5235601377	198862	1025.94	521.54	34	16	-1	18.42	18.42
