[BeGaze]
Converted from:	C:\Documents and Settings\iViewX\Desktop\EXPERIMENTATIONS\Experiments\results\finaleart\S22H22551-finaleart-1.idf
Date:	27.03.2019 15:57:10
Version:	BeGaze 2.5.77
Sample Rate:	50
Subject:	S22H22551
Description:	Mathieu Chambre

Table Header for Fixations:
Event Type	Trial	Number	Start	End	Duration	Location X	Location Y	Dispersion X	Dispersion Y	Plane	Avg. Pupil Size X	Avg. Pupil Size Y

Table Header for Saccades:
Event Type	Trial	Number	Start	End	Duration	Start Loc.X	Start Loc.Y	End Loc.X	End Loc.Y	Amplitude	Peak Speed	Peak Speed At	Average Speed	Peak Accel.	Peak Decel.	Average Accel.

Table Header for Blinks:
Event Type	Trial	Number	Start	End	Duration

Table Header for User Events:
Event Type	Trial	Number	Start	Description

UserEvent	1	1	4881896645	# Message: Matejko-Akt-meski.jpg
Fixation L	1	1	4881903801	4882301529	397728	981.26	459.29	44	34	-1	20.82	20.82
Fixation R	1	1	4881903801	4882301529	397728	981.26	459.29	44	34	-1	21.52	21.52
Saccade L	1	1	4882301529	4882321550	20021	967.56	477.16	898.13	287.91	1.28	203.85	1.00	64.11	5050.21	-4790.00	3662.19
Saccade R	1	1	4882301529	4882321550	20021	967.56	477.16	898.13	287.91	1.28	203.85	1.00	64.11	5050.21	-4790.00	3662.19
Fixation L	1	2	4882321550	4882480641	159091	845.54	277.93	69	16	-1	20.38	20.38
Fixation R	1	2	4882321550	4882480641	159091	845.54	277.93	69	16	-1	20.98	20.98
Saccade L	1	2	4882480641	4882500511	19870	828.30	273.30	838.86	103.40	0.99	172.16	1.00	49.83	4130.12	-3825.31	2812.57
Saccade R	1	2	4882480641	4882500511	19870	828.30	273.30	838.86	103.40	0.99	172.16	1.00	49.83	4130.12	-3825.31	2812.57
Fixation L	1	3	4882500511	4882957986	457475	853.63	139.44	28	71	-1	19.81	19.81
Fixation R	1	3	4882500511	4882957986	457475	853.63	139.44	28	71	-1	20.53	20.53
Saccade L	1	3	4882957986	4882977877	19891	866.05	172.65	868.34	177.76	0.07	5.66	1.00	3.46	74.67	-9.61	35.18
Saccade R	1	3	4882957986	4882977877	19891	866.05	172.65	868.34	177.76	0.07	5.66	1.00	3.46	74.67	-9.61	35.18
Fixation L	1	4	4882977877	4883176727	198850	873.50	197.22	7	35	-1	20.39	20.39
Fixation R	1	4	4882977877	4883176727	198850	873.50	197.22	7	35	-1	21.21	21.21
Saccade L	1	4	4883176727	4883216479	39752	874.97	212.84	874.94	552.66	2.94	214.64	0.50	73.85	5092.73	-5052.63	4110.26
Saccade R	1	4	4883176727	4883216479	39752	874.97	212.84	874.94	552.66	2.94	214.64	0.50	73.85	5092.73	-5052.63	4110.26
Fixation L	1	5	4883216479	4883435340	218861	876.45	542.74	8	14	-1	21.34	21.34
Fixation R	1	5	4883216479	4883435340	218861	876.45	542.74	8	14	-1	22.01	22.01
Saccade L	1	5	4883435340	4883475090	39750	881.07	544.65	845.91	586.77	1.87	130.46	0.50	47.00	3214.62	-2755.97	2395.26
Saccade R	1	5	4883435340	4883475090	39750	881.07	544.65	845.91	586.77	1.87	130.46	0.50	47.00	3214.62	-2755.97	2395.26
Fixation L	1	6	4883475090	4883654080	178990	813.21	593.83	61	20	-1	21.91	21.91
Fixation R	1	6	4883475090	4883654080	178990	813.21	593.83	61	20	-1	22.51	22.51
Saccade L	1	6	4883654080	4883673949	19869	784.05	600.62	624.69	597.48	1.06	161.20	1.00	53.40	3856.09	-3797.31	2582.68
Saccade R	1	6	4883654080	4883673949	19869	784.05	600.62	624.69	597.48	1.06	161.20	1.00	53.40	3856.09	-3797.31	2582.68
Fixation L	1	7	4883673949	4883793325	119376	646.60	594.35	31	4	-1	21.69	21.69
Fixation R	1	7	4883673949	4883793325	119376	646.60	594.35	31	4	-1	22.58	22.58
Saccade L	1	7	4883793325	4883833067	39742	655.95	594.22	803.46	969.52	3.79	313.34	1.00	95.30	7783.14	-7697.41	4708.12
Saccade R	1	7	4883793325	4883833067	39742	655.95	594.22	803.46	969.52	3.79	313.34	1.00	95.30	7783.14	-7697.41	4708.12
Fixation L	1	8	4883833067	4883992182	159115	788.62	1025.36	23	73	-1	21.74	21.74
Fixation R	1	8	4883833067	4883992182	159115	788.62	1025.36	23	73	-1	22.86	22.86
Saccade L	1	8	4883992182	4884131431	139249	780.00	1043.26	1392.05	700.90	10.53	383.69	0.86	75.60	9537.76	-9585.87	3100.57
Saccade R	1	8	4883992182	4884131431	139249	780.00	1043.26	1392.05	700.90	10.53	383.69	0.86	75.60	9537.76	-9585.87	3100.57
Fixation L	1	9	4884131431	4884270673	139242	1384.39	701.67	11	3	-1	20.54	20.54
Fixation R	1	9	4884131431	4884270673	139242	1384.39	701.67	11	3	-1	21.21	21.21
Saccade L	1	9	4884270673	4884290548	19875	1381.97	703.23	1464.42	647.89	0.69	100.44	1.00	34.85	2487.79	-1749.98	1698.41
Saccade R	1	9	4884270673	4884290548	19875	1381.97	703.23	1464.42	647.89	0.69	100.44	1.00	34.85	2487.79	-1749.98	1698.41
Fixation L	1	10	4884290548	4884588901	298353	1452.15	649.97	26	27	-1	19.90	19.90
Fixation R	1	10	4884290548	4884588901	298353	1452.15	649.97	26	27	-1	20.55	20.55
Saccade L	1	10	4884588901	4884628643	39742	1442.82	647.75	1472.24	930.84	2.42	170.62	1.00	60.98	4206.53	-4114.46	3454.40
Saccade R	1	10	4884588901	4884628643	39742	1442.82	647.75	1472.24	930.84	2.42	170.62	1.00	60.98	4206.53	-4114.46	3454.40
Fixation L	1	11	4884628643	4884787763	159120	1482.17	947.94	21	28	-1	20.59	20.59
Fixation R	1	11	4884628643	4884787763	159120	1482.17	947.94	21	28	-1	20.64	20.64
Saccade L	1	11	4884787763	4884807646	19883	1493.23	959.50	1502.69	1129.60	1.10	172.29	1.00	55.16	4194.13	-4230.92	3068.25
Saccade R	1	11	4884787763	4884807646	19883	1493.23	959.50	1502.69	1129.60	1.10	172.29	1.00	55.16	4194.13	-4230.92	3068.25
Fixation L	1	12	4884807646	4885285115	477469	1527.27	1106.26	36	36	-1	21.34	21.34
Fixation R	1	12	4884807646	4885285115	477469	1527.27	1106.26	36	36	-1	21.03	21.03
Saccade L	1	12	4885285115	4885364609	79494	1531.31	1109.98	498.38	993.58	12.24	327.77	0.50	153.97	8164.32	-6705.33	5013.45
Saccade R	1	12	4885285115	4885364609	79494	1531.31	1109.98	498.38	993.58	12.24	327.77	0.50	153.97	8164.32	-6705.33	5013.45
Fixation L	1	13	4885364609	4885563484	198875	523.53	1007.80	31	19	-1	21.69	21.69
Fixation R	1	13	4885364609	4885563484	198875	523.53	1007.80	31	19	-1	21.70	21.70
Saccade L	1	13	4885563484	4885603346	39862	521.19	999.71	533.83	397.08	5.20	379.14	0.50	130.57	9472.27	-8870.11	7385.80
Saccade R	1	13	4885563484	4885603346	39862	521.19	999.71	533.83	397.08	5.20	379.14	0.50	130.57	9472.27	-8870.11	7385.80
Fixation L	1	14	4885603346	4885722592	119246	561.09	390.89	40	10	-1	19.85	19.85
Fixation R	1	14	4885603346	4885722592	119246	561.09	390.89	40	10	-1	20.00	20.00
Saccade L	1	14	4885722592	4885742597	20005	574.53	388.35	794.69	178.28	1.91	307.54	1.00	95.54	7326.84	-7509.09	5349.14
Saccade R	1	14	4885722592	4885742597	20005	574.53	388.35	794.69	178.28	1.91	307.54	1.00	95.54	7326.84	-7509.09	5349.14
Fixation L	1	15	4885742597	4885921592	178995	834.26	161.58	52	25	-1	18.59	18.59
Fixation R	1	15	4885742597	4885921592	178995	834.26	161.58	52	25	-1	19.30	19.30
