[BeGaze]
Converted from:	C:\Documents and Settings\iViewX\Desktop\EXPERIMENTATIONS\Experiments\results\finaleart\S22H22551-finaleart-1.idf
Date:	27.03.2019 15:58:11
Version:	BeGaze 2.5.77
Sample Rate:	50
Subject:	S22H22551
Description:	Mathieu Chambre

Table Header for Fixations:
Event Type	Trial	Number	Start	End	Duration	Location X	Location Y	Dispersion X	Dispersion Y	Plane	Avg. Pupil Size X	Avg. Pupil Size Y

Table Header for Saccades:
Event Type	Trial	Number	Start	End	Duration	Start Loc.X	Start Loc.Y	End Loc.X	End Loc.Y	Amplitude	Peak Speed	Peak Speed At	Average Speed	Peak Accel.	Peak Decel.	Average Accel.

Table Header for Blinks:
Event Type	Trial	Number	Start	End	Duration

Table Header for User Events:
Event Type	Trial	Number	Start	Description

UserEvent	1	1	5377545479	# Message: Turner-chichester-canal-1828.jpg
Fixation L	1	1	5377545618	5377903595	357977	1088.63	538.61	66	20	-1	18.40	18.40
Fixation R	1	1	5377545618	5377903595	357977	1088.63	538.61	66	20	-1	18.51	18.51
Saccade L	1	1	5377903595	5377923482	19887	1045.75	547.82	1038.44	565.77	0.50	51.67	1.00	25.06	645.20	-402.04	486.69
Saccade R	1	1	5377903595	5377923482	19887	1045.75	547.82	1038.44	565.77	0.50	51.67	1.00	25.06	645.20	-402.04	486.69
Fixation L	1	2	5377923482	5378022967	99485	1050.10	525.82	16	50	-1	18.29	18.29
Fixation R	1	2	5377923482	5378022967	99485	1050.10	525.82	16	50	-1	18.24	18.24
Saccade L	1	2	5378022967	5378042851	19884	1048.07	518.83	996.03	611.62	0.59	107.61	1.00	29.74	2621.96	-2236.65	1645.22
Saccade R	1	2	5378022967	5378042851	19884	1048.07	518.83	996.03	611.62	0.59	107.61	1.00	29.74	2621.96	-2236.65	1645.22
Fixation L	1	3	5378042851	5378440701	397850	985.03	612.86	17	29	-1	14.09	14.09
Fixation R	1	3	5378042851	5378440701	397850	985.03	612.86	17	29	-1	14.23	14.23
Saccade L	1	3	5378440701	5378500313	59612	988.08	628.77	389.87	630.76	6.12	315.13	0.67	102.74	7765.98	-7715.05	4895.94
Saccade R	1	3	5378440701	5378500313	59612	988.08	628.77	389.87	630.76	6.12	315.13	0.67	102.74	7765.98	-7715.05	4895.94
Fixation L	1	4	5378500313	5378798673	298360	403.37	624.69	40	36	-1	12.17	12.17
Fixation R	1	4	5378500313	5378798673	298360	403.37	624.69	40	36	-1	12.24	12.24
Saccade L	1	4	5378798673	5378818554	19881	376.41	654.21	306.75	734.49	0.87	107.50	1.00	43.78	2584.81	-2566.18	2027.64
Saccade R	1	4	5378798673	5378818554	19881	376.41	654.21	306.75	734.49	0.87	107.50	1.00	43.78	2584.81	-2566.18	2027.64
Fixation L	1	5	5378818554	5379435144	616590	306.75	767.19	30	59	-1	12.79	12.79
Fixation R	1	5	5378818554	5379435144	616590	306.75	767.19	30	59	-1	13.59	13.59
Saccade L	1	5	5379435144	5379494891	59747	325.02	794.45	1094.36	648.96	8.13	349.41	0.33	136.13	8670.49	-6895.89	6218.84
Saccade R	1	5	5379435144	5379494891	59747	325.02	794.45	1094.36	648.96	8.13	349.41	0.33	136.13	8670.49	-6895.89	6218.84
Fixation L	1	6	5379494891	5379852873	357982	1088.65	633.70	8	25	-1	14.59	14.59
Fixation R	1	6	5379494891	5379852873	357982	1088.65	633.70	8	25	-1	15.02	15.02
Saccade L	1	6	5379852873	5379892620	39747	1087.69	635.17	1496.18	676.54	3.61	231.07	0.50	90.77	5753.21	-5234.02	4917.92
Saccade R	1	6	5379852873	5379892620	39747	1087.69	635.17	1496.18	676.54	3.61	231.07	0.50	90.77	5753.21	-5234.02	4917.92
Fixation L	1	7	5379892620	5380171111	278491	1522.67	698.65	33	26	-1	14.22	14.22
Fixation R	1	7	5379892620	5380171111	278491	1522.67	698.65	33	26	-1	14.05	14.05
Saccade L	1	7	5380171111	5380210853	39742	1529.42	702.72	1513.91	841.36	1.25	91.23	1.00	31.45	2224.99	-2080.58	1640.77
Saccade R	1	7	5380171111	5380210853	39742	1529.42	702.72	1513.91	841.36	1.25	91.23	1.00	31.45	2224.99	-2080.58	1640.77
Fixation L	1	8	5380210853	5380548954	338101	1487.17	846.99	33	16	-1	14.00	14.00
Fixation R	1	8	5380210853	5380548954	338101	1487.17	846.99	33	16	-1	13.49	13.49
Saccade L	1	8	5380548954	5380588834	39880	1483.97	856.14	1785.77	855.66	2.64	212.85	1.00	66.24	5307.60	-5210.99	3625.72
Saccade R	1	8	5380548954	5380588834	39880	1483.97	856.14	1785.77	855.66	2.64	212.85	1.00	66.24	5307.60	-5210.99	3625.72
Fixation L	1	9	5380588834	5380926933	338099	1747.26	876.08	64	34	-1	14.13	14.13
Fixation R	1	9	5380588834	5380926933	338099	1747.26	876.08	64	34	-1	13.47	13.47
Saccade L	1	9	5380926933	5380946816	19883	1721.48	873.70	1573.69	703.52	1.48	227.89	1.00	74.47	5569.11	-5085.05	3832.36
Saccade R	1	9	5380926933	5380946816	19883	1721.48	873.70	1573.69	703.52	1.48	227.89	1.00	74.47	5569.11	-5085.05	3832.36
Fixation L	1	10	5380946816	5381165554	218738	1569.92	634.05	6	83	-1	13.84	13.84
Fixation R	1	10	5380946816	5381165554	218738	1569.92	634.05	6	83	-1	13.44	13.44
Saccade L	1	10	5381165554	5381463906	298352	1569.82	621.36	1028.76	613.10	17.81	356.89	0.13	59.68	8903.44	-8794.57	2280.22
Saccade R	1	10	5381165554	5381463906	298352	1569.82	621.36	1028.76	613.10	17.81	356.89	0.13	59.68	8903.44	-8794.57	2280.22
Fixation L	1	11	5381463906	5381563413	99507	1030.40	607.88	12	7	-1	13.87	13.87
Fixation R	1	11	5381463906	5381563413	99507	1030.40	607.88	12	7	-1	13.67	13.67
