[BeGaze]
Converted from:	C:\Documents and Settings\iViewX\Desktop\EXPERIMENTATIONS\Experiments\results\finaleart\S22H22551-finaleart-1.idf
Date:	27.03.2019 15:59:05
Version:	BeGaze 2.5.77
Sample Rate:	50
Subject:	S22H22551
Description:	Mathieu Chambre

Table Header for Fixations:
Event Type	Trial	Number	Start	End	Duration	Location X	Location Y	Dispersion X	Dispersion Y	Plane	Avg. Pupil Size X	Avg. Pupil Size Y

Table Header for Saccades:
Event Type	Trial	Number	Start	End	Duration	Start Loc.X	Start Loc.Y	End Loc.X	End Loc.Y	Amplitude	Peak Speed	Peak Speed At	Average Speed	Peak Accel.	Peak Decel.	Average Accel.

Table Header for Blinks:
Event Type	Trial	Number	Start	End	Duration

Table Header for User Events:
Event Type	Trial	Number	Start	Description

UserEvent	1	1	5861744339	# Message: void.jpg
Fixation L	1	1	5861760807	5861860312	99505	425.46	553.43	4	3	-1	13.18	13.18
Fixation R	1	1	5861760807	5861860312	99505	425.46	553.43	4	3	-1	12.78	12.78
Saccade L	1	1	5861860312	5861919930	59618	424.71	553.07	978.83	426.91	5.81	295.89	0.67	97.52	7381.97	-7241.19	4624.83
Saccade R	1	1	5861860312	5861919930	59618	424.71	553.07	978.83	426.91	5.81	295.89	0.67	97.52	7381.97	-7241.19	4624.83
Fixation L	1	2	5861919930	5862138659	218729	972.94	418.94	9	12	-1	13.34	13.34
Fixation R	1	2	5861919930	5862138659	218729	972.94	418.94	9	12	-1	12.81	12.81
Blink L	1	1	5862138659	5862357512	218853
Blink R	1	1	5862138659	5862357512	218853
Blink L	1	2	5862357512	5862655900	298388
Blink R	1	2	5862357512	5862655900	298388
Saccade L	1	2	5862655900	5862715501	59601	1397.28	179.17	1337.87	184.02	1.52	67.24	1.00	25.56	1383.85	-1550.86	842.42
Saccade R	1	2	5862655900	5862715501	59601	1397.28	179.17	1337.87	184.02	1.52	67.24	1.00	25.56	1383.85	-1550.86	842.42
Fixation L	1	3	5862715501	5862854740	139239	1314.76	202.97	48	37	-1	14.32	14.32
Fixation R	1	3	5862715501	5862854740	139239	1314.76	202.97	48	37	-1	14.31	14.31
Saccade L	1	3	5862854740	5862874639	19899	1289.00	221.29	1171.59	237.18	0.72	119.84	1.00	36.41	2900.14	-2714.83	1962.19
Saccade R	1	3	5862854740	5862874639	19899	1289.00	221.29	1171.59	237.18	0.72	119.84	1.00	36.41	2900.14	-2714.83	1962.19
Fixation L	1	4	5862874639	5863351969	477330	1158.30	240.82	68	25	-1	14.14	14.14
Fixation R	1	4	5862874639	5863351969	477330	1158.30	240.82	68	25	-1	13.96	13.96
Saccade L	1	4	5863351969	5863371848	19879	1110.57	253.46	1106.64	259.05	0.07	6.91	1.00	3.74	83.95	-83.64	70.32
Saccade R	1	4	5863351969	5863371848	19879	1110.57	253.46	1106.64	259.05	0.07	6.91	1.00	3.74	83.95	-83.64	70.32
Fixation L	1	5	5863371848	5863729954	358106	1084.63	267.88	46	17	-1	13.23	13.23
Fixation R	1	5	5863371848	5863729954	358106	1084.63	267.88	46	17	-1	13.23	13.23
