[BeGaze]
Converted from:	C:\Documents and Settings\iViewX\Desktop\EXPERIMENTATIONS\Experiments\results\finaleart\S22H22551-finaleart-1.idf
Date:	27.03.2019 15:57:51
Version:	BeGaze 2.5.77
Sample Rate:	50
Subject:	S22H22551
Description:	Mathieu Chambre

Table Header for Fixations:
Event Type	Trial	Number	Start	End	Duration	Location X	Location Y	Dispersion X	Dispersion Y	Plane	Avg. Pupil Size X	Avg. Pupil Size Y

Table Header for Saccades:
Event Type	Trial	Number	Start	End	Duration	Start Loc.X	Start Loc.Y	End Loc.X	End Loc.Y	Amplitude	Peak Speed	Peak Speed At	Average Speed	Peak Accel.	Peak Decel.	Average Accel.

Table Header for Blinks:
Event Type	Trial	Number	Start	End	Duration

Table Header for User Events:
Event Type	Trial	Number	Start	Description

UserEvent	1	1	5215153746	# Message: void.jpg
Fixation L	1	1	5215154579	5215373423	218844	471.62	788.86	57	11	-1	13.38	13.38
Fixation R	1	1	5215154579	5215373423	218844	471.62	788.86	57	11	-1	13.43	13.43
Saccade L	1	1	5215373423	5215393308	19885	519.92	780.10	781.75	667.72	1.98	288.00	1.00	99.46	7113.79	-6878.86	4760.42
Saccade R	1	1	5215373423	5215393308	19885	519.92	780.10	781.75	667.72	1.98	288.00	1.00	99.46	7113.79	-6878.86	4760.42
Fixation L	1	2	5215393308	5215512585	119277	823.72	671.36	67	22	-1	13.03	13.03
Fixation R	1	2	5215393308	5215512585	119277	823.72	671.36	67	22	-1	13.54	13.54
Saccade L	1	2	5215512585	5215612041	99456	780.53	659.31	843.59	662.18	3.77	138.34	1.00	37.90	29234.12	-1236.39	4939.30
Saccade R	1	2	5215512585	5215612041	99456	780.53	659.31	843.59	662.18	3.77	138.34	1.00	37.90	29234.12	-1236.39	4939.30
Blink L	1	1	5215612041	5215890522	278481
Blink R	1	1	5215612041	5215890522	278481
Saccade L	1	3	5215890522	5215990019	99497	1659.08	243.08	1592.64	302.36	2.20	34.38	0.20	22.11	2205.92	-612.09	475.95
Saccade R	1	3	5215890522	5215990019	99497	1659.08	243.08	1592.64	302.36	2.20	34.38	0.20	22.11	2205.92	-612.09	475.95
Blink L	1	2	5215990019	5216268381	278362
Blink R	1	2	5215990019	5216268381	278362
Fixation L	1	3	5216268381	5216646366	377985	1184.22	381.69	23	10	-1	15.58	15.58
Fixation R	1	3	5216268381	5216646366	377985	1184.22	381.69	23	10	-1	15.70	15.70
Saccade L	1	4	5216646366	5216666237	19871	1178.83	382.26	1099.28	381.24	0.49	80.47	1.00	24.86	1976.57	-1936.72	1433.41
Saccade R	1	4	5216646366	5216666237	19871	1178.83	382.26	1099.28	381.24	0.49	80.47	1.00	24.86	1976.57	-1936.72	1433.41
Fixation L	1	4	5216666237	5216964602	298365	1077.55	384.51	59	6	-1	15.37	15.37
Fixation R	1	4	5216666237	5216964602	298365	1077.55	384.51	59	6	-1	15.47	15.47
Saccade L	1	5	5216964602	5216984470	19868	1039.31	381.07	975.32	379.99	0.57	64.74	1.00	28.49	1571.54	-952.42	1135.05
Saccade R	1	5	5216964602	5216984470	19868	1039.31	381.07	975.32	379.99	0.57	64.74	1.00	28.49	1571.54	-952.42	1135.05
Fixation L	1	5	5216984470	5217143589	159119	979.64	371.80	34	23	-1	15.19	15.19
Fixation R	1	5	5216984470	5217143589	159119	979.64	371.80	34	23	-1	15.34	15.34
