[BeGaze]
Converted from:	C:\Documents and Settings\iViewX\Desktop\EXPERIMENTATIONS\Experiments\results\finaleart\S22H22551-finaleart-1.idf
Date:	27.03.2019 15:58:50
Version:	BeGaze 2.5.77
Sample Rate:	50
Subject:	S22H22551
Description:	Mathieu Chambre

Table Header for Fixations:
Event Type	Trial	Number	Start	End	Duration	Location X	Location Y	Dispersion X	Dispersion Y	Plane	Avg. Pupil Size X	Avg. Pupil Size Y

Table Header for Saccades:
Event Type	Trial	Number	Start	End	Duration	Start Loc.X	Start Loc.Y	End Loc.X	End Loc.Y	Amplitude	Peak Speed	Peak Speed At	Average Speed	Peak Accel.	Peak Decel.	Average Accel.

Table Header for Blinks:
Event Type	Trial	Number	Start	End	Duration

Table Header for User Events:
Event Type	Trial	Number	Start	Description

UserEvent	1	1	5759509003	# Message: delacroix-still-life-with-lobsters-1827.jpg
Fixation L	1	1	5759526501	5759864607	338106	982.93	372.53	72	24	-1	16.86	16.86
Fixation R	1	1	5759526501	5759864607	338106	982.93	372.53	72	24	-1	17.49	17.49
Saccade L	1	1	5759864607	5759884517	19910	952.23	376.33	948.77	376.69	0.09	9.16	1.00	4.60	-15.63	-141.21	69.81
Saccade R	1	1	5759864607	5759884517	19910	952.23	376.33	948.77	376.69	0.09	9.16	1.00	4.60	-15.63	-141.21	69.81
Fixation L	1	2	5759884517	5760242579	358062	963.62	398.36	50	37	-1	15.69	15.69
Fixation R	1	2	5759884517	5760242579	358062	963.62	398.36	50	37	-1	16.09	16.09
Saccade L	1	2	5760242579	5760282345	39766	994.88	414.25	1131.82	458.26	1.50	135.08	1.00	37.61	3285.45	-3175.57	1775.20
Saccade R	1	2	5760242579	5760282345	39766	994.88	414.25	1131.82	458.26	1.50	135.08	1.00	37.61	3285.45	-3175.57	1775.20
Fixation L	1	3	5760282345	5760441454	159109	1133.56	497.66	5	51	-1	13.67	13.67
Fixation R	1	3	5760282345	5760441454	159109	1133.56	497.66	5	51	-1	13.89	13.89
Saccade L	1	3	5760441454	5760461318	19864	1133.19	509.79	1137.99	653.88	0.80	145.81	1.00	40.33	3601.40	-3437.66	2428.70
Saccade R	1	3	5760441454	5760461318	19864	1133.19	509.79	1137.99	653.88	0.80	145.81	1.00	40.33	3601.40	-3437.66	2428.70
Fixation L	1	4	5760461318	5760640312	178994	1155.88	667.00	31	16	-1	13.74	13.74
Fixation R	1	4	5760461318	5760640312	178994	1155.88	667.00	31	16	-1	13.85	13.85
Saccade L	1	4	5760640312	5760660193	19881	1169.55	669.64	1169.22	774.01	0.71	105.57	1.00	35.48	2554.69	-2625.61	1966.91
Saccade R	1	4	5760640312	5760660193	19881	1169.55	669.64	1169.22	774.01	0.71	105.57	1.00	35.48	2554.69	-2625.61	1966.91
Fixation L	1	5	5760660193	5760898923	238730	1166.06	757.19	7	30	-1	13.86	13.86
Fixation R	1	5	5760660193	5760898923	238730	1166.06	757.19	7	30	-1	13.38	13.38
Saccade L	1	5	5760898923	5760918792	19869	1163.83	753.25	1260.35	753.33	0.54	97.63	1.00	27.13	2412.34	-2374.82	1649.54
Saccade R	1	5	5760898923	5760918792	19869	1163.83	753.25	1260.35	753.33	0.54	97.63	1.00	27.13	2412.34	-2374.82	1649.54
Fixation L	1	6	5760918792	5761197280	278488	1272.76	748.83	16	10	-1	13.49	13.49
Fixation R	1	6	5760918792	5761197280	278488	1272.76	748.83	16	10	-1	13.43	13.43
Saccade L	1	6	5761197280	5761237030	39750	1276.51	742.92	1165.27	843.08	1.40	88.07	0.50	35.24	2194.83	-1863.42	1888.17
Saccade R	1	6	5761197280	5761237030	39750	1276.51	742.92	1165.27	843.08	1.40	88.07	0.50	35.24	2194.83	-1863.42	1888.17
Fixation L	1	7	5761237030	5761455767	218737	1162.42	862.65	41	26	-1	13.46	13.46
Fixation R	1	7	5761237030	5761455767	218737	1162.42	862.65	41	26	-1	13.47	13.47
Saccade L	1	7	5761455767	5761475659	19892	1126.90	869.30	790.20	820.53	2.18	343.76	1.00	109.63	8521.14	-8124.31	5723.36
Saccade R	1	7	5761455767	5761475659	19892	1126.90	869.30	790.20	820.53	2.18	343.76	1.00	109.63	8521.14	-8124.31	5723.36
Fixation L	1	8	5761475659	5761694512	218853	736.74	798.57	65	27	-1	13.40	13.40
Fixation R	1	8	5761475659	5761694512	218853	736.74	798.57	65	27	-1	13.64	13.64
Saccade L	1	8	5761694512	5761734257	39745	728.12	794.61	422.42	1035.60	3.22	201.27	1.00	80.91	4999.28	-4965.71	4927.61
Saccade R	1	8	5761694512	5761734257	39745	728.12	794.61	422.42	1035.60	3.22	201.27	1.00	80.91	4999.28	-4965.71	4927.61
Fixation L	1	9	5761734257	5762012754	278497	417.68	1054.52	50	46	-1	13.39	13.39
Fixation R	1	9	5761734257	5762012754	278497	417.68	1054.52	50	46	-1	13.96	13.96
Saccade L	1	9	5762012754	5762032617	19863	388.71	1078.71	390.36	1082.35	0.07	5.57	0.00	3.52	41.10	-87.26	51.03
Saccade R	1	9	5762012754	5762032617	19863	388.71	1078.71	390.36	1082.35	0.07	5.57	0.00	3.52	41.10	-87.26	51.03
Fixation L	1	10	5762032617	5762887948	855331	384.86	1091.62	49	17	-1	13.32	13.32
Fixation R	1	10	5762032617	5762887948	855331	384.86	1091.62	49	17	-1	14.08	14.08
Saccade L	1	10	5762887948	5762907818	19870	412.24	1098.72	456.56	1098.84	0.32	44.84	1.00	16.28	1069.67	-994.65	703.50
Saccade R	1	10	5762887948	5762907818	19870	412.24	1098.72	456.56	1098.84	0.32	44.84	1.00	16.28	1069.67	-994.65	703.50
Fixation L	1	11	5762907818	5763226050	318232	475.67	1102.08	58	11	-1	13.66	13.66
Fixation R	1	11	5762907818	5763226050	318232	475.67	1102.08	58	11	-1	14.32	14.32
Saccade L	1	11	5763226050	5763245928	19878	505.52	1104.56	719.96	793.98	2.27	381.24	1.00	114.26	9489.06	-9125.08	6617.86
Saccade R	1	11	5763226050	5763245928	19878	505.52	1104.56	719.96	793.98	2.27	381.24	1.00	114.26	9489.06	-9125.08	6617.86
Fixation L	1	12	5763245928	5763365322	119394	746.41	752.12	38	60	-1	14.17	14.17
Fixation R	1	12	5763245928	5763365322	119394	746.41	752.12	38	60	-1	14.63	14.63
Saccade L	1	12	5763365322	5763385170	19848	757.13	751.35	760.17	747.33	0.06	5.09	1.00	3.24	43.17	-74.04	47.52
Saccade R	1	12	5763365322	5763385170	19848	757.13	751.35	760.17	747.33	0.06	5.09	1.00	3.24	43.17	-74.04	47.52
Fixation L	1	13	5763385170	5763504533	119363	762.67	742.58	5	7	-1	14.23	14.23
Fixation R	1	13	5763385170	5763504533	119363	762.67	742.58	5	7	-1	14.81	14.81
