[BeGaze]
Converted from:	C:\Documents and Settings\iViewX\Desktop\EXPERIMENTATIONS\Experiments\results\finaleart\S22H22551-finaleart-1.idf
Date:	27.03.2019 15:58:22
Version:	BeGaze 2.5.77
Sample Rate:	50
Subject:	S22H22551
Description:	Mathieu Chambre

Table Header for Fixations:
Event Type	Trial	Number	Start	End	Duration	Location X	Location Y	Dispersion X	Dispersion Y	Plane	Avg. Pupil Size X	Avg. Pupil Size Y

Table Header for Saccades:
Event Type	Trial	Number	Start	End	Duration	Start Loc.X	Start Loc.Y	End Loc.X	End Loc.Y	Amplitude	Peak Speed	Peak Speed At	Average Speed	Peak Accel.	Peak Decel.	Average Accel.

Table Header for Blinks:
Event Type	Trial	Number	Start	End	Duration

Table Header for User Events:
Event Type	Trial	Number	Start	Description

UserEvent	1	1	5541840535	# Message: still-life_pissarro_1867.jpg
Fixation L	1	1	5541850943	5542209061	358118	1016.93	370.66	80	13	-1	16.76	16.76
Fixation R	1	1	5541850943	5542209061	358118	1016.93	370.66	80	13	-1	16.70	16.70
Saccade L	1	1	5542209061	5542228933	19872	971.75	365.84	968.81	359.47	0.08	7.10	1.00	4.19	96.17	-120.22	91.14
Saccade R	1	1	5542209061	5542228933	19872	971.75	365.84	968.81	359.47	0.08	7.10	1.00	4.19	96.17	-120.22	91.14
Fixation L	1	2	5542228933	5542328301	99368	964.59	358.11	7	3	-1	17.12	17.12
Fixation R	1	2	5542228933	5542328301	99368	964.59	358.11	7	3	-1	17.24	17.24
Saccade L	1	2	5542328301	5542348302	20001	961.65	356.51	955.71	480.58	0.68	125.64	1.00	33.75	3085.50	-2945.25	2063.82
Saccade R	1	2	5542328301	5542348302	20001	961.65	356.51	955.71	480.58	0.68	125.64	1.00	33.75	3085.50	-2945.25	2063.82
Fixation L	1	3	5542348302	5542447662	99360	953.23	486.50	9	42	-1	17.19	17.19
Fixation R	1	3	5542348302	5542447662	99360	953.23	486.50	9	42	-1	17.01	17.01
Saccade L	1	3	5542447662	5542487406	39744	954.09	458.73	1384.27	-44.96	5.75	395.82	0.50	144.72	9765.13	-9764.74	7871.60
Saccade R	1	3	5542447662	5542487406	39744	954.09	458.73	1384.27	-44.96	5.75	395.82	0.50	144.72	9765.13	-9764.74	7871.60
Fixation L	1	4	5542487406	5542606780	119374	1374.83	-0.12	21	76	-1	14.99	14.99
Fixation R	1	4	5542487406	5542606780	119374	1374.83	-0.12	21	76	-1	15.06	15.06
Saccade L	1	4	5542606780	5542706280	99500	1368.18	30.73	1368.68	37.71	6.78	232.31	0.80	68.14	4074.10	-4535.73	1854.13
Saccade R	1	4	5542606780	5542706280	99500	1368.18	30.73	1368.68	37.71	6.78	232.31	0.80	68.14	4074.10	-4535.73	1854.13
Fixation L	1	5	5542706280	5542825644	119364	1407.33	17.65	59	27	-1	15.09	15.09
Fixation R	1	5	5542706280	5542825644	119364	1407.33	17.65	59	27	-1	14.88	14.88
Saccade L	1	5	5542825644	5542925014	99370	1427.84	11.78	1478.21	6.26	6.31	151.87	1.00	63.48	2638.49	-3429.14	2028.94
Saccade R	1	5	5542825644	5542925014	99370	1427.84	11.78	1478.21	6.26	6.31	151.87	1.00	63.48	2638.49	-3429.14	2028.94
Fixation L	1	6	5542925014	5543044384	119370	1484.07	14.71	20	21	-1	16.27	16.27
Fixation R	1	6	5542925014	5543044384	119370	1484.07	14.71	20	21	-1	15.83	15.83
Saccade L	1	6	5543044384	5543084130	39746	1492.75	25.22	1519.25	23.66	1.93	106.29	1.00	48.44	2191.19	-2469.82	2250.18
Saccade R	1	6	5543044384	5543084130	39746	1492.75	25.22	1519.25	23.66	1.93	106.29	1.00	48.44	2191.19	-2469.82	2250.18
Fixation L	1	7	5543084130	5543263125	178995	1544.03	28.70	45	25	-1	17.01	17.01
Fixation R	1	7	5543084130	5543263125	178995	1544.03	28.70	45	25	-1	16.74	16.74
Saccade L	1	7	5543263125	5543303005	39880	1560.56	27.29	1633.77	31.89	2.53	124.23	1.00	63.32	2724.75	-2961.78	2402.75
Saccade R	1	7	5543263125	5543303005	39880	1560.56	27.29	1633.77	31.89	2.53	124.23	1.00	63.32	2724.75	-2961.78	2402.75
Fixation L	1	8	5543303005	5543521748	218743	1613.45	50.24	45	31	-1	17.04	17.04
Fixation R	1	8	5543303005	5543521748	218743	1613.45	50.24	45	31	-1	17.09	17.09
Saccade L	1	8	5543521748	5543581363	59615	1613.56	62.99	1676.29	44.39	2.40	109.60	0.33	40.32	2544.38	-1303.80	1335.11
Saccade R	1	8	5543521748	5543581363	59615	1613.56	62.99	1676.29	44.39	2.40	109.60	0.33	40.32	2544.38	-1303.80	1335.11
Fixation L	1	9	5543581363	5543700726	119363	1684.76	45.40	22	34	-1	17.40	17.40
Fixation R	1	9	5543581363	5543700726	119363	1684.76	45.40	22	34	-1	17.29	17.29
Saccade L	1	9	5543700726	5543800221	99495	1671.23	58.60	1492.22	-12.56	5.45	256.44	0.20	54.80	5991.28	-5874.53	2131.10
Saccade R	1	9	5543700726	5543800221	99495	1671.23	58.60	1492.22	-12.56	5.45	256.44	0.20	54.80	5991.28	-5874.53	2131.10
Fixation L	1	10	5543800221	5543899715	99494	1503.98	-42.52	20	75	-1	17.52	17.52
Fixation R	1	10	5543800221	5543899715	99494	1503.98	-42.52	20	75	-1	17.77	17.77
Saccade L	1	10	5543899715	5544078705	178990	1512.58	-75.52	1514.69	-53.31	5.05	95.81	1.00	28.20	2151.06	-1565.18	590.24
Saccade R	1	10	5543899715	5544078705	178990	1512.58	-75.52	1514.69	-53.31	5.05	95.81	1.00	28.20	2151.06	-1565.18	590.24
Fixation L	1	11	5544078705	5544197945	119240	1508.61	-53.76	13	76	-1	18.00	18.00
Fixation R	1	11	5544078705	5544197945	119240	1508.61	-53.76	13	76	-1	17.96	17.96
Saccade L	1	11	5544197945	5544237818	39873	1510.30	-46.62	1520.40	-48.56	0.99	43.75	0.50	24.89	1018.79	-1000.26	788.68
Saccade R	1	11	5544197945	5544237818	39873	1510.30	-46.62	1520.40	-48.56	0.99	43.75	0.50	24.89	1018.79	-1000.26	788.68
Fixation L	1	12	5544237818	5544357060	119242	1514.35	-53.81	32	66	-1	18.28	18.28
Fixation R	1	12	5544237818	5544357060	119242	1514.35	-53.81	32	66	-1	18.09	18.09
Saccade L	1	12	5544357060	5544496317	139257	1508.67	-58.13	843.51	519.09	13.65	320.66	0.86	98.01	7690.38	-7720.74	3736.53
Saccade R	1	12	5544357060	5544496317	139257	1508.67	-58.13	843.51	519.09	13.65	320.66	0.86	98.01	7690.38	-7720.74	3736.53
Fixation L	1	13	5544496317	5544655430	159113	848.36	501.70	8	26	-1	18.63	18.63
Fixation R	1	13	5544496317	5544655430	159113	848.36	501.70	8	26	-1	18.38	18.38
Saccade L	1	13	5544655430	5544695293	39863	846.35	492.84	618.65	714.34	2.78	187.47	0.50	69.85	4667.22	-4127.74	3819.68
Saccade R	1	13	5544655430	5544695293	39863	846.35	492.84	618.65	714.34	2.78	187.47	0.50	69.85	4667.22	-4127.74	3819.68
Fixation L	1	14	5544695293	5545013527	318234	624.06	696.94	16	22	-1	17.33	17.33
Fixation R	1	14	5544695293	5545013527	318234	624.06	696.94	16	22	-1	17.10	17.10
Saccade L	1	14	5545013527	5545053278	39751	626.43	691.90	1049.01	677.52	3.47	319.64	0.50	87.17	7952.85	-7913.66	5189.92
Saccade R	1	14	5545013527	5545053278	39751	626.43	691.90	1049.01	677.52	3.47	319.64	0.50	87.17	7952.85	-7913.66	5189.92
Fixation L	1	15	5545053278	5545272016	218738	1056.02	666.05	10	22	-1	16.65	16.65
Fixation R	1	15	5545053278	5545272016	218738	1056.02	666.05	10	22	-1	16.36	16.36
Saccade L	1	15	5545272016	5545291886	19870	1059.24	660.10	1285.05	744.50	1.32	243.73	1.00	66.22	6065.53	-5836.83	4107.53
Saccade R	1	15	5545272016	5545291886	19870	1059.24	660.10	1285.05	744.50	1.32	243.73	1.00	66.22	6065.53	-5836.83	4107.53
Fixation L	1	16	5545291886	5545471010	179124	1276.74	763.65	12	25	-1	16.87	16.87
Fixation R	1	16	5545291886	5545471010	179124	1276.74	763.65	12	25	-1	16.32	16.32
Saccade L	1	16	5545471010	5545510753	39743	1274.46	762.80	1572.58	961.22	3.13	296.93	1.00	78.73	7360.61	-7393.01	4576.68
Saccade R	1	16	5545471010	5545510753	39743	1274.46	762.80	1572.58	961.22	3.13	296.93	1.00	78.73	7360.61	-7393.01	4576.68
Fixation L	1	17	5545510753	5545749364	238611	1557.95	967.52	24	8	-1	17.72	17.72
Fixation R	1	17	5545510753	5545749364	238611	1557.95	967.52	24	8	-1	17.06	17.06
Saccade L	1	17	5545749364	5545828989	79625	1548.14	970.21	597.11	971.23	12.83	332.81	0.50	161.14	8246.12	-3465.84	3679.01
Saccade R	1	17	5545749364	5545828989	79625	1548.14	970.21	597.11	971.23	12.83	332.81	0.50	161.14	8246.12	-3465.84	3679.01
