[BeGaze]
Converted from:	C:\Documents and Settings\iViewX\Desktop\EXPERIMENTATIONS\Experiments\results\finaleart\S22H22551-finaleart-1.idf
Date:	27.03.2019 15:58:06
Version:	BeGaze 2.5.77
Sample Rate:	50
Subject:	S22H22551
Description:	Mathieu Chambre

Table Header for Fixations:
Event Type	Trial	Number	Start	End	Duration	Location X	Location Y	Dispersion X	Dispersion Y	Plane	Avg. Pupil Size X	Avg. Pupil Size Y

Table Header for Saccades:
Event Type	Trial	Number	Start	End	Duration	Start Loc.X	Start Loc.Y	End Loc.X	End Loc.Y	Amplitude	Peak Speed	Peak Speed At	Average Speed	Peak Accel.	Peak Decel.	Average Accel.

Table Header for Blinks:
Event Type	Trial	Number	Start	End	Duration

Table Header for User Events:
Event Type	Trial	Number	Start	Description

UserEvent	1	1	5346885137	# Message: morning_Daubigny_1858.jpg
Fixation L	1	1	5346895223	5347253217	357994	972.95	346.95	32	22	-1	16.95	16.95
Fixation R	1	1	5346895223	5347253217	357994	972.95	346.95	32	22	-1	17.52	17.52
Saccade L	1	1	5347253217	5347293065	39848	957.73	362.64	933.51	616.98	2.18	154.70	1.00	54.75	3672.30	-3595.41	3071.82
Saccade R	1	1	5347253217	5347293065	39848	957.73	362.64	933.51	616.98	2.18	154.70	1.00	54.75	3672.30	-3595.41	3071.82
Fixation L	1	2	5347293065	5347432318	139253	919.11	600.32	29	31	-1	16.77	16.77
Fixation R	1	2	5347293065	5347432318	139253	919.11	600.32	29	31	-1	17.76	17.76
Saccade L	1	2	5347432318	5347452178	19860	903.87	598.97	816.49	772.05	1.11	196.06	1.00	55.93	4643.67	-4735.10	3207.44
Saccade R	1	2	5347432318	5347452178	19860	903.87	598.97	816.49	772.05	1.11	196.06	1.00	55.93	4643.67	-4735.10	3207.44
Fixation L	1	3	5347452178	5347631180	179002	808.21	769.88	31	31	-1	13.71	13.71
Fixation R	1	3	5347452178	5347631180	179002	808.21	769.88	31	31	-1	14.66	14.66
Saccade L	1	3	5347631180	5347651055	19875	785.47	791.62	636.70	883.22	1.11	176.69	1.00	55.82	4379.54	-4066.45	3017.93
Saccade R	1	3	5347631180	5347651055	19875	785.47	791.62	636.70	883.22	1.11	176.69	1.00	55.82	4379.54	-4066.45	3017.93
Fixation L	1	4	5347651055	5347849908	198853	630.62	882.92	37	17	-1	11.77	11.77
Fixation R	1	4	5347651055	5347849908	198853	630.62	882.92	37	17	-1	12.66	12.66
Saccade L	1	4	5347849908	5347869791	19883	601.60	885.53	542.56	876.30	0.49	60.45	1.00	24.72	1480.59	-1462.85	1188.17
Saccade R	1	4	5347849908	5347869791	19883	601.60	885.53	542.56	876.30	0.49	60.45	1.00	24.72	1480.59	-1462.85	1188.17
Fixation L	1	5	5347869791	5348208019	338228	540.86	872.24	8	30	-1	11.23	11.23
Fixation R	1	5	5347869791	5348208019	338228	540.86	872.24	8	30	-1	12.34	12.34
Saccade L	1	5	5348208019	5348227892	19873	546.12	889.53	658.02	892.50	0.61	113.23	1.00	30.51	2785.30	-2736.12	1852.41
Saccade R	1	5	5348208019	5348227892	19873	546.12	889.53	658.02	892.50	0.61	113.23	1.00	30.51	2785.30	-2736.12	1852.41
Fixation L	1	6	5348227892	5348466509	238617	658.33	890.75	7	12	-1	11.14	11.14
Fixation R	1	6	5348227892	5348466509	238617	658.33	890.75	7	12	-1	12.32	12.32
Saccade L	1	6	5348466509	5348486382	19873	654.30	889.85	767.59	892.83	0.61	114.64	1.00	30.76	2799.01	-2800.51	1867.65
Saccade R	1	6	5348466509	5348486382	19873	654.30	889.85	767.59	892.83	0.61	114.64	1.00	30.76	2799.01	-2800.51	1867.65
Fixation L	1	7	5348486382	5348705243	218861	770.55	903.27	11	16	-1	10.92	10.92
Fixation R	1	7	5348486382	5348705243	218861	770.55	903.27	11	16	-1	12.36	12.36
Saccade L	1	7	5348705243	5348744994	39751	778.30	908.39	1273.76	796.19	4.52	289.04	0.50	113.82	7205.62	-6211.72	6166.56
Saccade R	1	7	5348705243	5348744994	39751	778.30	908.39	1273.76	796.19	4.52	289.04	0.50	113.82	7205.62	-6211.72	6166.56
Fixation L	1	8	5348744994	5348983722	238728	1302.10	808.29	39	50	-1	11.38	11.38
Fixation R	1	8	5348744994	5348983722	238728	1302.10	808.29	39	50	-1	11.83	11.83
Saccade L	1	8	5348983722	5349003618	19896	1313.00	831.30	1314.37	857.50	0.49	48.90	1.00	24.67	-239.73	-559.18	401.45
Saccade R	1	8	5348983722	5349003618	19896	1313.00	831.30	1314.37	857.50	0.49	48.90	1.00	24.67	-239.73	-559.18	401.45
Fixation L	1	9	5349003618	5349182596	178978	1330.13	848.96	26	20	-1	11.65	11.65
Fixation R	1	9	5349003618	5349182596	178978	1330.13	848.96	26	20	-1	12.20	12.20
Saccade L	1	9	5349182596	5349202463	19867	1341.25	850.42	1309.02	966.20	0.72	121.56	1.00	36.46	2955.83	-2736.69	2036.77
Saccade R	1	9	5349182596	5349202463	19867	1341.25	850.42	1309.02	966.20	0.72	121.56	1.00	36.46	2955.83	-2736.69	2036.77
Fixation L	1	10	5349202463	5349461081	258618	1271.26	970.33	47	9	-1	11.69	11.69
Fixation R	1	10	5349202463	5349461081	258618	1271.26	970.33	47	9	-1	12.37	12.37
Saccade L	1	10	5349461081	5349500825	39744	1263.09	972.29	1636.75	972.36	3.06	250.07	1.00	77.06	6202.20	-6122.84	4646.03
Saccade R	1	10	5349461081	5349500825	39744	1263.09	972.29	1636.75	972.36	3.06	250.07	1.00	77.06	6202.20	-6122.84	4646.03
Fixation L	1	11	5349500825	5349699690	198865	1638.23	976.59	6	13	-1	12.25	12.25
Fixation R	1	11	5349500825	5349699690	198865	1638.23	976.59	6	13	-1	12.37	12.37
Saccade L	1	11	5349699690	5349719566	19876	1635.53	985.81	1728.30	983.85	0.61	93.85	1.00	30.51	2278.90	-2002.34	1572.23
Saccade R	1	11	5349699690	5349719566	19876	1635.53	985.81	1728.30	983.85	0.61	93.85	1.00	30.51	2278.90	-2002.34	1572.23
Fixation L	1	12	5349719566	5349858806	139240	1762.18	985.37	45	6	-1	12.48	12.48
Fixation R	1	12	5349719566	5349858806	139240	1762.18	985.37	45	6	-1	12.60	12.60
Saccade L	1	12	5349858806	5349878676	19870	1767.84	990.41	1661.41	1102.80	0.89	156.55	1.00	44.54	3827.55	-3812.31	2582.95
Saccade R	1	12	5349858806	5349878676	19870	1767.84	990.41	1661.41	1102.80	0.89	156.55	1.00	44.54	3827.55	-3812.31	2582.95
Fixation L	1	13	5349878676	5350893166	1014490	1646.62	1118.95	76	21	-1	13.28	13.28
Fixation R	1	13	5349878676	5350893166	1014490	1646.62	1118.95	76	21	-1	13.61	13.61
