[BeGaze]
Converted from:	C:\Documents and Settings\iViewX\Desktop\EXPERIMENTATIONS\Experiments\results\finaleart\S22H22551-finaleart-1.idf
Date:	27.03.2019 15:57:42
Version:	BeGaze 2.5.77
Sample Rate:	50
Subject:	S22H22551
Description:	Mathieu Chambre

Table Header for Fixations:
Event Type	Trial	Number	Start	End	Duration	Location X	Location Y	Dispersion X	Dispersion Y	Plane	Avg. Pupil Size X	Avg. Pupil Size Y

Table Header for Saccades:
Event Type	Trial	Number	Start	End	Duration	Start Loc.X	Start Loc.Y	End Loc.X	End Loc.Y	Amplitude	Peak Speed	Peak Speed At	Average Speed	Peak Accel.	Peak Decel.	Average Accel.

Table Header for Blinks:
Event Type	Trial	Number	Start	End	Duration

Table Header for User Events:
Event Type	Trial	Number	Start	Description

UserEvent	1	1	5153920519	# Message: void.jpg
Saccade L	1	1	5153927259	5153947126	19867	1272.13	124.66	1471.54	157.98	1.73	204.44	1.00	86.88	1405.07	-4828.25	2077.77
Saccade R	1	1	5153927259	5153947126	19867	1272.13	124.66	1471.54	157.98	1.73	204.44	1.00	86.88	1405.07	-4828.25	2077.77
Fixation L	1	1	5153947126	5154046641	99515	1480.99	212.11	21	76	-1	16.49	16.49
Fixation R	1	1	5153947126	5154046641	99515	1480.99	212.11	21	76	-1	16.25	16.25
Saccade L	1	2	5154046641	5154086257	39616	1477.32	234.74	1470.71	246.28	0.35	20.20	1.00	8.91	9015.16	-27.12	2367.25
Saccade R	1	2	5154046641	5154086257	39616	1477.32	234.74	1470.71	246.28	0.35	20.20	1.00	8.91	9015.16	-27.12	2367.25
Blink L	1	1	5154086257	5154629463	543206
Blink R	1	1	5154086257	5154629463	543206
Fixation L	1	2	5154629463	5154987578	358115	1120.16	573.80	6	35	-1	16.31	16.31
Fixation R	1	2	5154629463	5154987578	358115	1120.16	573.80	6	35	-1	15.77	15.77
Saccade L	1	3	5154987578	5155007446	19868	1120.00	571.28	1118.11	431.67	0.83	141.22	1.00	41.90	3471.32	-3210.39	2412.98
Saccade R	1	3	5154987578	5155007446	19868	1120.00	571.28	1118.11	431.67	0.83	141.22	1.00	41.90	3471.32	-3210.39	2412.98
Fixation L	1	3	5155007446	5155504672	497226	1127.93	407.80	39	46	-1	16.69	16.69
Fixation R	1	3	5155007446	5155504672	497226	1127.93	407.80	39	46	-1	16.52	16.52
Saccade L	1	4	5155504672	5155524552	19880	1158.09	437.98	1150.07	454.33	0.20	18.43	1.00	10.03	344.40	-195.47	205.31
Saccade R	1	4	5155504672	5155524552	19880	1158.09	437.98	1150.07	454.33	0.20	18.43	1.00	10.03	344.40	-195.47	205.31
Fixation L	1	4	5155524552	5155743415	218863	1158.78	470.60	19	57	-1	17.92	17.92
Fixation R	1	4	5155524552	5155743415	218863	1158.78	470.60	19	57	-1	17.53	17.53
Saccade L	1	5	5155743415	5155763282	19867	1151.69	457.14	1114.40	455.01	0.52	46.74	1.00	26.35	-223.93	-740.57	418.46
Saccade R	1	5	5155743415	5155763282	19867	1151.69	457.14	1114.40	455.01	0.52	46.74	1.00	26.35	-223.93	-740.57	418.46
Fixation L	1	5	5155763282	5155942277	178995	1101.87	449.60	29	8	-1	18.45	18.45
Fixation R	1	5	5155763282	5155942277	178995	1101.87	449.60	29	8	-1	18.18	18.18
