[BeGaze]
Converted from:	C:\Documents and Settings\iViewX\Desktop\EXPERIMENTATIONS\Experiments\results\finaleart\S22H22551-finaleart-1.idf
Date:	27.03.2019 15:58:20
Version:	BeGaze 2.5.77
Sample Rate:	50
Subject:	S22H22551
Description:	Mathieu Chambre

Table Header for Fixations:
Event Type	Trial	Number	Start	End	Duration	Location X	Location Y	Dispersion X	Dispersion Y	Plane	Avg. Pupil Size X	Avg. Pupil Size Y

Table Header for Saccades:
Event Type	Trial	Number	Start	End	Duration	Start Loc.X	Start Loc.Y	End Loc.X	End Loc.Y	Amplitude	Peak Speed	Peak Speed At	Average Speed	Peak Accel.	Peak Decel.	Average Accel.

Table Header for Blinks:
Event Type	Trial	Number	Start	End	Duration

Table Header for User Events:
Event Type	Trial	Number	Start	Description

UserEvent	1	1	5443080804	# Message: void.jpg
Saccade L	1	1	5443082965	5443262072	179107	278.45	187.79	1277.58	88.73	22.50	446.12	0.67	125.64	10759.21	-7313.60	3583.97
Saccade R	1	1	5443082965	5443262072	179107	278.45	187.79	1277.58	88.73	22.50	446.12	0.67	125.64	10759.21	-7313.60	3583.97
Fixation L	1	1	5443262072	5443381317	119245	1276.42	38.28	16	68	-1	16.44	16.44
Fixation R	1	1	5443262072	5443381317	119245	1276.42	38.28	16	68	-1	17.58	17.58
Saccade L	1	2	5443381317	5443421189	39872	1285.29	27.01	1556.41	88.74	3.01	263.01	0.50	75.59	6223.20	-5216.13	3149.88
Saccade R	1	2	5443381317	5443421189	39872	1285.29	27.01	1556.41	88.74	3.01	263.01	0.50	75.59	6223.20	-5216.13	3149.88
Fixation L	1	2	5443421189	5443540430	119241	1568.34	80.77	22	76	-1	17.23	17.23
Fixation R	1	2	5443421189	5443540430	119241	1568.34	80.77	22	76	-1	17.95	17.95
Saccade L	1	3	5443540430	5443620054	79624	1566.68	114.53	1566.00	117.41	3.78	225.31	1.00	47.50	34879.04	-627.50	7018.19
Saccade R	1	3	5443540430	5443620054	79624	1566.68	114.53	1566.00	117.41	3.78	225.31	1.00	47.50	34879.04	-627.50	7018.19
Saccade L	1	4	5443679680	5443699554	19874	0.00	5.06	0.00	0.77	7.01	1401.17	1.00	352.74	-106.64	-34920.77	11713.39
Fixation R	1	3	5443679680	5443779168	99488	0.00	1.12	0	4	-1	26.52	26.52
Saccade L	1	5	5443818915	5443938296	119381	1013.79	126.10	995.26	258.99	17.13	1032.43	1.00	143.49	26212.54	-25527.04	7104.79
Saccade R	1	4	5443818915	5443938296	119381	1013.79	126.10	995.26	258.99	17.13	1032.43	1.00	143.49	26212.54	-25527.04	7104.79
Blink L	1	1	5443938296	5444137159	198863
Blink R	1	1	5444017781	5444137159	119378
Fixation L	1	3	5444137159	5444853131	715972	1067.38	310.24	47	40	-1	17.88	17.88
Fixation R	1	4	5444137159	5444853131	715972	1067.38	310.24	47	40	-1	18.03	18.03
Saccade L	1	6	5444853131	5444873115	19984	1031.08	307.00	1018.31	310.25	0.36	47.68	0.00	18.05	286.89	-958.92	486.77
Saccade R	1	5	5444853131	5444873115	19984	1031.08	307.00	1018.31	310.25	0.36	47.68	0.00	18.05	286.89	-958.92	486.77
Fixation L	1	4	5444873115	5445071981	198866	1005.47	303.87	17	18	-1	17.17	17.17
Fixation R	1	5	5444873115	5445071981	198866	1005.47	303.87	17	18	-1	17.12	17.12
