[BeGaze]
Converted from:	C:\Documents and Settings\iViewX\Desktop\EXPERIMENTATIONS\Experiments\results\finaleart\S22H22551-finaleart-1.idf
Date:	27.03.2019 15:57:11
Version:	BeGaze 2.5.77
Sample Rate:	50
Subject:	S22H22551
Description:	Mathieu Chambre

Table Header for Fixations:
Event Type	Trial	Number	Start	End	Duration	Location X	Location Y	Dispersion X	Dispersion Y	Plane	Avg. Pupil Size X	Avg. Pupil Size Y

Table Header for Saccades:
Event Type	Trial	Number	Start	End	Duration	Start Loc.X	Start Loc.Y	End Loc.X	End Loc.Y	Amplitude	Peak Speed	Peak Speed At	Average Speed	Peak Accel.	Peak Decel.	Average Accel.

Table Header for Blinks:
Event Type	Trial	Number	Start	End	Duration

Table Header for User Events:
Event Type	Trial	Number	Start	Description

UserEvent	1	1	4892093643	# Message: void.jpg
Fixation L	1	1	4892107266	4892266382	159116	0.67	0.00	1	0	-1	15.99	15.99
Fixation R	1	1	4892107266	4892266382	159116	0.67	0.00	1	0	-1	16.06	16.06
Blink L	1	1	4892266382	4893100333	833951
Blink R	1	1	4892266382	4893100333	833951
Saccade L	1	1	4893100333	4893140092	39759	1136.69	503.75	1137.46	434.03	10.87	1241.33	1.00	273.44	1464.51	-30832.26	8654.33
Saccade R	1	1	4893100333	4893140092	39759	1136.69	503.75	1137.46	434.03	10.87	1241.33	1.00	273.44	1464.51	-30832.26	8654.33
Fixation L	1	2	4893140092	4893398686	258594	1141.62	374.16	10	87	-1	17.96	17.96
Fixation R	1	2	4893140092	4893398686	258594	1141.62	374.16	10	87	-1	18.08	18.08
Saccade L	1	2	4893398686	4893418567	19881	1145.97	346.76	1145.92	341.17	0.07	5.65	1.00	3.55	118.19	-74.31	88.81
Saccade R	1	2	4893398686	4893498186	99500	1145.97	346.76	1143.67	334.54	0.60	24.74	1.00	6.04	701.43	-74.31	241.70
Fixation L	1	3	4893418567	4893537939	119372	1141.90	338.29	30	16	-1	16.60	16.60
Blink R	1	2	4893498186	4893577696	79510
Saccade L	1	3	4893537939	4893577696	39757	1150.45	326.76	1212.75	314.16	1.56	69.77	0.50	39.35	1125.60	-712.91	526.73
Fixation R	1	3	4893577696	4893836295	258599	1159.71	319.97	66	28	-1	18.68	18.68
Fixation L	1	4	4893617440	4894094786	477346	1150.24	336.03	24	51	-1	18.47	18.47
Saccade R	1	3	4893836295	4893856175	19880	1146.40	335.90	1146.99	341.17	0.09	7.37	0.00	4.65	103.79	-68.01	60.12
Fixation R	1	4	4893856175	4894094786	238611	1144.94	350.65	3	18	-1	19.23	19.23
