[BeGaze]
Converted from:	C:\Documents and Settings\iViewX\Desktop\EXPERIMENTATIONS\Experiments\results\finaleart\S22H22551-finaleart-1.idf
Date:	27.03.2019 15:57:27
Version:	BeGaze 2.5.77
Sample Rate:	50
Subject:	S22H22551
Description:	Mathieu Chambre

Table Header for Fixations:
Event Type	Trial	Number	Start	End	Duration	Location X	Location Y	Dispersion X	Dispersion Y	Plane	Avg. Pupil Size X	Avg. Pupil Size Y

Table Header for Saccades:
Event Type	Trial	Number	Start	End	Duration	Start Loc.X	Start Loc.Y	End Loc.X	End Loc.Y	Amplitude	Peak Speed	Peak Speed At	Average Speed	Peak Accel.	Peak Decel.	Average Accel.

Table Header for Blinks:
Event Type	Trial	Number	Start	End	Duration

Table Header for User Events:
Event Type	Trial	Number	Start	Description

UserEvent	1	1	4992475682	# Message: renoir-still-life-with-peaches-and-grapes-1881.jpg
Fixation L	1	1	4992490413	4992947882	457469	998.42	365.46	72	24	-1	18.81	18.81
Fixation R	1	1	4992490413	4992947882	457469	998.42	365.46	72	24	-1	19.06	19.06
Saccade L	1	1	4992947882	4992967768	19886	966.49	356.50	865.87	354.70	0.55	101.79	1.00	27.79	2480.96	-2337.58	1622.75
Saccade R	1	1	4992947882	4992967768	19886	966.49	356.50	865.87	354.70	0.55	101.79	1.00	27.79	2480.96	-2337.58	1622.75
Fixation L	1	2	4992967768	4993166623	198855	858.58	353.93	12	4	-1	17.10	17.10
Fixation R	1	2	4992967768	4993166623	198855	858.58	353.93	12	4	-1	17.32	17.32
Saccade L	1	2	4993166623	4993186499	19876	857.08	352.38	859.11	473.83	0.64	122.86	1.00	32.06	3057.15	-3000.19	2026.97
Saccade R	1	2	4993166623	4993186499	19876	857.08	352.38	859.11	473.83	0.64	122.86	1.00	32.06	3057.15	-3000.19	2026.97
Fixation L	1	3	4993186499	4993345622	159123	862.60	478.12	5	12	-1	15.31	15.31
Fixation R	1	3	4993186499	4993345622	159123	862.60	478.12	5	12	-1	15.21	15.21
Saccade L	1	3	4993345622	4993405385	59763	863.60	483.80	463.04	914.71	6.11	311.19	0.67	102.23	7748.26	-7509.40	5235.00
Saccade R	1	3	4993345622	4993405385	59763	863.60	483.80	463.04	914.71	6.11	311.19	0.67	102.23	7748.26	-7509.40	5235.00
Fixation L	1	4	4993405385	4993524608	119223	464.86	925.45	4	18	-1	14.94	14.94
Fixation R	1	4	4993405385	4993524608	119223	464.86	925.45	4	18	-1	15.15	15.15
Saccade L	1	4	4993524608	4993544601	19993	465.58	932.74	428.08	1041.76	0.66	116.62	1.00	33.10	2849.32	-2687.24	1885.40
Saccade R	1	4	4993524608	4993544601	19993	465.58	932.74	428.08	1041.76	0.66	116.62	1.00	33.10	2849.32	-2687.24	1885.40
Fixation L	1	5	4993544601	4993803093	258492	417.05	1038.11	26	12	-1	14.89	14.89
Fixation R	1	5	4993544601	4993803093	258492	417.05	1038.11	26	12	-1	15.24	15.24
Saccade L	1	5	4993803093	4993862836	59743	406.56	1031.05	1289.93	793.68	9.45	352.39	0.67	158.11	8764.36	-8380.88	6881.45
Saccade R	1	5	4993803093	4993862836	59743	406.56	1031.05	1289.93	793.68	9.45	352.39	0.67	158.11	8764.36	-8380.88	6881.45
Fixation L	1	6	4993862836	4994121331	258495	1280.17	792.12	12	30	-1	14.61	14.61
Fixation R	1	6	4993862836	4994121331	258495	1280.17	792.12	12	30	-1	14.88	14.88
Saccade L	1	6	4994121331	4994141197	19866	1278.73	777.47	1321.11	635.16	0.87	150.17	1.00	43.58	3583.25	-3395.50	2407.91
Saccade R	1	6	4994121331	4994141197	19866	1278.73	777.47	1321.11	635.16	0.87	150.17	1.00	43.58	3583.25	-3395.50	2407.91
Fixation L	1	7	4994141197	4994379947	238750	1337.51	637.45	22	16	-1	14.85	14.85
Fixation R	1	7	4994141197	4994379947	238750	1337.51	637.45	22	16	-1	14.71	14.71
Saccade L	1	7	4994379947	4994399813	19866	1340.42	642.54	1459.46	694.35	0.84	131.32	1.00	42.04	3129.43	-3223.42	2349.80
Saccade R	1	7	4994379947	4994399813	19866	1340.42	642.54	1459.46	694.35	0.84	131.32	1.00	42.04	3129.43	-3223.42	2349.80
Fixation L	1	8	4994399813	4994598696	198883	1457.49	726.04	13	44	-1	15.64	15.64
Fixation R	1	8	4994399813	4994598696	198883	1457.49	726.04	13	44	-1	15.09	15.09
Saccade L	1	8	4994598696	4994658430	59734	1454.89	739.13	956.80	762.08	5.26	236.88	0.67	88.01	5792.78	-5507.45	3729.15
Saccade R	1	8	4994598696	4994658430	59734	1454.89	739.13	956.80	762.08	5.26	236.88	0.67	88.01	5792.78	-5507.45	3729.15
Fixation L	1	9	4994658430	4994797663	139233	972.09	777.58	19	24	-1	16.15	16.15
Fixation R	1	9	4994658430	4994797663	139233	972.09	777.58	19	24	-1	15.45	15.45
Saccade L	1	9	4994797663	4994837415	39752	976.24	785.83	676.76	499.08	3.67	247.32	0.50	92.43	6147.81	-5611.70	5244.05
Saccade R	1	9	4994797663	4994837415	39752	976.24	785.83	676.76	499.08	3.67	247.32	0.50	92.43	6147.81	-5611.70	5244.05
Fixation L	1	10	4994837415	4994976658	139243	689.29	479.24	19	25	-1	15.83	15.83
Fixation R	1	10	4994837415	4994976658	139243	689.29	479.24	19	25	-1	15.28	15.28
Saccade L	1	10	4994976658	4995016403	39745	695.22	473.85	846.61	228.35	2.76	246.63	0.50	69.40	6024.35	-5894.00	3707.13
Saccade R	1	10	4994976658	4995016403	39745	695.22	473.85	846.61	228.35	2.76	246.63	0.50	69.40	6024.35	-5894.00	3707.13
Fixation L	1	11	4995016403	4995155645	139242	838.80	215.40	40	28	-1	15.06	15.06
Fixation R	1	11	4995016403	4995155645	139242	838.80	215.40	40	28	-1	15.20	15.20
Saccade L	1	11	4995155645	4995175518	19873	852.54	203.22	1217.92	194.76	2.06	369.21	1.00	103.75	9158.81	-8916.86	6216.45
Saccade R	1	11	4995155645	4995175518	19873	852.54	203.22	1217.92	194.76	2.06	369.21	1.00	103.75	9158.81	-8916.86	6216.45
Fixation L	1	12	4995175518	4995354507	178989	1258.48	220.45	53	35	-1	15.91	15.91
Fixation R	1	12	4995175518	4995354507	178989	1258.48	220.45	53	35	-1	16.19	16.19
Saccade L	1	12	4995354507	4995374382	19875	1271.57	226.47	1291.48	454.40	1.49	231.33	1.00	75.05	5674.34	-5660.50	4268.09
Saccade R	1	12	4995354507	4995374382	19875	1271.57	226.47	1291.48	454.40	1.49	231.33	1.00	75.05	5674.34	-5660.50	4268.09
Fixation L	1	13	4995374382	4995672749	298367	1286.30	520.00	13	85	-1	16.96	16.96
Fixation R	1	13	4995374382	4995672749	298367	1286.30	520.00	13	85	-1	17.22	17.22
Blink L	1	1	4995672749	4995891610	218861
Blink R	1	1	4995672749	4995891610	218861
Fixation L	1	14	4995891610	4996090472	198862	886.10	400.61	50	7	-1	17.35	17.35
Fixation R	1	14	4995891610	4996090472	198862	886.10	400.61	50	7	-1	16.84	16.84
Saccade L	1	13	4996090472	4996110350	19878	895.72	402.49	1065.02	437.74	1.46	174.88	1.00	73.36	3127.60	-3916.62	2623.66
Saccade R	1	13	4996090472	4996110350	19878	895.72	402.49	1065.02	437.74	1.46	174.88	1.00	73.36	3127.60	-3916.62	2623.66
Fixation L	1	15	4996110350	4996368957	258607	1082.66	454.36	36	38	-1	17.40	17.40
Fixation R	1	15	4996110350	4996368957	258607	1082.66	454.36	36	38	-1	17.15	17.15
Saccade L	1	14	4996368957	4996468325	99368	1053.91	459.19	1005.76	436.19	1.64	41.73	0.20	16.50	1024.06	-791.65	452.48
Saccade R	1	14	4996368957	4996468325	99368	1053.91	459.19	1005.76	436.19	1.64	41.73	0.20	16.50	1024.06	-791.65	452.48
