[BeGaze]
Converted from:	C:\Documents and Settings\iViewX\Desktop\EXPERIMENTATIONS\Experiments\results\finaleart\S22H22551-finaleart-1.idf
Date:	27.03.2019 15:58:24
Version:	BeGaze 2.5.77
Sample Rate:	50
Subject:	S22H22551
Description:	Mathieu Chambre

Table Header for Fixations:
Event Type	Trial	Number	Start	End	Duration	Location X	Location Y	Dispersion X	Dispersion Y	Plane	Avg. Pupil Size X	Avg. Pupil Size Y

Table Header for Saccades:
Event Type	Trial	Number	Start	End	Duration	Start Loc.X	Start Loc.Y	End Loc.X	End Loc.Y	Amplitude	Peak Speed	Peak Speed At	Average Speed	Peak Accel.	Peak Decel.	Average Accel.

Table Header for Blinks:
Event Type	Trial	Number	Start	End	Duration

Table Header for User Events:
Event Type	Trial	Number	Start	Description

UserEvent	1	1	5554174786	# Message: Morning,_An_Overcast_Day_Rouen_Pissaro_1896.jpg
Fixation L	1	1	5554182808	5554501055	318247	1049.94	401.87	47	21	-1	17.89	17.89
Fixation R	1	1	5554182808	5554501055	318247	1049.94	401.87	47	21	-1	18.39	18.39
Saccade L	1	1	5554501055	5554540789	39734	1025.67	391.26	919.87	521.34	1.62	126.57	1.00	40.80	2961.72	-2936.18	1954.19
Saccade R	1	1	5554501055	5554540789	39734	1025.67	391.26	919.87	521.34	1.62	126.57	1.00	40.80	2961.72	-2936.18	1954.19
Fixation L	1	2	5554540789	5554719776	178987	928.48	519.75	18	13	-1	16.36	16.36
Fixation R	1	2	5554540789	5554719776	178987	928.48	519.75	18	13	-1	17.14	17.14
Saccade L	1	2	5554719776	5554779521	59745	922.36	522.58	1449.09	988.92	7.26	317.97	0.67	121.60	7824.85	-7807.04	5236.33
Saccade R	1	2	5554719776	5554779521	59745	922.36	522.58	1449.09	988.92	7.26	317.97	0.67	121.60	7824.85	-7807.04	5236.33
Fixation L	1	3	5554779521	5554898768	119247	1446.88	987.50	11	5	-1	14.02	14.02
Fixation R	1	3	5554779521	5554898768	119247	1446.88	987.50	11	5	-1	14.50	14.50
Saccade L	1	3	5554898768	5554918641	19873	1443.02	986.35	1465.47	1101.11	0.66	118.29	1.00	33.27	2910.10	-2919.99	2021.27
Saccade R	1	3	5554898768	5554918641	19873	1443.02	986.35	1465.47	1101.11	0.66	118.29	1.00	33.27	2910.10	-2919.99	2021.27
Fixation L	1	4	5554918641	5556450185	1531544	1491.88	1101.55	84	12	-1	13.95	13.95
Fixation R	1	4	5554918641	5556450185	1531544	1491.88	1101.55	84	12	-1	14.28	14.28
Saccade L	1	4	5556450185	5556529806	79621	1538.64	1096.83	1445.58	442.74	7.85	276.47	0.75	98.61	6744.87	-6805.61	3952.99
Saccade R	1	4	5556450185	5556529806	79621	1538.64	1096.83	1445.58	442.74	7.85	276.47	0.75	98.61	6744.87	-6805.61	3952.99
Fixation L	1	5	5556529806	5556788296	258490	1436.90	450.63	48	33	-1	14.45	14.45
Fixation R	1	5	5556529806	5556788296	258490	1436.90	450.63	48	33	-1	14.38	14.38
Saccade L	1	5	5556788296	5556828164	39868	1404.36	471.60	1011.16	560.59	3.58	306.92	0.50	89.92	7518.74	-7467.58	4820.38
Saccade R	1	5	5556788296	5556828164	39868	1404.36	471.60	1011.16	560.59	3.58	306.92	0.50	89.92	7518.74	-7467.58	4820.38
Fixation L	1	6	5556828164	5557007162	178998	1013.93	564.23	7	19	-1	14.40	14.40
Fixation R	1	6	5556828164	5557007162	178998	1013.93	564.23	7	19	-1	14.31	14.31
Saccade L	1	6	5557007162	5557046903	39741	1018.33	552.10	769.98	719.72	2.68	164.57	0.50	67.56	4079.47	-3647.96	3665.92
Saccade R	1	6	5557007162	5557046903	39741	1018.33	552.10	769.98	719.72	2.68	164.57	0.50	67.56	4079.47	-3647.96	3665.92
Fixation L	1	7	5557046903	5557285646	238743	769.31	698.31	11	28	-1	13.67	13.67
Fixation R	1	7	5557046903	5557285646	238743	769.31	698.31	11	28	-1	14.21	14.21
Saccade L	1	7	5557285646	5557305510	19864	763.22	710.79	589.83	872.98	1.35	240.04	1.00	67.96	5971.56	-5736.22	3934.41
Saccade R	1	7	5557285646	5557305510	19864	763.22	710.79	589.83	872.98	1.35	240.04	1.00	67.96	5971.56	-5736.22	3934.41
Fixation L	1	8	5557305510	5557524252	218742	582.94	876.25	13	10	-1	13.34	13.34
Fixation R	1	8	5557305510	5557524252	218742	582.94	876.25	13	10	-1	14.01	14.01
Saccade L	1	8	5557524252	5557544128	19876	581.38	873.25	491.83	906.86	0.71	96.75	1.00	35.58	2379.98	-1850.93	1745.82
Saccade R	1	8	5557524252	5557544128	19876	581.38	873.25	491.83	906.86	0.71	96.75	1.00	35.58	2379.98	-1850.93	1745.82
Fixation L	1	9	5557544128	5557762994	218866	441.10	934.38	62	34	-1	13.26	13.26
Fixation R	1	9	5557544128	5557762994	218866	441.10	934.38	62	34	-1	14.00	14.00
Saccade L	1	9	5557762994	5557782862	19868	429.27	939.60	427.60	965.36	0.25	26.11	1.00	12.54	627.11	-478.68	530.68
Saccade R	1	9	5557762994	5557782862	19868	429.27	939.60	427.60	965.36	0.25	26.11	1.00	12.54	627.11	-478.68	530.68
Fixation L	1	10	5557782862	5557922107	139245	429.61	998.85	6	50	-1	13.39	13.39
Fixation R	1	10	5557782862	5557922107	139245	429.61	998.85	6	50	-1	14.72	14.72
Saccade L	1	10	5557922107	5557961854	39747	433.59	1008.61	548.33	545.66	3.95	282.30	0.50	99.31	6982.64	-6902.61	5878.52
Saccade R	1	10	5557922107	5557961854	39747	433.59	1008.61	548.33	545.66	3.95	282.30	0.50	99.31	6982.64	-6902.61	5878.52
Fixation L	1	11	5557961854	5558160728	198874	562.42	562.68	25	25	-1	13.58	13.58
Fixation R	1	11	5557961854	5558160728	198874	562.42	562.68	25	25	-1	14.43	14.43
