[BeGaze]
Converted from:	C:\Documents and Settings\iViewX\Desktop\EXPERIMENTATIONS\Experiments\results\finaleart\S22H22551-finaleart-1.idf
Date:	27.03.2019 15:58:30
Version:	BeGaze 2.5.77
Sample Rate:	50
Subject:	S22H22551
Description:	Mathieu Chambre

Table Header for Fixations:
Event Type	Trial	Number	Start	End	Duration	Location X	Location Y	Dispersion X	Dispersion Y	Plane	Avg. Pupil Size X	Avg. Pupil Size Y

Table Header for Saccades:
Event Type	Trial	Number	Start	End	Duration	Start Loc.X	Start Loc.Y	End Loc.X	End Loc.Y	Amplitude	Peak Speed	Peak Speed At	Average Speed	Peak Accel.	Peak Decel.	Average Accel.

Table Header for Blinks:
Event Type	Trial	Number	Start	End	Duration

Table Header for User Events:
Event Type	Trial	Number	Start	Description

UserEvent	1	1	5597335497	# Message: naked-woman-lying-on-a-couch_caillebotte_1873.jpg
Fixation L	1	1	5597343945	5597821287	477342	1049.09	377.75	85	13	-1	16.80	16.80
Fixation R	1	1	5597343945	5597821287	477342	1049.09	377.75	85	13	-1	16.29	16.29
Saccade L	1	1	5597821287	5597841169	19882	1100.12	381.70	1420.60	343.73	2.04	326.12	1.00	102.45	8046.08	-7764.46	5789.85
Saccade R	1	1	5597821287	5597841169	19882	1100.12	381.70	1420.60	343.73	2.04	326.12	1.00	102.45	8046.08	-7764.46	5789.85
Fixation L	1	2	5597841169	5598199260	358091	1436.45	337.35	21	26	-1	14.28	14.28
Fixation R	1	2	5597841169	5598199260	358091	1436.45	337.35	21	26	-1	14.35	14.35
Saccade L	1	2	5598199260	5598239005	39745	1441.65	336.62	1084.59	345.53	2.96	278.90	0.50	74.37	6892.49	-6896.21	4420.77
Saccade R	1	2	5598199260	5598239005	39745	1441.65	336.62	1084.59	345.53	2.96	278.90	0.50	74.37	6892.49	-6896.21	4420.77
Fixation L	1	3	5598239005	5598398128	159123	1075.14	352.85	38	12	-1	13.56	13.56
Fixation R	1	3	5598239005	5598398128	159123	1075.14	352.85	38	12	-1	13.85	13.85
Saccade L	1	3	5598398128	5598418005	19877	1048.95	358.46	769.35	358.24	1.90	282.62	1.00	95.52	7040.76	-6965.04	5080.25
Saccade R	1	3	5598398128	5598418005	19877	1048.95	358.46	769.35	358.24	1.90	282.62	1.00	95.52	7040.76	-6965.04	5080.25
Fixation L	1	4	5598418005	5598636743	218738	703.48	366.78	76	20	-1	14.14	14.14
Fixation R	1	4	5598418005	5598636743	218738	703.48	366.78	76	20	-1	14.23	14.23
Saccade L	1	4	5598636743	5598656614	19871	696.48	378.52	561.42	384.14	0.85	136.72	1.00	42.74	3375.65	-2958.05	2306.22
Saccade R	1	4	5598636743	5598656614	19871	696.48	378.52	561.42	384.14	0.85	136.72	1.00	42.74	3375.65	-2958.05	2306.22
Fixation L	1	5	5598656614	5598855603	198989	581.25	429.49	24	64	-1	14.79	14.79
Fixation R	1	5	5598656614	5598855603	198989	581.25	429.49	24	64	-1	15.02	15.02
Saccade L	1	5	5598855603	5598895349	39746	583.66	448.62	682.93	862.91	3.76	278.10	0.50	94.61	6933.10	-6453.32	5328.08
Saccade R	1	5	5598855603	5598895349	39746	583.66	448.62	682.93	862.91	3.76	278.10	0.50	94.61	6933.10	-6453.32	5328.08
Fixation L	1	6	5598895349	5599094217	198868	680.53	844.56	7	23	-1	15.50	15.50
Fixation R	1	6	5598895349	5599094217	198868	680.53	844.56	7	23	-1	16.16	16.16
Saccade L	1	6	5599094217	5599134094	39877	681.31	843.97	416.60	1065.88	3.03	278.52	1.00	76.03	6896.73	-6723.10	4357.13
Saccade R	1	6	5599094217	5599134094	39877	681.31	843.97	416.60	1065.88	3.03	278.52	1.00	76.03	6896.73	-6723.10	4357.13
Fixation L	1	7	5599134094	5599293210	159116	414.33	1062.15	15	8	-1	15.22	15.22
Fixation R	1	7	5599134094	5599293210	159116	414.33	1062.15	15	8	-1	16.12	16.12
Saccade L	1	7	5599293210	5599372699	79489	412.32	1064.80	1292.96	947.80	10.39	368.08	0.50	130.76	9136.03	-7823.47	5648.45
Saccade R	1	7	5599293210	5599372699	79489	412.32	1064.80	1292.96	947.80	10.39	368.08	0.50	130.76	9136.03	-7823.47	5648.45
Fixation L	1	8	5599372699	5599551685	178986	1291.79	953.86	13	16	-1	14.76	14.76
Fixation R	1	8	5599372699	5599551685	178986	1291.79	953.86	13	16	-1	15.07	15.07
Saccade L	1	8	5599551685	5599591436	39751	1287.04	957.55	1380.74	594.32	3.30	237.78	1.00	83.01	5830.27	-5774.55	4496.38
Saccade R	1	8	5599551685	5599591436	39751	1287.04	957.55	1380.74	594.32	3.30	237.78	1.00	83.01	5830.27	-5774.55	4496.38
Fixation L	1	9	5599591436	5599770552	179116	1395.15	589.61	19	8	-1	14.51	14.51
Fixation R	1	9	5599591436	5599770552	179116	1395.15	589.61	19	8	-1	14.74	14.74
Saccade L	1	9	5599770552	5599790435	19883	1393.12	586.11	1403.61	363.38	1.27	225.45	1.00	63.93	5487.01	-5351.91	3727.67
Saccade R	1	9	5599770552	5599790435	19883	1393.12	586.11	1403.61	363.38	1.27	225.45	1.00	63.93	5487.01	-5351.91	3727.67
Fixation L	1	10	5599790435	5600088796	298361	1415.31	340.40	17	34	-1	14.73	14.73
Fixation R	1	10	5599790435	5600088796	298361	1415.31	340.40	17	34	-1	14.58	14.58
Saccade L	1	10	5600088796	5600108663	19867	1412.29	343.87	1249.85	347.11	0.90	164.32	1.00	45.14	3905.22	-4041.23	2678.27
Saccade R	1	10	5600088796	5600108663	19867	1412.29	343.87	1249.85	347.11	0.90	164.32	1.00	45.14	3905.22	-4041.23	2678.27
Fixation L	1	11	5600108663	5600327408	218745	1254.29	346.69	6	8	-1	15.55	15.55
Fixation R	1	11	5600108663	5600327408	218745	1254.29	346.69	6	8	-1	15.57	15.57
Saccade L	1	11	5600327408	5600367155	39747	1254.76	343.25	807.98	369.01	3.75	242.38	0.50	94.23	6015.29	-5685.81	5521.51
Saccade R	1	11	5600327408	5600367155	39747	1254.76	343.25	807.98	369.01	3.75	242.38	0.50	94.23	6015.29	-5685.81	5521.51
Fixation L	1	12	5600367155	5600566138	198983	810.96	386.10	4	24	-1	15.64	15.64
Fixation R	1	12	5600367155	5600566138	198983	810.96	386.10	4	24	-1	16.23	16.23
Saccade L	1	12	5600566138	5600605886	39748	812.81	386.24	541.05	383.95	2.39	192.01	1.00	60.18	4750.76	-4707.86	3249.83
Saccade R	1	12	5600566138	5600605886	39748	812.81	386.24	541.05	383.95	2.39	192.01	1.00	60.18	4750.76	-4707.86	3249.83
Fixation L	1	13	5600605886	5600745143	139257	561.75	383.53	25	5	-1	15.69	15.69
Fixation R	1	13	5600605886	5600745143	139257	561.75	383.53	25	5	-1	16.10	16.10
Saccade L	1	13	5600745143	5600784873	39730	564.14	385.29	1155.98	384.56	4.97	322.41	0.50	125.20	7974.82	-7492.40	7205.71
Saccade R	1	13	5600745143	5600784873	39730	564.14	385.29	1155.98	384.56	4.97	322.41	0.50	125.20	7974.82	-7492.40	7205.71
Fixation L	1	14	5600784873	5601023616	238743	1202.26	366.01	60	31	-1	15.69	15.69
Fixation R	1	14	5600784873	5601023616	238743	1202.26	366.01	60	31	-1	16.17	16.17
Saccade L	1	14	5601023616	5601043488	19872	1215.67	353.03	1244.98	338.49	0.23	33.11	1.00	11.68	727.14	-509.90	436.55
Saccade R	1	14	5601023616	5601043488	19872	1215.67	353.03	1244.98	338.49	0.23	33.11	1.00	11.68	727.14	-509.90	436.55
Fixation L	1	15	5601043488	5601242352	198864	1267.05	323.80	30	25	-1	15.95	15.95
Fixation R	1	15	5601043488	5601242352	198864	1267.05	323.80	30	25	-1	16.32	16.32
Saccade L	1	15	5601242352	5601341866	99514	1275.90	313.67	1407.45	340.73	3.79	162.09	0.20	38.11	3897.18	-3373.45	1492.99
Saccade R	1	15	5601242352	5601341866	99514	1275.90	313.67	1407.45	340.73	3.79	162.09	0.20	38.11	3897.18	-3373.45	1492.99
