[BeGaze]
Converted from:	C:\Documents and Settings\iViewX\Desktop\EXPERIMENTATIONS\Experiments\results\finaleart\S22H22551-finaleart-1.idf
Date:	27.03.2019 15:58:09
Version:	BeGaze 2.5.77
Sample Rate:	50
Subject:	S22H22551
Description:	Mathieu Chambre

Table Header for Fixations:
Event Type	Trial	Number	Start	End	Duration	Location X	Location Y	Dispersion X	Dispersion Y	Plane	Avg. Pupil Size X	Avg. Pupil Size Y

Table Header for Saccades:
Event Type	Trial	Number	Start	End	Duration	Start Loc.X	Start Loc.Y	End Loc.X	End Loc.Y	Amplitude	Peak Speed	Peak Speed At	Average Speed	Peak Accel.	Peak Decel.	Average Accel.

Table Header for Blinks:
Event Type	Trial	Number	Start	End	Duration

Table Header for User Events:
Event Type	Trial	Number	Start	Description

UserEvent	1	1	5365248670	# Message: marquet-fruit-knife-and-napkin-1898.jpg
Fixation L	1	1	5365253632	5365790736	537104	1003.38	398.36	44	42	-1	16.05	16.05
Fixation R	1	1	5365253632	5365790736	537104	1003.38	398.36	44	42	-1	16.38	16.38
Saccade L	1	1	5365790736	5365830472	39736	989.11	377.60	1242.06	657.60	3.29	253.99	0.50	82.72	6245.85	-5754.25	4477.92
Saccade R	1	1	5365790736	5365830472	39736	989.11	377.60	1242.06	657.60	3.29	253.99	0.50	82.72	6245.85	-5754.25	4477.92
Fixation L	1	2	5365830472	5366029348	198876	1240.69	641.37	6	23	-1	15.41	15.41
Fixation R	1	2	5365830472	5366029348	198876	1240.69	641.37	6	23	-1	15.48	15.48
Saccade L	1	2	5366029348	5366069088	39740	1238.11	643.45	1043.01	1040.98	3.65	279.92	1.00	91.91	6954.47	-6594.82	5429.77
Saccade R	1	2	5366029348	5366069088	39740	1238.11	643.45	1043.01	1040.98	3.65	279.92	1.00	91.91	6954.47	-6594.82	5429.77
Fixation L	1	3	5366069088	5366268083	198995	1035.29	1039.60	13	14	-1	15.80	15.80
Fixation R	1	3	5366069088	5366268083	198995	1035.29	1039.60	13	14	-1	15.89	15.89
Saccade L	1	3	5366268083	5366307823	39740	1030.75	1039.21	533.49	1052.27	4.45	254.85	1.00	111.94	6328.28	-6138.19	5873.18
Saccade R	1	3	5366268083	5366307823	39740	1030.75	1039.21	533.49	1052.27	4.45	254.85	1.00	111.94	6328.28	-6138.19	5873.18
Fixation L	1	4	5366307823	5366546440	238617	492.68	1069.71	64	30	-1	16.12	16.12
Fixation R	1	4	5366307823	5366546440	238617	492.68	1069.71	64	30	-1	16.43	16.43
Saccade L	1	4	5366546440	5366566441	20001	473.28	1080.02	458.56	1079.75	0.19	14.89	1.00	9.35	74.25	-133.55	91.98
Saccade R	1	4	5366546440	5366566441	20001	473.28	1080.02	458.56	1079.75	0.19	14.89	1.00	9.35	74.25	-133.55	91.98
Fixation L	1	5	5366566441	5367501276	934835	447.08	1094.62	71	27	-1	16.28	16.28
Fixation R	1	5	5366566441	5367501276	934835	447.08	1094.62	71	27	-1	17.35	17.35
Saccade L	1	5	5367501276	5367560897	59621	487.12	1099.03	1188.73	702.99	8.34	405.19	0.67	139.94	10043.07	-9941.78	6639.51
Saccade R	1	5	5367501276	5367560897	59621	487.12	1099.03	1188.73	702.99	8.34	405.19	0.67	139.94	10043.07	-9941.78	6639.51
Fixation L	1	6	5367560897	5368256983	696086	1206.24	685.32	23	33	-1	17.44	17.44
Fixation R	1	6	5367560897	5368256983	696086	1206.24	685.32	23	33	-1	17.68	17.68
Saccade L	1	6	5368256983	5368276968	19985	1211.27	692.19	1399.15	734.02	1.12	194.65	1.00	56.06	4820.96	-4361.54	3232.92
Saccade R	1	6	5368256983	5368276968	19985	1211.27	692.19	1399.15	734.02	1.12	194.65	1.00	56.06	4820.96	-4361.54	3232.92
Fixation L	1	7	5368276968	5368595210	318242	1382.53	756.84	23	30	-1	18.91	18.91
Fixation R	1	7	5368276968	5368595210	318242	1382.53	756.84	23	30	-1	18.32	18.32
Saccade L	1	7	5368595210	5368634950	39740	1384.96	757.20	1198.47	399.22	3.36	261.74	0.50	84.54	6528.50	-6279.51	4959.79
Saccade R	1	7	5368595210	5368634950	39740	1384.96	757.20	1198.47	399.22	3.36	261.74	0.50	84.54	6528.50	-6279.51	4959.79
Fixation L	1	8	5368634950	5368853695	218745	1183.30	408.55	26	14	-1	18.46	18.46
Fixation R	1	8	5368634950	5368853695	218745	1183.30	408.55	26	14	-1	18.10	18.10
Saccade L	1	8	5368853695	5368873564	19869	1171.87	399.08	986.80	325.60	1.11	201.36	1.00	56.04	4922.31	-4900.91	3284.50
Saccade R	1	8	5368853695	5368873564	19869	1171.87	399.08	986.80	325.60	1.11	201.36	1.00	56.04	4922.31	-4900.91	3284.50
Fixation L	1	9	5368873564	5369152056	278492	977.75	324.74	11	11	-1	18.24	18.24
Fixation R	1	9	5368873564	5369152056	278492	977.75	324.74	11	11	-1	17.80	17.80
Saccade L	1	9	5369152056	5369231689	79633	976.06	327.39	630.57	315.96	5.04	217.01	0.25	63.32	5409.31	-5105.50	3520.48
Saccade R	1	9	5369152056	5369231689	79633	976.06	327.39	630.57	315.96	5.04	217.01	0.25	63.32	5409.31	-5105.50	3520.48
