[BeGaze]
Converted from:	C:\Documents and Settings\iViewX\Desktop\EXPERIMENTATIONS\Experiments\results\finaleart\S8119532-finaleart-1.idf
Date:	27.03.2019 15:59:27
Version:	BeGaze 2.5.77
Sample Rate:	50
Subject:	S8119532
Description:	Alexandre Drewery

Table Header for Fixations:
Event Type	Trial	Number	Start	End	Duration	Location X	Location Y	Dispersion X	Dispersion Y	Plane	Avg. Pupil Size X	Avg. Pupil Size Y

Table Header for Saccades:
Event Type	Trial	Number	Start	End	Duration	Start Loc.X	Start Loc.Y	End Loc.X	End Loc.Y	Amplitude	Peak Speed	Peak Speed At	Average Speed	Peak Accel.	Peak Decel.	Average Accel.

Table Header for Blinks:
Event Type	Trial	Number	Start	End	Duration

Table Header for User Events:
Event Type	Trial	Number	Start	Description

UserEvent	1	1	2536314368	# Message: plage-de-la-vignassa_cross_1892.jpg
Fixation L	1	1	2536316673	2536714420	397747	926.03	432.07	58	38	-1	13.06	13.06
Fixation R	1	1	2536316673	2536714420	397747	926.03	432.07	58	38	-1	15.60	15.60
Saccade L	1	1	2536714420	2536734268	19848	887.30	449.38	872.80	458.50	0.39	38.55	0.00	19.85	-52.66	-861.79	365.20
Saccade R	1	1	2536714420	2536734268	19848	887.30	449.38	872.80	458.50	0.39	38.55	0.00	19.85	-52.66	-861.79	365.20
Fixation L	1	2	2536734268	2537052509	318241	876.66	467.54	18	25	-1	14.00	14.00
Fixation R	1	2	2536734268	2537052509	318241	876.66	467.54	18	25	-1	16.33	16.33
Saccade L	1	2	2537052509	2537072503	19994	877.79	484.37	840.39	624.52	0.92	146.71	1.00	46.19	3518.63	-3054.31	2205.35
Saccade R	1	2	2537052509	2537072503	19994	877.79	484.37	840.39	624.52	0.92	146.71	1.00	46.19	3518.63	-3054.31	2205.35
Fixation L	1	3	2537072503	2537211620	139117	822.71	633.15	32	64	-1	13.86	13.86
Fixation R	1	3	2537072503	2537211620	139117	822.71	633.15	32	64	-1	16.37	16.37
Saccade L	1	3	2537211620	2537390759	179139	816.10	678.08	729.63	757.71	6.28	112.64	1.00	35.05	1722.55	-2349.82	1060.98
Saccade R	1	3	2537211620	2537390759	179139	816.10	678.08	729.63	757.71	6.28	112.64	1.00	35.05	1722.55	-2349.82	1060.98
Fixation L	1	4	2537390759	2537509988	119229	719.17	760.56	17	20	-1	12.64	12.64
Fixation R	1	4	2537390759	2537509988	119229	719.17	760.56	17	20	-1	15.27	15.27
Saccade L	1	4	2537509988	2537529995	20007	711.93	761.58	825.63	865.95	0.94	156.11	1.00	46.98	3707.58	-3010.75	2356.61
Saccade R	1	4	2537509988	2537529995	20007	711.93	761.58	825.63	865.95	0.94	156.11	1.00	46.98	3707.58	-3010.75	2356.61
Fixation L	1	5	2537529995	2537728852	198857	854.53	852.27	43	47	-1	12.51	12.51
Fixation R	1	5	2537529995	2537728852	198857	854.53	852.27	43	47	-1	14.50	14.50
Saccade L	1	5	2537728852	2537788475	59623	869.08	835.33	1492.27	688.41	7.31	345.39	0.67	122.59	8477.60	-7796.26	5055.46
Saccade R	1	5	2537728852	2537788475	59623	869.08	835.33	1492.27	688.41	7.31	345.39	0.67	122.59	8477.60	-7796.26	5055.46
Fixation L	1	6	2537788475	2537967472	178997	1463.77	700.54	37	19	-1	11.58	11.58
Fixation R	1	6	2537788475	2537967472	178997	1463.77	700.54	37	19	-1	12.74	12.74
Saccade L	1	6	2537967472	2537987339	19867	1466.64	702.96	1464.36	752.79	0.50	50.45	1.00	24.95	1098.62	-969.85	1004.65
Saccade R	1	6	2537967472	2537987339	19867	1466.64	702.96	1464.36	752.79	0.50	50.45	1.00	24.95	1098.62	-969.85	1004.65
Fixation L	1	7	2537987339	2538166458	179119	1471.19	703.60	21	78	-1	11.06	11.06
Fixation R	1	7	2537987339	2538166458	179119	1471.19	703.60	21	78	-1	11.91	11.91
Saccade L	1	7	2538166458	2538186331	19873	1467.31	674.23	1466.71	636.02	0.47	38.66	1.00	23.72	796.20	-319.69	422.11
Saccade R	1	7	2538166458	2538186331	19873	1467.31	674.23	1466.71	636.02	0.47	38.66	1.00	23.72	796.20	-319.69	422.11
Fixation L	1	8	2538186331	2538365321	178990	1443.63	596.51	38	58	-1	10.80	10.80
Fixation R	1	8	2538186331	2538365321	178990	1443.63	596.51	38	58	-1	11.59	11.59
Saccade L	1	8	2538365321	2538504573	139252	1427.98	585.17	1432.05	469.41	3.89	74.79	0.86	27.93	1528.30	-1519.80	839.23
Saccade R	1	8	2538365321	2538504573	139252	1427.98	585.17	1432.05	469.41	3.89	74.79	0.86	27.93	1528.30	-1519.80	839.23
Fixation L	1	9	2538504573	2538603948	99375	1435.41	476.43	34	60	-1	10.22	10.22
Fixation R	1	9	2538504573	2538603948	99375	1435.41	476.43	34	60	-1	11.25	11.25
Saccade L	1	9	2538603948	2538683563	79615	1459.60	505.73	621.41	364.76	11.52	347.98	0.25	144.69	7917.72	-8028.73	5067.60
Saccade R	1	9	2538603948	2538683563	79615	1459.60	505.73	621.41	364.76	11.52	347.98	0.25	144.69	7917.72	-8028.73	5067.60
Fixation L	1	10	2538683563	2538922174	238611	640.26	410.56	23	76	-1	10.04	10.04
Fixation R	1	10	2538683563	2538922174	238611	640.26	410.56	23	76	-1	11.65	11.65
Saccade L	1	10	2538922174	2538942170	19996	643.69	398.12	577.60	394.94	0.70	66.93	1.00	35.20	1308.12	-808.69	945.43
Saccade R	1	10	2538922174	2538942170	19996	643.69	398.12	577.60	394.94	0.70	66.93	1.00	35.20	1308.12	-808.69	945.43
Fixation L	1	11	2538942170	2539101288	159118	576.74	397.37	33	62	-1	10.02	10.02
Fixation R	1	11	2538942170	2539101288	159118	576.74	397.37	33	62	-1	12.03	12.03
Saccade L	1	11	2539101288	2539121160	19872	579.88	417.98	576.92	431.42	0.20	21.74	1.00	10.20	481.13	72.01	278.43
Saccade R	1	11	2539101288	2539121160	19872	579.88	417.98	576.92	431.42	0.20	21.74	1.00	10.20	481.13	72.01	278.43
Fixation L	1	12	2539121160	2539260408	139248	570.51	420.72	21	58	-1	10.09	10.09
Fixation R	1	12	2539121160	2539260408	139248	570.51	420.72	21	58	-1	12.39	12.39
Saccade L	1	12	2539260408	2539339890	79482	555.25	436.59	748.39	1019.32	10.30	257.20	0.50	129.59	6069.28	-4112.66	3673.14
Saccade R	1	12	2539260408	2539339890	79482	555.25	436.59	748.39	1019.32	10.30	257.20	0.50	129.59	6069.28	-4112.66	3673.14
Fixation L	1	13	2539339890	2539499013	159123	781.02	1040.33	46	46	-1	10.50	10.50
Fixation R	1	13	2539339890	2539499013	159123	781.02	1040.33	46	46	-1	12.90	12.90
Saccade L	1	13	2539499013	2539518903	19890	786.99	1065.58	785.97	1073.64	0.17	11.32	0.00	8.37	233.85	-52.26	124.57
Saccade R	1	13	2539499013	2539518903	19890	786.99	1065.58	785.97	1073.64	0.17	11.32	0.00	8.37	233.85	-52.26	124.57
Fixation L	1	14	2539518903	2539837124	318221	799.18	1080.76	20	78	-1	11.07	11.07
Fixation R	1	14	2539518903	2539837124	318221	799.18	1080.76	20	78	-1	13.16	13.16
Saccade L	1	14	2539837124	2539976368	139244	806.66	1084.85	661.48	561.55	10.41	321.08	0.57	74.76	7414.35	-7520.31	2509.83
Saccade R	1	14	2539837124	2539976368	139244	806.66	1084.85	661.48	561.55	10.41	321.08	0.57	74.76	7414.35	-7520.31	2509.83
Fixation L	1	15	2539976368	2540274739	298371	699.58	568.77	50	26	-1	11.12	11.12
Fixation R	1	15	2539976368	2540274739	298371	699.58	568.77	50	26	-1	13.27	13.27
Saccade L	1	15	2540274739	2540314472	39733	708.50	572.14	896.39	408.45	2.63	174.41	1.00	66.15	4302.63	0.00	2076.44
Saccade R	1	15	2540274739	2540314472	39733	708.50	572.14	896.39	408.45	2.63	174.41	1.00	66.15	4302.63	0.00	2076.44
