[BeGaze]
Converted from:	C:\Documents and Settings\iViewX\Desktop\EXPERIMENTATIONS\Experiments\results\finaleart\S8119532-finaleart-1.idf
Date:	27.03.2019 16:00:55
Version:	BeGaze 2.5.77
Sample Rate:	50
Subject:	S8119532
Description:	Alexandre Drewery

Table Header for Fixations:
Event Type	Trial	Number	Start	End	Duration	Location X	Location Y	Dispersion X	Dispersion Y	Plane	Avg. Pupil Size X	Avg. Pupil Size Y

Table Header for Saccades:
Event Type	Trial	Number	Start	End	Duration	Start Loc.X	Start Loc.Y	End Loc.X	End Loc.Y	Amplitude	Peak Speed	Peak Speed At	Average Speed	Peak Accel.	Peak Decel.	Average Accel.

Table Header for Blinks:
Event Type	Trial	Number	Start	End	Duration

Table Header for User Events:
Event Type	Trial	Number	Start	Description

UserEvent	1	1	3404794738	# Message: Landscape_at_L-Estaque_Braque-1906.jpg
Fixation L	1	1	3404807394	3405015715	208321	704.21	528.76	30	18	-1	14.06	14.06
Fixation R	1	1	3404807394	3405015715	208321	704.21	528.76	30	18	-1	16.46	16.46
Saccade L	1	1	3405015715	3405046139	30424	710.71	534.46	928.35	494.67	1.83	223.72	1.00	60.12	5383.21	-4653.31	3370.21
Saccade R	1	1	3405015715	3405046139	30424	710.71	534.46	928.35	494.67	1.83	223.72	1.00	60.12	5383.21	-4653.31	3370.21
Fixation L	1	2	3405046139	3405602996	556857	902.99	522.64	53	45	-1	14.38	14.38
Fixation R	1	2	3405046139	3405602996	556857	902.99	522.64	53	45	-1	16.43	16.43
Saccade L	1	2	3405602996	3405622974	19978	878.97	533.94	1090.34	559.16	1.41	215.25	1.00	70.80	5299.33	-5174.58	4002.91
Saccade R	1	2	3405602996	3405622974	19978	878.97	533.94	1090.34	559.16	1.41	215.25	1.00	70.80	5299.33	-5174.58	4002.91
Fixation L	1	3	3405622974	3405778602	155628	1133.22	572.83	53	42	-1	13.89	13.89
Fixation R	1	3	3405622974	3405778602	155628	1133.22	572.83	53	42	-1	15.52	15.52
Saccade L	1	3	3405778602	3405801977	23375	1144.34	585.83	1148.28	582.94	0.26	22.21	0.00	11.00	505.46	-157.89	254.56
Saccade R	1	3	3405778602	3405801977	23375	1144.34	585.83	1148.28	582.94	0.26	22.21	0.00	11.00	505.46	-157.89	254.56
Fixation L	1	4	3405801977	3405921215	119238	1150.30	573.89	6	42	-1	12.96	12.96
Fixation R	1	4	3405801977	3405921215	119238	1150.30	573.89	6	42	-1	14.51	14.51
Saccade L	1	4	3405921215	3405961093	39878	1154.75	556.48	910.14	537.71	2.34	195.42	1.00	58.57	4738.67	-4384.73	3161.57
Saccade R	1	4	3405921215	3405961093	39878	1154.75	556.48	910.14	537.71	2.34	195.42	1.00	58.57	4738.67	-4384.73	3161.57
Fixation L	1	5	3405961093	3406179817	218724	912.32	513.69	11	51	-1	12.40	12.40
Fixation R	1	5	3405961093	3406179817	218724	912.32	513.69	11	51	-1	14.11	14.11
Blink L	1	1	3406179817	3406358812	178995
Blink R	1	1	3406179817	3406358812	178995
Fixation L	1	6	3406358812	3406776548	417736	656.34	451.33	36	55	-1	14.19	14.19
Fixation R	1	6	3406358812	3406776548	417736	656.34	451.33	36	55	-1	13.67	13.67
Saccade L	1	5	3406776548	3406796415	19867	681.39	418.98	680.74	391.41	0.28	27.90	1.00	14.04	521.79	27.43	287.38
Saccade R	1	5	3406776548	3406796415	19867	681.39	418.98	680.74	391.41	0.28	27.90	1.00	14.04	521.79	27.43	287.38
Fixation L	1	7	3406796415	3407015156	218741	684.49	387.23	9	33	-1	13.86	13.86
Fixation R	1	7	3406796415	3407015156	218741	684.49	387.23	9	33	-1	13.50	13.50
Saccade L	1	6	3407015156	3407055032	39876	681.62	374.58	877.89	291.71	2.15	150.30	1.00	53.92	3485.54	-3261.46	2467.23
Saccade R	1	6	3407015156	3407055032	39876	681.62	374.58	877.89	291.71	2.15	150.30	1.00	53.92	3485.54	-3261.46	2467.23
Fixation L	1	8	3407055032	3407333516	278484	891.19	306.70	20	58	-1	14.05	14.05
Fixation R	1	8	3407055032	3407333516	278484	891.19	306.70	20	58	-1	13.03	13.03
Saccade L	1	7	3407333516	3407373266	39750	897.10	307.92	1065.38	353.38	1.73	121.89	0.50	43.40	2613.02	-2815.94	2031.59
Saccade R	1	7	3407333516	3407373266	39750	897.10	307.92	1065.38	353.38	1.73	121.89	0.50	43.40	2613.02	-2815.94	2031.59
Fixation L	1	9	3407373266	3407671624	298358	1083.50	355.17	28	51	-1	14.39	14.39
Fixation R	1	9	3407373266	3407671624	298358	1083.50	355.17	28	51	-1	13.07	13.07
Blink L	1	2	3407671624	3407910248	238624
Blink R	1	2	3407671624	3407910248	238624
Fixation L	1	10	3407910248	3408089224	178976	976.89	622.03	23	31	-1	13.51	13.51
Fixation R	1	10	3407910248	3408089224	178976	976.89	622.03	23	31	-1	14.66	14.66
Saccade L	1	8	3408089224	3408109108	19884	973.96	606.31	898.92	599.68	0.61	76.21	1.00	30.73	1642.60	-1313.28	995.14
Saccade R	1	8	3408089224	3408109108	19884	973.96	606.31	898.92	599.68	0.61	76.21	1.00	30.73	1642.60	-1313.28	995.14
Fixation L	1	11	3408109108	3408248341	139233	879.95	580.08	28	36	-1	12.79	12.79
Fixation R	1	11	3408109108	3408248341	139233	879.95	580.08	28	36	-1	13.56	13.56
Saccade L	1	9	3408248341	3408288219	39878	870.06	576.15	829.94	418.00	1.69	90.40	0.50	42.38	1970.56	-1856.18	1714.15
Saccade R	1	9	3408248341	3408288219	39878	870.06	576.15	829.94	418.00	1.69	90.40	0.50	42.38	1970.56	-1856.18	1714.15
Fixation L	1	12	3408288219	3408586581	298362	834.25	399.02	29	62	-1	11.46	11.46
Fixation R	1	12	3408288219	3408586581	298362	834.25	399.02	29	62	-1	12.81	12.81
Saccade L	1	10	3408586581	3408606461	19880	824.22	371.51	822.85	358.38	0.20	13.35	1.00	10.07	81.50	-135.64	95.21
Saccade R	1	10	3408586581	3408606461	19880	824.22	371.51	822.85	358.38	0.20	13.35	1.00	10.07	81.50	-135.64	95.21
Fixation L	1	13	3408606461	3408825197	218736	827.59	342.62	9	29	-1	10.89	10.89
Fixation R	1	13	3408606461	3408825197	218736	827.59	342.62	9	29	-1	12.15	12.15
