[BeGaze]
Converted from:	C:\Documents and Settings\iViewX\Desktop\EXPERIMENTATIONS\Experiments\results\finaleart\S8119532-finaleart-1.idf
Date:	27.03.2019 16:01:43
Version:	BeGaze 2.5.77
Sample Rate:	50
Subject:	S8119532
Description:	Alexandre Drewery

Table Header for Fixations:
Event Type	Trial	Number	Start	End	Duration	Location X	Location Y	Dispersion X	Dispersion Y	Plane	Avg. Pupil Size X	Avg. Pupil Size Y

Table Header for Saccades:
Event Type	Trial	Number	Start	End	Duration	Start Loc.X	Start Loc.Y	End Loc.X	End Loc.Y	Amplitude	Peak Speed	Peak Speed At	Average Speed	Peak Accel.	Peak Decel.	Average Accel.

Table Header for Blinks:
Event Type	Trial	Number	Start	End	Duration

Table Header for User Events:
Event Type	Trial	Number	Start	Description

UserEvent	1	1	3809255254	# Message: void.jpg
Saccade L	1	1	3809265389	3809285260	19871	931.43	789.05	853.01	855.83	0.80	104.18	1.00	40.27	415.46	-2292.18	902.55
Saccade R	1	1	3809265389	3809285260	19871	931.43	789.05	853.01	855.83	0.80	104.18	1.00	40.27	415.46	-2292.18	902.55
Fixation L	1	1	3809285260	3809454269	169009	864.50	872.72	16	73	-1	13.04	13.04
Fixation R	1	1	3809285260	3809454269	169009	864.50	872.72	16	73	-1	13.74	13.74
Saccade L	1	2	3809454269	3809484132	29863	868.96	868.00	870.35	773.32	1.65	95.78	1.00	55.18	809.46	-2293.72	1231.90
Saccade R	1	2	3809454269	3809484132	29863	868.96	868.00	870.35	773.32	1.65	95.78	1.00	55.18	809.46	-2293.72	1231.90
Fixation L	1	2	3809484132	3809683001	198869	876.56	809.93	12	52	-1	13.01	13.01
Fixation R	1	2	3809484132	3809683001	198869	876.56	809.93	12	52	-1	13.79	13.79
Saccade L	1	3	3809683001	3809782490	99489	876.68	821.02	1237.58	824.23	8.35	178.05	0.60	83.97	4433.87	-3430.85	2382.99
Saccade R	1	3	3809683001	3809782490	99489	876.68	821.02	1237.58	824.23	8.35	178.05	0.60	83.97	4433.87	-3430.85	2382.99
Fixation L	1	3	3809782490	3809941593	159103	1227.04	847.16	26	72	-1	13.34	13.34
Fixation R	1	3	3809782490	3809941593	159103	1227.04	847.16	26	72	-1	13.54	13.54
Blink L	1	1	3809941593	3810180209	238616
Blink R	1	1	3809941593	3810180209	238616
Fixation L	1	4	3810180209	3810299580	119371	923.14	566.00	34	56	-1	15.09	15.09
Fixation R	1	4	3810180209	3810299580	119371	923.14	566.00	34	56	-1	15.26	15.26
Saccade L	1	4	3810299580	3810319454	19874	918.88	596.62	895.69	566.35	0.73	79.72	1.00	36.59	1506.07	240.95	832.29
Saccade R	1	4	3810299580	3810319454	19874	918.88	596.62	895.69	566.35	0.73	79.72	1.00	36.59	1506.07	240.95	832.29
Fixation L	1	5	3810319454	3810478579	159125	900.86	593.34	15	77	-1	14.04	14.04
Fixation R	1	5	3810319454	3810478579	159125	900.86	593.34	15	77	-1	14.65	14.65
Saccade L	1	5	3810478579	3810498454	19875	896.41	571.46	897.54	556.38	0.29	18.54	0.00	14.66	36.16	-242.58	98.48
Saccade R	1	5	3810478579	3810498454	19875	896.41	571.46	897.54	556.38	0.29	18.54	0.00	14.66	36.16	-242.58	98.48
Fixation L	1	6	3810498454	3811254288	755834	907.53	573.23	22	41	-1	13.79	13.79
Fixation R	1	6	3810498454	3811254288	755834	907.53	573.23	22	41	-1	14.41	14.41
