[BeGaze]
Converted from:	C:\Documents and Settings\iViewX\Desktop\EXPERIMENTATIONS\Experiments\results\finaleart\S8119532-finaleart-1.idf
Date:	27.03.2019 16:01:20
Version:	BeGaze 2.5.77
Sample Rate:	50
Subject:	S8119532
Description:	Alexandre Drewery

Table Header for Fixations:
Event Type	Trial	Number	Start	End	Duration	Location X	Location Y	Dispersion X	Dispersion Y	Plane	Avg. Pupil Size X	Avg. Pupil Size Y

Table Header for Saccades:
Event Type	Trial	Number	Start	End	Duration	Start Loc.X	Start Loc.Y	End Loc.X	End Loc.Y	Amplitude	Peak Speed	Peak Speed At	Average Speed	Peak Accel.	Peak Decel.	Average Accel.

Table Header for Blinks:
Event Type	Trial	Number	Start	End	Duration

Table Header for User Events:
Event Type	Trial	Number	Start	Description

UserEvent	1	1	3667585070	# Message: void.jpg
Saccade L	1	1	3667588684	3667688179	99495	503.39	552.73	539.83	556.13	4.25	101.52	0.60	42.69	1143.36	-1351.49	721.42
Saccade R	1	1	3667588684	3667688179	99495	503.39	552.73	539.83	556.13	4.25	101.52	0.60	42.69	1143.36	-1351.49	721.42
Fixation L	1	1	3667688179	3667827419	139240	551.57	560.59	23	59	-1	14.67	14.67
Fixation R	1	1	3667688179	3667827419	139240	551.57	560.59	23	59	-1	15.89	15.89
Saccade L	1	2	3667827419	3667926789	99370	554.42	558.57	442.66	501.53	5.87	172.18	1.00	59.11	7651.54	-1352.78	2497.32
Saccade R	1	2	3667827419	3667926789	99370	554.42	558.57	442.66	501.53	5.87	172.18	1.00	59.11	7651.54	-1352.78	2497.32
Blink L	1	1	3667926789	3668125774	198985
Blink R	1	1	3667926789	3668125774	198985
Fixation L	1	2	3668125774	3668245010	119236	574.54	878.96	27	64	-1	14.46	14.46
Fixation R	1	2	3668125774	3668245010	119236	574.54	878.96	27	64	-1	16.12	16.12
Saccade L	1	3	3668245010	3668444005	198995	589.55	908.48	816.48	474.25	14.26	232.02	0.50	71.65	4145.42	-4301.44	1741.55
Saccade R	1	3	3668245010	3668444005	198995	589.55	908.48	816.48	474.25	14.26	232.02	0.50	71.65	4145.42	-4301.44	1741.55
Fixation L	1	3	3668444005	3668583127	139122	819.98	487.86	33	52	-1	13.87	13.87
Fixation R	1	3	3668444005	3668583127	139122	819.98	487.86	33	52	-1	13.94	13.94
Saccade L	1	4	3668583127	3668603115	19988	823.96	471.31	815.34	398.48	0.71	74.19	1.00	35.43	1583.07	-1282.91	1299.97
Saccade R	1	4	3668583127	3668603115	19988	823.96	471.31	815.34	398.48	0.71	74.19	1.00	35.43	1583.07	-1282.91	1299.97
Fixation L	1	4	3668603115	3668683655	80540	826.04	453.37	16	80	-1	12.84	12.84
Fixation R	1	4	3668603115	3668683655	80540	826.04	453.37	16	80	-1	12.74	12.74
Saccade L	1	5	3668683655	3668722373	38718	830.36	478.86	833.97	482.01	0.19	8.94	1.00	4.96	-6.10	-102.22	65.89
Saccade R	1	5	3668683655	3668722373	38718	830.36	478.86	833.97	482.01	0.19	8.94	1.00	4.96	-6.10	-102.22	65.89
Fixation L	1	5	3668722373	3668861611	139238	832.03	478.06	4	50	-1	12.52	12.52
Fixation R	1	5	3668722373	3668861611	139238	832.03	478.06	4	50	-1	12.61	12.61
Saccade L	1	6	3668861611	3669020733	159122	831.28	445.75	819.57	397.09	5.37	104.75	0.38	33.73	2133.15	-2520.12	978.68
Saccade R	1	6	3668861611	3669020733	159122	831.28	445.75	819.57	397.09	5.37	104.75	0.38	33.73	2133.15	-2520.12	978.68
Fixation L	1	6	3669020733	3669219719	198986	829.70	427.40	20	78	-1	11.95	11.95
Fixation R	1	6	3669020733	3669219719	198986	829.70	427.40	20	78	-1	12.22	12.22
Saccade L	1	7	3669219719	3669239587	19868	835.47	449.36	841.77	392.36	0.62	58.01	1.00	31.38	1015.45	-625.43	770.78
Saccade R	1	7	3669219719	3669239587	19868	835.47	449.36	841.77	392.36	0.62	58.01	1.00	31.38	1015.45	-625.43	770.78
Fixation L	1	7	3669239587	3669498076	258489	833.78	441.39	15	83	-1	12.20	12.20
Fixation R	1	7	3669239587	3669498076	258489	833.78	441.39	15	83	-1	12.68	12.68
Saccade L	1	8	3669498076	3669577706	79630	836.36	476.26	850.62	463.28	0.95	31.30	0.25	11.98	690.98	-680.67	348.24
Saccade R	1	8	3669498076	3669577706	79630	836.36	476.26	850.62	463.28	0.95	31.30	0.25	11.98	690.98	-680.67	348.24
