[BeGaze]
Converted from:	C:\Documents and Settings\iViewX\Desktop\EXPERIMENTATIONS\Experiments\results\finaleart\S8119532-finaleart-1.idf
Date:	27.03.2019 16:00:02
Version:	BeGaze 2.5.77
Sample Rate:	50
Subject:	S8119532
Description:	Alexandre Drewery

Table Header for Fixations:
Event Type	Trial	Number	Start	End	Duration	Location X	Location Y	Dispersion X	Dispersion Y	Plane	Avg. Pupil Size X	Avg. Pupil Size Y

Table Header for Saccades:
Event Type	Trial	Number	Start	End	Duration	Start Loc.X	Start Loc.Y	End Loc.X	End Loc.Y	Amplitude	Peak Speed	Peak Speed At	Average Speed	Peak Accel.	Peak Decel.	Average Accel.

Table Header for Blinks:
Event Type	Trial	Number	Start	End	Duration

Table Header for User Events:
Event Type	Trial	Number	Start	Description

UserEvent	1	1	2821558671	# Message: void.jpg
Saccade L	1	1	2821560752	2821640238	79486	621.51	713.73	419.04	736.60	3.21	111.54	0.75	40.33	2631.94	-2348.43	1593.56
Saccade R	1	1	2821560752	2821640238	79486	621.51	713.73	419.04	736.60	3.21	111.54	0.75	40.33	2631.94	-2348.43	1593.56
Fixation L	1	1	2821640238	2822177333	537095	400.96	721.77	72	19	-1	14.12	14.12
Fixation R	1	1	2821640238	2822177333	537095	400.96	721.77	72	19	-1	16.34	16.34
Saccade L	1	2	2822177333	2822197239	19906	403.59	717.18	520.20	691.74	0.73	120.72	1.00	36.88	2784.58	-2077.71	1627.46
Saccade R	1	2	2822177333	2822197239	19906	403.59	717.18	520.20	691.74	0.73	120.72	1.00	36.88	2784.58	-2077.71	1627.46
Fixation L	1	2	2822197239	2822336453	139214	521.80	674.13	17	50	-1	13.49	13.49
Fixation R	1	2	2822197239	2822336453	139214	521.80	674.13	17	50	-1	15.73	15.73
Saccade L	1	3	2822336453	2822415933	79480	519.90	656.25	635.80	404.86	4.83	136.08	0.75	60.76	2569.11	-1949.39	1698.73
Saccade R	1	3	2822336453	2822415933	79480	519.90	656.25	635.80	404.86	4.83	136.08	0.75	60.76	2569.11	-1949.39	1698.73
Fixation L	1	3	2822415933	2822634798	218865	652.07	362.39	27	57	-1	13.43	13.43
Fixation R	1	3	2822415933	2822634798	218865	652.07	362.39	27	57	-1	15.19	15.19
Saccade L	1	4	2822634798	2822654682	19884	663.30	354.25	668.20	321.38	0.43	33.61	1.00	21.81	630.22	-693.48	605.11
Saccade R	1	4	2822634798	2822654682	19884	663.30	354.25	668.20	321.38	0.43	33.61	1.00	21.81	630.22	-693.48	605.11
Fixation L	1	4	2822654682	2822913160	258478	674.54	342.20	9	32	-1	13.39	13.39
Fixation R	1	4	2822654682	2822913160	258478	674.54	342.20	9	32	-1	14.93	14.93
Blink L	1	1	2822913160	2823052402	139242
Blink R	1	1	2822913160	2823052402	139242
Fixation L	1	5	2823052402	2823390524	338122	887.32	430.03	41	58	-1	16.06	16.06
Fixation R	1	5	2823052402	2823390524	338122	887.32	430.03	41	58	-1	18.19	18.19
Saccade L	1	5	2823390524	2823410535	20011	882.17	432.63	880.93	417.29	0.26	15.57	1.00	12.78	51.52	-316.45	162.70
Saccade R	1	5	2823390524	2823410535	20011	882.17	432.63	880.93	417.29	0.26	15.57	1.00	12.78	51.52	-316.45	162.70
Fixation L	1	6	2823410535	2823609378	198843	888.41	440.88	18	43	-1	15.28	15.28
Fixation R	1	6	2823410535	2823609378	198843	888.41	440.88	18	43	-1	17.03	17.03
