[BeGaze]
Converted from:	C:\Documents and Settings\iViewX\Desktop\EXPERIMENTATIONS\Experiments\results\finaleart\S8119532-finaleart-1.idf
Date:	27.03.2019 15:59:57
Version:	BeGaze 2.5.77
Sample Rate:	50
Subject:	S8119532
Description:	Alexandre Drewery

Table Header for Fixations:
Event Type	Trial	Number	Start	End	Duration	Location X	Location Y	Dispersion X	Dispersion Y	Plane	Avg. Pupil Size X	Avg. Pupil Size Y

Table Header for Saccades:
Event Type	Trial	Number	Start	End	Duration	Start Loc.X	Start Loc.Y	End Loc.X	End Loc.Y	Amplitude	Peak Speed	Peak Speed At	Average Speed	Peak Accel.	Peak Decel.	Average Accel.

Table Header for Blinks:
Event Type	Trial	Number	Start	End	Duration

Table Header for User Events:
Event Type	Trial	Number	Start	Description

UserEvent	1	1	2786765234	# Message: the_three_skulls_gericault_1814.jpg
Fixation L	1	1	2786773031	2787608489	835458	880.56	581.20	18	47	-1	16.91	16.91
Fixation R	1	1	2786773031	2787608489	835458	880.56	581.20	18	47	-1	18.58	18.58
Saccade L	1	1	2787608489	2787765794	157305	892.93	593.31	949.69	600.66	3.66	57.91	1.00	23.24	1277.29	-1215.74	870.64
Saccade R	1	1	2787608489	2787765794	157305	892.93	593.31	949.69	600.66	3.66	57.91	1.00	23.24	1277.29	-1215.74	870.64
Fixation L	1	2	2787765794	2787866965	101171	954.46	597.04	24	38	-1	15.96	15.96
Fixation R	1	2	2787765794	2787866965	101171	954.46	597.04	24	38	-1	17.81	17.81
Saccade L	1	2	2787866965	2787886842	19877	971.73	619.26	1008.43	629.41	0.50	38.52	1.00	25.00	852.08	-427.80	460.88
Saccade R	1	2	2787866965	2787886842	19877	971.73	619.26	1008.43	629.41	0.50	38.52	1.00	25.00	852.08	-427.80	460.88
Fixation L	1	3	2787886842	2788045964	159122	1027.71	635.45	28	45	-1	16.70	16.70
Fixation R	1	3	2787886842	2788045964	159122	1027.71	635.45	28	45	-1	18.21	18.21
Saccade L	1	3	2788045964	2788085837	39873	1035.72	658.07	1357.50	654.36	2.83	174.30	0.50	70.92	4263.48	-4199.14	3848.68
Saccade R	1	3	2788045964	2788085837	39873	1035.72	658.07	1357.50	654.36	2.83	174.30	0.50	70.92	4263.48	-4199.14	3848.68
Fixation L	1	4	2788085837	2788642682	556845	1356.71	671.57	55	33	-1	17.87	17.87
Fixation R	1	4	2788085837	2788642682	556845	1356.71	671.57	55	33	-1	18.54	18.54
Saccade L	1	4	2788642682	2788722309	79627	1322.45	675.94	499.99	509.38	10.57	351.41	0.50	132.71	8539.63	-7731.85	4728.63
Saccade R	1	4	2788642682	2788722309	79627	1322.45	675.94	499.99	509.38	10.57	351.41	0.50	132.71	8539.63	-7731.85	4728.63
Fixation L	1	5	2788722309	2789239403	517094	488.51	542.50	44	43	-1	17.77	17.77
Fixation R	1	5	2788722309	2789239403	517094	488.51	542.50	44	43	-1	19.93	19.93
Saccade L	1	5	2789239403	2789279155	39752	491.02	544.39	512.30	702.99	1.50	126.75	1.00	37.75	3010.34	-2926.83	1795.09
Saccade R	1	5	2789239403	2789279155	39752	491.02	544.39	512.30	702.99	1.50	126.75	1.00	37.75	3010.34	-2926.83	1795.09
Fixation L	1	6	2789279155	2789498019	218864	522.79	698.19	29	17	-1	17.99	17.99
Fixation R	1	6	2789279155	2789498019	218864	522.79	698.19	29	17	-1	20.35	20.35
Saccade L	1	6	2789498019	2789517887	19868	531.46	698.15	514.84	585.66	0.66	115.01	1.00	33.08	2739.80	-2538.17	1799.74
Saccade R	1	6	2789498019	2789517887	19868	531.46	698.15	514.84	585.66	0.66	115.01	1.00	33.08	2739.80	-2538.17	1799.74
Fixation L	1	7	2789517887	2789816259	298372	496.50	586.36	28	17	-1	18.37	18.37
Fixation R	1	7	2789517887	2789816259	298372	496.50	586.36	28	17	-1	20.86	20.86
Saccade L	1	7	2789816259	2789856007	39748	501.58	594.34	897.54	606.15	3.44	294.86	1.00	86.58	7250.74	-7254.18	4777.25
Saccade R	1	7	2789816259	2789856007	39748	501.58	594.34	897.54	606.15	3.44	294.86	1.00	86.58	7250.74	-7254.18	4777.25
Fixation L	1	8	2789856007	2790134515	278508	924.63	604.26	74	18	-1	19.14	19.14
Fixation R	1	8	2789856007	2790134515	278508	924.63	604.26	74	18	-1	20.75	20.75
Saccade L	1	8	2790134515	2790154371	19856	971.82	609.21	990.47	622.92	0.49	44.26	0.00	24.43	150.69	-790.18	446.23
Saccade R	1	8	2790134515	2790154371	19856	971.82	609.21	990.47	622.92	0.49	44.26	0.00	24.43	150.69	-790.18	446.23
Fixation L	1	9	2790154371	2790432842	278471	999.16	631.53	17	23	-1	19.16	19.16
Fixation R	1	9	2790154371	2790432842	278471	999.16	631.53	17	23	-1	20.59	20.59
Saccade L	1	9	2790432842	2790452730	19888	999.86	641.57	1031.71	675.89	0.41	47.37	1.00	20.49	951.05	-748.78	665.45
Saccade R	1	9	2790432842	2790452730	19888	999.86	641.57	1031.71	675.89	0.41	47.37	1.00	20.49	951.05	-748.78	665.45
Fixation L	1	10	2790452730	2790691333	238603	1060.04	706.85	42	45	-1	18.91	18.91
Fixation R	1	10	2790452730	2790691333	238603	1060.04	706.85	42	45	-1	20.33	20.33
Saccade L	1	10	2790691333	2790751076	59743	1065.73	721.70	497.02	898.33	7.63	345.16	0.33	127.77	8533.18	-7600.93	5473.71
Saccade R	1	10	2790691333	2790751076	59743	1065.73	721.70	497.02	898.33	7.63	345.16	0.33	127.77	8533.18	-7600.93	5473.71
