[BeGaze]
Converted from:	C:\Documents and Settings\iViewX\Desktop\EXPERIMENTATIONS\Experiments\results\finaleart\S8119532-finaleart-1.idf
Date:	27.03.2019 16:01:08
Version:	BeGaze 2.5.77
Sample Rate:	50
Subject:	S8119532
Description:	Alexandre Drewery

Table Header for Fixations:
Event Type	Trial	Number	Start	End	Duration	Location X	Location Y	Dispersion X	Dispersion Y	Plane	Avg. Pupil Size X	Avg. Pupil Size Y

Table Header for Saccades:
Event Type	Trial	Number	Start	End	Duration	Start Loc.X	Start Loc.Y	End Loc.X	End Loc.Y	Amplitude	Peak Speed	Peak Speed At	Average Speed	Peak Accel.	Peak Decel.	Average Accel.

Table Header for Blinks:
Event Type	Trial	Number	Start	End	Duration

Table Header for User Events:
Event Type	Trial	Number	Start	Description

UserEvent	1	1	3482805244	# Message: void.jpg
Saccade L	1	1	3482816042	3482875782	59740	1219.77	560.02	1219.74	842.94	6.12	210.03	0.33	102.36	4072.22	-3080.04	2247.70
Saccade R	1	1	3482816042	3482875782	59740	1219.77	560.02	1219.74	842.94	6.12	210.03	0.33	102.36	4072.22	-3080.04	2247.70
Fixation L	1	1	3482875782	3483157894	282112	1226.38	863.99	31	51	-1	14.25	14.25
Fixation R	1	1	3482875782	3483157894	282112	1226.38	863.99	31	51	-1	14.51	14.51
Saccade L	1	2	3483157894	3483372992	215098	1237.37	860.64	1189.05	239.56	21.09	522.09	0.82	98.07	11364.16	-11030.59	3587.91
Saccade R	1	2	3483157894	3483372992	215098	1237.37	860.64	1189.05	239.56	21.09	522.09	0.82	98.07	11364.16	-11030.59	3587.91
Fixation L	1	2	3483372992	3483532113	159121	1141.17	250.28	63	33	-1	13.71	13.71
Fixation R	1	2	3483372992	3483532113	159121	1141.17	250.28	63	33	-1	13.82	13.82
Saccade L	1	3	3483532113	3483770850	238737	1135.41	266.89	888.94	285.34	10.97	146.75	0.50	45.95	3179.24	-3424.67	1381.79
Saccade R	1	3	3483532113	3483770850	238737	1135.41	266.89	888.94	285.34	10.97	146.75	0.50	45.95	3179.24	-3424.67	1381.79
Fixation L	1	3	3483770850	3484049437	278587	897.71	310.24	34	36	-1	13.94	13.94
Fixation R	1	3	3483770850	3484049437	278587	897.71	310.24	34	36	-1	14.82	14.82
Blink L	1	1	3484049437	3484307821	258384
Blink R	1	1	3484049437	3484307821	258384
Fixation L	1	4	3484307821	3484427202	119381	932.68	588.90	36	51	-1	15.46	15.46
Fixation R	1	4	3484307821	3484427202	119381	932.68	588.90	36	51	-1	16.95	16.95
Saccade L	1	4	3484427202	3484447064	19862	945.26	561.28	961.84	554.84	0.51	45.14	1.00	25.91	-402.05	-678.71	494.96
Saccade R	1	4	3484427202	3484447064	19862	945.26	561.28	961.84	554.84	0.51	45.14	1.00	25.91	-402.05	-678.71	494.96
Fixation L	1	5	3484447064	3484725560	278496	977.70	538.86	31	63	-1	13.95	13.95
Fixation R	1	5	3484447064	3484725560	278496	977.70	538.86	31	63	-1	15.18	15.18
Saccade L	1	5	3484725560	3484805055	79495	956.06	492.35	984.00	515.56	1.42	33.92	0.00	17.82	178.29	-806.87	227.98
Saccade R	1	5	3484725560	3484805055	79495	956.06	492.35	984.00	515.56	1.42	33.92	0.00	17.82	178.29	-806.87	227.98
