[BeGaze]
Converted from:	C:\Documents and Settings\iViewX\Desktop\EXPERIMENTATIONS\Experiments\results\finaleart\S8119532-finaleart-1.idf
Date:	27.03.2019 15:59:37
Version:	BeGaze 2.5.77
Sample Rate:	50
Subject:	S8119532
Description:	Alexandre Drewery

Table Header for Fixations:
Event Type	Trial	Number	Start	End	Duration	Location X	Location Y	Dispersion X	Dispersion Y	Plane	Avg. Pupil Size X	Avg. Pupil Size Y

Table Header for Saccades:
Event Type	Trial	Number	Start	End	Duration	Start Loc.X	Start Loc.Y	End Loc.X	End Loc.Y	Amplitude	Peak Speed	Peak Speed At	Average Speed	Peak Accel.	Peak Decel.	Average Accel.

Table Header for Blinks:
Event Type	Trial	Number	Start	End	Duration

Table Header for User Events:
Event Type	Trial	Number	Start	Description

UserEvent	1	1	2663477628	# Message: REJECTED_after-the-bath_degas_1885.jpg
Fixation L	1	1	2663494700	2663832808	338108	930.12	583.59	23	71	-1	15.34	15.34
Fixation R	1	1	2663494700	2663832808	338108	930.12	583.59	23	71	-1	16.96	16.96
Saccade L	1	1	2663832808	2663917596	84788	942.47	592.85	954.36	597.35	1.29	17.60	1.00	15.26	166.06	-118.45	127.99
Saccade R	1	1	2663832808	2663917596	84788	942.47	592.85	954.36	597.35	1.29	17.60	1.00	15.26	166.06	-118.45	127.99
Fixation L	1	2	2663917596	2664230656	313060	981.35	577.67	40	45	-1	15.45	15.45
Fixation R	1	2	2663917596	2664230656	313060	981.35	577.67	40	45	-1	17.17	17.17
Saccade L	1	2	2664230656	2664290279	59623	987.59	574.63	414.72	569.49	6.20	302.47	0.67	103.99	6978.01	-7481.11	4225.13
Saccade R	1	2	2664230656	2664290279	59623	987.59	574.63	414.72	569.49	6.20	302.47	0.67	103.99	6978.01	-7481.11	4225.13
Fixation L	1	3	2664290279	2664469268	178989	421.76	572.31	34	20	-1	13.94	13.94
Fixation R	1	3	2664290279	2664469268	178989	421.76	572.31	34	20	-1	16.06	16.06
Saccade L	1	3	2664469268	2664489140	19872	403.14	570.66	254.32	558.15	1.08	151.05	1.00	54.15	3324.76	-3481.18	2280.18
Saccade R	1	3	2664469268	2664489140	19872	403.14	570.66	254.32	558.15	1.08	151.05	1.00	54.15	3324.76	-3481.18	2280.18
Fixation L	1	4	2664489140	2664886997	397857	267.24	530.90	40	53	-1	12.57	12.57
Fixation R	1	4	2664489140	2664886997	397857	267.24	530.90	40	53	-1	14.56	14.56
Saccade L	1	4	2664886997	2664906868	19871	283.11	534.53	533.94	507.24	1.64	255.07	1.00	82.55	5767.75	-5665.38	4062.08
Saccade R	1	4	2664886997	2664906868	19871	283.11	534.53	533.94	507.24	1.64	255.07	1.00	82.55	5767.75	-5665.38	4062.08
Fixation L	1	5	2664906868	2665165482	258614	537.01	494.63	9	42	-1	12.94	12.94
Fixation R	1	5	2664906868	2665165482	258614	537.01	494.63	9	42	-1	14.67	14.67
Saccade L	1	5	2665165482	2665225104	59622	543.05	482.80	1233.52	558.35	7.29	373.90	0.67	122.32	9221.59	-8826.50	5757.72
Saccade R	1	5	2665165482	2665225104	59622	543.05	482.80	1233.52	558.35	7.29	373.90	0.67	122.32	9221.59	-8826.50	5757.72
Fixation L	1	6	2665225104	2665602959	377855	1242.37	572.71	23	32	-1	14.30	14.30
Fixation R	1	6	2665225104	2665602959	377855	1242.37	572.71	23	32	-1	15.26	15.26
Saccade L	1	6	2665602959	2665622963	20004	1236.59	565.80	1106.31	564.77	0.76	131.78	1.00	37.98	3100.87	-2613.19	1947.87
Saccade R	1	6	2665602959	2665622963	20004	1236.59	565.80	1106.31	564.77	0.76	131.78	1.00	37.98	3100.87	-2613.19	1947.87
Fixation L	1	7	2665622963	2666080325	457362	1107.03	551.48	52	35	-1	13.85	13.85
Fixation R	1	7	2665622963	2666080325	457362	1107.03	551.48	52	35	-1	14.76	14.76
Saccade L	1	7	2666080325	2666120189	39864	1095.30	547.35	1399.09	313.37	3.41	198.14	0.50	85.59	4450.04	-4825.22	4427.14
Saccade R	1	7	2666080325	2666120189	39864	1095.30	547.35	1399.09	313.37	3.41	198.14	0.50	85.59	4450.04	-4825.22	4427.14
Fixation L	1	8	2666120189	2666378679	258490	1394.09	363.56	10	78	-1	13.16	13.16
Fixation R	1	8	2666120189	2666378679	258490	1394.09	363.56	10	78	-1	13.71	13.71
Saccade L	1	8	2666378679	2666398670	19991	1392.86	374.91	1388.83	634.60	1.59	262.56	1.00	79.67	6474.69	-6248.01	4554.44
Saccade R	1	8	2666378679	2666398670	19991	1392.86	374.91	1388.83	634.60	1.59	262.56	1.00	79.67	6474.69	-6248.01	4554.44
Fixation L	1	9	2666398670	2666617417	218747	1393.03	669.46	10	56	-1	12.95	12.95
Fixation R	1	9	2666398670	2666617417	218747	1393.03	669.46	10	56	-1	13.23	13.23
Saccade L	1	9	2666617417	2666637291	19874	1399.08	665.11	1404.99	790.54	0.92	127.01	1.00	46.10	2609.73	-2955.49	1883.75
Saccade R	1	9	2666617417	2666637291	19874	1399.08	665.11	1404.99	790.54	0.92	127.01	1.00	46.10	2609.73	-2955.49	1883.75
Fixation L	1	10	2666637291	2666796413	159122	1415.39	786.55	21	19	-1	13.13	13.13
Fixation R	1	10	2666637291	2666796413	159122	1415.39	786.55	21	19	-1	13.62	13.62
Saccade L	1	10	2666796413	2666836159	39746	1426.63	786.91	1557.91	921.61	1.84	134.56	1.00	46.41	3337.33	-3061.69	2042.59
Saccade R	1	10	2666796413	2666836159	39746	1426.63	786.91	1557.91	921.61	1.84	134.56	1.00	46.41	3337.33	-3061.69	2042.59
Fixation L	1	11	2666836159	2666955549	119390	1586.32	903.56	39	52	-1	13.53	13.53
Fixation R	1	11	2666836159	2666955549	119390	1586.32	903.56	39	52	-1	13.33	13.33
Saccade L	1	11	2666955549	2667055026	99477	1593.98	869.22	1572.92	268.58	9.78	294.27	0.20	98.35	7217.96	-6526.54	3802.16
Saccade R	1	11	2666955549	2667055026	99477	1593.98	869.22	1572.92	268.58	9.78	294.27	0.20	98.35	7217.96	-6526.54	3802.16
Fixation L	1	12	2667055026	2667154399	99373	1551.48	290.68	39	52	-1	13.41	13.41
Fixation R	1	12	2667055026	2667154399	99373	1551.48	290.68	39	52	-1	14.04	14.04
Saccade L	1	12	2667154399	2667512496	358097	1542.15	302.06	513.26	313.71	23.75	294.21	0.89	66.32	6868.70	-7241.49	2721.11
Saccade R	1	12	2667154399	2667512496	358097	1542.15	302.06	513.26	313.71	23.75	294.21	0.89	66.32	6868.70	-7241.49	2721.11
