[BeGaze]
Converted from:	C:\Documents and Settings\iViewX\Desktop\EXPERIMENTATIONS\Experiments\results\finaleart\S8119532-finaleart-1.idf
Date:	27.03.2019 15:59:35
Version:	BeGaze 2.5.77
Sample Rate:	50
Subject:	S8119532
Description:	Alexandre Drewery

Table Header for Fixations:
Event Type	Trial	Number	Start	End	Duration	Location X	Location Y	Dispersion X	Dispersion Y	Plane	Avg. Pupil Size X	Avg. Pupil Size Y

Table Header for Saccades:
Event Type	Trial	Number	Start	End	Duration	Start Loc.X	Start Loc.Y	End Loc.X	End Loc.Y	Amplitude	Peak Speed	Peak Speed At	Average Speed	Peak Accel.	Peak Decel.	Average Accel.

Table Header for Blinks:
Event Type	Trial	Number	Start	End	Duration

Table Header for User Events:
Event Type	Trial	Number	Start	Description

UserEvent	1	1	2585733970	# Message: still-life-fruits-on-a-table_manet_1864.jpg
Fixation L	1	1	2585743306	2586379875	636569	1041.31	479.52	57	40	-1	15.01	15.01
Fixation R	1	1	2585743306	2586379875	636569	1041.31	479.52	57	40	-1	14.89	14.89
Saccade L	1	1	2586379875	2586499140	119265	1002.19	500.66	768.65	636.32	4.98	229.23	0.83	41.75	5651.69	-5220.15	1859.71
Saccade R	1	1	2586379875	2586499140	119265	1002.19	500.66	768.65	636.32	4.98	229.23	0.83	41.75	5651.69	-5220.15	1859.71
Fixation L	1	2	2586499140	2586705802	206662	751.82	645.36	25	25	-1	15.59	15.59
Fixation R	1	2	2586499140	2586705802	206662	751.82	645.36	25	25	-1	15.94	15.94
Saccade L	1	2	2586705802	2586741036	35234	749.06	649.43	466.19	714.98	2.86	293.48	1.00	81.31	6778.08	-6668.84	4519.72
Saccade R	1	2	2586705802	2586741036	35234	749.06	649.43	466.19	714.98	2.86	293.48	1.00	81.31	6778.08	-6668.84	4519.72
Fixation L	1	3	2586741036	2586877139	136103	473.33	728.87	18	32	-1	14.31	14.31
Fixation R	1	3	2586741036	2586877139	136103	473.33	728.87	18	32	-1	15.50	15.50
Saccade L	1	3	2586877139	2586897000	19861	480.78	741.53	334.75	863.69	1.20	192.52	1.00	60.49	4672.97	-4187.31	3239.80
Saccade R	1	3	2586877139	2586897000	19861	480.78	741.53	334.75	863.69	1.20	192.52	1.00	60.49	4672.97	-4187.31	3239.80
Fixation L	1	4	2586897000	2587175471	278471	315.66	861.21	25	58	-1	14.54	14.54
Fixation R	1	4	2586897000	2587175471	278471	315.66	861.21	25	58	-1	15.59	15.59
Saccade L	1	4	2587175471	2587235103	59632	310.17	883.62	610.44	466.06	5.47	305.28	0.67	91.73	7445.17	-7333.76	4123.53
Saccade R	1	4	2587175471	2587235103	59632	310.17	883.62	610.44	466.06	5.47	305.28	0.67	91.73	7445.17	-7333.76	4123.53
Fixation L	1	5	2587235103	2587414097	178994	613.42	442.44	31	41	-1	15.01	15.01
Fixation R	1	5	2587235103	2587414097	178994	613.42	442.44	31	41	-1	15.52	15.52
Saccade L	1	5	2587414097	2587453842	39745	611.10	433.75	1033.90	444.82	4.08	269.79	1.00	102.60	6514.29	-6413.31	4728.94
Saccade R	1	5	2587414097	2587453842	39745	611.10	433.75	1033.90	444.82	4.08	269.79	1.00	102.60	6514.29	-6413.31	4728.94
Fixation L	1	6	2587453842	2587593079	139237	1101.20	438.29	83	15	-1	15.22	15.22
Fixation R	1	6	2587453842	2587593079	139237	1101.20	438.29	83	15	-1	15.22	15.22
Saccade L	1	6	2587593079	2587612954	19875	1117.01	445.11	1325.08	421.79	1.32	211.72	1.00	66.24	5178.62	-4958.33	3765.13
Saccade R	1	6	2587593079	2587612954	19875	1117.01	445.11	1325.08	421.79	1.32	211.72	1.00	66.24	5178.62	-4958.33	3765.13
Fixation L	1	7	2587612954	2587811951	198997	1377.66	442.92	65	33	-1	15.31	15.31
Fixation R	1	7	2587612954	2587811951	198997	1377.66	442.92	65	33	-1	14.81	14.81
Saccade L	1	7	2587811951	2587951208	139257	1390.52	426.45	968.58	717.93	8.17	388.70	0.71	58.70	9634.15	-8731.10	2461.06
Saccade R	1	7	2587811951	2587951208	139257	1390.52	426.45	968.58	717.93	8.17	388.70	0.71	58.70	9634.15	-8731.10	2461.06
Fixation L	1	8	2587951208	2588150055	198847	962.83	734.12	17	59	-1	15.87	15.87
Fixation R	1	8	2587951208	2588150055	198847	962.83	734.12	17	59	-1	15.57	15.57
Saccade L	1	8	2588150055	2588189806	39751	952.79	733.23	713.49	720.90	2.21	134.58	0.50	55.50	3142.23	-2896.48	2778.27
Saccade R	1	8	2588150055	2588189806	39751	952.79	733.23	713.49	720.90	2.21	134.58	0.50	55.50	3142.23	-2896.48	2778.27
Fixation L	1	9	2588189806	2588348923	159117	728.93	707.67	25	40	-1	15.45	15.45
Fixation R	1	9	2588189806	2588348923	159117	728.93	707.67	25	40	-1	15.49	15.49
Saccade L	1	9	2588348923	2588368794	19871	734.55	697.10	728.41	488.01	1.30	211.51	1.00	65.36	5201.25	-5111.36	3753.65
Saccade R	1	9	2588348923	2588368794	19871	734.55	697.10	728.41	488.01	1.30	211.51	1.00	65.36	5201.25	-5111.36	3753.65
Fixation L	1	10	2588368794	2588667167	298373	723.04	443.84	10	74	-1	15.10	15.10
Fixation R	1	10	2588368794	2588667167	298373	723.04	443.84	10	74	-1	15.40	15.40
Saccade L	1	10	2588667167	2588687029	19862	718.13	430.76	624.82	439.40	0.59	94.78	1.00	29.89	2110.54	-1917.76	1370.52
Saccade R	1	10	2588667167	2588687029	19862	718.13	430.76	624.82	439.40	0.59	94.78	1.00	29.89	2110.54	-1917.76	1370.52
Fixation L	1	11	2588687029	2589045138	358109	614.01	442.34	18	26	-1	15.38	15.38
Fixation R	1	11	2588687029	2589045138	358109	614.01	442.34	18	26	-1	15.90	15.90
Saccade L	1	11	2589045138	2589084886	39748	615.96	452.65	667.81	734.77	2.62	173.22	1.00	65.88	4094.54	-4318.22	3393.37
Saccade R	1	11	2589045138	2589084886	39748	615.96	452.65	667.81	734.77	2.62	173.22	1.00	65.88	4094.54	-4318.22	3393.37
Fixation L	1	12	2589084886	2589542359	457473	657.07	708.71	25	54	-1	16.55	16.55
Fixation R	1	12	2589084886	2589542359	457473	657.07	708.71	25	54	-1	17.46	17.46
Saccade L	1	12	2589542359	2589582110	39751	642.40	682.56	697.80	453.24	2.16	202.70	1.00	54.41	4986.32	-4977.17	2750.42
Saccade R	1	12	2589542359	2589582110	39751	642.40	682.56	697.80	453.24	2.16	202.70	1.00	54.41	4986.32	-4977.17	2750.42
Fixation L	1	13	2589582110	2589761100	178990	695.88	436.60	22	28	-1	16.39	16.39
Fixation R	1	13	2589582110	2589761100	178990	695.88	436.60	22	28	-1	16.67	16.67
