[BeGaze]
Converted from:	C:\Documents and Settings\iViewX\Desktop\EXPERIMENTATIONS\Experiments\results\finaleart\S8119532-finaleart-1.idf
Date:	27.03.2019 16:01:06
Version:	BeGaze 2.5.77
Sample Rate:	50
Subject:	S8119532
Description:	Alexandre Drewery

Table Header for Fixations:
Event Type	Trial	Number	Start	End	Duration	Location X	Location Y	Dispersion X	Dispersion Y	Plane	Avg. Pupil Size X	Avg. Pupil Size Y

Table Header for Saccades:
Event Type	Trial	Number	Start	End	Duration	Start Loc.X	Start Loc.Y	End Loc.X	End Loc.Y	Amplitude	Peak Speed	Peak Speed At	Average Speed	Peak Accel.	Peak Decel.	Average Accel.

Table Header for Blinks:
Event Type	Trial	Number	Start	End	Duration

Table Header for User Events:
Event Type	Trial	Number	Start	Description

UserEvent	1	1	3470562082	# Message: void.jpg
Saccade L	1	1	3470563869	3471041213	477344	898.28	766.33	574.16	289.61	25.84	179.88	0.21	54.13	3380.98	-3532.44	1617.53
Saccade R	1	1	3470563869	3471041213	477344	898.28	766.33	574.16	289.61	25.84	179.88	0.21	54.13	3380.98	-3532.44	1617.53
Fixation L	1	1	3471041213	3471160595	119382	566.01	275.50	49	43	-1	10.32	10.32
Fixation R	1	1	3471041213	3471160595	119382	566.01	275.50	49	43	-1	10.95	10.95
Saccade L	1	2	3471160595	3471399242	238647	577.50	271.59	959.86	422.23	14.78	193.73	0.58	61.92	4458.46	-4443.37	1865.09
Saccade R	1	2	3471160595	3471399242	238647	577.50	271.59	959.86	422.23	14.78	193.73	0.58	61.92	4458.46	-4443.37	1865.09
Blink L	1	1	3471399242	3471637932	238690
Blink R	1	1	3471399242	3471637932	238690
Saccade L	1	3	3471637932	3471876544	238612	715.96	654.75	719.28	681.29	17.03	155.68	0.08	71.36	2660.89	-2550.21	1690.83
Saccade R	1	3	3471637932	3471876544	238612	715.96	654.75	719.28	681.29	17.03	155.68	0.08	71.36	2660.89	-2550.21	1690.83
Fixation L	1	2	3471876544	3472194803	318259	722.36	672.04	20	64	-1	12.15	12.15
Fixation R	1	2	3471876544	3472194803	318259	722.36	672.04	20	64	-1	13.57	13.57
Saccade L	1	4	3472194803	3472314152	119349	723.41	653.85	742.91	483.67	6.25	148.04	1.00	52.36	2862.08	-2812.73	1377.07
Saccade R	1	4	3472194803	3472314152	119349	723.41	653.85	742.91	483.67	6.25	148.04	1.00	52.36	2862.08	-2812.73	1377.07
Fixation L	1	3	3472314152	3472592656	278504	766.73	472.26	43	26	-1	12.46	12.46
Fixation R	1	3	3472314152	3472592656	278504	766.73	472.26	43	26	-1	13.99	13.99
