[BeGaze]
Converted from:	C:\Documents and Settings\iViewX\Desktop\EXPERIMENTATIONS\Experiments\results\finaleart\S8119532-finaleart-1.idf
Date:	27.03.2019 16:01:32
Version:	BeGaze 2.5.77
Sample Rate:	50
Subject:	S8119532
Description:	Alexandre Drewery

Table Header for Fixations:
Event Type	Trial	Number	Start	End	Duration	Location X	Location Y	Dispersion X	Dispersion Y	Plane	Avg. Pupil Size X	Avg. Pupil Size Y

Table Header for Saccades:
Event Type	Trial	Number	Start	End	Duration	Start Loc.X	Start Loc.Y	End Loc.X	End Loc.Y	Amplitude	Peak Speed	Peak Speed At	Average Speed	Peak Accel.	Peak Decel.	Average Accel.

Table Header for Blinks:
Event Type	Trial	Number	Start	End	Duration

Table Header for User Events:
Event Type	Trial	Number	Start	Description

UserEvent	1	1	3737471454	# Message: Niagara_Falls_Hale_1902.jpg
Saccade L	1	1	3737482208	3737541957	59749	946.87	540.92	906.94	512.07	1.89	64.97	0.67	31.68	1624.23	-547.84	698.71
Saccade R	1	1	3737482208	3737541957	59749	946.87	540.92	906.94	512.07	1.89	64.97	0.67	31.68	1624.23	-547.84	698.71
Fixation L	1	1	3737541957	3738098792	556835	872.09	487.63	45	40	-1	14.10	14.10
Fixation R	1	1	3737541957	3738098792	556835	872.09	487.63	45	40	-1	15.36	15.36
Saccade L	1	2	3738098792	3738138669	39877	870.57	482.94	718.14	567.81	1.95	107.40	0.50	49.00	2499.16	-1255.24	1633.92
Saccade R	1	2	3738098792	3738138669	39877	870.57	482.94	718.14	567.81	1.95	107.40	0.50	49.00	2499.16	-1255.24	1633.92
Fixation L	1	2	3738138669	3738238051	99382	704.16	597.14	23	56	-1	13.98	13.98
Fixation R	1	2	3738138669	3738238051	99382	704.16	597.14	23	56	-1	15.61	15.61
Saccade L	1	3	3738238051	3738297797	59746	701.26	589.83	1015.54	189.83	5.80	286.85	0.67	97.16	7037.15	-6966.95	4305.41
Saccade R	1	3	3738238051	3738297797	59746	701.26	589.83	1015.54	189.83	5.80	286.85	0.67	97.16	7037.15	-6966.95	4305.41
Fixation L	1	3	3738297797	3738755270	457473	1016.97	176.31	38	42	-1	12.25	12.25
Fixation R	1	3	3738297797	3738755270	457473	1016.97	176.31	38	42	-1	13.29	13.29
Saccade L	1	4	3738755270	3738795009	39739	1044.36	147.30	695.90	135.09	3.03	228.73	1.00	76.34	5602.54	-5356.34	4135.68
Saccade R	1	4	3738755270	3738795009	39739	1044.36	147.30	695.90	135.09	3.03	228.73	1.00	76.34	5602.54	-5356.34	4135.68
Fixation L	1	4	3738795009	3739073497	278488	671.70	139.00	35	8	-1	11.84	11.84
Fixation R	1	4	3738795009	3739073497	278488	671.70	139.00	35	8	-1	12.97	12.97
Saccade L	1	5	3739073497	3739113243	39746	669.70	144.07	1045.01	196.76	3.16	246.62	0.50	79.48	6133.54	-5917.38	4681.49
Saccade R	1	5	3739073497	3739113243	39746	669.70	144.07	1045.01	196.76	3.16	246.62	0.50	79.48	6133.54	-5917.38	4681.49
Fixation L	1	5	3739113243	3739391728	278485	1039.60	207.95	11	18	-1	11.99	11.99
Fixation R	1	5	3739113243	3739391728	278485	1039.60	207.95	11	18	-1	13.27	13.27
Saccade L	1	6	3739391728	3739411613	19885	1038.81	206.65	1171.84	218.00	0.81	135.04	1.00	40.80	3247.70	-2946.06	2114.56
Saccade R	1	6	3739391728	3739411613	19885	1038.81	206.65	1171.84	218.00	0.81	135.04	1.00	40.80	3247.70	-2946.06	2114.56
Fixation L	1	6	3739411613	3739749727	338114	1180.14	254.24	21	63	-1	12.32	12.32
Fixation R	1	6	3739411613	3739749727	338114	1180.14	254.24	21	63	-1	13.26	13.26
Saccade L	1	7	3739749727	3739769587	19860	1165.00	269.55	1094.35	156.49	0.86	134.85	1.00	43.18	3347.08	-2902.00	2086.19
Saccade R	1	7	3739749727	3739769587	19860	1165.00	269.55	1094.35	156.49	0.86	134.85	1.00	43.18	3347.08	-2902.00	2086.19
Fixation L	1	7	3739769587	3740306565	536978	1057.91	156.09	49	29	-1	12.41	12.41
Fixation R	1	7	3739769587	3740306565	536978	1057.91	156.09	49	29	-1	13.26	13.26
Saccade L	1	8	3740306565	3740346440	39875	1047.37	140.81	1257.90	159.83	1.89	136.98	1.00	47.39	3410.06	-3266.03	2488.76
Saccade R	1	8	3740306565	3740346440	39875	1047.37	140.81	1257.90	159.83	1.89	136.98	1.00	47.39	3410.06	-3266.03	2488.76
Fixation L	1	8	3740346440	3740903280	556840	1262.58	206.73	18	63	-1	12.62	12.62
Fixation R	1	8	3740346440	3740903280	556840	1262.58	206.73	18	63	-1	13.47	13.47
Saccade L	1	9	3740903280	3740923179	19899	1268.08	223.53	1218.02	233.54	0.60	62.52	1.00	30.34	1441.36	-878.70	1184.29
Saccade R	1	9	3740903280	3740923179	19899	1268.08	223.53	1218.02	233.54	0.60	62.52	1.00	30.34	1441.36	-878.70	1184.29
Fixation L	1	9	3740923179	3741201655	278476	1188.79	278.94	35	63	-1	13.14	13.14
Fixation R	1	9	3740923179	3741201655	278476	1188.79	278.94	35	63	-1	13.93	13.93
Saccade L	1	10	3741201655	3741360787	159132	1182.32	287.56	583.93	765.03	13.74	250.77	0.63	86.34	6077.08	-4087.83	2302.98
Saccade R	1	10	3741201655	3741360787	159132	1182.32	287.56	583.93	765.03	13.74	250.77	0.63	86.34	6077.08	-4087.83	2302.98
Fixation L	1	10	3741360787	3741500002	139215	573.09	731.69	19	57	-1	13.49	13.49
Fixation R	1	10	3741360787	3741500002	139215	573.09	731.69	19	57	-1	15.18	15.18
