[BeGaze]
Converted from:	C:\Documents and Settings\iViewX\Desktop\EXPERIMENTATIONS\Experiments\results\finaleart\S8119532-finaleart-1.idf
Date:	27.03.2019 16:01:17
Version:	BeGaze 2.5.77
Sample Rate:	50
Subject:	S8119532
Description:	Alexandre Drewery

Table Header for Fixations:
Event Type	Trial	Number	Start	End	Duration	Location X	Location Y	Dispersion X	Dispersion Y	Plane	Avg. Pupil Size X	Avg. Pupil Size Y

Table Header for Saccades:
Event Type	Trial	Number	Start	End	Duration	Start Loc.X	Start Loc.Y	End Loc.X	End Loc.Y	Amplitude	Peak Speed	Peak Speed At	Average Speed	Peak Accel.	Peak Decel.	Average Accel.

Table Header for Blinks:
Event Type	Trial	Number	Start	End	Duration

Table Header for User Events:
Event Type	Trial	Number	Start	Description

UserEvent	1	1	3544317757	# Message: void.jpg
Saccade L	1	1	3544335964	3544395595	59631	888.42	559.84	905.95	543.46	2.55	79.13	1.00	42.70	1773.46	-1496.98	1049.71
Saccade R	1	1	3544335964	3544435454	99490	888.42	559.84	908.79	542.61	4.20	80.47	1.00	42.24	1773.46	-1936.31	1212.55
Fixation R	1	1	3544435454	3544614446	178992	917.73	532.32	20	27	-1	17.61	17.61
Fixation L	1	1	3544455314	3544614446	159132	919.23	530.60	19	27	-1	16.81	16.81
Saccade L	1	2	3544614446	3544634306	19860	929.54	531.37	1036.04	534.88	0.73	107.78	1.00	36.72	2346.72	-2316.10	1623.81
Saccade R	1	2	3544614446	3544634306	19860	929.54	531.37	1036.04	534.88	0.73	107.78	1.00	36.72	2346.72	-2316.10	1623.81
Fixation L	1	2	3544634306	3544825145	190839	1031.02	533.94	26	23	-1	16.69	16.69
Fixation R	1	2	3544634306	3544825145	190839	1031.02	533.94	26	23	-1	17.35	17.35
Saccade L	1	3	3544825145	3544853064	27919	1013.51	542.18	881.28	751.69	2.34	250.47	1.00	83.90	6023.40	-5633.98	4231.94
Saccade R	1	3	3544825145	3544853064	27919	1013.51	542.18	881.28	751.69	2.34	250.47	1.00	83.90	6023.40	-5633.98	4231.94
Fixation L	1	3	3544853064	3545191280	338216	834.41	779.58	57	39	-1	16.86	16.86
Fixation R	1	3	3544853064	3545191280	338216	834.41	779.58	57	39	-1	17.51	17.51
Saccade L	1	4	3545191280	3545290650	99370	831.17	791.63	828.00	796.30	0.96	24.68	1.00	9.65	1359.20	-369.00	453.02
Saccade R	1	4	3545191280	3545290650	99370	831.17	791.63	828.00	796.30	0.96	24.68	1.00	9.65	1359.20	-369.00	453.02
Blink L	1	1	3545290650	3545429894	139244
Blink R	1	1	3545290650	3545429894	139244
Saccade L	1	5	3545429894	3545489523	59629	830.11	704.12	827.94	736.63	5.76	253.94	1.00	96.59	5699.21	-6179.73	4717.66
Saccade R	1	5	3545429894	3545489523	59629	830.11	704.12	827.94	736.63	5.76	253.94	1.00	96.59	5699.21	-6179.73	4717.66
Fixation L	1	4	3545489523	3545608889	119366	823.82	728.91	9	32	-1	15.24	15.24
Fixation R	1	4	3545489523	3545608889	119366	823.82	728.91	9	32	-1	17.89	17.89
Saccade L	1	6	3545608889	3545688513	79624	820.54	738.06	934.56	709.89	8.71	278.99	0.25	109.43	6394.30	-5580.77	4239.25
Saccade R	1	6	3545608889	3545688513	79624	820.54	738.06	934.56	709.89	8.71	278.99	0.25	109.43	6394.30	-5580.77	4239.25
Fixation L	1	5	3545688513	3545946992	258479	947.81	684.56	28	49	-1	14.94	14.94
Fixation R	1	5	3545688513	3545946992	258479	947.81	684.56	28	49	-1	15.63	15.63
Saccade L	1	7	3545946992	3545967016	20024	960.11	660.34	990.69	703.28	0.80	53.32	1.00	40.10	1007.68	-962.60	685.07
Saccade R	1	7	3545946992	3545967016	20024	960.11	660.34	990.69	703.28	0.80	53.32	1.00	40.10	1007.68	-962.60	685.07
Fixation L	1	6	3545967016	3546066374	99358	1006.82	670.72	38	56	-1	14.48	14.48
Fixation R	1	6	3545967016	3546066374	99358	1006.82	670.72	38	56	-1	15.23	15.23
Saccade L	1	8	3546066374	3546086239	19865	1016.56	667.24	1020.71	639.15	0.50	38.01	1.00	25.19	-1.36	-398.62	210.73
Saccade R	1	8	3546066374	3546086239	19865	1016.56	667.24	1020.71	639.15	0.50	38.01	1.00	25.19	-1.36	-398.62	210.73
Fixation L	1	7	3546086239	3546324988	238749	1030.66	632.18	18	73	-1	13.57	13.57
Fixation R	1	7	3546086239	3546324988	238749	1030.66	632.18	18	73	-1	14.42	14.42
