[BeGaze]
Converted from:	C:\Documents and Settings\iViewX\Desktop\EXPERIMENTATIONS\Experiments\results\finaleart\S8119532-finaleart-1.idf
Date:	27.03.2019 15:59:21
Version:	BeGaze 2.5.77
Sample Rate:	50
Subject:	S8119532
Description:	Alexandre Drewery

Table Header for Fixations:
Event Type	Trial	Number	Start	End	Duration	Location X	Location Y	Dispersion X	Dispersion Y	Plane	Avg. Pupil Size X	Avg. Pupil Size Y

Table Header for Saccades:
Event Type	Trial	Number	Start	End	Duration	Start Loc.X	Start Loc.Y	End Loc.X	End Loc.Y	Amplitude	Peak Speed	Peak Speed At	Average Speed	Peak Accel.	Peak Decel.	Average Accel.

Table Header for Blinks:
Event Type	Trial	Number	Start	End	Duration

Table Header for User Events:
Event Type	Trial	Number	Start	Description

UserEvent	1	1	2497212192	# Message: void.jpg
Fixation L	1	1	2497212941	2497451550	238609	1469.79	981.24	16	35	-1	12.97	12.97
Fixation R	1	1	2497212941	2497451550	238609	1469.79	981.24	16	35	-1	13.46	13.46
Saccade L	1	1	2497451550	2497730020	278470	1478.17	978.96	1214.20	539.13	29.31	324.60	0.37	105.26	7935.41	-6981.47	4041.38
Saccade R	1	1	2497451550	2497730020	278470	1478.17	978.96	1214.20	539.13	29.31	324.60	0.37	105.26	7935.41	-6981.47	4041.38
Fixation L	1	2	2497730020	2497829514	99494	1185.72	508.82	42	54	-1	12.88	12.88
Fixation R	1	2	2497730020	2497829514	99494	1185.72	508.82	42	54	-1	13.64	13.64
Saccade L	1	2	2497829514	2497948882	119368	1171.73	486.87	1080.01	417.05	4.59	159.43	1.00	38.42	3526.31	-3789.90	1411.95
Saccade R	1	2	2497829514	2497948882	119368	1171.73	486.87	1080.01	417.05	4.59	159.43	1.00	38.42	3526.31	-3789.90	1411.95
Fixation L	1	3	2497948882	2498068129	119247	1059.75	365.40	27	70	-1	13.12	13.12
Fixation R	1	3	2497948882	2498068129	119247	1059.75	365.40	27	70	-1	14.18	14.18
Blink L	1	1	2498068129	2498286994	218865
Blink R	1	1	2498068129	2498286994	218865
Saccade L	1	3	2498286994	2498366494	79500	987.95	309.40	996.08	276.34	3.07	73.99	1.00	38.58	1197.76	-1584.89	929.77
Saccade R	1	3	2498286994	2498366494	79500	987.95	309.40	996.08	276.34	3.07	73.99	1.00	38.58	1197.76	-1584.89	929.77
Fixation L	1	4	2498366494	2498505740	139246	985.40	295.42	16	40	-1	15.44	15.44
Fixation R	1	4	2498366494	2498505740	139246	985.40	295.42	16	40	-1	16.65	16.65
Saccade L	1	4	2498505740	2498546304	40564	984.84	313.38	996.14	292.49	2.04	96.04	0.49	50.22	2182.80	-1993.10	1873.22
Saccade R	1	4	2498505740	2498546304	40564	984.84	313.38	996.14	292.49	2.04	96.04	0.49	50.22	2182.80	-1993.10	1873.22
Fixation L	1	5	2498546304	2498664853	118549	991.21	323.71	12	53	-1	15.68	15.68
Fixation R	1	5	2498546304	2498664853	118549	991.21	323.71	12	53	-1	16.92	16.92
Saccade L	1	5	2498664853	2498684735	19882	983.24	324.21	827.79	309.65	1.22	157.91	1.00	61.47	3071.25	-2962.88	2198.38
Saccade R	1	5	2498664853	2498684735	19882	983.24	324.21	827.79	309.65	1.22	157.91	1.00	61.47	3071.25	-2962.88	2198.38
Fixation L	1	6	2498684735	2498784216	99481	823.86	303.93	9	72	-1	15.98	15.98
Fixation R	1	6	2498684735	2498784216	99481	823.86	303.93	9	72	-1	16.96	16.96
Saccade L	1	6	2498784216	2498804103	19887	822.26	345.32	848.31	366.79	0.58	49.31	0.00	29.27	672.50	-573.88	530.25
Saccade R	1	6	2498784216	2498804103	19887	822.26	345.32	848.31	366.79	0.58	49.31	0.00	29.27	672.50	-573.88	530.25
Fixation L	1	7	2498804103	2499261571	457468	858.10	359.65	22	52	-1	14.99	14.99
Fixation R	1	7	2498804103	2499261571	457468	858.10	359.65	22	52	-1	16.58	16.58
