[BeGaze]
Converted from:	C:\Documents and Settings\iViewX\Desktop\EXPERIMENTATIONS\Experiments\results\finaleart\S8119532-finaleart-1.idf
Date:	27.03.2019 16:00:43
Version:	BeGaze 2.5.77
Sample Rate:	50
Subject:	S8119532
Description:	Alexandre Drewery

Table Header for Fixations:
Event Type	Trial	Number	Start	End	Duration	Location X	Location Y	Dispersion X	Dispersion Y	Plane	Avg. Pupil Size X	Avg. Pupil Size Y

Table Header for Saccades:
Event Type	Trial	Number	Start	End	Duration	Start Loc.X	Start Loc.Y	End Loc.X	End Loc.Y	Amplitude	Peak Speed	Peak Speed At	Average Speed	Peak Accel.	Peak Decel.	Average Accel.

Table Header for Blinks:
Event Type	Trial	Number	Start	End	Duration

Table Header for User Events:
Event Type	Trial	Number	Start	Description

UserEvent	1	1	3262197882	# Message: void.jpg
Saccade L	1	1	3262201605	3262388651	187046	1294.98	796.89	1357.28	229.40	12.85	259.11	0.64	68.70	6378.01	-6230.85	2377.63
Saccade R	1	1	3262201605	3262388651	187046	1294.98	796.89	1357.28	229.40	12.85	259.11	0.64	68.70	6378.01	-6230.85	2377.63
Fixation L	1	1	3262388651	3262619325	230674	1364.33	229.85	15	18	-1	12.28	12.28
Fixation R	1	1	3262388651	3262619325	230674	1364.33	229.85	15	18	-1	13.23	13.23
Saccade L	1	2	3262619325	3262698845	79520	1366.32	238.35	810.62	523.88	10.49	374.18	1.00	131.96	9154.74	-9063.36	7708.56
Saccade R	1	2	3262619325	3262698845	79520	1366.32	238.35	810.62	523.88	10.49	374.18	1.00	131.96	9154.74	-9063.36	7708.56
Fixation L	1	2	3262698845	3262957447	258602	809.57	533.00	4	57	-1	13.15	13.15
Fixation R	1	2	3262698845	3262957447	258602	809.57	533.00	4	57	-1	14.44	14.44
Blink L	1	1	3262957447	3263176296	218849
Blink R	1	1	3262957447	3263176296	218849
Fixation L	1	3	3263176296	3264051375	875079	834.70	623.54	26	48	-1	14.00	14.00
Fixation R	1	3	3263176296	3264051375	875079	834.70	623.54	26	48	-1	15.22	15.22
Saccade L	1	3	3264051375	3264071258	19883	844.82	615.63	937.40	616.59	0.77	93.65	1.00	38.82	2245.74	-1596.20	1332.72
Saccade R	1	3	3264051375	3264071258	19883	844.82	615.63	937.40	616.59	0.77	93.65	1.00	38.82	2245.74	-1596.20	1332.72
Fixation L	1	4	3264071258	3264190633	119375	944.65	586.37	11	50	-1	12.86	12.86
Fixation R	1	4	3264071258	3264190633	119375	944.65	586.37	11	50	-1	13.64	13.64
