[BeGaze]
Converted from:	C:\Documents and Settings\iViewX\Desktop\EXPERIMENTATIONS\Experiments\results\finaleart\S8119532-finaleart-1.idf
Date:	27.03.2019 15:59:46
Version:	BeGaze 2.5.77
Sample Rate:	50
Subject:	S8119532
Description:	Alexandre Drewery

Table Header for Fixations:
Event Type	Trial	Number	Start	End	Duration	Location X	Location Y	Dispersion X	Dispersion Y	Plane	Avg. Pupil Size X	Avg. Pupil Size Y

Table Header for Saccades:
Event Type	Trial	Number	Start	End	Duration	Start Loc.X	Start Loc.Y	End Loc.X	End Loc.Y	Amplitude	Peak Speed	Peak Speed At	Average Speed	Peak Accel.	Peak Decel.	Average Accel.

Table Header for Blinks:
Event Type	Trial	Number	Start	End	Duration

Table Header for User Events:
Event Type	Trial	Number	Start	Description

UserEvent	1	1	2718998008	# Message: The_Girl_From_Rat_Mort_Vlaminck_1905.jpg
Fixation L	1	1	2719007784	2719584506	576722	852.64	493.21	54	43	-1	13.83	13.83
Fixation R	1	1	2719007784	2719584506	576722	852.64	493.21	54	43	-1	14.57	14.57
Saccade L	1	1	2719584506	2719604376	19870	883.23	511.92	892.46	512.05	0.31	26.04	1.00	15.62	395.40	-189.14	221.29
Saccade R	1	1	2719584506	2719604376	19870	883.23	511.92	892.46	512.05	0.31	26.04	1.00	15.62	395.40	-189.14	221.29
Fixation L	1	2	2719604376	2719743618	139242	884.93	540.55	42	43	-1	15.36	15.36
Fixation R	1	2	2719604376	2719743618	139242	884.93	540.55	42	43	-1	15.84	15.84
Saccade L	1	2	2719743618	2719763616	19998	854.08	555.73	767.52	602.83	0.99	99.67	1.00	49.74	2240.30	-1503.97	1316.41
Saccade R	1	2	2719743618	2719763616	19998	854.08	555.73	767.52	602.83	0.99	99.67	1.00	49.74	2240.30	-1503.97	1316.41
Fixation L	1	3	2719763616	2720022112	258496	771.76	591.16	28	40	-1	15.03	15.03
Fixation R	1	3	2719763616	2720022112	258496	771.76	591.16	28	40	-1	15.68	15.68
Saccade L	1	3	2720022112	2720061845	39733	766.76	596.98	654.51	523.17	1.27	93.05	0.50	31.96	2237.95	-1912.84	1537.41
Saccade R	1	3	2720022112	2720061845	39733	766.76	596.98	654.51	523.17	1.27	93.05	0.50	31.96	2237.95	-1912.84	1537.41
Fixation L	1	4	2720061845	2720857564	795719	625.96	496.47	41	39	-1	13.85	13.85
Fixation R	1	4	2720061845	2720857564	795719	625.96	496.47	41	39	-1	14.11	14.11
Blink L	1	1	2720857564	2720976800	119236
Blink R	1	1	2720857564	2720976800	119236
Fixation L	1	5	2720976800	2721334916	358116	615.58	521.95	20	20	-1	14.97	14.97
Fixation R	1	5	2720976800	2721334916	358116	615.58	521.95	20	20	-1	16.30	16.30
Saccade L	1	4	2721334916	2721354795	19879	627.98	529.61	704.35	558.10	0.67	82.46	1.00	33.65	1901.31	-1573.18	1369.14
Saccade R	1	4	2721334916	2721354795	19879	627.98	529.61	704.35	558.10	0.67	82.46	1.00	33.65	1901.31	-1573.18	1369.14
Fixation L	1	6	2721354795	2721573529	218734	713.27	610.76	19	64	-1	14.98	14.98
Fixation R	1	6	2721354795	2721573529	218734	713.27	610.76	19	64	-1	16.12	16.12
Saccade L	1	5	2721573529	2721613282	39753	721.19	622.28	860.36	703.52	1.97	153.71	0.50	49.68	3807.40	-3049.48	2081.74
Saccade R	1	5	2721573529	2721613282	39753	721.19	622.28	860.36	703.52	1.97	153.71	0.50	49.68	3807.40	-3049.48	2081.74
Fixation L	1	7	2721613282	2721891760	278478	873.77	720.33	20	57	-1	14.99	14.99
Fixation R	1	7	2721613282	2721891760	278478	873.77	720.33	20	57	-1	15.96	15.96
Saccade L	1	6	2721891760	2721931509	39749	879.39	712.94	665.47	536.37	2.49	214.52	1.00	62.65	5067.98	-4923.56	3311.84
Saccade R	1	6	2721891760	2721931509	39749	879.39	712.94	665.47	536.37	2.49	214.52	1.00	62.65	5067.98	-4923.56	3311.84
Fixation L	1	8	2721931509	2722170243	238734	658.51	520.98	23	29	-1	13.78	13.78
Fixation R	1	8	2721931509	2722170243	238734	658.51	520.98	23	29	-1	14.49	14.49
Saccade L	1	7	2722170243	2722269752	99509	651.94	506.38	486.44	444.20	6.23	174.28	0.80	62.56	3428.56	-4209.37	2696.12
Saccade R	1	7	2722170243	2722269752	99509	651.94	506.38	486.44	444.20	6.23	174.28	0.80	62.56	3428.56	-4209.37	2696.12
Fixation L	1	9	2722269752	2722408991	139239	486.26	447.02	64	18	-1	13.05	13.05
Fixation R	1	9	2722269752	2722408991	139239	486.26	447.02	64	18	-1	14.01	14.01
Saccade L	1	8	2722408991	2722428860	19869	535.52	457.91	556.62	501.06	0.74	55.33	0.00	37.25	1169.64	-511.30	660.71
Saccade R	1	8	2722408991	2722428860	19869	535.52	457.91	556.62	501.06	0.74	55.33	0.00	37.25	1169.64	-511.30	660.71
Fixation L	1	10	2722428860	2722587971	159111	577.09	462.33	43	55	-1	12.98	12.98
Fixation R	1	10	2722428860	2722587971	159111	577.09	462.33	43	55	-1	14.02	14.02
Saccade L	1	9	2722587971	2722607862	19891	600.24	462.65	628.62	451.51	0.42	30.84	1.00	21.25	310.64	-598.18	381.60
Saccade R	1	9	2722587971	2722607862	19891	600.24	462.65	628.62	451.51	0.42	30.84	1.00	21.25	310.64	-598.18	381.60
Fixation L	1	11	2722607862	2722747088	139226	650.88	455.89	49	16	-1	13.44	13.44
Fixation R	1	11	2722607862	2722747088	139226	650.88	455.89	49	16	-1	14.38	14.38
Saccade L	1	10	2722747088	2722806723	59635	677.66	462.82	1386.28	577.08	7.77	367.36	0.33	130.37	8997.04	-7030.10	6211.17
Saccade R	1	10	2722747088	2722806723	59635	677.66	462.82	1386.28	577.08	7.77	367.36	0.33	130.37	8997.04	-7030.10	6211.17
Fixation L	1	12	2722806723	2722985716	178993	1372.77	602.53	28	43	-1	14.25	14.25
Fixation R	1	12	2722806723	2722985716	178993	1372.77	602.53	28	43	-1	14.84	14.84
