[BeGaze]
Converted from:	C:\Documents and Settings\iViewX\Desktop\EXPERIMENTATIONS\Experiments\results\finaleart\S8119532-finaleart-1.idf
Date:	27.03.2019 16:00:33
Version:	BeGaze 2.5.77
Sample Rate:	50
Subject:	S8119532
Description:	Alexandre Drewery

Table Header for Fixations:
Event Type	Trial	Number	Start	End	Duration	Location X	Location Y	Dispersion X	Dispersion Y	Plane	Avg. Pupil Size X	Avg. Pupil Size Y

Table Header for Saccades:
Event Type	Trial	Number	Start	End	Duration	Start Loc.X	Start Loc.Y	End Loc.X	End Loc.Y	Amplitude	Peak Speed	Peak Speed At	Average Speed	Peak Accel.	Peak Decel.	Average Accel.

Table Header for Blinks:
Event Type	Trial	Number	Start	End	Duration

Table Header for User Events:
Event Type	Trial	Number	Start	Description

UserEvent	1	1	3196454624	# Message: avenue_of_trees_in_a_small_town_sisley_1866.jpg
Fixation L	1	1	3196465128	3196976286	511158	958.91	608.85	19	63	-1	13.91	13.91
Fixation R	1	1	3196465128	3196976286	511158	958.91	608.85	19	63	-1	15.61	15.61
Saccade L	1	1	3196976286	3197002226	25940	958.55	620.23	919.65	615.22	0.39	39.68	1.00	14.95	763.69	-590.86	490.90
Saccade R	1	1	3196976286	3197002226	25940	958.55	620.23	919.65	615.22	0.39	39.68	1.00	14.95	763.69	-590.86	490.90
Fixation L	1	2	3197002226	3197340330	338104	892.40	604.16	41	53	-1	14.64	14.64
Fixation R	1	2	3197002226	3197340330	338104	892.40	604.16	41	53	-1	16.27	16.27
Saccade L	1	2	3197340330	3197422825	82495	878.23	588.57	875.84	720.33	3.35	88.48	1.00	40.59	1392.75	-1401.04	1153.78
Saccade R	1	2	3197340330	3197422825	82495	878.23	588.57	875.84	720.33	3.35	88.48	1.00	40.59	1392.75	-1401.04	1153.78
Fixation L	1	3	3197422825	3197539196	116371	870.85	774.27	8	88	-1	13.33	13.33
Fixation R	1	3	3197422825	3197539196	116371	870.85	774.27	8	88	-1	14.91	14.91
Saccade L	1	3	3197539196	3197559066	19870	867.25	777.27	874.65	710.93	0.87	67.53	1.00	43.61	381.37	-1476.29	696.08
Saccade R	1	3	3197539196	3197559066	19870	867.25	777.27	874.65	710.93	0.87	67.53	1.00	43.61	381.37	-1476.29	696.08
Fixation L	1	4	3197559066	3197718181	159115	878.12	734.51	12	40	-1	13.45	13.45
Fixation R	1	4	3197559066	3197718181	159115	878.12	734.51	12	40	-1	15.11	15.11
Saccade L	1	4	3197718181	3197757939	39758	883.03	731.85	569.81	744.48	2.65	173.32	1.00	66.72	4290.51	-3998.12	3777.02
Saccade R	1	4	3197718181	3197757939	39758	883.03	731.85	569.81	744.48	2.65	173.32	1.00	66.72	4290.51	-3998.12	3777.02
Fixation L	1	5	3197757939	3197917051	159112	568.73	779.73	5	76	-1	13.77	13.77
Fixation R	1	5	3197757939	3197917051	159112	568.73	779.73	5	76	-1	15.92	15.92
Saccade L	1	5	3197917051	3197956926	39875	571.05	790.38	384.39	831.62	1.84	134.89	1.00	46.19	3314.15	-3206.82	2152.01
Saccade R	1	5	3197917051	3197956926	39875	571.05	790.38	384.39	831.62	1.84	134.89	1.00	46.19	3314.15	-3206.82	2152.01
Fixation L	1	6	3197956926	3198195534	238608	397.91	876.96	20	70	-1	13.54	13.54
Fixation R	1	6	3197956926	3198195534	238608	397.91	876.96	20	70	-1	15.66	15.66
Saccade L	1	6	3198195534	3198215410	19876	404.45	898.87	372.04	897.89	0.33	32.81	1.00	16.41	768.12	-512.37	613.52
Saccade R	1	6	3198195534	3198215410	19876	404.45	898.87	372.04	897.89	0.33	32.81	1.00	16.41	768.12	-512.37	613.52
Fixation L	1	7	3198215410	3198712765	497355	369.29	891.57	41	32	-1	13.48	13.48
Fixation R	1	7	3198215410	3198712765	497355	369.29	891.57	41	32	-1	15.90	15.90
Saccade L	1	7	3198712765	3199070752	357987	362.76	878.98	1412.34	384.95	29.61	307.99	0.11	82.71	7586.12	-6783.83	3117.73
Saccade R	1	7	3198712765	3199070752	357987	362.76	878.98	1412.34	384.95	29.61	307.99	0.11	82.71	7586.12	-6783.83	3117.73
Fixation L	1	8	3199070752	3199229858	159106	1411.44	369.66	16	42	-1	13.89	13.89
Fixation R	1	8	3199070752	3199229858	159106	1411.44	369.66	16	42	-1	14.96	14.96
Saccade L	1	8	3199229858	3199289483	59625	1407.80	361.67	1014.31	452.62	4.82	247.76	0.67	80.86	5938.62	-5011.99	2913.52
Saccade R	1	8	3199229858	3199289483	59625	1407.80	361.67	1014.31	452.62	4.82	247.76	0.67	80.86	5938.62	-5011.99	2913.52
Fixation L	1	9	3199289483	3199528231	238748	992.18	464.06	31	50	-1	13.34	13.34
Fixation R	1	9	3199289483	3199528231	238748	992.18	464.06	31	50	-1	14.53	14.53
Saccade L	1	9	3199528231	3199647598	119367	984.52	471.68	807.46	518.80	5.00	151.20	0.33	41.85	3328.33	-2730.36	989.88
Saccade R	1	9	3199528231	3199647598	119367	984.52	471.68	807.46	518.80	5.00	151.20	0.33	41.85	3328.33	-2730.36	989.88
Fixation L	1	10	3199647598	3199766838	119240	786.29	532.31	31	67	-1	13.72	13.72
Fixation R	1	10	3199647598	3199766838	119240	786.29	532.31	31	67	-1	15.62	15.62
Saccade L	1	10	3199766838	3200065207	298369	780.42	550.80	862.43	556.90	9.07	77.06	0.07	30.39	1713.15	-1800.95	898.16
Saccade R	1	10	3199766838	3200065207	298369	780.42	550.80	862.43	556.90	9.07	77.06	0.07	30.39	1713.15	-1800.95	898.16
Fixation L	1	11	3200065207	3200184571	119364	867.02	573.76	49	49	-1	14.11	14.11
Fixation R	1	11	3200065207	3200184571	119364	867.02	573.76	49	49	-1	15.79	15.79
Saccade L	1	11	3200184571	3200264197	79626	884.83	602.07	1296.71	506.35	7.62	240.57	0.75	95.67	4002.87	-5661.50	3480.38
Saccade R	1	11	3200184571	3200264197	79626	884.83	602.07	1296.71	506.35	7.62	240.57	0.75	95.67	4002.87	-5661.50	3480.38
Fixation L	1	12	3200264197	3200463057	198860	1298.11	511.07	13	18	-1	13.36	13.36
Fixation R	1	12	3200264197	3200463057	198860	1298.11	511.07	13	18	-1	14.66	14.66
Saccade L	1	12	3200463057	3200482946	19889	1305.03	500.85	1336.04	454.99	0.50	56.00	1.00	25.23	1254.54	0.00	627.27
Saccade R	1	12	3200463057	3200482946	19889	1305.03	500.85	1336.04	454.99	0.50	56.00	1.00	25.23	1254.54	0.00	627.27
