[BeGaze]
Converted from:	C:\Documents and Settings\iViewX\Desktop\EXPERIMENTATIONS\Experiments\results\finaleart\S8119532-finaleart-1.idf
Date:	27.03.2019 15:59:58
Version:	BeGaze 2.5.77
Sample Rate:	50
Subject:	S8119532
Description:	Alexandre Drewery

Table Header for Fixations:
Event Type	Trial	Number	Start	End	Duration	Location X	Location Y	Dispersion X	Dispersion Y	Plane	Avg. Pupil Size X	Avg. Pupil Size Y

Table Header for Saccades:
Event Type	Trial	Number	Start	End	Duration	Start Loc.X	Start Loc.Y	End Loc.X	End Loc.Y	Amplitude	Peak Speed	Peak Speed At	Average Speed	Peak Accel.	Peak Decel.	Average Accel.

Table Header for Blinks:
Event Type	Trial	Number	Start	End	Duration

Table Header for User Events:
Event Type	Trial	Number	Start	Description

UserEvent	1	1	2796917179	# Message: void.jpg
Saccade L	1	1	2796936917	2796976663	39746	970.54	763.24	1067.69	739.93	1.23	103.33	1.00	30.90	2583.33	-2187.09	1239.77
Saccade R	1	1	2796936917	2796976663	39746	970.54	763.24	1067.69	739.93	1.23	103.33	1.00	30.90	2583.33	-2187.09	1239.77
Fixation L	1	1	2796976663	2797354264	377601	1071.56	744.76	21	37	-1	12.06	12.06
Fixation R	1	1	2796976663	2797354264	377601	1071.56	744.76	21	37	-1	12.00	12.00
Saccade L	1	2	2797354264	2797403570	49306	1083.89	724.66	1126.56	664.28	2.12	74.79	1.00	43.03	1783.10	-1487.33	1319.25
Saccade R	1	2	2797354264	2797403570	49306	1083.89	724.66	1126.56	664.28	2.12	74.79	1.00	43.03	1783.10	-1487.33	1319.25
Fixation L	1	2	2797403570	2797573404	169834	1135.19	617.45	18	66	-1	12.25	12.25
Fixation R	1	2	2797403570	2797573404	169834	1135.19	617.45	18	66	-1	12.38	12.38
Saccade L	1	3	2797573404	2797672768	99364	1134.73	600.95	1141.82	590.35	16.80	1278.69	1.00	169.11	31920.40	-367.75	4752.88
Saccade R	1	3	2797573404	2797672768	99364	1134.73	600.95	1141.82	590.35	16.80	1278.69	1.00	169.11	31920.40	-367.75	4752.88
Blink L	1	1	2797672768	2797851864	179096
Blink R	1	1	2797672768	2797851864	179096
Fixation L	1	3	2797851864	2798567832	715968	973.19	542.38	11	88	-1	13.80	13.80
Fixation R	1	3	2797851864	2798567832	715968	973.19	542.38	11	88	-1	14.66	14.66
Saccade L	1	4	2798567832	2798587707	19875	970.13	558.93	972.89	576.49	0.21	17.99	1.00	10.35	38.58	-205.31	86.92
Saccade R	1	4	2798567832	2798587707	19875	970.13	558.93	972.89	576.49	0.21	17.99	1.00	10.35	38.58	-205.31	86.92
Fixation L	1	4	2798587707	2798905963	318256	971.28	577.71	4	30	-1	14.19	14.19
Fixation R	1	4	2798587707	2798905963	318256	971.28	577.71	4	30	-1	15.37	15.37
