[BeGaze]
Converted from:	C:\Documents and Settings\iViewX\Desktop\EXPERIMENTATIONS\Experiments\results\finaleart\S8119532-finaleart-1.idf
Date:	27.03.2019 16:01:18
Version:	BeGaze 2.5.77
Sample Rate:	50
Subject:	S8119532
Description:	Alexandre Drewery

Table Header for Fixations:
Event Type	Trial	Number	Start	End	Duration	Location X	Location Y	Dispersion X	Dispersion Y	Plane	Avg. Pupil Size X	Avg. Pupil Size Y

Table Header for Saccades:
Event Type	Trial	Number	Start	End	Duration	Start Loc.X	Start Loc.Y	End Loc.X	End Loc.Y	Amplitude	Peak Speed	Peak Speed At	Average Speed	Peak Accel.	Peak Decel.	Average Accel.

Table Header for Blinks:
Event Type	Trial	Number	Start	End	Duration

Table Header for User Events:
Event Type	Trial	Number	Start	Description

UserEvent	1	1	3546366199	# Message: goya-Bodegón-con-salmón-1812.jpg
Fixation L	1	1	3546384607	3546667574	282967	1025.28	610.77	54	29	-1	13.47	13.47
Fixation R	1	1	3546384607	3546667574	282967	1025.28	610.77	54	29	-1	14.11	14.11
Saccade L	1	1	3546667574	3546738660	71086	984.46	591.16	961.32	612.76	1.80	33.58	1.00	25.34	-39.14	-405.97	242.99
Saccade R	1	1	3546667574	3546738660	71086	984.46	591.16	961.32	612.76	1.80	33.58	1.00	25.34	-39.14	-405.97	242.99
Fixation L	1	2	3546738660	3546941588	202928	946.24	606.93	31	43	-1	14.18	14.18
Fixation R	1	2	3546738660	3546941588	202928	946.24	606.93	31	43	-1	14.88	14.88
Saccade L	1	2	3546941588	3546961453	19865	929.55	625.09	854.64	700.74	0.82	107.69	1.00	41.08	2604.61	-2060.04	1604.10
Saccade R	1	2	3546941588	3546961453	19865	929.55	625.09	854.64	700.74	0.82	107.69	1.00	41.08	2604.61	-2060.04	1604.10
Fixation L	1	3	3546961453	3547180201	218748	841.36	699.65	19	73	-1	14.40	14.40
Fixation R	1	3	3546961453	3547180201	218748	841.36	699.65	19	73	-1	15.41	15.41
Saccade L	1	3	3547180201	3547200071	19870	835.44	718.58	830.18	726.30	0.14	12.40	1.00	7.15	189.21	-156.94	178.30
Saccade R	1	3	3547180201	3547200071	19870	835.44	718.58	830.18	726.30	0.14	12.40	1.00	7.15	189.21	-156.94	178.30
Fixation L	1	4	3547200071	3547418938	218867	822.13	748.43	13	45	-1	14.73	14.73
Fixation R	1	4	3547200071	3547418938	218867	822.13	748.43	13	45	-1	15.84	15.84
Saccade L	1	4	3547418938	3547458678	39740	823.12	771.38	1095.97	722.17	2.57	206.74	0.50	64.56	5008.23	-4463.51	3070.49
Saccade R	1	4	3547418938	3547458678	39740	823.12	771.38	1095.97	722.17	2.57	206.74	0.50	64.56	5008.23	-4463.51	3070.49
Fixation L	1	5	3547458678	3547578043	119365	1110.34	733.93	25	60	-1	15.13	15.13
Fixation R	1	5	3547458678	3547578043	119365	1110.34	733.93	25	60	-1	15.88	15.88
Saccade L	1	5	3547578043	3547597945	19902	1121.50	717.63	1126.97	704.94	0.76	61.06	1.00	38.43	203.98	-1177.06	801.61
Saccade R	1	5	3547578043	3547597945	19902	1121.50	717.63	1126.97	704.94	0.76	61.06	1.00	38.43	203.98	-1177.06	801.61
Fixation L	1	6	3547597945	3547796784	198839	1138.99	690.64	69	27	-1	14.44	14.44
Fixation R	1	6	3547597945	3547796784	198839	1138.99	690.64	69	27	-1	15.40	15.40
Saccade L	1	6	3547796784	3547816659	19875	1184.72	677.56	1197.97	678.89	0.38	40.08	1.00	19.16	-248.87	-665.25	425.70
Saccade R	1	6	3547796784	3547816659	19875	1184.72	677.56	1197.97	678.89	0.38	40.08	1.00	19.16	-248.87	-665.25	425.70
Fixation L	1	7	3547816659	3548015648	198989	1204.35	676.68	20	10	-1	14.10	14.10
Fixation R	1	7	3547816659	3548015648	198989	1204.35	676.68	20	10	-1	14.10	14.10
Blink L	1	1	3548015648	3548254260	238612
Blink R	1	1	3548015648	3548254260	238612
Fixation L	1	8	3548254260	3548413375	159115	907.62	647.06	12	38	-1	16.82	16.82
Fixation R	1	8	3548254260	3548413375	159115	907.62	647.06	12	38	-1	18.62	18.62
Saccade L	1	7	3548413375	3548433248	19873	905.76	624.39	798.77	661.87	0.79	114.68	1.00	39.55	2833.82	-2130.69	1707.68
Saccade R	1	7	3548413375	3548433248	19873	905.76	624.39	798.77	661.87	0.79	114.68	1.00	39.55	2833.82	-2130.69	1707.68
Fixation L	1	9	3548433248	3548771487	338239	782.58	720.14	19	78	-1	16.75	16.75
Fixation R	1	9	3548433248	3548771487	338239	782.58	720.14	19	78	-1	18.52	18.52
Saccade L	1	8	3548771487	3548850980	79493	778.81	739.72	774.73	742.25	12.63	1072.68	1.00	158.83	26709.20	-201.90	4535.10
Saccade R	1	8	3548771487	3548850980	79493	778.81	739.72	774.73	742.25	12.63	1072.68	1.00	158.83	26709.20	-201.90	4535.10
Blink L	1	2	3548850980	3549010096	159116
Blink R	1	2	3548850980	3549010096	159116
Saccade L	1	9	3549010096	3549109592	99496	849.05	716.35	857.79	751.59	24.27	1120.42	1.00	243.96	9650.77	-27789.46	9197.12
Saccade R	1	9	3549010096	3549109592	99496	849.05	716.35	857.79	751.59	24.27	1120.42	1.00	243.96	9650.77	-27789.46	9197.12
Fixation L	1	10	3549109592	3549248841	139249	856.36	745.20	5	49	-1	15.36	15.36
Fixation R	1	10	3549109592	3549248841	139249	856.36	745.20	5	49	-1	18.95	18.95
Saccade L	1	10	3549248841	3549288584	39743	855.63	762.08	1011.00	728.66	1.77	105.94	0.50	44.49	2466.95	-2129.07	1455.68
Saccade R	1	10	3549248841	3549288584	39743	855.63	762.08	1011.00	728.66	1.77	105.94	0.50	44.49	2466.95	-2129.07	1455.68
Fixation L	1	11	3549288584	3549507325	218741	1008.99	727.39	20	69	-1	13.14	13.14
Fixation R	1	11	3549288584	3549507325	218741	1008.99	727.39	20	69	-1	17.17	17.17
Blink L	1	3	3549507325	3549586953	79628
Saccade R	1	11	3549507325	3549567077	59752	1009.01	710.39	872.13	751.55	3.91	139.46	1.00	65.43	2815.21	-3187.34	2443.40
Fixation R	1	12	3549567077	3549984677	417600	852.36	754.04	31	27	-1	16.63	16.63
Fixation L	1	12	3549586953	3549984677	397724	851.42	754.16	30	27	-1	15.19	15.19
Blink L	1	4	3549984677	3550183672	198995
Blink R	1	3	3549984677	3550183672	198995
Fixation L	1	13	3550183672	3550362661	178989	794.25	727.53	11	33	-1	17.07	17.07
Fixation R	1	13	3550183672	3550362661	178989	794.25	727.53	11	33	-1	19.28	19.28
Saccade L	1	11	3550362661	3550382532	19871	799.36	728.35	901.97	724.93	0.76	103.85	1.00	38.04	2431.80	0.00	1215.90
Saccade R	1	12	3550362661	3550382532	19871	799.36	728.35	901.97	724.93	0.76	103.85	1.00	38.04	2431.80	0.00	1215.90
