[BeGaze]
Converted from:	C:\Documents and Settings\iViewX\Desktop\EXPERIMENTATIONS\Experiments\results\finaleart\S8119532-finaleart-1.idf
Date:	27.03.2019 16:01:04
Version:	BeGaze 2.5.77
Sample Rate:	50
Subject:	S8119532
Description:	Alexandre Drewery

Table Header for Fixations:
Event Type	Trial	Number	Start	End	Duration	Location X	Location Y	Dispersion X	Dispersion Y	Plane	Avg. Pupil Size X	Avg. Pupil Size Y

Table Header for Saccades:
Event Type	Trial	Number	Start	End	Duration	Start Loc.X	Start Loc.Y	End Loc.X	End Loc.Y	Amplitude	Peak Speed	Peak Speed At	Average Speed	Peak Accel.	Peak Decel.	Average Accel.

Table Header for Blinks:
Event Type	Trial	Number	Start	End	Duration

Table Header for User Events:
Event Type	Trial	Number	Start	Description

UserEvent	1	1	3460282483	# Message: the_rainbow__moore_henry_1865.jpg
Saccade L	1	1	3460300611	3460360237	59626	852.36	510.50	849.97	495.12	2.36	94.29	0.67	39.60	2357.28	-2138.97	1648.90
Saccade R	1	1	3460300611	3460360237	59626	852.36	510.50	849.97	495.12	2.36	94.29	0.67	39.60	2357.28	-2138.97	1648.90
Fixation L	1	1	3460360237	3460678466	318229	861.17	500.60	35	63	-1	14.50	14.50
Fixation R	1	1	3460360237	3460678466	318229	861.17	500.60	35	63	-1	16.28	16.28
Saccade L	1	2	3460678466	3460698450	19984	879.75	532.30	872.84	544.83	0.29	20.15	1.00	14.47	240.82	43.08	136.28
Saccade R	1	2	3460678466	3460698450	19984	879.75	532.30	872.84	544.83	0.29	20.15	1.00	14.47	240.82	43.08	136.28
Fixation L	1	2	3460698450	3461116070	417620	891.57	546.62	33	29	-1	14.75	14.75
Fixation R	1	2	3460698450	3461116070	417620	891.57	546.62	33	29	-1	16.36	16.36
Saccade L	1	3	3461116070	3461315049	198979	899.78	546.47	441.85	451.56	9.92	241.70	0.20	49.87	5891.46	-5332.75	1748.69
Saccade R	1	3	3461116070	3461315049	198979	899.78	546.47	441.85	451.56	9.92	241.70	0.20	49.87	5891.46	-5332.75	1748.69
Fixation L	1	3	3461315049	3461414424	99375	413.90	421.99	42	51	-1	11.68	11.68
Fixation R	1	3	3461315049	3461414424	99375	413.90	421.99	42	51	-1	13.28	13.28
Saccade L	1	4	3461414424	3461434309	19885	399.35	399.92	394.34	384.07	0.17	16.82	1.00	8.79	71.28	-362.18	156.28
Saccade R	1	4	3461414424	3461434309	19885	399.35	399.92	394.34	384.07	0.17	16.82	1.00	8.79	71.28	-362.18	156.28
Fixation L	1	4	3461434309	3462031015	596706	382.63	394.17	30	29	-1	10.95	10.95
Fixation R	1	4	3461434309	3462031015	596706	382.63	394.17	30	29	-1	12.42	12.42
Saccade L	1	5	3462031015	3462090634	59619	401.26	389.96	1376.12	717.05	10.96	432.13	0.33	183.88	10745.60	-9414.45	7994.31
Saccade R	1	5	3462031015	3462090634	59619	401.26	389.96	1376.12	717.05	10.96	432.13	0.33	183.88	10745.60	-9414.45	7994.31
Fixation L	1	5	3462090634	3462408997	318363	1359.34	723.72	23	54	-1	11.45	11.45
Fixation R	1	5	3462090634	3462408997	318363	1359.34	723.72	23	54	-1	12.09	12.09
Saccade L	1	6	3462408997	3462428899	19902	1360.09	731.79	1294.18	719.65	0.50	67.79	1.00	25.15	1422.04	-1564.79	1107.47
Saccade R	1	6	3462408997	3462428899	19902	1360.09	731.79	1294.18	719.65	0.50	67.79	1.00	25.15	1422.04	-1564.79	1107.47
Fixation L	1	6	3462428899	3462747104	318205	1291.68	726.51	35	27	-1	11.62	11.62
Fixation R	1	6	3462428899	3462747104	318205	1291.68	726.51	35	27	-1	12.24	12.24
Saccade L	1	7	3462747104	3462786857	39753	1276.85	727.91	1063.80	876.88	2.52	211.72	0.50	63.45	5086.77	-4637.76	2944.60
Saccade R	1	7	3462747104	3462786857	39753	1276.85	727.91	1063.80	876.88	2.52	211.72	0.50	63.45	5086.77	-4637.76	2944.60
Fixation L	1	7	3462786857	3462926106	139249	1045.75	875.90	27	41	-1	12.02	12.02
Fixation R	1	7	3462786857	3462926106	139249	1045.75	875.90	27	41	-1	12.80	12.80
Saccade L	1	8	3462926106	3463025481	99375	1037.99	892.59	854.53	951.52	4.48	171.68	0.20	45.13	4063.85	-4018.18	1564.10
Saccade R	1	8	3462926106	3463025481	99375	1037.99	892.59	854.53	951.52	4.48	171.68	0.20	45.13	4063.85	-4018.18	1564.10
Fixation L	1	8	3463025481	3463224456	198975	852.36	973.36	15	75	-1	12.21	12.21
Fixation R	1	8	3463025481	3463224456	198975	852.36	973.36	15	75	-1	13.17	13.17
Saccade L	1	9	3463224456	3463264208	39752	844.94	973.10	1214.25	962.85	3.20	280.39	0.50	80.44	6532.83	-6892.58	4407.93
Saccade R	1	9	3463224456	3463264208	39752	844.94	973.10	1214.25	962.85	3.20	280.39	0.50	80.44	6532.83	-6892.58	4407.93
Fixation L	1	9	3463264208	3463562589	298381	1218.95	955.79	9	39	-1	13.15	13.15
Fixation R	1	9	3463264208	3463562589	298381	1218.95	955.79	9	39	-1	13.88	13.88
Saccade L	1	10	3463562589	3463622199	59610	1217.84	932.55	355.38	408.04	10.74	419.78	0.33	180.21	10475.07	-10070.49	8112.91
Saccade R	1	10	3463562589	3463622199	59610	1217.84	932.55	355.38	408.04	10.74	419.78	0.33	180.21	10475.07	-10070.49	8112.91
Fixation L	1	10	3463622199	3464318421	696222	370.14	401.81	37	33	-1	12.20	12.20
Fixation R	1	10	3463622199	3464318421	696222	370.14	401.81	37	33	-1	14.07	14.07
