[BeGaze]
Converted from:	C:\Documents and Settings\iViewX\Desktop\EXPERIMENTATIONS\Experiments\results\finaleart\S8119532-finaleart-1.idf
Date:	27.03.2019 15:59:17
Version:	BeGaze 2.5.77
Sample Rate:	50
Subject:	S8119532
Description:	Alexandre Drewery

Table Header for Fixations:
Event Type	Trial	Number	Start	End	Duration	Location X	Location Y	Dispersion X	Dispersion Y	Plane	Avg. Pupil Size X	Avg. Pupil Size Y

Table Header for Saccades:
Event Type	Trial	Number	Start	End	Duration	Start Loc.X	Start Loc.Y	End Loc.X	End Loc.Y	Amplitude	Peak Speed	Peak Speed At	Average Speed	Peak Accel.	Peak Decel.	Average Accel.

Table Header for Blinks:
Event Type	Trial	Number	Start	End	Duration

Table Header for User Events:
Event Type	Trial	Number	Start	Description

UserEvent	1	1	2472512238	# Message: void.jpg
Saccade L	1	1	2472529239	2472718517	189278	506.93	1014.30	1322.17	273.33	22.21	429.91	0.74	117.35	9573.99	-10604.26	4031.10
Saccade R	1	1	2472529239	2472718517	189278	506.93	1014.30	1322.17	273.33	22.21	429.91	0.74	117.35	9573.99	-10604.26	4031.10
Fixation L	1	1	2472718517	2472946962	228445	1318.69	286.66	6	59	-1	16.80	16.80
Fixation R	1	1	2472718517	2472946962	228445	1318.69	286.66	6	59	-1	18.90	18.90
Saccade L	1	2	2472946962	2473023560	76598	1320.52	312.68	1185.36	369.78	3.65	148.40	1.00	47.67	3096.16	-2494.87	1952.69
Saccade R	1	2	2472946962	2473023560	76598	1320.52	312.68	1185.36	369.78	3.65	148.40	1.00	47.67	3096.16	-2494.87	1952.69
Fixation L	1	2	2473023560	2473205576	182016	1195.43	366.34	19	47	-1	16.32	16.32
Fixation R	1	2	2473023560	2473205576	182016	1195.43	366.34	19	47	-1	18.18	18.18
Saccade L	1	3	2473205576	2473245317	39741	1204.72	362.72	841.49	373.45	3.12	202.78	1.00	78.52	4849.60	-4664.37	4389.81
Saccade R	1	3	2473205576	2473245317	39741	1204.72	362.72	841.49	373.45	3.12	202.78	1.00	78.52	4849.60	-4664.37	4389.81
Fixation L	1	3	2473245317	2473424345	179028	830.22	375.95	19	34	-1	16.09	16.09
Fixation R	1	3	2473245317	2473424345	179028	830.22	375.95	19	34	-1	18.03	18.03
Saccade L	1	4	2473424345	2473543686	119341	824.23	371.66	821.61	386.27	4.12	95.59	1.00	34.52	23499.48	-1818.78	4060.75
Saccade R	1	4	2473424345	2473543686	119341	824.23	371.66	821.61	386.27	4.12	95.59	1.00	34.52	23499.48	-1818.78	4060.75
Blink L	1	1	2473543686	2473702798	159112
Blink R	1	1	2473543686	2473702798	159112
Saccade L	1	5	2473702798	2473861923	159125	816.71	460.79	818.88	463.40	42.26	939.88	1.00	265.55	8390.22	-20884.69	8359.33
Saccade R	1	5	2473702798	2473861923	159125	816.71	460.79	818.88	463.40	42.26	939.88	1.00	265.55	8390.22	-20884.69	8359.33
Fixation L	1	4	2473861923	2473981284	119361	819.25	458.72	23	74	-1	13.37	13.37
Fixation R	1	4	2473861923	2473981284	119361	819.25	458.72	23	74	-1	15.89	15.89
Saccade L	1	6	2473981284	2474001175	19891	816.69	430.93	809.45	447.12	0.31	19.28	0.00	15.46	478.42	-266.78	264.51
Saccade R	1	6	2473981284	2474001175	19891	816.69	430.93	809.45	447.12	0.31	19.28	0.00	15.46	478.42	-266.78	264.51
Fixation L	1	5	2474001175	2474160296	159121	807.18	452.41	42	32	-1	12.63	12.63
Fixation R	1	5	2474001175	2474160296	159121	807.18	452.41	42	32	-1	15.50	15.50
Saccade L	1	7	2474160296	2474339268	178972	798.93	440.58	786.82	364.05	9.31	96.57	0.56	52.01	1802.28	-1554.17	996.56
Saccade R	1	7	2474160296	2474339268	178972	798.93	440.58	786.82	364.05	9.31	96.57	0.56	52.01	1802.28	-1554.17	996.56
Fixation L	1	6	2474339268	2474438767	99499	793.03	407.51	17	71	-1	12.41	12.41
Fixation R	1	6	2474339268	2474438767	99499	793.03	407.51	17	71	-1	15.89	15.89
Saccade L	1	8	2474438767	2474558008	119241	791.88	424.40	840.64	482.21	2.82	54.54	1.00	23.68	961.41	-164.39	230.85
Saccade R	1	8	2474438767	2474558008	119241	791.88	424.40	840.64	482.21	2.82	54.54	1.00	23.68	961.41	-164.39	230.85
