[BeGaze]
Converted from:	C:\Documents and Settings\iViewX\Desktop\EXPERIMENTATIONS\Experiments\results\finaleart\S8119532-finaleart-1.idf
Date:	27.03.2019 16:01:24
Version:	BeGaze 2.5.77
Sample Rate:	50
Subject:	S8119532
Description:	Alexandre Drewery

Table Header for Fixations:
Event Type	Trial	Number	Start	End	Duration	Location X	Location Y	Dispersion X	Dispersion Y	Plane	Avg. Pupil Size X	Avg. Pupil Size Y

Table Header for Saccades:
Event Type	Trial	Number	Start	End	Duration	Start Loc.X	Start Loc.Y	End Loc.X	End Loc.Y	Amplitude	Peak Speed	Peak Speed At	Average Speed	Peak Accel.	Peak Decel.	Average Accel.

Table Header for Blinks:
Event Type	Trial	Number	Start	End	Duration

Table Header for User Events:
Event Type	Trial	Number	Start	Description

UserEvent	1	1	3688099345	# Message: Nature_Morte_Aux_Raisins_Sur_Un_Plat_Derain_1944.jpg
Fixation L	1	1	3688115202	3688373826	258624	748.73	274.32	67	24	-1	16.34	16.34
Fixation R	1	1	3688115202	3688373826	258624	748.73	274.32	67	24	-1	18.02	18.02
Saccade L	1	1	3688373826	3688395771	21945	806.15	288.30	814.94	321.58	0.68	71.16	0.00	31.06	839.80	-1353.10	916.62
Saccade R	1	1	3688373826	3688395771	21945	806.15	288.30	814.94	321.58	0.68	71.16	0.00	31.06	839.80	-1353.10	916.62
Fixation L	1	2	3688395771	3688731790	336019	825.26	344.40	13	77	-1	16.64	16.64
Fixation R	1	2	3688395771	3688731790	336019	825.26	344.40	13	77	-1	18.78	18.78
Saccade L	1	2	3688731790	3688751652	19862	828.38	399.21	831.55	422.73	0.49	66.82	0.00	24.53	512.96	-1575.72	705.56
Saccade R	1	2	3688731790	3688751652	19862	828.38	399.21	831.55	422.73	0.49	66.82	0.00	24.53	512.96	-1575.72	705.56
Fixation L	1	3	3688751652	3688871026	119374	837.29	402.41	15	43	-1	16.34	16.34
Fixation R	1	3	3688751652	3688871026	119374	837.29	402.41	15	43	-1	18.47	18.47
Saccade L	1	3	3688871026	3688890915	19889	846.32	401.22	872.83	481.35	0.84	85.37	1.00	42.24	1362.91	-1558.91	1030.56
Saccade R	1	3	3688871026	3688890915	19889	846.32	401.22	872.83	481.35	0.84	85.37	1.00	42.24	1362.91	-1558.91	1030.56
Fixation L	1	4	3688890915	3689030161	139246	900.44	497.00	40	43	-1	16.62	16.62
Fixation R	1	4	3688890915	3689030161	139246	900.44	497.00	40	43	-1	18.07	18.07
Saccade L	1	4	3689030161	3689050015	19854	909.97	516.50	892.39	581.07	0.59	67.70	1.00	29.83	1197.37	-1376.56	859.38
Saccade R	1	4	3689030161	3689050015	19854	909.97	516.50	892.39	581.07	0.59	67.70	1.00	29.83	1197.37	-1376.56	859.38
Fixation L	1	5	3689050015	3689229008	178993	898.22	597.91	17	28	-1	15.51	15.51
Fixation R	1	5	3689050015	3689229008	178993	898.22	597.91	17	28	-1	16.96	16.96
Saccade L	1	5	3689229008	3689268879	39871	888.71	609.43	750.52	388.88	2.41	196.16	0.50	60.41	4400.32	-4643.94	3102.43
Saccade R	1	5	3689229008	3689268879	39871	888.71	609.43	750.52	388.88	2.41	196.16	0.50	60.41	4400.32	-4643.94	3102.43
Fixation L	1	6	3689268879	3689467746	198867	746.44	337.87	12	84	-1	14.63	14.63
Fixation R	1	6	3689268879	3689467746	198867	746.44	337.87	12	84	-1	16.20	16.20
Saccade L	1	6	3689467746	3689487618	19872	740.94	304.25	683.77	312.38	0.47	58.41	1.00	23.75	1214.08	-1409.85	1047.84
Saccade R	1	6	3689467746	3689487618	19872	740.94	304.25	683.77	312.38	0.47	58.41	1.00	23.75	1214.08	-1409.85	1047.84
Fixation L	1	7	3689487618	3689686487	198869	663.86	298.37	33	30	-1	14.03	14.03
Fixation R	1	7	3689487618	3689686487	198869	663.86	298.37	33	30	-1	15.51	15.51
Saccade L	1	7	3689686487	3689726353	39866	649.83	294.82	615.17	162.26	1.32	74.38	0.50	33.17	1804.33	-1489.47	1517.78
Saccade R	1	7	3689686487	3689726353	39866	649.83	294.82	615.17	162.26	1.32	74.38	0.50	33.17	1804.33	-1489.47	1517.78
Fixation L	1	8	3689726353	3690004715	278362	595.24	153.59	31	27	-1	13.82	13.82
Fixation R	1	8	3689726353	3690004715	278362	595.24	153.59	31	27	-1	15.37	15.37
Saccade L	1	8	3690004715	3690044595	39880	583.40	154.49	791.76	364.66	2.87	169.68	1.00	71.99	4115.56	-3758.01	3710.20
Saccade R	1	8	3690004715	3690044595	39880	583.40	154.49	791.76	364.66	2.87	169.68	1.00	71.99	4115.56	-3758.01	3710.20
Fixation L	1	9	3690044595	3690183716	139121	797.09	356.91	10	39	-1	14.90	14.90
Fixation R	1	9	3690044595	3690183716	139121	797.09	356.91	10	39	-1	16.18	16.18
Saccade L	1	9	3690183716	3690223584	39868	802.68	363.40	1051.16	468.11	2.47	163.15	0.50	61.88	3986.60	-3766.89	3219.86
Saccade R	1	9	3690183716	3690223584	39868	802.68	363.40	1051.16	468.11	2.47	163.15	0.50	61.88	3986.60	-3766.89	3219.86
Fixation L	1	10	3690223584	3690462202	238618	1045.42	474.74	23	18	-1	15.39	15.39
Fixation R	1	10	3690223584	3690462202	238618	1045.42	474.74	23	18	-1	16.50	16.50
Saccade L	1	10	3690462202	3690482073	19871	1061.66	472.23	1131.48	477.53	0.60	70.83	1.00	30.16	1457.72	-1587.27	1057.51
Saccade R	1	10	3690462202	3690482073	19871	1061.66	472.23	1131.48	477.53	0.60	70.83	1.00	30.16	1457.72	-1587.27	1057.51
Fixation L	1	11	3690482073	3690700954	218881	1141.71	483.25	30	21	-1	15.28	15.28
Fixation R	1	11	3690482073	3690700954	218881	1141.71	483.25	30	21	-1	15.69	15.69
Saccade L	1	11	3690700954	3690720812	19858	1139.65	489.06	1136.61	399.57	0.89	90.57	1.00	44.58	2151.95	-1230.14	1683.87
Saccade R	1	11	3690700954	3690720812	19858	1139.65	489.06	1136.61	399.57	0.89	90.57	1.00	44.58	2151.95	-1230.14	1683.87
Fixation L	1	12	3690720812	3691078791	357979	1145.32	345.83	15	75	-1	14.16	14.16
Fixation R	1	12	3690720812	3691078791	357979	1145.32	345.83	15	75	-1	14.81	14.81
Saccade L	1	12	3691078791	3691138538	59747	1149.47	358.64	951.54	545.63	3.83	169.05	0.67	64.17	3889.27	-3349.98	2220.04
Saccade R	1	12	3691078791	3691138538	59747	1149.47	358.64	951.54	545.63	3.83	169.05	0.67	64.17	3889.27	-3349.98	2220.04
Fixation L	1	13	3691138538	3691536273	397735	933.99	549.45	35	45	-1	14.24	14.24
Fixation R	1	13	3691138538	3691536273	397735	933.99	549.45	35	45	-1	14.95	14.95
Saccade L	1	13	3691536273	3691556145	19872	930.16	562.69	923.09	618.53	0.45	56.94	1.00	22.58	1301.73	-952.56	912.42
Saccade R	1	13	3691536273	3691556145	19872	930.16	562.69	923.09	618.53	0.45	56.94	1.00	22.58	1301.73	-952.56	912.42
Fixation L	1	14	3691556145	3691715265	159120	908.22	620.92	26	39	-1	14.05	14.05
Fixation R	1	14	3691556145	3691715265	159120	908.22	620.92	26	39	-1	15.02	15.02
Blink L	1	1	3691715265	3691874378	159113
Blink R	1	1	3691715265	3691874378	159113
Fixation L	1	15	3691874378	3692093245	218867	844.87	578.85	12	43	-1	13.57	13.57
Fixation R	1	15	3691874378	3692093245	218867	844.87	578.85	12	43	-1	14.55	14.55
Saccade L	1	14	3692093245	3692133015	39770	841.99	556.35	840.01	456.58	1.38	108.05	0.50	34.82	2512.57	-164.37	892.31
Saccade R	1	14	3692093245	3692133015	39770	841.99	556.35	840.01	456.58	1.38	108.05	0.50	34.82	2512.57	-164.37	892.31
