[BeGaze]
Converted from:	C:\Documents and Settings\iViewX\Desktop\EXPERIMENTATIONS\Experiments\results\finaleart\S8119532-finaleart-1.idf
Date:	27.03.2019 16:01:14
Version:	BeGaze 2.5.77
Sample Rate:	50
Subject:	S8119532
Description:	Alexandre Drewery

Table Header for Fixations:
Event Type	Trial	Number	Start	End	Duration	Location X	Location Y	Dispersion X	Dispersion Y	Plane	Avg. Pupil Size X	Avg. Pupil Size Y

Table Header for Saccades:
Event Type	Trial	Number	Start	End	Duration	Start Loc.X	Start Loc.Y	End Loc.X	End Loc.Y	Amplitude	Peak Speed	Peak Speed At	Average Speed	Peak Accel.	Peak Decel.	Average Accel.

Table Header for Blinks:
Event Type	Trial	Number	Start	End	Duration

Table Header for User Events:
Event Type	Trial	Number	Start	Description

UserEvent	1	1	3519647801	# Message: void.jpg
Fixation L	1	1	3519652404	3519791657	139253	743.21	743.14	22	51	-1	14.30	14.30
Fixation R	1	1	3519652404	3519791657	139253	743.21	743.14	22	51	-1	17.03	17.03
Saccade L	1	1	3519791657	3519891148	99491	753.61	751.08	805.52	543.25	5.88	174.24	1.00	59.05	4058.67	-3675.91	2056.60
Saccade R	1	1	3519791657	3519891148	99491	753.61	751.08	805.52	543.25	5.88	174.24	1.00	59.05	4058.67	-3675.91	2056.60
Fixation L	1	2	3519891148	3520153785	262637	835.14	539.15	44	43	-1	13.99	13.99
Fixation R	1	2	3519891148	3520153785	262637	835.14	539.15	44	43	-1	16.61	16.61
Saccade L	1	2	3520153785	3520209358	55573	849.88	527.64	743.66	268.68	3.69	160.95	0.64	66.41	3085.39	-3893.73	3256.79
Saccade R	1	2	3520153785	3520209358	55573	849.88	527.64	743.66	268.68	3.69	160.95	0.64	66.41	3085.39	-3893.73	3256.79
Fixation L	1	3	3520209358	3520408236	198878	736.82	261.12	9	16	-1	13.98	13.98
Fixation R	1	3	3520209358	3520408236	198878	736.82	261.12	9	16	-1	16.89	16.89
Blink L	1	1	3520408236	3520587352	179116
Blink R	1	1	3520408236	3520587352	179116
Fixation L	1	4	3520587352	3521422687	835335	949.86	421.83	27	42	-1	14.02	14.02
Fixation R	1	4	3520587352	3521422687	835335	949.86	421.83	27	42	-1	15.19	15.19
Saccade L	1	3	3521422687	3521462427	39740	967.19	411.23	1040.71	451.03	1.62	92.29	0.50	40.74	2214.06	-860.96	1143.18
Saccade R	1	3	3521422687	3521462427	39740	967.19	411.23	1040.71	451.03	1.62	92.29	0.50	40.74	2214.06	-860.96	1143.18
Fixation L	1	5	3521462427	3521701170	238743	1058.12	502.09	24	69	-1	13.81	13.81
Fixation R	1	5	3521462427	3521701170	238743	1058.12	502.09	24	69	-1	14.97	14.97
