[BeGaze]
Converted from:	C:\Documents and Settings\iViewX\Desktop\EXPERIMENTATIONS\Experiments\results\finaleart\S8119532-finaleart-1.idf
Date:	27.03.2019 15:59:34
Version:	BeGaze 2.5.77
Sample Rate:	50
Subject:	S8119532
Description:	Alexandre Drewery

Table Header for Fixations:
Event Type	Trial	Number	Start	End	Duration	Location X	Location Y	Dispersion X	Dispersion Y	Plane	Avg. Pupil Size X	Avg. Pupil Size Y

Table Header for Saccades:
Event Type	Trial	Number	Start	End	Duration	Start Loc.X	Start Loc.Y	End Loc.X	End Loc.Y	Amplitude	Peak Speed	Peak Speed At	Average Speed	Peak Accel.	Peak Decel.	Average Accel.

Table Header for Blinks:
Event Type	Trial	Number	Start	End	Duration

Table Header for User Events:
Event Type	Trial	Number	Start	Description

UserEvent	1	1	2577377838	# Message: void.jpg
Fixation L	1	1	2577389589	2577584109	194520	956.39	751.89	11	32	-1	13.22	13.22
Fixation R	1	1	2577389589	2577584109	194520	956.39	751.89	11	32	-1	14.65	14.65
Saccade L	1	1	2577584109	2577608335	24226	958.76	753.13	784.24	777.33	1.34	178.18	1.00	55.16	3788.09	-4268.12	2699.57
Saccade R	1	1	2577584109	2577608335	24226	958.76	753.13	784.24	777.33	1.34	178.18	1.00	55.16	3788.09	-4268.12	2699.57
Fixation L	1	2	2577608335	2577767426	159091	789.15	791.74	11	40	-1	12.72	12.72
Fixation R	1	2	2577608335	2577767426	159091	789.15	791.74	11	40	-1	14.83	14.83
Blink L	1	1	2577767426	2577946438	179012
Saccade R	1	2	2577767426	2577926555	159129	789.72	810.29	1183.55	600.56	43.64	728.80	0.78	274.22	13003.62	-18124.53	11909.59
Fixation R	1	3	2577926555	2578145415	218860	1186.69	591.03	10	30	-1	14.42	14.42
Fixation L	1	3	2577946438	2578145415	198977	1186.98	590.16	10	30	-1	13.42	13.42
Blink L	1	2	2578145415	2578364146	218731
Blink R	1	1	2578145415	2578364146	218731
Saccade L	1	2	2578364146	2578483528	119382	918.85	651.33	913.79	679.95	8.61	222.80	1.00	72.09	2515.58	-3126.02	2136.90
Saccade R	1	3	2578364146	2578483528	119382	918.85	651.33	913.79	679.95	8.61	222.80	1.00	72.09	2515.58	-3126.02	2136.90
Fixation L	1	4	2578483528	2578602897	119369	915.62	697.22	34	55	-1	15.18	15.18
Fixation R	1	4	2578483528	2578602897	119369	915.62	697.22	34	55	-1	16.08	16.08
Saccade L	1	3	2578602897	2578622761	19864	908.43	729.54	906.29	840.47	1.25	112.23	1.00	62.87	1907.90	-1169.80	1263.90
Saccade R	1	4	2578602897	2578622761	19864	908.43	729.54	906.29	840.47	1.25	112.23	1.00	62.87	1907.90	-1169.80	1263.90
Fixation L	1	5	2578622761	2578793440	170679	905.86	820.59	3	67	-1	14.54	14.54
Fixation R	1	5	2578622761	2578793440	170679	905.86	820.59	3	67	-1	15.87	15.87
Saccade L	1	4	2578793440	2578864916	71476	906.51	832.54	905.38	815.01	15.78	534.38	1.00	220.83	13105.19	-13096.33	12836.44
Saccade R	1	5	2578793440	2578864916	71476	906.51	832.54	905.38	815.01	15.78	534.38	1.00	220.83	13105.19	-13096.33	12836.44
Fixation L	1	6	2578864916	2579060248	195332	901.39	822.13	20	45	-1	14.27	14.27
Fixation R	1	6	2578864916	2579060248	195332	901.39	822.13	20	45	-1	15.42	15.42
Saccade L	1	5	2579060248	2579119997	59749	915.76	798.55	951.16	541.71	3.20	144.35	0.33	53.61	3356.79	-1943.38	1417.48
Saccade R	1	6	2579060248	2579119997	59749	915.76	798.55	951.16	541.71	3.20	144.35	0.33	53.61	3356.79	-1943.38	1417.48
Fixation L	1	7	2579119997	2579438229	318232	972.69	551.98	27	31	-1	13.94	13.94
Fixation R	1	7	2579119997	2579438229	318232	972.69	551.98	27	31	-1	15.14	15.14
