[BeGaze]
Converted from:	C:\Documents and Settings\iViewX\Desktop\EXPERIMENTATIONS\Experiments\results\finaleart\S8119532-finaleart-1.idf
Date:	27.03.2019 16:01:03
Version:	BeGaze 2.5.77
Sample Rate:	50
Subject:	S8119532
Description:	Alexandre Drewery

Table Header for Fixations:
Event Type	Trial	Number	Start	End	Duration	Location X	Location Y	Dispersion X	Dispersion Y	Plane	Avg. Pupil Size X	Avg. Pupil Size Y

Table Header for Saccades:
Event Type	Trial	Number	Start	End	Duration	Start Loc.X	Start Loc.Y	End Loc.X	End Loc.Y	Amplitude	Peak Speed	Peak Speed At	Average Speed	Peak Accel.	Peak Decel.	Average Accel.

Table Header for Blinks:
Event Type	Trial	Number	Start	End	Duration

Table Header for User Events:
Event Type	Trial	Number	Start	Description

UserEvent	1	1	3452073801	# Message: void.jpg
Fixation L	1	1	3452086001	3452344616	258615	1296.18	233.35	52	31	-1	14.90	14.90
Fixation R	1	1	3452086001	3452344616	258615	1296.18	233.35	52	31	-1	16.70	16.70
Saccade L	1	1	3452344616	3452501614	156998	1261.39	239.76	1429.78	229.89	7.95	180.63	1.00	50.63	4106.91	-4274.00	2223.68
Saccade R	1	1	3452344616	3452501614	156998	1261.39	239.76	1429.78	229.89	7.95	180.63	1.00	50.63	4106.91	-4274.00	2223.68
Fixation L	1	2	3452501614	3452802082	300468	1422.35	239.23	23	51	-1	15.77	15.77
Fixation R	1	2	3452501614	3452802082	300468	1422.35	239.23	23	51	-1	17.61	17.61
Saccade L	1	2	3452802082	3452921470	119388	1415.75	254.37	1039.33	403.11	6.12	126.53	1.00	51.23	2405.94	-3068.06	1562.13
Saccade R	1	2	3452802082	3452921470	119388	1415.75	254.37	1039.33	403.11	6.12	126.53	1.00	51.23	2405.94	-3068.06	1562.13
Fixation L	1	3	3452921470	3453160062	238592	1016.13	390.92	35	28	-1	16.08	16.08
Fixation R	1	3	3452921470	3453160062	238592	1016.13	390.92	35	28	-1	17.97	17.97
Saccade L	1	3	3453160062	3453496480	336418	1003.47	398.37	871.58	510.02	25.81	232.79	0.24	76.72	4142.68	-5143.73	2102.65
Saccade R	1	3	3453160062	3453496480	336418	1003.47	398.37	871.58	510.02	25.81	232.79	0.24	76.72	4142.68	-5143.73	2102.65
Fixation L	1	4	3453496480	3453896042	399562	882.89	486.23	24	73	-1	14.33	14.33
Fixation R	1	4	3453496480	3453896042	399562	882.89	486.23	24	73	-1	16.75	16.75
Saccade L	1	4	3453896042	3453915903	19861	888.73	459.57	890.51	449.12	0.13	10.73	1.00	6.39	241.53	-194.79	188.82
Saccade R	1	4	3453896042	3453915903	19861	888.73	459.57	890.51	449.12	0.13	10.73	1.00	6.39	241.53	-194.79	188.82
Fixation L	1	5	3453915903	3454075022	159119	897.41	457.10	27	30	-1	13.79	13.79
Fixation R	1	5	3453915903	3454075022	159119	897.41	457.10	27	30	-1	16.42	16.42
