[BeGaze]
Converted from:	C:\Documents and Settings\iViewX\Desktop\EXPERIMENTATIONS\Experiments\results\finaleart\S8119532-finaleart-1.idf
Date:	27.03.2019 15:59:36
Version:	BeGaze 2.5.77
Sample Rate:	50
Subject:	S8119532
Description:	Alexandre Drewery

Table Header for Fixations:
Event Type	Trial	Number	Start	End	Duration	Location X	Location Y	Dispersion X	Dispersion Y	Plane	Avg. Pupil Size X	Avg. Pupil Size Y

Table Header for Saccades:
Event Type	Trial	Number	Start	End	Duration	Start Loc.X	Start Loc.Y	End Loc.X	End Loc.Y	Amplitude	Peak Speed	Peak Speed At	Average Speed	Peak Accel.	Peak Decel.	Average Accel.

Table Header for Blinks:
Event Type	Trial	Number	Start	End	Duration

Table Header for User Events:
Event Type	Trial	Number	Start	Description

UserEvent	1	1	2589857135	# Message: void.jpg
Saccade L	1	1	2589860621	2590052757	192136	694.91	420.08	935.81	723.21	9.97	193.74	1.00	51.89	4753.39	-4012.43	2098.46
Saccade R	1	1	2589860621	2590052757	192136	694.91	420.08	935.81	723.21	9.97	193.74	1.00	51.89	4753.39	-4012.43	2098.46
Fixation L	1	1	2590052757	2590273162	220405	943.25	715.73	12	38	-1	15.73	15.73
Fixation R	1	1	2590052757	2590273162	220405	943.25	715.73	12	38	-1	15.76	15.76
Saccade L	1	2	2590273162	2590298205	25043	942.86	705.85	1311.62	841.66	2.94	396.90	1.00	117.23	9898.82	-8888.67	6835.76
Saccade R	1	2	2590273162	2590298205	25043	942.86	705.85	1311.62	841.66	2.94	396.90	1.00	117.23	9898.82	-8888.67	6835.76
Fixation L	1	2	2590298205	2590536842	238637	1346.87	838.88	63	35	-1	15.44	15.44
Fixation R	1	2	2590298205	2590536842	238637	1346.87	838.88	63	35	-1	15.06	15.06
Saccade L	1	3	2590536842	2590616432	79590	1341.75	844.48	1347.91	861.20	1.20	25.35	1.00	15.02	3991.63	-259.40	903.81
Saccade R	1	3	2590536842	2590616432	79590	1341.75	844.48	1347.91	861.20	1.20	25.35	1.00	15.02	3991.63	-259.40	903.81
Blink L	1	1	2590616432	2590855048	238616
Blink R	1	1	2590616432	2590855048	238616
Saccade L	1	4	2590855048	2590874933	19885	978.29	521.20	981.47	555.57	5.97	1102.56	1.00	300.06	1061.84	-26691.11	9385.08
Saccade R	1	4	2590855048	2590874933	19885	978.29	521.20	981.47	555.57	5.97	1102.56	1.00	300.06	1061.84	-26691.11	9385.08
Fixation L	1	3	2590874933	2590994292	119359	973.34	609.02	15	74	-1	14.91	14.91
Fixation R	1	3	2590874933	2590994292	119359	973.34	609.02	15	74	-1	16.11	16.11
Saccade L	1	5	2590994292	2591014167	19875	966.31	629.15	962.29	638.83	0.30	22.15	1.00	15.19	137.80	-53.78	70.23
Saccade R	1	5	2590994292	2591014167	19875	966.31	629.15	962.29	638.83	0.30	22.15	1.00	15.19	137.80	-53.78	70.23
Fixation L	1	4	2591014167	2591173291	159124	959.01	603.06	8	70	-1	15.00	15.00
Fixation R	1	4	2591014167	2591173291	159124	959.01	603.06	8	70	-1	16.46	16.46
Saccade L	1	6	2591173291	2591193172	19881	957.47	568.57	875.76	560.07	0.62	83.10	1.00	31.20	1951.80	-1802.61	1438.86
Saccade R	1	6	2591173291	2591193172	19881	957.47	568.57	875.76	560.07	0.62	83.10	1.00	31.20	1951.80	-1802.61	1438.86
Fixation L	1	5	2591193172	2591690511	497339	867.55	549.95	51	43	-1	15.54	15.54
Fixation R	1	5	2591193172	2591690511	497339	867.55	549.95	51	43	-1	17.03	17.03
Saccade L	1	7	2591690511	2591710379	19868	834.02	537.86	829.73	524.15	0.29	22.89	1.00	14.53	432.16	-14.54	238.40
Saccade R	1	7	2591690511	2591710379	19868	834.02	537.86	829.73	524.15	0.29	22.89	1.00	14.53	432.16	-14.54	238.40
Fixation L	1	6	2591710379	2591849628	139249	827.08	525.30	15	29	-1	15.79	15.79
Fixation R	1	6	2591710379	2591849628	139249	827.08	525.30	15	29	-1	17.47	17.47
