[BeGaze]
Converted from:	C:\Documents and Settings\iViewX\Desktop\EXPERIMENTATIONS\Experiments\results\finaleart\S8119532-finaleart-1.idf
Date:	27.03.2019 16:00:08
Version:	BeGaze 2.5.77
Sample Rate:	50
Subject:	S8119532
Description:	Alexandre Drewery

Table Header for Fixations:
Event Type	Trial	Number	Start	End	Duration	Location X	Location Y	Dispersion X	Dispersion Y	Plane	Avg. Pupil Size X	Avg. Pupil Size Y

Table Header for Saccades:
Event Type	Trial	Number	Start	End	Duration	Start Loc.X	Start Loc.Y	End Loc.X	End Loc.Y	Amplitude	Peak Speed	Peak Speed At	Average Speed	Peak Accel.	Peak Decel.	Average Accel.

Table Header for Blinks:
Event Type	Trial	Number	Start	End	Duration

Table Header for User Events:
Event Type	Trial	Number	Start	Description

UserEvent	1	1	2982625113	# Message: void.jpg
Fixation L	1	1	2982642014	2982761391	119377	1233.80	952.37	4	5	-1	10.69	10.69
Fixation R	1	1	2982642014	2982761391	119377	1233.80	952.37	4	5	-1	12.10	12.10
Saccade L	1	1	2982761391	2982781240	19849	1236.30	949.65	1356.28	899.85	0.79	131.40	1.00	39.98	3230.58	-2064.56	1921.55
Saccade R	1	1	2982761391	2982781240	19849	1236.30	949.65	1356.28	899.85	0.79	131.40	1.00	39.98	3230.58	-2064.56	1921.55
Fixation L	1	2	2982781240	2982880628	99388	1377.01	877.35	34	56	-1	10.89	10.89
Fixation R	1	2	2982781240	2982880628	99388	1377.01	877.35	34	56	-1	12.03	12.03
Saccade L	1	2	2982880628	2982900492	19864	1390.51	852.04	1399.22	850.84	0.21	14.26	0.00	10.77	-41.90	-126.51	71.50
Saccade R	1	2	2982880628	2982900492	19864	1390.51	852.04	1399.22	850.84	0.21	14.26	0.00	10.77	-41.90	-126.51	71.50
Fixation L	1	3	2982900492	2983059606	159114	1397.45	846.81	12	22	-1	10.94	10.94
Fixation R	1	3	2982900492	2983059606	159114	1397.45	846.81	12	22	-1	11.82	11.82
Saccade L	1	3	2983059606	2983142442	82836	1402.51	830.58	1449.99	465.18	6.97	258.74	0.25	84.15	6390.06	-5938.11	4283.73
Saccade R	1	3	2983059606	2983142442	82836	1402.51	830.58	1449.99	465.18	6.97	258.74	0.25	84.15	6390.06	-5938.11	4283.73
Fixation L	1	4	2983142442	2983357969	215527	1474.69	455.53	36	26	-1	10.94	10.94
Fixation R	1	4	2983142442	2983357969	215527	1474.69	455.53	36	26	-1	11.82	11.82
Blink L	1	1	2983357969	2983636454	278485
Blink R	1	1	2983357969	2983636454	278485
Fixation L	1	5	2983636454	2984611043	974589	738.91	552.76	21	55	-1	13.47	13.47
Fixation R	1	5	2983636454	2984611043	974589	738.91	552.76	21	55	-1	14.41	14.41
