[BeGaze]
Converted from:	C:\Documents and Settings\iViewX\Desktop\EXPERIMENTATIONS\Experiments\results\finaleart\S8119532-finaleart-1.idf
Date:	27.03.2019 16:00:17
Version:	BeGaze 2.5.77
Sample Rate:	50
Subject:	S8119532
Description:	Alexandre Drewery

Table Header for Fixations:
Event Type	Trial	Number	Start	End	Duration	Location X	Location Y	Dispersion X	Dispersion Y	Plane	Avg. Pupil Size X	Avg. Pupil Size Y

Table Header for Saccades:
Event Type	Trial	Number	Start	End	Duration	Start Loc.X	Start Loc.Y	End Loc.X	End Loc.Y	Amplitude	Peak Speed	Peak Speed At	Average Speed	Peak Accel.	Peak Decel.	Average Accel.

Table Header for Blinks:
Event Type	Trial	Number	Start	End	Duration

Table Header for User Events:
Event Type	Trial	Number	Start	Description

UserEvent	1	1	3040053151	# Message: paysage_avec_du_betail_au_limousin_jules-dupre_1837.jpg
Fixation L	1	1	3040064505	3040382728	318223	933.51	576.29	6	92	-1	15.69	15.69
Fixation R	1	1	3040064505	3040382728	318223	933.51	576.29	6	92	-1	17.03	17.03
Saccade L	1	1	3040382728	3040402603	19875	933.69	541.41	933.95	527.24	0.15	14.33	1.00	7.77	182.66	-285.09	161.45
Saccade R	1	1	3040382728	3040402603	19875	933.69	541.41	933.95	527.24	0.15	14.33	1.00	7.77	182.66	-285.09	161.45
Fixation L	1	2	3040402603	3040800472	397869	929.66	520.98	8	13	-1	16.03	16.03
Fixation R	1	2	3040402603	3040800472	397869	929.66	520.98	8	13	-1	17.62	17.62
Saccade L	1	2	3040800472	3040820350	19878	925.70	522.44	994.97	563.64	0.69	81.53	1.00	34.74	1995.37	-1034.48	1406.85
Saccade R	1	2	3040800472	3040820350	19878	925.70	522.44	994.97	563.64	0.69	81.53	1.00	34.74	1995.37	-1034.48	1406.85
Fixation L	1	3	3040820350	3040979453	159103	996.12	551.10	23	75	-1	15.87	15.87
Fixation R	1	3	3040820350	3040979453	159103	996.12	551.10	23	75	-1	17.23	17.23
Saccade L	1	3	3040979453	3041019206	39753	986.68	590.75	768.73	942.56	3.79	212.85	0.50	95.26	5195.03	-5036.03	4795.34
Saccade R	1	3	3040979453	3041019206	39753	986.68	590.75	768.73	942.56	3.79	212.85	0.50	95.26	5195.03	-5036.03	4795.34
Fixation L	1	4	3041019206	3041337436	318230	782.45	944.04	25	33	-1	13.88	13.88
Fixation R	1	4	3041019206	3041337436	318230	782.45	944.04	25	33	-1	15.13	15.13
Saccade L	1	4	3041337436	3041377185	39749	793.83	951.95	573.08	961.75	2.07	131.61	0.50	51.99	2977.85	-2937.71	2378.03
Saccade R	1	4	3041337436	3041377185	39749	793.83	951.95	573.08	961.75	2.07	131.61	0.50	51.99	2977.85	-2937.71	2378.03
Fixation L	1	5	3041377185	3041635808	258623	580.05	941.77	59	39	-1	12.50	12.50
Fixation R	1	5	3041377185	3041635808	258623	580.05	941.77	59	39	-1	13.97	13.97
Saccade L	1	5	3041635808	3041655665	19857	528.68	928.21	523.63	933.08	0.39	51.48	0.00	19.68	61.95	-898.77	326.23
Saccade R	1	5	3041635808	3041655665	19857	528.68	928.21	523.63	933.08	0.39	51.48	0.00	19.68	61.95	-898.77	326.23
Fixation L	1	6	3041655665	3041973912	318247	494.85	937.22	53	23	-1	11.66	11.66
Fixation R	1	6	3041655665	3041973912	318247	494.85	937.22	53	23	-1	13.09	13.09
Saccade L	1	6	3041973912	3042033648	59736	469.97	922.76	1019.57	562.33	7.09	303.63	0.33	118.74	7513.76	-6996.27	5792.42
Saccade R	1	6	3041973912	3042033648	59736	469.97	922.76	1019.57	562.33	7.09	303.63	0.33	118.74	7513.76	-6996.27	5792.42
Fixation L	1	7	3042033648	3042252386	218738	1010.22	583.60	20	32	-1	12.00	12.00
Fixation R	1	7	3042033648	3042252386	218738	1010.22	583.60	20	32	-1	12.69	12.69
Saccade L	1	7	3042252386	3042272273	19887	1004.54	584.76	1000.79	446.07	0.88	140.33	1.00	44.11	3415.16	-3063.89	2357.30
Saccade R	1	7	3042252386	3042272273	19887	1004.54	584.76	1000.79	446.07	0.88	140.33	1.00	44.11	3415.16	-3063.89	2357.30
Fixation L	1	8	3042272273	3042550753	278480	999.66	448.23	29	57	-1	11.83	11.83
Fixation R	1	8	3042272273	3042550753	278480	999.66	448.23	29	57	-1	12.46	12.46
Saccade L	1	8	3042550753	3042590507	39754	1024.49	475.73	1101.23	502.29	1.91	120.87	0.50	47.94	2677.95	-2132.17	1414.64
Saccade R	1	8	3042550753	3042590507	39754	1024.49	475.73	1101.23	502.29	1.91	120.87	0.50	47.94	2677.95	-2132.17	1414.64
Fixation L	1	9	3042590507	3042849115	258608	1113.32	536.87	32	61	-1	12.15	12.15
Fixation R	1	9	3042590507	3042849115	258608	1113.32	536.87	32	61	-1	12.83	12.83
Saccade L	1	9	3042849115	3042888855	39740	1129.04	540.79	1020.12	816.65	2.51	237.79	0.50	63.10	5874.38	-5826.27	3749.06
Saccade R	1	9	3042849115	3042888855	39740	1129.04	540.79	1020.12	816.65	2.51	237.79	0.50	63.10	5874.38	-5826.27	3749.06
Fixation L	1	10	3042888855	3043087745	198890	1019.88	823.32	10	24	-1	12.42	12.42
Fixation R	1	10	3042888855	3043087745	198890	1019.88	823.32	10	24	-1	13.44	13.44
Saccade L	1	10	3043087745	3043127606	39861	1019.08	826.72	1342.60	938.20	3.07	257.34	0.50	77.13	5830.63	-6337.46	4075.38
Saccade R	1	10	3043087745	3043127606	39861	1019.08	826.72	1342.60	938.20	3.07	257.34	0.50	77.13	5830.63	-6337.46	4075.38
Fixation L	1	11	3043127606	3043405967	278361	1342.27	941.53	27	17	-1	12.75	12.75
Fixation R	1	11	3043127606	3043405967	278361	1342.27	941.53	27	17	-1	13.53	13.53
Saccade L	1	11	3043405967	3043445834	39867	1321.08	947.11	736.20	913.17	5.06	411.04	0.50	127.02	10119.27	-9997.78	6975.33
Saccade R	1	11	3043405967	3043445834	39867	1321.08	947.11	736.20	913.17	5.06	411.04	0.50	127.02	10119.27	-9997.78	6975.33
Fixation L	1	12	3043445834	3043943080	497246	768.16	944.25	49	46	-1	12.97	12.97
Fixation R	1	12	3043445834	3043943080	497246	768.16	944.25	49	46	-1	14.38	14.38
Saccade L	1	12	3043943080	3043962941	19861	738.29	942.87	719.47	932.64	0.35	32.34	0.00	17.46	385.03	-568.97	349.55
Saccade R	1	12	3043943080	3043962941	19861	738.29	942.87	719.47	932.64	0.35	32.34	0.00	17.46	385.03	-568.97	349.55
Fixation L	1	13	3043962941	3044062433	99492	730.72	946.77	51	25	-1	12.80	12.80
Fixation R	1	13	3043962941	3044062433	99492	730.72	946.77	51	25	-1	14.80	14.80
Saccade L	1	13	3044062433	3044082304	19871	768.17	958.45	1141.04	963.58	2.93	376.70	1.00	147.56	9083.47	0.00	4541.73
Saccade R	1	13	3044062433	3044082304	19871	768.17	958.45	1141.04	963.58	2.93	376.70	1.00	147.56	9083.47	0.00	4541.73
