[BeGaze]
Converted from:	C:\Documents and Settings\iViewX\Desktop\EXPERIMENTATIONS\Experiments\results\finaleart\S8119532-finaleart-1.idf
Date:	27.03.2019 16:01:30
Version:	BeGaze 2.5.77
Sample Rate:	50
Subject:	S8119532
Description:	Alexandre Drewery

Table Header for Fixations:
Event Type	Trial	Number	Start	End	Duration	Location X	Location Y	Dispersion X	Dispersion Y	Plane	Avg. Pupil Size X	Avg. Pupil Size Y

Table Header for Saccades:
Event Type	Trial	Number	Start	End	Duration	Start Loc.X	Start Loc.Y	End Loc.X	End Loc.Y	Amplitude	Peak Speed	Peak Speed At	Average Speed	Peak Accel.	Peak Decel.	Average Accel.

Table Header for Blinks:
Event Type	Trial	Number	Start	End	Duration

Table Header for User Events:
Event Type	Trial	Number	Start	Description

UserEvent	1	1	3729223832	# Message: void.jpg
Fixation L	1	1	3729227858	3729327347	99489	1098.65	421.86	5	25	-1	12.81	12.81
Fixation R	1	1	3729227858	3729327347	99489	1098.65	421.86	5	25	-1	14.24	14.24
Saccade L	1	1	3729327347	3729383267	55920	1095.84	421.02	1326.27	413.13	2.99	134.41	1.00	53.44	3153.25	-3105.81	2686.09
Saccade R	1	1	3729327347	3729383267	55920	1095.84	421.02	1326.27	413.13	2.99	134.41	1.00	53.44	3153.25	-3105.81	2686.09
Fixation L	1	2	3729383267	3729645582	262315	1339.95	409.44	31	12	-1	13.39	13.39
Fixation R	1	2	3729383267	3729645582	262315	1339.95	409.44	31	12	-1	14.29	14.29
Saccade L	1	2	3729645582	3729665454	19872	1357.82	402.39	1374.71	340.35	0.44	65.05	1.00	22.23	1585.74	-1498.37	1108.58
Saccade R	1	2	3729645582	3729665454	19872	1357.82	402.39	1374.71	340.35	0.44	65.05	1.00	22.23	1585.74	-1498.37	1108.58
Fixation L	1	3	3729665454	3729864329	198875	1386.72	339.86	26	43	-1	13.83	13.83
Fixation R	1	3	3729665454	3729864329	198875	1386.72	339.86	26	43	-1	14.51	14.51
Saccade L	1	3	3729864329	3729943976	79647	1393.33	331.56	1000.71	463.33	5.45	150.57	0.50	68.46	3680.74	-2541.43	2063.87
Saccade R	1	3	3729864329	3729943976	79647	1393.33	331.56	1000.71	463.33	5.45	150.57	0.50	68.46	3680.74	-2541.43	2063.87
Fixation L	1	4	3729943976	3730063313	119337	990.80	474.13	27	70	-1	13.99	13.99
Fixation R	1	4	3729943976	3730063313	119337	990.80	474.13	27	70	-1	15.37	15.37
Saccade L	1	4	3730063313	3730083220	19907	976.93	509.98	980.54	520.76	0.22	13.84	1.00	11.13	-58.64	-246.58	127.75
Saccade R	1	4	3730063313	3730083220	19907	976.93	509.98	980.54	520.76	0.22	13.84	1.00	11.13	-58.64	-246.58	127.75
Fixation L	1	5	3730083220	3730182559	99339	980.80	520.61	15	17	-1	14.18	14.18
Fixation R	1	5	3730083220	3730182559	99339	980.80	520.61	15	17	-1	15.81	15.81
Blink L	1	1	3730182559	3730361682	179123
Blink R	1	1	3730182559	3730361682	179123
Fixation L	1	6	3730361682	3731057771	696089	884.45	528.14	20	51	-1	13.29	13.29
Fixation R	1	6	3730361682	3731057771	696089	884.45	528.14	20	51	-1	14.48	14.48
Saccade L	1	5	3731057771	3731077632	19861	886.20	514.03	895.12	422.65	0.75	92.88	1.00	37.79	2070.45	-2186.50	1611.81
Saccade R	1	5	3731057771	3731077632	19861	886.20	514.03	895.12	422.65	0.75	92.88	1.00	37.79	2070.45	-2186.50	1611.81
Fixation L	1	7	3731077632	3731256616	178984	889.10	461.24	10	67	-1	12.31	12.31
Fixation R	1	7	3731077632	3731256616	178984	889.10	461.24	10	67	-1	14.04	14.04
