[BeGaze]
Converted from:	C:\Documents and Settings\iViewX\Desktop\EXPERIMENTATIONS\Experiments\results\finaleart\S8119532-finaleart-1.idf
Date:	27.03.2019 16:00:05
Version:	BeGaze 2.5.77
Sample Rate:	50
Subject:	S8119532
Description:	Alexandre Drewery

Table Header for Fixations:
Event Type	Trial	Number	Start	End	Duration	Location X	Location Y	Dispersion X	Dispersion Y	Plane	Avg. Pupil Size X	Avg. Pupil Size Y

Table Header for Saccades:
Event Type	Trial	Number	Start	End	Duration	Start Loc.X	Start Loc.Y	End Loc.X	End Loc.Y	Amplitude	Peak Speed	Peak Speed At	Average Speed	Peak Accel.	Peak Decel.	Average Accel.

Table Header for Blinks:
Event Type	Trial	Number	Start	End	Duration

Table Header for User Events:
Event Type	Trial	Number	Start	Description

UserEvent	1	1	2966305666	# Message: morning_Daubigny_1858.jpg
Fixation L	1	1	2966312301	2967028251	715950	871.63	476.40	32	65	-1	13.84	13.84
Fixation R	1	1	2966312301	2967028251	715950	871.63	476.40	32	65	-1	15.10	15.10
Saccade L	1	1	2967028251	2967048254	20003	861.58	497.56	857.86	702.34	1.18	207.11	1.00	58.93	5172.97	-4360.93	3258.40
Saccade R	1	1	2967028251	2967048254	20003	861.58	497.56	857.86	702.34	1.18	207.11	1.00	58.93	5172.97	-4360.93	3258.40
Fixation L	1	2	2967048254	2967303456	255202	840.45	710.24	28	33	-1	14.49	14.49
Fixation R	1	2	2967048254	2967303456	255202	840.45	710.24	28	33	-1	15.46	15.46
Saccade L	1	2	2967303456	2967326616	23160	829.03	698.36	685.75	859.66	1.57	218.15	1.00	67.72	5134.94	-5208.96	3603.91
Saccade R	1	2	2967303456	2967326616	23160	829.03	698.36	685.75	859.66	1.57	218.15	1.00	67.72	5134.94	-5208.96	3603.91
Fixation L	1	3	2967326616	2967664842	338226	702.84	896.18	24	69	-1	11.09	11.09
Fixation R	1	3	2967326616	2967664842	338226	702.84	896.18	24	69	-1	12.13	12.13
Saccade L	1	3	2967664842	2967684737	19895	698.94	899.91	696.99	936.53	0.57	48.31	1.00	28.87	822.39	-458.75	614.24
Saccade R	1	3	2967664842	2967684737	19895	698.94	899.91	696.99	936.53	0.57	48.31	1.00	28.87	822.39	-458.75	614.24
Fixation L	1	4	2967684737	2967823958	139221	686.61	908.14	38	47	-1	10.83	10.83
Fixation R	1	4	2967684737	2967823958	139221	686.61	908.14	38	47	-1	11.50	11.50
Saccade L	1	4	2967823958	2967843855	19897	658.99	903.68	619.12	885.34	0.49	44.39	1.00	24.69	576.64	-985.62	630.98
Saccade R	1	4	2967823958	2967843855	19897	658.99	903.68	619.12	885.34	0.49	44.39	1.00	24.69	576.64	-985.62	630.98
Fixation L	1	5	2967843855	2968042703	198848	611.96	859.35	31	63	-1	10.65	10.65
Fixation R	1	5	2967843855	2968042703	198848	611.96	859.35	31	63	-1	11.72	11.72
Saccade L	1	5	2968042703	2968062590	19887	597.06	854.42	582.72	850.56	0.42	34.97	0.00	21.06	-107.87	-847.66	469.92
Saccade R	1	5	2968042703	2968062590	19887	597.06	854.42	582.72	850.56	0.42	34.97	0.00	21.06	-107.87	-847.66	469.92
Fixation L	1	6	2968062590	2968559801	497211	556.35	849.78	39	45	-1	10.57	10.57
Fixation R	1	6	2968062590	2968559801	497211	556.35	849.78	39	45	-1	11.91	11.91
Saccade L	1	6	2968559801	2968818428	258627	550.73	847.04	1113.06	715.68	18.37	263.12	1.00	71.03	6042.30	-6321.57	2479.81
Saccade R	1	6	2968559801	2968818428	258627	550.73	847.04	1113.06	715.68	18.37	263.12	1.00	71.03	6042.30	-6321.57	2479.81
Fixation L	1	7	2968818428	2969096896	278468	1141.18	686.83	37	43	-1	11.40	11.40
Fixation R	1	7	2968818428	2969096896	278468	1141.18	686.83	37	43	-1	11.61	11.61
Saccade L	1	7	2969096896	2969136654	39758	1148.82	683.73	1412.50	648.95	2.35	176.89	1.00	59.06	4211.94	-4169.91	3156.37
Saccade R	1	7	2969096896	2969136654	39758	1148.82	683.73	1412.50	648.95	2.35	176.89	1.00	59.06	4211.94	-4169.91	3156.37
Fixation L	1	8	2969136654	2969415141	278487	1407.34	637.29	28	26	-1	10.91	10.91
Fixation R	1	8	2969136654	2969415141	278487	1407.34	637.29	28	26	-1	11.04	11.04
Saccade L	1	8	2969415141	2969454879	39738	1397.84	643.99	1141.25	665.66	2.34	150.44	0.50	58.80	3518.64	-3442.08	3020.75
Saccade R	1	8	2969415141	2969454879	39738	1397.84	643.99	1141.25	665.66	2.34	150.44	0.50	58.80	3518.64	-3442.08	3020.75
Fixation L	1	9	2969454879	2969753239	298360	1141.02	659.09	9	41	-1	11.26	11.26
Fixation R	1	9	2969454879	2969753239	298360	1141.02	659.09	9	41	-1	11.00	11.00
Saccade L	1	9	2969753239	2969793806	40567	1140.70	632.24	751.68	886.72	4.67	268.69	0.49	115.21	6151.02	-5091.54	5345.02
Saccade R	1	9	2969753239	2969793806	40567	1140.70	632.24	751.68	886.72	4.67	268.69	0.49	115.21	6151.02	-5091.54	5345.02
Fixation L	1	10	2969793806	2970051605	257799	743.80	863.74	13	70	-1	10.24	10.24
Fixation R	1	10	2969793806	2970051605	257799	743.80	863.74	13	70	-1	11.01	11.01
Saccade L	1	10	2970051605	2970091352	39747	745.77	893.04	836.60	889.65	1.23	52.32	1.00	30.85	767.07	-971.04	696.97
Saccade R	1	10	2970051605	2970091352	39747	745.77	893.04	836.60	889.65	1.23	52.32	1.00	30.85	767.07	-971.04	696.97
Fixation L	1	11	2970091352	2970290221	198869	871.88	906.94	49	48	-1	10.40	10.40
Fixation R	1	11	2970091352	2970290221	198869	871.88	906.94	49	48	-1	11.39	11.39
