[BeGaze]
Converted from:	C:\Documents and Settings\iViewX\Desktop\EXPERIMENTATIONS\Experiments\results\finaleart\S8119532-finaleart-1.idf
Date:	27.03.2019 16:00:38
Version:	BeGaze 2.5.77
Sample Rate:	50
Subject:	S8119532
Description:	Alexandre Drewery

Table Header for Fixations:
Event Type	Trial	Number	Start	End	Duration	Location X	Location Y	Dispersion X	Dispersion Y	Plane	Avg. Pupil Size X	Avg. Pupil Size Y

Table Header for Saccades:
Event Type	Trial	Number	Start	End	Duration	Start Loc.X	Start Loc.Y	End Loc.X	End Loc.Y	Amplitude	Peak Speed	Peak Speed At	Average Speed	Peak Accel.	Peak Decel.	Average Accel.

Table Header for Blinks:
Event Type	Trial	Number	Start	End	Duration

Table Header for User Events:
Event Type	Trial	Number	Start	Description

UserEvent	1	1	3227318140	# Message: lying-nude_ury_1889.jpg
Fixation L	1	1	3227334400	3227760688	426288	901.21	450.99	22	66	-1	14.31	14.31
Fixation R	1	1	3227334400	3227760688	426288	901.21	450.99	22	66	-1	16.00	16.00
Saccade L	1	1	3227760688	3227802789	42101	913.54	482.61	912.45	522.80	0.95	40.66	1.00	22.67	950.75	275.71	621.74
Saccade R	1	1	3227760688	3227802789	42101	913.54	482.61	912.45	522.80	0.95	40.66	1.00	22.67	950.75	275.71	621.74
Fixation L	1	2	3227802789	3228090246	287457	904.58	530.16	12	51	-1	14.97	14.97
Fixation R	1	2	3227802789	3228090246	287457	904.58	530.16	12	51	-1	16.11	16.11
Saccade L	1	2	3228090246	3228110105	19859	900.14	536.57	889.93	653.07	0.71	118.29	1.00	35.65	2888.23	-2550.08	1893.82
Saccade R	1	2	3228090246	3228110105	19859	900.14	536.57	889.93	653.07	0.71	118.29	1.00	35.65	2888.23	-2550.08	1893.82
Fixation L	1	3	3228110105	3228299866	189761	875.07	654.63	23	12	-1	14.84	14.84
Fixation R	1	3	3228110105	3228299866	189761	875.07	654.63	23	12	-1	15.96	15.96
Saccade L	1	3	3228299866	3228328985	29119	867.75	658.02	324.75	549.69	4.42	558.36	1.00	151.64	13551.82	-13673.95	9158.94
Saccade R	1	3	3228299866	3228328985	29119	867.75	658.02	324.75	549.69	4.42	558.36	1.00	151.64	13551.82	-13673.95	9158.94
Fixation L	1	4	3228328985	3228507958	178973	329.89	578.54	18	54	-1	12.76	12.76
Fixation R	1	4	3228328985	3228507958	178973	329.89	578.54	18	54	-1	14.19	14.19
Saccade L	1	4	3228507958	3228527848	19890	323.92	604.60	331.55	638.37	0.44	35.03	1.00	22.17	709.41	-348.36	486.51
Saccade R	1	4	3228507958	3228527848	19890	323.92	604.60	331.55	638.37	0.44	35.03	1.00	22.17	709.41	-348.36	486.51
Fixation L	1	5	3228527848	3228726701	198853	327.50	619.60	18	72	-1	12.40	12.40
Fixation R	1	5	3228527848	3228726701	198853	327.50	619.60	18	72	-1	13.57	13.57
Saccade L	1	5	3228726701	3228746718	20017	328.46	662.44	329.77	675.07	0.21	26.32	1.00	10.64	19.07	-336.65	138.44
Saccade R	1	5	3228726701	3228746718	20017	328.46	662.44	329.77	675.07	0.21	26.32	1.00	10.64	19.07	-336.65	138.44
Fixation L	1	6	3228746718	3228965464	218746	335.83	678.03	28	21	-1	12.47	12.47
Fixation R	1	6	3228746718	3228965464	218746	335.83	678.03	28	21	-1	14.43	14.43
Saccade L	1	6	3228965464	3228985309	19845	352.79	678.86	525.91	674.28	0.97	175.14	1.00	48.74	4206.56	-3800.06	2685.62
Saccade R	1	6	3228965464	3228985309	19845	352.79	678.86	525.91	674.28	0.97	175.14	1.00	48.74	4206.56	-3800.06	2685.62
Fixation L	1	7	3228985309	3229323422	338113	542.23	665.52	30	23	-1	13.35	13.35
Fixation R	1	7	3228985309	3229323422	338113	542.23	665.52	30	23	-1	14.83	14.83
Saccade L	1	7	3229323422	3229343302	19880	551.27	669.78	738.78	692.55	1.18	191.01	1.00	59.13	4712.60	-4527.66	3234.23
Saccade R	1	7	3229323422	3229343302	19880	551.27	669.78	738.78	692.55	1.18	191.01	1.00	59.13	4712.60	-4527.66	3234.23
Fixation L	1	8	3229343302	3229601915	258613	746.89	702.28	19	44	-1	14.51	14.51
Fixation R	1	8	3229343302	3229601915	258613	746.89	702.28	19	44	-1	15.55	15.55
Saccade L	1	8	3229601915	3229641656	39741	748.41	705.65	1089.19	708.86	2.96	215.17	0.50	74.45	5231.90	-5102.96	4023.90
Saccade R	1	8	3229601915	3229641656	39741	748.41	705.65	1089.19	708.86	2.96	215.17	0.50	74.45	5231.90	-5102.96	4023.90
Fixation L	1	9	3229641656	3229999773	358117	1095.40	697.80	33	42	-1	14.78	14.78
Fixation R	1	9	3229641656	3229999773	358117	1095.40	697.80	33	42	-1	15.63	15.63
Saccade L	1	9	3229999773	3230039520	39747	1112.49	673.55	1485.07	685.90	3.39	236.07	0.50	85.27	5651.65	-5415.30	4370.51
Saccade R	1	9	3229999773	3230039520	39747	1112.49	673.55	1485.07	685.90	3.39	236.07	0.50	85.27	5651.65	-5415.30	4370.51
Fixation L	1	10	3230039520	3230218512	178992	1466.93	689.57	29	13	-1	14.06	14.06
Fixation R	1	10	3230039520	3230218512	178992	1466.93	689.57	29	13	-1	14.20	14.20
Saccade L	1	10	3230218512	3230238382	19870	1477.60	698.15	1638.99	694.22	0.92	163.27	1.00	46.47	4005.85	-3949.39	2732.67
Saccade R	1	10	3230218512	3230238382	19870	1477.60	698.15	1638.99	694.22	0.92	163.27	1.00	46.47	4005.85	-3949.39	2732.67
Fixation L	1	11	3230238382	3230417381	178999	1627.86	699.96	27	12	-1	14.00	14.00
Fixation R	1	11	3230238382	3230417381	178999	1627.86	699.96	27	12	-1	13.62	13.62
Saccade L	1	11	3230417381	3230477133	59752	1611.52	701.39	1312.99	287.95	5.60	249.23	0.67	93.72	6017.73	-5419.59	4388.00
Saccade R	1	11	3230417381	3230477133	59752	1611.52	701.39	1312.99	287.95	5.60	249.23	0.67	93.72	6017.73	-5419.59	4388.00
Fixation L	1	12	3230477133	3230815224	338091	1309.98	256.73	19	41	-1	13.08	13.08
Fixation R	1	12	3230477133	3230815224	338091	1309.98	256.73	19	41	-1	13.31	13.31
Blink L	1	1	3230815224	3231053843	238619
Blink R	1	1	3230815224	3231053843	238619
Fixation L	1	13	3231053843	3231193078	139235	348.12	558.46	4	20	-1	14.36	14.36
Fixation R	1	13	3231053843	3231193078	139235	348.12	558.46	4	20	-1	15.00	15.00
Saccade L	1	12	3231193078	3231212960	19882	351.06	554.78	267.62	565.25	0.53	85.07	1.00	26.42	2000.55	-1927.84	1329.18
Saccade R	1	12	3231193078	3231212960	19882	351.06	554.78	267.62	565.25	0.53	85.07	1.00	26.42	2000.55	-1927.84	1329.18
Fixation L	1	14	3231212960	3231312453	99493	258.56	571.99	14	26	-1	13.15	13.15
Fixation R	1	14	3231212960	3231312453	99493	258.56	571.99	14	26	-1	14.25	14.25
