[BeGaze]
Converted from:	C:\Documents and Settings\iViewX\Desktop\EXPERIMENTATIONS\Experiments\results\finaleart\S8119532-finaleart-1.idf
Date:	27.03.2019 15:59:15
Version:	BeGaze 2.5.77
Sample Rate:	50
Subject:	S8119532
Description:	Alexandre Drewery

Table Header for Fixations:
Event Type	Trial	Number	Start	End	Duration	Location X	Location Y	Dispersion X	Dispersion Y	Plane	Avg. Pupil Size X	Avg. Pupil Size Y

Table Header for Saccades:
Event Type	Trial	Number	Start	End	Duration	Start Loc.X	Start Loc.Y	End Loc.X	End Loc.Y	Amplitude	Peak Speed	Peak Speed At	Average Speed	Peak Accel.	Peak Decel.	Average Accel.

Table Header for Blinks:
Event Type	Trial	Number	Start	End	Duration

Table Header for User Events:
Event Type	Trial	Number	Start	Description

UserEvent	1	1	2462222292	# Message: the-large-bathers_renoir_1887.jpg
Fixation L	1	1	2462226236	2462584331	358095	811.11	479.25	45	53	-1	12.63	12.63
Fixation R	1	1	2462226236	2462584331	358095	811.11	479.25	45	53	-1	16.03	16.03
Saccade L	1	1	2462584331	2462604193	19862	848.10	470.77	861.49	468.70	0.27	19.51	0.00	13.78	-2.83	-285.77	127.99
Saccade R	1	1	2462584331	2462604193	19862	848.10	470.77	861.49	468.70	0.27	19.51	0.00	13.78	-2.83	-285.77	127.99
Fixation L	1	2	2462604193	2463161063	556870	849.36	461.59	43	49	-1	13.65	13.65
Fixation R	1	2	2462604193	2463161063	556870	849.36	461.59	43	49	-1	16.95	16.95
Saccade L	1	2	2463161063	2463181058	19995	834.97	425.52	823.07	392.88	0.52	38.08	0.00	26.00	434.26	-627.06	427.35
Saccade R	1	2	2463161063	2463181058	19995	834.97	425.52	823.07	392.88	0.52	38.08	0.00	26.00	434.26	-627.06	427.35
Fixation L	1	3	2463181058	2463353592	172534	817.68	371.24	27	56	-1	12.14	12.14
Fixation R	1	3	2463181058	2463353592	172534	817.68	371.24	27	56	-1	15.26	15.26
Saccade L	1	3	2463353592	2463379928	26336	802.57	366.44	379.97	507.29	3.20	449.71	1.00	121.53	10896.58	-11084.74	7373.03
Saccade R	1	3	2463353592	2463379928	26336	802.57	366.44	379.97	507.29	3.20	449.71	1.00	121.53	10896.58	-11084.74	7373.03
Fixation L	1	4	2463379928	2463797663	417735	394.31	491.19	25	49	-1	10.45	10.45
Fixation R	1	4	2463379928	2463797663	417735	394.31	491.19	25	49	-1	13.62	13.62
Saccade L	1	4	2463797663	2463817528	19865	394.09	477.75	347.26	470.21	0.40	47.98	1.00	20.30	996.07	-891.73	686.24
Saccade R	1	4	2463797663	2463817528	19865	394.09	477.75	347.26	470.21	0.40	47.98	1.00	20.30	996.07	-891.73	686.24
Fixation L	1	5	2463817528	2464155631	338103	347.86	472.68	27	35	-1	10.02	10.02
Fixation R	1	5	2463817528	2464155631	338103	347.86	472.68	27	35	-1	13.31	13.31
Saccade L	1	5	2464155631	2464195382	39751	341.07	461.16	738.38	172.68	4.66	258.17	1.00	117.29	5686.10	-6081.26	5727.96
Saccade R	1	5	2464155631	2464195382	39751	341.07	461.16	738.38	172.68	4.66	258.17	1.00	117.29	5686.10	-6081.26	5727.96
Fixation L	1	6	2464195382	2464573245	377863	751.51	170.24	25	30	-1	11.07	11.07
Fixation R	1	6	2464195382	2464573245	377863	751.51	170.24	25	30	-1	13.69	13.69
Saccade L	1	6	2464573245	2464652863	79618	755.81	181.36	1305.36	383.52	7.58	318.36	0.50	95.22	7813.82	-6325.94	3888.55
Saccade R	1	6	2464573245	2464652863	79618	755.81	181.36	1305.36	383.52	7.58	318.36	0.50	95.22	7813.82	-6325.94	3888.55
Fixation L	1	7	2464652863	2464891608	238745	1343.05	391.20	65	27	-1	11.81	11.81
Fixation R	1	7	2464652863	2464891608	238745	1343.05	391.20	65	27	-1	14.14	14.14
Saccade L	1	7	2464891608	2464911472	19864	1370.65	399.77	1538.61	392.74	1.13	170.01	1.00	56.89	4099.42	-3913.70	2755.41
Saccade R	1	7	2464891608	2464911472	19864	1370.65	399.77	1538.61	392.74	1.13	170.01	1.00	56.89	4099.42	-3913.70	2755.41
Fixation L	1	8	2464911472	2465030744	119272	1551.75	429.66	21	71	-1	11.57	11.57
Fixation R	1	8	2464911472	2465030744	119272	1551.75	429.66	21	71	-1	13.41	13.41
Saccade L	1	8	2465030744	2465050726	19982	1540.87	464.25	1553.40	507.27	0.55	45.33	1.00	27.33	946.62	-1013.79	663.68
Saccade R	1	8	2465030744	2465050726	19982	1540.87	464.25	1553.40	507.27	0.55	45.33	1.00	27.33	946.62	-1013.79	663.68
Fixation L	1	9	2465050726	2465249581	198855	1535.12	481.21	63	36	-1	11.57	11.57
Fixation R	1	9	2465050726	2465249581	198855	1535.12	481.21	63	36	-1	12.93	12.93
Saccade L	1	9	2465249581	2465269465	19884	1490.22	502.75	1419.79	567.47	0.76	96.76	1.00	38.27	2352.20	-2189.55	1860.07
Saccade R	1	9	2465249581	2465269465	19884	1490.22	502.75	1419.79	567.47	0.76	96.76	1.00	38.27	2352.20	-2189.55	1860.07
Fixation L	1	10	2465269465	2465766684	497219	1426.96	538.71	36	51	-1	11.85	11.85
Fixation R	1	10	2465269465	2465766684	497219	1426.96	538.71	36	51	-1	13.28	13.28
Saccade L	1	10	2465766684	2465806427	39743	1436.60	526.82	1555.29	453.49	1.42	92.60	1.00	35.79	2057.15	-1831.41	1665.25
Saccade R	1	10	2465766684	2465806427	39743	1436.60	526.82	1555.29	453.49	1.42	92.60	1.00	35.79	2057.15	-1831.41	1665.25
Fixation L	1	11	2465806427	2465945674	139247	1551.60	442.34	27	28	-1	11.47	11.47
Fixation R	1	11	2465806427	2465945674	139247	1551.60	442.34	27	28	-1	12.77	12.77
Saccade L	1	11	2465945674	2465965583	19909	1561.30	437.36	1474.92	319.37	0.86	147.90	1.00	43.10	3451.49	-3148.07	2246.55
Saccade R	1	11	2465945674	2465965583	19909	1561.30	437.36	1474.92	319.37	0.86	147.90	1.00	43.10	3451.49	-3148.07	2246.55
Fixation L	1	12	2465965583	2466124672	159089	1479.49	301.33	17	28	-1	10.68	10.68
Fixation R	1	12	2465965583	2466124672	159089	1479.49	301.33	17	28	-1	12.32	12.32
Saccade L	1	12	2466124672	2466263902	139230	1469.24	300.17	1301.47	228.03	5.98	109.75	0.29	42.93	2350.78	-1923.79	1102.59
Saccade R	1	12	2466124672	2466263902	139230	1469.24	300.17	1301.47	228.03	5.98	109.75	0.29	42.93	2350.78	-1923.79	1102.59
