[BeGaze]
Converted from:	C:\Documents and Settings\iViewX\Desktop\EXPERIMENTATIONS\Experiments\results\finaleart\S8119532-finaleart-1.idf
Date:	27.03.2019 15:59:24
Version:	BeGaze 2.5.77
Sample Rate:	50
Subject:	S8119532
Description:	Alexandre Drewery

Table Header for Fixations:
Event Type	Trial	Number	Start	End	Duration	Location X	Location Y	Dispersion X	Dispersion Y	Plane	Avg. Pupil Size X	Avg. Pupil Size Y

Table Header for Saccades:
Event Type	Trial	Number	Start	End	Duration	Start Loc.X	Start Loc.Y	End Loc.X	End Loc.Y	Amplitude	Peak Speed	Peak Speed At	Average Speed	Peak Accel.	Peak Decel.	Average Accel.

Table Header for Blinks:
Event Type	Trial	Number	Start	End	Duration

Table Header for User Events:
Event Type	Trial	Number	Start	Description

UserEvent	1	1	2517824437	# Message: Le_port_d-Anvers_Braque_1906.jpg
Fixation L	1	1	2517838814	2518177040	338226	873.92	496.63	34	53	-1	14.04	14.04
Fixation R	1	1	2517838814	2518177040	338226	873.92	496.63	34	53	-1	16.63	16.63
Saccade L	1	1	2518177040	2518196922	19882	876.26	493.70	870.32	534.90	0.49	42.11	1.00	24.67	759.96	-868.92	682.20
Saccade R	1	1	2518177040	2518196922	19882	876.26	493.70	870.32	534.90	0.49	42.11	1.00	24.67	759.96	-868.92	682.20
Fixation L	1	2	2518196922	2518654384	457462	888.52	500.06	28	68	-1	14.54	14.54
Fixation R	1	2	2518196922	2518654384	457462	888.52	500.06	28	68	-1	17.45	17.45
Saccade L	1	2	2518654384	2518674277	19893	899.10	519.31	892.25	572.81	0.63	54.56	1.00	31.54	784.27	-1076.93	853.39
Saccade R	1	2	2518654384	2518674277	19893	899.10	519.31	892.25	572.81	0.63	54.56	1.00	31.54	784.27	-1076.93	853.39
Fixation L	1	3	2518674277	2518891081	216804	899.25	577.34	15	15	-1	13.89	13.89
Fixation R	1	3	2518674277	2518891081	216804	899.25	577.34	15	15	-1	16.55	16.55
Saccade L	1	3	2518891081	2518932758	41677	902.50	573.44	674.12	741.66	2.71	252.59	0.52	64.92	6155.75	-6139.82	3687.95
Saccade R	1	3	2518891081	2518932758	41677	902.50	573.44	674.12	741.66	2.71	252.59	0.52	64.92	6155.75	-6139.82	3687.95
Fixation L	1	4	2518932758	2519071997	139239	664.13	747.62	27	29	-1	12.87	12.87
Fixation R	1	4	2518932758	2519071997	139239	664.13	747.62	27	29	-1	15.18	15.18
Saccade L	1	4	2519071997	2519111865	39868	662.99	741.53	776.72	344.31	3.64	233.42	0.50	91.35	5376.22	-5539.99	4850.97
Saccade R	1	4	2519071997	2519111865	39868	662.99	741.53	776.72	344.31	3.64	233.42	0.50	91.35	5376.22	-5539.99	4850.97
Fixation L	1	5	2519111865	2519290872	179007	787.84	319.65	18	45	-1	12.06	12.06
Fixation R	1	5	2519111865	2519290872	179007	787.84	319.65	18	45	-1	14.57	14.57
Saccade L	1	5	2519290872	2519330609	39737	794.19	310.96	1109.85	286.87	3.03	205.91	0.50	76.26	4446.29	-4668.89	3634.67
Saccade R	1	5	2519290872	2519330609	39737	794.19	310.96	1109.85	286.87	3.03	205.91	0.50	76.26	4446.29	-4668.89	3634.67
Fixation L	1	6	2519330609	2519668731	338122	1103.78	260.44	25	50	-1	11.87	11.87
Fixation R	1	6	2519330609	2519668731	338122	1103.78	260.44	25	50	-1	13.89	13.89
Saccade L	1	6	2519668731	2519708461	39730	1092.65	242.77	1141.60	532.48	2.84	177.92	0.50	71.52	4094.48	-3914.73	3242.09
Saccade R	1	6	2519668731	2519708461	39730	1092.65	242.77	1141.60	532.48	2.84	177.92	0.50	71.52	4094.48	-3914.73	3242.09
Fixation L	1	7	2519708461	2519986964	278503	1153.88	533.68	48	21	-1	12.59	12.59
Fixation R	1	7	2519708461	2519986964	278503	1153.88	533.68	48	21	-1	13.96	13.96
Saccade L	1	7	2519986964	2520026696	39732	1163.74	529.29	1434.74	528.37	2.63	143.55	1.00	66.16	3569.66	-3133.35	2965.53
Saccade R	1	7	2519986964	2520026696	39732	1163.74	529.29	1434.74	528.37	2.63	143.55	1.00	66.16	3569.66	-3133.35	2965.53
Fixation L	1	8	2520026696	2520245566	218870	1382.18	539.94	68	24	-1	12.64	12.64
Fixation R	1	8	2520026696	2520245566	218870	1382.18	539.94	68	24	-1	14.15	14.15
Saccade L	1	8	2520245566	2520285317	39751	1377.20	553.34	1374.78	428.28	1.51	135.11	1.00	38.01	3282.16	-2746.33	1681.33
Saccade R	1	8	2520245566	2520285317	39751	1377.20	553.34	1374.78	428.28	1.51	135.11	1.00	38.01	3282.16	-2746.33	1681.33
Fixation L	1	9	2520285317	2520583687	298370	1394.61	392.54	28	50	-1	12.42	12.42
Fixation R	1	9	2520285317	2520583687	298370	1394.61	392.54	28	50	-1	13.67	13.67
Saccade L	1	9	2520583687	2520603555	19868	1390.65	410.82	1355.71	287.37	0.82	129.77	1.00	41.21	3118.75	-2892.43	2045.44
Saccade R	1	9	2520583687	2520603555	19868	1390.65	410.82	1355.71	287.37	0.82	129.77	1.00	41.21	3118.75	-2892.43	2045.44
Fixation L	1	10	2520603555	2520842282	238727	1334.68	270.60	32	34	-1	12.50	12.50
Fixation R	1	10	2520603555	2520842282	238727	1334.68	270.60	32	34	-1	14.10	14.10
Blink L	1	1	2520842282	2521001400	159118
Blink R	1	1	2520842282	2521001400	159118
Fixation L	1	11	2521001400	2521200346	198946	576.92	373.63	11	31	-1	12.54	12.54
Fixation R	1	11	2521001400	2521200346	198946	576.92	373.63	11	31	-1	14.57	14.57
Saccade L	1	10	2521200346	2521299767	99421	574.35	373.40	426.79	784.47	7.04	240.16	0.60	70.76	5678.52	-5830.70	3693.28
Saccade R	1	10	2521200346	2521299767	99421	574.35	373.40	426.79	784.47	7.04	240.16	0.60	70.76	5678.52	-5830.70	3693.28
Fixation L	1	12	2521299767	2521438892	139125	402.23	774.27	41	56	-1	11.27	11.27
Fixation R	1	12	2521299767	2521438892	139125	402.23	774.27	41	56	-1	13.92	13.92
Saccade L	1	11	2521438892	2521458884	19992	398.77	775.95	389.60	852.37	0.78	77.86	1.00	38.87	1762.48	-1162.18	1366.77
Saccade R	1	11	2521438892	2521458884	19992	398.77	775.95	389.60	852.37	0.78	77.86	1.00	38.87	1762.48	-1162.18	1366.77
Fixation L	1	13	2521458884	2521578131	119247	398.67	877.59	17	57	-1	11.49	11.49
Fixation R	1	13	2521458884	2521578131	119247	398.67	877.59	17	57	-1	14.23	14.23
Saccade L	1	12	2521578131	2521597994	19863	406.61	876.75	715.10	898.79	1.83	312.56	1.00	92.19	7510.05	-7166.82	5051.40
Saccade R	1	12	2521578131	2521597994	19863	406.61	876.75	715.10	898.79	1.83	312.56	1.00	92.19	7510.05	-7166.82	5051.40
Fixation L	1	14	2521597994	2521836747	238753	717.31	881.34	13	46	-1	11.42	11.42
Fixation R	1	14	2521597994	2521836747	238753	717.31	881.34	13	46	-1	14.37	14.37
Saccade L	1	13	2521836747	2521856628	19881	722.22	872.32	844.25	740.13	1.45	181.93	1.00	73.11	3914.12	0.00	1957.06
Saccade R	1	13	2521836747	2521856628	19881	722.22	872.32	844.25	740.13	1.45	181.93	1.00	73.11	3914.12	0.00	1957.06
