[BeGaze]
Converted from:	C:\Documents and Settings\iViewX\Desktop\EXPERIMENTATIONS\Experiments\results\finaleart\S8119532-finaleart-1.idf
Date:	27.03.2019 15:59:52
Version:	BeGaze 2.5.77
Sample Rate:	50
Subject:	S8119532
Description:	Alexandre Drewery

Table Header for Fixations:
Event Type	Trial	Number	Start	End	Duration	Location X	Location Y	Dispersion X	Dispersion Y	Plane	Avg. Pupil Size X	Avg. Pupil Size Y

Table Header for Saccades:
Event Type	Trial	Number	Start	End	Duration	Start Loc.X	Start Loc.Y	End Loc.X	End Loc.Y	Amplitude	Peak Speed	Peak Speed At	Average Speed	Peak Accel.	Peak Decel.	Average Accel.

Table Header for Blinks:
Event Type	Trial	Number	Start	End	Duration

Table Header for User Events:
Event Type	Trial	Number	Start	Description

UserEvent	1	1	2755991049	# Message: Nature-morte-Maurice-de-Vlaminck.jpg
Fixation L	1	1	2756003132	2756739084	735952	859.16	562.25	21	30	-1	14.04	14.04
Fixation R	1	1	2756003132	2756739084	735952	859.16	562.25	21	30	-1	14.82	14.82
Saccade L	1	1	2756739084	2756798838	59754	865.83	572.05	1089.71	676.96	3.55	168.82	0.67	59.47	4004.63	-3529.43	1876.16
Saccade R	1	1	2756739084	2756798838	59754	865.83	572.05	1089.71	676.96	3.55	168.82	0.67	59.47	4004.63	-3529.43	1876.16
Fixation L	1	2	2756798838	2757117067	318229	1093.12	665.50	14	82	-1	14.38	14.38
Fixation R	1	2	2756798838	2757117067	318229	1093.12	665.50	14	82	-1	15.03	15.03
Saccade L	1	2	2757117067	2757156817	39750	1089.97	677.56	750.28	757.48	3.91	225.77	0.50	98.35	4992.81	-3899.84	3641.75
Saccade R	1	2	2757117067	2757156817	39750	1089.97	677.56	750.28	757.48	3.91	225.77	0.50	98.35	4992.81	-3899.84	3641.75
Fixation L	1	3	2757156817	2757375550	218733	744.58	723.57	25	68	-1	14.72	14.72
Fixation R	1	3	2757156817	2757375550	218733	744.58	723.57	25	68	-1	15.43	15.43
Saccade L	1	3	2757375550	2757415307	39757	729.39	723.06	654.44	785.45	2.01	130.90	0.50	50.63	3008.37	-2488.58	1978.37
Saccade R	1	3	2757375550	2757415307	39757	729.39	723.06	654.44	785.45	2.01	130.90	0.50	50.63	3008.37	-2488.58	1978.37
Fixation L	1	4	2757415307	2757514797	99490	630.93	762.55	34	48	-1	14.56	14.56
Fixation R	1	4	2757415307	2757514797	99490	630.93	762.55	34	48	-1	15.68	15.68
Saccade L	1	4	2757514797	2757554554	39757	620.06	756.60	602.55	442.41	3.01	176.28	0.50	75.69	3856.01	-3998.70	3436.13
Saccade R	1	4	2757514797	2757554554	39757	620.06	756.60	602.55	442.41	3.01	176.28	0.50	75.69	3856.01	-3998.70	3436.13
Fixation L	1	5	2757554554	2757852907	298353	575.43	445.49	51	27	-1	13.58	13.58
Fixation R	1	5	2757554554	2757852907	298353	575.43	445.49	51	27	-1	14.48	14.48
Saccade L	1	5	2757852907	2757892792	39885	599.21	448.38	1038.60	370.86	4.19	252.86	0.50	105.00	6045.24	-5579.98	5165.64
Saccade R	1	5	2757852907	2757892792	39885	599.21	448.38	1038.60	370.86	4.19	252.86	0.50	105.00	6045.24	-5579.98	5165.64
Fixation L	1	6	2757892792	2758250773	357981	1040.45	339.19	12	54	-1	12.56	12.56
Fixation R	1	6	2757892792	2758250773	357981	1040.45	339.19	12	54	-1	13.15	13.15
Saccade L	1	6	2758250773	2758290509	39736	1035.74	325.92	1111.59	383.37	1.86	90.13	1.00	46.73	29949.85	3.48	7879.47
Saccade R	1	6	2758250773	2758290509	39736	1035.74	325.92	1111.59	383.37	1.86	90.13	1.00	46.73	29949.85	3.48	7879.47
Blink L	1	1	2758290509	2758449632	159123
Blink R	1	1	2758290509	2758449632	159123
Fixation L	1	7	2758449632	2758688367	238735	1116.16	522.90	15	16	-1	15.43	15.43
Fixation R	1	7	2758449632	2758688367	238735	1116.16	522.90	15	16	-1	16.14	16.14
Saccade L	1	7	2758688367	2758747996	59629	1113.80	527.77	1370.44	810.64	4.49	217.18	0.67	75.31	5282.62	-5326.08	3250.92
Saccade R	1	7	2758688367	2758747996	59629	1113.80	527.77	1370.44	810.64	4.49	217.18	0.67	75.31	5282.62	-5326.08	3250.92
Fixation L	1	8	2758747996	2758907114	159118	1374.08	797.85	12	54	-1	15.64	15.64
Fixation R	1	8	2758747996	2758907114	159118	1374.08	797.85	12	54	-1	15.88	15.88
Saccade L	1	8	2758907114	2758926981	19867	1380.50	826.00	1434.65	1027.98	1.56	211.45	1.00	78.43	4940.88	-4977.11	3493.09
Saccade R	1	8	2758907114	2758926981	19867	1380.50	826.00	1434.65	1027.98	1.56	211.45	1.00	78.43	4940.88	-4977.11	3493.09
Fixation L	1	9	2758926981	2759185593	258612	1436.91	1040.57	58	22	-1	14.89	14.89
Fixation R	1	9	2758926981	2759185593	258612	1436.91	1040.57	58	22	-1	15.33	15.33
Saccade L	1	9	2759185593	2759205470	19877	1455.97	1049.95	1463.95	1080.55	0.38	31.99	1.00	18.97	411.38	-360.72	376.73
Saccade R	1	9	2759185593	2759205470	19877	1455.97	1049.95	1463.95	1080.55	0.38	31.99	1.00	18.97	411.38	-360.72	376.73
Fixation L	1	10	2759205470	2759503840	298370	1472.36	1068.93	15	74	-1	14.35	14.35
Fixation R	1	10	2759205470	2759503840	298370	1472.36	1068.93	15	74	-1	14.75	14.75
Saccade L	1	10	2759503840	2759523709	19869	1479.83	1052.93	1509.54	1061.93	0.32	31.40	1.00	16.20	550.04	-446.84	462.00
Saccade R	1	10	2759503840	2759523709	19869	1479.83	1052.93	1509.54	1061.93	0.32	31.40	1.00	16.20	550.04	-446.84	462.00
Fixation L	1	11	2759523709	2759861814	338105	1519.52	1068.12	19	27	-1	14.75	14.75
Fixation R	1	11	2759523709	2759861814	338105	1519.52	1068.12	19	27	-1	15.15	15.15
Saccade L	1	11	2759861814	2759981184	119370	1508.31	1081.41	744.02	834.91	15.16	380.10	0.17	126.98	9405.30	-6523.48	5396.73
Saccade R	1	11	2759861814	2759981184	119370	1508.31	1081.41	744.02	834.91	15.16	380.10	0.17	126.98	9405.30	-6523.48	5396.73
