[BeGaze]
Converted from:	C:\Documents and Settings\iViewX\Desktop\EXPERIMENTATIONS\Experiments\results\finaleart\S8119532-finaleart-1.idf
Date:	27.03.2019 16:01:33
Version:	BeGaze 2.5.77
Sample Rate:	50
Subject:	S8119532
Description:	Alexandre Drewery

Table Header for Fixations:
Event Type	Trial	Number	Start	End	Duration	Location X	Location Y	Dispersion X	Dispersion Y	Plane	Avg. Pupil Size X	Avg. Pupil Size Y

Table Header for Saccades:
Event Type	Trial	Number	Start	End	Duration	Start Loc.X	Start Loc.Y	End Loc.X	End Loc.Y	Amplitude	Peak Speed	Peak Speed At	Average Speed	Peak Accel.	Peak Decel.	Average Accel.

Table Header for Blinks:
Event Type	Trial	Number	Start	End	Duration

Table Header for User Events:
Event Type	Trial	Number	Start	Description

UserEvent	1	1	3747683987	# Message: void.jpg
Fixation L	1	1	3747685864	3747785349	99485	1177.21	173.54	7	27	-1	10.72	10.72
Fixation R	1	1	3747685864	3747785349	99485	1177.21	173.54	7	27	-1	13.09	13.09
Saccade L	1	1	3747785349	3747944447	159098	1176.63	188.37	682.30	851.39	17.89	415.28	0.25	112.46	10223.78	-10202.42	4275.44
Saccade R	1	1	3747785349	3747944447	159098	1176.63	188.37	682.30	851.39	17.89	415.28	0.25	112.46	10223.78	-10202.42	4275.44
Fixation L	1	2	3747944447	3748123439	178992	685.41	873.01	18	65	-1	11.38	11.38
Fixation R	1	2	3747944447	3748123439	178992	685.41	873.01	18	65	-1	14.32	14.32
Saccade L	1	2	3748123439	3748163184	39745	679.31	843.42	647.18	340.94	4.40	269.93	1.00	110.61	6349.11	-6489.55	6023.32
Saccade R	1	2	3748123439	3748163184	39745	679.31	843.42	647.18	340.94	4.40	269.93	1.00	110.61	6349.11	-6489.55	6023.32
Fixation L	1	3	3748163184	3748342182	178998	637.82	318.38	29	38	-1	10.81	10.81
Fixation R	1	3	3748163184	3748342182	178998	637.82	318.38	29	38	-1	13.83	13.83
Blink L	1	1	3748342182	3748600803	258621
Blink R	1	1	3748342182	3748600803	258621
Fixation L	1	4	3748600803	3748799651	198848	931.65	512.32	50	40	-1	12.41	12.41
Fixation R	1	4	3748600803	3748799651	198848	931.65	512.32	50	40	-1	14.33	14.33
Saccade L	1	3	3748799651	3748899156	99505	901.81	495.04	938.71	521.84	5.58	141.24	0.80	56.04	2936.35	-3412.80	2460.40
Saccade R	1	3	3748799651	3748899156	99505	901.81	495.04	938.71	521.84	5.58	141.24	0.80	56.04	2936.35	-3412.80	2460.40
Fixation L	1	5	3748899156	3749117884	218728	950.44	544.17	20	37	-1	12.00	12.00
Fixation R	1	5	3748899156	3749117884	218728	950.44	544.17	20	37	-1	13.99	13.99
Saccade L	1	4	3749117884	3749157636	39752	955.83	541.60	954.56	519.23	1.74	94.98	0.50	43.85	2224.92	-2091.76	2074.65
Saccade R	1	4	3749117884	3749157636	39752	955.83	541.60	954.56	519.23	1.74	94.98	0.50	43.85	2224.92	-2091.76	2074.65
Fixation L	1	6	3749157636	3749257126	99490	950.99	526.08	6	30	-1	12.41	12.41
Fixation R	1	6	3749157636	3749257126	99490	950.99	526.08	6	30	-1	13.96	13.96
Saccade L	1	5	3749257126	3749316752	59626	949.29	509.19	943.82	497.34	3.12	138.18	0.33	52.26	3257.68	-2732.44	1382.90
Saccade R	1	5	3749257126	3749316752	59626	949.29	509.19	943.82	497.34	3.12	138.18	0.33	52.26	3257.68	-2732.44	1382.90
Fixation L	1	7	3749316752	3749475866	159114	946.23	530.11	11	75	-1	12.47	12.47
Fixation R	1	7	3749316752	3749475866	159114	946.23	530.11	11	75	-1	14.35	14.35
Saccade L	1	6	3749475866	3749495878	20012	943.95	570.07	937.28	590.79	0.49	61.54	1.00	24.34	1350.30	-323.67	689.05
Saccade R	1	6	3749475866	3749495878	20012	943.95	570.07	937.28	590.79	0.49	61.54	1.00	24.34	1350.30	-323.67	689.05
Fixation L	1	8	3749495878	3749714622	218744	938.61	541.84	16	69	-1	12.41	12.41
Fixation R	1	8	3749495878	3749714622	218744	938.61	541.84	16	69	-1	14.52	14.52
