[BeGaze]
Converted from:	C:\Documents and Settings\iViewX\Desktop\EXPERIMENTATIONS\Experiments\results\finaleart\S8119532-finaleart-1.idf
Date:	27.03.2019 16:01:21
Version:	BeGaze 2.5.77
Sample Rate:	50
Subject:	S8119532
Description:	Alexandre Drewery

Table Header for Fixations:
Event Type	Trial	Number	Start	End	Duration	Location X	Location Y	Dispersion X	Dispersion Y	Plane	Avg. Pupil Size X	Avg. Pupil Size Y

Table Header for Saccades:
Event Type	Trial	Number	Start	End	Duration	Start Loc.X	Start Loc.Y	End Loc.X	End Loc.Y	Amplitude	Peak Speed	Peak Speed At	Average Speed	Peak Accel.	Peak Decel.	Average Accel.

Table Header for Blinks:
Event Type	Trial	Number	Start	End	Duration

Table Header for User Events:
Event Type	Trial	Number	Start	Description

UserEvent	1	1	3669640580	# Message: naked-woman-lying-on-a-couch_caillebotte_1873.jpg
Fixation L	1	1	3669657207	3670114680	457473	857.30	489.40	38	49	-1	13.45	13.45
Fixation R	1	1	3669657207	3670114680	457473	857.30	489.40	38	49	-1	13.79	13.79
Saccade L	1	1	3670114680	3670134552	19872	868.05	476.83	873.17	461.39	0.14	16.46	1.00	7.10	261.25	-210.85	178.25
Saccade R	1	1	3670114680	3670134552	19872	868.05	476.83	873.17	461.39	0.14	16.46	1.00	7.10	261.25	-210.85	178.25
Fixation L	1	2	3670134552	3670373300	238748	879.22	468.42	11	31	-1	13.18	13.18
Fixation R	1	2	3670134552	3670373300	238748	879.22	468.42	11	31	-1	13.21	13.21
Saccade L	1	2	3670373300	3670452790	79490	884.60	486.72	1234.98	436.64	4.83	184.42	0.25	60.73	4412.68	-4500.48	2312.48
Saccade R	1	2	3670373300	3670452790	79490	884.60	486.72	1234.98	436.64	4.83	184.42	0.25	60.73	4412.68	-4500.48	2312.48
Fixation L	1	3	3670452790	3670572153	119363	1239.90	415.87	39	54	-1	12.18	12.18
Fixation R	1	3	3670452790	3670572153	119363	1239.90	415.87	39	54	-1	12.03	12.03
Saccade L	1	3	3670572153	3670592041	19888	1268.13	384.94	1300.87	292.44	0.85	99.26	1.00	42.70	2270.53	-1782.27	1525.05
Saccade R	1	3	3670572153	3670592041	19888	1268.13	384.94	1300.87	292.44	0.85	99.26	1.00	42.70	2270.53	-1782.27	1525.05
Fixation L	1	4	3670592041	3670751146	159105	1314.96	332.82	26	71	-1	11.37	11.37
Fixation R	1	4	3670592041	3670751146	159105	1314.96	332.82	26	71	-1	11.02	11.02
Saccade L	1	4	3670751146	3670810896	59750	1321.96	349.07	841.08	326.76	5.30	278.79	0.67	88.64	6786.50	-6739.20	3512.66
Saccade R	1	4	3670751146	3670810896	59750	1321.96	349.07	841.08	326.76	5.30	278.79	0.67	88.64	6786.50	-6739.20	3512.66
Fixation L	1	5	3670810896	3670930263	119367	838.44	315.11	70	18	-1	11.03	11.03
Fixation R	1	5	3670810896	3670930263	119367	838.44	315.11	70	18	-1	11.02	11.02
Saccade L	1	5	3670930263	3670970003	39740	851.73	308.10	536.00	309.29	2.83	205.19	1.00	71.26	5004.44	-4682.20	3682.81
Saccade R	1	5	3670930263	3670970003	39740	851.73	308.10	536.00	309.29	2.83	205.19	1.00	71.26	5004.44	-4682.20	3682.81
Fixation L	1	6	3670970003	3671228497	258494	528.52	319.34	28	49	-1	11.06	11.06
Fixation R	1	6	3670970003	3671228497	258494	528.52	319.34	28	49	-1	11.39	11.39
Saccade L	1	6	3671228497	3671248496	19999	508.08	287.74	485.29	290.16	0.47	33.86	0.00	23.57	441.92	-53.27	209.10
Saccade R	1	6	3671228497	3671248496	19999	508.08	287.74	485.29	290.16	0.47	33.86	0.00	23.57	441.92	-53.27	209.10
Fixation L	1	7	3671248496	3671347878	99382	516.34	293.24	40	25	-1	10.81	10.81
Fixation R	1	7	3671248496	3671347878	99382	516.34	293.24	40	25	-1	11.49	11.49
Saccade L	1	7	3671347878	3671407629	59751	524.86	302.61	658.55	195.33	2.49	128.89	0.33	41.61	3096.60	-1929.64	1388.49
Saccade R	1	7	3671347878	3671407629	59751	524.86	302.61	658.55	195.33	2.49	128.89	0.33	41.61	3096.60	-1929.64	1388.49
Fixation L	1	8	3671407629	3671546854	139225	675.17	197.24	52	35	-1	11.04	11.04
Fixation R	1	8	3671407629	3671546854	139225	675.17	197.24	52	35	-1	11.83	11.83
Saccade L	1	8	3671546854	3671566733	19879	689.09	209.51	702.28	219.48	0.24	17.77	1.00	11.94	48.17	-125.83	66.71
Saccade R	1	8	3671546854	3671566733	19879	689.09	209.51	702.28	219.48	0.24	17.77	1.00	11.94	48.17	-125.83	66.71
Fixation L	1	9	3671566733	3671984330	417597	760.90	223.48	76	20	-1	11.65	11.65
Fixation R	1	9	3671566733	3671984330	417597	760.90	223.48	76	20	-1	12.30	12.30
Saccade L	1	9	3671984330	3672163338	179008	761.13	228.30	1403.03	240.42	12.99	252.34	0.89	72.56	5345.50	-5570.64	2208.88
Saccade R	1	9	3671984330	3672163338	179008	761.13	228.30	1403.03	240.42	12.99	252.34	0.89	72.56	5345.50	-5570.64	2208.88
Fixation L	1	10	3672163338	3672342438	179100	1385.41	249.58	29	23	-1	13.15	13.15
Fixation R	1	10	3672163338	3672342438	179100	1385.41	249.58	29	23	-1	13.15	13.15
Saccade L	1	10	3672342438	3672402066	59628	1385.06	254.41	1381.03	292.00	3.08	120.71	1.00	51.58	1690.48	-2883.75	1814.52
Saccade R	1	10	3672342438	3672402066	59628	1385.06	254.41	1381.03	292.00	3.08	120.71	1.00	51.58	1690.48	-2883.75	1814.52
Fixation L	1	11	3672402066	3672879418	477352	1379.11	315.34	25	63	-1	12.92	12.92
Fixation R	1	11	3672402066	3672879418	477352	1379.11	315.34	25	63	-1	12.50	12.50
Saccade L	1	11	3672879418	3672899285	19867	1396.74	315.73	1421.42	306.40	0.53	38.49	1.00	26.49	-286.70	-372.67	318.19
Saccade R	1	11	3672879418	3672899285	19867	1396.74	315.73	1421.42	306.40	0.53	38.49	1.00	26.49	-286.70	-372.67	318.19
Fixation L	1	12	3672899285	3673277267	377982	1431.48	321.46	49	48	-1	12.93	12.93
Fixation R	1	12	3672899285	3673277267	377982	1431.48	321.46	49	48	-1	12.72	12.72
Saccade L	1	12	3673277267	3673297149	19882	1407.59	335.50	1396.73	331.40	7.23	1422.24	1.00	363.64	35070.39	-293.60	11876.18
Saccade R	1	12	3673277267	3673297149	19882	1407.59	335.50	1396.73	331.40	7.23	1422.24	1.00	363.64	35070.39	-293.60	11876.18
Blink L	1	1	3673297149	3673436387	139238
Blink R	1	1	3673297149	3673436387	139238
Fixation L	1	13	3673436387	3673535755	99368	1192.84	335.33	30	58	-1	14.78	14.78
Fixation R	1	13	3673436387	3673535755	99368	1192.84	335.33	30	58	-1	15.25	15.25
Saccade L	1	13	3673535755	3673635255	99500	1201.87	323.98	1043.15	358.56	4.02	160.02	1.00	40.42	3828.94	-763.59	923.81
Saccade R	1	13	3673535755	3673635255	99500	1201.87	323.98	1043.15	358.56	4.02	160.02	1.00	40.42	3828.94	-763.59	923.81
