[BeGaze]
Converted from:	C:\Documents and Settings\iViewX\Desktop\EXPERIMENTATIONS\Experiments\results\finaleart\S8119532-finaleart-1.idf
Date:	27.03.2019 16:01:00
Version:	BeGaze 2.5.77
Sample Rate:	50
Subject:	S8119532
Description:	Alexandre Drewery

Table Header for Fixations:
Event Type	Trial	Number	Start	End	Duration	Location X	Location Y	Dispersion X	Dispersion Y	Plane	Avg. Pupil Size X	Avg. Pupil Size Y

Table Header for Saccades:
Event Type	Trial	Number	Start	End	Duration	Start Loc.X	Start Loc.Y	End Loc.X	End Loc.Y	Amplitude	Peak Speed	Peak Speed At	Average Speed	Peak Accel.	Peak Decel.	Average Accel.

Table Header for Blinks:
Event Type	Trial	Number	Start	End	Duration

Table Header for User Events:
Event Type	Trial	Number	Start	Description

UserEvent	1	1	3433497020	# Message: void.jpg
Fixation L	1	1	3433508780	3433608152	99372	1009.64	683.30	15	21	-1	10.67	10.67
Fixation R	1	1	3433508780	3433608152	99372	1009.64	683.30	15	21	-1	12.86	12.86
Saccade L	1	1	3433608152	3433628000	19848	1011.18	696.19	1133.42	843.97	1.13	193.94	1.00	56.99	4758.87	-4445.66	3157.41
Saccade R	1	1	3433608152	3433628000	19848	1011.18	696.19	1133.42	843.97	1.13	193.94	1.00	56.99	4758.87	-4445.66	3157.41
Fixation L	1	2	3433628000	3433966233	338233	1153.14	839.87	30	22	-1	10.34	10.34
Fixation R	1	2	3433628000	3433966233	338233	1153.14	839.87	30	22	-1	12.09	12.09
Saccade L	1	2	3433966233	3434065615	99382	1161.28	848.05	1105.46	842.70	4.55	97.89	0.80	45.80	2128.19	-1903.37	1604.59
Saccade R	1	2	3433966233	3434065615	99382	1161.28	848.05	1105.46	842.70	4.55	97.89	0.80	45.80	2128.19	-1903.37	1604.59
Fixation L	1	3	3434065615	3434165122	99507	1089.33	844.26	29	36	-1	10.89	10.89
Fixation R	1	3	3434065615	3434165122	99507	1089.33	844.26	29	36	-1	11.99	11.99
Blink L	1	1	3434165122	3434443589	278467
Blink R	1	1	3434165122	3434443589	278467
Fixation L	1	4	3434443589	3434562832	119243	688.33	755.50	10	53	-1	12.72	12.72
Fixation R	1	4	3434443589	3434562832	119243	688.33	755.50	10	53	-1	13.43	13.43
Saccade L	1	3	3434562832	3434602724	39892	685.87	742.56	793.69	542.09	2.40	120.59	0.50	60.07	2469.31	-2368.74	2302.68
Saccade R	1	3	3434562832	3434602724	39892	685.87	742.56	793.69	542.09	2.40	120.59	0.50	60.07	2469.31	-2368.74	2302.68
Fixation L	1	5	3434602724	3435020306	417582	799.87	548.77	34	61	-1	12.20	12.20
Fixation R	1	5	3434602724	3435020306	417582	799.87	548.77	34	61	-1	13.39	13.39
Saccade L	1	4	3435020306	3435040322	20016	807.99	518.85	803.45	472.33	0.88	48.16	0.00	43.76	196.81	-999.20	465.37
Saccade R	1	4	3435020306	3435040322	20016	807.99	518.85	803.45	472.33	0.88	48.16	0.00	43.76	196.81	-999.20	465.37
Fixation L	1	6	3435040322	3435497660	457338	802.34	514.44	16	81	-1	12.10	12.10
Fixation R	1	6	3435040322	3435497660	457338	802.34	514.44	16	81	-1	13.21	13.21
Saccade L	1	5	3435497660	3435517672	20012	808.63	538.38	801.21	549.23	0.25	13.30	1.00	12.42	14.94	0.00	7.47
Saccade R	1	5	3435497660	3435517672	20012	808.63	538.38	801.21	549.23	0.25	13.30	1.00	12.42	14.94	0.00	7.47
