[BeGaze]
Converted from:	C:\Documents and Settings\iViewX\Desktop\EXPERIMENTATIONS\Experiments\results\finaleart\S8119532-finaleart-1.idf
Date:	27.03.2019 16:00:47
Version:	BeGaze 2.5.77
Sample Rate:	50
Subject:	S8119532
Description:	Alexandre Drewery

Table Header for Fixations:
Event Type	Trial	Number	Start	End	Duration	Location X	Location Y	Dispersion X	Dispersion Y	Plane	Avg. Pupil Size X	Avg. Pupil Size Y

Table Header for Saccades:
Event Type	Trial	Number	Start	End	Duration	Start Loc.X	Start Loc.Y	End Loc.X	End Loc.Y	Amplitude	Peak Speed	Peak Speed At	Average Speed	Peak Accel.	Peak Decel.	Average Accel.

Table Header for Blinks:
Event Type	Trial	Number	Start	End	Duration

Table Header for User Events:
Event Type	Trial	Number	Start	Description

UserEvent	1	1	3288980193	# Message: cows_at_a_pond_Bilders_1856.jpg
Fixation L	1	1	3288993587	3289689674	696087	877.37	575.18	47	50	-1	14.30	14.30
Fixation R	1	1	3288993587	3289689674	696087	877.37	575.18	47	50	-1	16.57	16.57
Saccade L	1	1	3289689674	3289789148	99474	903.29	568.72	1036.02	697.86	4.48	155.77	0.80	44.99	3384.90	-3343.79	1510.73
Saccade R	1	1	3289689674	3289789148	99474	903.29	568.72	1036.02	697.86	4.48	155.77	0.80	44.99	3384.90	-3343.79	1510.73
Fixation L	1	2	3289789148	3290147132	357984	1015.57	706.39	56	42	-1	13.46	13.46
Fixation R	1	2	3289789148	3290147132	357984	1015.57	706.39	56	42	-1	15.06	15.06
Saccade L	1	2	3290147132	3290167007	19875	985.22	711.82	982.04	719.64	0.22	13.52	1.00	10.96	-12.32	-136.03	90.97
Saccade R	1	2	3290147132	3290167007	19875	985.22	711.82	982.04	719.64	0.22	13.52	1.00	10.96	-12.32	-136.03	90.97
Fixation L	1	3	3290167007	3290346019	179012	976.84	724.72	16	43	-1	13.19	13.19
Fixation R	1	3	3290167007	3290346019	179012	976.84	724.72	16	43	-1	14.96	14.96
Saccade L	1	3	3290346019	3290385868	39849	970.71	735.53	773.30	721.06	2.25	149.27	0.50	56.55	3102.46	-3294.80	2463.87
Saccade R	1	3	3290346019	3290385868	39849	970.71	735.53	773.30	721.06	2.25	149.27	0.50	56.55	3102.46	-3294.80	2463.87
Fixation L	1	4	3290385868	3290684114	298246	759.26	684.66	21	64	-1	13.14	13.14
Fixation R	1	4	3290385868	3290684114	298246	759.26	684.66	21	64	-1	15.69	15.69
Saccade L	1	4	3290684114	3290763730	79616	759.39	671.39	1690.71	463.33	11.88	395.55	0.75	149.24	8075.58	-8616.44	5667.72
Saccade R	1	4	3290684114	3290763730	79616	759.39	671.39	1690.71	463.33	11.88	395.55	0.75	149.24	8075.58	-8616.44	5667.72
Fixation L	1	5	3290763730	3290942715	178985	1661.25	484.12	43	45	-1	12.65	12.65
Fixation R	1	5	3290763730	3290942715	178985	1661.25	484.12	43	45	-1	14.23	14.23
Saccade L	1	5	3290942715	3291062086	119371	1647.41	508.73	1522.31	511.25	3.42	119.44	1.00	28.63	2919.20	-1973.78	847.72
Saccade R	1	5	3290942715	3291062086	119371	1647.41	508.73	1522.31	511.25	3.42	119.44	1.00	28.63	2919.20	-1973.78	847.72
Fixation L	1	6	3291062086	3291380322	318236	1515.30	484.05	25	48	-1	12.15	12.15
Fixation R	1	6	3291062086	3291380322	318236	1515.30	484.05	25	48	-1	13.35	13.35
Saccade L	1	6	3291380322	3291420076	39754	1502.97	480.53	1093.38	418.55	3.78	251.77	0.50	94.98	6158.56	-5308.33	4917.93
Saccade R	1	6	3291380322	3291420076	39754	1502.97	480.53	1093.38	418.55	3.78	251.77	0.50	94.98	6158.56	-5308.33	4917.93
Fixation L	1	7	3291420076	3291678693	258617	1121.01	390.26	41	51	-1	12.12	12.12
Fixation R	1	7	3291420076	3291678693	258617	1121.01	390.26	41	51	-1	13.96	13.96
Saccade L	1	7	3291678693	3291758307	79614	1135.15	369.11	698.59	452.98	6.05	269.94	0.75	76.05	6394.51	-6499.40	3292.34
Saccade R	1	7	3291678693	3291758307	79614	1135.15	369.11	698.59	452.98	6.05	269.94	0.75	76.05	6394.51	-6499.40	3292.34
Fixation L	1	8	3291758307	3291877541	119234	689.14	454.70	16	17	-1	12.15	12.15
Fixation R	1	8	3291758307	3291877541	119234	689.14	454.70	16	17	-1	14.43	14.43
Saccade L	1	8	3291877541	3291937297	59756	682.56	452.37	354.34	473.18	4.29	187.62	0.67	71.79	4366.71	-4478.59	3487.28
Saccade R	1	8	3291877541	3291937297	59756	682.56	452.37	354.34	473.18	4.29	187.62	0.67	71.79	4366.71	-4478.59	3487.28
Fixation L	1	9	3291937297	3292136159	198862	373.06	493.59	29	39	-1	12.24	12.24
Fixation R	1	9	3291937297	3292136159	198862	373.06	493.59	29	39	-1	14.51	14.51
Saccade L	1	9	3292136159	3292175912	39753	383.56	499.80	532.19	858.89	3.34	209.07	1.00	84.13	5147.69	-4878.22	4652.97
Saccade R	1	9	3292136159	3292175912	39753	383.56	499.80	532.19	858.89	3.34	209.07	1.00	84.13	5147.69	-4878.22	4652.97
Fixation L	1	10	3292175912	3292335024	159112	516.13	879.61	21	37	-1	12.09	12.09
Fixation R	1	10	3292175912	3292335024	159112	516.13	879.61	21	37	-1	14.52	14.52
Saccade L	1	10	3292335024	3292374774	39750	514.83	875.19	876.40	1016.59	3.51	205.78	0.50	88.22	4983.03	-4490.61	4571.79
Saccade R	1	10	3292335024	3292374774	39750	514.83	875.19	876.40	1016.59	3.51	205.78	0.50	88.22	4983.03	-4490.61	4571.79
Fixation L	1	11	3292374774	3292533888	159114	880.65	981.42	16	65	-1	12.60	12.60
Fixation R	1	11	3292374774	3292533888	159114	880.65	981.42	16	65	-1	14.85	14.85
Saccade L	1	11	3292533888	3292573764	39876	882.37	962.42	1044.24	788.63	2.79	175.41	1.00	69.92	4091.85	-3702.52	3188.61
Saccade R	1	11	3292533888	3292573764	39876	882.37	962.42	1044.24	788.63	2.79	175.41	1.00	69.92	4091.85	-3702.52	3188.61
Fixation L	1	12	3292573764	3292732882	159118	1054.57	793.35	25	70	-1	13.14	13.14
Fixation R	1	12	3292573764	3292732882	159118	1054.57	793.35	25	70	-1	15.26	15.26
Saccade L	1	12	3292732882	3292752752	19870	1044.37	743.36	1063.10	727.55	0.65	67.69	0.00	32.53	383.99	-987.65	641.79
Saccade R	1	12	3292732882	3292752752	19870	1044.37	743.36	1063.10	727.55	0.65	67.69	0.00	32.53	383.99	-987.65	641.79
Fixation L	1	13	3292752752	3292911871	159119	1060.21	699.43	17	53	-1	13.73	13.73
Fixation R	1	13	3292752752	3292911871	159119	1060.21	699.43	17	53	-1	15.52	15.52
Saccade L	1	13	3292911871	3292991366	79495	1050.38	702.79	973.82	718.56	2.24	71.29	0.25	28.19	1287.98	-1320.19	635.15
Saccade R	1	13	3292911871	3292991366	79495	1050.38	702.79	973.82	718.56	2.24	71.29	0.25	28.19	1287.98	-1320.19	635.15
