[BeGaze]
Converted from:	C:\Documents and Settings\iViewX\Desktop\EXPERIMENTATIONS\Experiments\results\finaleart\S8119532-finaleart-1.idf
Date:	27.03.2019 16:01:41
Version:	BeGaze 2.5.77
Sample Rate:	50
Subject:	S8119532
Description:	Alexandre Drewery

Table Header for Fixations:
Event Type	Trial	Number	Start	End	Duration	Location X	Location Y	Dispersion X	Dispersion Y	Plane	Avg. Pupil Size X	Avg. Pupil Size Y

Table Header for Saccades:
Event Type	Trial	Number	Start	End	Duration	Start Loc.X	Start Loc.Y	End Loc.X	End Loc.Y	Amplitude	Peak Speed	Peak Speed At	Average Speed	Peak Accel.	Peak Decel.	Average Accel.

Table Header for Blinks:
Event Type	Trial	Number	Start	End	Duration

Table Header for User Events:
Event Type	Trial	Number	Start	Description

UserEvent	1	1	3796906288	# Message: void.jpg
Saccade L	1	1	3796913604	3796953355	39751	958.47	413.06	1012.68	314.91	1.47	67.40	1.00	36.95	1684.91	-1334.17	844.26
Saccade R	1	1	3796913604	3796953355	39751	958.47	413.06	1012.68	314.91	1.47	67.40	1.00	36.95	1684.91	-1334.17	844.26
Fixation L	1	1	3796953355	3797115494	162139	1030.02	338.77	30	35	-1	12.60	12.60
Fixation R	1	1	3796953355	3797115494	162139	1030.02	338.77	30	35	-1	13.60	13.60
Saccade L	1	2	3797115494	3797152364	36870	1011.32	335.11	591.05	301.40	4.29	425.73	1.00	116.36	10450.08	-10518.95	7077.97
Saccade R	1	2	3797115494	3797152364	36870	1011.32	335.11	591.05	301.40	4.29	425.73	1.00	116.36	10450.08	-10518.95	7077.97
Fixation L	1	2	3797152364	3797288000	135636	583.58	303.60	11	9	-1	12.44	12.44
Fixation R	1	2	3797152364	3797288000	135636	583.58	303.60	11	9	-1	13.87	13.87
Saccade L	1	3	3797288000	3797351215	63215	580.84	299.09	221.19	299.11	5.22	226.71	0.39	82.56	5590.91	-4635.77	4131.28
Saccade R	1	3	3797288000	3797351215	63215	580.84	299.09	221.19	299.11	5.22	226.71	0.39	82.56	5590.91	-4635.77	4131.28
Fixation L	1	3	3797351215	3797490447	139232	258.82	313.49	58	30	-1	11.64	11.64
Fixation R	1	3	3797351215	3797490447	139232	258.82	313.49	58	30	-1	12.95	12.95
Saccade L	1	4	3797490447	3797510318	19871	277.47	329.19	284.62	336.34	0.58	95.50	1.00	29.15	6251.82	9.15	2874.33
Saccade R	1	4	3797490447	3797510318	19871	277.47	329.19	284.62	336.34	0.58	95.50	1.00	29.15	6251.82	9.15	2874.33
Blink L	1	1	3797510318	3797768952	258634
Blink R	1	1	3797510318	3797768952	258634
Fixation L	1	4	3797768952	3797947932	178980	1068.32	864.61	9	28	-1	12.70	12.70
Fixation R	1	4	3797768952	3797947932	178980	1068.32	864.61	9	28	-1	14.31	14.31
Saccade L	1	5	3797947932	3797967796	19864	1074.87	881.59	1071.44	947.74	0.55	67.00	1.00	27.55	1441.72	-225.92	615.12
Saccade R	1	5	3797947932	3797967796	19864	1074.87	881.59	1071.44	947.74	0.55	67.00	1.00	27.55	1441.72	-225.92	615.12
Fixation L	1	5	3797967796	3798266163	298367	1061.45	896.44	14	78	-1	13.35	13.35
Fixation R	1	5	3797967796	3798266163	298367	1061.45	896.44	14	78	-1	14.85	14.85
Saccade L	1	6	3798266163	3798365537	99374	1058.83	875.20	986.69	751.93	5.43	110.21	0.20	54.59	2246.21	-2251.71	1726.79
Saccade R	1	6	3798266163	3798365537	99374	1058.83	875.20	986.69	751.93	5.43	110.21	0.20	54.59	2246.21	-2251.71	1726.79
Fixation L	1	6	3798365537	3798484901	119364	973.78	758.83	18	80	-1	13.76	13.76
Fixation R	1	6	3798365537	3798484901	119364	973.78	758.83	18	80	-1	14.92	14.92
Saccade L	1	7	3798484901	3798504769	19868	974.83	771.97	972.21	720.59	0.98	81.31	1.00	49.07	-504.66	-928.87	721.77
Saccade R	1	7	3798484901	3798504769	19868	974.83	771.97	972.21	720.59	0.98	81.31	1.00	49.07	-504.66	-928.87	721.77
Fixation L	1	7	3798504769	3798663884	159115	968.51	705.43	32	55	-1	13.45	13.45
Fixation R	1	7	3798504769	3798663884	159115	968.51	705.43	32	55	-1	14.69	14.69
Saccade L	1	8	3798663884	3798683886	20002	941.91	665.57	935.84	555.06	1.00	111.95	1.00	49.91	2565.97	-2432.68	2082.03
Saccade R	1	8	3798663884	3798683886	20002	941.91	665.57	935.84	555.06	1.00	111.95	1.00	49.91	2565.97	-2432.68	2082.03
Fixation L	1	8	3798683886	3798902635	218749	911.02	547.24	35	63	-1	13.63	13.63
Fixation R	1	8	3798683886	3798902635	218749	911.02	547.24	35	63	-1	14.94	14.94
Saccade L	1	9	3798902635	3798942372	39737	900.24	541.71	903.96	491.33	1.07	38.88	0.50	26.82	433.14	-516.89	316.68
Saccade R	1	9	3798902635	3798942372	39737	900.24	541.71	903.96	491.33	1.07	38.88	0.50	26.82	433.14	-516.89	316.68
