[BeGaze]
Converted from:	C:\Documents and Settings\iViewX\Desktop\EXPERIMENTATIONS\Experiments\results\finaleart\S8119532-finaleart-1.idf
Date:	27.03.2019 16:00:29
Version:	BeGaze 2.5.77
Sample Rate:	50
Subject:	S8119532
Description:	Alexandre Drewery

Table Header for Fixations:
Event Type	Trial	Number	Start	End	Duration	Location X	Location Y	Dispersion X	Dispersion Y	Plane	Avg. Pupil Size X	Avg. Pupil Size Y

Table Header for Saccades:
Event Type	Trial	Number	Start	End	Duration	Start Loc.X	Start Loc.Y	End Loc.X	End Loc.Y	Amplitude	Peak Speed	Peak Speed At	Average Speed	Peak Accel.	Peak Decel.	Average Accel.

Table Header for Blinks:
Event Type	Trial	Number	Start	End	Duration

Table Header for User Events:
Event Type	Trial	Number	Start	Description

UserEvent	1	1	3171844640	# Message: manet-the-salmon-1868.jpg
Fixation L	1	1	3171861184	3172000453	139269	943.29	568.86	59	38	-1	14.81	14.81
Fixation R	1	1	3171861184	3172000453	139269	943.29	568.86	59	38	-1	15.35	15.35
Saccade L	1	1	3172000453	3172020296	19843	970.95	579.02	965.14	589.08	0.24	18.07	1.00	12.04	-157.92	-333.09	220.98
Saccade R	1	1	3172000453	3172020296	19843	970.95	579.02	965.14	589.08	0.24	18.07	1.00	12.04	-157.92	-333.09	220.98
Fixation L	1	2	3172020296	3172179405	159109	979.83	581.55	43	36	-1	15.11	15.11
Fixation R	1	2	3172020296	3172179405	159109	979.83	581.55	43	36	-1	15.70	15.70
Saccade L	1	2	3172179405	3172202170	22765	1008.57	553.86	1038.77	564.04	0.65	40.11	0.00	28.43	445.87	-328.37	383.80
Saccade R	1	2	3172179405	3172202170	22765	1008.57	553.86	1038.77	564.04	0.65	40.11	0.00	28.43	445.87	-328.37	383.80
Fixation L	1	3	3172202170	3172318655	116485	1034.59	563.19	31	42	-1	15.08	15.08
Fixation R	1	3	3172202170	3172318655	116485	1034.59	563.19	31	42	-1	15.63	15.63
Saccade L	1	3	3172318655	3172338521	19866	1054.59	551.37	1122.18	545.99	0.68	68.59	1.00	34.46	1321.04	-1132.53	958.67
Saccade R	1	3	3172318655	3172338521	19866	1054.59	551.37	1122.18	545.99	0.68	68.59	1.00	34.46	1321.04	-1132.53	958.67
Fixation L	1	4	3172338521	3172517552	179031	1147.39	541.03	33	30	-1	14.93	14.93
Fixation R	1	4	3172338521	3172517552	179031	1147.39	541.03	33	30	-1	15.24	15.24
Saccade L	1	4	3172517552	3172537412	19860	1146.93	530.50	951.35	578.26	1.40	203.58	1.00	70.66	4615.03	-4715.19	3244.86
Saccade R	1	4	3172517552	3172537412	19860	1146.93	530.50	951.35	578.26	1.40	203.58	1.00	70.66	4615.03	-4715.19	3244.86
Fixation L	1	5	3172537412	3172796004	258592	924.16	579.22	34	59	-1	13.55	13.55
Fixation R	1	5	3172537412	3172796004	258592	924.16	579.22	34	59	-1	14.24	14.24
Saccade L	1	5	3172796004	3173074526	278522	920.88	570.73	1004.69	593.70	10.00	159.78	1.00	35.90	3419.41	-3242.78	1137.01
Saccade R	1	5	3172796004	3173074526	278522	920.88	570.73	1004.69	593.70	10.00	159.78	1.00	35.90	3419.41	-3242.78	1137.01
Fixation L	1	6	3173074526	3173511965	437439	1040.29	594.93	62	33	-1	12.74	12.74
Fixation R	1	6	3173074526	3173511965	437439	1040.29	594.93	62	33	-1	13.17	13.17
Saccade L	1	6	3173511965	3173551846	39881	1067.00	607.72	718.63	717.30	3.49	244.55	1.00	87.46	6005.72	-6005.07	4284.61
Saccade R	1	6	3173511965	3173551846	39881	1067.00	607.72	718.63	717.30	3.49	244.55	1.00	87.46	6005.72	-6005.07	4284.61
Fixation L	1	7	3173551846	3173730850	179004	669.09	731.05	60	39	-1	12.68	12.68
Fixation R	1	7	3173551846	3173730850	179004	669.09	731.05	60	39	-1	13.84	13.84
Saccade L	1	7	3173730850	3173750712	19862	658.88	756.67	657.56	760.23	0.30	34.65	0.00	15.24	751.58	-500.26	450.22
Saccade R	1	7	3173730850	3173750712	19862	658.88	756.67	657.56	760.23	0.30	34.65	0.00	15.24	751.58	-500.26	450.22
Fixation L	1	8	3173750712	3173969445	218733	640.97	755.25	27	33	-1	12.62	12.62
Fixation R	1	8	3173750712	3173969445	218733	640.97	755.25	27	33	-1	13.99	13.99
Saccade L	1	8	3173969445	3173989447	20002	630.04	758.53	648.83	895.39	1.05	139.73	1.00	52.62	3235.79	-2888.03	2387.70
Saccade R	1	8	3173969445	3173989447	20002	630.04	758.53	648.83	895.39	1.05	139.73	1.00	52.62	3235.79	-2888.03	2387.70
Fixation L	1	9	3173989447	3174208184	218737	684.17	871.31	47	34	-1	12.73	12.73
Fixation R	1	9	3173989447	3174208184	218737	684.17	871.31	47	34	-1	14.30	14.30
Saccade L	1	9	3174208184	3174228073	19889	692.45	861.34	692.81	712.87	0.89	150.17	1.00	44.54	3606.63	-3643.04	2558.44
Saccade R	1	9	3174208184	3174228073	19889	692.45	861.34	692.81	712.87	0.89	150.17	1.00	44.54	3606.63	-3643.04	2558.44
Fixation L	1	10	3174228073	3174546302	318229	684.24	711.12	54	23	-1	12.53	12.53
Fixation R	1	10	3174228073	3174546302	318229	684.24	711.12	54	23	-1	14.12	14.12
Saccade L	1	10	3174546302	3174586045	39743	679.73	720.60	1264.06	514.95	5.82	355.52	0.50	146.46	8584.16	-7743.99	7218.17
Saccade R	1	10	3174546302	3174586045	39743	679.73	720.60	1264.06	514.95	5.82	355.52	0.50	146.46	8584.16	-7743.99	7218.17
Fixation L	1	11	3174586045	3174904281	318236	1316.54	498.12	62	31	-1	13.20	13.20
Fixation R	1	11	3174586045	3174904281	318236	1316.54	498.12	62	31	-1	13.82	13.82
Saccade L	1	11	3174904281	3174983905	79624	1316.70	511.19	1263.58	499.94	1.71	43.11	0.50	21.45	963.75	-416.60	419.52
Saccade R	1	11	3174904281	3174983905	79624	1316.70	511.19	1263.58	499.94	1.71	43.11	0.50	21.45	963.75	-416.60	419.52
Fixation L	1	12	3174983905	3175083399	99494	1259.64	486.65	20	59	-1	13.00	13.00
Fixation R	1	12	3174983905	3175083399	99494	1259.64	486.65	20	59	-1	13.16	13.16
Saccade L	1	12	3175083399	3175123140	39741	1255.03	463.08	1148.14	381.03	1.88	79.84	0.50	47.32	1250.26	-1557.19	1017.57
Saccade R	1	12	3175083399	3175123140	39741	1255.03	463.08	1148.14	381.03	1.88	79.84	0.50	47.32	1250.26	-1557.19	1017.57
Fixation L	1	13	3175123140	3175361793	238653	1147.53	357.17	24	45	-1	12.79	12.79
Fixation R	1	13	3175123140	3175361793	238653	1147.53	357.17	24	45	-1	13.12	13.12
Saccade L	1	13	3175361793	3175381639	19846	1132.60	350.47	1010.73	338.04	0.85	123.90	1.00	42.77	2624.11	-2603.72	1790.85
Saccade R	1	13	3175361793	3175381639	19846	1132.60	350.47	1010.73	338.04	0.85	123.90	1.00	42.77	2624.11	-2603.72	1790.85
Fixation L	1	14	3175381639	3175660120	278481	987.11	354.38	32	48	-1	12.82	12.82
Fixation R	1	14	3175381639	3175660120	278481	987.11	354.38	32	48	-1	13.23	13.23
Saccade L	1	14	3175660120	3175739739	79619	993.83	386.75	398.87	578.12	9.33	322.90	0.50	117.24	7327.90	-6311.42	3765.40
Saccade R	1	14	3175660120	3175739739	79619	993.83	386.75	398.87	578.12	9.33	322.90	0.50	117.24	7327.90	-6311.42	3765.40
Fixation L	1	15	3175739739	3175839119	99380	378.31	583.57	59	18	-1	13.32	13.32
Fixation R	1	15	3175739739	3175839119	99380	378.31	583.57	59	18	-1	14.71	14.71
Saccade L	1	15	3175839119	3175878983	39864	394.94	585.17	326.94	529.59	1.55	64.35	0.50	38.98	406.60	0.00	204.49
Saccade R	1	15	3175839119	3175878983	39864	394.94	585.17	326.94	529.59	1.55	64.35	0.50	38.98	406.60	0.00	204.49
