[BeGaze]
Converted from:	C:\Documents and Settings\iViewX\Desktop\EXPERIMENTATIONS\Experiments\results\finaleart\S8119532-finaleart-1.idf
Date:	27.03.2019 16:01:18
Version:	BeGaze 2.5.77
Sample Rate:	50
Subject:	S8119532
Description:	Alexandre Drewery

Table Header for Fixations:
Event Type	Trial	Number	Start	End	Duration	Location X	Location Y	Dispersion X	Dispersion Y	Plane	Avg. Pupil Size X	Avg. Pupil Size Y

Table Header for Saccades:
Event Type	Trial	Number	Start	End	Duration	Start Loc.X	Start Loc.Y	End Loc.X	End Loc.Y	Amplitude	Peak Speed	Peak Speed At	Average Speed	Peak Accel.	Peak Decel.	Average Accel.

Table Header for Blinks:
Event Type	Trial	Number	Start	End	Duration

Table Header for User Events:
Event Type	Trial	Number	Start	Description

UserEvent	1	1	3550446964	# Message: void.jpg
Fixation L	1	1	3550462068	3550680911	218843	992.54	655.67	6	70	-1	16.74	16.74
Fixation R	1	1	3550462068	3550680911	218843	992.54	655.67	6	70	-1	18.58	18.58
Saccade L	1	1	3550680911	3550700813	19902	991.99	652.01	1037.58	654.01	0.36	46.17	1.00	18.33	1006.43	-963.46	705.59
Saccade R	1	1	3550680911	3550700813	19902	991.99	652.01	1037.58	654.01	0.36	46.17	1.00	18.33	1006.43	-963.46	705.59
Fixation L	1	2	3550700813	3550905696	204883	1059.38	659.87	34	9	-1	16.83	16.83
Fixation R	1	2	3550700813	3550905696	204883	1059.38	659.87	34	9	-1	18.34	18.34
Saccade L	1	2	3550905696	3550939587	33891	1072.07	663.66	1148.28	693.18	0.99	82.68	1.00	29.31	1921.64	-1602.16	1409.84
Saccade R	1	2	3550905696	3550939587	33891	1072.07	663.66	1148.28	693.18	0.99	82.68	1.00	29.31	1921.64	-1602.16	1409.84
Fixation L	1	3	3550939587	3551217882	278295	1166.70	681.76	27	32	-1	16.81	16.81
Fixation R	1	3	3550939587	3551217882	278295	1166.70	681.76	27	32	-1	18.36	18.36
Saccade L	1	3	3551217882	3551237749	19867	1166.23	663.83	1089.51	680.67	0.63	79.45	1.00	31.79	1820.25	-1608.21	1253.99
Saccade R	1	3	3551217882	3551237749	19867	1166.23	663.83	1089.51	680.67	0.63	79.45	1.00	31.79	1820.25	-1608.21	1253.99
Fixation L	1	4	3551237749	3551814588	576839	1071.11	666.27	35	47	-1	14.69	14.69
Fixation R	1	4	3551237749	3551814588	576839	1071.11	666.27	35	47	-1	16.46	16.46
Saccade L	1	4	3551814588	3551834460	19872	1058.24	668.02	1051.30	604.23	0.51	64.91	1.00	25.50	1505.62	-1455.12	1169.82
Saccade R	1	4	3551814588	3551834460	19872	1058.24	668.02	1051.30	604.23	0.51	64.91	1.00	25.50	1505.62	-1455.12	1169.82
Fixation L	1	5	3551834460	3552172573	338113	1038.30	585.43	32	31	-1	13.83	13.83
Fixation R	1	5	3551834460	3552172573	338113	1038.30	585.43	32	31	-1	15.32	15.32
Saccade L	1	5	3552172573	3552192569	19996	1018.90	603.18	927.42	632.38	0.71	97.14	1.00	35.73	2148.51	-2099.83	1508.43
Saccade R	1	5	3552172573	3552192569	19996	1018.90	603.18	927.42	632.38	0.71	97.14	1.00	35.73	2148.51	-2099.83	1508.43
Fixation L	1	6	3552192569	3552431183	238614	929.76	649.86	13	43	-1	13.73	13.73
Fixation R	1	6	3552192569	3552431183	238614	929.76	649.86	13	43	-1	15.31	15.31
