[BeGaze]
Converted from:	C:\Documents and Settings\iViewX\Desktop\EXPERIMENTATIONS\Experiments\results\finaleart\S8119532-finaleart-1.idf
Date:	27.03.2019 16:00:08
Version:	BeGaze 2.5.77
Sample Rate:	50
Subject:	S8119532
Description:	Alexandre Drewery

Table Header for Fixations:
Event Type	Trial	Number	Start	End	Duration	Location X	Location Y	Dispersion X	Dispersion Y	Plane	Avg. Pupil Size X	Avg. Pupil Size Y

Table Header for Saccades:
Event Type	Trial	Number	Start	End	Duration	Start Loc.X	Start Loc.Y	End Loc.X	End Loc.Y	Amplitude	Peak Speed	Peak Speed At	Average Speed	Peak Accel.	Peak Decel.	Average Accel.

Table Header for Blinks:
Event Type	Trial	Number	Start	End	Duration

Table Header for User Events:
Event Type	Trial	Number	Start	Description

UserEvent	1	1	2984675492	# Message: luxe-calme-et-volupté_matisse_1905.jpg
Fixation L	1	1	2984690660	2985108398	417738	796.41	559.75	71	22	-1	15.31	15.31
Fixation R	1	1	2984690660	2985108398	417738	796.41	559.75	71	22	-1	16.04	16.04
Saccade L	1	1	2985108398	2985128269	19871	812.21	560.58	815.05	575.41	0.18	15.27	1.00	9.29	232.79	-108.31	183.56
Saccade R	1	1	2985108398	2985128269	19871	812.21	560.58	815.05	575.41	0.18	15.27	1.00	9.29	232.79	-108.31	183.56
Fixation L	1	2	2985128269	2985287420	159151	817.98	569.08	13	15	-1	15.93	15.93
Fixation R	1	2	2985128269	2985287420	159151	817.98	569.08	13	15	-1	16.93	16.93
Saccade L	1	2	2985287420	2985327143	39723	822.67	561.35	1031.77	613.18	2.71	217.83	1.00	68.17	5410.47	-5015.56	3655.92
Saccade R	1	2	2985287420	2985327143	39723	822.67	561.35	1031.77	613.18	2.71	217.83	1.00	68.17	5410.47	-5015.56	3655.92
Fixation L	1	3	2985327143	2985486238	159095	1033.49	643.52	11	52	-1	15.29	15.29
Fixation R	1	3	2985327143	2985486238	159095	1033.49	643.52	11	52	-1	15.82	15.82
Saccade L	1	3	2985486238	2985506117	19879	1034.44	651.45	1097.00	649.79	0.73	63.30	1.00	36.69	1227.16	-215.91	543.36
Saccade R	1	3	2985486238	2985506117	19879	1034.44	651.45	1097.00	649.79	0.73	63.30	1.00	36.69	1227.16	-215.91	543.36
Fixation L	1	4	2985506117	2985744847	238730	1128.64	642.68	43	43	-1	13.49	13.49
Fixation R	1	4	2985506117	2985744847	238730	1128.64	642.68	43	43	-1	13.68	13.68
Saccade L	1	4	2985744847	2985764719	19872	1137.78	650.77	1152.53	659.73	0.22	18.97	1.00	11.22	351.64	-84.85	261.37
Saccade R	1	4	2985744847	2985764719	19872	1137.78	650.77	1152.53	659.73	0.22	18.97	1.00	11.22	351.64	-84.85	261.37
Fixation L	1	5	2985764719	2985943715	178996	1172.38	669.76	33	51	-1	12.59	12.59
Fixation R	1	5	2985764719	2985943715	178996	1172.38	669.76	33	51	-1	12.60	12.60
Saccade L	1	5	2985943715	2985963592	19877	1186.09	646.84	1120.27	668.47	0.55	70.08	1.00	27.81	1531.24	-1689.55	1127.66
Saccade R	1	5	2985943715	2985963592	19877	1186.09	646.84	1120.27	668.47	0.55	70.08	1.00	27.81	1531.24	-1689.55	1127.66
Fixation L	1	6	2985963592	2986082962	119370	1113.37	668.18	19	36	-1	12.58	12.58
Fixation R	1	6	2985963592	2986082962	119370	1113.37	668.18	19	36	-1	12.45	12.45
Saccade L	1	6	2986082962	2986122712	39750	1104.09	679.36	782.50	716.11	3.04	241.22	0.50	76.44	5353.08	-5812.85	3755.54
Saccade R	1	6	2986082962	2986122712	39750	1104.09	679.36	782.50	716.11	3.04	241.22	0.50	76.44	5353.08	-5812.85	3755.54
Fixation L	1	7	2986122712	2986261956	139244	783.30	726.07	16	68	-1	12.35	12.35
Fixation R	1	7	2986122712	2986261956	139244	783.30	726.07	16	68	-1	12.65	12.65
Saccade L	1	7	2986261956	2986281838	19882	774.43	737.40	745.83	717.10	0.66	35.49	1.00	33.00	95.71	-220.30	108.16
Saccade R	1	7	2986261956	2986281838	19882	774.43	737.40	745.83	717.10	0.66	35.49	1.00	33.00	95.71	-220.30	108.16
Fixation L	1	8	2986281838	2986440941	159103	734.14	704.44	25	20	-1	12.45	12.45
Fixation R	1	8	2986281838	2986440941	159103	734.14	704.44	25	20	-1	13.11	13.11
Saccade L	1	8	2986440941	2986500694	59753	726.04	700.39	580.60	784.92	2.73	112.29	0.33	45.61	2503.97	-1370.47	1442.45
Saccade R	1	8	2986440941	2986500694	59753	726.04	700.39	580.60	784.92	2.73	112.29	0.33	45.61	2503.97	-1370.47	1442.45
Fixation L	1	9	2986500694	2986938168	437474	579.49	787.61	30	43	-1	11.88	11.88
Fixation R	1	9	2986500694	2986938168	437474	579.49	787.61	30	43	-1	12.88	12.88
Saccade L	1	9	2986938168	2986997919	59751	595.91	776.98	399.56	748.68	3.53	126.19	0.67	59.07	2950.54	-2551.60	1954.45
Saccade R	1	9	2986938168	2986997919	59751	595.91	776.98	399.56	748.68	3.53	126.19	0.67	59.07	2950.54	-2551.60	1954.45
Fixation L	1	10	2986997919	2987216674	218755	406.16	749.13	27	56	-1	11.61	11.61
Fixation R	1	10	2986997919	2987216674	218755	406.16	749.13	27	56	-1	12.92	12.92
Saccade L	1	10	2987216674	2987276402	59728	416.94	742.59	876.79	303.14	7.03	325.95	1.00	117.76	7236.00	-7970.81	5871.58
Saccade R	1	10	2987216674	2987276402	59728	416.94	742.59	876.79	303.14	7.03	325.95	1.00	117.76	7236.00	-7970.81	5871.58
Fixation L	1	11	2987276402	2987435525	159123	906.79	285.13	37	42	-1	11.76	11.76
Fixation R	1	11	2987276402	2987435525	159123	906.79	285.13	37	42	-1	12.30	12.30
Saccade L	1	11	2987435525	2987475268	39743	912.75	285.27	1153.12	249.83	2.17	139.77	0.50	54.50	3300.72	-3068.96	2875.59
Saccade R	1	11	2987435525	2987475268	39743	912.75	285.27	1153.12	249.83	2.17	139.77	0.50	54.50	3300.72	-3068.96	2875.59
Fixation L	1	12	2987475268	2987694015	218747	1136.53	229.89	20	39	-1	11.28	11.28
Fixation R	1	12	2987475268	2987694015	218747	1136.53	229.89	20	39	-1	11.80	11.80
Saccade L	1	12	2987694015	2987713895	19880	1132.71	210.25	1243.59	217.19	0.71	112.37	1.00	35.85	2597.24	-2713.20	1945.24
Saccade R	1	12	2987694015	2987713895	19880	1132.71	210.25	1243.59	217.19	0.71	112.37	1.00	35.85	2597.24	-2713.20	1945.24
Fixation L	1	13	2987713895	2988072013	358118	1264.62	193.22	33	34	-1	11.17	11.17
Fixation R	1	13	2987713895	2988072013	358118	1264.62	193.22	33	34	-1	11.18	11.18
Saccade L	1	13	2988072013	2988091864	19851	1263.88	201.15	1276.79	366.36	1.23	167.59	1.00	61.76	3859.06	-4125.96	3026.36
Saccade R	1	13	2988072013	2988091864	19851	1263.88	201.15	1276.79	366.36	1.23	167.59	1.00	61.76	3859.06	-4125.96	3026.36
Fixation L	1	14	2988091864	2988211231	119367	1294.54	399.80	27	51	-1	11.03	11.03
Fixation R	1	14	2988091864	2988211231	119367	1294.54	399.80	27	51	-1	11.16	11.16
Saccade L	1	14	2988211231	2988250985	39754	1298.09	412.34	1412.71	526.10	1.83	107.26	0.50	46.11	2363.76	-2534.26	1907.79
Saccade R	1	14	2988211231	2988250985	39754	1298.09	412.34	1412.71	526.10	1.83	107.26	0.50	46.11	2363.76	-2534.26	1907.79
Fixation L	1	15	2988250985	2988469725	218740	1409.72	551.91	34	41	-1	11.10	11.10
Fixation R	1	15	2988250985	2988469725	218740	1409.72	551.91	34	41	-1	11.09	11.09
Saccade L	1	15	2988469725	2988489589	19864	1411.44	567.26	1404.13	643.33	0.55	77.30	1.00	27.57	1713.52	-1920.45	1325.96
Saccade R	1	15	2988469725	2988489589	19864	1411.44	567.26	1404.13	643.33	0.55	77.30	1.00	27.57	1713.52	-1920.45	1325.96
Fixation L	1	16	2988489589	2988609042	119453	1400.70	652.71	7	17	-1	11.49	11.49
Fixation R	1	16	2988489589	2988609042	119453	1400.70	652.71	7	17	-1	11.43	11.43
Saccade L	1	16	2988609042	2988708479	99437	1404.57	644.75	1166.83	646.52	6.02	243.91	0.40	60.56	5967.92	-5575.61	2500.53
Saccade R	1	16	2988609042	2988708479	99437	1404.57	644.75	1166.83	646.52	6.02	243.91	0.40	60.56	5967.92	-5575.61	2500.53
