[BeGaze]
Converted from:	C:\Documents and Settings\iViewX\Desktop\EXPERIMENTATIONS\Experiments\results\finaleart\S8119532-finaleart-1.idf
Date:	27.03.2019 16:00:38
Version:	BeGaze 2.5.77
Sample Rate:	50
Subject:	S8119532
Description:	Alexandre Drewery

Table Header for Fixations:
Event Type	Trial	Number	Start	End	Duration	Location X	Location Y	Dispersion X	Dispersion Y	Plane	Avg. Pupil Size X	Avg. Pupil Size Y

Table Header for Saccades:
Event Type	Trial	Number	Start	End	Duration	Start Loc.X	Start Loc.Y	End Loc.X	End Loc.Y	Amplitude	Peak Speed	Peak Speed At	Average Speed	Peak Accel.	Peak Decel.	Average Accel.

Table Header for Blinks:
Event Type	Trial	Number	Start	End	Duration

Table Header for User Events:
Event Type	Trial	Number	Start	Description

UserEvent	1	1	3231385862	# Message: void.jpg
Fixation L	1	1	3231392096	3231670437	278341	268.03	590.63	34	45	-1	12.26	12.26
Fixation R	1	1	3231392096	3231670437	278341	268.03	590.63	34	45	-1	13.26	13.26
Saccade L	1	1	3231670437	3231745616	75179	290.90	619.68	306.11	649.69	1.70	34.04	1.00	22.58	456.48	49.01	299.22
Saccade R	1	1	3231670437	3231745616	75179	290.90	619.68	306.11	649.69	1.70	34.04	1.00	22.58	456.48	49.01	299.22
Fixation L	1	2	3231745616	3231901905	156289	341.17	659.47	60	39	-1	12.90	12.90
Fixation R	1	2	3231745616	3231901905	156289	341.17	659.47	60	39	-1	13.85	13.85
Saccade L	1	2	3231901905	3231968794	66889	366.44	670.84	710.57	314.85	6.49	239.06	0.70	97.08	5751.62	-5566.65	3711.24
Saccade R	1	2	3231901905	3231968794	66889	366.44	670.84	710.57	314.85	6.49	239.06	0.70	97.08	5751.62	-5566.65	3711.24
Fixation L	1	3	3231968794	3232426275	457481	700.88	284.22	27	44	-1	13.09	13.09
Fixation R	1	3	3231968794	3232426275	457481	700.88	284.22	27	44	-1	13.17	13.17
Saccade L	1	3	3232426275	3232665029	238754	709.27	285.42	857.21	602.01	12.84	131.75	0.25	53.79	2386.52	-1767.65	1158.16
Saccade R	1	3	3232426275	3232665029	238754	709.27	285.42	857.21	602.01	12.84	131.75	0.25	53.79	2386.52	-1767.65	1158.16
Fixation L	1	4	3232665029	3232844007	178978	856.95	585.44	20	78	-1	13.77	13.77
Fixation R	1	4	3232665029	3232844007	178978	856.95	585.44	20	78	-1	13.89	13.89
Saccade L	1	4	3232844007	3232863872	19865	865.20	581.74	873.73	589.03	0.38	50.86	1.00	18.99	256.19	-987.70	483.53
Saccade R	1	4	3232844007	3232863872	19865	865.20	581.74	873.73	589.03	0.38	50.86	1.00	18.99	256.19	-987.70	483.53
Fixation L	1	5	3232863872	3233281628	417756	869.91	585.44	10	43	-1	13.62	13.62
Fixation R	1	5	3232863872	3233281628	417756	869.91	585.44	10	43	-1	14.11	14.11
Saccade L	1	5	3233281628	3233380973	99345	864.03	591.62	865.13	594.76	32.24	1109.78	0.40	324.51	27589.07	-27744.43	14327.54
Saccade R	1	5	3233281628	3233380973	99345	864.03	591.62	865.13	594.76	32.24	1109.78	0.40	324.51	27589.07	-27744.43	14327.54
