[BeGaze]
Converted from:	C:\Documents and Settings\iViewX\Desktop\EXPERIMENTATIONS\Experiments\results\finaleart\S8119532-finaleart-1.idf
Date:	27.03.2019 15:59:38
Version:	BeGaze 2.5.77
Sample Rate:	50
Subject:	S8119532
Description:	Alexandre Drewery

Table Header for Fixations:
Event Type	Trial	Number	Start	End	Duration	Location X	Location Y	Dispersion X	Dispersion Y	Plane	Avg. Pupil Size X	Avg. Pupil Size Y

Table Header for Saccades:
Event Type	Trial	Number	Start	End	Duration	Start Loc.X	Start Loc.Y	End Loc.X	End Loc.Y	Amplitude	Peak Speed	Peak Speed At	Average Speed	Peak Accel.	Peak Decel.	Average Accel.

Table Header for Blinks:
Event Type	Trial	Number	Start	End	Duration

Table Header for User Events:
Event Type	Trial	Number	Start	Description

UserEvent	1	1	2669689674	# Message: bacchante_sorolla_1886.jpg
Fixation L	1	1	2669700416	2670098122	397706	896.71	523.19	19	40	-1	16.48	16.48
Fixation R	1	1	2669700416	2670098122	397706	896.71	523.19	19	40	-1	17.49	17.49
Blink L	1	1	2670098122	2670277135	179013
Blink R	1	1	2670098122	2670277135	179013
Fixation L	1	2	2670277135	2670476106	198971	859.11	534.43	34	53	-1	18.45	18.45
Fixation R	1	2	2670277135	2670476106	198971	859.11	534.43	34	53	-1	20.82	20.82
Saccade L	1	1	2670476106	2670495990	19884	833.79	564.22	832.76	577.28	0.33	34.53	0.00	16.60	103.44	-638.41	277.71
Saccade R	1	1	2670476106	2670495990	19884	833.79	564.22	832.76	577.28	0.33	34.53	0.00	16.60	103.44	-638.41	277.71
Fixation L	1	3	2670495990	2670814214	318224	838.11	595.28	19	39	-1	16.13	16.13
Fixation R	1	3	2670495990	2670814214	318224	838.11	595.28	19	39	-1	18.08	18.08
Saccade L	1	2	2670814214	2670834083	19869	850.03	612.50	1013.47	623.56	1.06	165.67	1.00	53.45	4012.58	-3943.24	2795.47
Saccade R	1	2	2670814214	2670834083	19869	850.03	612.50	1013.47	623.56	1.06	165.67	1.00	53.45	4012.58	-3943.24	2795.47
Fixation L	1	4	2670834083	2670973323	139240	1022.93	618.49	12	11	-1	13.62	13.62
Fixation R	1	4	2670834083	2670973323	139240	1022.93	618.49	12	11	-1	15.51	15.51
Saccade L	1	3	2670973323	2671013081	39758	1026.08	616.54	1322.51	509.01	3.02	161.66	1.00	76.00	4024.35	-3925.51	3581.97
Saccade R	1	3	2670973323	2671013081	39758	1026.08	616.54	1322.51	509.01	3.02	161.66	1.00	76.00	4024.35	-3925.51	3581.97
Fixation L	1	5	2671013081	2671351189	338108	1317.66	541.93	31	61	-1	13.20	13.20
Fixation R	1	5	2671013081	2671351189	338108	1317.66	541.93	31	61	-1	14.42	14.42
Saccade L	1	4	2671351189	2671391063	39874	1295.54	505.64	1139.00	346.80	2.79	235.91	0.50	70.05	5814.19	-5027.53	2728.60
Saccade R	1	4	2671351189	2671391063	39874	1295.54	505.64	1139.00	346.80	2.79	235.91	0.50	70.05	5814.19	-5027.53	2728.60
Fixation L	1	6	2671391063	2671510305	119242	1128.27	314.33	17	72	-1	12.89	12.89
Fixation R	1	6	2671391063	2671510305	119242	1128.27	314.33	17	72	-1	14.53	14.53
Saccade L	1	5	2671510305	2671609802	99497	1121.49	325.08	979.47	58.97	8.37	162.91	0.60	84.10	2241.21	-3658.83	2095.10
Saccade R	1	5	2671510305	2671609802	99497	1121.49	325.08	979.47	58.97	8.37	162.91	0.60	84.10	2241.21	-3658.83	2095.10
Fixation L	1	7	2671609802	2671788793	178991	979.11	71.56	30	52	-1	12.96	12.96
Fixation R	1	7	2671609802	2671788793	178991	979.11	71.56	30	52	-1	14.85	14.85
Saccade L	1	6	2671788793	2671808694	19901	994.50	100.09	1215.63	165.57	1.40	233.18	1.00	70.41	5764.20	-5213.88	3853.35
Saccade R	1	6	2671788793	2671808694	19901	994.50	100.09	1215.63	165.57	1.40	233.18	1.00	70.41	5764.20	-5213.88	3853.35
Fixation L	1	8	2671808694	2671908177	99483	1207.97	174.85	17	28	-1	13.03	13.03
Fixation R	1	8	2671808694	2671908177	99483	1207.97	174.85	17	28	-1	14.90	14.90
Saccade L	1	7	2671908177	2672007667	99490	1202.24	185.34	1523.75	168.57	6.91	201.01	0.40	69.50	4961.99	-3136.59	2129.46
Saccade R	1	7	2671908177	2672007667	99490	1202.24	185.34	1523.75	168.57	6.91	201.01	0.40	69.50	4961.99	-3136.59	2129.46
Fixation L	1	9	2672007667	2672166772	159105	1510.77	181.19	37	41	-1	13.46	13.46
Fixation R	1	9	2672007667	2672166772	159105	1510.77	181.19	37	41	-1	14.86	14.86
Saccade L	1	8	2672166772	2672345796	179024	1509.68	164.57	1497.28	77.32	10.02	142.62	0.78	55.95	2074.17	-2524.90	1092.64
Saccade R	1	8	2672166772	2672345796	179024	1509.68	164.57	1497.28	77.32	10.02	142.62	0.78	55.95	2074.17	-2524.90	1092.64
Fixation L	1	10	2672345796	2672504890	159094	1466.89	95.75	54	44	-1	13.19	13.19
Fixation R	1	10	2672345796	2672504890	159094	1466.89	95.75	54	44	-1	14.90	14.90
Saccade L	1	9	2672504890	2672584378	79488	1452.13	105.25	1204.18	593.34	6.69	294.16	0.75	84.18	6638.96	-7286.39	4024.71
Saccade R	1	9	2672504890	2672584378	79488	1452.13	105.25	1204.18	593.34	6.69	294.16	0.75	84.18	6638.96	-7286.39	4024.71
Fixation L	1	11	2672584378	2672803241	218863	1196.95	585.13	55	44	-1	13.94	13.94
Fixation R	1	11	2672584378	2672803241	218863	1196.95	585.13	55	44	-1	15.78	15.78
Saccade L	1	10	2672803241	2672823125	19884	1149.52	564.60	909.82	582.34	1.58	243.00	1.00	79.38	6011.83	-5844.92	4288.19
Saccade R	1	10	2672803241	2672823125	19884	1149.52	564.60	909.82	582.34	1.58	243.00	1.00	79.38	6011.83	-5844.92	4288.19
Fixation L	1	12	2672823125	2673101624	278499	895.64	609.90	27	56	-1	14.21	14.21
Fixation R	1	12	2672823125	2673101624	278499	895.64	609.90	27	56	-1	16.02	16.02
Saccade L	1	11	2673101624	2673141344	39720	895.98	601.05	536.10	582.57	3.49	259.20	1.00	87.97	5908.69	-6264.73	4237.94
Saccade R	1	11	2673101624	2673141344	39720	895.98	601.05	536.10	582.57	3.49	259.20	1.00	87.97	5908.69	-6264.73	4237.94
Fixation L	1	13	2673141344	2673260747	119403	511.92	603.46	35	48	-1	13.24	13.24
Fixation R	1	13	2673141344	2673260747	119403	511.92	603.46	35	48	-1	15.63	15.63
Blink L	1	2	2673260747	2673419834	159087
Blink R	1	2	2673260747	2673419834	159087
Fixation L	1	14	2673419834	2673598825	178991	437.51	663.59	14	23	-1	14.03	14.03
Fixation R	1	14	2673419834	2673598825	178991	437.51	663.59	14	23	-1	16.99	16.99
Saccade L	1	12	2673598825	2673678319	79494	432.66	667.75	778.09	468.57	6.04	238.28	0.50	75.95	5609.73	-5728.91	3484.28
Saccade R	1	12	2673598825	2673678319	79494	432.66	667.75	778.09	468.57	6.04	238.28	0.50	75.95	5609.73	-5728.91	3484.28
