[BeGaze]
Converted from:	C:\Documents and Settings\iViewX\Desktop\EXPERIMENTATIONS\Experiments\results\finaleart\S8119532-finaleart-1.idf
Date:	27.03.2019 16:00:14
Version:	BeGaze 2.5.77
Sample Rate:	50
Subject:	S8119532
Description:	Alexandre Drewery

Table Header for Fixations:
Event Type	Trial	Number	Start	End	Duration	Location X	Location Y	Dispersion X	Dispersion Y	Plane	Avg. Pupil Size X	Avg. Pupil Size Y

Table Header for Saccades:
Event Type	Trial	Number	Start	End	Duration	Start Loc.X	Start Loc.Y	End Loc.X	End Loc.Y	Amplitude	Peak Speed	Peak Speed At	Average Speed	Peak Accel.	Peak Decel.	Average Accel.

Table Header for Blinks:
Event Type	Trial	Number	Start	End	Duration

Table Header for User Events:
Event Type	Trial	Number	Start	Description

UserEvent	1	1	3019562475	# Message: void.jpg
Fixation L	1	1	3019577755	3019789814	212059	792.56	832.96	22	57	-1	13.38	13.38
Fixation R	1	1	3019577755	3019789814	212059	792.56	832.96	22	57	-1	14.59	14.59
Blink L	1	1	3019789814	3020015335	225521
Blink R	1	1	3019789814	3020015335	225521
Fixation L	1	2	3020015335	3020154581	139246	681.47	895.96	17	61	-1	12.69	12.69
Fixation R	1	2	3020015335	3020154581	139246	681.47	895.96	17	61	-1	13.94	13.94
Saccade L	1	1	3020154581	3020174450	19869	685.71	906.30	688.91	956.10	0.67	50.47	1.00	33.94	685.78	-921.61	706.63
Saccade R	1	1	3020154581	3020174450	19869	685.71	906.30	688.91	956.10	0.67	50.47	1.00	33.94	685.78	-921.61	706.63
Fixation L	1	3	3020174450	3020612071	437621	689.17	907.36	30	62	-1	13.22	13.22
Fixation R	1	3	3020174450	3020612071	437621	689.17	907.36	30	62	-1	14.39	14.39
Saccade L	1	2	3020612071	3020651812	39741	685.82	898.82	897.53	773.07	2.15	148.66	0.50	54.13	3582.78	-3416.71	2923.98
Saccade R	1	2	3020612071	3020651812	39741	685.82	898.82	897.53	773.07	2.15	148.66	0.50	54.13	3582.78	-3416.71	2923.98
Fixation L	1	4	3020651812	3020989916	338104	901.91	777.30	18	77	-1	13.56	13.56
Fixation R	1	4	3020651812	3020989916	338104	901.91	777.30	18	77	-1	14.43	14.43
Saccade L	1	3	3020989916	3021009786	19870	905.35	736.09	917.42	567.69	1.18	170.75	1.00	59.29	3657.93	-2486.31	2151.44
Saccade R	1	3	3020989916	3021009786	19870	905.35	736.09	917.42	567.69	1.18	170.75	1.00	59.29	3657.93	-2486.31	2151.44
Fixation L	1	5	3021009786	3021188796	179010	934.53	549.35	27	70	-1	13.04	13.04
Fixation R	1	5	3021009786	3021188796	179010	934.53	549.35	27	70	-1	13.16	13.16
Saccade L	1	4	3021188796	3021208779	19983	943.74	530.57	952.19	546.35	0.34	29.51	0.00	16.97	143.06	-540.55	305.67
Saccade R	1	4	3021188796	3021208779	19983	943.74	530.57	952.19	546.35	0.34	29.51	0.00	16.97	143.06	-540.55	305.67
Fixation L	1	6	3021208779	3021606512	397733	960.25	540.67	15	14	-1	12.88	12.88
Fixation R	1	6	3021208779	3021606512	397733	960.25	540.67	15	14	-1	12.95	12.95
