[BeGaze]
Converted from:	C:\Documents and Settings\iViewX\Desktop\EXPERIMENTATIONS\Experiments\results\finaleart\S8119532-finaleart-1.idf
Date:	27.03.2019 16:01:02
Version:	BeGaze 2.5.77
Sample Rate:	50
Subject:	S8119532
Description:	Alexandre Drewery

Table Header for Fixations:
Event Type	Trial	Number	Start	End	Duration	Location X	Location Y	Dispersion X	Dispersion Y	Plane	Avg. Pupil Size X	Avg. Pupil Size Y

Table Header for Saccades:
Event Type	Trial	Number	Start	End	Duration	Start Loc.X	Start Loc.Y	End Loc.X	End Loc.Y	Amplitude	Peak Speed	Peak Speed At	Average Speed	Peak Accel.	Peak Decel.	Average Accel.

Table Header for Blinks:
Event Type	Trial	Number	Start	End	Duration

Table Header for User Events:
Event Type	Trial	Number	Start	Description

UserEvent	1	1	3445841522	# Message: void.jpg
Fixation L	1	1	3445860430	3446019544	159114	558.70	736.75	35	63	-1	14.94	14.94
Fixation R	1	1	3445860430	3446019544	159114	558.70	736.75	35	63	-1	17.85	17.85
Saccade L	1	1	3446019544	3446158777	139233	563.87	745.36	1226.80	740.54	12.54	300.57	0.86	90.08	7282.63	-6921.91	3394.71
Saccade R	1	1	3446019544	3446158777	139233	563.87	745.36	1226.80	740.54	12.54	300.57	0.86	90.08	7282.63	-6921.91	3394.71
Fixation L	1	2	3446158777	3446368550	209773	1212.88	738.03	20	41	-1	14.11	14.11
Fixation R	1	2	3446158777	3446368550	209773	1212.88	738.03	20	41	-1	15.97	15.97
Saccade L	1	2	3446368550	3446437269	68719	1214.71	722.71	685.59	331.22	8.24	320.71	0.71	119.87	7857.74	-7451.75	5152.74
Saccade R	1	2	3446368550	3446437269	68719	1214.71	722.71	685.59	331.22	8.24	320.71	0.71	119.87	7857.74	-7451.75	5152.74
Fixation L	1	3	3446437269	3446916935	479666	676.27	320.99	22	28	-1	12.64	12.64
Fixation R	1	3	3446437269	3446916935	479666	676.27	320.99	22	28	-1	14.97	14.97
Saccade L	1	3	3446916935	3446954376	37441	672.72	328.32	1012.86	327.01	3.53	343.68	1.00	94.21	8469.89	-8435.68	5676.93
Saccade R	1	3	3446916935	3446954376	37441	672.72	328.32	1012.86	327.01	3.53	343.68	1.00	94.21	8469.89	-8435.68	5676.93
Fixation L	1	4	3446954376	3447889198	934822	1016.07	354.55	31	48	-1	12.74	12.74
Fixation R	1	4	3446954376	3447889198	934822	1016.07	354.55	31	48	-1	14.97	14.97
