[BeGaze]
Converted from:	C:\Documents and Settings\iViewX\Desktop\EXPERIMENTATIONS\Experiments\results\finaleart\S8119532-finaleart-1.idf
Date:	27.03.2019 16:01:27
Version:	BeGaze 2.5.77
Sample Rate:	50
Subject:	S8119532
Description:	Alexandre Drewery

Table Header for Fixations:
Event Type	Trial	Number	Start	End	Duration	Location X	Location Y	Dispersion X	Dispersion Y	Plane	Avg. Pupil Size X	Avg. Pupil Size Y

Table Header for Saccades:
Event Type	Trial	Number	Start	End	Duration	Start Loc.X	Start Loc.Y	End Loc.X	End Loc.Y	Amplitude	Peak Speed	Peak Speed At	Average Speed	Peak Accel.	Peak Decel.	Average Accel.

Table Header for Blinks:
Event Type	Trial	Number	Start	End	Duration

Table Header for User Events:
Event Type	Trial	Number	Start	Description

UserEvent	1	1	3710762366	# Message: void.jpg
Fixation L	1	1	3710770020	3710988743	218723	442.74	740.05	24	58	-1	11.97	11.97
Fixation R	1	1	3710770020	3710988743	218723	442.74	740.05	24	58	-1	13.46	13.46
Saccade L	1	1	3710988743	3711088224	99481	450.59	724.45	1296.10	390.43	14.31	546.07	0.80	143.80	11003.60	-13271.02	6905.42
Saccade R	1	1	3710988743	3711088224	99481	450.59	724.45	1296.10	390.43	14.31	546.07	0.80	143.80	11003.60	-13271.02	6905.42
Fixation L	1	2	3711088224	3711207647	119423	1292.95	366.70	9	77	-1	12.75	12.75
Fixation R	1	2	3711088224	3711207647	119423	1292.95	366.70	9	77	-1	13.20	13.20
Saccade L	1	2	3711207647	3711247335	39688	1293.31	371.28	1337.73	135.55	4.10	242.52	1.00	103.21	4286.31	-5825.60	3522.03
Saccade R	1	2	3711207647	3711247335	39688	1293.31	371.28	1337.73	135.55	4.10	242.52	1.00	103.21	4286.31	-5825.60	3522.03
Fixation L	1	3	3711247335	3711366701	119366	1316.39	136.25	39	11	-1	12.29	12.29
Fixation R	1	3	3711247335	3711366701	119366	1316.39	136.25	39	11	-1	12.79	12.79
Blink L	1	1	3711366701	3711565578	198877
Blink R	1	1	3711366701	3711625185	258484
Saccade L	1	3	3711625185	3711943424	318239	771.27	589.66	787.89	740.00	19.41	143.19	0.34	61.00	3301.78	-3358.55	1916.87
Saccade R	1	3	3711625185	3711943424	318239	771.27	589.66	787.89	740.00	19.41	143.19	0.34	61.00	3301.78	-3358.55	1916.87
Fixation L	1	4	3711943424	3712062800	119376	791.26	691.94	17	73	-1	13.76	13.76
Fixation R	1	4	3711943424	3712062800	119376	791.26	691.94	17	73	-1	15.19	15.19
Saccade L	1	4	3712062800	3712082671	19871	802.00	666.36	794.42	649.03	0.22	19.13	1.00	10.89	409.12	-359.21	266.67
Saccade R	1	4	3712062800	3712082671	19871	802.00	666.36	794.42	649.03	0.22	19.13	1.00	10.89	409.12	-359.21	266.67
Fixation L	1	5	3712082671	3712579893	497222	799.91	625.71	40	58	-1	12.74	12.74
Fixation R	1	5	3712082671	3712579893	497222	799.91	625.71	40	58	-1	14.70	14.70
Saccade L	1	5	3712579893	3712619768	39875	832.03	593.24	970.21	378.24	3.29	161.84	0.50	82.54	3020.95	-2852.11	1970.97
Saccade R	1	5	3712579893	3712619768	39875	832.03	593.24	970.21	378.24	3.29	161.84	0.50	82.54	3020.95	-2852.11	1970.97
Fixation L	1	6	3712619768	3712739027	119259	978.71	380.16	18	78	-1	12.05	12.05
Fixation R	1	6	3712619768	3712739027	119259	978.71	380.16	18	78	-1	13.60	13.60
Saccade L	1	6	3712739027	3712778884	39857	988.68	383.00	988.79	395.42	0.69	33.69	1.00	17.43	107.12	-698.04	268.39
Saccade R	1	6	3712739027	3712778884	39857	988.68	383.00	988.79	395.42	0.69	33.69	1.00	17.43	107.12	-698.04	268.39
