[BeGaze]
Converted from:	C:\Documents and Settings\iViewX\Desktop\EXPERIMENTATIONS\Experiments\results\finaleart\S8119532-finaleart-1.idf
Date:	27.03.2019 15:59:41
Version:	BeGaze 2.5.77
Sample Rate:	50
Subject:	S8119532
Description:	Alexandre Drewery

Table Header for Fixations:
Event Type	Trial	Number	Start	End	Duration	Location X	Location Y	Dispersion X	Dispersion Y	Plane	Avg. Pupil Size X	Avg. Pupil Size Y

Table Header for Saccades:
Event Type	Trial	Number	Start	End	Duration	Start Loc.X	Start Loc.Y	End Loc.X	End Loc.Y	Amplitude	Peak Speed	Peak Speed At	Average Speed	Peak Accel.	Peak Decel.	Average Accel.

Table Header for Blinks:
Event Type	Trial	Number	Start	End	Duration

Table Header for User Events:
Event Type	Trial	Number	Start	Description

UserEvent	1	1	2692282638	# Message: void.jpg
Fixation L	1	1	2692295444	2692414809	119365	937.58	768.68	27	50	-1	14.54	14.54
Fixation R	1	1	2692295444	2692414809	119365	937.58	768.68	27	50	-1	16.07	16.07
Saccade L	1	1	2692414809	2692449603	34794	956.56	738.68	1051.94	599.39	2.07	170.73	1.00	59.46	4075.89	-3250.92	2502.51
Saccade R	1	1	2692414809	2692449603	34794	956.56	738.68	1051.94	599.39	2.07	170.73	1.00	59.46	4075.89	-3250.92	2502.51
Fixation L	1	2	2692449603	2692724866	275263	1045.81	596.14	32	39	-1	14.02	14.02
Fixation R	1	2	2692449603	2692724866	275263	1045.81	596.14	32	39	-1	15.47	15.47
Saccade L	1	2	2692724866	2692752927	28061	1046.84	612.77	944.24	818.66	1.75	232.58	1.00	62.38	5711.11	-5738.07	3833.90
Saccade R	1	2	2692724866	2692752927	28061	1046.84	612.77	944.24	818.66	1.75	232.58	1.00	62.38	5711.11	-5738.07	3833.90
Fixation L	1	3	2692752927	2692912028	159101	946.69	817.19	7	11	-1	12.79	12.79
Fixation R	1	3	2692752927	2692912028	159101	946.69	817.19	7	11	-1	14.17	14.17
Blink L	1	1	2692912028	2693071159	159131
Blink R	1	1	2692912028	2693071159	159131
Fixation L	1	4	2693071159	2693230266	159107	937.18	724.68	13	18	-1	14.43	14.43
Fixation R	1	4	2693071159	2693230266	159107	937.18	724.68	13	18	-1	15.84	15.84
Blink L	1	2	2693230266	2693409254	178988
Blink R	1	2	2693230266	2693409254	178988
Fixation L	1	5	2693409254	2693540787	131533	973.33	740.87	12	25	-1	15.84	15.84
Fixation R	1	5	2693409254	2693540787	131533	973.33	740.87	12	25	-1	16.07	16.07
Saccade L	1	3	2693540787	2693568372	27585	976.21	749.63	981.38	660.12	1.19	90.69	1.00	43.21	1932.95	-1737.29	1714.17
Saccade R	1	3	2693540787	2693568372	27585	976.21	749.63	981.38	660.12	1.19	90.69	1.00	43.21	1932.95	-1737.29	1714.17
Fixation L	1	6	2693568372	2693727486	159114	979.87	731.70	6	91	-1	14.88	14.88
Fixation R	1	6	2693568372	2693727486	159114	979.87	731.70	6	91	-1	15.14	15.14
Saccade L	1	4	2693727486	2693747358	19872	977.91	745.20	978.24	755.00	0.16	14.43	1.00	8.09	-89.14	-172.87	124.99
Saccade R	1	4	2693727486	2693747358	19872	977.91	745.20	978.24	755.00	0.16	14.43	1.00	8.09	-89.14	-172.87	124.99
Fixation L	1	7	2693747358	2694224711	477353	975.12	740.25	14	70	-1	13.90	13.90
Fixation R	1	7	2693747358	2694224711	477353	975.12	740.25	14	70	-1	13.93	13.93
Saccade L	1	5	2694224711	2694304337	79626	965.89	724.48	971.22	581.70	4.94	138.68	0.25	62.01	3268.20	-2701.54	1947.06
Saccade R	1	5	2694224711	2694304337	79626	965.89	724.48	971.22	581.70	4.94	138.68	0.25	62.01	3268.20	-2701.54	1947.06
Fixation L	1	8	2694304337	2694403844	99507	962.54	584.96	13	47	-1	13.31	13.31
Fixation R	1	8	2694304337	2694403844	99507	962.54	584.96	13	47	-1	13.85	13.85
