[BeGaze]
Converted from:	C:\Documents and Settings\iViewX\Desktop\EXPERIMENTATIONS\Experiments\results\finaleart\S8119532-finaleart-1.idf
Date:	27.03.2019 16:01:09
Version:	BeGaze 2.5.77
Sample Rate:	50
Subject:	S8119532
Description:	Alexandre Drewery

Table Header for Fixations:
Event Type	Trial	Number	Start	End	Duration	Location X	Location Y	Dispersion X	Dispersion Y	Plane	Avg. Pupil Size X	Avg. Pupil Size Y

Table Header for Saccades:
Event Type	Trial	Number	Start	End	Duration	Start Loc.X	Start Loc.Y	End Loc.X	End Loc.Y	Amplitude	Peak Speed	Peak Speed At	Average Speed	Peak Accel.	Peak Decel.	Average Accel.

Table Header for Blinks:
Event Type	Trial	Number	Start	End	Duration

Table Header for User Events:
Event Type	Trial	Number	Start	Description

UserEvent	1	1	3488954482	# Message: void.jpg
Fixation L	1	1	3488962122	3489217710	255588	1023.67	504.11	6	79	-1	12.39	12.39
Fixation R	1	1	3488962122	3489217710	255588	1023.67	504.11	6	79	-1	13.22	13.22
Saccade L	1	1	3489217710	3489439479	221769	1020.26	511.50	827.40	597.11	15.65	242.04	0.21	70.55	5919.51	-4450.63	2145.38
Saccade R	1	1	3489217710	3489439479	221769	1020.26	511.50	827.40	597.11	15.65	242.04	0.21	70.55	5919.51	-4450.63	2145.38
Fixation L	1	2	3489439479	3489996456	556977	844.01	602.07	43	42	-1	13.50	13.50
Fixation R	1	2	3489439479	3489996456	556977	844.01	602.07	43	42	-1	14.88	14.88
Saccade L	1	2	3489996456	3490016311	19855	843.92	600.31	842.27	642.39	0.68	42.60	1.00	34.07	304.42	-875.88	452.14
Saccade R	1	2	3489996456	3490016311	19855	843.92	600.31	842.27	642.39	0.68	42.60	1.00	34.07	304.42	-875.88	452.14
Fixation L	1	3	3490016311	3490175421	159110	845.41	614.87	9	54	-1	14.72	14.72
Fixation R	1	3	3490016311	3490175421	159110	845.41	614.87	9	54	-1	16.12	16.12
Saccade L	1	3	3490175421	3490196008	20587	850.97	587.60	852.19	513.74	0.71	74.73	1.00	34.30	1315.23	-1543.80	1001.02
Saccade R	1	3	3490175421	3490196008	20587	850.97	587.60	852.19	513.74	0.71	74.73	1.00	34.30	1315.23	-1543.80	1001.02
Fixation L	1	4	3490196008	3490493651	297643	865.38	479.78	22	73	-1	15.07	15.07
Fixation R	1	4	3490196008	3490493651	297643	865.38	479.78	22	73	-1	16.48	16.48
Saccade L	1	4	3490493651	3490513523	19872	870.52	463.89	862.13	433.36	0.31	32.04	1.00	15.80	607.02	-620.00	444.33
Saccade R	1	4	3490493651	3490513523	19872	870.52	463.89	862.13	433.36	0.31	32.04	1.00	15.80	607.02	-620.00	444.33
Fixation L	1	5	3490513523	3490971012	457489	859.96	436.36	19	42	-1	15.30	15.30
Fixation R	1	5	3490513523	3490971012	457489	859.96	436.36	19	42	-1	16.86	16.86
