[BeGaze]
Converted from:	C:\Documents and Settings\iViewX\Desktop\EXPERIMENTATIONS\Experiments\results\finaleart\S8119532-finaleart-1.idf
Date:	27.03.2019 16:01:13
Version:	BeGaze 2.5.77
Sample Rate:	50
Subject:	S8119532
Description:	Alexandre Drewery

Table Header for Fixations:
Event Type	Trial	Number	Start	End	Duration	Location X	Location Y	Dispersion X	Dispersion Y	Plane	Avg. Pupil Size X	Avg. Pupil Size Y

Table Header for Saccades:
Event Type	Trial	Number	Start	End	Duration	Start Loc.X	Start Loc.Y	End Loc.X	End Loc.Y	Amplitude	Peak Speed	Peak Speed At	Average Speed	Peak Accel.	Peak Decel.	Average Accel.

Table Header for Blinks:
Event Type	Trial	Number	Start	End	Duration

Table Header for User Events:
Event Type	Trial	Number	Start	Description

UserEvent	1	1	3513546271	# Message: void.jpg
Fixation L	1	1	3513566062	3514321888	755826	1372.71	454.75	29	49	-1	13.80	13.80
Fixation R	1	1	3513566062	3514321888	755826	1372.71	454.75	29	49	-1	14.24	14.24
Blink L	1	1	3514321888	3514560622	238734
Blink R	1	1	3514321888	3514560622	238734
Saccade L	1	1	3514560622	3514580499	19877	781.94	762.47	782.74	814.85	0.88	109.81	1.00	44.23	333.11	-1420.65	916.70
Saccade R	1	1	3514560622	3514580499	19877	781.94	762.47	782.74	814.85	0.88	109.81	1.00	44.23	333.11	-1420.65	916.70
Fixation L	1	2	3514580499	3514799267	218768	779.56	838.59	8	77	-1	14.15	14.15
Fixation R	1	2	3514580499	3514799267	218768	779.56	838.59	8	77	-1	17.13	17.13
Saccade L	1	2	3514799267	3514819111	19844	778.23	818.80	775.78	770.89	0.97	74.46	0.00	48.99	-158.19	-1408.56	624.77
Saccade R	1	2	3514799267	3514819111	19844	778.23	818.80	775.78	770.89	0.97	74.46	0.00	48.99	-158.19	-1408.56	624.77
Fixation L	1	3	3514819111	3515057858	238747	782.29	796.74	34	65	-1	13.08	13.08
Fixation R	1	3	3514819111	3515057858	238747	782.29	796.74	34	65	-1	15.90	15.90
Saccade L	1	3	3515057858	3515077730	19872	793.10	786.08	799.67	786.16	0.07	6.64	1.00	3.52	153.32	-63.44	98.11
Saccade R	1	3	3515057858	3515077730	19872	793.10	786.08	799.67	786.16	0.07	6.64	1.00	3.52	153.32	-63.44	98.11
Fixation L	1	4	3515077730	3515455710	377980	804.16	796.71	10	65	-1	12.78	12.78
Fixation R	1	4	3515077730	3515455710	377980	804.16	796.71	10	65	-1	15.26	15.26
Saccade L	1	4	3515455710	3515535202	79492	806.27	800.53	875.88	531.35	4.52	205.13	0.50	56.87	4857.01	-4648.28	2201.72
Saccade R	1	4	3515455710	3515535202	79492	806.27	800.53	875.88	531.35	4.52	205.13	0.50	56.87	4857.01	-4648.28	2201.72
