[BeGaze]
Converted from:	C:\Documents and Settings\iViewX\Desktop\EXPERIMENTATIONS\Experiments\results\finaleart\S8119532-finaleart-1.idf
Date:	27.03.2019 16:01:12
Version:	BeGaze 2.5.77
Sample Rate:	50
Subject:	S8119532
Description:	Alexandre Drewery

Table Header for Fixations:
Event Type	Trial	Number	Start	End	Duration	Location X	Location Y	Dispersion X	Dispersion Y	Plane	Avg. Pupil Size X	Avg. Pupil Size Y

Table Header for Saccades:
Event Type	Trial	Number	Start	End	Duration	Start Loc.X	Start Loc.Y	End Loc.X	End Loc.Y	Amplitude	Peak Speed	Peak Speed At	Average Speed	Peak Accel.	Peak Decel.	Average Accel.

Table Header for Blinks:
Event Type	Trial	Number	Start	End	Duration

Table Header for User Events:
Event Type	Trial	Number	Start	Description

UserEvent	1	1	3509419180	# Message: sargent-male-model-resting.jpg
Fixation L	1	1	3509429021	3509846680	417659	904.32	603.63	31	61	-1	12.67	12.67
Fixation R	1	1	3509429021	3509846680	417659	904.32	603.63	31	61	-1	14.27	14.27
Saccade L	1	1	3509846680	3509866692	20012	915.32	605.95	926.18	582.45	0.64	50.62	1.00	31.98	-238.85	-777.13	542.29
Saccade R	1	1	3509846680	3509866692	20012	915.32	605.95	926.18	582.45	0.64	50.62	1.00	31.98	-238.85	-777.13	542.29
Fixation L	1	2	3509866692	3510065473	198781	942.44	574.45	28	35	-1	13.30	13.30
Fixation R	1	2	3509866692	3510065473	198781	942.44	574.45	28	35	-1	14.33	14.33
Saccade L	1	2	3510065473	3510105220	39747	954.77	573.10	1277.07	562.82	2.74	209.79	0.50	68.98	5183.97	-5104.71	3864.43
Saccade R	1	2	3510065473	3510105220	39747	954.77	573.10	1277.07	562.82	2.74	209.79	0.50	68.98	5183.97	-5104.71	3864.43
Fixation L	1	3	3510105220	3510363215	257995	1269.25	544.26	30	41	-1	12.96	12.96
Fixation R	1	3	3510105220	3510363215	257995	1269.25	544.26	30	41	-1	13.88	13.88
Saccade L	1	3	3510363215	3510383704	20489	1246.07	541.20	680.72	591.39	3.32	572.26	1.00	161.95	14168.37	-14203.79	9496.46
Saccade R	1	3	3510363215	3510383704	20489	1246.07	541.20	680.72	591.39	3.32	572.26	1.00	161.95	14168.37	-14203.79	9496.46
Fixation L	1	4	3510383704	3510701940	318236	684.07	628.59	10	61	-1	13.33	13.33
Fixation R	1	4	3510383704	3510701940	318236	684.07	628.59	10	61	-1	14.71	14.71
Saccade L	1	4	3510701940	3510721806	19866	679.18	612.20	671.64	558.84	0.40	54.51	1.00	20.34	1063.03	-834.56	640.69
Saccade R	1	4	3510701940	3510721806	19866	679.18	612.20	671.64	558.84	0.40	54.51	1.00	20.34	1063.03	-834.56	640.69
Fixation L	1	5	3510721806	3510821307	99501	667.29	582.71	13	69	-1	13.65	13.65
Fixation R	1	5	3510721806	3510821307	99501	667.29	582.71	13	69	-1	15.13	15.13
Saccade L	1	5	3510821307	3510880923	59616	657.92	562.19	1256.51	625.09	6.81	320.19	0.67	114.24	7179.01	-7856.82	4500.50
Saccade R	1	5	3510821307	3510880923	59616	657.92	562.19	1256.51	625.09	6.81	320.19	0.67	114.24	7179.01	-7856.82	4500.50
Fixation L	1	6	3510880923	3511159413	278490	1239.36	644.05	26	42	-1	14.26	14.26
Fixation R	1	6	3510880923	3511159413	278490	1239.36	644.05	26	42	-1	14.71	14.71
Saccade L	1	6	3511159413	3511179289	19876	1234.62	664.85	1328.92	470.15	1.33	218.74	1.00	66.67	5345.09	-5082.40	3791.42
Saccade R	1	6	3511159413	3511179289	19876	1234.62	664.85	1328.92	470.15	1.33	218.74	1.00	66.67	5345.09	-5082.40	3791.42
Fixation L	1	7	3511179289	3511676518	497229	1372.63	453.41	62	32	-1	13.24	13.24
Fixation R	1	7	3511179289	3511676518	497229	1372.63	453.41	62	32	-1	13.70	13.70
Saccade L	1	7	3511676518	3511716391	39873	1335.79	463.22	910.37	392.42	4.03	278.38	0.50	100.97	6216.08	-6928.41	4968.89
Saccade R	1	7	3511676518	3511716391	39873	1335.79	463.22	910.37	392.42	4.03	278.38	0.50	100.97	6216.08	-6928.41	4968.89
Fixation L	1	8	3511716391	3511875512	159121	927.20	373.16	27	33	-1	12.75	12.75
Fixation R	1	8	3511716391	3511875512	159121	927.20	373.16	27	33	-1	13.69	13.69
Saccade L	1	8	3511875512	3511895378	19866	931.60	358.68	819.16	365.92	0.88	113.97	1.00	44.29	2592.85	-2178.49	1832.26
Saccade R	1	8	3511875512	3511895378	19866	931.60	358.68	819.16	365.92	0.88	113.97	1.00	44.29	2592.85	-2178.49	1832.26
Fixation L	1	9	3511895378	3512114123	218745	760.71	363.53	68	19	-1	12.66	12.66
Fixation R	1	9	3511895378	3512114123	218745	760.71	363.53	68	19	-1	14.02	14.02
Saccade L	1	9	3512114123	3512153865	39742	752.64	367.85	1040.30	228.81	3.21	217.41	1.00	80.67	5385.27	-5006.14	3477.07
Saccade R	1	9	3512114123	3512153865	39742	752.64	367.85	1040.30	228.81	3.21	217.41	1.00	80.67	5385.27	-5006.14	3477.07
Fixation L	1	10	3512153865	3512372736	218871	1096.81	213.84	67	30	-1	13.13	13.13
Fixation R	1	10	3512153865	3512372736	218871	1096.81	213.84	67	30	-1	14.25	14.25
Saccade L	1	10	3512372736	3512392606	19870	1106.60	217.06	1118.34	208.56	0.19	16.30	1.00	9.80	286.82	-128.18	231.98
Saccade R	1	10	3512372736	3512392606	19870	1106.60	217.06	1118.34	208.56	0.19	16.30	1.00	9.80	286.82	-128.18	231.98
Fixation L	1	11	3512392606	3512631218	238612	1103.98	217.23	27	66	-1	13.61	13.61
Fixation R	1	11	3512392606	3512631218	238612	1103.98	217.23	27	66	-1	14.49	14.49
Saccade L	1	11	3512631218	3512671091	39873	1122.21	253.42	1320.83	532.44	3.69	254.47	0.50	92.65	5777.68	-5987.70	4060.32
Saccade R	1	11	3512631218	3512671091	39873	1122.21	253.42	1320.83	532.44	3.69	254.47	0.50	92.65	5777.68	-5987.70	4060.32
Fixation L	1	12	3512671091	3513208062	536971	1301.32	541.03	53	45	-1	13.93	13.93
Fixation R	1	12	3512671091	3513208062	536971	1301.32	541.03	53	45	-1	14.65	14.65
Saccade L	1	12	3513208062	3513227940	19878	1317.12	521.82	1338.91	412.43	0.87	112.82	1.00	43.99	2747.78	-1530.50	1531.91
Saccade R	1	12	3513208062	3513227940	19878	1317.12	521.82	1338.91	412.43	0.87	112.82	1.00	43.99	2747.78	-1530.50	1531.91
Fixation L	1	13	3513227940	3513466678	238738	1368.48	428.55	39	50	-1	13.32	13.32
Fixation R	1	13	3513227940	3513466678	238738	1368.48	428.55	39	50	-1	13.99	13.99
