[BeGaze]
Converted from:	C:\Documents and Settings\iViewX\Desktop\EXPERIMENTATIONS\Experiments\results\finaleart\S8119532-finaleart-1.idf
Date:	27.03.2019 16:00:09
Version:	BeGaze 2.5.77
Sample Rate:	50
Subject:	S8119532
Description:	Alexandre Drewery

Table Header for Fixations:
Event Type	Trial	Number	Start	End	Duration	Location X	Location Y	Dispersion X	Dispersion Y	Plane	Avg. Pupil Size X	Avg. Pupil Size Y

Table Header for Saccades:
Event Type	Trial	Number	Start	End	Duration	Start Loc.X	Start Loc.Y	End Loc.X	End Loc.Y	Amplitude	Peak Speed	Peak Speed At	Average Speed	Peak Accel.	Peak Decel.	Average Accel.

Table Header for Blinks:
Event Type	Trial	Number	Start	End	Duration

Table Header for User Events:
Event Type	Trial	Number	Start	Description

UserEvent	1	1	2990864995	# Message: still-life-post-bottle-cup-and-fruit_cezanne_1871.jpg
Fixation L	1	1	2990876484	2991294079	417595	949.53	605.59	59	36	-1	14.97	14.97
Fixation R	1	1	2990876484	2991294079	417595	949.53	605.59	59	36	-1	16.32	16.32
Saccade L	1	1	2991294079	2991314943	20864	906.36	617.63	901.04	619.35	0.24	14.86	1.00	11.57	124.71	-203.51	133.43
Saccade R	1	1	2991294079	2991314943	20864	906.36	617.63	901.04	619.35	0.24	14.86	1.00	11.57	124.71	-203.51	133.43
Fixation L	1	2	2991314943	2991691946	377003	907.77	635.71	17	28	-1	15.82	15.82
Fixation R	1	2	2991314943	2991691946	377003	907.77	635.71	17	28	-1	16.97	16.97
Saccade L	1	2	2991691946	2991731696	39750	915.20	632.04	595.80	623.64	2.92	215.79	1.00	73.49	5283.60	-5311.50	3748.83
Saccade R	1	2	2991691946	2991731696	39750	915.20	632.04	595.80	623.64	2.92	215.79	1.00	73.49	5283.60	-5311.50	3748.83
Fixation L	1	3	2991731696	2991953937	222241	579.21	603.45	30	27	-1	14.28	14.28
Fixation R	1	3	2991731696	2991953937	222241	579.21	603.45	30	27	-1	15.82	15.82
Saccade L	1	3	2991953937	2991990315	36378	599.57	601.92	714.22	577.40	1.67	118.59	1.00	45.97	2876.26	-2704.73	1897.78
Saccade R	1	3	2991953937	2991990315	36378	599.57	601.92	714.22	577.40	1.67	118.59	1.00	45.97	2876.26	-2704.73	1897.78
Fixation L	1	4	2991990315	2992149418	159103	707.64	542.19	23	47	-1	14.18	14.18
Fixation R	1	4	2991990315	2992149418	159103	707.64	542.19	23	47	-1	15.50	15.50
Saccade L	1	4	2992149418	2992209043	59625	722.65	547.20	1292.15	524.59	6.35	260.03	0.67	106.55	5921.40	-5711.17	3957.35
Saccade R	1	4	2992149418	2992209043	59625	722.65	547.20	1292.15	524.59	6.35	260.03	0.67	106.55	5921.40	-5711.17	3957.35
Fixation L	1	5	2992209043	2992427904	218861	1283.43	476.13	31	67	-1	15.01	15.01
Fixation R	1	5	2992209043	2992427904	218861	1283.43	476.13	31	67	-1	15.57	15.57
Saccade L	1	5	2992427904	2992447783	19879	1279.60	457.26	1315.91	485.33	0.49	46.43	1.00	24.59	1146.01	-210.72	760.02
Saccade R	1	5	2992427904	2992447783	19879	1279.60	457.26	1315.91	485.33	0.49	46.43	1.00	24.59	1146.01	-210.72	760.02
Fixation L	1	6	2992447783	2992646648	198865	1333.72	526.73	26	71	-1	15.36	15.36
Fixation R	1	6	2992447783	2992646648	198865	1333.72	526.73	26	71	-1	15.69	15.69
Saccade L	1	6	2992646648	2992686390	39742	1340.03	519.14	1163.88	678.67	2.28	157.27	0.50	57.33	3635.47	-3190.55	2634.76
Saccade R	1	6	2992646648	2992686390	39742	1340.03	519.14	1163.88	678.67	2.28	157.27	0.50	57.33	3635.47	-3190.55	2634.76
Fixation L	1	7	2992686390	2993084253	397863	1163.17	695.17	30	30	-1	15.19	15.19
Fixation R	1	7	2992686390	2993084253	397863	1163.17	695.17	30	30	-1	15.59	15.59
Saccade L	1	7	2993084253	2993123996	39743	1140.64	682.47	826.17	679.96	2.98	220.45	0.50	75.07	5170.03	-4995.18	3544.87
Saccade R	1	7	2993084253	2993123996	39743	1140.64	682.47	826.17	679.96	2.98	220.45	0.50	75.07	5170.03	-4995.18	3544.87
Fixation L	1	8	2993123996	2993541724	417728	813.34	683.89	21	43	-1	15.27	15.27
Fixation R	1	8	2993123996	2993561602	437606	811.88	684.65	46	43	-1	16.08	16.08
Blink L	1	1	2993541724	2993760465	218741
Saccade R	1	8	2993561602	2993680968	119366	779.81	701.20	463.68	583.09	50.59	1246.61	0.50	423.85	24951.93	-27731.72	15209.60
Fixation R	1	9	2993680968	2993840084	159116	473.39	606.05	46	41	-1	15.81	15.81
Saccade L	1	8	2993760465	2993979332	218867	457.25	608.30	528.01	521.74	10.06	120.31	0.91	45.94	2612.22	-1799.34	1167.67
Saccade R	1	9	2993840084	2993979332	139248	460.52	606.67	528.01	521.74	7.46	120.31	0.86	53.59	2612.22	-1799.34	1604.04
Fixation L	1	9	2993979332	2994098577	119245	502.75	521.05	45	30	-1	12.21	12.21
Fixation R	1	10	2993979332	2994098577	119245	502.75	521.05	45	30	-1	15.15	15.15
Saccade L	1	9	2994098577	2994138448	39871	519.68	517.56	710.74	557.23	2.00	155.19	1.00	50.08	3736.24	-3477.15	2116.97
Saccade R	1	10	2994098577	2994138448	39871	519.68	517.56	710.74	557.23	2.00	155.19	1.00	50.08	3736.24	-3477.15	2116.97
Fixation L	1	10	2994138448	2994615798	477350	711.98	536.26	13	40	-1	13.04	13.04
Fixation R	1	11	2994138448	2994615798	477350	711.98	536.26	13	40	-1	15.81	15.81
Blink L	1	2	2994615798	2994794794	178996
Blink R	1	1	2994615798	2994794794	178996
Fixation L	1	11	2994794794	2994914163	119369	815.01	672.49	11	49	-1	15.80	15.80
Fixation R	1	12	2994794794	2994914163	119369	815.01	672.49	11	49	-1	18.23	18.23
