[BeGaze]
Converted from:	C:\Documents and Settings\iViewX\Desktop\EXPERIMENTATIONS\Experiments\results\finaleart\S8119532-finaleart-1.idf
Date:	27.03.2019 16:00:12
Version:	BeGaze 2.5.77
Sample Rate:	50
Subject:	S8119532
Description:	Alexandre Drewery

Table Header for Fixations:
Event Type	Trial	Number	Start	End	Duration	Location X	Location Y	Dispersion X	Dispersion Y	Plane	Avg. Pupil Size X	Avg. Pupil Size Y

Table Header for Saccades:
Event Type	Trial	Number	Start	End	Duration	Start Loc.X	Start Loc.Y	End Loc.X	End Loc.Y	Amplitude	Peak Speed	Peak Speed At	Average Speed	Peak Accel.	Peak Decel.	Average Accel.

Table Header for Blinks:
Event Type	Trial	Number	Start	End	Duration

Table Header for User Events:
Event Type	Trial	Number	Start	Description

UserEvent	1	1	3009338140	# Message: cross-La-fuite-des-nymphes-1906.jpg
Fixation L	1	1	3009354226	3009652573	298347	974.96	539.88	69	28	-1	11.13	11.13
Fixation R	1	1	3009354226	3009652573	298347	974.96	539.88	69	28	-1	13.59	13.59
Saccade L	1	1	3009652573	3009672477	19904	1006.31	523.92	1009.10	510.36	0.21	14.84	0.00	10.32	196.81	-213.07	164.70
Saccade R	1	1	3009652573	3009672477	19904	1006.31	523.92	1009.10	510.36	0.21	14.84	0.00	10.32	196.81	-213.07	164.70
Fixation L	1	2	3009672477	3010249310	576833	1029.15	522.10	26	58	-1	12.18	12.18
Fixation R	1	2	3009672477	3010249310	576833	1029.15	522.10	26	58	-1	14.54	14.54
Saccade L	1	2	3010249310	3010289046	39736	1035.46	533.31	1300.03	602.17	2.49	163.36	0.50	62.66	3967.96	-3652.66	3396.66
Saccade R	1	2	3010249310	3010289046	39736	1035.46	533.31	1300.03	602.17	2.49	163.36	0.50	62.66	3967.96	-3652.66	3396.66
Fixation L	1	3	3010289046	3010448170	159124	1284.72	614.29	22	27	-1	11.89	11.89
Fixation R	1	3	3010289046	3010448170	159124	1284.72	614.29	22	27	-1	13.02	13.02
Saccade L	1	3	3010448170	3010488035	39865	1277.96	616.22	1012.08	358.95	3.51	217.77	0.50	88.03	5133.39	-4547.63	4226.07
Saccade R	1	3	3010448170	3010488035	39865	1277.96	616.22	1012.08	358.95	3.51	217.77	0.50	88.03	5133.39	-4547.63	4226.07
Fixation L	1	4	3010488035	3010667032	178997	1022.74	339.26	24	30	-1	10.89	10.89
Fixation R	1	4	3010488035	3010667032	178997	1022.74	339.26	24	30	-1	12.59	12.59
Saccade L	1	4	3010667032	3010746530	79498	1023.19	347.89	596.09	448.53	6.39	322.27	0.50	80.39	7726.36	-6914.62	3206.48
Saccade R	1	4	3010667032	3010746530	79498	1023.19	347.89	596.09	448.53	6.39	322.27	0.50	80.39	7726.36	-6914.62	3206.48
Fixation L	1	5	3010746530	3010965386	218856	578.99	434.92	41	47	-1	10.57	10.57
Fixation R	1	5	3010746530	3010965386	218856	578.99	434.92	41	47	-1	12.73	12.73
Saccade L	1	5	3010965386	3010985270	19884	602.68	453.49	623.19	461.22	0.40	27.69	0.00	20.20	-2.65	-476.41	293.14
Saccade R	1	5	3010965386	3010985270	19884	602.68	453.49	623.19	461.22	0.40	27.69	0.00	20.20	-2.65	-476.41	293.14
Fixation L	1	6	3010985270	3011144386	159116	628.22	456.50	42	18	-1	10.16	10.16
Fixation R	1	6	3010985270	3011144386	159116	628.22	456.50	42	18	-1	12.46	12.46
Saccade L	1	6	3011144386	3011164260	19874	594.14	447.14	387.31	411.74	1.50	212.18	1.00	75.65	5052.99	-4907.95	3392.22
Saccade R	1	6	3011144386	3011164260	19874	594.14	447.14	387.31	411.74	1.50	212.18	1.00	75.65	5052.99	-4907.95	3392.22
Fixation L	1	7	3011164260	3011502360	338100	411.41	456.75	34	56	-1	10.15	10.15
Fixation R	1	7	3011164260	3011502360	338100	411.41	456.75	34	56	-1	12.33	12.33
Saccade L	1	7	3011502360	3011581985	79625	421.38	457.51	504.71	508.08	2.43	55.72	1.00	30.49	1121.52	-415.04	571.97
Saccade R	1	7	3011502360	3011581985	79625	421.38	457.51	504.71	508.08	2.43	55.72	1.00	30.49	1121.52	-415.04	571.97
Fixation L	1	8	3011581985	3011701235	119250	495.22	518.68	20	37	-1	10.32	10.32
Fixation R	1	8	3011581985	3011701235	119250	495.22	518.68	20	37	-1	12.95	12.95
Saccade L	1	8	3011701235	3011741106	39871	491.12	519.38	730.42	491.83	2.17	146.00	0.50	54.48	3423.57	-3386.42	2719.87
Saccade R	1	8	3011701235	3011741106	39871	491.12	519.38	730.42	491.83	2.17	146.00	0.50	54.48	3423.57	-3386.42	2719.87
Fixation L	1	9	3011741106	3012019588	278482	721.39	460.32	25	56	-1	10.53	10.53
Fixation R	1	9	3011741106	3012019588	278482	721.39	460.32	25	56	-1	12.97	12.97
Saccade L	1	9	3012019588	3012039468	19880	715.29	444.87	714.24	398.00	0.46	47.42	1.00	23.06	1145.49	-1007.45	1024.40
Saccade R	1	9	3012019588	3012039468	19880	715.29	444.87	714.24	398.00	0.46	47.42	1.00	23.06	1145.49	-1007.45	1024.40
Fixation L	1	10	3012039468	3012138835	99367	712.84	417.84	3	66	-1	10.49	10.49
Fixation R	1	10	3012039468	3012138835	99367	712.84	417.84	3	66	-1	12.77	12.77
Saccade L	1	10	3012138835	3012178706	39871	710.48	424.84	502.98	725.95	3.92	250.34	1.00	98.37	5066.46	-5337.91	3859.75
Saccade R	1	10	3012138835	3012178706	39871	710.48	424.84	502.98	725.95	3.92	250.34	1.00	98.37	5066.46	-5337.91	3859.75
Fixation L	1	11	3012178706	3012457073	278367	498.27	742.84	31	58	-1	10.68	10.68
Fixation R	1	11	3012178706	3012457073	278367	498.27	742.84	31	58	-1	13.42	13.42
Saccade L	1	11	3012457073	3012496942	39869	507.74	734.81	1147.89	570.21	5.93	359.78	0.50	148.69	8032.89	-8741.29	7886.43
Saccade R	1	11	3012457073	3012496942	39869	507.74	734.81	1147.89	570.21	5.93	359.78	0.50	148.69	8032.89	-8741.29	7886.43
Fixation L	1	12	3012496942	3012755430	258488	1156.66	550.20	53	39	-1	11.32	11.32
Fixation R	1	12	3012496942	3012755430	258488	1156.66	550.20	53	39	-1	12.86	12.86
Saccade L	1	12	3012755430	3012775315	19885	1111.52	530.77	1097.25	452.04	0.81	80.93	1.00	40.82	1737.98	-1575.00	1413.11
Saccade R	1	12	3012755430	3012775315	19885	1111.52	530.77	1097.25	452.04	0.81	80.93	1.00	40.82	1737.98	-1575.00	1413.11
Fixation L	1	13	3012775315	3012894677	119362	1091.28	436.72	19	41	-1	10.75	10.75
Fixation R	1	13	3012775315	3012894677	119362	1091.28	436.72	19	41	-1	12.53	12.53
Saccade L	1	13	3012894677	3012934421	39744	1092.02	423.00	1291.01	592.81	2.44	154.21	1.00	61.36	3558.87	-3612.88	3051.58
Saccade R	1	13	3012894677	3012934421	39744	1092.02	423.00	1291.01	592.81	2.44	154.21	1.00	61.36	3558.87	-3612.88	3051.58
Fixation L	1	14	3012934421	3013113535	179114	1291.09	594.27	32	30	-1	10.87	10.87
Fixation R	1	14	3012934421	3013113535	179114	1291.09	594.27	32	30	-1	11.97	11.97
Saccade L	1	14	3013113535	3013153289	39754	1308.41	569.20	1359.22	339.06	2.34	160.78	0.50	58.91	3953.06	-3513.68	2583.61
Saccade R	1	14	3013113535	3013153289	39754	1308.41	569.20	1359.22	339.06	2.34	160.78	0.50	58.91	3953.06	-3513.68	2583.61
Fixation L	1	15	3013153289	3013352151	198862	1356.89	356.29	28	27	-1	11.03	11.03
Fixation R	1	15	3013153289	3013352151	198862	1356.89	356.29	28	27	-1	12.07	12.07
