[BeGaze]
Converted from:	C:\Documents and Settings\iViewX\Desktop\EXPERIMENTATIONS\Experiments\results\finaleart\S8119532-finaleart-1.idf
Date:	27.03.2019 16:01:34
Version:	BeGaze 2.5.77
Sample Rate:	50
Subject:	S8119532
Description:	Alexandre Drewery

Table Header for Fixations:
Event Type	Trial	Number	Start	End	Duration	Location X	Location Y	Dispersion X	Dispersion Y	Plane	Avg. Pupil Size X	Avg. Pupil Size Y

Table Header for Saccades:
Event Type	Trial	Number	Start	End	Duration	Start Loc.X	Start Loc.Y	End Loc.X	End Loc.Y	Amplitude	Peak Speed	Peak Speed At	Average Speed	Peak Accel.	Peak Decel.	Average Accel.

Table Header for Blinks:
Event Type	Trial	Number	Start	End	Duration

Table Header for User Events:
Event Type	Trial	Number	Start	Description

UserEvent	1	1	3753833567	# Message: void.jpg
Fixation L	1	1	3753851797	3753971041	119244	356.31	236.24	53	40	-1	13.11	13.11
Fixation R	1	1	3753851797	3753971041	119244	356.31	236.24	53	40	-1	14.76	14.76
Saccade L	1	1	3753971041	3754010911	39870	379.33	259.69	317.86	233.67	1.29	66.98	1.00	32.24	1553.60	-936.35	799.84
Saccade R	1	1	3753971041	3754010911	39870	379.33	259.69	317.86	233.67	1.29	66.98	1.00	32.24	1553.60	-936.35	799.84
Fixation L	1	2	3754010911	3754170050	159139	306.13	233.73	73	14	-1	12.75	12.75
Fixation R	1	2	3754010911	3754170050	159139	306.13	233.73	73	14	-1	15.20	15.20
Saccade L	1	2	3754170050	3754349015	178965	315.13	235.96	500.67	788.66	16.74	319.46	0.89	93.55	6744.68	-7223.71	3556.59
Saccade R	1	2	3754170050	3754349015	178965	315.13	235.96	500.67	788.66	16.74	319.46	0.89	93.55	6744.68	-7223.71	3556.59
Fixation L	1	3	3754349015	3754448378	99363	521.87	822.11	35	51	-1	13.46	13.46
Fixation R	1	3	3754349015	3754448378	99363	521.87	822.11	35	51	-1	16.27	16.27
Saccade L	1	3	3754448378	3754746737	298359	529.44	824.77	988.38	333.13	26.23	242.84	0.20	87.92	2944.18	-4051.17	1803.90
Saccade R	1	3	3754448378	3754746737	298359	529.44	824.77	988.38	333.13	26.23	242.84	0.20	87.92	2944.18	-4051.17	1803.90
Blink L	1	1	3754746737	3754945734	198997
Blink R	1	1	3754746737	3754945734	198997
Saccade L	1	4	3754945734	3755045101	99367	965.29	696.15	960.76	698.84	17.91	1178.85	1.00	180.21	1674.67	-28966.77	5170.00
Saccade R	1	4	3754945734	3755045101	99367	965.29	696.15	960.76	698.84	17.91	1178.85	1.00	180.21	1674.67	-28966.77	5170.00
Fixation L	1	4	3755045101	3755343463	298362	951.55	699.39	24	59	-1	12.67	12.67
Fixation R	1	4	3755045101	3755343463	298362	951.55	699.39	24	59	-1	14.15	14.15
Saccade L	1	5	3755343463	3755522457	178994	935.90	693.43	934.68	722.08	8.30	83.70	0.44	46.37	1510.52	-1112.85	569.26
Saccade R	1	5	3755343463	3755522457	178994	935.90	693.43	934.68	722.08	8.30	83.70	0.44	46.37	1510.52	-1112.85	569.26
Fixation L	1	5	3755522457	3755621951	99494	929.52	685.42	11	85	-1	12.58	12.58
Fixation R	1	5	3755522457	3755621951	99494	929.52	685.42	11	85	-1	14.33	14.33
Saccade L	1	6	3755621951	3755641829	19878	933.61	670.00	939.68	709.57	0.71	44.80	1.00	35.56	731.42	-21.81	367.17
Saccade R	1	6	3755621951	3755641829	19878	933.61	670.00	939.68	709.57	0.71	44.80	1.00	35.56	731.42	-21.81	367.17
Fixation L	1	6	3755641829	3755820819	178990	935.19	692.43	29	57	-1	12.68	12.68
Fixation R	1	6	3755641829	3755820819	178990	935.19	692.43	29	57	-1	14.17	14.17
Saccade L	1	7	3755820819	3755860563	39744	917.90	660.42	934.08	520.94	2.13	136.69	0.50	53.49	3065.52	-1228.99	1431.50
Saccade R	1	7	3755820819	3755860563	39744	917.90	660.42	934.08	520.94	2.13	136.69	0.50	53.49	3065.52	-1228.99	1431.50
