[BeGaze]
Converted from:	C:\Documents and Settings\iViewX\Desktop\EXPERIMENTATIONS\Experiments\results\finaleart\S9H29221-finaleart-1.idf
Date:	27.03.2019 16:03:51
Version:	BeGaze 2.5.77
Sample Rate:	50
Subject:	S9H29221
Description:	steven

Table Header for Fixations:
Event Type	Trial	Number	Start	End	Duration	Location X	Location Y	Dispersion X	Dispersion Y	Plane	Avg. Pupil Size X	Avg. Pupil Size Y

Table Header for Saccades:
Event Type	Trial	Number	Start	End	Duration	Start Loc.X	Start Loc.Y	End Loc.X	End Loc.Y	Amplitude	Peak Speed	Peak Speed At	Average Speed	Peak Accel.	Peak Decel.	Average Accel.

Table Header for Blinks:
Event Type	Trial	Number	Start	End	Duration

Table Header for User Events:
Event Type	Trial	Number	Start	Description

UserEvent	1	1	6651833803	# Message: Rysselberghe-Vase-of-flowers-1907.jpg
Saccade L	1	1	6651839166	6652018170	179004	1052.99	488.06	1515.21	475.23	9.80	201.40	0.84	54.75	4914.85	-4656.08	1839.30
Saccade R	1	1	6651839166	6652018170	179004	1052.99	488.06	1515.21	475.23	9.80	201.40	0.84	54.75	4914.85	-4656.08	1839.30
Fixation L	1	1	6652018170	6652455770	437600	1524.14	448.11	12	36	-1	16.67	16.67
Fixation R	1	1	6652018170	6652455770	437600	1524.14	448.11	12	36	-1	15.81	15.81
Saccade L	1	2	6652455770	6652515505	59735	1517.71	447.91	1065.92	410.80	4.67	199.65	0.67	78.26	4912.91	-4878.85	3309.93
Saccade R	1	2	6652455770	6652515505	59735	1517.71	447.91	1065.92	410.80	4.67	199.65	0.67	78.26	4912.91	-4878.85	3309.93
Fixation L	1	2	6652515505	6652833745	318240	1071.01	380.45	32	55	-1	15.85	15.85
Fixation R	1	2	6652515505	6652833745	318240	1071.01	380.45	32	55	-1	14.72	14.72
Saccade L	1	3	6652833745	6652853616	19871	1047.63	392.00	944.05	631.05	1.67	263.37	1.00	83.82	6455.53	-6293.25	4513.70
Saccade R	1	3	6652833745	6652853616	19871	1047.63	392.00	944.05	631.05	1.67	263.37	1.00	83.82	6455.53	-6293.25	4513.70
Fixation L	1	3	6652853616	6654206044	1352428	943.54	660.94	18	45	-1	15.41	15.41
Fixation R	1	3	6652853616	6654206044	1352428	943.54	660.94	18	45	-1	15.45	15.45
Saccade L	1	4	6654206044	6654245915	39871	941.97	661.64	835.10	400.84	2.71	207.76	0.50	67.92	5081.79	-4681.48	3469.00
Saccade R	1	4	6654206044	6654245915	39871	941.97	661.64	835.10	400.84	2.71	207.76	0.50	67.92	5081.79	-4681.48	3469.00
Fixation L	1	4	6654245915	6655140879	894964	841.99	427.59	17	49	-1	16.56	16.56
Fixation R	1	4	6654245915	6655140879	894964	841.99	427.59	17	49	-1	16.34	16.34
Saccade L	1	5	6655140879	6655180744	39865	851.88	446.56	1243.18	437.75	3.26	228.77	0.50	81.72	5706.91	-5492.37	4852.12
Saccade R	1	5	6655140879	6655180744	39865	851.88	446.56	1243.18	437.75	3.26	228.77	0.50	81.72	5706.91	-5492.37	4852.12
Fixation L	1	5	6655180744	6655658094	477350	1234.93	446.48	27	26	-1	16.84	16.84
Fixation R	1	5	6655180744	6655658094	477350	1234.93	446.48	27	26	-1	16.28	16.28
Saccade L	1	6	6655658094	6655677982	19888	1221.51	457.84	1054.07	573.06	1.21	205.53	1.00	60.78	5084.30	-4908.00	3516.58
Saccade R	1	6	6655658094	6655677982	19888	1221.51	457.84	1054.07	573.06	1.21	205.53	1.00	60.78	5084.30	-4908.00	3516.58
Fixation L	1	6	6655677982	6655856967	178985	1023.18	584.47	36	18	-1	16.82	16.82
Fixation R	1	6	6655677982	6655856967	178985	1023.18	584.47	36	18	-1	15.83	15.83
