[BeGaze]
Converted from:	C:\Documents and Settings\iViewX\Desktop\EXPERIMENTATIONS\Experiments\results\finaleart\S9H29221-finaleart-1.idf
Date:	27.03.2019 16:02:16
Version:	BeGaze 2.5.77
Sample Rate:	50
Subject:	S9H29221
Description:	steven

Table Header for Fixations:
Event Type	Trial	Number	Start	End	Duration	Location X	Location Y	Dispersion X	Dispersion Y	Plane	Avg. Pupil Size X	Avg. Pupil Size Y

Table Header for Saccades:
Event Type	Trial	Number	Start	End	Duration	Start Loc.X	Start Loc.Y	End Loc.X	End Loc.Y	Amplitude	Peak Speed	Peak Speed At	Average Speed	Peak Accel.	Peak Decel.	Average Accel.

Table Header for Blinks:
Event Type	Trial	Number	Start	End	Duration

Table Header for User Events:
Event Type	Trial	Number	Start	Description

UserEvent	1	1	5737937649	# Message: void.jpg
Fixation L	1	1	5737947281	5738134286	187005	548.34	430.72	2	10	-1	13.37	13.37
Fixation R	1	1	5737947281	5738134286	187005	548.34	430.72	2	10	-1	12.99	12.99
Saccade L	1	1	5738134286	5738166164	31878	549.66	425.41	843.04	508.34	2.70	308.12	1.00	84.55	7522.48	-7320.36	4992.23
Saccade R	1	1	5738134286	5738166164	31878	549.66	425.41	843.04	508.34	2.70	308.12	1.00	84.55	7522.48	-7320.36	4992.23
Fixation L	1	2	5738166164	5738345130	178966	847.85	524.21	22	71	-1	13.37	13.37
Fixation R	1	2	5738166164	5738345130	178966	847.85	524.21	22	71	-1	12.94	12.94
Saccade L	1	2	5738345130	5738365030	19900	834.65	579.68	745.35	577.65	0.87	90.35	1.00	43.94	1995.50	-2005.28	1795.49
Saccade R	1	2	5738345130	5738365030	19900	834.65	579.68	745.35	577.65	0.87	90.35	1.00	43.94	1995.50	-2005.28	1795.49
Fixation L	1	3	5738365030	5738683264	318234	741.95	559.78	7	31	-1	13.73	13.73
Fixation R	1	3	5738365030	5738683264	318234	741.95	559.78	7	31	-1	13.27	13.27
Saccade L	1	3	5738683264	5738723002	39738	744.41	556.98	889.41	541.84	1.62	147.45	1.00	40.69	3636.80	-3657.87	2465.66
Saccade R	1	3	5738683264	5738723002	39738	744.41	556.98	889.41	541.84	1.62	147.45	1.00	40.69	3636.80	-3657.87	2465.66
Fixation L	1	4	5738723002	5739078736	355734	892.99	519.71	8	34	-1	14.33	14.33
Fixation R	1	4	5738723002	5739078736	355734	892.99	519.71	8	34	-1	13.45	13.45
Saccade L	1	4	5739078736	5739100987	22251	898.38	508.58	1021.79	495.59	0.76	125.52	1.00	34.02	3018.72	-2973.08	2004.92
Saccade R	1	4	5739078736	5739100987	22251	898.38	508.58	1021.79	495.59	0.76	125.52	1.00	34.02	3018.72	-2973.08	2004.92
Fixation L	1	5	5739100987	5739657816	556829	1032.77	484.81	15	20	-1	14.62	14.62
Fixation R	1	5	5739100987	5739657816	556829	1032.77	484.81	15	20	-1	13.60	13.60
Blink L	1	1	5739657816	5739797056	139240
Blink R	1	1	5739657816	5739797056	139240
Fixation L	1	6	5739797056	5739936322	139266	1075.83	478.92	23	44	-1	15.87	15.87
Fixation R	1	6	5739797056	5739936322	139266	1075.83	478.92	23	44	-1	15.36	15.36
