[BeGaze]
Converted from:	C:\Documents and Settings\iViewX\Desktop\EXPERIMENTATIONS\Experiments\results\finaleart\S9H29221-finaleart-1.idf
Date:	27.03.2019 16:01:54
Version:	BeGaze 2.5.77
Sample Rate:	50
Subject:	S9H29221
Description:	steven

Table Header for Fixations:
Event Type	Trial	Number	Start	End	Duration	Location X	Location Y	Dispersion X	Dispersion Y	Plane	Avg. Pupil Size X	Avg. Pupil Size Y

Table Header for Saccades:
Event Type	Trial	Number	Start	End	Duration	Start Loc.X	Start Loc.Y	End Loc.X	End Loc.Y	Amplitude	Peak Speed	Peak Speed At	Average Speed	Peak Accel.	Peak Decel.	Average Accel.

Table Header for Blinks:
Event Type	Trial	Number	Start	End	Duration

Table Header for User Events:
Event Type	Trial	Number	Start	Description

UserEvent	1	1	5523230835	# Message: Le_Pin_A_St-Tropez_Signac_1909.jpg
Fixation L	1	1	5523249310	5524201816	952506	1059.00	645.21	5	22	-1	14.36	14.36
Fixation R	1	1	5523249310	5524201816	952506	1059.00	645.21	5	22	-1	13.31	13.31
Saccade L	1	1	5524201816	5524223902	22086	1056.07	638.00	977.68	639.67	0.47	79.31	1.00	21.46	1964.93	-1736.20	1242.94
Saccade R	1	1	5524201816	5524223902	22086	1056.07	638.00	977.68	639.67	0.47	79.31	1.00	21.46	1964.93	-1736.20	1242.94
Fixation L	1	2	5524223902	5524402877	178975	971.72	630.32	16	47	-1	12.75	12.75
Fixation R	1	2	5524223902	5524402877	178975	971.72	630.32	16	47	-1	11.88	11.88
Saccade L	1	2	5524402877	5524422757	19880	961.62	592.63	959.77	545.22	0.59	48.00	1.00	29.49	1097.94	-1085.50	859.93
Saccade R	1	2	5524402877	5524422757	19880	961.62	592.63	959.77	545.22	0.59	48.00	1.00	29.49	1097.94	-1085.50	859.93
Fixation L	1	3	5524422757	5524741001	318244	944.38	556.59	22	24	-1	11.53	11.53
Fixation R	1	3	5524422757	5524741001	318244	944.38	556.59	22	24	-1	10.70	10.70
Saccade L	1	3	5524741001	5524760988	19987	940.82	552.82	940.78	448.17	0.82	105.86	1.00	41.22	2581.73	-2614.26	2158.64
Saccade R	1	3	5524741001	5524760988	19987	940.82	552.82	940.78	448.17	0.82	105.86	1.00	41.22	2581.73	-2614.26	2158.64
Fixation L	1	4	5524760988	5525337716	576728	944.68	379.87	13	85	-1	10.48	10.48
Fixation R	1	4	5524760988	5525337716	576728	944.68	379.87	13	85	-1	9.79	9.79
Saccade L	1	4	5525337716	5525357584	19868	953.63	363.46	953.95	364.04	0.03	2.80	1.00	1.67	73.18	-28.68	45.57
Saccade R	1	4	5525337716	5525357584	19868	953.63	363.46	953.95	364.04	0.03	2.80	1.00	1.67	73.18	-28.68	45.57
Fixation L	1	5	5525357584	5525854933	497349	928.28	378.59	58	22	-1	10.45	10.45
Fixation R	1	5	5525357584	5525854933	497349	928.28	378.59	58	22	-1	9.54	9.54
Saccade L	1	5	5525854933	5525914556	59623	900.54	372.62	668.91	472.96	2.93	180.95	0.67	49.07	4413.01	-4112.94	2342.04
Saccade R	1	5	5525854933	5525914556	59623	900.54	372.62	668.91	472.96	2.93	180.95	0.67	49.07	4413.01	-4112.94	2342.04
Fixation L	1	6	5525914556	5526551021	636465	643.54	497.49	44	52	-1	10.94	10.94
Fixation R	1	6	5525914556	5526551021	636465	643.54	497.49	44	52	-1	10.17	10.17
Saccade L	1	6	5526551021	5526570902	19881	624.17	516.71	625.61	521.84	0.08	5.40	1.00	4.03	79.93	-3.79	47.53
Saccade R	1	6	5526551021	5526570902	19881	624.17	516.71	625.61	521.84	0.08	5.40	1.00	4.03	79.93	-3.79	47.53
Fixation L	1	7	5526570902	5526869266	298364	626.85	535.92	77	19	-1	10.70	10.70
Fixation R	1	7	5526570902	5526869266	298364	626.85	535.92	77	19	-1	10.22	10.22
Saccade L	1	7	5526869266	5526909016	39750	692.64	541.53	1097.34	714.08	4.44	253.82	0.50	111.69	6290.12	-5593.05	4873.52
Saccade R	1	7	5526869266	5526909016	39750	692.64	541.53	1097.34	714.08	4.44	253.82	0.50	111.69	6290.12	-5593.05	4873.52
Fixation L	1	8	5526909016	5527167637	258621	1121.01	724.13	28	17	-1	10.82	10.82
Fixation R	1	8	5526909016	5527167637	258621	1121.01	724.13	28	17	-1	10.07	10.07
Saccade L	1	8	5527167637	5527227251	59614	1124.72	720.14	1365.36	816.37	3.40	156.25	0.67	57.06	3753.17	-1486.32	1843.56
Saccade R	1	8	5527167637	5527227251	59614	1124.72	720.14	1365.36	816.37	3.40	156.25	0.67	57.06	3753.17	-1486.32	1843.56
