[BeGaze]
Converted from:	C:\Documents and Settings\iViewX\Desktop\EXPERIMENTATIONS\Experiments\results\finaleart\S9H29221-finaleart-1.idf
Date:	27.03.2019 16:03:37
Version:	BeGaze 2.5.77
Sample Rate:	50
Subject:	S9H29221
Description:	steven

Table Header for Fixations:
Event Type	Trial	Number	Start	End	Duration	Location X	Location Y	Dispersion X	Dispersion Y	Plane	Avg. Pupil Size X	Avg. Pupil Size Y

Table Header for Saccades:
Event Type	Trial	Number	Start	End	Duration	Start Loc.X	Start Loc.Y	End Loc.X	End Loc.Y	Amplitude	Peak Speed	Peak Speed At	Average Speed	Peak Accel.	Peak Decel.	Average Accel.

Table Header for Blinks:
Event Type	Trial	Number	Start	End	Duration

Table Header for User Events:
Event Type	Trial	Number	Start	Description

UserEvent	1	1	6565680869	# Message: still-life-fruits-on-a-table_manet_1864.jpg
Fixation L	1	1	6565689163	6565848273	159110	1342.21	406.92	19	40	-1	12.44	12.44
Fixation R	1	1	6565689163	6565848273	159110	1342.21	406.92	19	40	-1	12.02	12.02
Blink L	1	1	6565848273	6566106790	258517
Blink R	1	1	6565848273	6566106790	258517
Fixation L	1	2	6566106790	6566226137	119347	752.20	447.61	22	8	-1	12.79	12.79
Fixation R	1	2	6566106790	6566226137	119347	752.20	447.61	22	8	-1	11.73	11.73
Saccade L	1	1	6566226137	6566246020	19883	764.40	444.00	841.18	434.56	0.50	78.25	1.00	24.98	1828.42	-1734.07	1221.99
Saccade R	1	1	6566226137	6566246020	19883	764.40	444.00	841.18	434.56	0.50	78.25	1.00	24.98	1828.42	-1734.07	1221.99
Fixation L	1	3	6566246020	6566504615	258595	850.90	420.22	17	21	-1	12.19	12.19
Fixation R	1	3	6566246020	6566504615	258595	850.90	420.22	17	21	-1	11.76	11.76
Saccade L	1	2	6566504615	6566524506	19891	856.38	413.93	722.00	413.09	0.73	135.92	1.00	36.67	3372.82	-3225.26	2239.00
Saccade R	1	2	6566504615	6566524506	19891	856.38	413.93	722.00	413.09	0.73	135.92	1.00	36.67	3372.82	-3225.26	2239.00
Fixation L	1	4	6566524506	6566802974	278468	707.12	414.93	22	3	-1	11.36	11.36
Fixation R	1	4	6566524506	6566802974	278468	707.12	414.93	22	3	-1	10.85	10.85
Saccade L	1	3	6566802974	6566862600	59626	700.60	412.51	1227.90	693.29	6.29	294.09	0.67	105.52	7266.26	-6861.53	4859.75
Saccade R	1	3	6566802974	6566862600	59626	700.60	412.51	1227.90	693.29	6.29	294.09	0.67	105.52	7266.26	-6861.53	4859.75
Fixation L	1	5	6566862600	6567041597	178997	1221.75	702.49	13	19	-1	11.42	11.42
Fixation R	1	5	6566862600	6567041597	178997	1221.75	702.49	13	19	-1	10.81	10.81
Saccade L	1	4	6567041597	6567081460	39863	1216.16	699.71	1449.14	791.69	2.16	134.41	1.00	54.21	3313.89	-3154.52	3087.56
Saccade R	1	4	6567041597	6567081460	39863	1216.16	699.71	1449.14	791.69	2.16	134.41	1.00	54.21	3313.89	-3154.52	3087.56
Fixation L	1	6	6567081460	6567419571	338111	1451.47	792.73	22	12	-1	11.54	11.54
Fixation R	1	6	6567081460	6567419571	338111	1451.47	792.73	22	12	-1	10.61	10.61
Saccade L	1	5	6567419571	6567439444	19873	1433.71	793.94	1360.90	854.69	0.66	95.91	1.00	33.10	2361.15	-2303.52	1595.16
Saccade R	1	5	6567419571	6567439444	19873	1433.71	793.94	1360.90	854.69	0.66	95.91	1.00	33.10	2361.15	-2303.52	1595.16
Fixation L	1	7	6567439444	6568016295	576851	1335.87	883.46	43	41	-1	11.12	11.12
Fixation R	1	7	6567439444	6568016295	576851	1335.87	883.46	43	41	-1	9.86	9.86
Saccade L	1	6	6568016295	6568075912	59617	1325.07	891.58	1154.66	729.09	2.52	160.92	1.00	42.19	3332.34	-3778.97	2099.90
Saccade R	1	6	6568016295	6568075912	59617	1325.07	891.58	1154.66	729.09	2.52	160.92	1.00	42.19	3332.34	-3778.97	2099.90
Fixation L	1	8	6568075912	6568235041	159129	1161.73	736.48	21	18	-1	10.95	10.95
Fixation R	1	8	6568075912	6568235041	159129	1161.73	736.48	21	18	-1	9.61	9.61
Saccade L	1	7	6568235041	6568274788	39747	1176.60	741.85	1270.86	836.89	1.49	82.28	0.50	37.48	1984.37	-1643.87	1625.98
Saccade R	1	7	6568235041	6568274788	39747	1176.60	741.85	1270.86	836.89	1.49	82.28	0.50	37.48	1984.37	-1643.87	1625.98
Fixation L	1	9	6568274788	6568533388	258600	1280.65	850.03	20	49	-1	10.94	10.94
Fixation R	1	9	6568274788	6568533388	258600	1280.65	850.03	20	49	-1	9.96	9.96
Saccade L	1	8	6568533388	6568573142	39754	1270.98	851.27	1055.73	636.80	2.78	203.34	0.50	69.95	4869.94	-4972.21	3548.34
Saccade R	1	8	6568533388	6568573142	39754	1270.98	851.27	1055.73	636.80	2.78	203.34	0.50	69.95	4869.94	-4972.21	3548.34
Fixation L	1	10	6568573142	6568772005	198863	1058.05	632.53	71	7	-1	11.10	11.10
Fixation R	1	10	6568573142	6568772005	198863	1058.05	632.53	71	7	-1	10.15	10.15
Saccade L	1	9	6568772005	6568792005	20000	998.78	630.87	976.83	629.15	0.54	59.55	0.00	26.81	279.12	-1131.41	578.26
Saccade R	1	9	6568772005	6568792005	20000	998.78	630.87	976.83	629.15	0.54	59.55	0.00	26.81	279.12	-1131.41	578.26
Fixation L	1	11	6568792005	6568911246	119241	981.35	623.54	26	12	-1	10.95	10.95
Fixation R	1	11	6568792005	6568911246	119241	981.35	623.54	26	12	-1	10.15	10.15
Saccade L	1	10	6568911246	6568951118	39872	965.24	617.86	816.71	708.45	1.66	117.68	0.50	41.74	2767.53	-2917.13	2030.84
Saccade R	1	10	6568911246	6568951118	39872	965.24	617.86	816.71	708.45	1.66	117.68	0.50	41.74	2767.53	-2917.13	2030.84
Fixation L	1	12	6568951118	6569309115	357997	825.28	723.84	36	30	-1	10.63	10.63
Fixation R	1	12	6568951118	6569309115	357997	825.28	723.84	36	30	-1	10.06	10.06
Saccade L	1	11	6569309115	6569368735	59620	846.95	738.32	1284.94	879.31	4.82	312.02	0.67	80.91	7649.76	-7578.95	4121.76
Saccade R	1	11	6569309115	6569368735	59620	846.95	738.32	1284.94	879.31	4.82	312.02	0.67	80.91	7649.76	-7578.95	4121.76
Fixation L	1	13	6569368735	6569686964	318229	1286.54	880.34	48	17	-1	10.91	10.91
Fixation R	1	13	6569368735	6569686964	318229	1286.54	880.34	48	17	-1	9.99	9.99
