[BeGaze]
Converted from:	C:\Documents and Settings\iViewX\Desktop\EXPERIMENTATIONS\Experiments\results\finaleart\S9H29221-finaleart-1.idf
Date:	27.03.2019 16:03:59
Version:	BeGaze 2.5.77
Sample Rate:	50
Subject:	S9H29221
Description:	steven

Table Header for Fixations:
Event Type	Trial	Number	Start	End	Duration	Location X	Location Y	Dispersion X	Dispersion Y	Plane	Avg. Pupil Size X	Avg. Pupil Size Y

Table Header for Saccades:
Event Type	Trial	Number	Start	End	Duration	Start Loc.X	Start Loc.Y	End Loc.X	End Loc.Y	Amplitude	Peak Speed	Peak Speed At	Average Speed	Peak Accel.	Peak Decel.	Average Accel.

Table Header for Blinks:
Event Type	Trial	Number	Start	End	Duration

Table Header for User Events:
Event Type	Trial	Number	Start	Description

UserEvent	1	1	6698948576	# Message: void.jpg
Fixation L	1	1	6698959310	6699159760	200450	364.24	454.30	75	14	-1	15.30	15.30
Fixation R	1	1	6698959310	6699159760	200450	364.24	454.30	75	14	-1	14.89	14.89
Saccade L	1	1	6699159760	6699178031	18271	415.71	461.98	421.81	474.63	0.25	18.52	1.00	13.92	199.59	-243.13	162.18
Saccade R	1	1	6699159760	6699178031	18271	415.71	461.98	421.81	474.63	0.25	18.52	1.00	13.92	199.59	-243.13	162.18
Fixation L	1	2	6699178031	6699332166	154135	418.59	466.50	15	14	-1	14.96	14.96
Fixation R	1	2	6699178031	6699332166	154135	418.59	466.50	15	14	-1	14.83	14.83
Saccade L	1	2	6699332166	6699496280	164114	426.11	470.58	965.92	669.23	15.62	428.68	1.00	95.18	9856.94	-10361.38	4510.43
Saccade R	1	2	6699332166	6699496280	164114	426.11	470.58	965.92	669.23	15.62	428.68	1.00	95.18	9856.94	-10361.38	4510.43
Fixation L	1	3	6699496280	6700152799	656519	971.57	639.06	15	62	-1	15.60	15.60
Fixation R	1	3	6699496280	6700152799	656519	971.57	639.06	15	62	-1	14.34	14.34
Saccade L	1	3	6700152799	6700172480	19681	962.87	607.17	971.48	533.21	0.58	75.32	1.00	29.35	1671.36	-1565.31	1286.38
Saccade R	1	3	6700152799	6700172480	19681	962.87	607.17	971.48	533.21	0.58	75.32	1.00	29.35	1671.36	-1565.31	1286.38
Fixation L	1	4	6700172480	6700590215	417735	1020.96	549.69	57	31	-1	16.26	16.26
Fixation R	1	4	6700172480	6700590215	417735	1020.96	549.69	57	31	-1	14.31	14.31
Saccade L	1	4	6700590215	6700610069	19854	1024.92	558.47	1073.08	553.65	0.39	48.96	1.00	19.50	1126.08	-1135.39	869.41
Saccade R	1	4	6700590215	6700610069	19854	1024.92	558.47	1073.08	553.65	0.39	48.96	1.00	19.50	1126.08	-1135.39	869.41
Fixation L	1	5	6700610069	6700968081	358012	1100.74	552.49	39	6	-1	17.06	17.06
Fixation R	1	5	6700610069	6700968081	358012	1100.74	552.49	39	6	-1	15.00	15.00
