[BeGaze]
Converted from:	C:\Documents and Settings\iViewX\Desktop\EXPERIMENTATIONS\Experiments\results\finaleart\S9H29221-finaleart-1.idf
Date:	27.03.2019 16:03:52
Version:	BeGaze 2.5.77
Sample Rate:	50
Subject:	S9H29221
Description:	steven

Table Header for Fixations:
Event Type	Trial	Number	Start	End	Duration	Location X	Location Y	Dispersion X	Dispersion Y	Plane	Avg. Pupil Size X	Avg. Pupil Size Y

Table Header for Saccades:
Event Type	Trial	Number	Start	End	Duration	Start Loc.X	Start Loc.Y	End Loc.X	End Loc.Y	Amplitude	Peak Speed	Peak Speed At	Average Speed	Peak Accel.	Peak Decel.	Average Accel.

Table Header for Blinks:
Event Type	Trial	Number	Start	End	Duration

Table Header for User Events:
Event Type	Trial	Number	Start	Description

UserEvent	1	1	6655913831	# Message: void.jpg
Fixation L	1	1	6655916595	6656338264	421669	1018.29	558.92	2	16	-1	15.92	15.92
Fixation R	1	1	6655916595	6656338264	421669	1018.29	558.92	2	16	-1	15.58	15.58
Saccade L	1	1	6656338264	6656374100	35836	1018.96	563.86	933.66	579.94	1.28	87.80	1.00	35.59	2172.95	-1893.02	1686.70
Saccade R	1	1	6656338264	6656374100	35836	1018.96	563.86	933.66	579.94	1.28	87.80	1.00	35.59	2172.95	-1893.02	1686.70
Fixation L	1	2	6656374100	6656891311	517211	884.04	611.20	57	38	-1	14.76	14.76
Fixation R	1	2	6656374100	6656891311	517211	884.04	611.20	57	38	-1	14.50	14.50
Saccade L	1	2	6656891311	6656990668	99357	880.77	617.16	892.39	473.65	10.96	356.04	1.00	110.34	5771.64	-8658.46	3940.23
Saccade R	1	2	6656891311	6656990668	99357	880.77	617.16	892.39	473.65	10.96	356.04	1.00	110.34	5771.64	-8658.46	3940.23
Fixation L	1	3	6656990668	6657488015	497347	936.03	478.43	56	15	-1	15.12	15.12
Fixation R	1	3	6656990668	6657488015	497347	936.03	478.43	56	15	-1	14.93	14.93
Saccade L	1	3	6657488015	6657527769	39754	948.69	481.00	1175.99	482.45	1.89	145.57	1.00	47.57	3606.23	-3558.90	2804.67
Saccade R	1	3	6657488015	6657527769	39754	948.69	481.00	1175.99	482.45	1.89	145.57	1.00	47.57	3606.23	-3558.90	2804.67
Fixation L	1	4	6657527769	6657905633	377864	1171.43	490.36	19	13	-1	15.27	15.27
Fixation R	1	4	6657527769	6657905633	377864	1171.43	490.36	19	13	-1	14.97	14.97
