[BeGaze]
Converted from:	C:\Documents and Settings\iViewX\Desktop\EXPERIMENTATIONS\Experiments\results\finaleart\S9H29221-finaleart-1.idf
Date:	27.03.2019 16:02:57
Version:	BeGaze 2.5.77
Sample Rate:	50
Subject:	S9H29221
Description:	steven

Table Header for Fixations:
Event Type	Trial	Number	Start	End	Duration	Location X	Location Y	Dispersion X	Dispersion Y	Plane	Avg. Pupil Size X	Avg. Pupil Size Y

Table Header for Saccades:
Event Type	Trial	Number	Start	End	Duration	Start Loc.X	Start Loc.Y	End Loc.X	End Loc.Y	Amplitude	Peak Speed	Peak Speed At	Average Speed	Peak Accel.	Peak Decel.	Average Accel.

Table Header for Blinks:
Event Type	Trial	Number	Start	End	Duration

Table Header for User Events:
Event Type	Trial	Number	Start	Description

UserEvent	1	1	6072501081	# Message: void.jpg
Saccade L	1	1	6072508635	6072628005	119370	1116.93	-15.24	1110.59	-18.34	4.94	106.88	1.00	41.39	2077.09	-2618.41	1190.67
Saccade R	1	1	6072508635	6072628005	119370	1116.93	-15.24	1110.59	-18.34	4.94	106.88	1.00	41.39	2077.09	-2618.41	1190.67
Fixation L	1	1	6072628005	6072890126	262121	1110.69	-23.44	19	32	-1	10.50	10.50
Fixation R	1	1	6072628005	6072890126	262121	1110.69	-23.44	19	32	-1	10.48	10.48
Saccade L	1	2	6072890126	6072966122	75996	1113.70	-26.92	769.26	254.37	7.89	251.37	0.51	103.87	5782.65	-5896.26	5585.82
Saccade R	1	2	6072890126	6072966122	75996	1113.70	-26.92	769.26	254.37	7.89	251.37	0.51	103.87	5782.65	-5896.26	5585.82
Fixation L	1	2	6072966122	6073363970	397848	778.58	235.64	18	66	-1	11.34	11.34
Fixation R	1	2	6072966122	6073363970	397848	778.58	235.64	18	66	-1	11.34	11.34
Saccade L	1	3	6073363970	6073403714	39744	773.16	281.94	746.40	430.58	2.05	126.80	0.50	51.67	3062.73	-2367.62	1653.70
Saccade R	1	3	6073363970	6073403714	39744	773.16	281.94	746.40	430.58	2.05	126.80	0.50	51.67	3062.73	-2367.62	1653.70
Fixation L	1	3	6073403714	6073777780	374066	738.46	464.22	21	49	-1	12.69	12.69
Fixation R	1	3	6073403714	6073777780	374066	738.46	464.22	21	49	-1	12.18	12.18
Saccade L	1	4	6073777780	6073821907	44127	747.22	462.14	899.62	513.09	1.66	118.77	0.54	37.62	2892.22	-2607.28	1910.09
Saccade R	1	4	6073777780	6073821907	44127	747.22	462.14	899.62	513.09	1.66	118.77	0.54	37.62	2892.22	-2607.28	1910.09
Fixation L	1	4	6073821907	6074060056	238149	917.77	525.91	29	18	-1	13.90	13.90
Fixation R	1	4	6073821907	6074060056	238149	917.77	525.91	29	18	-1	12.70	12.70
Saccade L	1	5	6074060056	6074139687	79631	929.50	530.54	1467.14	409.92	6.71	147.36	1.00	84.21	3460.87	-3260.92	2246.83
Saccade R	1	5	6074060056	6074139687	79631	929.50	530.54	1467.14	409.92	6.71	147.36	1.00	84.21	3460.87	-3260.92	2246.83
Fixation L	1	5	6074139687	6074438030	298343	1471.17	417.23	11	24	-1	13.98	13.98
Fixation R	1	5	6074139687	6074438030	298343	1471.17	417.23	11	24	-1	13.01	13.01
Saccade L	1	6	6074438030	6074457908	19878	1466.49	409.53	1401.66	405.90	0.51	65.68	1.00	25.54	1576.57	-1380.42	1171.40
Saccade R	1	6	6074438030	6074457908	19878	1466.49	409.53	1401.66	405.90	0.51	65.68	1.00	25.54	1576.57	-1380.42	1171.40
Fixation L	1	6	6074457908	6074557405	99497	1372.43	405.04	38	1	-1	14.03	14.03
Fixation R	1	6	6074457908	6074557405	99497	1372.43	405.04	38	1	-1	12.53	12.53
