[BeGaze]
Converted from:	C:\Documents and Settings\iViewX\Desktop\EXPERIMENTATIONS\Experiments\results\finaleart\S9H29221-finaleart-1.idf
Date:	27.03.2019 16:03:20
Version:	BeGaze 2.5.77
Sample Rate:	50
Subject:	S9H29221
Description:	steven

Table Header for Fixations:
Event Type	Trial	Number	Start	End	Duration	Location X	Location Y	Dispersion X	Dispersion Y	Plane	Avg. Pupil Size X	Avg. Pupil Size Y

Table Header for Saccades:
Event Type	Trial	Number	Start	End	Duration	Start Loc.X	Start Loc.Y	End Loc.X	End Loc.Y	Amplitude	Peak Speed	Peak Speed At	Average Speed	Peak Accel.	Peak Decel.	Average Accel.

Table Header for Blinks:
Event Type	Trial	Number	Start	End	Duration

Table Header for User Events:
Event Type	Trial	Number	Start	Description

UserEvent	1	1	6360636922	# Message: reclining-nude_renoir_1883.jpg
Fixation L	1	1	6360640988	6360760351	119363	1193.74	372.88	88	10	-1	14.01	14.01
Fixation R	1	1	6360640988	6360760351	119363	1193.74	372.88	88	10	-1	12.91	12.91
Saccade L	1	1	6360760351	6360846724	86373	1241.71	368.60	1257.90	364.59	0.95	18.30	1.00	10.94	-35.49	-371.93	168.58
Saccade R	1	1	6360760351	6360846724	86373	1241.71	368.60	1257.90	364.59	0.95	18.30	1.00	10.94	-35.49	-371.93	168.58
Fixation L	1	2	6360846724	6361217833	371109	1261.44	362.63	11	12	-1	13.97	13.97
Fixation R	1	2	6360846724	6361217833	371109	1261.44	362.63	11	12	-1	13.01	13.01
Saccade L	1	2	6361217833	6361257557	39724	1266.59	354.50	1518.17	341.65	2.29	133.14	0.50	57.67	3273.38	-2824.99	2922.22
Saccade R	1	2	6361217833	6361257557	39724	1266.59	354.50	1518.17	341.65	2.29	133.14	0.50	57.67	3273.38	-2824.99	2922.22
Fixation L	1	3	6361257557	6361376932	119375	1547.02	343.50	39	6	-1	14.26	14.26
Fixation R	1	3	6361257557	6361376932	119375	1547.02	343.50	39	6	-1	13.12	13.12
Saccade L	1	3	6361376932	6361436682	59750	1557.31	339.70	1027.69	380.91	5.66	293.41	0.67	94.80	7267.61	-6757.93	4146.02
Saccade R	1	3	6361376932	6361436682	59750	1557.31	339.70	1027.69	380.91	5.66	293.41	0.67	94.80	7267.61	-6757.93	4146.02
Fixation L	1	4	6361436682	6361578381	141699	1027.51	387.10	8	25	-1	14.37	14.37
Fixation R	1	4	6361436682	6361578381	141699	1027.51	387.10	8	25	-1	13.21	13.21
Saccade L	1	4	6361578381	6361655428	77047	1031.05	379.11	1357.41	739.95	8.05	286.39	0.49	104.51	7061.88	-6856.64	6179.76
Saccade R	1	4	6361578381	6361655428	77047	1031.05	379.11	1357.41	739.95	8.05	286.39	0.49	104.51	7061.88	-6856.64	6179.76
Fixation L	1	5	6361655428	6362013395	357967	1348.55	747.82	21	15	-1	13.29	13.29
Fixation R	1	5	6361655428	6362013395	357967	1348.55	747.82	21	15	-1	12.22	12.22
Saccade L	1	5	6362013395	6362053266	39871	1344.54	749.79	1324.98	914.23	1.93	95.99	1.00	48.36	2231.73	-2248.46	1593.82
Saccade R	1	5	6362013395	6362053266	39871	1344.54	749.79	1324.98	914.23	1.93	95.99	1.00	48.36	2231.73	-2248.46	1593.82
Fixation L	1	6	6362053266	6362351519	298253	1320.33	958.53	28	65	-1	13.08	13.08
Fixation R	1	6	6362053266	6362351519	298253	1320.33	958.53	28	65	-1	11.95	11.95
Saccade L	1	6	6362351519	6362451010	99491	1338.86	926.71	619.80	284.35	13.30	337.61	0.40	133.69	7955.49	-4842.16	4041.70
Saccade R	1	6	6362351519	6362451010	99491	1338.86	926.71	619.80	284.35	13.30	337.61	0.40	133.69	7955.49	-4842.16	4041.70
Fixation L	1	7	6362451010	6362689737	238727	593.55	256.93	41	34	-1	13.34	13.34
Fixation R	1	7	6362451010	6362689737	238727	593.55	256.93	41	34	-1	12.39	12.39
Saccade L	1	7	6362689737	6362709612	19875	598.74	254.93	648.78	256.31	0.51	50.64	1.00	25.91	1077.74	-1171.81	1072.32
Saccade R	1	7	6362689737	6362709612	19875	598.74	254.93	648.78	256.31	0.51	50.64	1.00	25.91	1077.74	-1171.81	1072.32
Fixation L	1	8	6362709612	6363007977	298365	692.50	251.56	76	21	-1	12.30	12.30
Fixation R	1	8	6362709612	6363007977	298365	692.50	251.56	76	21	-1	11.81	11.81
Saccade L	1	8	6363007977	6363027841	19864	725.35	250.25	733.28	247.30	0.15	10.87	1.00	7.70	-50.20	-175.59	94.58
Saccade R	1	8	6363007977	6363027841	19864	725.35	250.25	733.28	247.30	0.15	10.87	1.00	7.70	-50.20	-175.59	94.58
Fixation L	1	9	6363027841	6363365950	338109	751.16	279.32	34	64	-1	12.33	12.33
Fixation R	1	9	6363027841	6363365950	338109	751.16	279.32	34	64	-1	12.12	12.12
Saccade L	1	9	6363365950	6363385830	19880	768.09	311.91	769.86	313.59	0.04	2.47	1.00	1.88	10.22	-24.06	15.66
Saccade R	1	9	6363365950	6363385830	19880	768.09	311.91	769.86	313.59	0.04	2.47	1.00	1.88	10.22	-24.06	15.66
Fixation L	1	10	6363385830	6363743810	357980	770.18	301.44	17	74	-1	12.29	12.29
Fixation R	1	10	6363385830	6363743810	357980	770.18	301.44	17	74	-1	12.12	12.12
Saccade L	1	10	6363743810	6363763812	20002	757.62	249.44	753.26	230.60	0.23	19.56	1.00	11.33	168.67	-402.28	199.37
Saccade R	1	10	6363743810	6363763812	20002	757.62	249.44	753.26	230.60	0.23	19.56	1.00	11.33	168.67	-402.28	199.37
Fixation L	1	11	6363763812	6364678663	914851	753.77	253.34	20	49	-1	12.79	12.79
Fixation R	1	11	6363763812	6364678663	914851	753.77	253.34	20	49	-1	12.60	12.60
