[BeGaze]
Converted from:	C:\Documents and Settings\iViewX\Desktop\EXPERIMENTATIONS\Experiments\results\finaleart\S9H29221-finaleart-1.idf
Date:	27.03.2019 16:01:50
Version:	BeGaze 2.5.77
Sample Rate:	50
Subject:	S9H29221
Description:	steven

Table Header for Fixations:
Event Type	Trial	Number	Start	End	Duration	Location X	Location Y	Dispersion X	Dispersion Y	Plane	Avg. Pupil Size X	Avg. Pupil Size Y

Table Header for Saccades:
Event Type	Trial	Number	Start	End	Duration	Start Loc.X	Start Loc.Y	End Loc.X	End Loc.Y	Amplitude	Peak Speed	Peak Speed At	Average Speed	Peak Accel.	Peak Decel.	Average Accel.

Table Header for Blinks:
Event Type	Trial	Number	Start	End	Duration

Table Header for User Events:
Event Type	Trial	Number	Start	Description

UserEvent	1	1	5502651070	# Message: void.jpg
Fixation L	1	1	5502663056	5503025900	362844	1311.24	780.10	10	8	-1	12.75	12.75
Fixation R	1	1	5502663056	5503025900	362844	1311.24	780.10	10	8	-1	12.60	12.60
Saccade L	1	1	5503025900	5503060942	35042	1312.79	784.27	1044.75	766.58	2.52	271.55	1.00	71.99	6728.84	-6522.07	4506.30
Saccade R	1	1	5503025900	5503060942	35042	1312.79	784.27	1044.75	766.58	2.52	271.55	1.00	71.99	6728.84	-6522.07	4506.30
Fixation L	1	2	5503060942	5503458778	397836	1057.39	737.13	18	35	-1	12.36	12.36
Fixation R	1	2	5503060942	5503458778	397836	1057.39	737.13	18	35	-1	12.37	12.37
Saccade L	1	2	5503458778	5503478645	19867	1061.70	732.72	1060.68	680.89	0.56	60.19	1.00	28.37	1489.65	-1239.44	1344.90
Saccade R	1	2	5503458778	5503478645	19867	1061.70	732.72	1060.68	680.89	0.56	60.19	1.00	28.37	1489.65	-1239.44	1344.90
Fixation L	1	3	5503478645	5503811120	332475	1052.85	619.54	16	79	-1	12.08	12.08
Fixation R	1	3	5503478645	5503811120	332475	1052.85	619.54	16	79	-1	12.22	12.22
Saccade L	1	3	5503811120	5503836615	25495	1061.69	601.72	1069.81	597.58	0.13	9.22	1.00	5.09	16.88	-47.22	31.44
Saccade R	1	3	5503811120	5503836615	25495	1061.69	601.72	1069.81	597.58	0.13	9.22	1.00	5.09	16.88	-47.22	31.44
Fixation L	1	4	5503836615	5504035492	198877	1090.56	572.43	42	51	-1	12.19	12.19
Fixation R	1	4	5503836615	5504035492	198877	1090.56	572.43	42	51	-1	12.31	12.31
Saccade L	1	4	5504035492	5504055360	19868	1111.50	546.05	1115.11	540.21	0.10	6.95	1.00	5.13	122.40	11.38	72.45
Saccade R	1	4	5504035492	5504055360	19868	1111.50	546.05	1115.11	540.21	0.10	6.95	1.00	5.13	122.40	11.38	72.45
Fixation L	1	5	5504055360	5504453210	397850	1099.65	526.82	70	27	-1	12.15	12.15
Fixation R	1	5	5504055360	5504453210	397850	1099.65	526.82	70	27	-1	12.32	12.32
Saccade L	1	5	5504453210	5504473086	19876	1146.04	512.26	1150.98	511.79	0.12	9.18	1.00	5.94	93.61	-104.09	72.77
Saccade R	1	5	5504453210	5504473086	19876	1146.04	512.26	1150.98	511.79	0.12	9.18	1.00	5.94	93.61	-104.09	72.77
Fixation L	1	6	5504473086	5504612324	139238	1177.17	520.02	54	37	-1	11.95	11.95
Fixation R	1	6	5504473086	5504612324	139238	1177.17	520.02	54	37	-1	10.76	10.76
Saccade L	1	6	5504612324	5504691826	79502	1205.58	549.60	1223.92	524.27	2.25	55.50	0.75	28.28	383.43	-518.21	264.95
Saccade R	1	6	5504612324	5504691826	79502	1205.58	549.60	1223.92	524.27	2.25	55.50	0.75	28.28	383.43	-518.21	264.95
