[BeGaze]
Converted from:	C:\Documents and Settings\iViewX\Desktop\EXPERIMENTATIONS\Experiments\results\finaleart\S9H29221-finaleart-1.idf
Date:	27.03.2019 16:03:03
Version:	BeGaze 2.5.77
Sample Rate:	50
Subject:	S9H29221
Description:	steven

Table Header for Fixations:
Event Type	Trial	Number	Start	End	Duration	Location X	Location Y	Dispersion X	Dispersion Y	Plane	Avg. Pupil Size X	Avg. Pupil Size Y

Table Header for Saccades:
Event Type	Trial	Number	Start	End	Duration	Start Loc.X	Start Loc.Y	End Loc.X	End Loc.Y	Amplitude	Peak Speed	Peak Speed At	Average Speed	Peak Accel.	Peak Decel.	Average Accel.

Table Header for Blinks:
Event Type	Trial	Number	Start	End	Duration

Table Header for User Events:
Event Type	Trial	Number	Start	Description

UserEvent	1	1	6109543739	# Message: void.jpg
Saccade L	1	1	6109559861	6109579726	19865	903.75	692.61	907.79	692.79	1.48	219.35	1.00	74.48	33081.58	0.00	12855.07
Saccade R	1	1	6109559861	6109579726	19865	903.75	692.61	907.79	692.79	1.48	219.35	1.00	74.48	33081.58	0.00	12855.07
Blink L	1	1	6109579726	6109977582	397856
Blink R	1	1	6109579726	6109977582	397856
Fixation L	1	1	6109977582	6110196320	218738	948.26	717.83	32	62	-1	11.84	11.84
Fixation R	1	1	6109977582	6110196320	218738	948.26	717.83	32	62	-1	10.65	10.65
Saccade L	1	2	6110196320	6110216220	19900	934.19	690.98	941.58	670.16	0.25	22.35	1.00	12.51	496.31	-309.47	294.89
Saccade R	1	2	6110196320	6110216220	19900	934.19	690.98	941.58	670.16	0.25	22.35	1.00	12.51	496.31	-309.47	294.89
Fixation L	1	2	6110216220	6110395188	178968	948.25	653.95	16	57	-1	11.33	11.33
Fixation R	1	2	6110216220	6110395188	178968	948.25	653.95	16	57	-1	10.20	10.20
Saccade L	1	3	6110395188	6110454942	59754	957.73	623.88	959.27	425.91	2.98	114.66	0.67	49.80	2557.19	-835.77	1020.80
Saccade R	1	3	6110395188	6110454942	59754	957.73	623.88	959.27	425.91	2.98	114.66	0.67	49.80	2557.19	-835.77	1020.80
Fixation L	1	3	6110454942	6110554664	99722	959.89	375.63	2	80	-1	11.13	11.13
Fixation R	1	3	6110454942	6110554664	99722	959.89	375.63	2	80	-1	10.64	10.64
Saccade L	1	4	6110554664	6110661324	106660	960.57	373.73	997.27	287.77	2.85	50.86	1.00	26.76	1138.03	-994.39	890.09
Saccade R	1	4	6110554664	6110661324	106660	960.57	373.73	997.27	287.77	2.85	50.86	1.00	26.76	1138.03	-994.39	890.09
Fixation L	1	4	6110661324	6110773188	111864	1018.63	250.91	44	54	-1	11.06	11.06
Fixation R	1	4	6110661324	6110773188	111864	1018.63	250.91	44	54	-1	10.57	10.57
Saccade L	1	5	6110773188	6110793041	19853	1041.58	234.23	1059.54	229.10	0.22	18.90	1.00	11.19	335.00	-185.71	223.43
Saccade R	1	5	6110773188	6110793041	19853	1041.58	234.23	1059.54	229.10	0.22	18.90	1.00	11.19	335.00	-185.71	223.43
Fixation L	1	5	6110793041	6110972039	178998	1101.05	235.82	81	11	-1	11.12	11.12
Fixation R	1	5	6110793041	6110972039	178998	1101.05	235.82	81	11	-1	10.48	10.48
Saccade L	1	6	6110972039	6110991934	19895	1141.29	240.78	1144.31	245.11	0.22	19.99	0.00	10.94	9.92	-274.49	128.85
Saccade R	1	6	6110972039	6110991934	19895	1141.29	240.78	1144.31	245.11	0.22	19.99	0.00	10.94	9.92	-274.49	128.85
Fixation L	1	6	6110991934	6111588631	596697	1184.86	259.11	58	31	-1	12.46	12.46
Fixation R	1	6	6110991934	6111588631	596697	1184.86	259.11	58	31	-1	11.76	11.76
