[BeGaze]
Converted from:	C:\Documents and Settings\iViewX\Desktop\EXPERIMENTATIONS\Experiments\results\finaleart\S9H29221-finaleart-1.idf
Date:	27.03.2019 16:04:03
Version:	BeGaze 2.5.77
Sample Rate:	50
Subject:	S9H29221
Description:	steven

Table Header for Fixations:
Event Type	Trial	Number	Start	End	Duration	Location X	Location Y	Dispersion X	Dispersion Y	Plane	Avg. Pupil Size X	Avg. Pupil Size Y

Table Header for Saccades:
Event Type	Trial	Number	Start	End	Duration	Start Loc.X	Start Loc.Y	End Loc.X	End Loc.Y	Amplitude	Peak Speed	Peak Speed At	Average Speed	Peak Accel.	Peak Decel.	Average Accel.

Table Header for Blinks:
Event Type	Trial	Number	Start	End	Duration

Table Header for User Events:
Event Type	Trial	Number	Start	Description

UserEvent	1	1	6824566709	# Message: void.jpg
Fixation L	1	1	6824567927	6824906017	338090	932.23	592.37	34	15	-1	12.68	12.68
Fixation R	1	1	6824567927	6824906017	338090	932.23	592.37	34	15	-1	12.14	12.14
Saccade L	1	1	6824906017	6824925888	19871	902.34	582.18	831.29	469.88	1.01	134.41	1.00	50.92	3324.50	-3090.67	2157.38
Saccade R	1	1	6824906017	6824925888	19871	902.34	582.18	831.29	469.88	1.01	134.41	1.00	50.92	3324.50	-3090.67	2157.38
Fixation L	1	2	6824925888	6825622092	696204	841.37	435.76	33	42	-1	12.63	12.63
Fixation R	1	2	6824925888	6825622092	696204	841.37	435.76	33	42	-1	12.35	12.35
Saccade L	1	2	6825622092	6825653849	31757	847.68	438.89	902.00	432.84	0.68	55.29	1.00	21.33	1342.22	-1310.59	948.25
Saccade R	1	2	6825622092	6825653849	31757	847.68	438.89	902.00	432.84	0.68	55.29	1.00	21.33	1342.22	-1310.59	948.25
Fixation L	1	3	6825653849	6826119323	465474	932.82	422.21	69	27	-1	13.62	13.62
Fixation R	1	3	6825653849	6826119323	465474	932.82	422.21	69	27	-1	13.57	13.57
Saccade L	1	3	6826119323	6826139235	19912	967.72	407.78	973.47	402.98	0.10	7.58	1.00	4.97	89.80	-113.66	76.53
Saccade R	1	3	6826119323	6826139235	19912	967.72	407.78	973.47	402.98	0.10	7.58	1.00	4.97	89.80	-113.66	76.53
Fixation L	1	4	6826139235	6826457444	318209	1009.75	392.03	73	18	-1	14.66	14.66
Fixation R	1	4	6826139235	6826457444	318209	1009.75	392.03	73	18	-1	14.13	14.13
Saccade L	1	4	6826457444	6826477315	19871	1047.34	386.51	1099.81	381.89	0.36	53.29	1.00	18.31	1241.69	-1257.94	866.64
Saccade R	1	4	6826457444	6826477315	19871	1047.34	386.51	1099.81	381.89	0.36	53.29	1.00	18.31	1241.69	-1257.94	866.64
Fixation L	1	5	6826477315	6826616571	139256	1102.23	380.75	20	9	-1	15.04	15.04
Fixation R	1	5	6826477315	6826616571	139256	1102.23	380.75	20	9	-1	14.18	14.18
