[BeGaze]
Converted from:	C:\Documents and Settings\iViewX\Desktop\EXPERIMENTATIONS\Experiments\results\finaleart\S9H29221-finaleart-1.idf
Date:	27.03.2019 16:01:59
Version:	BeGaze 2.5.77
Sample Rate:	50
Subject:	S9H29221
Description:	steven

Table Header for Fixations:
Event Type	Trial	Number	Start	End	Duration	Location X	Location Y	Dispersion X	Dispersion Y	Plane	Avg. Pupil Size X	Avg. Pupil Size Y

Table Header for Saccades:
Event Type	Trial	Number	Start	End	Duration	Start Loc.X	Start Loc.Y	End Loc.X	End Loc.Y	Amplitude	Peak Speed	Peak Speed At	Average Speed	Peak Accel.	Peak Decel.	Average Accel.

Table Header for Blinks:
Event Type	Trial	Number	Start	End	Duration

Table Header for User Events:
Event Type	Trial	Number	Start	Description

UserEvent	1	1	5551745623	# Message: void.jpg
Fixation L	1	1	5551751709	5551941148	189439	798.49	621.37	16	78	-1	14.65	14.65
Fixation R	1	1	5551751709	5551941148	189439	798.49	621.37	16	78	-1	15.31	15.31
Saccade L	1	1	5551941148	5551970458	29310	791.63	637.55	787.45	641.22	0.14	6.60	1.00	4.74	68.69	-46.83	46.63
Saccade R	1	1	5551941148	5551970458	29310	791.63	637.55	787.45	641.22	0.14	6.60	1.00	4.74	68.69	-46.83	46.63
Fixation L	1	2	5551970458	5552726271	755813	791.75	641.91	56	41	-1	15.70	15.70
Fixation R	1	2	5551970458	5552726271	755813	791.75	641.91	56	41	-1	16.06	16.06
Saccade L	1	2	5552726271	5552746147	19876	832.34	612.34	833.63	608.80	0.05	3.81	1.00	2.61	41.69	-75.06	62.43
Saccade R	1	2	5552726271	5552746147	19876	832.34	612.34	833.63	608.80	0.05	3.81	1.00	2.61	41.69	-75.06	62.43
Fixation L	1	3	5552746147	5553124130	377983	843.89	610.26	67	14	-1	16.27	16.27
Fixation R	1	3	5552746147	5553124130	377983	843.89	610.26	67	14	-1	16.21	16.21
Saccade L	1	3	5553124130	5553143997	19867	900.98	612.74	935.42	611.62	0.49	44.20	0.00	24.55	503.28	-994.94	734.63
Saccade R	1	3	5553124130	5553143997	19867	900.98	612.74	935.42	611.62	0.49	44.20	0.00	24.55	503.28	-994.94	734.63
Fixation L	1	4	5553143997	5553303112	159115	941.04	606.55	44	8	-1	16.90	16.90
Fixation R	1	4	5553143997	5553303112	159115	941.04	606.55	44	8	-1	16.59	16.59
Saccade L	1	4	5553303112	5553322991	19879	978.71	603.61	1047.61	601.07	0.60	69.74	1.00	30.02	1692.17	-1730.08	1398.57
Saccade R	1	4	5553303112	5553322991	19879	978.71	603.61	1047.61	601.07	0.60	69.74	1.00	30.02	1692.17	-1730.08	1398.57
Fixation L	1	5	5553322991	5553581602	258611	1060.29	592.80	37	18	-1	17.18	17.18
Fixation R	1	5	5553322991	5553581602	258611	1060.29	592.80	37	18	-1	16.79	16.79
Saccade L	1	5	5553581602	5553621350	39748	1082.09	583.73	1135.51	500.34	1.54	59.69	1.00	38.87	1369.46	-930.12	806.77
Saccade R	1	5	5553581602	5553621350	39748	1082.09	583.73	1135.51	500.34	1.54	59.69	1.00	38.87	1369.46	-930.12	806.77
Fixation L	1	6	5553621350	5553780468	159118	1141.12	473.52	12	53	-1	17.85	17.85
Fixation R	1	6	5553621350	5553780468	159118	1141.12	473.52	12	53	-1	17.69	17.69
