[BeGaze]
Converted from:	C:\Documents and Settings\iViewX\Desktop\EXPERIMENTATIONS\Experiments\results\finaleart\S9H29221-finaleart-1.idf
Date:	27.03.2019 16:04:08
Version:	BeGaze 2.5.77
Sample Rate:	50
Subject:	S9H29221
Description:	steven

Table Header for Fixations:
Event Type	Trial	Number	Start	End	Duration	Location X	Location Y	Dispersion X	Dispersion Y	Plane	Avg. Pupil Size X	Avg. Pupil Size Y

Table Header for Saccades:
Event Type	Trial	Number	Start	End	Duration	Start Loc.X	Start Loc.Y	End Loc.X	End Loc.Y	Amplitude	Peak Speed	Peak Speed At	Average Speed	Peak Accel.	Peak Decel.	Average Accel.

Table Header for Blinks:
Event Type	Trial	Number	Start	End	Duration

Table Header for User Events:
Event Type	Trial	Number	Start	Description

UserEvent	1	1	6851308190	# Message: the-reclining-shepherdess_morisot_1891.jpg
Fixation L	1	1	6851320005	6851533133	213128	994.02	496.52	79	16	-1	15.31	15.31
Fixation R	1	1	6851320005	6851533133	213128	994.02	496.52	79	16	-1	14.12	14.12
Saccade L	1	1	6851533133	6851558618	25485	944.72	504.92	940.45	517.66	0.28	14.72	0.00	10.80	204.67	-132.24	155.99
Saccade R	1	1	6851533133	6851558618	25485	944.72	504.92	940.45	517.66	0.28	14.72	0.00	10.80	204.67	-132.24	155.99
Fixation L	1	2	6851558618	6851834890	276272	936.66	516.91	63	28	-1	15.27	15.27
Fixation R	1	2	6851558618	6851834890	276272	936.66	516.91	63	28	-1	14.03	14.03
Saccade L	1	2	6851834890	6851856987	22097	885.82	536.24	872.41	534.34	0.50	32.14	0.00	22.72	-304.29	-442.38	389.64
Saccade R	1	2	6851834890	6851856987	22097	885.82	536.24	872.41	534.34	0.50	32.14	0.00	22.72	-304.29	-442.38	389.64
Fixation L	1	3	6851856987	6852095700	238713	870.40	547.67	6	22	-1	15.41	15.41
Fixation R	1	3	6851856987	6852095700	238713	870.40	547.67	6	22	-1	14.45	14.45
Saccade L	1	3	6852095700	6852135459	39759	872.22	547.17	1201.77	533.30	3.12	181.87	1.00	78.43	4332.42	-4340.87	3762.47
Saccade R	1	3	6852095700	6852135459	39759	872.22	547.17	1201.77	533.30	3.12	181.87	1.00	78.43	4332.42	-4340.87	3762.47
Fixation L	1	4	6852135459	6852394066	258607	1232.85	515.29	41	32	-1	14.90	14.90
Fixation R	1	4	6852135459	6852394066	258607	1232.85	515.29	41	32	-1	14.10	14.10
Saccade L	1	4	6852394066	6852433817	39751	1238.71	501.22	1354.56	490.96	1.14	71.66	0.50	28.79	1772.97	-1206.61	1237.98
Saccade R	1	4	6852394066	6852433817	39751	1238.71	501.22	1354.56	490.96	1.14	71.66	0.50	28.79	1772.97	-1206.61	1237.98
Fixation L	1	5	6852433817	6852632684	198867	1383.55	457.96	46	44	-1	13.36	13.36
Fixation R	1	5	6852433817	6852632684	198867	1383.55	457.96	46	44	-1	12.35	12.35
Saccade L	1	5	6852632684	6852652554	19870	1400.84	448.49	1416.06	442.37	0.17	16.60	1.00	8.67	281.54	-349.30	230.01
Saccade R	1	5	6852632684	6852652554	19870	1400.84	448.49	1416.06	442.37	0.17	16.60	1.00	8.67	281.54	-349.30	230.01
Fixation L	1	6	6852652554	6852970793	318239	1416.87	458.62	11	27	-1	12.76	12.76
Fixation R	1	6	6852652554	6852970793	318239	1416.87	458.62	11	27	-1	11.82	11.82
Saccade L	1	6	6852970793	6852990792	19999	1419.32	465.43	1308.85	464.60	0.79	111.74	1.00	39.52	2767.00	-2569.86	2095.79
Saccade R	1	6	6852970793	6852990792	19999	1419.32	465.43	1308.85	464.60	0.79	111.74	1.00	39.52	2767.00	-2569.86	2095.79
Fixation L	1	7	6852990792	6853269157	278365	1278.43	417.03	37	60	-1	12.46	12.46
Fixation R	1	7	6852990792	6853269157	278365	1278.43	417.03	37	60	-1	11.55	11.55
Saccade L	1	7	6853269157	6853289021	19864	1280.63	403.77	1282.27	398.23	0.07	5.85	1.00	3.74	81.80	-69.55	52.50
Saccade R	1	7	6853269157	6853289021	19864	1280.63	403.77	1282.27	398.23	0.07	5.85	1.00	3.74	81.80	-69.55	52.50
Fixation L	1	8	6853289021	6853388515	99494	1288.15	395.09	9	6	-1	12.34	12.34
Fixation R	1	8	6853289021	6853388515	99494	1288.15	395.09	9	6	-1	11.45	11.45
Saccade L	1	8	6853388515	6853408392	19877	1292.03	391.81	1374.87	400.06	0.59	84.20	1.00	29.45	2095.16	-1963.32	1590.12
Saccade R	1	8	6853388515	6853408392	19877	1292.03	391.81	1374.87	400.06	0.59	84.20	1.00	29.45	2095.16	-1963.32	1590.12
Fixation L	1	9	6853408392	6853766499	358107	1412.44	428.04	46	37	-1	12.58	12.58
Fixation R	1	9	6853408392	6853766499	358107	1412.44	428.04	46	37	-1	11.60	11.60
Saccade L	1	9	6853766499	6853826120	59621	1420.25	430.84	955.54	636.93	5.20	272.98	0.67	87.29	6791.08	-6695.34	4184.12
Saccade R	1	9	6853766499	6853826120	59621	1420.25	430.84	955.54	636.93	5.20	272.98	0.67	87.29	6791.08	-6695.34	4184.12
Fixation L	1	10	6853826120	6854104614	278494	958.70	646.36	4	13	-1	12.72	12.72
Fixation R	1	10	6853826120	6854104614	278494	958.70	646.36	4	13	-1	11.62	11.62
Saccade L	1	10	6854104614	6854144364	39750	958.57	648.78	1176.44	649.66	1.81	124.81	1.00	45.44	3075.38	-3053.88	2695.49
Saccade R	1	10	6854104614	6854144364	39750	958.57	648.78	1176.44	649.66	1.81	124.81	1.00	45.44	3075.38	-3053.88	2695.49
Fixation L	1	11	6854144364	6854601841	457477	1187.52	651.19	44	32	-1	12.60	12.60
Fixation R	1	11	6854144364	6854601841	457477	1187.52	651.19	44	32	-1	11.55	11.55
Saccade L	1	11	6854601841	6854641584	39743	1218.31	629.99	1000.38	668.69	1.93	144.22	1.00	48.62	3452.12	-3310.86	2621.97
Saccade R	1	11	6854601841	6854641584	39743	1218.31	629.99	1000.38	668.69	1.93	144.22	1.00	48.62	3452.12	-3310.86	2621.97
Fixation L	1	12	6854641584	6854920069	278485	993.80	697.90	32	58	-1	12.98	12.98
Fixation R	1	12	6854641584	6854920069	278485	993.80	697.90	32	58	-1	11.52	11.52
Saccade L	1	12	6854920069	6854939950	19881	968.68	726.68	918.29	717.00	0.48	51.91	1.00	24.11	1210.53	-1238.52	1023.34
Saccade R	1	12	6854920069	6854939950	19881	968.68	726.68	918.29	717.00	0.48	51.91	1.00	24.11	1210.53	-1238.52	1023.34
Fixation L	1	13	6854939950	6855138811	198861	910.06	716.45	12	22	-1	12.87	12.87
Fixation R	1	13	6854939950	6855138811	198861	910.06	716.45	12	22	-1	11.55	11.55
Saccade L	1	13	6855138811	6855178679	39868	905.92	703.08	698.60	707.87	1.77	118.73	0.50	44.41	2799.68	-2890.65	2482.00
Saccade R	1	13	6855138811	6855178679	39868	905.92	703.08	698.60	707.87	1.77	118.73	0.50	44.41	2799.68	-2890.65	2482.00
Fixation L	1	14	6855178679	6855278058	99379	699.65	703.63	10	7	-1	13.03	13.03
Fixation R	1	14	6855178679	6855278058	99379	699.65	703.63	10	7	-1	11.92	11.92
Saccade L	1	14	6855278058	6855337800	59742	704.98	700.55	327.50	711.90	4.73	205.09	0.67	79.09	4878.96	-505.37	1946.83
Saccade R	1	14	6855278058	6855337800	59742	704.98	700.55	327.50	711.90	4.73	205.09	0.67	79.09	4878.96	-505.37	1946.83
