[BeGaze]
Converted from:	C:\Documents and Settings\iViewX\Desktop\EXPERIMENTATIONS\Experiments\results\finaleart\S9H29221-finaleart-1.idf
Date:	27.03.2019 16:02:05
Version:	BeGaze 2.5.77
Sample Rate:	50
Subject:	S9H29221
Description:	steven

Table Header for Fixations:
Event Type	Trial	Number	Start	End	Duration	Location X	Location Y	Dispersion X	Dispersion Y	Plane	Avg. Pupil Size X	Avg. Pupil Size Y

Table Header for Saccades:
Event Type	Trial	Number	Start	End	Duration	Start Loc.X	Start Loc.Y	End Loc.X	End Loc.Y	Amplitude	Peak Speed	Peak Speed At	Average Speed	Peak Accel.	Peak Decel.	Average Accel.

Table Header for Blinks:
Event Type	Trial	Number	Start	End	Duration

Table Header for User Events:
Event Type	Trial	Number	Start	Description

UserEvent	1	1	5588744901	# Message: void.jpg
Saccade L	1	1	5588747207	5588848715	101508	438.08	421.52	578.73	418.78	2.66	133.69	1.00	26.23	3275.55	-3301.61	1140.66
Saccade R	1	1	5588747207	5588848715	101508	438.08	421.52	578.73	418.78	2.66	133.69	1.00	26.23	3275.55	-3301.61	1140.66
Fixation L	1	1	5588848715	5589443257	594542	570.41	393.44	42	46	-1	10.11	10.11
Fixation R	1	1	5588848715	5589443257	594542	570.41	393.44	42	46	-1	10.11	10.11
Blink L	1	1	5589443257	5589701884	258627
Blink R	1	1	5589443257	5589662128	218871
Blink R	1	2	5589642127	5589940497	298370
Blink L	1	2	5589721755	5589940497	218742
Saccade L	1	2	5589940497	5590059860	119363	1112.40	263.36	1152.98	353.55	6.15	122.17	1.00	51.50	2071.40	-2544.93	1323.60
Saccade R	1	2	5589940497	5590059860	119363	1112.40	263.36	1152.98	353.55	6.15	122.17	1.00	51.50	2071.40	-2544.93	1323.60
Fixation L	1	2	5590059860	5590199100	139240	1187.19	370.53	55	26	-1	10.92	10.92
Fixation R	1	2	5590059860	5590199100	139240	1187.19	370.53	55	26	-1	12.03	12.03
Saccade L	1	3	5590199100	5590218973	19873	1208.75	380.02	1222.03	386.33	0.16	14.88	1.00	8.06	193.94	-305.49	214.56
Saccade R	1	3	5590199100	5590218973	19873	1208.75	380.02	1222.03	386.33	0.16	14.88	1.00	8.06	193.94	-305.49	214.56
Fixation L	1	3	5590218973	5590596970	377997	1262.01	395.60	67	19	-1	10.87	10.87
Fixation R	1	3	5590218973	5590596970	377997	1262.01	395.60	67	19	-1	11.59	11.59
Saccade L	1	4	5590596970	5590756077	159107	1285.49	402.25	1210.05	385.06	46.64	1392.17	0.50	293.12	34804.30	-34564.86	15774.01
Saccade R	1	4	5590596970	5590756077	159107	1285.49	402.25	1210.05	385.06	46.64	1392.17	0.50	293.12	34804.30	-34564.86	15774.01
