[BeGaze]
Converted from:	C:\Documents and Settings\iViewX\Desktop\EXPERIMENTATIONS\Experiments\results\finaleart\S9H29221-finaleart-1.idf
Date:	27.03.2019 16:02:57
Version:	BeGaze 2.5.77
Sample Rate:	50
Subject:	S9H29221
Description:	steven

Table Header for Fixations:
Event Type	Trial	Number	Start	End	Duration	Location X	Location Y	Dispersion X	Dispersion Y	Plane	Avg. Pupil Size X	Avg. Pupil Size Y

Table Header for Saccades:
Event Type	Trial	Number	Start	End	Duration	Start Loc.X	Start Loc.Y	End Loc.X	End Loc.Y	Amplitude	Peak Speed	Peak Speed At	Average Speed	Peak Accel.	Peak Decel.	Average Accel.

Table Header for Blinks:
Event Type	Trial	Number	Start	End	Duration

Table Header for User Events:
Event Type	Trial	Number	Start	Description

UserEvent	1	1	6074593515	# Message: still-life-with-bottle-of-wind_cross_1904.jpg
Fixation L	1	1	6074597166	6074697658	100492	1365.66	398.21	5	6	-1	14.01	14.01
Fixation R	1	1	6074597166	6074697658	100492	1365.66	398.21	5	6	-1	12.42	12.42
Saccade L	1	1	6074697658	6074756273	58615	1364.98	394.64	1800.89	247.58	5.86	322.07	0.66	100.05	7955.44	-7512.31	5590.43
Saccade R	1	1	6074697658	6074756273	58615	1364.98	394.64	1800.89	247.58	5.86	322.07	0.66	100.05	7955.44	-7512.31	5590.43
Fixation L	1	2	6074756273	6074994891	238618	1803.06	252.78	29	11	-1	13.94	13.94
Fixation R	1	2	6074756273	6074994891	238618	1803.06	252.78	29	11	-1	12.36	12.36
Saccade L	1	2	6074994891	6075134140	139249	1805.86	252.53	1027.34	331.14	16.12	410.68	0.71	115.76	8386.93	-5960.71	4330.34
Saccade R	1	2	6074994891	6075134140	139249	1805.86	252.53	1027.34	331.14	16.12	410.68	0.71	115.76	8386.93	-5960.71	4330.34
Fixation L	1	3	6075134140	6075473282	339142	1018.16	325.86	12	17	-1	13.77	13.77
Fixation R	1	3	6075134140	6075473282	339142	1018.16	325.86	12	17	-1	12.50	12.50
Saccade L	1	3	6075473282	6075551865	78583	1020.21	322.97	842.35	553.87	4.88	160.11	0.59	62.14	3942.51	-3822.61	3579.90
Saccade R	1	3	6075473282	6075551865	78583	1020.21	322.97	842.35	553.87	4.88	160.11	0.59	62.14	3942.51	-3822.61	3579.90
Fixation L	1	4	6075551865	6076049081	497216	853.35	537.63	15	33	-1	12.01	12.01
Fixation R	1	4	6075551865	6076049081	497216	853.35	537.63	15	33	-1	11.50	11.50
Saccade L	1	4	6076049081	6076088834	39753	855.91	534.17	858.34	528.71	3.35	201.71	1.00	84.25	4857.94	-4930.99	4791.42
Saccade R	1	4	6076049081	6076088834	39753	855.91	534.17	858.34	528.71	3.35	201.71	1.00	84.25	4857.94	-4930.99	4791.42
Fixation L	1	5	6076088834	6076486686	397852	878.70	537.01	29	34	-1	11.77	11.77
Fixation R	1	5	6076088834	6076486686	397852	878.70	537.01	29	34	-1	11.53	11.53
Blink L	1	1	6076486686	6076566311	79625
Blink R	1	1	6076486686	6076566311	79625
Fixation L	1	6	6076566311	6076884536	318225	964.66	495.02	12	87	-1	12.65	12.65
Fixation R	1	6	6076566311	6076884536	318225	964.66	495.02	12	87	-1	12.88	12.88
Saccade L	1	5	6076884536	6076924292	39756	967.39	480.45	1171.65	291.86	2.45	220.41	1.00	61.51	5441.11	-5302.55	3563.68
Saccade R	1	5	6076884536	6076924292	39756	967.39	480.45	1171.65	291.86	2.45	220.41	1.00	61.51	5441.11	-5302.55	3563.68
Fixation L	1	7	6076924292	6077361893	437601	1180.05	291.20	15	10	-1	12.73	12.73
Fixation R	1	7	6076924292	6077361893	437601	1180.05	291.20	15	10	-1	12.83	12.83
Saccade L	1	6	6077361893	6077381770	19877	1170.68	298.23	997.07	403.75	1.19	205.43	1.00	59.76	5090.24	-5002.20	3384.65
Saccade R	1	6	6077361893	6077381770	19877	1170.68	298.23	997.07	403.75	1.19	205.43	1.00	59.76	5090.24	-5002.20	3384.65
Fixation L	1	8	6077381770	6078038131	656361	982.80	410.27	23	24	-1	13.84	13.84
Fixation R	1	8	6077381770	6078038131	656361	982.80	410.27	23	24	-1	13.68	13.68
Saccade L	1	7	6078038131	6078077861	39730	987.48	394.01	1214.59	268.95	2.38	182.27	0.50	60.02	4511.18	-4334.44	3413.57
Saccade R	1	7	6078038131	6078077861	39730	987.48	394.01	1214.59	268.95	2.38	182.27	0.50	60.02	4511.18	-4334.44	3413.57
Fixation L	1	9	6078077861	6078614958	537097	1211.41	282.88	41	55	-1	14.65	14.65
Fixation R	1	9	6078077861	6078614958	537097	1211.41	282.88	41	55	-1	14.03	14.03
