[BeGaze]
Converted from:	C:\Documents and Settings\iViewX\Desktop\EXPERIMENTATIONS\Experiments\results\finaleart\S9H29221-finaleart-1.idf
Date:	27.03.2019 16:02:15
Version:	BeGaze 2.5.77
Sample Rate:	50
Subject:	S9H29221
Description:	steven

Table Header for Fixations:
Event Type	Trial	Number	Start	End	Duration	Location X	Location Y	Dispersion X	Dispersion Y	Plane	Avg. Pupil Size X	Avg. Pupil Size Y

Table Header for Saccades:
Event Type	Trial	Number	Start	End	Duration	Start Loc.X	Start Loc.Y	End Loc.X	End Loc.Y	Amplitude	Peak Speed	Peak Speed At	Average Speed	Peak Accel.	Peak Decel.	Average Accel.

Table Header for Blinks:
Event Type	Trial	Number	Start	End	Duration

Table Header for User Events:
Event Type	Trial	Number	Start	Description

UserEvent	1	1	5731746625	# Message: void.jpg
Fixation L	1	1	5731761578	5732000202	238624	736.78	528.21	62	34	-1	13.62	13.62
Fixation R	1	1	5731761578	5732000202	238624	736.78	528.21	62	34	-1	13.92	13.92
Saccade L	1	1	5732000202	5732020057	19855	689.07	552.25	685.66	546.69	0.27	25.99	1.00	13.40	309.87	-484.87	293.28
Saccade R	1	1	5732000202	5732020057	19855	689.07	552.25	685.66	546.69	0.27	25.99	1.00	13.40	309.87	-484.87	293.28
Fixation L	1	2	5732020057	5732219988	199931	690.40	566.34	11	28	-1	13.19	13.19
Fixation R	1	2	5732020057	5732219988	199931	690.40	566.34	11	28	-1	13.92	13.92
Saccade L	1	2	5732219988	5732338289	118301	689.72	568.96	1603.70	837.06	17.79	549.28	0.66	150.35	13570.64	-13331.59	6947.86
Saccade R	1	2	5732219988	5732338289	118301	689.72	568.96	1603.70	837.06	17.79	549.28	0.66	150.35	13570.64	-13331.59	6947.86
Fixation L	1	3	5732338289	5732577034	238745	1557.86	850.84	60	24	-1	14.62	14.62
Fixation R	1	3	5732338289	5732577034	238745	1557.86	850.84	60	24	-1	14.36	14.36
Saccade L	1	3	5732577034	5732656533	79499	1543.65	861.76	1092.97	585.29	6.60	193.06	0.50	83.01	4593.81	-3979.44	2896.74
Saccade R	1	3	5732577034	5732656533	79499	1543.65	861.76	1092.97	585.29	6.60	193.06	0.50	83.01	4593.81	-3979.44	2896.74
Fixation L	1	4	5732656533	5733173748	517215	1098.01	572.33	50	48	-1	15.04	15.04
Fixation R	1	4	5732656533	5733173748	517215	1098.01	572.33	50	48	-1	14.30	14.30
Saccade L	1	4	5733173748	5733193638	19890	1053.32	536.41	1033.06	540.50	0.48	46.52	0.00	24.06	2.79	-962.37	438.51
Saccade R	1	4	5733173748	5733193638	19890	1053.32	536.41	1033.06	540.50	0.48	46.52	0.00	24.06	2.79	-962.37	438.51
Fixation L	1	5	5733193638	5733412386	218748	1029.09	522.28	66	24	-1	15.33	15.33
Fixation R	1	5	5733193638	5733412386	218748	1029.09	522.28	66	24	-1	14.84	14.84
Saccade L	1	5	5733412386	5733432241	19855	1082.09	516.81	1099.71	517.37	0.44	53.66	0.00	22.01	100.56	-1272.58	550.95
Saccade R	1	5	5733412386	5733432241	19855	1082.09	516.81	1099.71	517.37	0.44	53.66	0.00	22.01	100.56	-1272.58	550.95
Fixation L	1	6	5733432241	5733770472	338231	1113.76	512.57	31	9	-1	15.43	15.43
Fixation R	1	6	5733432241	5733770472	338231	1113.76	512.57	31	9	-1	15.30	15.30
