[BeGaze]
Converted from:	C:\Documents and Settings\iViewX\Desktop\EXPERIMENTATIONS\Experiments\results\finaleart\S9H29221-finaleart-1.idf
Date:	27.03.2019 16:01:46
Version:	BeGaze 2.5.77
Sample Rate:	50
Subject:	S9H29221
Description:	steven

Table Header for Fixations:
Event Type	Trial	Number	Start	End	Duration	Location X	Location Y	Dispersion X	Dispersion Y	Plane	Avg. Pupil Size X	Avg. Pupil Size Y

Table Header for Saccades:
Event Type	Trial	Number	Start	End	Duration	Start Loc.X	Start Loc.Y	End Loc.X	End Loc.Y	Amplitude	Peak Speed	Peak Speed At	Average Speed	Peak Accel.	Peak Decel.	Average Accel.

Table Header for Blinks:
Event Type	Trial	Number	Start	End	Duration

Table Header for User Events:
Event Type	Trial	Number	Start	Description

UserEvent	1	1	5419901170	# Message: REJECTED_Volga_Lagoon_Vassiliev_1870.jpg
Fixation L	1	1	5419920637	5421014584	1093947	1040.15	534.70	44	19	-1	15.55	15.55
Fixation R	1	1	5419920637	5421014584	1093947	1040.15	534.70	44	19	-1	14.73	14.73
Saccade L	1	1	5421014584	5421292947	278363	1020.96	530.31	612.37	900.91	17.42	201.08	0.07	62.58	5000.45	-4867.75	3009.70
Saccade R	1	1	5421014584	5421292947	278363	1020.96	530.31	612.37	900.91	17.42	201.08	0.07	62.58	5000.45	-4867.75	3009.70
Fixation L	1	2	5421292947	5421531683	238736	610.58	873.01	13	36	-1	13.78	13.78
Fixation R	1	2	5421292947	5421531683	238736	610.58	873.01	13	36	-1	13.57	13.57
Saccade L	1	2	5421531683	5421551547	19864	599.37	879.49	516.57	895.83	0.63	85.37	1.00	31.52	2076.34	-1989.34	1422.78
Saccade R	1	2	5421531683	5421551547	19864	599.37	879.49	516.57	895.83	0.63	85.37	1.00	31.52	2076.34	-1989.34	1422.78
Fixation L	1	3	5421551547	5422188028	636481	508.72	920.26	37	54	-1	13.33	13.33
Fixation R	1	3	5421551547	5422188028	636481	508.72	920.26	37	54	-1	13.37	13.37
Saccade L	1	3	5422188028	5422227774	39746	530.67	935.85	755.26	843.90	2.03	154.63	0.50	51.10	3800.80	-3768.57	2985.38
Saccade R	1	3	5422188028	5422227774	39746	530.67	935.85	755.26	843.90	2.03	154.63	0.50	51.10	3800.80	-3768.57	2985.38
Fixation L	1	4	5422227774	5422466509	238735	744.76	821.64	19	37	-1	13.84	13.84
Fixation R	1	4	5422227774	5422466509	238735	744.76	821.64	19	37	-1	13.41	13.41
Saccade L	1	4	5422466509	5422526137	59628	736.73	808.81	1318.25	896.11	6.42	272.62	0.67	107.63	6740.71	-5800.38	4258.96
Saccade R	1	4	5422466509	5422526137	59628	736.73	808.81	1318.25	896.11	6.42	272.62	0.67	107.63	6740.71	-5800.38	4258.96
Fixation L	1	5	5422526137	5422784740	258603	1317.99	944.43	26	59	-1	13.80	13.80
Fixation R	1	5	5422526137	5422784740	258603	1317.99	944.43	26	59	-1	13.11	13.11
Saccade L	1	5	5422784740	5422804625	19885	1333.37	954.72	1535.58	949.27	1.35	204.55	1.00	67.93	4984.16	-4861.84	3359.63
Saccade R	1	5	5422784740	5422804625	19885	1333.37	954.72	1535.58	949.27	1.35	204.55	1.00	67.93	4984.16	-4861.84	3359.63
Fixation L	1	6	5422804625	5423242226	437601	1539.97	934.70	59	40	-1	13.72	13.72
Fixation R	1	6	5422804625	5423242226	437601	1539.97	934.70	59	40	-1	12.41	12.41
Saccade L	1	6	5423242226	5423262094	19868	1511.44	914.19	1504.15	905.92	0.19	11.16	1.00	9.67	91.11	-208.59	112.92
Saccade R	1	6	5423242226	5423262094	19868	1511.44	914.19	1504.15	905.92	0.19	11.16	1.00	9.67	91.11	-208.59	112.92
Fixation L	1	7	5423262094	5423620219	358125	1484.07	900.65	33	19	-1	13.83	13.83
Fixation R	1	7	5423262094	5423620219	358125	1484.07	900.65	33	19	-1	12.55	12.55
Saccade L	1	7	5423620219	5423659947	39728	1504.81	903.78	1715.87	632.52	3.21	223.15	0.50	80.72	5523.55	-5380.54	4161.16
Saccade R	1	7	5423620219	5423659947	39728	1504.81	903.78	1715.87	632.52	3.21	223.15	0.50	80.72	5523.55	-5380.54	4161.16
Fixation L	1	8	5423659947	5423898572	238625	1698.97	640.08	25	24	-1	14.01	14.01
Fixation R	1	8	5423659947	5423898572	238625	1698.97	640.08	25	24	-1	12.54	12.54
