[BeGaze]
Converted from:	C:\Documents and Settings\iViewX\Desktop\EXPERIMENTATIONS\Experiments\results\finaleart\S9H29221-finaleart-1.idf
Date:	27.03.2019 16:03:57
Version:	BeGaze 2.5.77
Sample Rate:	50
Subject:	S9H29221
Description:	steven

Table Header for Fixations:
Event Type	Trial	Number	Start	End	Duration	Location X	Location Y	Dispersion X	Dispersion Y	Plane	Avg. Pupil Size X	Avg. Pupil Size Y

Table Header for Saccades:
Event Type	Trial	Number	Start	End	Duration	Start Loc.X	Start Loc.Y	End Loc.X	End Loc.Y	Amplitude	Peak Speed	Peak Speed At	Average Speed	Peak Accel.	Peak Decel.	Average Accel.

Table Header for Blinks:
Event Type	Trial	Number	Start	End	Duration

Table Header for User Events:
Event Type	Trial	Number	Start	Description

UserEvent	1	1	6682554380	# Message: courbet-the-sleepers-1866.jpg
Blink L	1	1	6682569319	6682708571	139252
Blink R	1	1	6682569319	6682987052	417733
Blink L	1	2	6682728431	6682987052	258621
Fixation L	1	1	6682987052	6683086426	99374	1101.29	311.90	45	33	-1	10.07	10.07
Fixation R	1	1	6682987052	6683086426	99374	1101.29	311.90	45	33	-1	10.54	10.54
Saccade L	1	1	6683086426	6683563776	477350	1120.39	334.60	521.34	371.02	15.97	85.94	0.25	33.46	1231.82	-1699.19	524.36
Saccade R	1	1	6683086426	6683563776	477350	1120.39	334.60	521.34	371.02	15.97	85.94	0.25	33.46	1231.82	-1699.19	524.36
Fixation L	1	2	6683563776	6683822374	258598	465.89	371.24	78	19	-1	9.29	9.29
Fixation R	1	2	6683563776	6683822374	258598	465.89	371.24	78	19	-1	9.55	9.55
Saccade L	1	2	6683822374	6683842262	19888	448.58	377.52	440.33	376.66	0.08	8.40	1.00	4.23	125.39	-142.88	105.06
Saccade R	1	2	6683822374	6683842262	19888	448.58	377.52	440.33	376.66	0.08	8.40	1.00	4.23	125.39	-142.88	105.06
Fixation L	1	3	6683842262	6684438989	596727	462.42	368.96	55	26	-1	8.68	8.68
Fixation R	1	3	6683842262	6684438989	596727	462.42	368.96	55	26	-1	9.30	9.30
Saccade L	1	3	6684438989	6684538479	99490	484.19	382.57	873.72	452.06	5.20	133.86	0.80	52.30	2645.63	-3002.64	1291.25
Saccade R	1	3	6684438989	6684538479	99490	484.19	382.57	873.72	452.06	5.20	133.86	0.80	52.30	2645.63	-3002.64	1291.25
Fixation L	1	4	6684538479	6684737334	198855	908.03	467.44	66	27	-1	9.14	9.14
Fixation R	1	4	6684538479	6684737334	198855	908.03	467.44	66	27	-1	9.40	9.40
Saccade L	1	4	6684737334	6684816846	79512	940.25	476.12	966.58	508.88	2.23	119.32	1.00	28.11	4697.48	-133.19	1269.82
Saccade R	1	4	6684737334	6684816846	79512	940.25	476.12	966.58	508.88	2.23	119.32	1.00	28.11	4697.48	-133.19	1269.82
Blink L	1	3	6684816846	6685055565	238719
Blink R	1	2	6684816846	6685055565	238719
Fixation L	1	5	6685055565	6685393685	338120	1036.39	477.64	42	39	-1	10.24	10.24
Fixation R	1	5	6685055565	6685393685	338120	1036.39	477.64	42	39	-1	10.14	10.14
Saccade L	1	5	6685393685	6685413557	19872	1055.74	492.79	1055.19	512.83	0.20	20.29	1.00	10.25	429.09	-305.09	312.32
Saccade R	1	5	6685393685	6685413557	19872	1055.74	492.79	1055.19	512.83	0.20	20.29	1.00	10.25	429.09	-305.09	312.32
Fixation L	1	6	6685413557	6685811404	397847	1049.37	544.08	10	39	-1	10.55	10.55
Fixation R	1	6	6685413557	6685811404	397847	1049.37	544.08	10	39	-1	10.58	10.58
Saccade L	1	6	6685811404	6685851168	39764	1050.67	546.69	766.51	372.03	3.02	212.49	1.00	76.07	5255.16	-5195.56	4384.30
Saccade R	1	6	6685811404	6685851168	39764	1050.67	546.69	766.51	372.03	3.02	212.49	1.00	76.07	5255.16	-5195.56	4384.30
Fixation L	1	7	6685851168	6685990408	139240	757.93	366.09	13	11	-1	10.73	10.73
Fixation R	1	7	6685851168	6685990408	139240	757.93	366.09	13	11	-1	10.73	10.73
Saccade L	1	7	6685990408	6686030147	39739	753.07	366.69	352.97	294.88	3.48	252.33	0.50	87.56	6145.67	-5962.08	4869.94
Saccade R	1	7	6685990408	6686030147	39739	753.07	366.69	352.97	294.88	3.48	252.33	0.50	87.56	6145.67	-5962.08	4869.94
Fixation L	1	8	6686030147	6686507498	477351	374.34	312.07	30	59	-1	11.18	11.18
Fixation R	1	8	6686030147	6686507498	477351	374.34	312.07	30	59	-1	11.72	11.72
