[BeGaze]
Converted from:	C:\Documents and Settings\iViewX\Desktop\EXPERIMENTATIONS\Experiments\results\finaleart\S9H29221-finaleart-1.idf
Date:	27.03.2019 16:04:02
Version:	BeGaze 2.5.77
Sample Rate:	50
Subject:	S9H29221
Description:	steven

Table Header for Fixations:
Event Type	Trial	Number	Start	End	Duration	Location X	Location Y	Dispersion X	Dispersion Y	Plane	Avg. Pupil Size X	Avg. Pupil Size Y

Table Header for Saccades:
Event Type	Trial	Number	Start	End	Duration	Start Loc.X	Start Loc.Y	End Loc.X	End Loc.Y	Amplitude	Peak Speed	Peak Speed At	Average Speed	Peak Accel.	Peak Decel.	Average Accel.

Table Header for Blinks:
Event Type	Trial	Number	Start	End	Duration

Table Header for User Events:
Event Type	Trial	Number	Start	Description

UserEvent	1	1	6814318673	# Message: REJECTED_rose_in_a_bowl_fantin_latour_1883.jpg
Fixation L	1	1	6814324525	6815206968	882443	977.09	470.80	30	45	-1	17.47	17.47
Fixation R	1	1	6814324525	6815206968	882443	977.09	470.80	30	45	-1	16.44	16.44
Saccade L	1	1	6815206968	6815219604	12636	953.65	499.34	802.27	515.02	0.64	153.92	1.00	50.64	3661.22	-3578.91	2497.22
Saccade R	1	1	6815206968	6815219604	12636	953.65	499.34	802.27	515.02	0.64	153.92	1.00	50.64	3661.22	-3578.91	2497.22
Fixation L	1	2	6815219604	6815398587	178983	812.62	545.52	29	45	-1	18.80	18.80
Fixation R	1	2	6815219604	6815398587	178983	812.62	545.52	29	45	-1	17.94	17.94
Saccade L	1	2	6815398587	6815438342	39755	831.62	559.64	1102.54	558.28	2.37	184.55	0.50	59.56	4541.21	-4459.41	3244.52
Saccade R	1	2	6815398587	6815438342	39755	831.62	559.64	1102.54	558.28	2.37	184.55	0.50	59.56	4541.21	-4459.41	3244.52
Fixation L	1	3	6815438342	6815677100	238758	1102.62	540.00	56	34	-1	17.22	17.22
Fixation R	1	3	6815438342	6815677100	238758	1102.62	540.00	56	34	-1	16.44	16.44
Saccade L	1	3	6815677100	6815716835	39735	1054.84	547.24	674.70	707.09	3.84	285.19	0.50	96.66	7089.54	-7089.26	4901.32
Saccade R	1	3	6815677100	6815716835	39735	1054.84	547.24	674.70	707.09	3.84	285.19	0.50	96.66	7089.54	-7089.26	4901.32
Fixation L	1	4	6815716835	6815955568	238733	679.63	702.74	8	23	-1	16.08	16.08
Fixation R	1	4	6815716835	6815955568	238733	679.63	702.74	8	23	-1	15.37	15.37
Saccade L	1	4	6815955568	6815975435	19867	679.29	686.58	516.45	697.78	1.14	165.08	1.00	57.14	4013.99	-4048.66	3075.03
Saccade R	1	4	6815955568	6815975435	19867	679.29	686.58	516.45	697.78	1.14	165.08	1.00	57.14	4013.99	-4048.66	3075.03
Fixation L	1	5	6815975435	6816194168	218733	465.30	724.74	60	38	-1	15.30	15.30
Fixation R	1	5	6815975435	6816194168	218733	465.30	724.74	60	38	-1	14.88	14.88
Saccade L	1	5	6816194168	6816333421	139253	456.60	736.03	568.94	522.36	3.93	156.99	1.00	28.21	3833.05	-3831.03	1345.69
Saccade R	1	5	6816194168	6816333421	139253	456.60	736.03	568.94	522.36	3.93	156.99	1.00	28.21	3833.05	-3831.03	1345.69
Fixation L	1	6	6816333421	6816512408	178987	586.11	513.13	26	16	-1	14.09	14.09
Fixation R	1	6	6816333421	6816512408	178987	586.11	513.13	26	16	-1	14.02	14.02
Saccade L	1	6	6816512408	6816552161	39753	589.83	507.47	1101.29	496.46	4.35	270.27	0.50	109.32	6705.21	-6146.40	6268.03
Saccade R	1	6	6816512408	6816552161	39753	589.83	507.47	1101.29	496.46	4.35	270.27	0.50	109.32	6705.21	-6146.40	6268.03
Fixation L	1	7	6816552161	6816870520	318359	1111.55	476.90	18	27	-1	13.70	13.70
Fixation R	1	7	6816552161	6816870520	318359	1111.55	476.90	18	27	-1	13.46	13.46
Saccade L	1	7	6816870520	6816890389	19869	1105.91	474.88	1249.38	484.96	0.87	145.46	1.00	43.82	3602.06	-3207.91	2486.76
Saccade R	1	7	6816870520	6816890389	19869	1105.91	474.88	1249.38	484.96	0.87	145.46	1.00	43.82	3602.06	-3207.91	2486.76
Fixation L	1	8	6816890389	6817089252	198863	1271.45	529.86	26	72	-1	13.67	13.67
Fixation R	1	8	6816890389	6817089252	198863	1271.45	529.86	26	72	-1	13.27	13.27
Saccade L	1	8	6817089252	6817109124	19872	1272.16	554.34	1274.58	561.40	0.13	12.04	1.00	6.52	55.14	-112.41	60.29
Saccade R	1	8	6817089252	6817109124	19872	1272.16	554.34	1274.58	561.40	0.13	12.04	1.00	6.52	55.14	-112.41	60.29
Fixation L	1	9	6817109124	6817546728	437604	1231.19	545.01	55	34	-1	14.03	14.03
Fixation R	1	9	6817109124	6817546728	437604	1231.19	545.01	55	34	-1	13.52	13.52
Saccade L	1	9	6817546728	6817586483	39755	1229.11	529.83	1427.60	681.03	2.22	200.79	0.50	55.89	4967.19	-4899.95	3243.72
Saccade R	1	9	6817546728	6817586483	39755	1229.11	529.83	1427.60	681.03	2.22	200.79	0.50	55.89	4967.19	-4899.95	3243.72
Fixation L	1	10	6817586483	6818063842	477359	1437.72	676.07	40	18	-1	14.85	14.85
Fixation R	1	10	6817586483	6818063842	477359	1437.72	676.07	40	18	-1	13.47	13.47
Saccade L	1	10	6818063842	6818183199	119357	1406.94	674.06	922.38	555.14	17.69	363.22	0.67	148.18	8223.99	-6608.28	5506.99
Saccade R	1	10	6818063842	6818123588	59746	1406.94	674.06	1029.39	565.82	8.02	363.22	1.00	134.25	8223.99	-6069.73	5743.52
Blink R	1	1	6818123588	6818222956	99368
Fixation L	1	11	6818183199	6818342327	159128	932.81	501.69	19	76	-1	16.32	16.32
Fixation R	1	11	6818222956	6818342327	119371	936.05	497.33	9	15	-1	14.20	14.20
