[BeGaze]
Converted from:	C:\Documents and Settings\iViewX\Desktop\EXPERIMENTATIONS\Experiments\results\finaleart\S9H29221-finaleart-1.idf
Date:	27.03.2019 16:03:15
Version:	BeGaze 2.5.77
Sample Rate:	50
Subject:	S9H29221
Description:	steven

Table Header for Fixations:
Event Type	Trial	Number	Start	End	Duration	Location X	Location Y	Dispersion X	Dispersion Y	Plane	Avg. Pupil Size X	Avg. Pupil Size Y

Table Header for Saccades:
Event Type	Trial	Number	Start	End	Duration	Start Loc.X	Start Loc.Y	End Loc.X	End Loc.Y	Amplitude	Peak Speed	Peak Speed At	Average Speed	Peak Accel.	Peak Decel.	Average Accel.

Table Header for Blinks:
Event Type	Trial	Number	Start	End	Duration

Table Header for User Events:
Event Type	Trial	Number	Start	Description

UserEvent	1	1	6329750691	# Message: the-banks-of-the-marne-at-dawn_dubois-pillet_1888.jpg
Saccade L	1	1	6329762077	6329881442	119365	1646.93	350.30	1789.56	264.29	4.05	77.30	0.33	33.95	1932.43	-1195.65	748.07
Saccade R	1	1	6329762077	6330263209	501132	1646.93	350.30	1391.22	331.74	22.17	132.68	0.48	44.25	2383.15	-3005.92	902.22
Blink L	1	1	6329881442	6330040543	159101
Saccade L	1	2	6330040543	6330263209	222666	1689.03	334.07	1391.22	331.74	9.14	93.36	0.09	41.03	1904.18	-1945.43	728.56
Fixation L	1	1	6330263209	6330398541	135332	1344.76	322.64	80	18	-1	13.27	13.27
Fixation R	1	1	6330263209	6330398541	135332	1344.76	322.64	80	18	-1	12.65	12.65
Saccade L	1	3	6330398541	6330418540	19999	1310.86	318.82	1290.12	316.91	0.23	21.07	1.00	11.57	269.73	-176.17	166.19
Saccade R	1	2	6330398541	6330418540	19999	1310.86	318.82	1290.12	316.91	0.23	21.07	1.00	11.57	269.73	-176.17	166.19
Fixation L	1	2	6330418540	6330597517	178977	1250.81	323.58	75	14	-1	12.50	12.50
Fixation R	1	2	6330418540	6330597517	178977	1250.81	323.58	75	14	-1	12.02	12.02
Saccade L	1	4	6330597517	6330617385	19868	1214.20	331.10	1238.09	417.37	0.66	90.56	1.00	33.07	2126.67	-1671.91	1416.28
Saccade R	1	3	6330597517	6330617385	19868	1214.20	331.10	1238.09	417.37	0.66	90.56	1.00	33.07	2126.67	-1671.91	1416.28
Fixation L	1	3	6330617385	6330975379	357994	1258.51	457.45	46	50	-1	10.99	10.99
Fixation R	1	3	6330617385	6330975379	357994	1258.51	457.45	46	50	-1	10.63	10.63
Saccade L	1	5	6330975379	6330995256	19877	1280.11	467.88	1287.32	467.14	0.13	10.70	1.00	6.76	162.72	-1.23	75.41
Saccade R	1	4	6330975379	6330995256	19877	1280.11	467.88	1287.32	467.14	0.13	10.70	1.00	6.76	162.72	-1.23	75.41
Fixation L	1	4	6330995256	6331194240	198984	1327.52	459.76	66	19	-1	10.30	10.30
Fixation R	1	4	6330995256	6331194240	198984	1327.52	459.76	66	19	-1	10.07	10.07
Saccade L	1	6	6331194240	6331233993	39753	1350.02	450.91	1354.59	451.61	11.53	1415.00	1.00	290.14	34973.77	-303.71	8948.70
Saccade R	1	5	6331194240	6331233993	39753	1350.02	450.91	1354.59	451.61	11.53	1415.00	1.00	290.14	34973.77	-303.71	8948.70
Blink L	1	2	6331233993	6332272069	1038076
Blink R	1	1	6331233993	6332272069	1038076
Fixation L	1	5	6332272069	6332411332	139263	1431.76	503.17	42	19	-1	10.24	10.24
Fixation R	1	5	6332272069	6332411332	139263	1431.76	503.17	42	19	-1	9.56	9.56
