[BeGaze]
Converted from:	C:\Documents and Settings\iViewX\Desktop\EXPERIMENTATIONS\Experiments\results\finaleart\S9H29221-finaleart-1.idf
Date:	27.03.2019 16:02:14
Version:	BeGaze 2.5.77
Sample Rate:	50
Subject:	S9H29221
Description:	steven

Table Header for Fixations:
Event Type	Trial	Number	Start	End	Duration	Location X	Location Y	Dispersion X	Dispersion Y	Plane	Avg. Pupil Size X	Avg. Pupil Size Y

Table Header for Saccades:
Event Type	Trial	Number	Start	End	Duration	Start Loc.X	Start Loc.Y	End Loc.X	End Loc.Y	Amplitude	Peak Speed	Peak Speed At	Average Speed	Peak Accel.	Peak Decel.	Average Accel.

Table Header for Blinks:
Event Type	Trial	Number	Start	End	Duration

Table Header for User Events:
Event Type	Trial	Number	Start	Description

UserEvent	1	1	5725572205	# Message: void.jpg
Fixation L	1	1	5725575754	5725714978	139224	340.94	639.89	12	5	-1	14.81	14.81
Fixation R	1	1	5725575754	5725714978	139224	340.94	639.89	12	5	-1	14.74	14.74
Saccade L	1	1	5725714978	5725794486	79508	340.98	640.73	830.20	685.47	8.22	337.29	1.00	103.33	8272.91	-8167.98	6017.86
Saccade R	1	1	5725714978	5725794486	79508	340.98	640.73	830.20	685.47	8.22	337.29	1.00	103.33	8272.91	-8167.98	6017.86
Fixation L	1	2	5725794486	5726251959	457473	834.83	702.69	53	42	-1	14.61	14.61
Fixation R	1	2	5725794486	5726251959	457473	834.83	702.69	53	42	-1	14.52	14.52
Saccade L	1	2	5726251959	5726271830	19871	867.04	718.56	869.17	721.19	0.08	6.03	1.00	4.12	-10.30	-65.08	33.92
Saccade R	1	2	5726251959	5726271830	19871	867.04	718.56	869.17	721.19	0.08	6.03	1.00	4.12	-10.30	-65.08	33.92
Fixation L	1	3	5726271830	5726450974	179144	879.19	711.53	39	55	-1	14.63	14.63
Fixation R	1	3	5726271830	5726450974	179144	879.19	711.53	39	55	-1	14.40	14.40
Saccade L	1	3	5726450974	5726470830	19856	908.36	673.28	919.13	672.15	0.30	24.12	0.00	14.98	-91.94	-453.53	247.78
Saccade R	1	3	5726450974	5726470830	19856	908.36	673.28	919.13	672.15	0.30	24.12	0.00	14.98	-91.94	-453.53	247.78
Fixation L	1	4	5726470830	5726590064	119234	926.10	660.67	28	24	-1	14.48	14.48
Fixation R	1	4	5726470830	5726590064	119234	926.10	660.67	28	24	-1	14.04	14.04
Blink L	1	1	5726590064	5726769169	179105
Blink R	1	1	5726590064	5726769169	179105
Saccade L	1	4	5726769169	5726811403	42234	1066.45	520.03	1063.01	527.23	13.05	1183.26	1.00	308.92	29217.71	-542.79	9987.41
Saccade R	1	4	5726769169	5726811403	42234	1066.45	520.03	1063.01	527.23	13.05	1183.26	1.00	308.92	29217.71	-542.79	9987.41
Blink L	1	2	5726811403	5726968043	156640
Blink R	1	2	5726811403	5726968043	156640
Fixation L	1	5	5726968043	5727564770	596727	1027.74	522.00	66	30	-1	14.42	14.42
Fixation R	1	5	5726968043	5727564770	596727	1027.74	522.00	66	30	-1	14.38	14.38
Saccade L	1	5	5727564770	5727604519	39749	986.29	536.14	977.03	540.78	0.35	14.06	1.00	8.89	0.00	-254.73	118.79
Saccade R	1	5	5727564770	5727604519	39749	986.29	536.14	977.03	540.78	0.35	14.06	1.00	8.89	0.00	-254.73	118.79
