[BeGaze]
Converted from:	C:\Documents and Settings\iViewX\Desktop\EXPERIMENTATIONS\Experiments\results\finaleart\S9H29221-finaleart-1.idf
Date:	27.03.2019 16:02:04
Version:	BeGaze 2.5.77
Sample Rate:	50
Subject:	S9H29221
Description:	steven

Table Header for Fixations:
Event Type	Trial	Number	Start	End	Duration	Location X	Location Y	Dispersion X	Dispersion Y	Plane	Avg. Pupil Size X	Avg. Pupil Size Y

Table Header for Saccades:
Event Type	Trial	Number	Start	End	Duration	Start Loc.X	Start Loc.Y	End Loc.X	End Loc.Y	Amplitude	Peak Speed	Peak Speed At	Average Speed	Peak Accel.	Peak Decel.	Average Accel.

Table Header for Blinks:
Event Type	Trial	Number	Start	End	Duration

Table Header for User Events:
Event Type	Trial	Number	Start	Description

UserEvent	1	1	5582582787	# Message: void.jpg
Fixation L	1	1	5582601100	5582942807	341707	1275.69	440.48	5	3	-1	14.72	14.72
Fixation R	1	1	5582601100	5582942807	341707	1275.69	440.48	5	3	-1	14.24	14.24
Saccade L	1	1	5582942807	5583013084	70277	1278.61	442.11	934.43	563.88	6.63	368.82	1.00	94.35	9148.38	-9054.45	6099.90
Saccade R	1	1	5582942807	5583013084	70277	1278.61	442.11	934.43	563.88	6.63	368.82	1.00	94.35	9148.38	-9054.45	6099.90
Fixation L	1	2	5583013084	5583715056	701972	952.85	568.05	37	17	-1	13.94	13.94
Fixation R	1	2	5583013084	5583695049	681965	952.24	567.62	25	7	-1	13.64	13.64
Blink R	1	1	5583695049	5583794533	99484
Saccade L	1	2	5583715056	5583834278	119222	971.76	581.42	1011.23	482.35	7.21	146.61	0.33	60.48	3137.84	-3273.03	1834.89
Saccade R	1	2	5583794533	5583834278	39745	1033.93	579.61	1011.23	482.35	1.94	109.21	0.50	48.72	1637.20	-1262.50	777.57
Blink L	1	1	5583834278	5584129995	295717
Blink R	1	2	5583834278	5584129995	295717
Fixation L	1	3	5584129995	5584510622	380627	1086.91	479.33	76	20	-1	15.33	15.33
Fixation R	1	3	5584129995	5584510622	380627	1086.91	479.33	76	20	-1	14.31	14.31
Saccade L	1	3	5584510622	5584590114	79492	1141.61	486.33	1160.01	499.52	0.76	25.25	1.00	9.60	81.58	-388.09	130.47
Saccade R	1	3	5584510622	5584590114	79492	1141.61	486.33	1160.01	499.52	0.76	25.25	1.00	9.60	81.58	-388.09	130.47
