[BeGaze]
Converted from:	C:\Documents and Settings\iViewX\Desktop\EXPERIMENTATIONS\Experiments\results\finaleart\S9H29221-finaleart-1.idf
Date:	27.03.2019 16:04:11
Version:	BeGaze 2.5.77
Sample Rate:	50
Subject:	S9H29221
Description:	steven

Table Header for Fixations:
Event Type	Trial	Number	Start	End	Duration	Location X	Location Y	Dispersion X	Dispersion Y	Plane	Avg. Pupil Size X	Avg. Pupil Size Y

Table Header for Saccades:
Event Type	Trial	Number	Start	End	Duration	Start Loc.X	Start Loc.Y	End Loc.X	End Loc.Y	Amplitude	Peak Speed	Peak Speed At	Average Speed	Peak Accel.	Peak Decel.	Average Accel.

Table Header for Blinks:
Event Type	Trial	Number	Start	End	Duration

Table Header for User Events:
Event Type	Trial	Number	Start	Description

UserEvent	1	1	6869827603	# Message: garlic-cloves-and-knife-on-the-corner-of-a-table_caillebotte_1871.jpg
Fixation L	1	1	6869837618	6870613330	775712	951.89	421.18	37	37	-1	14.50	14.50
Fixation R	1	1	6869837618	6870613330	775712	951.89	421.18	37	37	-1	14.32	14.32
Saccade L	1	1	6870613330	6870633206	19876	927.79	419.35	948.82	481.05	0.66	65.94	1.00	33.11	1582.51	-1368.59	1490.76
Saccade R	1	1	6870613330	6870633206	19876	927.79	419.35	948.82	481.05	0.66	65.94	1.00	33.11	1582.51	-1368.59	1490.76
Fixation L	1	2	6870633206	6870815120	181914	971.77	526.78	32	64	-1	14.74	14.74
Fixation R	1	2	6870633206	6870815120	181914	971.77	526.78	32	64	-1	14.53	14.53
Saccade L	1	2	6870815120	6870851957	36837	980.88	545.09	912.40	735.13	2.10	204.27	1.00	56.90	4826.84	-4761.63	3257.06
Saccade R	1	2	6870815120	6870851957	36837	980.88	545.09	912.40	735.13	2.10	204.27	1.00	56.90	4826.84	-4761.63	3257.06
Fixation L	1	3	6870851957	6871110553	258596	888.37	730.46	29	5	-1	15.11	15.11
Fixation R	1	3	6870851957	6871110553	258596	888.37	730.46	29	5	-1	15.04	15.04
Saccade L	1	3	6871110553	6871130436	19883	884.20	730.77	785.85	730.88	0.93	99.49	1.00	46.78	2457.88	-2353.74	2309.26
Saccade R	1	3	6871110553	6871130436	19883	884.20	730.77	785.85	730.88	0.93	99.49	1.00	46.78	2457.88	-2353.74	2309.26
Fixation L	1	4	6871130436	6871329411	198975	700.97	732.83	95	3	-1	14.24	14.24
Fixation R	1	4	6871130436	6871329411	198975	700.97	732.83	95	3	-1	14.54	14.54
Saccade L	1	4	6871329411	6871349288	19877	690.32	734.59	691.12	735.53	0.02	1.73	1.00	1.02	0.21	-14.84	9.02
Saccade R	1	4	6871329411	6871349288	19877	690.32	734.59	691.12	735.53	0.02	1.73	1.00	1.02	0.21	-14.84	9.02
Fixation L	1	5	6871349288	6871468530	119242	691.87	740.13	1	9	-1	13.79	13.79
Fixation R	1	5	6871349288	6871468530	119242	691.87	740.13	1	9	-1	14.17	14.17
Saccade L	1	5	6871468530	6871488539	20009	692.92	743.77	587.18	740.56	0.63	107.00	1.00	31.28	2595.32	-2352.40	1749.35
Saccade R	1	5	6871468530	6871488539	20009	692.92	743.77	587.18	740.56	0.63	107.00	1.00	31.28	2595.32	-2352.40	1749.35
Fixation L	1	6	6871488539	6871747013	258474	583.78	722.40	12	34	-1	13.39	13.39
Fixation R	1	6	6871488539	6871747013	258474	583.78	722.40	12	34	-1	14.11	14.11
Saccade L	1	6	6871747013	6871786895	39882	579.54	709.29	1022.75	691.92	3.91	227.92	0.50	97.98	5639.25	-5343.72	5304.99
Saccade R	1	6	6871747013	6871786895	39882	579.54	709.29	1022.75	691.92	3.91	227.92	0.50	97.98	5639.25	-5343.72	5304.99
Fixation L	1	7	6871786895	6872323866	536971	1056.08	670.43	47	29	-1	14.54	14.54
Fixation R	1	7	6871786895	6872323866	536971	1056.08	670.43	47	29	-1	14.55	14.55
Saccade L	1	7	6872323866	6872363623	39757	1046.71	669.86	1249.70	657.07	1.69	114.30	1.00	42.43	2852.97	-2803.44	2521.97
Saccade R	1	7	6872323866	6872363623	39757	1046.71	669.86	1249.70	657.07	1.69	114.30	1.00	42.43	2852.97	-2803.44	2521.97
Fixation L	1	8	6872363623	6872701719	338096	1246.45	634.55	43	38	-1	15.02	15.02
Fixation R	1	8	6872363623	6872701719	338096	1246.45	634.55	43	38	-1	14.12	14.12
Saccade L	1	8	6872701719	6872781340	79621	1212.94	634.88	1227.88	713.91	3.79	105.16	0.50	47.59	2017.26	-1418.25	1046.48
Saccade R	1	8	6872701719	6872781340	79621	1212.94	634.88	1227.88	713.91	3.79	105.16	0.50	47.59	2017.26	-1418.25	1046.48
Fixation L	1	9	6872781340	6873039950	258610	1216.55	660.04	15	83	-1	14.87	14.87
Fixation R	1	9	6872781340	6873039950	258610	1216.55	660.04	15	83	-1	13.35	13.35
Saccade L	1	9	6873039950	6873059837	19887	1212.63	630.38	1210.82	626.09	0.11	8.24	0.00	5.42	15.06	-156.47	74.18
Saccade R	1	9	6873039950	6873059837	19887	1212.63	630.38	1210.82	626.09	0.11	8.24	0.00	5.42	15.06	-156.47	74.18
Fixation L	1	10	6873059837	6873159194	99357	1211.33	622.69	1	8	-1	14.88	14.88
Fixation R	1	10	6873059837	6873159194	99357	1211.33	622.69	1	8	-1	13.14	13.14
Saccade L	1	10	6873159194	6873179076	19882	1210.65	621.17	1098.10	628.32	0.71	114.08	1.00	35.47	2830.18	-2635.45	2011.20
Saccade R	1	10	6873159194	6873179076	19882	1210.65	621.17	1098.10	628.32	0.71	114.08	1.00	35.47	2830.18	-2635.45	2011.20
Fixation L	1	11	6873179076	6873477433	298357	1079.77	653.61	22	37	-1	14.60	14.60
Fixation R	1	11	6873179076	6873477433	298357	1079.77	653.61	22	37	-1	13.55	13.55
Saccade L	1	11	6873477433	6873517305	39872	1080.72	666.24	865.84	710.19	2.08	149.32	1.00	52.16	3699.36	-3499.47	2476.82
Saccade R	1	11	6873477433	6873517305	39872	1080.72	666.24	865.84	710.19	2.08	149.32	1.00	52.16	3699.36	-3499.47	2476.82
Fixation L	1	12	6873517305	6873775797	258492	844.95	754.20	25	57	-1	14.42	14.42
Fixation R	1	12	6873517305	6873775797	258492	844.95	754.20	25	57	-1	13.38	13.38
Saccade L	1	12	6873775797	6873815681	39884	839.87	762.95	609.32	750.73	2.41	138.99	0.50	60.47	3401.24	0.00	1884.24
Saccade R	1	12	6873775797	6873815681	39884	839.87	762.95	609.32	750.73	2.41	138.99	0.50	60.47	3401.24	0.00	1884.24
