[BeGaze]
Converted from:	C:\Documents and Settings\iViewX\Desktop\EXPERIMENTATIONS\Experiments\results\finaleart\S9H29221-finaleart-1.idf
Date:	27.03.2019 16:02:11
Version:	BeGaze 2.5.77
Sample Rate:	50
Subject:	S9H29221
Description:	steven

Table Header for Fixations:
Event Type	Trial	Number	Start	End	Duration	Location X	Location Y	Dispersion X	Dispersion Y	Plane	Avg. Pupil Size X	Avg. Pupil Size Y

Table Header for Saccades:
Event Type	Trial	Number	Start	End	Duration	Start Loc.X	Start Loc.Y	End Loc.X	End Loc.Y	Amplitude	Peak Speed	Peak Speed At	Average Speed	Peak Accel.	Peak Decel.	Average Accel.

Table Header for Blinks:
Event Type	Trial	Number	Start	End	Duration

Table Header for User Events:
Event Type	Trial	Number	Start	Description

UserEvent	1	1	5621673399	# Message: Nature_morte_a_la_cafetiere_rouge_Vlaminck.jpg
Fixation L	1	1	5621691973	5622308564	616591	1081.22	486.93	37	49	-1	13.95	13.95
Fixation R	1	1	5621691973	5622308564	616591	1081.22	486.93	37	49	-1	13.62	13.62
Saccade L	1	1	5622308564	5622328437	19873	1052.53	468.76	1038.71	463.39	0.16	15.00	1.00	8.12	136.91	-230.30	147.23
Saccade R	1	1	5622308564	5622328437	19873	1052.53	468.76	1038.71	463.39	0.16	15.00	1.00	8.12	136.91	-230.30	147.23
Fixation L	1	2	5622328437	5622572454	244017	1023.23	450.17	41	26	-1	13.22	13.22
Fixation R	1	2	5622328437	5622572454	244017	1023.23	450.17	41	26	-1	13.17	13.17
Saccade L	1	2	5622572454	5622587058	14604	1000.11	437.01	891.12	418.91	0.53	111.75	1.00	36.41	2637.32	-2548.72	1801.09
Saccade R	1	2	5622572454	5622587058	14604	1000.11	437.01	891.12	418.91	0.53	111.75	1.00	36.41	2637.32	-2548.72	1801.09
Fixation L	1	3	5622587058	5622785926	198868	875.70	400.74	20	29	-1	10.89	10.89
Fixation R	1	3	5622587058	5622785926	198868	875.70	400.74	20	29	-1	11.22	11.22
Saccade L	1	3	5622785926	5622825787	39861	882.54	392.71	975.62	487.98	1.45	75.90	0.50	36.28	1789.89	-1504.22	1453.09
Saccade R	1	3	5622785926	5622825787	39861	882.54	392.71	975.62	487.98	1.45	75.90	0.50	36.28	1789.89	-1504.22	1453.09
Fixation L	1	4	5622825787	5623044522	218735	993.40	505.13	22	23	-1	9.76	9.76
Fixation R	1	4	5622825787	5623044522	218735	993.40	505.13	22	23	-1	10.02	10.02
Saccade L	1	4	5623044522	5623064408	19886	996.10	509.05	1014.29	603.52	0.69	97.32	1.00	34.66	2376.49	-2202.03	1826.51
Saccade R	1	4	5623044522	5623064408	19886	996.10	509.05	1014.29	603.52	0.69	97.32	1.00	34.66	2376.49	-2202.03	1826.51
Fixation L	1	5	5623064408	5623402515	338107	1030.60	642.64	39	53	-1	9.81	9.81
Fixation R	1	5	5623064408	5623402515	338107	1030.60	642.64	39	53	-1	9.76	9.76
Saccade L	1	5	5623402515	5623422385	19870	1046.30	656.79	1049.94	661.62	0.08	6.13	1.00	3.91	129.88	5.75	48.97
Saccade R	1	5	5623402515	5623422385	19870	1046.30	656.79	1049.94	661.62	0.08	6.13	1.00	3.91	129.88	5.75	48.97
Fixation L	1	6	5623422385	5623879874	457489	1075.19	682.58	37	33	-1	9.81	9.81
Fixation R	1	6	5623422385	5623879874	457489	1075.19	682.58	37	33	-1	9.72	9.72
Saccade L	1	6	5623879874	5623899730	19856	1059.51	689.10	923.82	654.27	1.03	141.70	1.00	51.81	3502.84	-3272.13	2319.34
Saccade R	1	6	5623879874	5623899730	19856	1059.51	689.10	923.82	654.27	1.03	141.70	1.00	51.81	3502.84	-3272.13	2319.34
Fixation L	1	7	5623899730	5624058860	159130	914.13	614.72	15	50	-1	9.83	9.83
Fixation R	1	7	5623899730	5624058860	159130	914.13	614.72	15	50	-1	9.70	9.70
Saccade L	1	7	5624058860	5624078846	19986	910.68	607.93	793.32	608.69	0.76	118.71	1.00	38.09	2949.32	-2770.68	2096.99
Saccade R	1	7	5624058860	5624078846	19986	910.68	607.93	793.32	608.69	0.76	118.71	1.00	38.09	2949.32	-2770.68	2096.99
Fixation L	1	8	5624078846	5624237973	159127	755.55	596.65	52	27	-1	9.85	9.85
Fixation R	1	8	5624078846	5624237973	159127	755.55	596.65	52	27	-1	9.82	9.82
Saccade L	1	8	5624237973	5624257852	19879	740.85	581.66	720.80	575.29	0.44	53.33	1.00	22.11	1077.85	-242.82	587.36
Saccade R	1	8	5624237973	5624257852	19879	740.85	581.66	720.80	575.29	0.44	53.33	1.00	22.11	1077.85	-242.82	587.36
Fixation L	1	9	5624257852	5624436841	178989	704.13	522.47	29	65	-1	9.50	9.50
Fixation R	1	9	5624257852	5624436841	178989	704.13	522.47	29	65	-1	9.73	9.73
Saccade L	1	9	5624436841	5624476582	39741	690.89	515.51	926.80	420.18	2.25	131.89	0.50	56.72	3247.82	-3064.76	3038.53
Saccade R	1	9	5624436841	5624476582	39741	690.89	515.51	926.80	420.18	2.25	131.89	0.50	56.72	3247.82	-3064.76	3038.53
Fixation L	1	10	5624476582	5624814691	338109	920.76	398.53	21	32	-1	8.65	8.65
Fixation R	1	10	5624476582	5624814691	338109	920.76	398.53	21	32	-1	9.12	9.12
Saccade L	1	10	5624814691	5624854561	39870	935.06	420.58	1391.79	559.18	4.37	297.68	0.50	109.63	7286.67	-6827.31	5737.73
Saccade R	1	10	5624814691	5624854561	39870	935.06	420.58	1391.79	559.18	4.37	297.68	0.50	109.63	7286.67	-6827.31	5737.73
Fixation L	1	11	5624854561	5625292038	437477	1379.48	577.97	25	27	-1	9.02	9.02
Fixation R	1	11	5624854561	5625292038	437477	1379.48	577.97	25	27	-1	8.98	8.98
Saccade L	1	11	5625292038	5625331941	39903	1365.97	558.86	1170.01	294.20	2.92	180.55	0.50	73.25	4477.52	-4492.67	4095.40
Saccade R	1	11	5625292038	5625331941	39903	1365.97	558.86	1170.01	294.20	2.92	180.55	0.50	73.25	4477.52	-4492.67	4095.40
Fixation L	1	12	5625331941	5625510913	178972	1176.47	289.79	15	7	-1	9.45	9.45
Fixation R	1	12	5625331941	5625510913	178972	1176.47	289.79	15	7	-1	9.45	9.45
Saccade L	1	12	5625510913	5625550687	39774	1175.15	289.00	945.65	165.98	2.29	162.14	1.00	57.56	3793.08	-3934.74	3128.11
Saccade R	1	12	5625510913	5625550687	39774	1175.15	289.00	945.65	165.98	2.29	162.14	1.00	57.56	3793.08	-3934.74	3128.11
Fixation L	1	13	5625550687	5625709797	159110	943.16	169.27	10	31	-1	8.79	8.79
Fixation R	1	13	5625550687	5625709797	159110	943.16	169.27	10	31	-1	9.04	9.04
