[BeGaze]
Converted from:	C:\Documents and Settings\iViewX\Desktop\EXPERIMENTATIONS\Experiments\results\finaleart\S9H29221-finaleart-1.idf
Date:	27.03.2019 16:01:58
Version:	BeGaze 2.5.77
Sample Rate:	50
Subject:	S9H29221
Description:	steven

Table Header for Fixations:
Event Type	Trial	Number	Start	End	Duration	Location X	Location Y	Dispersion X	Dispersion Y	Plane	Avg. Pupil Size X	Avg. Pupil Size Y

Table Header for Saccades:
Event Type	Trial	Number	Start	End	Duration	Start Loc.X	Start Loc.Y	End Loc.X	End Loc.Y	Amplitude	Peak Speed	Peak Speed At	Average Speed	Peak Accel.	Peak Decel.	Average Accel.

Table Header for Blinks:
Event Type	Trial	Number	Start	End	Duration

Table Header for User Events:
Event Type	Trial	Number	Start	Description

UserEvent	1	1	5547693385	# Message: cows_at_a_pond_Bilders_1856.jpg
Fixation L	1	1	5547694139	5548390240	696101	1244.33	437.43	62	14	-1	11.47	11.47
Fixation R	1	1	5547694139	5548390240	696101	1244.33	437.43	62	14	-1	11.33	11.33
Saccade L	1	1	5548390240	5548430111	39871	1254.83	434.21	1137.86	482.27	1.60	87.58	0.50	40.13	2069.33	-1544.28	1208.20
Saccade R	1	1	5548390240	5548430111	39871	1254.83	434.21	1137.86	482.27	1.60	87.58	0.50	40.13	2069.33	-1544.28	1208.20
Fixation L	1	2	5548430111	5548677173	247062	1122.06	509.70	26	38	-1	11.69	11.69
Fixation R	1	2	5548430111	5548677173	247062	1122.06	509.70	26	38	-1	11.58	11.58
Saccade L	1	2	5548677173	5548708474	31301	1111.11	520.58	849.03	621.38	2.35	283.83	1.00	75.07	6947.31	-6667.71	4551.50
Saccade R	1	2	5548677173	5548708474	31301	1111.11	520.58	849.03	621.38	2.35	283.83	1.00	75.07	6947.31	-6667.71	4551.50
Fixation L	1	3	5548708474	5549165952	457478	828.72	626.34	46	40	-1	11.78	11.78
Fixation R	1	3	5548708474	5549165952	457478	828.72	626.34	46	40	-1	11.62	11.62
Saccade L	1	3	5549165952	5549205817	39865	802.83	649.49	987.45	659.99	1.71	121.39	0.50	42.81	2975.37	-2495.78	2126.56
Saccade R	1	3	5549165952	5549205817	39865	802.83	649.49	987.45	659.99	1.71	121.39	0.50	42.81	2975.37	-2495.78	2126.56
Fixation L	1	4	5549205817	5549603553	397736	1019.79	667.64	40	12	-1	11.44	11.44
Fixation R	1	4	5549205817	5549603553	397736	1019.79	667.64	40	12	-1	11.28	11.28
Saccade L	1	4	5549603553	5549643294	39741	1020.72	671.71	750.42	649.72	2.36	158.09	0.50	59.36	3913.20	-3632.66	3251.60
Saccade R	1	4	5549603553	5549643294	39741	1020.72	671.71	750.42	649.72	2.36	158.09	0.50	59.36	3913.20	-3632.66	3251.60
Fixation L	1	5	5549643294	5549782532	139238	760.34	631.72	18	27	-1	11.20	11.20
Fixation R	1	5	5549643294	5549782532	139238	760.34	631.72	18	27	-1	11.07	11.07
Saccade L	1	5	5549782532	5549822414	39882	769.14	621.76	1053.84	707.66	2.77	235.59	1.00	69.43	5768.62	-5621.70	3455.38
Saccade R	1	5	5549782532	5549822414	39882	769.14	621.76	1053.84	707.66	2.77	235.59	1.00	69.43	5768.62	-5621.70	3455.38
Fixation L	1	6	5549822414	5550080892	258478	1098.29	715.81	60	11	-1	11.54	11.54
Fixation R	1	6	5549822414	5550080892	258478	1098.29	715.81	60	11	-1	11.51	11.51
Saccade L	1	6	5550080892	5550100791	19899	1113.97	719.06	1182.44	707.22	0.46	70.30	1.00	23.29	1749.53	-1516.93	1123.20
Saccade R	1	6	5550080892	5550100791	19899	1113.97	719.06	1182.44	707.22	0.46	70.30	1.00	23.29	1749.53	-1516.93	1123.20
Fixation L	1	7	5550100791	5550458875	358084	1196.49	677.93	30	61	-1	11.89	11.89
Fixation R	1	7	5550100791	5550458875	358084	1196.49	677.93	30	61	-1	11.97	11.97
Saccade L	1	7	5550458875	5550478765	19890	1179.22	646.63	1170.53	649.10	0.14	10.41	1.00	6.95	-31.82	-128.32	93.76
Saccade R	1	7	5550458875	5550478765	19890	1179.22	646.63	1170.53	649.10	0.14	10.41	1.00	6.95	-31.82	-128.32	93.76
Fixation L	1	8	5550478765	5550697488	218723	1163.27	653.06	10	17	-1	12.35	12.35
Fixation R	1	8	5550478765	5550697488	218723	1163.27	653.06	10	17	-1	12.44	12.44
Saccade L	1	8	5550697488	5550737240	39752	1161.35	663.21	1167.43	437.52	1.92	119.30	1.00	48.36	2954.21	-2837.34	2734.54
Saccade R	1	8	5550697488	5550737240	39752	1161.35	663.21	1167.43	437.52	1.92	119.30	1.00	48.36	2954.21	-2837.34	2734.54
Fixation L	1	9	5550737240	5550916363	179123	1175.86	437.82	13	14	-1	13.06	13.06
Fixation R	1	9	5550737240	5550916363	179123	1175.86	437.82	13	14	-1	13.19	13.19
Saccade L	1	9	5550916363	5550956110	39747	1181.00	435.73	796.09	491.50	3.49	199.41	1.00	87.88	4904.77	-4542.09	4567.41
Saccade R	1	9	5550916363	5550956110	39747	1181.00	435.73	796.09	491.50	3.49	199.41	1.00	87.88	4904.77	-4542.09	4567.41
Fixation L	1	10	5550956110	5551154980	198870	760.82	533.30	43	53	-1	13.62	13.62
Fixation R	1	10	5550956110	5551154980	198870	760.82	533.30	43	53	-1	13.84	13.84
Saccade L	1	10	5551154980	5551174859	19879	754.71	543.18	781.05	549.61	0.27	27.42	1.00	13.63	657.92	-211.71	477.29
Saccade R	1	10	5551154980	5551174859	19879	754.71	543.18	781.05	549.61	0.27	27.42	1.00	13.63	657.92	-211.71	477.29
Fixation L	1	11	5551174859	5551692065	517206	813.78	557.85	41	22	-1	13.87	13.87
Fixation R	1	11	5551174859	5551692065	517206	813.78	557.85	41	22	-1	14.36	14.36
