[BeGaze]
Converted from:	C:\Documents and Settings\iViewX\Desktop\EXPERIMENTATIONS\Experiments\results\finaleart\S9H29221-finaleart-1.idf
Date:	27.03.2019 16:02:44
Version:	BeGaze 2.5.77
Sample Rate:	50
Subject:	S9H29221
Description:	steven

Table Header for Fixations:
Event Type	Trial	Number	Start	End	Duration	Location X	Location Y	Dispersion X	Dispersion Y	Plane	Avg. Pupil Size X	Avg. Pupil Size Y

Table Header for Saccades:
Event Type	Trial	Number	Start	End	Duration	Start Loc.X	Start Loc.Y	End Loc.X	End Loc.Y	Amplitude	Peak Speed	Peak Speed At	Average Speed	Peak Accel.	Peak Decel.	Average Accel.

Table Header for Blinks:
Event Type	Trial	Number	Start	End	Duration

Table Header for User Events:
Event Type	Trial	Number	Start	Description

UserEvent	1	1	5998410841	# Message: void.jpg
Fixation L	1	1	5998418315	5998619266	200951	1170.53	589.54	3	6	-1	12.20	12.20
Fixation R	1	1	5998418315	5998619266	200951	1170.53	589.54	3	6	-1	11.92	11.92
Saccade L	1	1	5998619266	5998657061	37795	1168.78	591.20	712.82	318.99	5.19	535.64	1.00	137.33	13314.63	-13216.31	8894.48
Saccade R	1	1	5998619266	5998657061	37795	1168.78	591.20	712.82	318.99	5.19	535.64	1.00	137.33	13314.63	-13216.31	8894.48
Fixation L	1	2	5998657061	5998895656	238595	730.40	329.02	29	17	-1	11.28	11.28
Fixation R	1	2	5998657061	5998895656	238595	730.40	329.02	29	17	-1	11.39	11.39
Saccade L	1	2	5998895656	5998955405	59749	737.88	336.11	805.49	414.18	1.88	104.46	1.00	31.52	2563.81	-2192.75	1655.50
Saccade R	1	2	5998895656	5998955405	59749	737.88	336.11	805.49	414.18	1.88	104.46	1.00	31.52	2563.81	-2192.75	1655.50
Fixation L	1	3	5998955405	5999766497	811092	811.08	419.20	22	41	-1	11.23	11.23
Fixation R	1	3	5998955405	5999766497	811092	811.08	419.20	22	41	-1	11.58	11.58
Saccade L	1	3	5999766497	5999810627	44130	823.91	411.75	1087.36	405.78	3.95	290.05	0.55	89.57	7175.26	-6989.68	5235.67
Saccade R	1	3	5999766497	5999810627	44130	823.91	411.75	1087.36	405.78	3.95	290.05	0.55	89.57	7175.26	-6989.68	5235.67
Fixation L	1	4	5999810627	6000228338	417711	1096.57	432.63	12	37	-1	13.13	13.13
Fixation R	1	4	5999810627	6000228338	417711	1096.57	432.63	12	37	-1	12.88	12.88
Saccade L	1	4	6000228338	6000407337	178999	1095.72	438.55	1084.29	313.79	47.90	1275.88	0.67	267.58	31896.90	-31595.36	14408.83
Saccade R	1	4	6000228338	6000407337	178999	1095.72	438.55	1084.29	313.79	47.90	1275.88	0.67	267.58	31896.90	-31595.36	14408.83
