[BeGaze]
Converted from:	C:\Documents and Settings\iViewX\Desktop\EXPERIMENTATIONS\Experiments\results\finaleart\S9H29221-finaleart-1.idf
Date:	27.03.2019 16:01:52
Version:	BeGaze 2.5.77
Sample Rate:	50
Subject:	S9H29221
Description:	steven

Table Header for Fixations:
Event Type	Trial	Number	Start	End	Duration	Location X	Location Y	Dispersion X	Dispersion Y	Plane	Avg. Pupil Size X	Avg. Pupil Size Y

Table Header for Saccades:
Event Type	Trial	Number	Start	End	Duration	Start Loc.X	Start Loc.Y	End Loc.X	End Loc.Y	Amplitude	Peak Speed	Peak Speed At	Average Speed	Peak Accel.	Peak Decel.	Average Accel.

Table Header for Blinks:
Event Type	Trial	Number	Start	End	Duration

Table Header for User Events:
Event Type	Trial	Number	Start	Description

UserEvent	1	1	5510927042	# Message: Nature-morte-Maurice-de-Vlaminck.jpg
Fixation L	1	1	5510937408	5511144152	206744	1250.44	973.06	40	56	-1	12.11	12.11
Fixation R	1	1	5510937408	5511144152	206744	1250.44	973.06	40	56	-1	11.90	11.90
Saccade L	1	1	5511144152	5511355007	210855	1261.73	941.82	1261.93	677.45	19.11	624.37	1.00	90.65	37029.10	-2234.87	5509.02
Saccade R	1	1	5511144152	5511355007	210855	1261.73	941.82	1261.93	677.45	19.11	624.37	1.00	90.65	37029.10	-2234.87	5509.02
Blink L	1	1	5511355007	5511613620	258613
Blink R	1	1	5511355007	5511613620	258613
Fixation L	1	2	5511613620	5511991603	377983	1119.70	533.25	48	48	-1	13.64	13.64
Fixation R	1	2	5511613620	5511991603	377983	1119.70	533.25	48	48	-1	12.40	12.40
Saccade L	1	2	5511991603	5512051217	59614	1100.41	560.09	833.39	578.09	3.10	171.78	1.00	51.94	4143.68	-4153.11	2604.55
Saccade R	1	2	5511991603	5512051217	59614	1100.41	560.09	833.39	578.09	3.10	171.78	1.00	51.94	4143.68	-4153.11	2604.55
Fixation L	1	3	5512051217	5512608073	556856	820.85	592.22	19	28	-1	12.74	12.74
Fixation R	1	3	5512051217	5512608073	556856	820.85	592.22	19	28	-1	12.01	12.01
Saccade L	1	3	5512608073	5512647936	39863	833.84	574.20	1141.00	474.04	2.89	170.35	0.50	72.49	4189.16	-4038.06	4022.52
Saccade R	1	3	5512608073	5512647936	39863	833.84	574.20	1141.00	474.04	2.89	170.35	0.50	72.49	4189.16	-4038.06	4022.52
Fixation L	1	4	5512647936	5513105432	457496	1138.33	468.46	7	18	-1	13.03	13.03
Fixation R	1	4	5512647936	5513105432	457496	1138.33	468.46	7	18	-1	12.47	12.47
Saccade L	1	4	5513105432	5513125299	19867	1142.08	470.16	1150.55	544.79	0.58	75.97	1.00	29.32	1882.42	-1745.55	1529.44
Saccade R	1	4	5513105432	5513125299	19867	1142.08	470.16	1150.55	544.79	0.58	75.97	1.00	29.32	1882.42	-1745.55	1529.44
Fixation L	1	5	5513125299	5513642390	517091	1172.57	592.40	30	67	-1	14.61	14.61
Fixation R	1	5	5513125299	5513642390	517091	1172.57	592.40	30	67	-1	13.74	13.74
Saccade L	1	5	5513642390	5513682147	39757	1176.87	608.39	1153.74	366.00	2.17	134.43	1.00	54.52	3315.34	-3013.77	2834.50
Saccade R	1	5	5513642390	5513682147	39757	1176.87	608.39	1153.74	366.00	2.17	134.43	1.00	54.52	3315.34	-3013.77	2834.50
Fixation L	1	6	5513682147	5514119755	437608	1130.58	343.97	52	33	-1	15.75	15.75
Fixation R	1	6	5513682147	5514119755	437608	1130.58	343.97	52	33	-1	14.35	14.35
Saccade L	1	6	5514119755	5514139613	19858	1100.93	352.45	918.20	441.35	1.27	205.48	1.00	64.05	5126.54	-4863.81	3499.83
Saccade R	1	6	5514119755	5514139613	19858	1100.93	352.45	918.20	441.35	1.27	205.48	1.00	64.05	5126.54	-4863.81	3499.83
Fixation L	1	7	5514139613	5514358481	218868	893.80	443.16	31	9	-1	16.67	16.67
Fixation R	1	7	5514139613	5514358481	218868	893.80	443.16	31	9	-1	15.04	15.04
Saccade L	1	7	5514358481	5514398243	39762	889.53	441.42	759.91	675.71	2.31	208.29	1.00	58.22	5157.91	-5082.06	3277.63
Saccade R	1	7	5514358481	5514398243	39762	889.53	441.42	759.91	675.71	2.31	208.29	1.00	58.22	5157.91	-5082.06	3277.63
Fixation L	1	8	5514398243	5514895461	497218	752.36	667.86	19	50	-1	16.99	16.99
Fixation R	1	8	5514398243	5514895461	497218	752.36	667.86	19	50	-1	15.56	15.56
Saccade L	1	8	5514895461	5514915330	19869	740.67	708.30	691.25	724.23	0.68	52.52	1.00	34.23	1169.01	0.00	584.51
Saccade R	1	8	5514895461	5514915330	19869	740.67	708.30	691.25	724.23	0.68	52.52	1.00	34.23	1169.01	0.00	584.51
