[BeGaze]
Converted from:	C:\Documents and Settings\iViewX\Desktop\EXPERIMENTATIONS\Experiments\results\finaleart\S9H29221-finaleart-1.idf
Date:	27.03.2019 16:03:56
Version:	BeGaze 2.5.77
Sample Rate:	50
Subject:	S9H29221
Description:	steven

Table Header for Fixations:
Event Type	Trial	Number	Start	End	Duration	Location X	Location Y	Dispersion X	Dispersion Y	Plane	Avg. Pupil Size X	Avg. Pupil Size Y

Table Header for Saccades:
Event Type	Trial	Number	Start	End	Duration	Start Loc.X	Start Loc.Y	End Loc.X	End Loc.Y	Amplitude	Peak Speed	Peak Speed At	Average Speed	Peak Accel.	Peak Decel.	Average Accel.

Table Header for Blinks:
Event Type	Trial	Number	Start	End	Duration

Table Header for User Events:
Event Type	Trial	Number	Start	Description

UserEvent	1	1	6680456850	# Message: void.jpg
Fixation L	1	1	6680461048	6680544918	83870	275.40	360.66	25	22	-1	10.30	10.30
Fixation R	1	1	6680461048	6680544918	83870	275.40	360.66	25	22	-1	10.07	10.07
Saccade L	1	1	6680544918	6680620171	75253	283.07	374.18	717.57	618.87	8.11	358.98	0.47	107.83	8462.23	-8937.46	6037.30
Saccade R	1	1	6680544918	6680620171	75253	283.07	374.18	717.57	618.87	8.11	358.98	0.47	107.83	8462.23	-8937.46	6037.30
Fixation L	1	2	6680620171	6680858785	238614	719.27	602.97	11	33	-1	10.27	10.27
Fixation R	1	2	6680620171	6680858785	238614	719.27	602.97	11	33	-1	10.41	10.41
Saccade L	1	2	6680858785	6680938391	79606	727.01	594.85	961.98	583.75	3.79	120.61	0.75	47.59	2885.90	-2294.03	1543.69
Saccade R	1	2	6680858785	6680938391	79606	727.01	594.85	961.98	583.75	3.79	120.61	0.75	47.59	2885.90	-2294.03	1543.69
Fixation L	1	3	6680938391	6681117380	178989	1005.41	567.32	60	38	-1	10.46	10.46
Fixation R	1	3	6680938391	6681117380	178989	1005.41	567.32	60	38	-1	10.25	10.25
Saccade L	1	3	6681117380	6681296375	178995	1022.54	548.28	1101.89	322.38	17.24	376.45	0.78	96.32	5779.41	-7276.05	2815.10
Saccade R	1	3	6681117380	6681137262	19882	1022.54	548.28	1030.59	538.84	0.23	21.81	1.00	11.74	1428.53	201.23	657.37
Blink R	1	1	6681137262	6681336184	198922
Fixation L	1	4	6681296375	6681415771	119396	1131.67	295.44	62	37	-1	9.24	9.24
Fixation R	1	4	6681336184	6681475367	139183	1164.63	288.53	77	6	-1	10.30	10.30
Saccade L	1	4	6681415771	6681435651	19880	1164.37	285.00	1179.05	289.91	0.29	16.93	0.00	14.41	171.88	-210.10	132.97
Fixation L	1	5	6681435651	6681535008	99357	1203.54	292.10	39	12	-1	9.13	9.13
Saccade R	1	4	6681475367	6681535008	59641	1201.71	290.05	1212.75	299.93	5.07	455.61	1.00	84.94	28381.00	-338.22	7992.03
Blink L	1	1	6681535008	6681773725	238717
Blink R	1	2	6681535008	6681773725	238717
Fixation L	1	6	6681773725	6682091956	318231	1142.70	290.26	28	31	-1	10.53	10.53
Fixation R	1	5	6681773725	6682091956	318231	1142.70	290.26	28	31	-1	10.25	10.25
Blink L	1	2	6682091956	6682430071	338115
Blink R	1	3	6682091956	6682430071	338115
Saccade L	1	5	6682430071	6682509694	79623	965.68	279.14	952.29	371.06	3.20	83.93	0.75	40.14	1400.03	0.00	465.98
Saccade R	1	5	6682430071	6682509694	79623	965.68	279.14	952.29	371.06	3.20	83.93	0.75	40.14	1400.03	0.00	465.98
