[BeGaze]
Converted from:	C:\Documents and Settings\iViewX\Desktop\EXPERIMENTATIONS\Experiments\results\finaleart\S9H29221-finaleart-1.idf
Date:	27.03.2019 16:02:08
Version:	BeGaze 2.5.77
Sample Rate:	50
Subject:	S9H29221
Description:	steven

Table Header for Fixations:
Event Type	Trial	Number	Start	End	Duration	Location X	Location Y	Dispersion X	Dispersion Y	Plane	Avg. Pupil Size X	Avg. Pupil Size Y

Table Header for Saccades:
Event Type	Trial	Number	Start	End	Duration	Start Loc.X	Start Loc.Y	End Loc.X	End Loc.Y	Amplitude	Peak Speed	Peak Speed At	Average Speed	Peak Accel.	Peak Decel.	Average Accel.

Table Header for Blinks:
Event Type	Trial	Number	Start	End	Duration

Table Header for User Events:
Event Type	Trial	Number	Start	Description

UserEvent	1	1	5603088557	# Message: still-life-with-pumpkin-plums-cherries-figs-and-jug-Ribot-1860.jpg
Saccade L	1	1	5603107738	5603326616	218878	1209.30	552.08	1258.13	524.88	8.82	215.83	1.00	40.32	37766.57	-1249.21	5066.19
Saccade R	1	1	5603107738	5603326616	218878	1209.30	552.08	1258.13	524.88	8.82	215.83	1.00	40.32	37766.57	-1249.21	5066.19
Blink L	1	1	5603326616	5603624860	298244
Blink R	1	1	5603326616	5603624860	298244
Fixation L	1	1	5603624860	5603764076	139216	1284.47	443.71	4	31	-1	12.85	12.85
Fixation R	1	1	5603624860	5603764076	139216	1284.47	443.71	4	31	-1	12.86	12.86
Saccade L	1	2	5603764076	5603823831	59755	1281.28	455.51	867.88	514.78	4.37	164.60	0.67	73.17	4046.01	-3879.19	3073.59
Saccade R	1	2	5603764076	5603823831	59755	1281.28	455.51	867.88	514.78	4.37	164.60	0.67	73.17	4046.01	-3879.19	3073.59
Fixation L	1	2	5603823831	5603945903	122072	861.38	523.35	10	24	-1	12.52	12.52
Fixation R	1	2	5603823831	5603945903	122072	861.38	523.35	10	24	-1	12.45	12.45
Saccade L	1	3	5603945903	5603989697	43794	858.84	538.72	758.55	526.98	1.59	102.13	1.00	36.40	2252.20	-2394.49	1690.45
Saccade R	1	3	5603945903	5603989697	43794	858.84	538.72	758.55	526.98	1.59	102.13	1.00	36.40	2252.20	-2394.49	1690.45
Fixation L	1	3	5603989697	5604460301	470604	713.82	510.42	66	31	-1	12.02	12.02
Fixation R	1	3	5603989697	5604460301	470604	713.82	510.42	66	31	-1	12.45	12.45
Saccade L	1	4	5604460301	5604519910	59609	692.64	504.03	1125.55	621.04	4.83	250.61	0.67	80.96	6126.33	-6066.96	3878.47
Saccade R	1	4	5604460301	5604519910	59609	692.64	504.03	1125.55	621.04	4.83	250.61	0.67	80.96	6126.33	-6066.96	3878.47
Fixation L	1	4	5604519910	5604878015	358105	1135.42	614.53	22	46	-1	12.24	12.24
Fixation R	1	4	5604519910	5604878015	358105	1135.42	614.53	22	46	-1	12.37	12.37
Saccade L	1	5	5604878015	5604937650	59635	1147.70	591.37	728.54	493.93	4.47	203.82	0.67	74.90	5006.58	-4946.97	3270.20
Saccade R	1	5	5604878015	5604937650	59635	1147.70	591.37	728.54	493.93	4.47	203.82	0.67	74.90	5006.58	-4946.97	3270.20
Fixation L	1	5	5604937650	5605275756	338106	725.87	514.32	4	26	-1	11.80	11.80
Fixation R	1	5	5604937650	5605275756	338106	725.87	514.32	4	26	-1	11.60	11.60
Saccade L	1	6	5605275756	5605315503	39747	726.15	520.92	524.14	815.17	2.94	195.89	0.50	73.90	4890.47	-4716.88	4427.69
Saccade R	1	6	5605275756	5605315503	39747	726.15	520.92	524.14	815.17	2.94	195.89	0.50	73.90	4890.47	-4716.88	4427.69
Fixation L	1	6	5605315503	5605594003	278500	540.91	825.69	24	20	-1	12.12	12.12
Fixation R	1	6	5605315503	5605594003	278500	540.91	825.69	24	20	-1	12.30	12.30
Saccade L	1	7	5605594003	5605633736	39733	548.93	814.85	412.09	954.36	1.80	121.48	0.50	45.35	3017.71	-2733.89	2370.62
Saccade R	1	7	5605594003	5605633736	39733	548.93	814.85	412.09	954.36	1.80	121.48	0.50	45.35	3017.71	-2733.89	2370.62
Fixation L	1	7	5605633736	5605912223	278487	394.97	973.67	26	25	-1	12.39	12.39
Fixation R	1	7	5605633736	5605912223	278487	394.97	973.67	26	25	-1	13.29	13.29
Saccade L	1	8	5605912223	5605951974	39751	385.42	978.05	664.63	741.31	3.30	203.05	1.00	82.97	4949.23	-4741.45	4273.57
Saccade R	1	8	5605912223	5605951974	39751	385.42	978.05	664.63	741.31	3.30	203.05	1.00	82.97	4949.23	-4741.45	4273.57
Fixation L	1	8	5605951974	5606310081	358107	625.66	744.48	45	16	-1	12.47	12.47
Fixation R	1	8	5605951974	5606310081	358107	625.66	744.48	45	16	-1	13.36	13.36
Saccade L	1	9	5606310081	5606349846	39765	626.58	754.76	398.63	938.16	2.72	165.37	1.00	68.28	3985.25	-4047.45	3795.45
Saccade R	1	9	5606310081	5606349846	39765	626.58	754.76	398.63	938.16	2.72	165.37	1.00	68.28	3985.25	-4047.45	3795.45
Fixation L	1	9	5606349846	5606886803	536957	390.60	916.73	24	31	-1	13.60	13.60
Fixation R	1	9	5606349846	5606886803	536957	390.60	916.73	24	31	-1	14.58	14.58
Saccade L	1	10	5606886803	5606947092	60289	405.49	909.29	862.23	792.38	5.10	242.97	0.66	84.56	6031.53	-5632.91	3635.65
Saccade R	1	10	5606886803	5606947092	60289	405.49	909.29	862.23	792.38	5.10	242.97	0.66	84.56	6031.53	-5632.91	3635.65
Fixation L	1	10	5606947092	5607125538	178446	849.94	769.38	15	34	-1	14.82	14.82
Fixation R	1	10	5606947092	5607125538	178446	849.94	769.38	15	34	-1	15.68	15.68
