[BeGaze]
Converted from:	C:\Documents and Settings\iViewX\Desktop\EXPERIMENTATIONS\Experiments\results\finaleart\S9H29221-finaleart-1.idf
Date:	27.03.2019 16:02:29
Version:	BeGaze 2.5.77
Sample Rate:	50
Subject:	S9H29221
Description:	steven

Table Header for Fixations:
Event Type	Trial	Number	Start	End	Duration	Location X	Location Y	Dispersion X	Dispersion Y	Plane	Avg. Pupil Size X	Avg. Pupil Size Y

Table Header for Saccades:
Event Type	Trial	Number	Start	End	Duration	Start Loc.X	Start Loc.Y	End Loc.X	End Loc.Y	Amplitude	Peak Speed	Peak Speed At	Average Speed	Peak Accel.	Peak Decel.	Average Accel.

Table Header for Blinks:
Event Type	Trial	Number	Start	End	Duration

Table Header for User Events:
Event Type	Trial	Number	Start	Description

UserEvent	1	1	5813832160	# Message: bowl_of_fruits_Fantin-Latour_1857.jpg
Fixation L	1	1	5813847639	5814603479	755840	1104.94	419.36	76	19	-1	14.02	14.02
Fixation R	1	1	5813847639	5814603479	755840	1104.94	419.36	76	19	-1	13.13	13.13
Saccade L	1	1	5814603479	5814847451	243972	1151.89	410.46	836.52	413.92	9.40	193.74	1.00	38.51	4801.92	-4752.88	2005.69
Saccade R	1	1	5814603479	5814847451	243972	1151.89	410.46	836.52	413.92	9.40	193.74	1.00	38.51	4801.92	-4752.88	2005.69
Fixation L	1	2	5814847451	5815160446	312995	832.67	405.35	21	20	-1	15.36	15.36
Fixation R	1	2	5814847451	5815160446	312995	832.67	405.35	21	20	-1	14.10	14.10
Saccade L	1	2	5815160446	5815200194	39748	819.62	395.31	571.21	348.57	2.29	167.33	0.50	57.67	4154.31	-3740.38	3076.70
Saccade R	1	2	5815160446	5815200194	39748	819.62	395.31	571.21	348.57	2.29	167.33	0.50	57.67	4154.31	-3740.38	3076.70
Fixation L	1	3	5815200194	5815637799	437605	571.82	313.09	14	50	-1	14.99	14.99
Fixation R	1	3	5815200194	5815637799	437605	571.82	313.09	14	50	-1	14.13	14.13
Saccade L	1	3	5815637799	5815677552	39753	581.32	326.06	850.62	334.03	2.30	160.78	0.50	57.97	3970.69	-3985.81	3245.06
Saccade R	1	3	5815637799	5815677552	39753	581.32	326.06	850.62	334.03	2.30	160.78	0.50	57.97	3970.69	-3985.81	3245.06
Fixation L	1	4	5815677552	5815896287	218735	850.24	347.21	4	21	-1	14.92	14.92
Fixation R	1	4	5815677552	5815896287	218735	850.24	347.21	4	21	-1	14.55	14.55
Saccade L	1	4	5815896287	5815956030	59743	852.22	355.35	1435.94	439.52	6.17	266.07	0.67	103.24	6632.56	-6295.50	4271.52
Saccade R	1	4	5815896287	5815956030	59743	852.22	355.35	1435.94	439.52	6.17	266.07	0.67	103.24	6632.56	-6295.50	4271.52
Fixation L	1	5	5815956030	5816353774	397744	1432.25	462.02	23	74	-1	15.36	15.36
Fixation R	1	5	5815956030	5816353774	397744	1432.25	462.02	23	74	-1	14.64	14.64
Saccade L	1	5	5816353774	5816393637	39863	1420.43	514.52	1202.88	939.04	4.74	359.34	0.50	118.87	8900.93	-8186.70	5357.87
Saccade R	1	5	5816353774	5816393637	39863	1420.43	514.52	1202.88	939.04	4.74	359.34	0.50	118.87	8900.93	-8186.70	5357.87
Fixation L	1	6	5816393637	5816652122	258485	1162.17	948.61	56	17	-1	16.05	16.05
Fixation R	1	6	5816393637	5816652122	258485	1162.17	948.61	56	17	-1	14.69	14.69
Saccade L	1	6	5816652122	5816672009	19887	1146.80	956.71	1093.50	944.11	0.52	55.41	1.00	26.26	1360.33	-1043.87	1004.05
Saccade R	1	6	5816652122	5816672009	19887	1146.80	956.71	1093.50	944.11	0.52	55.41	1.00	26.26	1360.33	-1043.87	1004.05
Fixation L	1	7	5816672009	5816811247	139238	1071.36	902.75	29	57	-1	15.83	15.83
Fixation R	1	7	5816672009	5816811247	139238	1071.36	902.75	29	57	-1	14.94	14.94
Saccade L	1	7	5816811247	5816890873	79626	1064.11	886.50	324.20	815.82	10.33	362.48	1.00	129.75	7991.12	-8941.45	6697.77
Saccade R	1	7	5816811247	5816890873	79626	1064.11	886.50	324.20	815.82	10.33	362.48	1.00	129.75	7991.12	-8941.45	6697.77
Fixation L	1	8	5816890873	5817388095	497222	330.05	825.49	31	29	-1	13.92	13.92
Fixation R	1	8	5816890873	5817388095	497222	330.05	825.49	31	29	-1	13.67	13.67
Saccade L	1	8	5817388095	5817447714	59619	345.40	806.17	633.58	408.99	5.51	209.75	0.33	92.48	5114.74	-3769.95	3637.51
Saccade R	1	8	5817388095	5817447714	59619	345.40	806.17	633.58	408.99	5.51	209.75	0.33	92.48	5114.74	-3769.95	3637.51
Fixation L	1	9	5817447714	5817825692	377978	661.12	391.27	39	28	-1	12.98	12.98
Fixation R	1	9	5817447714	5817825692	377978	661.12	391.27	39	28	-1	13.18	13.18
