[BeGaze]
Converted from:	C:\Documents and Settings\iViewX\Desktop\EXPERIMENTATIONS\Experiments\results\finaleart\S9H29221-finaleart-1.idf
Date:	27.03.2019 16:03:53
Version:	BeGaze 2.5.77
Sample Rate:	50
Subject:	S9H29221
Description:	steven

Table Header for Fixations:
Event Type	Trial	Number	Start	End	Duration	Location X	Location Y	Dispersion X	Dispersion Y	Plane	Avg. Pupil Size X	Avg. Pupil Size Y

Table Header for Saccades:
Event Type	Trial	Number	Start	End	Duration	Start Loc.X	Start Loc.Y	End Loc.X	End Loc.Y	Amplitude	Peak Speed	Peak Speed At	Average Speed	Peak Accel.	Peak Decel.	Average Accel.

Table Header for Blinks:
Event Type	Trial	Number	Start	End	Duration

Table Header for User Events:
Event Type	Trial	Number	Start	Description

UserEvent	1	1	6664071599	# Message: The_Lying_Nude_Matisse_1906.jpg
Fixation L	1	1	6664091456	6664469444	377988	1073.65	380.65	60	37	-1	10.27	10.27
Fixation R	1	1	6664091456	6664469444	377988	1073.65	380.65	60	37	-1	10.78	10.78
Saccade L	1	1	6664469444	6664489298	19854	1105.11	362.70	1103.09	353.91	0.25	25.13	1.00	12.37	8.47	-400.14	185.62
Saccade R	1	1	6664469444	6664489298	19854	1105.11	362.70	1103.09	353.91	0.25	25.13	1.00	12.37	8.47	-400.14	185.62
Fixation L	1	2	6664489298	6664727932	238634	1093.06	359.66	37	31	-1	9.94	9.94
Fixation R	1	2	6664489298	6664727932	238634	1093.06	359.66	37	31	-1	11.02	11.02
Saccade L	1	2	6664727932	6664807553	79621	1070.55	376.38	963.39	418.75	2.47	51.53	0.50	30.96	575.15	-707.34	261.43
Saccade R	1	2	6664727932	6664807553	79621	1070.55	376.38	963.39	418.75	2.47	51.53	0.50	30.96	575.15	-707.34	261.43
Fixation L	1	3	6664807553	6664976430	168877	920.76	432.69	63	28	-1	10.82	10.82
Fixation R	1	3	6664807553	6664976430	168877	920.76	432.69	63	28	-1	11.80	11.80
Saccade L	1	3	6664976430	6665006412	29982	899.61	445.78	890.69	443.66	0.25	12.29	0.00	8.23	182.21	-180.21	145.58
Saccade R	1	3	6664976430	6665006412	29982	899.61	445.78	890.69	443.66	0.25	12.29	0.00	8.23	182.21	-180.21	145.58
Fixation L	1	4	6665006412	6665165520	159108	855.83	437.99	75	12	-1	10.40	10.40
Fixation R	1	4	6665006412	6665165520	159108	855.83	437.99	75	12	-1	11.01	11.01
Saccade L	1	4	6665165520	6665225284	59764	814.73	430.84	686.51	424.20	2.41	89.66	0.67	40.26	1804.71	-577.68	635.43
Saccade R	1	4	6665165520	6665225284	59764	814.73	430.84	686.51	424.20	2.41	89.66	0.67	40.26	1804.71	-577.68	635.43
Fixation L	1	5	6665225284	6665404259	178975	614.68	431.81	85	11	-1	9.67	9.67
Fixation R	1	5	6665225284	6665404259	178975	614.68	431.81	85	11	-1	10.26	10.26
Saccade L	1	5	6665404259	6665463884	59625	600.62	435.43	438.42	428.99	1.72	115.48	1.00	28.80	2348.19	-2710.77	1367.41
Saccade R	1	5	6665404259	6665463884	59625	600.62	435.43	438.42	428.99	1.72	115.48	1.00	28.80	2348.19	-2710.77	1367.41
Fixation L	1	6	6665463884	6665841865	377981	442.00	418.14	27	27	-1	9.39	9.39
Fixation R	1	6	6665463884	6665841865	377981	442.00	418.14	27	27	-1	10.10	10.10
Saccade L	1	6	6665841865	6665901482	59617	439.04	401.18	915.05	376.47	5.41	174.45	0.67	90.81	4057.16	-3867.61	3028.88
Saccade R	1	6	6665841865	6665901482	59617	439.04	401.18	915.05	376.47	5.41	174.45	0.67	90.81	4057.16	-3867.61	3028.88
Fixation L	1	7	6665901482	6666020854	119372	963.52	357.70	63	34	-1	9.34	9.34
Fixation R	1	7	6665901482	6666020854	119372	963.52	357.70	63	34	-1	10.09	10.09
Saccade L	1	7	6666020854	6666040730	19876	978.30	341.51	982.36	340.09	0.11	7.80	1.00	5.36	73.92	-86.24	58.18
Saccade R	1	7	6666020854	6666040730	19876	978.30	341.51	982.36	340.09	0.11	7.80	1.00	5.36	73.92	-86.24	58.18
Fixation L	1	8	6666040730	6666199848	159118	981.64	331.97	64	13	-1	9.38	9.38
Fixation R	1	8	6666040730	6666199848	159118	981.64	331.97	64	13	-1	10.07	10.07
Saccade L	1	8	6666199848	6666219720	19872	933.47	338.19	901.39	348.44	0.52	39.00	0.00	26.21	232.94	-799.57	595.31
Saccade R	1	8	6666199848	6666219720	19872	933.47	338.19	901.39	348.44	0.52	39.00	0.00	26.21	232.94	-799.57	595.31
Fixation L	1	9	6666219720	6667075056	855336	879.43	361.36	36	54	-1	9.35	9.35
Fixation R	1	9	6666219720	6667075056	855336	879.43	361.36	36	54	-1	10.01	10.01
Saccade L	1	9	6667075056	6667094929	19873	871.92	327.70	843.43	430.81	0.74	108.20	1.00	37.22	2633.46	-2218.13	1868.01
Saccade R	1	9	6667075056	6667094929	19873	871.92	327.70	843.43	430.81	0.74	108.20	1.00	37.22	2633.46	-2218.13	1868.01
Fixation L	1	10	6667094929	6667234182	139253	813.73	408.22	51	37	-1	9.71	9.71
Fixation R	1	10	6667094929	6667234182	139253	813.73	408.22	51	37	-1	10.17	10.17
Saccade L	1	10	6667234182	6667273920	39738	792.10	411.29	403.34	397.86	3.37	230.10	0.50	84.73	5629.89	-5566.24	4689.47
Saccade R	1	10	6667234182	6667273920	39738	792.10	411.29	403.34	397.86	3.37	230.10	0.50	84.73	5629.89	-5566.24	4689.47
Fixation L	1	11	6667273920	6667592159	318239	404.63	394.53	16	21	-1	9.83	9.83
Fixation R	1	11	6667273920	6667592159	318239	404.63	394.53	16	21	-1	10.47	10.47
Saccade L	1	11	6667592159	6667651785	59626	415.74	386.97	669.12	906.48	6.18	300.84	0.67	103.60	7423.93	-6940.18	4595.91
Saccade R	1	11	6667592159	6667651785	59626	415.74	386.97	669.12	906.48	6.18	300.84	0.67	103.60	7423.93	-6940.18	4595.91
Fixation L	1	12	6667651785	6668109252	457467	673.32	912.33	21	26	-1	10.96	10.96
Fixation R	1	12	6667651785	6668109252	457467	673.32	912.33	21	26	-1	11.77	11.77
