[BeGaze]
Converted from:	C:\Documents and Settings\iViewX\Desktop\EXPERIMENTATIONS\Experiments\results\finaleart\S9H29221-finaleart-1.idf
Date:	27.03.2019 16:02:30
Version:	BeGaze 2.5.77
Sample Rate:	50
Subject:	S9H29221
Description:	steven

Table Header for Fixations:
Event Type	Trial	Number	Start	End	Duration	Location X	Location Y	Dispersion X	Dispersion Y	Plane	Avg. Pupil Size X	Avg. Pupil Size Y

Table Header for Saccades:
Event Type	Trial	Number	Start	End	Duration	Start Loc.X	Start Loc.Y	End Loc.X	End Loc.Y	Amplitude	Peak Speed	Peak Speed At	Average Speed	Peak Accel.	Peak Decel.	Average Accel.

Table Header for Blinks:
Event Type	Trial	Number	Start	End	Duration

Table Header for User Events:
Event Type	Trial	Number	Start	Description

UserEvent	1	1	5817910263	# Message: void.jpg
Fixation L	1	1	5817925082	5818125911	200829	698.59	347.12	16	21	-1	12.82	12.82
Fixation R	1	1	5817925082	5818125911	200829	698.59	347.12	16	21	-1	12.61	12.61
Saccade L	1	1	5818125911	5818163819	37908	703.04	336.73	858.70	332.94	1.70	157.48	1.00	44.74	3894.22	-3289.31	2538.17
Saccade R	1	1	5818125911	5818163819	37908	703.04	336.73	858.70	332.94	1.70	157.48	1.00	44.74	3894.22	-3289.31	2538.17
Fixation L	1	2	5818163819	5818274590	110771	879.37	331.54	43	3	-1	12.67	12.67
Fixation R	1	2	5818163819	5818274590	110771	879.37	331.54	43	3	-1	12.39	12.39
Saccade L	1	2	5818274590	5818303071	28481	902.44	329.50	1063.98	328.06	1.50	163.38	1.00	52.71	3621.74	-2434.82	2209.39
Saccade R	1	2	5818274590	5818303071	28481	902.44	329.50	1063.98	328.06	1.50	163.38	1.00	52.71	3621.74	-2434.82	2209.39
Fixation L	1	3	5818303071	5818462175	159104	1104.03	327.05	89	2	-1	12.52	12.52
Fixation R	1	3	5818303071	5818462175	159104	1104.03	327.05	89	2	-1	12.08	12.08
Saccade L	1	3	5818462175	5818482043	19868	1153.52	326.00	1160.99	324.55	0.48	65.98	1.00	24.39	-144.69	-1457.16	700.12
Saccade R	1	3	5818462175	5818482043	19868	1153.52	326.00	1160.99	324.55	0.48	65.98	1.00	24.39	-144.69	-1457.16	700.12
Fixation L	1	4	5818482043	5818680902	198859	1127.55	329.04	70	21	-1	12.35	12.35
Fixation R	1	4	5818482043	5818680902	198859	1127.55	329.04	70	21	-1	11.78	11.78
Saccade L	1	4	5818680902	5818700796	19894	1093.71	342.89	1090.25	347.96	0.10	6.21	1.00	4.95	11.91	-92.79	65.14
Saccade R	1	4	5818680902	5818700796	19894	1093.71	342.89	1090.25	347.96	0.10	6.21	1.00	4.95	11.91	-92.79	65.14
Fixation L	1	5	5818700796	5819134604	433808	1112.81	359.70	76	23	-1	12.47	12.47
Fixation R	1	5	5818700796	5819134604	433808	1112.81	359.70	76	23	-1	11.55	11.55
Blink L	1	1	5819134604	5819218015	83411
Blink R	1	1	5819134604	5819218015	83411
Fixation L	1	6	5819218015	5819396991	178976	1128.39	370.45	72	14	-1	11.91	11.91
Fixation R	1	6	5819218015	5819396991	178976	1128.39	370.45	72	14	-1	11.64	11.64
Saccade L	1	5	5819396991	5819416872	19881	1094.67	376.10	1081.07	378.85	0.19	14.04	1.00	9.40	232.81	-42.99	97.55
Saccade R	1	5	5819396991	5819416872	19881	1094.67	376.10	1081.07	378.85	0.19	14.04	1.00	9.40	232.81	-42.99	97.55
Fixation L	1	7	5819416872	5819615735	198863	1042.29	388.22	73	13	-1	11.67	11.67
Fixation R	1	7	5819416872	5819615735	198863	1042.29	388.22	73	13	-1	11.56	11.56
Saccade L	1	6	5819615735	5819635606	19871	1007.53	391.12	982.97	390.55	0.26	24.86	1.00	12.84	505.00	-328.61	335.96
Saccade R	1	6	5819615735	5819635606	19871	1007.53	391.12	982.97	390.55	0.26	24.86	1.00	12.84	505.00	-328.61	335.96
Fixation L	1	8	5819635606	5819914095	278489	957.05	396.34	33	13	-1	11.36	11.36
Fixation R	1	8	5819635606	5819914095	278489	957.05	396.34	33	13	-1	11.40	11.40
