[BeGaze]
Converted from:	C:\Documents and Settings\iViewX\Desktop\EXPERIMENTATIONS\Experiments\results\finaleart\S9H29221-finaleart-1.idf
Date:	27.03.2019 16:03:05
Version:	BeGaze 2.5.77
Sample Rate:	50
Subject:	S9H29221
Description:	steven

Table Header for Fixations:
Event Type	Trial	Number	Start	End	Duration	Location X	Location Y	Dispersion X	Dispersion Y	Plane	Avg. Pupil Size X	Avg. Pupil Size Y

Table Header for Saccades:
Event Type	Trial	Number	Start	End	Duration	Start Loc.X	Start Loc.Y	End Loc.X	End Loc.Y	Amplitude	Peak Speed	Peak Speed At	Average Speed	Peak Accel.	Peak Decel.	Average Accel.

Table Header for Blinks:
Event Type	Trial	Number	Start	End	Duration

Table Header for User Events:
Event Type	Trial	Number	Start	Description

UserEvent	1	1	6117842500	# Message: venice_from_porche_of_madonna_turner_1835.jpg
Fixation L	1	1	6117853964	6118013117	159153	79.96	562.86	49	14	-1	13.10	13.10
Fixation R	1	1	6117853964	6118013117	159153	79.96	562.86	49	14	-1	12.76	12.76
Saccade L	1	1	6118013117	6118192194	179077	118.08	558.91	350.77	533.34	6.63	73.64	0.78	37.04	1062.52	-949.28	492.94
Saccade R	1	1	6118013117	6118192194	179077	118.08	558.91	350.77	533.34	6.63	73.64	0.78	37.04	1062.52	-949.28	492.94
Fixation L	1	2	6118192194	6118293446	101252	386.40	523.88	70	21	-1	12.65	12.65
Fixation R	1	2	6118192194	6118293446	101252	386.40	523.88	70	21	-1	12.15	12.15
Saccade L	1	2	6118293446	6118589931	296485	420.93	523.90	832.21	497.29	9.65	106.35	0.93	32.56	2304.77	-2609.37	757.85
Saccade R	1	2	6118293446	6118589931	296485	420.93	523.90	832.21	497.29	9.65	106.35	0.93	32.56	2304.77	-2609.37	757.85
Fixation L	1	3	6118589931	6118709284	119353	864.02	501.35	61	7	-1	12.22	12.22
Fixation R	1	3	6118589931	6118709284	119353	864.02	501.35	61	7	-1	11.20	11.20
Saccade L	1	3	6118709284	6118793518	84234	893.41	502.35	923.79	676.15	3.48	145.80	1.00	41.27	3633.26	-2749.48	1840.43
Saccade R	1	3	6118709284	6118793518	84234	893.41	502.35	923.79	676.15	3.48	145.80	1.00	41.27	3633.26	-2749.48	1840.43
Fixation L	1	4	6118793518	6119186646	393128	956.35	683.35	49	49	-1	11.23	11.23
Fixation R	1	4	6118793518	6119186646	393128	956.35	683.35	49	49	-1	9.72	9.72
Saccade L	1	4	6119186646	6119206514	19868	939.90	711.33	941.56	714.43	0.18	14.84	0.00	9.22	858.98	-183.55	408.08
Saccade R	1	4	6119186646	6119206514	19868	939.90	711.33	941.56	714.43	0.18	14.84	0.00	9.22	858.98	-183.55	408.08
Fixation L	1	5	6119206514	6119504878	298364	889.67	721.44	68	12	-1	11.00	11.00
Fixation R	1	5	6119206514	6119504878	298364	889.67	721.44	68	12	-1	9.70	9.70
Saccade L	1	5	6119504878	6119604366	99488	896.91	721.33	1256.41	784.05	5.80	186.91	1.00	58.28	3839.35	-4531.24	2250.42
Saccade R	1	5	6119504878	6119604366	99488	896.91	721.33	1256.41	784.05	5.80	186.91	1.00	58.28	3839.35	-4531.24	2250.42
Fixation L	1	6	6119604366	6120300463	696097	1255.23	819.97	19	60	-1	11.07	11.07
Fixation R	1	6	6119604366	6120300463	696097	1255.23	819.97	19	60	-1	9.67	9.67
Saccade L	1	6	6120300463	6120340207	39744	1244.03	790.09	857.70	678.30	3.47	244.17	0.50	87.29	6033.96	-5751.56	4843.82
Saccade R	1	6	6120300463	6120340207	39744	1244.03	790.09	857.70	678.30	3.47	244.17	0.50	87.29	6033.96	-5751.56	4843.82
Fixation L	1	7	6120340207	6120638580	298373	855.23	673.11	34	20	-1	11.21	11.21
Fixation R	1	7	6120340207	6120638580	298373	855.23	673.11	34	20	-1	9.75	9.75
Saccade L	1	7	6120638580	6120678315	39735	827.43	668.08	528.28	738.10	2.82	224.21	0.50	71.00	5547.36	-5485.38	3661.19
Saccade R	1	7	6120638580	6120678315	39735	827.43	668.08	528.28	738.10	2.82	224.21	0.50	71.00	5547.36	-5485.38	3661.19
Fixation L	1	8	6120678315	6121036426	358111	525.68	750.71	16	80	-1	11.38	11.38
Fixation R	1	8	6120678315	6121036426	358111	525.68	750.71	16	80	-1	10.46	10.46
Saccade L	1	8	6121036426	6121056301	19875	511.78	818.86	477.26	843.33	0.61	50.19	0.00	30.82	519.78	-1047.41	847.42
Saccade R	1	8	6121036426	6121056301	19875	511.78	818.86	477.26	843.33	0.61	50.19	0.00	30.82	519.78	-1047.41	847.42
Fixation L	1	9	6121056301	6121294935	238634	464.25	854.86	25	18	-1	11.52	11.52
Fixation R	1	9	6121056301	6121294935	238634	464.25	854.86	25	18	-1	10.72	10.72
Saccade L	1	9	6121294935	6121394415	99480	451.70	858.74	1503.06	668.54	13.58	309.55	0.40	136.46	7676.19	-6391.82	4387.57
Saccade R	1	9	6121294935	6121394415	99480	451.70	858.74	1503.06	668.54	13.58	309.55	0.40	136.46	7676.19	-6391.82	4387.57
Fixation L	1	10	6121394415	6121553544	159129	1495.42	669.67	15	4	-1	11.52	11.52
Fixation R	1	10	6121394415	6121553544	159129	1495.42	669.67	15	4	-1	10.66	10.66
Saccade L	1	10	6121553544	6121573403	19859	1503.22	668.37	1554.23	628.11	0.50	65.73	1.00	25.06	1600.72	-1377.26	1006.20
Saccade R	1	10	6121553544	6121573403	19859	1503.22	668.37	1554.23	628.11	0.50	65.73	1.00	25.06	1600.72	-1377.26	1006.20
Fixation L	1	11	6121573403	6121772397	198994	1578.70	611.08	32	27	-1	11.72	11.72
Fixation R	1	11	6121573403	6121772397	198994	1578.70	611.08	32	27	-1	10.54	10.54
Saccade L	1	11	6121772397	6121851890	79493	1586.30	601.35	1070.60	785.90	7.69	245.12	0.50	96.75	6089.22	-4975.90	3046.16
Saccade R	1	11	6121772397	6121851890	79493	1586.30	601.35	1070.60	785.90	7.69	245.12	0.50	96.75	6089.22	-4975.90	3046.16
