[BeGaze]
Converted from:	C:\Documents and Settings\iViewX\Desktop\EXPERIMENTATIONS\Experiments\results\finaleart\S9H29221-finaleart-1.idf
Date:	27.03.2019 16:03:10
Version:	BeGaze 2.5.77
Sample Rate:	50
Subject:	S9H29221
Description:	steven

Table Header for Fixations:
Event Type	Trial	Number	Start	End	Duration	Location X	Location Y	Dispersion X	Dispersion Y	Plane	Avg. Pupil Size X	Avg. Pupil Size Y

Table Header for Saccades:
Event Type	Trial	Number	Start	End	Duration	Start Loc.X	Start Loc.Y	End Loc.X	End Loc.Y	Amplitude	Peak Speed	Peak Speed At	Average Speed	Peak Accel.	Peak Decel.	Average Accel.

Table Header for Blinks:
Event Type	Trial	Number	Start	End	Duration

Table Header for User Events:
Event Type	Trial	Number	Start	Description

UserEvent	1	1	6298785336	# Message: Matisse-Nature-morte-a-la-cruche-bleue.jpg
Blink L	1	1	6298793805	6299171642	377837
Blink R	1	1	6298793805	6299171642	377837
Fixation L	1	1	6299171642	6299330863	159221	828.56	320.95	18	35	-1	14.22	14.22
Fixation R	1	1	6299171642	6299330863	159221	828.56	320.95	18	35	-1	13.55	13.55
Saccade L	1	1	6299330863	6299350781	19918	827.60	316.04	900.83	306.61	0.63	74.69	1.00	31.83	1595.71	-1706.20	1164.49
Saccade R	1	1	6299330863	6299350781	19918	827.60	316.04	900.83	306.61	0.63	74.69	1.00	31.83	1595.71	-1706.20	1164.49
Fixation L	1	2	6299350781	6299629522	278741	928.38	325.66	32	29	-1	13.55	13.55
Fixation R	1	2	6299350781	6299629522	278741	928.38	325.66	32	29	-1	13.03	13.03
Saccade L	1	2	6299629522	6299728635	99113	931.69	331.33	1115.22	497.63	5.33	155.10	0.70	53.75	3835.37	-3513.14	2962.07
Saccade R	1	2	6299629522	6299728635	99113	931.69	331.33	1115.22	497.63	5.33	155.10	0.70	53.75	3835.37	-3513.14	2962.07
Fixation L	1	3	6299728635	6299927495	198860	1109.42	516.55	20	29	-1	13.16	13.16
Fixation R	1	3	6299728635	6299927495	198860	1109.42	516.55	20	29	-1	12.28	12.28
Saccade L	1	3	6299927495	6299967372	39877	1107.60	527.09	1228.97	725.32	2.02	119.10	0.50	50.70	2896.52	-2631.23	2758.48
Saccade R	1	3	6299927495	6299967372	39877	1107.60	527.09	1228.97	725.32	2.02	119.10	0.50	50.70	2896.52	-2631.23	2758.48
Fixation L	1	4	6299967372	6300225872	258500	1226.39	719.55	14	24	-1	14.06	14.06
Fixation R	1	4	6299967372	6300225872	258500	1226.39	719.55	14	24	-1	13.29	13.29
Saccade L	1	4	6300225872	6300384980	159108	1221.40	716.93	922.37	592.10	19.23	314.44	0.50	120.85	7374.15	-6711.29	3745.16
Saccade R	1	4	6300225872	6300384980	159108	1221.40	716.93	922.37	592.10	19.23	314.44	0.50	120.85	7374.15	-6711.29	3745.16
Blink L	1	2	6300384980	6300623709	238729
Blink R	1	2	6300384980	6300464591	79611
Blink R	1	3	6300484470	6300623709	139239
Fixation L	1	5	6300623709	6300981705	357996	901.65	362.15	12	40	-1	13.68	13.68
Fixation R	1	5	6300623709	6300981705	357996	901.65	362.15	12	40	-1	13.10	13.10
Saccade L	1	5	6300981705	6301021439	39734	909.27	391.31	1063.26	668.11	3.05	226.62	0.50	76.82	5469.93	-5169.00	3596.29
Saccade R	1	5	6300981705	6301021439	39734	909.27	391.31	1063.26	668.11	3.05	226.62	0.50	76.82	5469.93	-5169.00	3596.29
Fixation L	1	6	6301021439	6301299926	278487	1067.64	693.03	12	37	-1	14.99	14.99
Fixation R	1	6	6301021439	6301299926	278487	1067.64	693.03	12	37	-1	14.63	14.63
Saccade L	1	6	6301299926	6301319811	19885	1063.10	702.60	1050.44	753.24	0.57	52.81	1.00	28.54	1290.18	-980.24	967.23
Saccade R	1	6	6301299926	6301319811	19885	1063.10	702.60	1050.44	753.24	0.57	52.81	1.00	28.54	1290.18	-980.24	967.23
Fixation L	1	7	6301319811	6301638045	318234	1017.98	777.41	40	49	-1	15.41	15.41
Fixation R	1	7	6301319811	6301638045	318234	1017.98	777.41	40	49	-1	14.79	14.79
Blink L	1	3	6301638045	6301896649	258604
Blink R	1	4	6301638045	6301896649	258604
Blink L	1	4	6301876768	6302175146	298378
Blink R	1	5	6301876768	6302175146	298378
Fixation L	1	8	6302175146	6302791736	616590	1173.85	614.23	62	32	-1	15.81	15.81
Fixation R	1	8	6302175146	6302791736	616590	1173.85	614.23	62	32	-1	15.12	15.12
Saccade L	1	7	6302791736	6302831478	39742	1154.37	617.46	1033.11	491.59	2.40	144.59	0.50	60.31	3547.15	-710.21	1419.12
Saccade R	1	7	6302791736	6302831478	39742	1154.37	617.46	1033.11	491.59	2.40	144.59	0.50	60.31	3547.15	-710.21	1419.12
