[BeGaze]
Converted from:	C:\Documents and Settings\iViewX\Desktop\EXPERIMENTATIONS\Experiments\results\finaleart\S9H29221-finaleart-1.idf
Date:	27.03.2019 16:03:27
Version:	BeGaze 2.5.77
Sample Rate:	50
Subject:	S9H29221
Description:	steven

Table Header for Fixations:
Event Type	Trial	Number	Start	End	Duration	Location X	Location Y	Dispersion X	Dispersion Y	Plane	Avg. Pupil Size X	Avg. Pupil Size Y

Table Header for Saccades:
Event Type	Trial	Number	Start	End	Duration	Start Loc.X	Start Loc.Y	End Loc.X	End Loc.Y	Amplitude	Peak Speed	Peak Speed At	Average Speed	Peak Accel.	Peak Decel.	Average Accel.

Table Header for Blinks:
Event Type	Trial	Number	Start	End	Duration

Table Header for User Events:
Event Type	Trial	Number	Start	Description

UserEvent	1	1	6403637765	# Message: oysters_manet_1862.jpg
Saccade L	1	1	6403657408	6403717041	59633	1448.44	1084.54	1959.21	973.11	6.63	218.46	0.67	111.22	5461.57	-4965.49	2777.90
Saccade R	1	1	6403657408	6403717041	59633	1448.44	1084.54	1959.21	973.11	6.63	218.46	0.67	111.22	5461.57	-4965.49	2777.90
Fixation L	1	1	6403717041	6404174750	457709	1914.02	969.04	63	29	-1	12.09	12.09
Fixation R	1	1	6403717041	6404174750	457709	1914.02	969.04	63	29	-1	11.20	11.20
Saccade L	1	2	6404174750	6404194532	19782	1903.22	988.23	1906.47	999.34	0.11	11.71	1.00	5.50	199.05	-205.72	150.35
Saccade R	1	2	6404174750	6404194532	19782	1903.22	988.23	1906.47	999.34	0.11	11.71	1.00	5.50	199.05	-205.72	150.35
Fixation L	1	2	6404194532	6404294034	99502	1907.17	994.13	28	34	-1	12.98	12.98
Fixation R	1	2	6404194532	6404294034	99502	1907.17	994.13	28	34	-1	11.81	11.81
Saccade L	1	3	6404294034	6404353616	59582	1890.07	970.68	1225.36	595.62	8.48	412.90	0.33	142.32	9914.28	-7640.04	6377.97
Saccade R	1	3	6404294034	6404353616	59582	1890.07	970.68	1225.36	595.62	8.48	412.90	0.33	142.32	9914.28	-7640.04	6377.97
Fixation L	1	3	6404353616	6404632115	278499	1251.55	570.57	36	33	-1	13.58	13.58
Fixation R	1	3	6404353616	6404632115	278499	1251.55	570.57	36	33	-1	13.08	13.08
Saccade L	1	4	6404632115	6404671869	39754	1236.53	565.08	844.95	505.08	3.52	252.59	0.60	88.59	6261.33	-6009.80	4711.83
Saccade R	1	4	6404632115	6404671869	39754	1236.53	565.08	844.95	505.08	3.52	252.59	0.60	88.59	6261.33	-6009.80	4711.83
Fixation L	1	4	6404671869	6405069581	397712	852.70	481.91	13	32	-1	13.25	13.25
Fixation R	1	4	6404671869	6405069581	397712	852.70	481.91	13	32	-1	12.94	12.94
Blink L	1	1	6405069581	6405308333	238752
Blink R	1	1	6405069581	6405308333	238752
Fixation L	1	5	6405308333	6405725924	417591	800.90	544.21	22	37	-1	14.66	14.66
Fixation R	1	5	6405308333	6405725924	417591	800.90	544.21	22	37	-1	13.80	13.80
Saccade L	1	5	6405725924	6405745808	19884	787.31	511.66	595.55	528.31	1.23	194.64	1.00	62.10	4573.34	-4776.11	3160.39
Saccade R	1	5	6405725924	6405745808	19884	787.31	511.66	595.55	528.31	1.23	194.64	1.00	62.10	4573.34	-4776.11	3160.39
Fixation L	1	6	6405745808	6406422146	676338	573.34	498.33	38	61	-1	13.61	13.61
Fixation R	1	6	6405745808	6406422146	676338	573.34	498.33	38	61	-1	12.63	12.63
Saccade L	1	6	6406422146	6406442024	19878	557.35	467.85	554.95	466.34	0.07	7.49	1.00	3.41	14.26	-115.57	45.00
Saccade R	1	6	6406422146	6406442024	19878	557.35	467.85	554.95	466.34	0.07	7.49	1.00	3.41	14.26	-115.57	45.00
Fixation L	1	7	6406442024	6406581290	139266	549.50	465.16	9	5	-1	13.09	13.09
Fixation R	1	7	6406442024	6406581290	139266	549.50	465.16	9	5	-1	12.54	12.54
Blink L	1	2	6406581290	6406780123	198833
Saccade R	1	7	6406581290	6406640886	59596	545.71	466.42	927.13	949.15	8.74	346.51	1.00	146.60	5821.01	-3207.71	3860.44
Blink R	1	2	6406640886	6406978999	338113
Blink L	1	3	6406799997	6406978999	179002
Saccade L	1	7	6406978999	6406999002	20003	1194.48	395.69	1170.34	431.05	1.18	154.58	1.00	58.95	51.82	-2781.64	1218.92
Saccade R	1	8	6406978999	6406999002	20003	1194.48	395.69	1170.34	431.05	1.18	154.58	1.00	58.95	51.82	-2781.64	1218.92
Fixation L	1	8	6406999002	6407177983	178981	1145.78	459.44	49	42	-1	13.99	13.99
Fixation R	1	8	6406999002	6407177983	178981	1145.78	459.44	49	42	-1	12.70	12.70
Saccade L	1	8	6407177983	6407197855	19872	1121.12	473.79	1114.34	476.76	0.24	16.47	1.00	12.04	184.81	-224.79	140.61
Saccade R	1	9	6407177983	6407197855	19872	1121.12	473.79	1114.34	476.76	0.24	16.47	1.00	12.04	184.81	-224.79	140.61
Fixation L	1	9	6407197855	6407575715	377860	1117.23	497.27	68	31	-1	12.98	12.98
Fixation R	1	9	6407197855	6407575715	377860	1117.23	497.27	68	31	-1	11.66	11.66
Saccade L	1	9	6407575715	6407675206	99491	1161.75	505.37	1167.08	516.81	0.32	7.17	1.00	3.23	53.30	-63.81	35.68
Saccade R	1	10	6407575715	6407675206	99491	1161.75	505.37	1167.08	516.81	0.32	7.17	1.00	3.23	53.30	-63.81	35.68
