[BeGaze]
Converted from:	C:\Documents and Settings\iViewX\Desktop\EXPERIMENTATIONS\Experiments\results\finaleart\S9H29221-finaleart-1.idf
Date:	27.03.2019 16:02:46
Version:	BeGaze 2.5.77
Sample Rate:	50
Subject:	S9H29221
Description:	steven

Table Header for Fixations:
Event Type	Trial	Number	Start	End	Duration	Location X	Location Y	Dispersion X	Dispersion Y	Plane	Avg. Pupil Size X	Avg. Pupil Size Y

Table Header for Saccades:
Event Type	Trial	Number	Start	End	Duration	Start Loc.X	Start Loc.Y	End Loc.X	End Loc.Y	Amplitude	Peak Speed	Peak Speed At	Average Speed	Peak Accel.	Peak Decel.	Average Accel.

Table Header for Blinks:
Event Type	Trial	Number	Start	End	Duration

Table Header for User Events:
Event Type	Trial	Number	Start	Description

UserEvent	1	1	6010633694	# Message: void.jpg
Fixation L	1	1	6010650725	6010750101	99376	517.17	585.24	17	9	-1	13.28	13.28
Fixation R	1	1	6010650725	6010750101	99376	517.17	585.24	17	9	-1	13.08	13.08
Saccade L	1	1	6010750101	6011058434	308333	509.67	585.16	1472.44	902.71	33.28	462.80	0.39	107.94	11454.82	-11530.18	5736.75
Saccade R	1	1	6010750101	6011058434	308333	509.67	585.16	1472.44	902.71	33.28	462.80	0.39	107.94	11454.82	-11530.18	5736.75
Fixation L	1	2	6011058434	6011247309	188875	1458.99	896.48	27	8	-1	12.67	12.67
Fixation R	1	2	6011058434	6011247309	188875	1458.99	896.48	27	8	-1	12.16	12.16
Saccade L	1	2	6011247309	6011287183	39874	1444.75	895.94	1281.54	514.35	3.70	227.92	1.00	92.83	5466.65	-5342.63	4909.69
Saccade R	1	2	6011247309	6011287183	39874	1444.75	895.94	1281.54	514.35	3.70	227.92	1.00	92.83	5466.65	-5342.63	4909.69
Fixation L	1	3	6011287183	6011466172	178989	1266.41	499.94	27	27	-1	12.37	12.37
Fixation R	1	3	6011287183	6011466172	178989	1266.41	499.94	27	27	-1	11.95	11.95
Saccade L	1	3	6011466172	6011505922	39750	1253.94	503.32	1085.26	437.20	2.09	131.32	0.50	52.58	3219.97	-2141.02	2067.37
Saccade R	1	3	6011466172	6011505922	39750	1253.94	503.32	1085.26	437.20	2.09	131.32	0.50	52.58	3219.97	-2141.02	2067.37
Fixation L	1	4	6011505922	6011665045	159123	1074.89	380.20	20	76	-1	12.02	12.02
Fixation R	1	4	6011505922	6011665045	159123	1074.89	380.20	20	76	-1	11.59	11.59
Saccade L	1	4	6011665045	6011684919	19874	1064.34	360.23	1054.72	349.04	0.15	14.93	1.00	7.39	309.98	-182.52	202.44
Saccade R	1	4	6011665045	6011684919	19874	1064.34	360.23	1054.72	349.04	0.15	14.93	1.00	7.39	309.98	-182.52	202.44
Fixation L	1	5	6011684919	6012118780	433861	1025.26	337.64	69	18	-1	11.90	11.90
Fixation R	1	5	6011684919	6012118780	433861	1025.26	337.64	69	18	-1	11.52	11.52
Saccade L	1	5	6012118780	6012142397	23617	985.01	338.88	971.82	342.31	0.16	13.78	1.00	6.69	310.74	-339.95	281.71
Saccade R	1	5	6012118780	6012142397	23617	985.01	338.88	971.82	342.31	0.16	13.78	1.00	6.69	310.74	-339.95	281.71
Fixation L	1	6	6012142397	6012420880	278483	1000.97	341.81	53	29	-1	11.99	11.99
Fixation R	1	6	6012142397	6012420880	278483	1000.97	341.81	53	29	-1	11.75	11.75
