[BeGaze]
Converted from:	C:\Documents and Settings\iViewX\Desktop\EXPERIMENTATIONS\Experiments\results\finaleart\S9H29221-finaleart-1.idf
Date:	27.03.2019 16:03:48
Version:	BeGaze 2.5.77
Sample Rate:	50
Subject:	S9H29221
Description:	steven

Table Header for Fixations:
Event Type	Trial	Number	Start	End	Duration	Location X	Location Y	Dispersion X	Dispersion Y	Plane	Avg. Pupil Size X	Avg. Pupil Size Y

Table Header for Saccades:
Event Type	Trial	Number	Start	End	Duration	Start Loc.X	Start Loc.Y	End Loc.X	End Loc.Y	Amplitude	Peak Speed	Peak Speed At	Average Speed	Peak Accel.	Peak Decel.	Average Accel.

Table Header for Blinks:
Event Type	Trial	Number	Start	End	Duration

Table Header for User Events:
Event Type	Trial	Number	Start	Description

UserEvent	1	1	6633389605	# Message: after_a_rain_country_road_Vasilyev_1869.jpg
Fixation L	1	1	6633401171	6633997894	596723	1009.56	445.94	27	23	-1	18.26	18.26
Fixation R	1	1	6633401171	6633997894	596723	1009.56	445.94	27	23	-1	17.61	17.61
Saccade L	1	1	6633997894	6634037641	39747	1021.69	465.52	885.72	706.83	2.44	192.67	0.50	61.27	4769.90	-4814.89	3341.80
Saccade R	1	1	6633997894	6634037641	39747	1021.69	465.52	885.72	706.83	2.44	192.67	0.50	61.27	4769.90	-4814.89	3341.80
Fixation L	1	2	6634037641	6634654250	616609	880.05	712.62	18	21	-1	16.29	16.29
Fixation R	1	2	6634037641	6634654250	616609	880.05	712.62	18	21	-1	15.69	15.69
Saccade L	1	2	6634654250	6634693974	39724	872.67	722.21	1245.75	712.50	3.12	230.04	1.00	78.48	5723.42	-5631.73	4595.63
Saccade R	1	2	6634654250	6634693974	39724	872.67	722.21	1245.75	712.50	3.12	230.04	1.00	78.48	5723.42	-5631.73	4595.63
Fixation L	1	3	6634693974	6635211085	517111	1271.12	688.81	62	36	-1	14.85	14.85
Fixation R	1	3	6634693974	6635211085	517111	1271.12	688.81	62	36	-1	14.40	14.40
Saccade L	1	3	6635211085	6635231079	19994	1308.25	701.13	1308.90	701.86	0.05	3.90	1.00	2.69	52.07	-73.01	54.09
Saccade R	1	3	6635211085	6635231079	19994	1308.25	701.13	1308.90	701.86	0.05	3.90	1.00	2.69	52.07	-73.01	54.09
Fixation L	1	4	6635231079	6635489569	258490	1308.67	707.30	7	10	-1	15.36	15.36
Fixation R	1	4	6635231079	6635489569	258490	1308.67	707.30	7	10	-1	14.61	14.61
Saccade L	1	4	6635489569	6635529439	39870	1303.01	708.84	1057.31	696.92	2.08	137.61	0.50	52.20	3388.28	-3324.77	3029.78
Saccade R	1	4	6635489569	6635529439	39870	1303.01	708.84	1057.31	696.92	2.08	137.61	0.50	52.20	3388.28	-3324.77	3029.78
Fixation L	1	5	6635529439	6635688559	159120	1055.69	690.66	5	10	-1	15.93	15.93
Fixation R	1	5	6635529439	6635688559	159120	1055.69	690.66	5	10	-1	15.18	15.18
Saccade L	1	5	6635688559	6635728311	39752	1057.78	686.68	853.32	689.11	1.72	113.99	0.50	43.15	2812.06	-2682.36	2488.52
Saccade R	1	5	6635688559	6635728311	39752	1057.78	686.68	853.32	689.11	1.72	113.99	0.50	43.15	2812.06	-2682.36	2488.52
Fixation L	1	6	6635728311	6636205650	477339	825.95	715.28	58	36	-1	16.16	16.16
Fixation R	1	6	6635728311	6636205650	477339	825.95	715.28	58	36	-1	16.22	16.22
Saccade L	1	6	6636205650	6636245407	39757	794.70	720.54	573.15	588.06	2.29	165.23	0.50	57.50	4084.70	-3859.21	3215.88
Saccade R	1	6	6636205650	6636245407	39757	794.70	720.54	573.15	588.06	2.29	165.23	0.50	57.50	4084.70	-3859.21	3215.88
Fixation L	1	7	6636245407	6636941624	696217	559.16	565.30	53	42	-1	14.80	14.80
Fixation R	1	7	6636245407	6636941624	696217	559.16	565.30	53	42	-1	15.17	15.17
Saccade L	1	7	6636941624	6636961502	19878	532.29	588.78	532.76	595.56	0.08	6.87	1.00	4.12	59.79	-30.34	37.11
Saccade R	1	7	6636941624	6636961502	19878	532.29	588.78	532.76	595.56	0.08	6.87	1.00	4.12	59.79	-30.34	37.11
Fixation L	1	8	6636961502	6637200112	238610	532.80	586.14	10	36	-1	14.22	14.22
Fixation R	1	8	6636961502	6637200112	238610	532.80	586.14	10	36	-1	14.60	14.60
Saccade L	1	8	6637200112	6637239867	39755	526.89	565.75	957.12	601.04	4.03	278.66	1.00	101.41	6829.74	-6685.85	4943.82
Saccade R	1	8	6637200112	6637239867	39755	526.89	565.75	957.12	601.04	4.03	278.66	1.00	101.41	6829.74	-6685.85	4943.82
Fixation L	1	9	6637239867	6637418972	179105	1000.12	617.49	52	31	-1	14.72	14.72
Fixation R	1	9	6637239867	6637418972	179105	1000.12	617.49	52	31	-1	14.70	14.70
