[BeGaze]
Converted from:	C:\Documents and Settings\iViewX\Desktop\EXPERIMENTATIONS\Experiments\results\finaleart\S9H29221-finaleart-1.idf
Date:	27.03.2019 16:02:47
Version:	BeGaze 2.5.77
Sample Rate:	50
Subject:	S9H29221
Description:	steven

Table Header for Fixations:
Event Type	Trial	Number	Start	End	Duration	Location X	Location Y	Dispersion X	Dispersion Y	Plane	Avg. Pupil Size X	Avg. Pupil Size Y

Table Header for Saccades:
Event Type	Trial	Number	Start	End	Duration	Start Loc.X	Start Loc.Y	End Loc.X	End Loc.Y	Amplitude	Peak Speed	Peak Speed At	Average Speed	Peak Accel.	Peak Decel.	Average Accel.

Table Header for Blinks:
Event Type	Trial	Number	Start	End	Duration

Table Header for User Events:
Event Type	Trial	Number	Start	Description

UserEvent	1	1	6012763804	# Message: Young_Girls_Playing_With_A_Lion_Club_Valtat_1905.jpg
Fixation L	1	1	6012778857	6013196597	417740	1072.91	514.93	54	43	-1	12.97	12.97
Fixation R	1	1	6012778857	6013196597	417740	1072.91	514.93	54	43	-1	12.84	12.84
Saccade L	1	1	6013196597	6013216472	19875	1110.65	496.18	1123.21	489.66	0.19	16.02	0.00	9.33	280.46	-303.07	256.69
Saccade R	1	1	6013196597	6013216472	19875	1110.65	496.18	1123.21	489.66	0.19	16.02	0.00	9.33	280.46	-303.07	256.69
Fixation L	1	2	6013216472	6013415341	198869	1157.62	474.47	51	25	-1	12.67	12.67
Fixation R	1	2	6013216472	6013415341	198869	1157.62	474.47	51	25	-1	12.63	12.63
Saccade L	1	2	6013415341	6013514831	99490	1174.88	464.28	970.12	446.71	4.13	152.74	1.00	41.47	3447.34	-3774.36	1968.09
Saccade R	1	2	6013415341	6013514831	99490	1174.88	464.28	970.12	446.71	4.13	152.74	1.00	41.47	3447.34	-3774.36	1968.09
Fixation L	1	3	6013514831	6013753570	238739	971.38	450.59	6	19	-1	12.70	12.70
Fixation R	1	3	6013514831	6013753570	238739	971.38	450.59	6	19	-1	12.33	12.33
Saccade L	1	3	6013753570	6013773433	19863	969.80	466.01	963.19	559.77	0.66	95.07	1.00	33.17	2255.02	-2159.19	1548.74
Saccade R	1	3	6013753570	6013773433	19863	969.80	466.01	963.19	559.77	0.66	95.07	1.00	33.17	2255.02	-2159.19	1548.74
Fixation L	1	4	6013773433	6013972310	198877	962.10	562.26	10	11	-1	12.21	12.21
Fixation R	1	4	6013773433	6013972310	198877	962.10	562.26	10	11	-1	11.95	11.95
Saccade L	1	4	6013972310	6013992175	19865	960.55	564.04	1010.60	638.69	0.63	90.91	1.00	31.61	2202.00	-1987.04	1565.62
Saccade R	1	4	6013972310	6013992175	19865	960.55	564.04	1010.60	638.69	0.63	90.91	1.00	31.61	2202.00	-1987.04	1565.62
Fixation L	1	5	6013992175	6014191044	198869	1032.47	654.06	26	25	-1	11.89	11.89
Fixation R	1	5	6013992175	6014191044	198869	1032.47	654.06	26	25	-1	11.66	11.66
Saccade L	1	5	6014191044	6014230922	39878	1033.84	663.99	906.20	942.54	2.99	247.25	1.00	75.09	6156.81	-6008.28	3547.23
Saccade R	1	5	6014191044	6014230922	39878	1033.84	663.99	906.20	942.54	2.99	247.25	1.00	75.09	6156.81	-6008.28	3547.23
Fixation L	1	6	6014230922	6014688400	457478	923.65	987.16	37	60	-1	11.31	11.31
Fixation R	1	6	6014230922	6014688400	457478	923.65	987.16	37	60	-1	11.34	11.34
Saccade L	1	6	6014688400	6014708271	19871	940.97	958.47	948.50	959.52	0.09	7.69	1.00	4.46	143.62	-153.08	122.09
Saccade R	1	6	6014688400	6014708271	19871	940.97	958.47	948.50	959.52	0.09	7.69	1.00	4.46	143.62	-153.08	122.09
Fixation L	1	7	6014708271	6014867385	159114	955.10	952.89	16	48	-1	10.80	10.80
Fixation R	1	7	6014708271	6014867385	159114	955.10	952.89	16	48	-1	10.48	10.48
Saccade L	1	7	6014867385	6014887263	19878	963.69	912.77	1086.46	709.53	1.76	240.06	1.00	88.63	5787.91	-5793.69	4094.26
Saccade R	1	7	6014867385	6014887263	19878	963.69	912.77	1086.46	709.53	1.76	240.06	1.00	88.63	5787.91	-5793.69	4094.26
Fixation L	1	8	6014887263	6015185616	298353	1104.07	645.35	25	72	-1	10.77	10.77
Fixation R	1	8	6014887263	6015185616	298353	1104.07	645.35	25	72	-1	10.81	10.81
Saccade L	1	8	6015185616	6015205516	19900	1111.99	643.20	1313.24	599.44	1.31	208.26	1.00	65.72	5139.65	-4825.00	3569.35
Saccade R	1	8	6015185616	6015205516	19900	1111.99	643.20	1313.24	599.44	1.31	208.26	1.00	65.72	5139.65	-4825.00	3569.35
Fixation L	1	9	6015205516	6015324862	119346	1338.25	589.24	40	18	-1	10.77	10.77
Fixation R	1	9	6015205516	6015324862	119346	1338.25	589.24	40	18	-1	10.55	10.55
Saccade L	1	9	6015324862	6015384482	59620	1335.03	585.89	955.59	975.25	5.80	308.83	0.67	97.26	7622.94	-7413.75	4701.78
Saccade R	1	9	6015324862	6015384482	59620	1335.03	585.89	955.59	975.25	5.80	308.83	0.67	97.26	7622.94	-7413.75	4701.78
Fixation L	1	10	6015384482	6015921589	537107	967.20	969.18	24	72	-1	11.47	11.47
Fixation R	1	10	6015384482	6015921589	537107	967.20	969.18	24	72	-1	11.37	11.37
Saccade L	1	10	6015921589	6015941458	19869	959.63	994.09	961.09	1000.76	0.07	6.92	1.00	3.37	117.22	5.68	57.12
Saccade R	1	10	6015921589	6015941458	19869	959.63	994.09	961.09	1000.76	0.07	6.92	1.00	3.37	117.22	5.68	57.12
Fixation L	1	11	6015941458	6016319312	377854	971.67	1011.20	17	56	-1	12.35	12.35
Fixation R	1	11	6015941458	6016319312	377854	971.67	1011.20	17	56	-1	12.45	12.45
Saccade L	1	11	6016319312	6016359075	39763	977.00	981.64	1061.85	658.17	2.96	193.84	0.50	74.37	4800.99	-4619.17	4188.29
Saccade R	1	11	6016319312	6016359075	39763	977.00	981.64	1061.85	658.17	2.96	193.84	0.50	74.37	4800.99	-4619.17	4188.29
Fixation L	1	12	6016359075	6016637624	278549	1064.26	664.62	7	26	-1	12.71	12.71
Fixation R	1	12	6016359075	6016637624	278549	1064.26	664.62	7	26	-1	12.46	12.46
Saccade L	1	12	6016637624	6016756928	119304	1069.03	669.43	849.53	535.06	5.14	269.40	0.33	43.12	6642.78	-6485.08	2234.68
Saccade R	1	12	6016637624	6016756928	119304	1069.03	669.43	849.53	535.06	5.14	269.40	0.33	43.12	6642.78	-6485.08	2234.68
