[BeGaze]
Converted from:	C:\Documents and Settings\iViewX\Desktop\EXPERIMENTATIONS\Experiments\results\finaleart\S9H29221-finaleart-1.idf
Date:	27.03.2019 16:02:14
Version:	BeGaze 2.5.77
Sample Rate:	50
Subject:	S9H29221
Description:	steven

Table Header for Fixations:
Event Type	Trial	Number	Start	End	Duration	Location X	Location Y	Dispersion X	Dispersion Y	Plane	Avg. Pupil Size X	Avg. Pupil Size Y

Table Header for Saccades:
Event Type	Trial	Number	Start	End	Duration	Start Loc.X	Start Loc.Y	End Loc.X	End Loc.Y	Amplitude	Peak Speed	Peak Speed At	Average Speed	Peak Accel.	Peak Decel.	Average Accel.

Table Header for Blinks:
Event Type	Trial	Number	Start	End	Duration

Table Header for User Events:
Event Type	Trial	Number	Start	Description

UserEvent	1	1	5721500282	# Message: REJECTED_cezanne-still-life-with-green-pot-and-pewter-1870.jpg
Saccade L	1	1	5721518194	5721577815	59621	523.79	733.82	439.86	884.37	2.22	123.18	1.00	37.16	3033.29	-2967.69	1647.01
Saccade R	1	1	5721518194	5721577815	59621	523.79	733.82	439.86	884.37	2.22	123.18	1.00	37.16	3033.29	-2967.69	1647.01
Fixation L	1	1	5721577815	5721836443	258628	438.62	878.12	18	8	-1	16.11	16.11
Fixation R	1	1	5721577815	5721836443	258628	438.62	878.12	18	8	-1	16.27	16.27
Saccade L	1	2	5721836443	5721896047	59604	440.23	877.54	831.71	569.70	5.11	188.71	0.67	85.78	4690.72	-4535.04	3623.76
Saccade R	1	2	5721836443	5721896047	59604	440.23	877.54	831.71	569.70	5.11	188.71	0.67	85.78	4690.72	-4535.04	3623.76
Fixation L	1	2	5721896047	5722274020	377973	830.22	570.42	15	15	-1	16.01	16.01
Fixation R	1	2	5721896047	5722274020	377973	830.22	570.42	15	15	-1	16.16	16.16
Saccade L	1	3	5722274020	5722385690	111670	824.89	560.67	1007.20	564.69	6.13	184.41	1.00	54.89	4572.03	-4404.08	3184.85
Saccade R	1	3	5722274020	5722385690	111670	824.89	560.67	1007.20	564.69	6.13	184.41	1.00	54.89	4572.03	-4404.08	3184.85
Fixation L	1	3	5722385690	5722671762	286072	1038.86	590.51	38	41	-1	15.92	15.92
Fixation R	1	3	5722385690	5722671762	286072	1038.86	590.51	38	41	-1	15.67	15.67
Saccade L	1	4	5722671762	5722691631	19869	1039.22	606.06	997.60	635.26	0.44	51.44	1.00	22.34	1127.98	-990.19	839.63
Saccade R	1	4	5722671762	5722691631	19869	1039.22	606.06	997.60	635.26	0.44	51.44	1.00	22.34	1127.98	-990.19	839.63
Fixation L	1	4	5722691631	5722870743	179112	963.43	647.18	44	20	-1	15.47	15.47
Fixation R	1	4	5722691631	5722870743	179112	963.43	647.18	44	20	-1	15.19	15.19
Saccade L	1	5	5722870743	5722890632	19889	952.80	655.53	906.57	651.04	0.49	46.99	1.00	24.86	1135.63	-970.44	1057.28
Saccade R	1	5	5722870743	5722890632	19889	952.80	655.53	906.57	651.04	0.49	46.99	1.00	24.86	1135.63	-970.44	1057.28
Fixation L	1	5	5722890632	5723308218	417586	864.17	627.56	48	32	-1	15.29	15.29
Fixation R	1	5	5722890632	5723308218	417586	864.17	627.56	48	32	-1	15.13	15.13
Saccade L	1	6	5723308218	5723367965	59747	868.56	625.53	1306.50	489.24	4.77	257.38	0.67	79.90	6394.71	-6253.15	3714.74
Saccade R	1	6	5723308218	5723367965	59747	868.56	625.53	1306.50	489.24	4.77	257.38	0.67	79.90	6394.71	-6253.15	3714.74
Fixation L	1	6	5723367965	5723626452	258487	1287.77	485.53	26	20	-1	15.06	15.06
Fixation R	1	6	5723367965	5723626452	258487	1287.77	485.53	26	20	-1	14.77	14.77
Saccade L	1	7	5723626452	5723666326	39874	1280.47	484.57	1445.52	389.67	1.64	117.82	1.00	41.05	2931.31	-2867.29	2350.17
Saccade R	1	7	5723626452	5723666326	39874	1280.47	484.57	1445.52	389.67	1.64	117.82	1.00	41.05	2931.31	-2867.29	2350.17
Fixation L	1	7	5723666326	5723825450	159124	1441.32	388.64	80	9	-1	15.30	15.30
Fixation R	1	7	5723666326	5723825450	159124	1441.32	388.64	80	9	-1	14.65	14.65
Saccade L	1	8	5723825450	5723865210	39760	1374.35	394.11	1090.93	381.31	3.59	249.66	0.50	90.19	6106.99	-4246.02	3032.52
Saccade R	1	8	5723825450	5723865210	39760	1374.35	394.11	1090.93	381.31	3.59	249.66	0.50	90.19	6106.99	-4246.02	3032.52
Fixation L	1	8	5723865210	5724083957	218747	1040.04	375.19	78	11	-1	15.08	15.08
Fixation R	1	8	5723865210	5724083957	218747	1040.04	375.19	78	11	-1	14.64	14.64
Saccade L	1	9	5724083957	5724103804	19847	1040.71	376.23	996.21	382.34	0.49	46.11	1.00	24.94	1097.96	-877.52	987.12
Saccade R	1	9	5724083957	5724103804	19847	1040.71	376.23	996.21	382.34	0.49	46.11	1.00	24.94	1097.96	-877.52	987.12
Fixation L	1	9	5724103804	5724322670	218866	1019.71	344.15	39	52	-1	15.18	15.18
Fixation R	1	9	5724103804	5724322670	218866	1019.71	344.15	39	52	-1	14.51	14.51
Blink L	1	1	5724322670	5724481790	159120
Blink R	1	1	5724322670	5724481790	159120
Fixation L	1	10	5724481790	5724720406	238616	1491.44	277.40	18	56	-1	16.06	16.06
Fixation R	1	10	5724481790	5724720406	238616	1491.44	277.40	18	56	-1	15.38	15.38
Saccade L	1	10	5724720406	5724740408	20002	1495.68	261.24	1412.10	260.29	0.82	84.54	1.00	41.21	1961.72	-1901.39	1859.66
Saccade R	1	10	5724720406	5724740408	20002	1495.68	261.24	1412.10	260.29	0.82	84.54	1.00	41.21	1961.72	-1901.39	1859.66
Fixation L	1	11	5724740408	5724919397	178989	1346.97	256.67	78	20	-1	15.78	15.78
Fixation R	1	11	5724740408	5724919397	178989	1346.97	256.67	78	20	-1	15.15	15.15
Saccade L	1	11	5724919397	5724939275	19878	1343.56	246.21	1342.15	244.55	0.07	4.87	1.00	3.42	51.50	-66.52	54.88
Saccade R	1	11	5724919397	5724939275	19878	1343.56	246.21	1342.15	244.55	0.07	4.87	1.00	3.42	51.50	-66.52	54.88
Fixation L	1	12	5724939275	5725058635	119360	1346.12	240.88	7	5	-1	15.50	15.50
Fixation R	1	12	5724939275	5725058635	119360	1346.12	240.88	7	5	-1	14.78	14.78
Saccade L	1	12	5725058635	5725118258	59623	1348.92	242.45	631.26	575.30	8.19	294.27	0.33	137.43	7302.57	-6897.96	5746.32
Saccade R	1	12	5725058635	5725118258	59623	1348.92	242.45	631.26	575.30	8.19	294.27	0.33	137.43	7302.57	-6897.96	5746.32
Fixation L	1	13	5725118258	5725277381	159123	624.87	582.40	12	17	-1	15.68	15.68
Fixation R	1	13	5725118258	5725277381	159123	624.87	582.40	12	17	-1	14.92	14.92
Saccade L	1	13	5725277381	5725317134	39753	622.51	574.69	364.64	589.25	2.19	144.59	0.50	55.06	3542.33	-3433.82	3112.05
Saccade R	1	13	5725277381	5725317134	39753	622.51	574.69	364.64	589.25	2.19	144.59	0.50	55.06	3542.33	-3433.82	3112.05
Fixation L	1	14	5725317134	5725496115	178981	378.88	617.18	24	47	-1	15.40	15.40
Fixation R	1	14	5725317134	5725496115	178981	378.88	617.18	24	47	-1	14.93	14.93
