[BeGaze]
Converted from:	C:\Documents and Settings\iViewX\Desktop\EXPERIMENTATIONS\Experiments\results\finaleart\S9H29221-finaleart-1.idf
Date:	27.03.2019 16:02:27
Version:	BeGaze 2.5.77
Sample Rate:	50
Subject:	S9H29221
Description:	steven

Table Header for Fixations:
Event Type	Trial	Number	Start	End	Duration	Location X	Location Y	Dispersion X	Dispersion Y	Plane	Avg. Pupil Size X	Avg. Pupil Size Y

Table Header for Saccades:
Event Type	Trial	Number	Start	End	Duration	Start Loc.X	Start Loc.Y	End Loc.X	End Loc.Y	Amplitude	Peak Speed	Peak Speed At	Average Speed	Peak Accel.	Peak Decel.	Average Accel.

Table Header for Blinks:
Event Type	Trial	Number	Start	End	Duration

Table Header for User Events:
Event Type	Trial	Number	Start	Description

UserEvent	1	1	5799418960	# Message: void.jpg
Fixation L	1	1	5799427463	5799656197	228734	966.62	666.70	7	19	-1	12.32	12.32
Fixation R	1	1	5799427463	5799656197	228734	966.62	666.70	7	19	-1	12.75	12.75
Saccade L	1	1	5799656197	5799685946	29749	968.07	657.13	567.35	672.78	3.13	405.01	1.00	105.13	9904.65	-10028.28	6656.81
Saccade R	1	1	5799656197	5799685946	29749	968.07	657.13	567.35	672.78	3.13	405.01	1.00	105.13	9904.65	-10028.28	6656.81
Fixation L	1	2	5799685946	5800083799	397853	576.54	681.34	24	20	-1	12.26	12.26
Fixation R	1	2	5799685946	5800083799	397853	576.54	681.34	24	20	-1	12.84	12.84
Blink L	1	1	5800083799	5800223060	139261
Blink R	1	1	5800083799	5800223060	139261
Fixation L	1	3	5800223060	5800425959	202899	865.23	473.50	69	23	-1	13.52	13.52
Fixation R	1	3	5800223060	5800425959	202899	865.23	473.50	69	23	-1	12.34	12.34
Blink L	1	2	5800425959	5800760019	334060
Blink R	1	2	5800425959	5800760019	334060
Fixation L	1	4	5800760019	5801257379	497360	931.44	424.04	68	17	-1	13.84	13.84
Fixation R	1	4	5800760019	5801257379	497360	931.44	424.04	68	17	-1	12.70	12.70
Saccade L	1	2	5801257379	5801297112	39733	987.71	425.57	1064.90	423.37	0.85	47.45	0.50	21.45	1108.27	-1107.54	711.10
Saccade R	1	2	5801257379	5801297112	39733	987.71	425.57	1064.90	423.37	0.85	47.45	0.50	21.45	1108.27	-1107.54	711.10
Fixation L	1	5	5801297112	5801396485	99373	1106.28	428.31	90	9	-1	13.56	13.56
Fixation R	1	5	5801297112	5801396485	99373	1106.28	428.31	90	9	-1	12.52	12.52
Saccade L	1	3	5801396485	5801436359	39874	1154.98	432.08	1163.45	430.99	0.33	17.47	0.00	8.22	0.00	-382.78	129.10
Saccade R	1	3	5801396485	5801436359	39874	1154.98	432.08	1163.45	430.99	0.33	17.47	0.00	8.22	0.00	-382.78	129.10
