[BeGaze]
Converted from:	C:\Documents and Settings\iViewX\Desktop\EXPERIMENTATIONS\Experiments\results\finaleart\S9H29221-finaleart-1.idf
Date:	27.03.2019 16:02:24
Version:	BeGaze 2.5.77
Sample Rate:	50
Subject:	S9H29221
Description:	steven

Table Header for Fixations:
Event Type	Trial	Number	Start	End	Duration	Location X	Location Y	Dispersion X	Dispersion Y	Plane	Avg. Pupil Size X	Avg. Pupil Size Y

Table Header for Saccades:
Event Type	Trial	Number	Start	End	Duration	Start Loc.X	Start Loc.Y	End Loc.X	End Loc.Y	Amplitude	Peak Speed	Peak Speed At	Average Speed	Peak Accel.	Peak Decel.	Average Accel.

Table Header for Blinks:
Event Type	Trial	Number	Start	End	Duration

Table Header for User Events:
Event Type	Trial	Number	Start	Description

UserEvent	1	1	5781033452	# Message: void.jpg
Blink L	1	1	5781049092	5781128609	79517
Blink R	1	1	5781049092	5781128609	79517
Fixation L	1	1	5781128609	5781566201	437592	781.40	498.41	14	17	-1	14.19	14.19
Fixation R	1	1	5781128609	5781566201	437592	781.40	498.41	14	17	-1	13.51	13.51
Saccade L	1	1	5781566201	5781605931	39730	787.87	494.87	1118.23	590.63	3.31	245.56	1.00	83.20	5998.90	-5854.08	3899.19
Saccade R	1	1	5781566201	5781605931	39730	787.87	494.87	1118.23	590.63	3.31	245.56	1.00	83.20	5998.90	-5854.08	3899.19
Fixation L	1	2	5781605931	5782262277	656346	1153.83	620.68	44	54	-1	13.08	13.08
Fixation R	1	2	5781605931	5782262277	656346	1153.83	620.68	44	54	-1	12.47	12.47
Saccade L	1	2	5782262277	5782282153	19876	1155.74	588.13	1156.54	576.57	0.19	19.84	0.00	9.69	189.95	-419.58	253.70
Saccade R	1	2	5782262277	5782282153	19876	1155.74	588.13	1156.54	576.57	0.19	19.84	0.00	9.69	189.95	-419.58	253.70
Fixation L	1	3	5782282153	5782461268	179115	1163.99	555.97	21	70	-1	12.87	12.87
Fixation R	1	3	5782282153	5782461268	179115	1163.99	555.97	21	70	-1	12.22	12.22
Saccade L	1	3	5782461268	5782481147	19879	1177.84	506.12	1185.12	497.68	0.27	20.62	0.00	13.42	48.94	-203.76	117.51
Saccade R	1	3	5782461268	5782481147	19879	1177.84	506.12	1185.12	497.68	0.27	20.62	0.00	13.42	48.94	-203.76	117.51
Fixation L	1	4	5782481147	5782620381	139234	1211.89	472.73	52	44	-1	12.76	12.76
Fixation R	1	4	5782481147	5782620381	139234	1211.89	472.73	52	44	-1	12.04	12.04
Saccade L	1	4	5782620381	5782640256	19875	1237.89	453.51	1238.61	448.74	0.12	11.65	0.00	6.24	-1.00	-203.82	74.75
Saccade R	1	4	5782620381	5782640256	19875	1237.89	453.51	1238.61	448.74	0.12	11.65	0.00	6.24	-1.00	-203.82	74.75
Fixation L	1	5	5782640256	5782759631	119375	1223.05	441.07	82	13	-1	12.71	12.71
Fixation R	1	5	5782640256	5782759631	119375	1223.05	441.07	82	13	-1	11.92	11.92
Saccade L	1	5	5782759631	5782779499	19868	1156.82	437.29	1122.26	437.19	0.66	63.49	0.00	33.12	481.96	-1129.13	745.36
Saccade R	1	5	5782759631	5782779499	19868	1156.82	437.29	1122.26	437.19	0.66	63.49	0.00	33.12	481.96	-1129.13	745.36
Fixation L	1	6	5782779499	5782918766	139267	1085.86	445.00	75	17	-1	12.68	12.68
Fixation R	1	6	5782779499	5782918766	139267	1085.86	445.00	75	17	-1	11.65	11.65
Saccade L	1	6	5782918766	5783037991	119225	1046.71	455.11	770.23	465.59	4.67	76.24	1.00	39.17	1634.95	-598.17	510.65
Saccade R	1	6	5782918766	5783037991	119225	1046.71	455.11	770.23	465.59	4.67	76.24	1.00	39.17	1634.95	-598.17	510.65
