[BeGaze]
Converted from:	C:\Documents and Settings\iViewX\Desktop\EXPERIMENTATIONS\Experiments\results\finaleart\S9H29221-finaleart-1.idf
Date:	27.03.2019 16:04:19
Version:	BeGaze 2.5.77
Sample Rate:	50
Subject:	S9H29221
Description:	steven

Table Header for Fixations:
Event Type	Trial	Number	Start	End	Duration	Location X	Location Y	Dispersion X	Dispersion Y	Plane	Avg. Pupil Size X	Avg. Pupil Size Y

Table Header for Saccades:
Event Type	Trial	Number	Start	End	Duration	Start Loc.X	Start Loc.Y	End Loc.X	End Loc.Y	Amplitude	Peak Speed	Peak Speed At	Average Speed	Peak Accel.	Peak Decel.	Average Accel.

Table Header for Blinks:
Event Type	Trial	Number	Start	End	Duration

Table Header for User Events:
Event Type	Trial	Number	Start	Description

UserEvent	1	1	6917012877	# Message: void.jpg
Fixation L	1	1	6917016745	6917553834	537089	549.85	791.71	43	48	-1	10.26	10.26
Fixation R	1	1	6917016745	6917553834	537089	549.85	791.71	43	48	-1	10.49	10.49
Saccade L	1	1	6917553834	6917593568	39734	549.04	763.75	909.39	571.51	4.26	214.66	0.50	107.29	5225.42	-4920.65	4388.48
Saccade R	1	1	6917553834	6917593568	39734	549.04	763.75	909.39	571.51	4.26	214.66	0.50	107.29	5225.42	-4920.65	4388.48
Fixation L	1	2	6917593568	6918255015	661447	958.71	564.21	64	35	-1	10.80	10.80
Fixation R	1	2	6917593568	6918255015	661447	958.71	564.21	64	35	-1	10.66	10.66
Saccade L	1	2	6918255015	6918309686	54671	966.22	540.06	991.56	495.43	0.95	38.26	1.00	17.40	830.39	-676.15	514.33
Saccade R	1	2	6918255015	6918309686	54671	966.22	540.06	991.56	495.43	0.95	38.26	1.00	17.40	830.39	-676.15	514.33
Fixation L	1	3	6918309686	6918528419	218733	1030.53	474.41	52	37	-1	12.29	12.29
Fixation R	1	3	6918309686	6918528419	218733	1030.53	474.41	52	37	-1	11.56	11.56
Saccade L	1	3	6918528419	6918548277	19858	1044.06	459.64	1048.24	453.11	0.10	7.84	1.00	4.84	129.79	47.05	96.71
Saccade R	1	3	6918528419	6918548277	19858	1044.06	459.64	1048.24	453.11	0.10	7.84	1.00	4.84	129.79	47.05	96.71
Fixation L	1	4	6918548277	6918985878	437601	1094.01	439.37	78	19	-1	13.15	13.15
Fixation R	1	4	6918548277	6918985878	437601	1094.01	439.37	78	19	-1	12.47	12.47
Saccade L	1	4	6918985878	6919045503	59625	1126.82	433.54	1126.62	432.13	0.12	3.27	0.00	2.07	13.74	-52.38	18.08
Saccade R	1	4	6918985878	6919045503	59625	1126.82	433.54	1126.62	432.13	0.12	3.27	0.00	2.07	13.74	-52.38	18.08
