[BeGaze]
Converted from:	C:\Documents and Settings\iViewX\Desktop\EXPERIMENTATIONS\Experiments\results\finaleart\S9H29221-finaleart-1.idf
Date:	27.03.2019 16:02:49
Version:	BeGaze 2.5.77
Sample Rate:	50
Subject:	S9H29221
Description:	steven

Table Header for Fixations:
Event Type	Trial	Number	Start	End	Duration	Location X	Location Y	Dispersion X	Dispersion Y	Plane	Avg. Pupil Size X	Avg. Pupil Size Y

Table Header for Saccades:
Event Type	Trial	Number	Start	End	Duration	Start Loc.X	Start Loc.Y	End Loc.X	End Loc.Y	Amplitude	Peak Speed	Peak Speed At	Average Speed	Peak Accel.	Peak Decel.	Average Accel.

Table Header for Blinks:
Event Type	Trial	Number	Start	End	Duration

Table Header for User Events:
Event Type	Trial	Number	Start	Description

UserEvent	1	1	6023024634	# Message: void.jpg
Fixation L	1	1	6023042126	6023857712	815586	247.49	571.88	40	17	-1	12.51	12.51
Fixation R	1	1	6023042126	6023857712	815586	247.49	571.88	40	17	-1	14.10	14.10
Saccade L	1	1	6023857712	6023917329	59617	247.94	577.10	703.42	513.43	4.78	176.83	0.67	80.25	4315.67	-4221.91	3322.11
Saccade R	1	1	6023857712	6023917329	59617	247.94	577.10	703.42	513.43	4.78	176.83	0.67	80.25	4315.67	-4221.91	3322.11
Fixation L	1	2	6023917329	6024394899	477570	720.42	514.25	83	14	-1	11.56	11.56
Fixation R	1	2	6023917329	6024394899	477570	720.42	514.25	83	14	-1	13.04	13.04
Saccade L	1	2	6024394899	6024514055	119156	786.46	505.78	890.91	481.56	3.45	87.53	1.00	28.91	2116.50	-1910.26	927.78
Saccade R	1	2	6024394899	6024514055	119156	786.46	505.78	890.91	481.56	3.45	87.53	1.00	28.91	2116.50	-1910.26	927.78
Fixation L	1	3	6024514055	6024693062	179007	954.13	473.47	76	14	-1	11.88	11.88
Fixation R	1	3	6024514055	6024693062	179007	954.13	473.47	76	14	-1	12.76	12.76
Saccade L	1	3	6024693062	6024732782	39720	967.31	466.79	1064.27	462.38	1.00	87.04	1.00	25.06	2122.54	-1855.32	1121.53
Saccade R	1	3	6024693062	6024732782	39720	967.31	466.79	1064.27	462.38	1.00	87.04	1.00	25.06	2122.54	-1855.32	1121.53
Fixation L	1	4	6024732782	6024872037	139255	1092.58	447.28	43	28	-1	12.33	12.33
Fixation R	1	4	6024732782	6024872037	139255	1092.58	447.28	43	28	-1	12.99	12.99
Saccade L	1	4	6024872037	6024911791	39754	1107.75	434.07	1238.03	428.56	1.80	90.26	0.50	45.35	2157.10	-790.13	993.79
Saccade R	1	4	6024872037	6024911791	39754	1107.75	434.07	1238.03	428.56	1.80	90.26	0.50	45.35	2157.10	-790.13	993.79
Fixation L	1	5	6024911791	6025031151	119360	1312.13	427.01	95	3	-1	12.53	12.53
Fixation R	1	5	6024911791	6025031151	119360	1312.13	427.01	95	3	-1	13.04	13.04
Saccade L	1	5	6025031151	6025051020	19869	1333.71	426.41	1411.87	423.75	0.65	79.11	1.00	32.53	1846.82	0.00	923.41
Saccade R	1	5	6025031151	6025051020	19869	1333.71	426.41	1411.87	423.75	0.65	79.11	1.00	32.53	1846.82	0.00	923.41
