[BeGaze]
Converted from:	C:\Documents and Settings\iViewX\Desktop\EXPERIMENTATIONS\Experiments\results\finaleart\S9H29221-finaleart-1.idf
Date:	27.03.2019 16:03:39
Version:	BeGaze 2.5.77
Sample Rate:	50
Subject:	S9H29221
Description:	steven

Table Header for Fixations:
Event Type	Trial	Number	Start	End	Duration	Location X	Location Y	Dispersion X	Dispersion Y	Plane	Avg. Pupil Size X	Avg. Pupil Size Y

Table Header for Saccades:
Event Type	Trial	Number	Start	End	Duration	Start Loc.X	Start Loc.Y	End Loc.X	End Loc.Y	Amplitude	Peak Speed	Peak Speed At	Average Speed	Peak Accel.	Peak Decel.	Average Accel.

Table Header for Blinks:
Event Type	Trial	Number	Start	End	Duration

Table Header for User Events:
Event Type	Trial	Number	Start	Description

UserEvent	1	1	6582078881	# Message: void.jpg
Fixation L	1	1	6582098377	6582279815	181438	999.02	331.69	5	14	-1	13.82	13.82
Fixation R	1	1	6582098377	6582279815	181438	999.02	331.69	5	14	-1	12.72	12.72
Blink L	1	1	6582279815	6582535987	256172
Blink R	1	1	6582279815	6582535987	256172
Fixation L	1	2	6582535987	6582714968	178981	1147.55	171.23	57	37	-1	13.79	13.79
Fixation R	1	2	6582535987	6582714968	178981	1147.55	171.23	57	37	-1	13.09	13.09
Saccade L	1	1	6582714968	6582734835	19867	1174.99	148.07	1173.11	140.16	0.13	8.23	1.00	6.75	71.00	-21.84	53.51
Saccade R	1	1	6582714968	6582734835	19867	1174.99	148.07	1173.11	140.16	0.13	8.23	1.00	6.75	71.00	-21.84	53.51
Fixation L	1	3	6582734835	6582913870	179035	1183.43	139.80	17	20	-1	13.62	13.62
Fixation R	1	3	6582734835	6582913870	179035	1183.43	139.80	17	20	-1	12.96	12.96
Blink R	1	2	6583072946	6583172439	99493
Fixation R	1	4	6583172439	6583309741	137302	948.92	429.18	19	4	-1	13.25	13.25
Saccade R	1	2	6583309741	6583431064	121323	958.52	431.41	1157.29	378.98	5.33	105.48	0.18	43.92	2178.08	-2592.26	1756.09
Fixation L	1	4	6583431064	6583590172	159108	1127.75	367.47	67	24	-1	13.27	13.27
Fixation R	1	5	6583431064	6583590172	159108	1127.75	367.47	67	24	-1	12.52	12.52
Saccade L	1	2	6583590172	6583649796	59624	1167.37	355.57	1212.96	310.22	1.31	35.27	0.00	22.04	239.29	-241.11	150.61
Saccade R	1	3	6583590172	6583649796	59624	1167.37	355.57	1212.96	310.22	1.31	35.27	0.00	22.04	239.29	-241.11	150.61
Fixation L	1	5	6583649796	6583769172	119376	1248.69	283.21	49	44	-1	12.33	12.33
Fixation R	1	6	6583649796	6583769172	119376	1248.69	283.21	49	44	-1	11.73	11.73
Saccade L	1	3	6583769172	6583789036	19864	1262.43	270.29	1275.24	269.25	0.17	13.85	1.00	8.55	-21.06	-67.30	43.01
Saccade R	1	4	6583769172	6583789036	19864	1262.43	270.29	1275.24	269.25	0.17	13.85	1.00	8.55	-21.06	-67.30	43.01
Fixation L	1	6	6583789036	6583987909	198873	1299.61	249.29	49	31	-1	12.04	12.04
Fixation R	1	7	6583789036	6583987909	198873	1299.61	249.29	49	31	-1	11.28	11.28
Saccade L	1	4	6583987909	6584067523	79614	1321.52	238.84	1369.83	237.56	0.74	18.27	0.25	9.28	405.20	-416.16	267.77
Saccade R	1	5	6583987909	6584067523	79614	1321.52	238.84	1369.83	237.56	0.74	18.27	0.25	9.28	405.20	-416.16	267.77
