[BeGaze]
Converted from:	C:\Documents and Settings\iViewX\Desktop\EXPERIMENTATIONS\Experiments\results\finaleart\S9H29221-finaleart-1.idf
Date:	27.03.2019 16:02:23
Version:	BeGaze 2.5.77
Sample Rate:	50
Subject:	S9H29221
Description:	steven

Table Header for Fixations:
Event Type	Trial	Number	Start	End	Duration	Location X	Location Y	Dispersion X	Dispersion Y	Plane	Avg. Pupil Size X	Avg. Pupil Size Y

Table Header for Saccades:
Event Type	Trial	Number	Start	End	Duration	Start Loc.X	Start Loc.Y	End Loc.X	End Loc.Y	Amplitude	Peak Speed	Peak Speed At	Average Speed	Peak Accel.	Peak Decel.	Average Accel.

Table Header for Blinks:
Event Type	Trial	Number	Start	End	Duration

Table Header for User Events:
Event Type	Trial	Number	Start	Description

UserEvent	1	1	5776936706	# Message: Rapids_on_the_Petite_Creuse_at_Fresselines_Monet_1889.jpg
Fixation L	1	1	5776951669	5777142374	190705	999.14	580.03	1	10	-1	15.57	15.57
Fixation R	1	1	5776951669	5777142374	190705	999.14	580.03	1	10	-1	14.63	14.63
Saccade L	1	1	5777142374	5777170537	28163	999.10	573.33	800.11	444.97	1.77	239.42	1.00	63.00	5941.39	-5923.69	4006.75
Saccade R	1	1	5777142374	5777170537	28163	999.10	573.33	800.11	444.97	1.77	239.42	1.00	63.00	5941.39	-5923.69	4006.75
Fixation L	1	2	5777170537	5777289765	119228	797.68	440.75	13	16	-1	15.04	15.04
Fixation R	1	2	5777170537	5777289765	119228	797.68	440.75	13	16	-1	14.41	14.41
Saccade L	1	2	5777289765	5777365804	76039	786.39	428.20	562.39	333.34	4.90	157.83	0.26	64.46	3854.08	-2570.49	2569.73
Saccade R	1	2	5777289765	5777365804	76039	786.39	428.20	562.39	333.34	4.90	157.83	0.26	64.46	3854.08	-2570.49	2569.73
Fixation L	1	3	5777365804	5777488804	123000	550.70	291.75	21	59	-1	14.68	14.68
Fixation R	1	3	5777365804	5777488804	123000	550.70	291.75	21	59	-1	13.99	13.99
Saccade L	1	3	5777488804	5777528515	39711	540.79	273.39	558.61	89.94	2.28	186.39	1.00	57.52	4543.17	-4364.65	3131.92
Saccade R	1	3	5777488804	5777528515	39711	540.79	273.39	558.61	89.94	2.28	186.39	1.00	57.52	4543.17	-4364.65	3131.92
Fixation L	1	4	5777528515	5777687624	159109	581.46	74.79	38	21	-1	14.28	14.28
Fixation R	1	4	5777528515	5777687624	159109	581.46	74.79	38	21	-1	14.23	14.23
Saccade L	1	4	5777687624	5777727362	39738	597.00	79.79	913.43	442.41	4.15	249.27	1.00	104.41	6064.55	-6051.94	5860.34
Saccade R	1	4	5777687624	5777727362	39738	597.00	79.79	913.43	442.41	4.15	249.27	1.00	104.41	6064.55	-6051.94	5860.34
Fixation L	1	5	5777727362	5778005866	278504	914.58	450.70	6	13	-1	14.48	14.48
Fixation R	1	5	5777727362	5778005866	278504	914.58	450.70	6	13	-1	14.47	14.47
Saccade L	1	5	5778005866	5778045605	39739	911.50	448.64	702.32	502.60	1.97	139.00	1.00	49.46	3389.35	-3373.65	2536.46
Saccade R	1	5	5778005866	5778045605	39739	911.50	448.64	702.32	502.60	1.97	139.00	1.00	49.46	3389.35	-3373.65	2536.46
Fixation L	1	6	5778045605	5779358439	1312834	707.72	515.44	35	39	-1	13.54	13.54
Fixation R	1	6	5778045605	5779358439	1312834	707.72	515.44	35	39	-1	13.10	13.10
Saccade L	1	6	5779358439	5779418060	59621	720.58	502.03	1134.99	485.11	4.37	192.53	0.67	73.37	4591.79	-4637.38	3188.17
Saccade R	1	6	5779358439	5779418060	59621	720.58	502.03	1134.99	485.11	4.37	192.53	0.67	73.37	4591.79	-4637.38	3188.17
Fixation L	1	7	5779418060	5779795892	377832	1128.30	453.54	22	74	-1	14.19	14.19
Fixation R	1	7	5779418060	5779795892	377832	1128.30	453.54	22	74	-1	13.44	13.44
Saccade L	1	7	5779795892	5779815900	20008	1112.57	410.69	1114.20	344.60	0.56	66.88	1.00	27.80	1604.49	-1641.04	1266.89
Saccade R	1	7	5779795892	5779815900	20008	1112.57	410.69	1114.20	344.60	0.56	66.88	1.00	27.80	1604.49	-1641.04	1266.89
Fixation L	1	8	5779815900	5780392626	576726	1086.00	341.14	44	14	-1	13.16	13.16
Fixation R	1	8	5779815900	5780392626	576726	1086.00	341.14	44	14	-1	11.88	11.88
Saccade L	1	8	5780392626	5780432506	39880	1070.52	350.97	830.46	348.91	2.27	192.88	1.00	57.03	4767.37	-4804.91	2765.80
Saccade R	1	8	5780392626	5780432506	39880	1070.52	350.97	830.46	348.91	2.27	192.88	1.00	57.03	4767.37	-4804.91	2765.80
Fixation L	1	9	5780432506	5780949583	517077	792.26	326.95	44	37	-1	13.48	13.48
Fixation R	1	9	5780432506	5780949583	517077	792.26	326.95	44	37	-1	12.24	12.24
Saccade L	1	9	5780949583	5780969463	19880	790.30	317.56	790.82	400.74	0.62	84.14	1.00	30.98	2036.10	0.00	1018.05
Saccade R	1	9	5780949583	5780969463	19880	790.30	317.56	790.82	400.74	0.62	84.14	1.00	30.98	2036.10	0.00	1018.05
