[BeGaze]
Converted from:	C:\Documents and Settings\iViewX\Desktop\EXPERIMENTATIONS\Experiments\results\finaleart\S9H29221-finaleart-1.idf
Date:	27.03.2019 16:04:02
Version:	BeGaze 2.5.77
Sample Rate:	50
Subject:	S9H29221
Description:	steven

Table Header for Fixations:
Event Type	Trial	Number	Start	End	Duration	Location X	Location Y	Dispersion X	Dispersion Y	Plane	Avg. Pupil Size X	Avg. Pupil Size Y

Table Header for Saccades:
Event Type	Trial	Number	Start	End	Duration	Start Loc.X	Start Loc.Y	End Loc.X	End Loc.Y	Amplitude	Peak Speed	Peak Speed At	Average Speed	Peak Accel.	Peak Decel.	Average Accel.

Table Header for Blinks:
Event Type	Trial	Number	Start	End	Duration

Table Header for User Events:
Event Type	Trial	Number	Start	Description

UserEvent	1	1	6818410158	# Message: void.jpg
Fixation L	1	1	6818421950	6818939041	517091	934.41	469.27	26	59	-1	15.91	15.91
Fixation R	1	1	6818421950	6818939041	517091	934.41	469.27	26	59	-1	14.05	14.05
Saccade L	1	1	6818939041	6818958926	19885	930.26	438.41	946.47	332.79	0.70	108.09	1.00	35.26	2684.76	-2656.67	1805.47
Saccade R	1	1	6818939041	6818958926	19885	930.26	438.41	946.47	332.79	0.70	108.09	1.00	35.26	2684.76	-2656.67	1805.47
Fixation L	1	2	6818958926	6819595375	636449	979.34	322.02	40	45	-1	14.66	14.66
Fixation R	1	2	6818958926	6819595375	636449	979.34	322.02	40	45	-1	13.19	13.19
Saccade L	1	2	6819595375	6819636873	41498	987.33	291.56	990.70	265.79	0.60	26.29	1.00	14.56	314.43	-641.33	424.93
Saccade R	1	2	6819595375	6819636873	41498	987.33	291.56	990.70	265.79	0.60	26.29	1.00	14.56	314.43	-641.33	424.93
Fixation L	1	3	6819636873	6819893745	256872	995.94	258.28	10	25	-1	14.45	14.45
Fixation R	1	3	6819636873	6819893745	256872	995.94	258.28	10	25	-1	13.11	13.11
Saccade L	1	3	6819893745	6819933512	39767	1001.67	240.47	995.24	-11.44	2.21	129.86	0.50	55.61	3105.35	-3009.94	3011.66
Saccade R	1	3	6819893745	6819933512	39767	1001.67	240.47	995.24	-11.44	2.21	129.86	0.50	55.61	3105.35	-3009.94	3011.66
Fixation L	1	4	6819933512	6820192108	258596	971.96	0.79	34	47	-1	14.78	14.78
Fixation R	1	4	6819933512	6820192108	258596	971.96	0.79	34	47	-1	13.72	13.72
Saccade L	1	4	6820192108	6820271613	79505	960.96	28.71	229.38	26.51	8.83	246.82	0.50	111.02	6154.42	-4890.06	3700.76
Saccade R	1	4	6820192108	6820271613	79505	960.96	28.71	229.38	26.51	8.83	246.82	0.50	111.02	6154.42	-4890.06	3700.76
Fixation L	1	5	6820271613	6820410859	139246	247.77	61.87	37	60	-1	14.93	14.93
Fixation R	1	5	6820271613	6820410859	139246	247.77	61.87	37	60	-1	14.05	14.05
Saccade L	1	5	6820410859	6820430722	19863	248.51	81.57	264.02	81.34	0.43	26.36	0.00	21.53	0.00	-170.66	85.33
Saccade R	1	5	6820410859	6820430722	19863	248.51	81.57	264.02	81.34	0.43	26.36	0.00	21.53	0.00	-170.66	85.33
