[BeGaze]
Converted from:	C:\Documents and Settings\iViewX\Desktop\EXPERIMENTATIONS\Experiments\results\finaleart\S9H29221-finaleart-1.idf
Date:	27.03.2019 16:03:21
Version:	BeGaze 2.5.77
Sample Rate:	50
Subject:	S9H29221
Description:	steven

Table Header for Fixations:
Event Type	Trial	Number	Start	End	Duration	Location X	Location Y	Dispersion X	Dispersion Y	Plane	Avg. Pupil Size X	Avg. Pupil Size Y

Table Header for Saccades:
Event Type	Trial	Number	Start	End	Duration	Start Loc.X	Start Loc.Y	End Loc.X	End Loc.Y	Amplitude	Peak Speed	Peak Speed At	Average Speed	Peak Accel.	Peak Decel.	Average Accel.

Table Header for Blinks:
Event Type	Trial	Number	Start	End	Duration

Table Header for User Events:
Event Type	Trial	Number	Start	Description

UserEvent	1	1	6366818528	# Message: Les_Bords_De_Seine_A_Neuilly_Dubois_Pillet_1886.jpg
Fixation L	1	1	6366826815	6367045648	218833	1053.83	261.43	59	38	-1	10.56	10.56
Fixation R	1	1	6366826815	6367045648	218833	1053.83	261.43	59	38	-1	10.46	10.46
Saccade L	1	1	6367045648	6367065523	19875	1087.21	235.03	1100.38	237.23	0.23	20.87	0.00	11.36	198.46	-384.33	204.99
Saccade R	1	1	6367045648	6367065523	19875	1087.21	235.03	1100.38	237.23	0.23	20.87	0.00	11.36	198.46	-384.33	204.99
Fixation L	1	2	6367065523	6367324039	258516	1135.67	234.03	78	8	-1	10.56	10.56
Fixation R	1	2	6367065523	6367324039	258516	1135.67	234.03	78	8	-1	10.54	10.54
Saccade L	1	2	6367324039	6367344020	19981	1178.75	231.90	1214.30	238.56	0.45	36.59	1.00	22.74	598.92	-822.99	507.70
Saccade R	1	2	6367324039	6367344020	19981	1178.75	231.90	1214.30	238.56	0.45	36.59	1.00	22.74	598.92	-822.99	507.70
Fixation L	1	3	6367344020	6367463254	119234	1227.47	263.60	22	64	-1	10.47	10.47
Fixation R	1	3	6367344020	6367463254	119234	1227.47	263.60	22	64	-1	10.53	10.53
Saccade L	1	3	6367463254	6367483137	19883	1223.23	302.63	1216.04	334.40	0.37	32.95	1.00	18.44	320.29	-696.72	432.03
Saccade R	1	3	6367463254	6367483137	19883	1223.23	302.63	1216.04	334.40	0.37	32.95	1.00	18.44	320.29	-696.72	432.03
Fixation L	1	4	6367483137	6367725792	242655	1218.71	342.27	10	23	-1	10.43	10.43
Fixation R	1	4	6367483137	6367725792	242655	1218.71	342.27	10	23	-1	10.53	10.53
Saccade L	1	4	6367725792	6367761642	35850	1213.91	358.00	1216.05	569.05	2.15	213.43	1.00	59.91	5059.33	-5212.99	3527.89
Saccade R	1	4	6367725792	6367761642	35850	1213.91	358.00	1216.05	569.05	2.15	213.43	1.00	59.91	5059.33	-5212.99	3527.89
Fixation L	1	5	6367761642	6367861115	99473	1211.84	586.99	12	78	-1	9.99	9.99
Fixation R	1	5	6367761642	6367861115	99473	1211.84	586.99	12	78	-1	9.96	9.96
Saccade L	1	5	6367861115	6367900873	39758	1203.25	647.71	1112.45	753.72	1.97	84.04	1.00	49.56	1407.55	-1767.15	1062.26
Saccade R	1	5	6367861115	6367900873	39758	1203.25	647.71	1112.45	753.72	1.97	84.04	1.00	49.56	1407.55	-1767.15	1062.26
Fixation L	1	6	6367900873	6368139606	238733	1080.48	739.53	37	33	-1	9.76	9.76
Fixation R	1	6	6367900873	6368139606	238733	1080.48	739.53	37	33	-1	9.56	9.56
Blink L	1	1	6368139606	6368258843	119237
Blink R	1	1	6368139606	6368258843	119237
Blink L	1	2	6368278851	6368656698	377847
Blink R	1	2	6368278851	6368656698	377847
Fixation L	1	7	6368656698	6368776462	119764	723.27	597.57	20	23	-1	11.20	11.20
Fixation R	1	7	6368656698	6368776462	119764	723.27	597.57	20	23	-1	10.48	10.48
Blink L	1	3	6368776462	6369095141	318679
Blink R	1	3	6368776462	6369095141	318679
Saccade L	1	6	6369095141	6369134059	38918	1400.17	278.63	1420.16	269.16	0.73	27.58	1.00	18.80	518.42	-130.25	339.38
Saccade R	1	6	6369095141	6369134059	38918	1400.17	278.63	1420.16	269.16	0.73	27.58	1.00	18.80	518.42	-130.25	339.38
Fixation L	1	8	6369134059	6369253418	119359	1463.24	261.65	61	17	-1	9.96	9.96
Fixation R	1	8	6369134059	6369253418	119359	1463.24	261.65	61	17	-1	9.77	9.77
