finaleart	S02123220	00:00:00:000	Calibration	
finaleart	S02123220	00:01:29:234	The deviations of the calibration are DevX = 0,7375 DevY = 2,08
finaleart	S02123220	00:01:29:484	Image	REJECTED_landscape_cross_0.jpg
finaleart	S02123220	00:01:33:593	Image	void.png
finaleart	S02123220	00:01:35:640	Image	REJECTED_Volga_Lagoon_Vassiliev_1870.jpg
finaleart	S02123220	00:01:39:718	Image	void.png
finaleart	S02123220	00:01:41:796	Calibration	
finaleart	S02123220	00:02:22:046	The deviations of the calibration are DevX = 0,9175 DevY = 0,655
finaleart	S02123220	00:02:22:312	Image	REJECTED_after-the-bath_degas_1885.jpg
finaleart	S02123220	00:02:27:375	Image	void.png
finaleart	S02123220	00:02:30:687	Image	The_Augustan_Bridge_at_Narni_Corot_1826.jpg
finaleart	S02123220	00:02:34:984	Image	void.png
finaleart	S02123220	00:02:39:953	Image	Le-Restaurant-de-la-machine-a-Bougival-vlaminck-1905.jpg
finaleart	S02123220	00:02:44:046	Image	void.png
finaleart	S02123220	00:02:46:171	Image	Automne_En_France_Carr_1911.jpg
finaleart	S02123220	00:02:50:203	Image	void.png
finaleart	S02123220	00:02:52:265	Image	chase-a-study-in-curves-1890.jpg
finaleart	S02123220	00:02:56:312	Image	void.png
finaleart	S02123220	00:02:58:375	Image	nature_morte_aux_oranges_Vlaminck_1909.jpg
finaleart	S02123220	00:03:02:437	Image	void.png
finaleart	S02123220	00:03:04:484	Image	venice_from_porche_of_madonna_turner_1835.jpg
finaleart	S02123220	00:03:08:531	Image	void.png
finaleart	S02123220	00:03:10:578	Image	mother_and_child_by_the_sea_dahl_1830.jpg
finaleart	S02123220	00:03:14:625	Image	void.png
finaleart	S02123220	00:03:16:734	Image	The_Blue_Nude_Souvenir_of_Biskra_Matisse_1907.png
finaleart	S02123220	00:03:20:812	Image	void.png
finaleart	S02123220	00:03:22:875	Image	after_a_rain_country_road_Vasilyev_1869.jpg
finaleart	S02123220	00:03:27:015	Image	void.png
finaleart	S02123220	00:03:29:062	Image	Landscape_at_L-Estaque_Braque-1906.jpg
finaleart	S02123220	00:03:33:125	Image	void.png
finaleart	S02123220	00:03:35:234	Image	The_Orchard_Vlaminck_1905.jpg
finaleart	S02123220	00:03:39:281	Image	void.png
finaleart	S02123220	00:03:41:453	Image	resting-bacchante_sorolla_1887.jpg
finaleart	S02123220	00:03:45:515	Image	void.png
finaleart	S02123220	00:03:47:609	Image	Rysselberghe-Vase-of-flowers-1907.Jpg
finaleart	S02123220	00:03:51:703	Image	void.png
finaleart	S02123220	00:03:53:781	Image	plage-de-la-vignassa_cross_1892.jpg
finaleart	S02123220	00:03:57:812	Image	void.png
finaleart	S02123220	00:03:59:859	Image	Sailboats_On_The_River_Sheldt_van_Rysselberghe_1892.jpg
finaleart	S02123220	00:04:03:921	Image	void.png
finaleart	S02123220	00:04:05:968	Image	Upper_Mississippi_Kensett_1855.jpg
finaleart	S02123220	00:04:10:046	Image	void.png
finaleart	S02123220	00:04:12:156	Image	La_Ferme_des_Collettes_Renoir_1908.jpg
finaleart	S02123220	00:04:16:218	Image	void.png
finaleart	S02123220	00:04:18:312	Image	millet-the-bather-1848.jpg
finaleart	S02123220	00:04:22:437	Image	void.png
finaleart	S02123220	00:04:24:484	Image	goya-Pavo-muerto-1812.jpg
finaleart	S02123220	00:04:28:546	Image	void.png
finaleart	S02123220	00:04:30:609	Image	plate-of-peaches-Fantin-Latour-1862.jpg
finaleart	S02123220	00:04:34:718	Image	void.png
finaleart	S02123220	00:04:36:796	Image	Nature_morte_au_panier_Derain_1927.jpg
finaleart	S02123220	00:04:40:843	Image	void.png
finaleart	S02123220	00:04:42:921	Image	Courbet-Femme-nue-couchee-1862.jpg
finaleart	S02123220	00:04:47:015	Image	void.png
finaleart	S02123220	00:04:49:171	Image	Naked_man_reversed_on_the_ground_Gericault_1817.jpg
finaleart	S02123220	00:04:53:203	Image	void.png
finaleart	S02123220	00:04:55:296	Image	delacroix-Reclining-Odalisque-or-Woman-with-a-Parakeet-1827.jpg
finaleart	S02123220	00:04:59:328	Image	void.png
finaleart	S02123220	00:05:01:390	Image	the-large-bathers_renoir_1887.jpg
finaleart	S02123220	00:05:05:421	Image	void.png
finaleart	S02123220	00:05:07:500	Calibration	
finaleart	S02123220	00:07:43:078	The deviations of the calibration are DevX = 1,02 DevY = 1,7225
finaleart	S02123220	00:07:43:296	Image	REJECTED_cezanne-still-life-with-green-pot-and-pewter-1870.jpg
finaleart	S02123220	00:07:47:343	Image	void.png
finaleart	S02123220	00:07:49:406	Image	red-mullets_monet_1869.jpg
finaleart	S02123220	00:07:53:437	Image	void.png
finaleart	S02123220	00:07:55:484	Image	still-life_pissarro_1867.Jpg
finaleart	S02123220	00:07:59:531	Image	void.png
finaleart	S02123220	00:08:01:578	Image	parrot-tulips-(II)_matisse_1905.jpg
finaleart	S02123220	00:08:05:656	Image	void.png
finaleart	S02123220	00:08:07:734	Image	les_poseuses_seurat_1888.Jpg
finaleart	S02123220	00:08:11:781	Image	void.png
finaleart	S02123220	00:08:13:843	Image	female_nude_reclining_on-a_divan_delacroix_1826.jpg
finaleart	S02123220	00:08:17:890	Image	void.png
finaleart	S02123220	00:08:19:937	Image	cows_at_a_pond_Bilders_1856.jpg
finaleart	S02123220	00:08:23:984	Image	void.png
finaleart	S02123220	00:08:26:046	Image	Houses_at_Chatou_Vlaminck_1905.jpg
finaleart	S02123220	00:08:30:093	Image	void.png
finaleart	S02123220	00:08:32:203	Image	Morning,_An_Overcast_Day_Rouen_Pissaro_1896.jpg
finaleart	S02123220	00:08:36:250	Image	void.png
finaleart	S02123220	00:08:38:343	Image	woman-at-her-toilette_degas_1877.jpg
finaleart	S02123220	00:08:42:406	Image	void.png
finaleart	S02123220	00:08:44:453	Image	the-wood_cross_907.jpg
finaleart	S02123220	00:08:48:515	Image	void.png
finaleart	S02123220	00:08:50:562	Image	avenue_of_trees_in_a_small_town_sisley_1866.jpg
finaleart	S02123220	00:08:54:609	Image	void.png
finaleart	S02123220	00:08:56:703	Image	bowl_of_fruits_Fantin-Latour_1857.jpg
finaleart	S02123220	00:09:00:765	Image	void.png
finaleart	S02123220	00:09:02:812	Image	courbet-female-nude-with-a-dog-portrait-of-leotine-renaude-1866.jpg
finaleart	S02123220	00:09:06:859	Image	void.png
finaleart	S02123220	00:09:08:937	Image	Nu_Couche_Vlaminck_1905.jpg
finaleart	S02123220	00:09:12:984	Image	void.png
finaleart	S02123220	00:09:15:062	Image	luxe-calme-et-volupté_matisse_1905.jpg
finaleart	S02123220	00:09:19:187	Image	void.png
finaleart	S02123220	00:09:21:250	Image	lying-nude_ury_1889.JPG
finaleart	S02123220	00:09:25:328	Image	void.png
finaleart	S02123220	00:09:27:390	Image	The_Girl_From_Rat_Mort_Vlaminck_1905.jpg
finaleart	S02123220	00:09:31:453	Image	void.png
finaleart	S02123220	00:09:33:500	Image	lair_of_the_sea_serpent_vedder_1899.jpg
finaleart	S02123220	00:09:37:640	Image	void.png
finaleart	S02123220	00:09:39:718	Image	Turner-snow-storm-boat-off-a-harbours-mouth-1842.jpg
finaleart	S02123220	00:09:43:750	Image	void.png
finaleart	S02123220	00:09:45:828	Image	goya-Bodegón-con-salmón-1812.jpg
finaleart	S02123220	00:09:49:875	Image	void.png
finaleart	S02123220	00:09:51:937	Image	kneeling-nude_degas_1888.jpg
finaleart	S02123220	00:09:56:000	Image	void.png
finaleart	S02123220	00:09:58:062	Image	La_Danse_Matisse_1909.jpg
finaleart	S02123220	00:10:02:140	Image	void.png
finaleart	S02123220	00:10:04:203	Image	Young_Girls_Playing_With_A_Lion_Club_Valtat_1905.jpg
finaleart	S02123220	00:10:08:250	Image	void.png
finaleart	S02123220	00:10:10:296	Image	Le_port_d-Anvers_Braque_1906.jpg
finaleart	S02123220	00:10:14:343	Image	void.png
finaleart	S02123220	00:10:16:437	Image	Nature_morte_a_la_cafetiere_rouge_Vlaminck.png
finaleart	S02123220	00:10:20:562	Image	void.png
finaleart	S02123220	00:10:22:625	Calibration	
finaleart	S02123220	00:14:05:484	The deviations of the calibration are DevX = 0,7325 DevY = 0,785
finaleart	S02123220	00:14:05:703	Image	REJECTED_rose_in_a_bowl_fantin_latour_1883.jpg
finaleart	S02123220	00:14:09:750	Image	void.png
finaleart	S02123220	00:14:11:796	Image	madrazo-y-kuntz-Man-Holding-a-Dagger-1850.jpg
finaleart	S02123220	00:14:15:859	Image	void.png
finaleart	S02123220	00:14:17:921	Image	the_rainbow__moore_henry_1865.jpg
finaleart	S02123220	00:14:21:953	Image	void.png
finaleart	S02123220	00:14:24:015	Image	Kiprensky-two-sitters-1800.jpg
finaleart	S02123220	00:14:28:046	Image	void.png
finaleart	S02123220	00:14:30:109	Image	Georges-braque-still-life-with-jugs-and-pipe-1906.png
finaleart	S02123220	00:14:34:140	Image	void.png
finaleart	S02123220	00:14:36:218	Image	Nature_Morte_Au_Citron_Matisse_1917.jpg
finaleart	S02123220	00:14:40:265	Image	void.png
finaleart	S02123220	00:14:42:312	Image	Nature-morte-Maurice-de-Vlaminck.jpg
finaleart	S02123220	00:14:46:375	Image	void.png
finaleart	S02123220	00:14:48:421	Image	marquet-fruit-knife-and-napkin-1898.jpg
finaleart	S02123220	00:14:52:468	Image	void.png
finaleart	S02123220	00:14:54:531	Image	landschaft_mit_dem_ondregenbogen_caspar_david_friedrich_1810.jpg
finaleart	S02123220	00:14:58:593	Image	void.png
finaleart	S02123220	00:15:00:640	Image	paysage_avec_du_betail_au_limousin_jules-dupre_1837.jpg
finaleart	S02123220	00:15:04:703	Image	void.png
finaleart	S02123220	00:15:06:781	Image	sargent-reclining-nude.JPG
finaleart	S02123220	00:15:10:843	Image	void.png
finaleart	S02123220	00:15:12:906	Image	still-life-with-pumpkin-plums-cherries-figs-and-jug-Ribot-1860.jpg
finaleart	S02123220	00:15:16:968	Image	void.png
finaleart	S02123220	00:15:19:015	Image	the-reclining-shepherdess_morisot_1891.jpg
finaleart	S02123220	00:15:23:078	Image	void.png
finaleart	S02123220	00:15:25:140	Image	The_Lying_Nude_Matisse_1906.png
finaleart	S02123220	00:15:29:187	Image	void.png
finaleart	S02123220	00:15:31:250	Image	Poppy_Fields_near_Argenteuil_Monet_1875.jpg
finaleart	S02123220	00:15:35:281	Image	void.png
finaleart	S02123220	00:15:37:343	Image	Trouville_Black_Rocks_Boudin_1863.jpg
finaleart	S02123220	00:15:41:406	Image	void.png
finaleart	S02123220	00:15:43:453	Image	Matisse-Nature-morte-a-la-cruche-bleue.jpg
finaleart	S02123220	00:15:47:515	Image	void.png
finaleart	S02123220	00:15:49:546	Image	reclining-nude_bazille_1860.png
finaleart	S02123220	00:15:53:593	Image	void.png
finaleart	S02123220	00:15:55:640	Image	Bank_Of_A_Lake_Pechstein_1910.jpg
finaleart	S02123220	00:15:59:687	Image	void.png
finaleart	S02123220	00:16:01:734	Image	Odalisque_Matisse.jpg
finaleart	S02123220	00:16:05:796	Image	void.png
finaleart	S02123220	00:16:07:828	Image	sargent-male-model-resting.jpg
finaleart	S02123220	00:16:11:890	Image	void.png
finaleart	S02123220	00:16:13:937	Image	Paysage_a_La_Ciotat_(La_Pointe_du-Capucin)_friesz_1907.jpg
finaleart	S02123220	00:16:17:984	Image	void.png
finaleart	S02123220	00:16:20:046	Image	morning_in_a_pine_forest_Ivan_Shishkin_1889.jpg
finaleart	S02123220	00:16:24:093	Image	void.png
finaleart	S02123220	00:16:26:156	Image	still-life-post-bottle-cup-and-fruit_cezanne_1871.jpg
finaleart	S02123220	00:16:30:203	Image	void.png
finaleart	S02123220	00:16:32:281	Image	Kiprensky-standing-sitter-with-a-stick-sitter-on-a-rock-1801.jpg
finaleart	S02123220	00:16:36:312	Image	void.png
finaleart	S02123220	00:16:38:375	Image	still-life-fruits-on-a-table_manet_1864.jpg
finaleart	S02123220	00:16:42:437	Image	void.png
finaleart	S02123220	00:16:44:500	Calibration	
finaleart	S02123220	00:19:51:750	The deviations of the calibration are DevX = 0,49 DevY = 0,6575
finaleart	S02123220	00:19:51:968	Image	REJECTED_cezanne-still-life-with-bread-and-eggs-1865.jpg
finaleart	S02123220	00:19:56:015	Image	void.png
finaleart	S02123220	00:19:58:062	Image	Matejko-Akt-meski.jpg
finaleart	S02123220	00:20:02:109	Image	void.png
finaleart	S02123220	00:20:04:171	Image	Le_Puy_In_The_Snow_Dubois-Pillet_1889.jpg
finaleart	S02123220	00:20:08:218	Image	void.png
finaleart	S02123220	00:20:10:281	Image	wright-vesuvius-from-posillipo-1774.jpg
finaleart	S02123220	00:20:14:328	Image	void.png
finaleart	S02123220	00:20:16:406	Image	pears-and-grapes_gauguin_1875.jpg
finaleart	S02123220	00:20:20:437	Image	void.png
finaleart	S02123220	00:20:22:484	Image	garlic-cloves-and-knife-on-the-corner-of-a-table_caillebotte_1871.jpg
finaleart	S02123220	00:20:26:593	Image	void.png
finaleart	S02123220	00:20:28:656	Image	les-deux-amies_marevna_0.jpg
finaleart	S02123220	00:20:32:703	Image	void.png
finaleart	S02123220	00:20:34:750	Image	stilleven-met-vis_dubois-pillet_1885.jpg
finaleart	S02123220	00:20:38:796	Image	void.png
finaleart	S02123220	00:20:40:828	Image	ronde_cross_1905.jpg
finaleart	S02123220	00:20:44:875	Image	void.png
finaleart	S02123220	00:20:46:921	Image	monticelli-still-life-with-white-pitcher-1822.jpg
finaleart	S02123220	00:20:50:968	Image	void.png
finaleart	S02123220	00:20:53:046	Image	naked-woman-lying-on-a-couch_caillebotte_1873.jpg
finaleart	S02123220	00:20:57:109	Image	void.png
finaleart	S02123220	00:20:59:156	Image	the_model's_siesta_Rysselberghe_1920.jpg
finaleart	S02123220	00:21:03:203	Image	void.png
finaleart	S02123220	00:21:05:296	Image	bacchante_sorolla_1886.Jpg
finaleart	S02123220	00:21:09:359	Image	void.png
finaleart	S02123220	00:21:11:421	Image	cross-La-fuite-des-nymphes-1906.jpg
finaleart	S02123220	00:21:15:546	Image	void.png
finaleart	S02123220	00:21:17:593	Image	the-tea-set_monet_1871.jpg
finaleart	S02123220	00:21:21:640	Image	void.png
finaleart	S02123220	00:21:23:687	Image	Hayet-Nature-morte-1888.jpg
finaleart	S02123220	00:21:27:734	Image	void.png
finaleart	S02123220	00:21:29:781	Image	morning_Daubigny_1858.jpg
finaleart	S02123220	00:21:33:828	Image	void.png
finaleart	S02123220	00:21:35:906	Image	Un_Jardin_Maison_Baptiste_Butler_1895.jpg
finaleart	S02123220	00:21:39:937	Image	void.png
finaleart	S02123220	00:21:41:984	Image	delacroix-still-life-with-lobsters-1827.jpg
finaleart	S02123220	00:21:46:031	Image	void.png
finaleart	S02123220	00:21:48:109	Image	still-life-with-skate_Boudin_1861.jpg
finaleart	S02123220	00:21:52:156	Image	void.png
finaleart	S02123220	00:21:54:218	Image	Still-life-of-Sheep-s-Ribs-and-Head-The-Butchers-conter_Goya_1812.jpg
finaleart	S02123220	00:21:58:250	Image	void.png
finaleart	S02123220	00:22:00:296	Image	basket-of-fruits-Manet-1864.jpg
finaleart	S02123220	00:22:04:375	Image	void.png
finaleart	S02123220	00:22:06:421	Image	courbet-the-sleepers-1866.jpg
finaleart	S02123220	00:22:10:468	Image	void.png
finaleart	S02123220	00:22:12:515	Image	Les_Bords_De_Seine_A_Neuilly_Dubois_Pillet_1886.jpg
finaleart	S02123220	00:22:16:562	Image	void.png
finaleart	S02123220	00:22:18:609	Image	nasturtiums-dahlias-in-a-basket_gauguin_1884.jpg
finaleart	S02123220	00:22:22:671	Image	void.png
finaleart	S02123220	00:22:24:734	Image	dead_hare_ward.jpg
finaleart	S02123220	00:22:28:781	Image	void.png
finaleart	S02123220	00:22:30:843	Calibration	
finaleart	S02123220	00:24:38:718	The deviations of the calibration are DevX = 1,915 DevY = 1,555
finaleart	S02123220	00:24:38:937	Image	REJECTED_rose_in_a_bowl_fantin_latour_1883.jpg
finaleart	S02123220	00:24:43:046	Image	void.png
finaleart	S02123220	00:24:45:109	Image	storm_off_normandy_cost_isabey_1850.jpg
finaleart	S02123220	00:24:49:156	Image	void.png
finaleart	S02123220	00:24:51:234	Image	bathers_cross_1902.jpg
finaleart	S02123220	00:24:55:281	Image	void.png
finaleart	S02123220	00:24:57:437	Image	Alfalfa_St-Denis_Seurat_1886.jpg
finaleart	S02123220	00:25:01:500	Image	void.png
finaleart	S02123220	00:25:03:531	Image	Nature_Morte_Aux_Raisins_Sur_Un_Plat_Derain_1944.jpg
finaleart	S02123220	00:25:07:593	Image	void.png
finaleart	S02123220	00:25:09:671	Image	oysters_manet_1862.jpg
finaleart	S02123220	00:25:13:703	Image	void.png
finaleart	S02123220	00:25:15:750	Image	Rochers_Sur_La_Cote_A_Agay_Guillaumin_1907.jpg
finaleart	S02123220	00:25:19:812	Image	void.png
finaleart	S02123220	00:25:21:859	Image	Ma_Maison_Martin_XXXX.jpg
finaleart	S02123220	00:25:25:921	Image	void.png
finaleart	S02123220	00:25:27:984	Image	Girtin-Kirkstall-Abbey-Yorkshire-1801.jpg
finaleart	S02123220	00:25:32:031	Image	void.png
finaleart	S02123220	00:25:34:062	Image	Niagara_Falls_Hale_1902.jpg
finaleart	S02123220	00:25:38:109	Image	void.png
finaleart	S02123220	00:25:40:171	Image	the_three_skulls_gericault_1814.jpg
finaleart	S02123220	00:25:44:203	Image	void.png
finaleart	S02123220	00:25:46:250	Image	The_Luxembourg_Gardens_Matisse_1901.jpg
finaleart	S02123220	00:25:50:343	Image	void.png
finaleart	S02123220	00:25:52:390	Image	manet-the-salmon-1868.jpg
finaleart	S02123220	00:25:56:437	Image	void.png
finaleart	S02123220	00:25:58:500	Image	sisley-still-life-heron-with-spread-wings-1867.jpg
finaleart	S02123220	00:26:02:562	Image	void.png
finaleart	S02123220	00:26:04:625	Image	Rapids_on_the_Petite_Creuse_at_Fresselines_Monet_1889.jpg
finaleart	S02123220	00:26:08:656	Image	void.png
finaleart	S02123220	00:26:10:734	Image	Turner-chichester-canal-1828.jpg
finaleart	S02123220	00:26:14:765	Image	void.png
finaleart	S02123220	00:26:16:859	Image	courbet-woman-with-a-parrot-1866.jpg
finaleart	S02123220	00:26:20:921	Image	void.png
finaleart	S02123220	00:26:22:984	Image	L-Heure_Embrasee_Rysselberghe_1897.jpg
finaleart	S02123220	00:26:27:046	Image	void.png
finaleart	S02123220	00:26:29:125	Image	The_Two_Models_Dufy_1930.jpg
finaleart	S02123220	00:26:33:156	Image	void.png
finaleart	S02123220	00:26:35:234	Image	courbet-the-bathers-1858.jpg
finaleart	S02123220	00:26:39:296	Image	void.png
finaleart	S02123220	00:26:41:375	Image	The_Joy_Of_Life_Matisse_1906.jpg
finaleart	S02123220	00:26:45:421	Image	void.png
finaleart	S02123220	00:26:47:484	Image	courbet_Femme_nue_et_dormant_1858.jpg
finaleart	S02123220	00:26:51:531	Image	void.png
finaleart	S02123220	00:26:53:609	Image	Delacroix-odalisque-1825.jpg
finaleart	S02123220	00:26:57:718	Image	void.png
finaleart	S02123220	00:26:59:859	Image	still-life-with-a-puro-(II)_matisse_1904.jpg
finaleart	S02123220	00:27:03:937	Image	void.png
finaleart	S02123220	00:27:06:046	Image	chestnut_avenue_in_la_celle_saint_cloud_sisley_1865.jpg
finaleart	S02123220	00:27:10:125	Image	void.png
finaleart	S02123220	00:27:12:187	Image	Le_Pin_A_St-Tropez_Signac_1909.jpg
finaleart	S02123220	00:27:16:250	Image	void.png
finaleart	S02123220	00:27:18:296	Calibration	
finaleart	S02123220	00:31:50:125	The deviations of the calibration are DevX = 0,45 DevY = 0,3725
finaleart	S02123220	00:31:50:406	Image	REJECTED_olympia_manet_1863.jpg
finaleart	S02123220	00:31:54:484	Image	void.png
finaleart	S02123220	00:31:56:578	Image	reclining-nude_renoir_1883.jpg
finaleart	S02123220	00:32:00:625	Image	void.png
finaleart	S02123220	00:32:02:718	Image	goya-still-life-plucked-turkey-and-pan-with-fish-1812.jpg
finaleart	S02123220	00:32:06:765	Image	void.png
finaleart	S02123220	00:32:08:828	Image	the-banks-of-the-marne-at-dawn_dubois-pillet_1888.jpg
finaleart	S02123220	00:32:12:859	Image	void.png
finaleart	S02123220	00:32:14:906	Image	still-life-with-fish_bazille_1866.jpg
finaleart	S02123220	00:32:18:953	Image	void.png
finaleart	S02123220	00:32:21:046	Image	The_Gardener_Vlaminck_1904.jpg
finaleart	S02123220	00:32:25:109	Image	void.png
finaleart	S02123220	00:32:27:156	Image	goya-Bodegones-con-pargos-dorados-1812.jpg
finaleart	S02123220	00:32:31:203	Image	void.png
finaleart	S02123220	00:32:33:265	Image	still-life_matisse_0.jpg
finaleart	S02123220	00:32:37:296	Image	void.png
finaleart	S02123220	00:32:39:359	Image	Pots_Et_Fruits_Matisse_1901.jpg
finaleart	S02123220	00:32:43:453	Image	void.png
finaleart	S02123220	00:32:45:500	Image	L'Ile_de_La_Grande_Jatte_Seurat_1884.jpg
finaleart	S02123220	00:32:49:578	Image	void.png
finaleart	S02123220	00:32:51:656	Image	A_Highland_Landscape_Landseer_1830.jpg
finaleart	S02123220	00:32:55:703	Image	void.png
finaleart	S02123220	00:32:57:812	Image	turner-waves-breaking-against-the-wind-1830.jpg
finaleart	S02123220	00:33:01:859	Image	void.png
finaleart	S02123220	00:33:03:921	Image	huisje_aan_een_sloot_mauve_1888.jpg
finaleart	S02123220	00:33:07:984	Image	void.png
finaleart	S02123220	00:33:10:031	Image	the-pointe-de-per-kiridec-at-roscoff_Rysselberghe_0.jpg
finaleart	S02123220	00:33:14:109	Image	void.png
finaleart	S02123220	00:33:16:171	Image	still-life-with-bottle-of-wind_cross_1904.Jpg
finaleart	S02123220	00:33:20:218	Image	void.png
finaleart	S02123220	00:33:22:312	Image	Le_Chemin_De_Fer_Berlin_Potsdam_Menzel_1847.jpg
finaleart	S02123220	00:33:26:343	Image	void.png
finaleart	S02123220	00:33:28:390	Image	metzinger-nature-morte-1905.png
finaleart	S02123220	00:33:32:468	Image	void.png
finaleart	S02123220	00:33:34:625	Image	the_kiss_gericault_1816.jpg
finaleart	S02123220	00:33:38:671	Image	void.png
finaleart	S02123220	00:33:40:750	Image	martin-vase-of-flowers-in-a-window.jpg
finaleart	S02123220	00:33:44:812	Image	void.png
finaleart	S02123220	00:33:46:875	Image	flowers-and-fruit-a-melon_fantin-latour_1865.jpg
finaleart	S02123220	00:33:50:906	Image	void.png
finaleart	S02123220	00:33:52:953	Image	the_forest_Cross_1907.jpg
finaleart	S02123220	00:33:57:000	Image	void.png
finaleart	S02123220	00:33:59:046	Image	Fleurs_et_fruits_camoin_1942.jpg
finaleart	S02123220	00:34:03:109	Image	void.png
finaleart	S02123220	00:34:05:140	Image	still-life-with-red-mullet-and-jug_gaugain_1876.jpg
finaleart	S02123220	00:34:09:234	Image	void.png
finaleart	S02123220	00:34:11:281	Image	study_of_a_reclining_nude_Delacroix_1824.jpg
finaleart	S02123220	00:34:15:328	Image	void.png
finaleart	S02123220	00:34:17:406	Image	renoir-still-life-with-peaches-and-grapes-1881.jpg
finaleart	S02123220	00:34:21:453	Image	void.png
finaleart	S02123220	00:34:23:531	Image	goya-Nature-morte-avec-Bouteilles-et-Pains-1826.jpg
finaleart	S02123220	00:34:27:593	Image	void.png
finaleart	S02123220	00:34:29:750	End of Experiment
