finaleart	S1022551	00:00:00:000	Calibration	
finaleart	S1022551	00:00:59:609	The deviations of the calibration are DevX = 0,1975 DevY = 0,375
finaleart	S1022551	00:00:59:843	Image	REJECTED_rose_in_a_bowl_fantin_latour_1883.jpg
finaleart	S1022551	00:01:03:828	Image	void.png
finaleart	S1022551	00:01:05:796	Image	REJECTED_olympia_manet_1863.jpg
finaleart	S1022551	00:01:09:812	Image	void.png
finaleart	S1022551	00:01:11:812	Calibration	
finaleart	S1022551	00:01:47:203	The deviations of the calibration are DevX = 0,6325 DevY = 1,5925
finaleart	S1022551	00:01:47:437	Image	REJECTED_cezanne-still-life-with-bread-and-eggs-1865.jpg
finaleart	S1022551	00:01:51:406	Image	void.png
finaleart	S1022551	00:01:53:468	Image	Hayet-Nature-morte-1888.jpg
finaleart	S1022551	00:01:57:437	Image	void.png
finaleart	S1022551	00:01:59:421	Image	goya-Pavo-muerto-1812.jpg
finaleart	S1022551	00:02:03:406	Image	void.png
finaleart	S1022551	00:02:05:421	Image	courbet-the-bathers-1858.jpg
finaleart	S1022551	00:02:09:421	Image	void.png
finaleart	S1022551	00:02:11:437	Image	Un_Jardin_Maison_Baptiste_Butler_1895.jpg
finaleart	S1022551	00:02:15:453	Image	void.png
finaleart	S1022551	00:02:17:453	Image	Girtin-Kirkstall-Abbey-Yorkshire-1801.jpg
finaleart	S1022551	00:02:21:437	Image	void.png
finaleart	S1022551	00:02:23:406	Image	goya-Bodegones-con-pargos-dorados-1812.jpg
finaleart	S1022551	00:02:27:406	Image	void.png
finaleart	S1022551	00:02:29:437	Image	reclining-nude_renoir_1883.jpg
finaleart	S1022551	00:02:33:406	Image	void.png
finaleart	S1022551	00:02:35:390	Image	goya-Nature-morte-avec-Bouteilles-et-Pains-1826.jpg
finaleart	S1022551	00:02:39:390	Image	void.png
finaleart	S1022551	00:02:41:406	Image	the_forest_Cross_1907.jpg
finaleart	S1022551	00:02:45:390	Image	void.png
finaleart	S1022551	00:02:47:421	Image	lying-nude_ury_1889.JPG
finaleart	S1022551	00:02:51:406	Image	void.png
finaleart	S1022551	00:02:53:406	Image	renoir-still-life-with-peaches-and-grapes-1881.jpg
finaleart	S1022551	00:02:57:390	Image	void.png
finaleart	S1022551	00:02:59:390	Image	courbet-woman-with-a-parrot-1866.jpg
finaleart	S1022551	00:03:03:406	Image	void.png
finaleart	S1022551	00:03:05:375	Image	marquet-fruit-knife-and-napkin-1898.jpg
finaleart	S1022551	00:03:09:375	Image	void.png
finaleart	S1022551	00:03:11:375	Image	goya-still-life-plucked-turkey-and-pan-with-fish-1812.jpg
finaleart	S1022551	00:03:15:359	Image	void.png
finaleart	S1022551	00:03:17:359	Image	morning_in_a_pine_forest_Ivan_Shishkin_1889.jpg
finaleart	S1022551	00:03:21:375	Image	void.png
finaleart	S1022551	00:03:23:390	Image	The_Orchard_Vlaminck_1905.jpg
finaleart	S1022551	00:03:27:375	Image	void.png
finaleart	S1022551	00:03:29:343	Image	manet-the-salmon-1868.jpg
finaleart	S1022551	00:03:33:343	Image	void.png
finaleart	S1022551	00:03:35:343	Image	avenue_of_trees_in_a_small_town_sisley_1866.jpg
finaleart	S1022551	00:03:39:328	Image	void.png
finaleart	S1022551	00:03:41:343	Image	madrazo-y-kuntz-Man-Holding-a-Dagger-1850.jpg
finaleart	S1022551	00:03:45:328	Image	void.png
finaleart	S1022551	00:03:47:343	Image	female_nude_reclining_on-a_divan_delacroix_1826.jpg
finaleart	S1022551	00:03:51:375	Image	void.png
finaleart	S1022551	00:03:53:390	Image	wright-vesuvius-from-posillipo-1774.jpg
finaleart	S1022551	00:03:57:375	Image	void.png
finaleart	S1022551	00:03:59:359	Image	study_of_a_reclining_nude_Delacroix_1824.jpg
finaleart	S1022551	00:04:03:328	Image	void.png
finaleart	S1022551	00:04:05:343	Image	turner-waves-breaking-against-the-wind-1830.jpg
finaleart	S1022551	00:04:09:328	Image	void.png
finaleart	S1022551	00:04:11:328	Image	monticelli-still-life-with-white-pitcher-1822.jpg
finaleart	S1022551	00:04:15:328	Image	void.png
finaleart	S1022551	00:04:17:359	Image	Paysage_a_La_Ciotat_(La_Pointe_du-Capucin)_friesz_1907.jpg
finaleart	S1022551	00:04:21:343	Image	void.png
finaleart	S1022551	00:04:23:328	Calibration	
finaleart	S1022551	00:05:23:375	The deviations of the calibration are DevX = 0,9825 DevY = 1,1975
finaleart	S1022551	00:05:23:593	Image	REJECTED_rose_in_a_bowl_fantin_latour_1883.jpg
finaleart	S1022551	00:05:27:562	Image	void.png
finaleart	S1022551	00:05:29:531	Image	paysage_avec_du_betail_au_limousin_jules-dupre_1837.jpg
finaleart	S1022551	00:05:33:500	Image	void.png
finaleart	S1022551	00:05:35:515	Image	Odalisque_Matisse.jpg
finaleart	S1022551	00:05:39:500	Image	void.png
finaleart	S1022551	00:05:41:500	Image	still-life-with-pumpkin-plums-cherries-figs-and-jug-Ribot-1860.jpg
finaleart	S1022551	00:05:45:468	Image	void.png
finaleart	S1022551	00:05:47:468	Image	cows_at_a_pond_Bilders_1856.jpg
finaleart	S1022551	00:05:51:437	Image	void.png
finaleart	S1022551	00:05:53:421	Image	Still-life-of-Sheep-s-Ribs-and-Head-The-Butchers-conter_Goya_1812.jpg
finaleart	S1022551	00:05:57:421	Image	void.png
finaleart	S1022551	00:05:59:421	Image	kneeling-nude_degas_1888.jpg
finaleart	S1022551	00:06:03:406	Image	void.png
finaleart	S1022551	00:06:05:406	Image	resting-bacchante_sorolla_1887.jpg
finaleart	S1022551	00:06:09:421	Image	void.png
finaleart	S1022551	00:06:11:453	Image	Rysselberghe-Vase-of-flowers-1907.Jpg
finaleart	S1022551	00:06:15:453	Image	void.png
finaleart	S1022551	00:06:17:437	Image	cross-La-fuite-des-nymphes-1906.jpg
finaleart	S1022551	00:06:21:437	Image	void.png
finaleart	S1022551	00:06:23:468	Image	still-life_pissarro_1867.Jpg
finaleart	S1022551	00:06:27:437	Image	void.png
finaleart	S1022551	00:06:29:437	Image	the-wood_cross_907.jpg
finaleart	S1022551	00:06:33:453	Image	void.png
finaleart	S1022551	00:06:35:453	Image	The_Joy_Of_Life_Matisse_1906.jpg
finaleart	S1022551	00:06:39:437	Image	void.png
finaleart	S1022551	00:06:41:437	Image	Young_Girls_Playing_With_A_Lion_Club_Valtat_1905.jpg
finaleart	S1022551	00:06:45:406	Image	void.png
finaleart	S1022551	00:06:47:390	Image	L-Heure_Embrasee_Rysselberghe_1897.jpg
finaleart	S1022551	00:06:51:343	Image	void.png
finaleart	S1022551	00:06:53:343	Image	The_Lying_Nude_Matisse_1906.png
finaleart	S1022551	00:06:57:312	Image	void.png
finaleart	S1022551	00:06:59:296	Image	Nature_morte_a_la_cafetiere_rouge_Vlaminck.png
finaleart	S1022551	00:07:03:296	Image	void.png
finaleart	S1022551	00:07:05:281	Image	L'Ile_de_La_Grande_Jatte_Seurat_1884.jpg
finaleart	S1022551	00:07:09:281	Image	void.png
finaleart	S1022551	00:07:11:281	Image	still-life-with-bottle-of-wind_cross_1904.Jpg
finaleart	S1022551	00:07:15:250	Image	void.png
finaleart	S1022551	00:07:17:250	Image	pears-and-grapes_gauguin_1875.jpg
finaleart	S1022551	00:07:21:250	Image	void.png
finaleart	S1022551	00:07:23:234	Image	the-reclining-shepherdess_morisot_1891.jpg
finaleart	S1022551	00:07:27:234	Image	void.png
finaleart	S1022551	00:07:29:250	Image	basket-of-fruits-Manet-1864.jpg
finaleart	S1022551	00:07:33:250	Image	void.png
finaleart	S1022551	00:07:35:281	Image	Turner-snow-storm-boat-off-a-harbours-mouth-1842.jpg
finaleart	S1022551	00:07:39:281	Image	void.png
finaleart	S1022551	00:07:41:281	Image	les-deux-amies_marevna_0.jpg
finaleart	S1022551	00:07:45:250	Image	void.png
finaleart	S1022551	00:07:47:265	Image	flowers-and-fruit-a-melon_fantin-latour_1865.jpg
finaleart	S1022551	00:07:51:218	Image	void.png
finaleart	S1022551	00:07:53:234	Image	luxe-calme-et-volupté_matisse_1905.jpg
finaleart	S1022551	00:07:57:203	Image	void.png
finaleart	S1022551	00:07:59:218	Calibration	
finaleart	S1022551	00:10:05:375	The deviations of the calibration are DevX = 0,4175 DevY = 0,61
finaleart	S1022551	00:10:05:609	Image	REJECTED_Volga_Lagoon_Vassiliev_1870.jpg
finaleart	S1022551	00:10:09:562	Image	void.png
finaleart	S1022551	00:10:11:546	Image	delacroix-Reclining-Odalisque-or-Woman-with-a-Parakeet-1827.jpg
finaleart	S1022551	00:10:15:546	Image	void.png
finaleart	S1022551	00:10:17:562	Image	The_Gardener_Vlaminck_1904.jpg
finaleart	S1022551	00:10:21:531	Image	void.png
finaleart	S1022551	00:10:23:515	Image	Trouville_Black_Rocks_Boudin_1863.jpg
finaleart	S1022551	00:10:27:484	Image	void.png
finaleart	S1022551	00:10:29:500	Image	still-life-with-a-puro-(II)_matisse_1904.jpg
finaleart	S1022551	00:10:33:515	Image	void.png
finaleart	S1022551	00:10:35:531	Image	goya-Bodegón-con-salmón-1812.jpg
finaleart	S1022551	00:10:39:515	Image	void.png
finaleart	S1022551	00:10:41:546	Image	The_Augustan_Bridge_at_Narni_Corot_1826.jpg
finaleart	S1022551	00:10:45:531	Image	void.png
finaleart	S1022551	00:10:47:500	Image	La_Ferme_des_Collettes_Renoir_1908.jpg
finaleart	S1022551	00:10:51:484	Image	void.png
finaleart	S1022551	00:10:53:468	Image	nasturtiums-dahlias-in-a-basket_gauguin_1884.jpg
finaleart	S1022551	00:10:57:468	Image	void.png
finaleart	S1022551	00:10:59:484	Image	Automne_En_France_Carr_1911.jpg
finaleart	S1022551	00:11:03:453	Image	void.png
finaleart	S1022551	00:11:05:453	Image	Pots_Et_Fruits_Matisse_1901.jpg
finaleart	S1022551	00:11:09:484	Image	void.png
finaleart	S1022551	00:11:11:468	Image	Georges-braque-still-life-with-jugs-and-pipe-1906.png
finaleart	S1022551	00:11:15:453	Image	void.png
finaleart	S1022551	00:11:17:453	Image	courbet_Femme_nue_et_dormant_1858.jpg
finaleart	S1022551	00:11:21:437	Image	void.png
finaleart	S1022551	00:11:23:421	Image	parrot-tulips-(II)_matisse_1905.jpg
finaleart	S1022551	00:11:27:406	Image	void.png
finaleart	S1022551	00:11:29:421	Image	landschaft_mit_dem_ondregenbogen_caspar_david_friedrich_1810.jpg
finaleart	S1022551	00:11:33:421	Image	void.png
finaleart	S1022551	00:11:35:421	Image	Morning,_An_Overcast_Day_Rouen_Pissaro_1896.jpg
finaleart	S1022551	00:11:39:421	Image	void.png
finaleart	S1022551	00:11:41:406	Image	Naked_man_reversed_on_the_ground_Gericault_1817.jpg
finaleart	S1022551	00:11:45:406	Image	void.png
finaleart	S1022551	00:11:47:453	Image	the-large-bathers_renoir_1887.jpg
finaleart	S1022551	00:11:51:468	Image	void.png
finaleart	S1022551	00:11:53:453	Image	Le_Pin_A_St-Tropez_Signac_1909.jpg
finaleart	S1022551	00:11:57:453	Image	void.png
finaleart	S1022551	00:11:59:468	Image	Alfalfa_St-Denis_Seurat_1886.jpg
finaleart	S1022551	00:12:03:453	Image	void.png
finaleart	S1022551	00:12:05:484	Image	Le_Puy_In_The_Snow_Dubois-Pillet_1889.jpg
finaleart	S1022551	00:12:09:468	Image	void.png
finaleart	S1022551	00:12:11:453	Image	Nature_Morte_Aux_Raisins_Sur_Un_Plat_Derain_1944.jpg
finaleart	S1022551	00:12:15:437	Image	void.png
finaleart	S1022551	00:12:17:453	Image	Poppy_Fields_near_Argenteuil_Monet_1875.jpg
finaleart	S1022551	00:12:21:453	Image	void.png
finaleart	S1022551	00:12:23:453	Image	Le_Chemin_De_Fer_Berlin_Potsdam_Menzel_1847.jpg
finaleart	S1022551	00:12:27:406	Image	void.png
finaleart	S1022551	00:12:29:421	Image	after_a_rain_country_road_Vasilyev_1869.jpg
finaleart	S1022551	00:12:33:421	Image	void.png
finaleart	S1022551	00:12:35:421	Image	reclining-nude_bazille_1860.png
finaleart	S1022551	00:12:39:406	Image	void.png
finaleart	S1022551	00:12:41:375	Calibration	
finaleart	S1022551	00:14:25:500	The deviations of the calibration are DevX = 0,2425 DevY = 0,885
finaleart	S1022551	00:14:25:718	Image	REJECTED_cezanne-still-life-with-green-pot-and-pewter-1870.jpg
finaleart	S1022551	00:14:29:703	Image	void.png
finaleart	S1022551	00:14:31:703	Image	sisley-still-life-heron-with-spread-wings-1867.jpg
finaleart	S1022551	00:14:35:687	Image	void.png
finaleart	S1022551	00:14:37:656	Image	courbet-female-nude-with-a-dog-portrait-of-leotine-renaude-1866.jpg
finaleart	S1022551	00:14:41:671	Image	void.png
finaleart	S1022551	00:14:43:656	Image	Landscape_at_L-Estaque_Braque-1906.jpg
finaleart	S1022551	00:14:47:671	Image	void.png
finaleart	S1022551	00:14:49:671	Image	dead_hare_ward.jpg
finaleart	S1022551	00:14:53:718	Image	void.png
finaleart	S1022551	00:14:55:687	Image	the-banks-of-the-marne-at-dawn_dubois-pillet_1888.jpg
finaleart	S1022551	00:14:59:671	Image	void.png
finaleart	S1022551	00:15:01:671	Image	The_Luxembourg_Gardens_Matisse_1901.jpg
finaleart	S1022551	00:15:05:640	Image	void.png
finaleart	S1022551	00:15:07:609	Image	still-life-post-bottle-cup-and-fruit_cezanne_1871.jpg
finaleart	S1022551	00:15:11:609	Image	void.png
finaleart	S1022551	00:15:13:625	Image	Matisse-Nature-morte-a-la-cruche-bleue.jpg
finaleart	S1022551	00:15:17:609	Image	void.png
finaleart	S1022551	00:15:19:640	Image	metzinger-nature-morte-1905.png
finaleart	S1022551	00:15:23:687	Image	void.png
finaleart	S1022551	00:15:25:640	Image	still-life-with-fish_bazille_1866.jpg
finaleart	S1022551	00:15:29:609	Image	void.png
finaleart	S1022551	00:15:31:578	Image	The_Girl_From_Rat_Mort_Vlaminck_1905.jpg
finaleart	S1022551	00:15:35:578	Image	void.png
finaleart	S1022551	00:15:37:578	Image	Le_port_d-Anvers_Braque_1906.jpg
finaleart	S1022551	00:15:41:609	Image	void.png
finaleart	S1022551	00:15:43:593	Image	still-life_matisse_0.jpg
finaleart	S1022551	00:15:47:578	Image	void.png
finaleart	S1022551	00:15:49:578	Image	sargent-reclining-nude.JPG
finaleart	S1022551	00:15:53:578	Image	void.png
finaleart	S1022551	00:15:55:593	Image	lair_of_the_sea_serpent_vedder_1899.jpg
finaleart	S1022551	00:15:59:562	Image	void.png
finaleart	S1022551	00:16:01:562	Image	Kiprensky-two-sitters-1800.jpg
finaleart	S1022551	00:16:05:562	Image	void.png
finaleart	S1022551	00:16:07:546	Image	the_model's_siesta_Rysselberghe_1920.jpg
finaleart	S1022551	00:16:11:546	Image	void.png
finaleart	S1022551	00:16:13:562	Image	Matejko-Akt-meski.jpg
finaleart	S1022551	00:16:17:562	Image	void.png
finaleart	S1022551	00:16:19:578	Image	Houses_at_Chatou_Vlaminck_1905.jpg
finaleart	S1022551	00:16:23:593	Image	void.png
finaleart	S1022551	00:16:25:625	Image	delacroix-still-life-with-lobsters-1827.jpg
finaleart	S1022551	00:16:29:625	Image	void.png
finaleart	S1022551	00:16:31:625	Image	Bank_Of_A_Lake_Pechstein_1910.jpg
finaleart	S1022551	00:16:35:609	Image	void.png
finaleart	S1022551	00:16:37:625	Image	naked-woman-lying-on-a-couch_caillebotte_1873.jpg
finaleart	S1022551	00:16:41:593	Image	void.png
finaleart	S1022551	00:16:43:609	Image	Turner-chichester-canal-1828.jpg
finaleart	S1022551	00:16:47:609	Image	void.png
finaleart	S1022551	00:16:49:625	Image	millet-the-bather-1848.jpg
finaleart	S1022551	00:16:53:593	Image	void.png
finaleart	S1022551	00:16:55:578	Image	oysters_manet_1862.jpg
finaleart	S1022551	00:16:59:578	Image	void.png
finaleart	S1022551	00:17:01:546	Calibration	
finaleart	S1022551	00:18:57:031	The deviations of the calibration are DevX = 0,4 DevY = 0,6725
finaleart	S1022551	00:18:57:250	Image	REJECTED_landscape_cross_0.jpg
finaleart	S1022551	00:19:01:265	Image	void.png
finaleart	S1022551	00:19:03:296	Image	The_Two_Models_Dufy_1930.jpg
finaleart	S1022551	00:19:07:281	Image	void.png
finaleart	S1022551	00:19:09:265	Image	venice_from_porche_of_madonna_turner_1835.jpg
finaleart	S1022551	00:19:13:265	Image	void.png
finaleart	S1022551	00:19:15:265	Image	bathers_cross_1902.jpg
finaleart	S1022551	00:19:19:265	Image	void.png
finaleart	S1022551	00:19:21:250	Image	Les_Bords_De_Seine_A_Neuilly_Dubois_Pillet_1886.jpg
finaleart	S1022551	00:19:25:234	Image	void.png
finaleart	S1022551	00:19:27:234	Image	red-mullets_monet_1869.jpg
finaleart	S1022551	00:19:31:234	Image	void.png
finaleart	S1022551	00:19:33:250	Image	Sailboats_On_The_River_Sheldt_van_Rysselberghe_1892.jpg
finaleart	S1022551	00:19:37:250	Image	void.png
finaleart	S1022551	00:19:39:218	Image	Fleurs_et_fruits_camoin_1942.jpg
finaleart	S1022551	00:19:43:234	Image	void.png
finaleart	S1022551	00:19:45:203	Image	Niagara_Falls_Hale_1902.jpg
finaleart	S1022551	00:19:49:203	Image	void.png
finaleart	S1022551	00:19:51:234	Image	Nature-morte-Maurice-de-Vlaminck.jpg
finaleart	S1022551	00:19:55:203	Image	void.png
finaleart	S1022551	00:19:57:218	Image	still-life-with-skate_Boudin_1861.jpg
finaleart	S1022551	00:20:01:218	Image	void.png
finaleart	S1022551	00:20:03:234	Image	still-life-with-red-mullet-and-jug_gaugain_1876.jpg
finaleart	S1022551	00:20:07:218	Image	void.png
finaleart	S1022551	00:20:09:218	Image	Nature_morte_au_panier_Derain_1927.jpg
finaleart	S1022551	00:20:13:171	Image	void.png
finaleart	S1022551	00:20:15:187	Image	plate-of-peaches-Fantin-Latour-1862.jpg
finaleart	S1022551	00:20:19:156	Image	void.png
finaleart	S1022551	00:20:21:187	Image	Nu_Couche_Vlaminck_1905.jpg
finaleart	S1022551	00:20:25:156	Image	void.png
finaleart	S1022551	00:20:27:171	Image	ronde_cross_1905.jpg
finaleart	S1022551	00:20:31:187	Image	void.png
finaleart	S1022551	00:20:33:171	Image	woman-at-her-toilette_degas_1877.jpg
finaleart	S1022551	00:20:37:156	Image	void.png
finaleart	S1022551	00:20:39:203	Image	the-pointe-de-per-kiridec-at-roscoff_Rysselberghe_0.jpg
finaleart	S1022551	00:20:43:156	Image	void.png
finaleart	S1022551	00:20:45:171	Image	La_Danse_Matisse_1909.jpg
finaleart	S1022551	00:20:49:140	Image	void.png
finaleart	S1022551	00:20:51:125	Image	the_three_skulls_gericault_1814.jpg
finaleart	S1022551	00:20:55:125	Image	void.png
finaleart	S1022551	00:20:57:078	Image	chestnut_avenue_in_la_celle_saint_cloud_sisley_1865.jpg
finaleart	S1022551	00:21:01:046	Image	void.png
finaleart	S1022551	00:21:03:015	Image	The_Blue_Nude_Souvenir_of_Biskra_Matisse_1907.png
finaleart	S1022551	00:21:06:984	Image	void.png
finaleart	S1022551	00:21:09:015	Image	the_rainbow__moore_henry_1865.jpg
finaleart	S1022551	00:21:13:031	Image	void.png
finaleart	S1022551	00:21:15:000	Image	morning_Daubigny_1858.jpg
finaleart	S1022551	00:21:18:984	Image	void.png
finaleart	S1022551	00:21:20:968	Image	Upper_Mississippi_Kensett_1855.jpg
finaleart	S1022551	00:21:24:953	Image	void.png
finaleart	S1022551	00:21:26:937	Image	the_kiss_gericault_1816.jpg
finaleart	S1022551	00:21:30:921	Image	void.png
finaleart	S1022551	00:21:32:921	Calibration	
finaleart	S1022551	00:22:43:171	The deviations of the calibration are DevX = 0,635 DevY = 0,8925
finaleart	S1022551	00:22:43:390	Image	REJECTED_after-the-bath_degas_1885.jpg
finaleart	S1022551	00:22:47:359	Image	void.png
finaleart	S1022551	00:22:49:343	Image	huisje_aan_een_sloot_mauve_1888.jpg
finaleart	S1022551	00:22:53:343	Image	void.png
finaleart	S1022551	00:22:55:359	Image	plage-de-la-vignassa_cross_1892.jpg
finaleart	S1022551	00:22:59:343	Image	void.png
finaleart	S1022551	00:23:01:343	Image	les_poseuses_seurat_1888.Jpg
finaleart	S1022551	00:23:05:359	Image	void.png
finaleart	S1022551	00:23:07:328	Image	Rapids_on_the_Petite_Creuse_at_Fresselines_Monet_1889.jpg
finaleart	S1022551	00:23:11:359	Image	void.png
finaleart	S1022551	00:23:13:343	Image	sargent-male-model-resting.jpg
finaleart	S1022551	00:23:17:328	Image	void.png
finaleart	S1022551	00:23:19:296	Image	the-tea-set_monet_1871.jpg
finaleart	S1022551	00:23:23:296	Image	void.png
finaleart	S1022551	00:23:25:296	Image	nature_morte_aux_oranges_Vlaminck_1909.jpg
finaleart	S1022551	00:23:29:281	Image	void.png
finaleart	S1022551	00:23:31:312	Image	Courbet-Femme-nue-couchee-1862.jpg
finaleart	S1022551	00:23:35:343	Image	void.png
finaleart	S1022551	00:23:37:328	Image	storm_off_normandy_cost_isabey_1850.jpg
finaleart	S1022551	00:23:41:343	Image	void.png
finaleart	S1022551	00:23:43:343	Image	bacchante_sorolla_1886.Jpg
finaleart	S1022551	00:23:47:359	Image	void.png
finaleart	S1022551	00:23:49:390	Image	courbet-the-sleepers-1866.jpg
finaleart	S1022551	00:23:53:406	Image	void.png
finaleart	S1022551	00:23:55:406	Image	A_Highland_Landscape_Landseer_1830.jpg
finaleart	S1022551	00:23:59:390	Image	void.png
finaleart	S1022551	00:24:01:390	Image	Le-Restaurant-de-la-machine-a-Bougival-vlaminck-1905.jpg
finaleart	S1022551	00:24:05:375	Image	void.png
finaleart	S1022551	00:24:07:390	Image	still-life-fruits-on-a-table_manet_1864.jpg
finaleart	S1022551	00:24:11:375	Image	void.png
finaleart	S1022551	00:24:13:375	Image	Kiprensky-standing-sitter-with-a-stick-sitter-on-a-rock-1801.jpg
finaleart	S1022551	00:24:17:390	Image	void.png
finaleart	S1022551	00:24:19:453	Image	Rochers_Sur_La_Cote_A_Agay_Guillaumin_1907.jpg
finaleart	S1022551	00:24:23:468	Image	void.png
finaleart	S1022551	00:24:25:453	Image	Ma_Maison_Martin_XXXX.jpg
finaleart	S1022551	00:24:29:421	Image	void.png
finaleart	S1022551	00:24:31:453	Image	Nature_Morte_Au_Citron_Matisse_1917.jpg
finaleart	S1022551	00:24:35:453	Image	void.png
finaleart	S1022551	00:24:37:437	Image	chase-a-study-in-curves-1890.jpg
finaleart	S1022551	00:24:41:421	Image	void.png
finaleart	S1022551	00:24:43:406	Image	stilleven-met-vis_dubois-pillet_1885.jpg
finaleart	S1022551	00:24:47:406	Image	void.png
finaleart	S1022551	00:24:49:421	Image	martin-vase-of-flowers-in-a-window.jpg
finaleart	S1022551	00:24:53:421	Image	void.png
finaleart	S1022551	00:24:55:421	Image	mother_and_child_by_the_sea_dahl_1830.jpg
finaleart	S1022551	00:24:59:406	Image	void.png
finaleart	S1022551	00:25:01:390	Image	bowl_of_fruits_Fantin-Latour_1857.jpg
finaleart	S1022551	00:25:05:375	Image	void.png
finaleart	S1022551	00:25:07:359	Image	Delacroix-odalisque-1825.jpg
finaleart	S1022551	00:25:11:343	Image	void.png
finaleart	S1022551	00:25:13:343	Image	garlic-cloves-and-knife-on-the-corner-of-a-table_caillebotte_1871.jpg
finaleart	S1022551	00:25:17:328	Image	void.png
finaleart	S1022551	00:25:19:375	End of Experiment
