finaleart	S15H25531	00:00:00:000	Calibration	
finaleart	S15H25531	00:00:49:781	The deviations of the calibration are DevX = 0,55 DevY = 0,405
finaleart	S15H25531	00:00:50:015	Image	REJECTED_landscape_cross_0.jpg
finaleart	S15H25531	00:00:54:140	Image	void.png
finaleart	S15H25531	00:00:56:203	Image	REJECTED_Volga_Lagoon_Vassiliev_1870.jpg
finaleart	S15H25531	00:01:00:250	Image	void.png
finaleart	S15H25531	00:01:02:328	Calibration	
finaleart	S15H25531	00:01:39:046	The deviations of the calibration are DevX = 0,5175 DevY = 0,7225
finaleart	S15H25531	00:01:39:312	Image	REJECTED_cezanne-still-life-with-bread-and-eggs-1865.jpg
finaleart	S15H25531	00:01:43:375	Image	void.png
finaleart	S15H25531	00:01:45:437	Image	The_Augustan_Bridge_at_Narni_Corot_1826.jpg
finaleart	S15H25531	00:01:49:468	Image	void.png
finaleart	S15H25531	00:01:51:515	Image	Le_Puy_In_The_Snow_Dubois-Pillet_1889.jpg
finaleart	S15H25531	00:01:55:578	Image	void.png
finaleart	S15H25531	00:01:57:640	Image	luxe-calme-et-volupté_matisse_1905.jpg
finaleart	S15H25531	00:02:01:687	Image	void.png
finaleart	S15H25531	00:02:03:750	Image	Nature_morte_a_la_cafetiere_rouge_Vlaminck.png
finaleart	S15H25531	00:02:07:796	Image	void.png
finaleart	S15H25531	00:02:09:859	Image	Fleurs_et_fruits_camoin_1942.jpg
finaleart	S15H25531	00:02:13:906	Image	void.png
finaleart	S15H25531	00:02:15:968	Image	goya-Bodegones-con-pargos-dorados-1812.jpg
finaleart	S15H25531	00:02:20:000	Image	void.png
finaleart	S15H25531	00:02:22:062	Image	study_of_a_reclining_nude_Delacroix_1824.jpg
finaleart	S15H25531	00:02:26:109	Image	void.png
finaleart	S15H25531	00:02:28:156	Image	still-life_matisse_0.jpg
finaleart	S15H25531	00:02:32:187	Image	void.png
finaleart	S15H25531	00:02:34:250	Image	Georges-braque-still-life-with-jugs-and-pipe-1906.png
finaleart	S15H25531	00:02:38:296	Image	void.png
finaleart	S15H25531	00:02:40:343	Image	chestnut_avenue_in_la_celle_saint_cloud_sisley_1865.jpg
finaleart	S15H25531	00:02:44:421	Image	void.png
finaleart	S15H25531	00:02:46:468	Image	Alfalfa_St-Denis_Seurat_1886.jpg
finaleart	S15H25531	00:02:50:546	Image	void.png
finaleart	S15H25531	00:02:52:593	Image	L'Ile_de_La_Grande_Jatte_Seurat_1884.jpg
finaleart	S15H25531	00:02:56:640	Image	void.png
finaleart	S15H25531	00:02:58:687	Image	bowl_of_fruits_Fantin-Latour_1857.jpg
finaleart	S15H25531	00:03:02:734	Image	void.png
finaleart	S15H25531	00:03:04:859	Image	female_nude_reclining_on-a_divan_delacroix_1826.jpg
finaleart	S15H25531	00:03:08:906	Image	void.png
finaleart	S15H25531	00:03:10:953	Image	resting-bacchante_sorolla_1887.jpg
finaleart	S15H25531	00:03:15:000	Image	void.png
finaleart	S15H25531	00:03:17:046	Image	Les_Bords_De_Seine_A_Neuilly_Dubois_Pillet_1886.jpg
finaleart	S15H25531	00:03:21:093	Image	void.png
finaleart	S15H25531	00:03:23:140	Image	Kiprensky-two-sitters-1800.jpg
finaleart	S15H25531	00:03:27:187	Image	void.png
finaleart	S15H25531	00:03:29:234	Image	Automne_En_France_Carr_1911.jpg
finaleart	S15H25531	00:03:33:296	Image	void.png
finaleart	S15H25531	00:03:35:343	Image	courbet_Femme_nue_et_dormant_1858.jpg
finaleart	S15H25531	00:03:39:390	Image	void.png
finaleart	S15H25531	00:03:41:468	Image	reclining-nude_bazille_1860.png
finaleart	S15H25531	00:03:45:515	Image	void.png
finaleart	S15H25531	00:03:47:578	Image	the-banks-of-the-marne-at-dawn_dubois-pillet_1888.jpg
finaleart	S15H25531	00:03:51:687	Image	void.png
finaleart	S15H25531	00:03:53:734	Image	Hayet-Nature-morte-1888.jpg
finaleart	S15H25531	00:03:57:781	Image	void.png
finaleart	S15H25531	00:03:59:828	Image	Un_Jardin_Maison_Baptiste_Butler_1895.jpg
finaleart	S15H25531	00:04:03:859	Image	void.png
finaleart	S15H25531	00:04:05:906	Image	morning_Daubigny_1858.jpg
finaleart	S15H25531	00:04:09:953	Image	void.png
finaleart	S15H25531	00:04:12:000	Image	The_Orchard_Vlaminck_1905.jpg
finaleart	S15H25531	00:04:16:046	Image	void.png
finaleart	S15H25531	00:04:18:093	Calibration	
finaleart	S15H25531	00:08:50:578	The deviations of the calibration are DevX = 0,455 DevY = 0,2775
finaleart	S15H25531	00:08:50:875	Image	REJECTED_rose_in_a_bowl_fantin_latour_1883.jpg
finaleart	S15H25531	00:08:54:937	Image	void.png
finaleart	S15H25531	00:08:56:984	Image	landschaft_mit_dem_ondregenbogen_caspar_david_friedrich_1810.jpg
finaleart	S15H25531	00:09:01:031	Image	void.png
finaleart	S15H25531	00:09:03:078	Image	the_rainbow__moore_henry_1865.jpg
finaleart	S15H25531	00:09:07:125	Image	void.png
finaleart	S15H25531	00:09:09:171	Image	red-mullets_monet_1869.jpg
finaleart	S15H25531	00:09:13:234	Image	void.png
finaleart	S15H25531	00:09:15:281	Image	pears-and-grapes_gauguin_1875.jpg
finaleart	S15H25531	00:09:19:328	Image	void.png
finaleart	S15H25531	00:09:21:390	Image	Niagara_Falls_Hale_1902.jpg
finaleart	S15H25531	00:09:25:437	Image	void.png
finaleart	S15H25531	00:09:27:562	Image	sisley-still-life-heron-with-spread-wings-1867.jpg
finaleart	S15H25531	00:09:31:625	Image	void.png
finaleart	S15H25531	00:09:33:671	Image	basket-of-fruits-Manet-1864.jpg
finaleart	S15H25531	00:09:37:703	Image	void.png
finaleart	S15H25531	00:09:39:765	Image	the_forest_Cross_1907.jpg
finaleart	S15H25531	00:09:43:812	Image	void.png
finaleart	S15H25531	00:09:45:859	Image	after_a_rain_country_road_Vasilyev_1869.jpg
finaleart	S15H25531	00:09:49:906	Image	void.png
finaleart	S15H25531	00:09:51:953	Image	the_kiss_gericault_1816.jpg
finaleart	S15H25531	00:09:56:015	Image	void.png
finaleart	S15H25531	00:09:58:062	Image	Rysselberghe-Vase-of-flowers-1907.Jpg
finaleart	S15H25531	00:10:02:109	Image	void.png
finaleart	S15H25531	00:10:04:156	Image	Le_Chemin_De_Fer_Berlin_Potsdam_Menzel_1847.jpg
finaleart	S15H25531	00:10:08:203	Image	void.png
finaleart	S15H25531	00:10:10:265	Image	La_Danse_Matisse_1909.jpg
finaleart	S15H25531	00:10:14:312	Image	void.png
finaleart	S15H25531	00:10:16:359	Image	lair_of_the_sea_serpent_vedder_1899.jpg
finaleart	S15H25531	00:10:20:406	Image	void.png
finaleart	S15H25531	00:10:22:453	Image	still-life-with-a-puro-(II)_matisse_1904.jpg
finaleart	S15H25531	00:10:26:500	Image	void.png
finaleart	S15H25531	00:10:28:546	Image	cross-La-fuite-des-nymphes-1906.jpg
finaleart	S15H25531	00:10:32:593	Image	void.png
finaleart	S15H25531	00:10:34:640	Image	Young_Girls_Playing_With_A_Lion_Club_Valtat_1905.jpg
finaleart	S15H25531	00:10:38:687	Image	void.png
finaleart	S15H25531	00:10:40:734	Image	garlic-cloves-and-knife-on-the-corner-of-a-table_caillebotte_1871.jpg
finaleart	S15H25531	00:10:44:781	Image	void.png
finaleart	S15H25531	00:10:46:828	Image	the-pointe-de-per-kiridec-at-roscoff_Rysselberghe_0.jpg
finaleart	S15H25531	00:10:50:875	Image	void.png
finaleart	S15H25531	00:10:52:937	Image	marquet-fruit-knife-and-napkin-1898.jpg
finaleart	S15H25531	00:10:56:968	Image	void.png
finaleart	S15H25531	00:10:59:046	Image	The_Two_Models_Dufy_1930.jpg
finaleart	S15H25531	00:11:03:140	Image	void.png
finaleart	S15H25531	00:11:05:171	Image	chase-a-study-in-curves-1890.jpg
finaleart	S15H25531	00:11:09:218	Image	void.png
finaleart	S15H25531	00:11:11:265	Image	A_Highland_Landscape_Landseer_1830.jpg
finaleart	S15H25531	00:11:15:312	Image	void.png
finaleart	S15H25531	00:11:17:359	Image	goya-Nature-morte-avec-Bouteilles-et-Pains-1826.jpg
finaleart	S15H25531	00:11:21:406	Image	void.png
finaleart	S15H25531	00:11:23:453	Image	reclining-nude_renoir_1883.jpg
finaleart	S15H25531	00:11:27:515	Image	void.png
finaleart	S15H25531	00:11:29:546	Calibration	
finaleart	S15H25531	00:12:25:875	The deviations of the calibration are DevX = 0,265 DevY = 0,465
finaleart	S15H25531	00:12:26:281	Image	REJECTED_cezanne-still-life-with-green-pot-and-pewter-1870.jpg
finaleart	S15H25531	00:12:30:453	Image	void.png
finaleart	S15H25531	00:12:32:484	Image	wright-vesuvius-from-posillipo-1774.jpg
finaleart	S15H25531	00:12:36:531	Image	void.png
finaleart	S15H25531	00:12:38:609	Image	Matisse-Nature-morte-a-la-cruche-bleue.jpg
finaleart	S15H25531	00:12:42:656	Image	void.png
finaleart	S15H25531	00:12:44:796	Image	sargent-reclining-nude.JPG
finaleart	S15H25531	00:12:48:828	Image	void.png
finaleart	S15H25531	00:12:50:890	Image	Trouville_Black_Rocks_Boudin_1863.jpg
finaleart	S15H25531	00:12:54:921	Image	void.png
finaleart	S15H25531	00:12:56:968	Image	The_Joy_Of_Life_Matisse_1906.jpg
finaleart	S15H25531	00:13:01:015	Image	void.png
finaleart	S15H25531	00:13:03:062	Image	cows_at_a_pond_Bilders_1856.jpg
finaleart	S15H25531	00:13:07:109	Image	void.png
finaleart	S15H25531	00:13:09:156	Image	Bank_Of_A_Lake_Pechstein_1910.jpg
finaleart	S15H25531	00:13:13:203	Image	void.png
finaleart	S15H25531	00:13:15:250	Image	still-life-with-skate_Boudin_1861.jpg
finaleart	S15H25531	00:13:19:296	Image	void.png
finaleart	S15H25531	00:13:21:343	Image	delacroix-Reclining-Odalisque-or-Woman-with-a-Parakeet-1827.jpg
finaleart	S15H25531	00:13:25:390	Image	void.png
finaleart	S15H25531	00:13:27:437	Image	The_Blue_Nude_Souvenir_of_Biskra_Matisse_1907.png
finaleart	S15H25531	00:13:31:500	Image	void.png
finaleart	S15H25531	00:13:33:546	Image	still-life_pissarro_1867.Jpg
finaleart	S15H25531	00:13:37:578	Image	void.png
finaleart	S15H25531	00:13:39:625	Image	Naked_man_reversed_on_the_ground_Gericault_1817.jpg
finaleart	S15H25531	00:13:43:671	Image	void.png
finaleart	S15H25531	00:13:45:734	Image	Houses_at_Chatou_Vlaminck_1905.jpg
finaleart	S15H25531	00:13:49:781	Image	void.png
finaleart	S15H25531	00:13:51:828	Image	Girtin-Kirkstall-Abbey-Yorkshire-1801.jpg
finaleart	S15H25531	00:13:55:875	Image	void.png
finaleart	S15H25531	00:13:57:937	Image	Kiprensky-standing-sitter-with-a-stick-sitter-on-a-rock-1801.jpg
finaleart	S15H25531	00:14:01:984	Image	void.png
finaleart	S15H25531	00:14:04:062	Image	Odalisque_Matisse.jpg
finaleart	S15H25531	00:14:08:109	Image	void.png
finaleart	S15H25531	00:14:10:171	Image	Nature-morte-Maurice-de-Vlaminck.jpg
finaleart	S15H25531	00:14:14:203	Image	void.png
finaleart	S15H25531	00:14:16:265	Image	Upper_Mississippi_Kensett_1855.jpg
finaleart	S15H25531	00:14:20:312	Image	void.png
finaleart	S15H25531	00:14:22:359	Image	The_Gardener_Vlaminck_1904.jpg
finaleart	S15H25531	00:14:26:421	Image	void.png
finaleart	S15H25531	00:14:28:484	Image	Nature_morte_au_panier_Derain_1927.jpg
finaleart	S15H25531	00:14:32:531	Image	void.png
finaleart	S15H25531	00:14:34:609	Image	Matejko-Akt-meski.jpg
finaleart	S15H25531	00:14:38:656	Image	void.png
finaleart	S15H25531	00:14:40:687	Image	Turner-chichester-canal-1828.jpg
finaleart	S15H25531	00:14:44:734	Image	void.png
finaleart	S15H25531	00:14:46:796	Image	goya-Pavo-muerto-1812.jpg
finaleart	S15H25531	00:14:50:828	Image	void.png
finaleart	S15H25531	00:14:52:890	Image	The_Girl_From_Rat_Mort_Vlaminck_1905.jpg
finaleart	S15H25531	00:14:56:968	Image	void.png
finaleart	S15H25531	00:14:59:015	Image	lying-nude_ury_1889.JPG
finaleart	S15H25531	00:15:03:062	Image	void.png
finaleart	S15H25531	00:15:05:109	Calibration	
finaleart	S15H25531	00:16:12:843	The deviations of the calibration are DevX = 0,435 DevY = 0,4025
finaleart	S15H25531	00:16:13:062	Image	REJECTED_after-the-bath_degas_1885.jpg
finaleart	S15H25531	00:16:17:093	Image	void.png
finaleart	S15H25531	00:16:19:156	Image	renoir-still-life-with-peaches-and-grapes-1881.jpg
finaleart	S15H25531	00:16:23:203	Image	void.png
finaleart	S15H25531	00:16:25:265	Image	manet-the-salmon-1868.jpg
finaleart	S15H25531	00:16:29:312	Image	void.png
finaleart	S15H25531	00:16:31:359	Image	avenue_of_trees_in_a_small_town_sisley_1866.jpg
finaleart	S15H25531	00:16:35:406	Image	void.png
finaleart	S15H25531	00:16:37:453	Image	the-reclining-shepherdess_morisot_1891.jpg
finaleart	S15H25531	00:16:41:515	Image	void.png
finaleart	S15H25531	00:16:43:562	Image	monticelli-still-life-with-white-pitcher-1822.jpg
finaleart	S15H25531	00:16:47:625	Image	void.png
finaleart	S15H25531	00:16:49:671	Image	still-life-with-bottle-of-wind_cross_1904.Jpg
finaleart	S15H25531	00:16:53:703	Image	void.png
finaleart	S15H25531	00:16:55:765	Image	the_three_skulls_gericault_1814.jpg
finaleart	S15H25531	00:16:59:812	Image	void.png
finaleart	S15H25531	00:17:01:875	Image	dead_hare_ward.jpg
finaleart	S15H25531	00:17:05:906	Image	void.png
finaleart	S15H25531	00:17:07:968	Image	plate-of-peaches-Fantin-Latour-1862.jpg
finaleart	S15H25531	00:17:12:000	Image	void.png
finaleart	S15H25531	00:17:14:046	Image	les-deux-amies_marevna_0.jpg
finaleart	S15H25531	00:17:18:093	Image	void.png
finaleart	S15H25531	00:17:20:171	Image	huisje_aan_een_sloot_mauve_1888.jpg
finaleart	S15H25531	00:17:24:203	Image	void.png
finaleart	S15H25531	00:17:26:250	Image	Morning,_An_Overcast_Day_Rouen_Pissaro_1896.jpg
finaleart	S15H25531	00:17:30:296	Image	void.png
finaleart	S15H25531	00:17:32:328	Image	sargent-male-model-resting.jpg
finaleart	S15H25531	00:17:36:375	Image	void.png
finaleart	S15H25531	00:17:38:421	Image	courbet-the-sleepers-1866.jpg
finaleart	S15H25531	00:17:42:453	Image	void.png
finaleart	S15H25531	00:17:44:500	Image	still-life-fruits-on-a-table_manet_1864.jpg
finaleart	S15H25531	00:17:48:531	Image	void.png
finaleart	S15H25531	00:17:50:578	Image	martin-vase-of-flowers-in-a-window.jpg
finaleart	S15H25531	00:17:54:640	Image	void.png
finaleart	S15H25531	00:17:56:703	Image	Delacroix-odalisque-1825.jpg
finaleart	S15H25531	00:18:00:734	Image	void.png
finaleart	S15H25531	00:18:02:781	Image	the-large-bathers_renoir_1887.jpg
finaleart	S15H25531	00:18:06:828	Image	void.png
finaleart	S15H25531	00:18:08:875	Image	still-life-with-red-mullet-and-jug_gaugain_1876.jpg
finaleart	S15H25531	00:18:12:906	Image	void.png
finaleart	S15H25531	00:18:14:953	Image	nasturtiums-dahlias-in-a-basket_gauguin_1884.jpg
finaleart	S15H25531	00:18:19:015	Image	void.png
finaleart	S15H25531	00:18:21:062	Image	Pots_Et_Fruits_Matisse_1901.jpg
finaleart	S15H25531	00:18:25:109	Image	void.png
finaleart	S15H25531	00:18:27:156	Image	oysters_manet_1862.jpg
finaleart	S15H25531	00:18:31:203	Image	void.png
finaleart	S15H25531	00:18:33:250	Image	ronde_cross_1905.jpg
finaleart	S15H25531	00:18:37:296	Image	void.png
finaleart	S15H25531	00:18:39:359	Image	Le-Restaurant-de-la-machine-a-Bougival-vlaminck-1905.jpg
finaleart	S15H25531	00:18:43:390	Image	void.png
finaleart	S15H25531	00:18:45:437	Image	les_poseuses_seurat_1888.Jpg
finaleart	S15H25531	00:18:49:484	Image	void.png
finaleart	S15H25531	00:18:51:531	Calibration	
finaleart	S15H25531	00:20:25:406	The deviations of the calibration are DevX = 0,29 DevY = 0,43
finaleart	S15H25531	00:20:25:703	Image	REJECTED_olympia_manet_1863.jpg
finaleart	S15H25531	00:20:29:828	Image	void.png
finaleart	S15H25531	00:20:31:875	Image	courbet-female-nude-with-a-dog-portrait-of-leotine-renaude-1866.jpg
finaleart	S15H25531	00:20:35:921	Image	void.png
finaleart	S15H25531	00:20:37:984	Image	Nature_Morte_Aux_Raisins_Sur_Un_Plat_Derain_1944.jpg
finaleart	S15H25531	00:20:42:046	Image	void.png
finaleart	S15H25531	00:20:44:093	Image	Ma_Maison_Martin_XXXX.jpg
finaleart	S15H25531	00:20:48:140	Image	void.png
finaleart	S15H25531	00:20:50:187	Image	turner-waves-breaking-against-the-wind-1830.jpg
finaleart	S15H25531	00:20:54:250	Image	void.png
finaleart	S15H25531	00:20:56:296	Image	naked-woman-lying-on-a-couch_caillebotte_1873.jpg
finaleart	S15H25531	00:21:00:328	Image	void.png
finaleart	S15H25531	00:21:02:375	Image	still-life-with-pumpkin-plums-cherries-figs-and-jug-Ribot-1860.jpg
finaleart	S15H25531	00:21:06:437	Image	void.png
finaleart	S15H25531	00:21:08:468	Image	The_Luxembourg_Gardens_Matisse_1901.jpg
finaleart	S15H25531	00:21:12:515	Image	void.png
finaleart	S15H25531	00:21:14:578	Image	storm_off_normandy_cost_isabey_1850.jpg
finaleart	S15H25531	00:21:18:640	Image	void.png
finaleart	S15H25531	00:21:20:703	Image	the-wood_cross_907.jpg
finaleart	S15H25531	00:21:24:750	Image	void.png
finaleart	S15H25531	00:21:26:781	Image	parrot-tulips-(II)_matisse_1905.jpg
finaleart	S15H25531	00:21:30:828	Image	void.png
finaleart	S15H25531	00:21:32:875	Image	woman-at-her-toilette_degas_1877.jpg
finaleart	S15H25531	00:21:36:937	Image	void.png
finaleart	S15H25531	00:21:39:015	Image	plage-de-la-vignassa_cross_1892.jpg
finaleart	S15H25531	00:21:43:140	Image	void.png
finaleart	S15H25531	00:21:45:203	Image	still-life-with-fish_bazille_1866.jpg
finaleart	S15H25531	00:21:49:234	Image	void.png
finaleart	S15H25531	00:21:51:281	Image	delacroix-still-life-with-lobsters-1827.jpg
finaleart	S15H25531	00:21:55:328	Image	void.png
finaleart	S15H25531	00:21:57:375	Image	Le_port_d-Anvers_Braque_1906.jpg
finaleart	S15H25531	00:22:01:421	Image	void.png
finaleart	S15H25531	00:22:03:484	Image	The_Lying_Nude_Matisse_1906.png
finaleart	S15H25531	00:22:07:515	Image	void.png
finaleart	S15H25531	00:22:09:546	Image	bacchante_sorolla_1886.Jpg
finaleart	S15H25531	00:22:13:609	Image	void.png
finaleart	S15H25531	00:22:15:671	Image	stilleven-met-vis_dubois-pillet_1885.jpg
finaleart	S15H25531	00:22:19:734	Image	void.png
finaleart	S15H25531	00:22:21:781	Image	Poppy_Fields_near_Argenteuil_Monet_1875.jpg
finaleart	S15H25531	00:22:25:828	Image	void.png
finaleart	S15H25531	00:22:27:875	Image	goya-Bodegón-con-salmón-1812.jpg
finaleart	S15H25531	00:22:31:921	Image	void.png
finaleart	S15H25531	00:22:33:968	Image	courbet-woman-with-a-parrot-1866.jpg
finaleart	S15H25531	00:22:38:015	Image	void.png
finaleart	S15H25531	00:22:40:062	Image	La_Ferme_des_Collettes_Renoir_1908.jpg
finaleart	S15H25531	00:22:44:109	Image	void.png
finaleart	S15H25531	00:22:46:156	Image	L-Heure_Embrasee_Rysselberghe_1897.jpg
finaleart	S15H25531	00:22:50:203	Image	void.png
finaleart	S15H25531	00:22:52:250	Image	Le_Pin_A_St-Tropez_Signac_1909.jpg
finaleart	S15H25531	00:22:56:281	Image	void.png
finaleart	S15H25531	00:22:58:328	Image	Paysage_a_La_Ciotat_(La_Pointe_du-Capucin)_friesz_1907.jpg
finaleart	S15H25531	00:23:02:359	Image	void.png
finaleart	S15H25531	00:23:04:421	Calibration	
finaleart	S15H25531	00:23:41:546	The deviations of the calibration are DevX = 0,2925 DevY = 0,325
finaleart	S15H25531	00:23:41:781	Image	REJECTED_rose_in_a_bowl_fantin_latour_1883.jpg
finaleart	S15H25531	00:23:45:843	Image	void.png
finaleart	S15H25531	00:23:47:875	Image	goya-still-life-plucked-turkey-and-pan-with-fish-1812.jpg
finaleart	S15H25531	00:23:51:921	Image	void.png
finaleart	S15H25531	00:23:53:984	Image	Landscape_at_L-Estaque_Braque-1906.jpg
finaleart	S15H25531	00:23:58:046	Image	void.png
finaleart	S15H25531	00:24:00:093	Image	venice_from_porche_of_madonna_turner_1835.jpg
finaleart	S15H25531	00:24:04:125	Image	void.png
finaleart	S15H25531	00:24:06:187	Image	Sailboats_On_The_River_Sheldt_van_Rysselberghe_1892.jpg
finaleart	S15H25531	00:24:10:218	Image	void.png
finaleart	S15H25531	00:24:12:296	Image	Nature_Morte_Au_Citron_Matisse_1917.jpg
finaleart	S15H25531	00:24:16:359	Image	void.png
finaleart	S15H25531	00:24:18:390	Image	kneeling-nude_degas_1888.jpg
finaleart	S15H25531	00:24:22:453	Image	void.png
finaleart	S15H25531	00:24:24:500	Image	Still-life-of-Sheep-s-Ribs-and-Head-The-Butchers-conter_Goya_1812.jpg
finaleart	S15H25531	00:24:28:546	Image	void.png
finaleart	S15H25531	00:24:30:593	Image	metzinger-nature-morte-1905.png
finaleart	S15H25531	00:24:34:625	Image	void.png
finaleart	S15H25531	00:24:36:687	Image	millet-the-bather-1848.jpg
finaleart	S15H25531	00:24:40:734	Image	void.png
finaleart	S15H25531	00:24:42:781	Image	Courbet-Femme-nue-couchee-1862.jpg
finaleart	S15H25531	00:24:46:828	Image	void.png
finaleart	S15H25531	00:24:48:875	Image	the-tea-set_monet_1871.jpg
finaleart	S15H25531	00:24:52:921	Image	void.png
finaleart	S15H25531	00:24:54:968	Image	morning_in_a_pine_forest_Ivan_Shishkin_1889.jpg
finaleart	S15H25531	00:24:59:031	Image	void.png
finaleart	S15H25531	00:25:01:078	Image	nature_morte_aux_oranges_Vlaminck_1909.jpg
finaleart	S15H25531	00:25:05:125	Image	void.png
finaleart	S15H25531	00:25:07:171	Image	Nu_Couche_Vlaminck_1905.jpg
finaleart	S15H25531	00:25:11:203	Image	void.png
finaleart	S15H25531	00:25:13:250	Image	Rapids_on_the_Petite_Creuse_at_Fresselines_Monet_1889.jpg
finaleart	S15H25531	00:25:17:296	Image	void.png
finaleart	S15H25531	00:25:19:359	Image	mother_and_child_by_the_sea_dahl_1830.jpg
finaleart	S15H25531	00:25:23:406	Image	void.png
finaleart	S15H25531	00:25:25:453	Image	still-life-post-bottle-cup-and-fruit_cezanne_1871.jpg
finaleart	S15H25531	00:25:29:500	Image	void.png
finaleart	S15H25531	00:25:31:546	Image	bathers_cross_1902.jpg
finaleart	S15H25531	00:25:35:593	Image	void.png
finaleart	S15H25531	00:25:37:640	Image	Rochers_Sur_La_Cote_A_Agay_Guillaumin_1907.jpg
finaleart	S15H25531	00:25:41:687	Image	void.png
finaleart	S15H25531	00:25:43:750	Image	flowers-and-fruit-a-melon_fantin-latour_1865.jpg
finaleart	S15H25531	00:25:47:796	Image	void.png
finaleart	S15H25531	00:25:49:859	Image	the_model's_siesta_Rysselberghe_1920.jpg
finaleart	S15H25531	00:25:53:906	Image	void.png
finaleart	S15H25531	00:25:55:968	Image	paysage_avec_du_betail_au_limousin_jules-dupre_1837.jpg
finaleart	S15H25531	00:26:00:000	Image	void.png
finaleart	S15H25531	00:26:02:046	Image	courbet-the-bathers-1858.jpg
finaleart	S15H25531	00:26:06:093	Image	void.png
finaleart	S15H25531	00:26:08:140	Image	madrazo-y-kuntz-Man-Holding-a-Dagger-1850.jpg
finaleart	S15H25531	00:26:12:203	Image	void.png
finaleart	S15H25531	00:26:14:234	Image	Turner-snow-storm-boat-off-a-harbours-mouth-1842.jpg
finaleart	S15H25531	00:26:18:281	Image	void.png
finaleart	S15H25531	00:26:20:375	End of Experiment
