finaleart	S19F21442	00:00:00:000	Calibration	
finaleart	S19F21442	00:00:53:515	The deviations of the calibration are DevX = 0,2775 DevY = 0,5825
finaleart	S19F21442	00:00:53:750	Image	REJECTED_rose_in_a_bowl_fantin_latour_1883.jpg
finaleart	S19F21442	00:00:57:781	Image	void.png
finaleart	S19F21442	00:00:59:859	Image	REJECTED_Volga_Lagoon_Vassiliev_1870.jpg
finaleart	S19F21442	00:01:03:906	Image	void.png
finaleart	S19F21442	00:01:05:953	Calibration	
finaleart	S19F21442	00:01:48:156	The deviations of the calibration are DevX = 0,235 DevY = 0,46
finaleart	S19F21442	00:01:48:421	Image	REJECTED_cezanne-still-life-with-bread-and-eggs-1865.jpg
finaleart	S19F21442	00:01:52:531	Image	void.png
finaleart	S19F21442	00:01:54:578	Image	still-life-with-a-puro-(II)_matisse_1904.jpg
finaleart	S19F21442	00:01:58:625	Image	void.png
finaleart	S19F21442	00:02:00:671	Image	the_kiss_gericault_1816.jpg
finaleart	S19F21442	00:02:04:718	Image	void.png
finaleart	S19F21442	00:02:06:765	Image	parrot-tulips-(II)_matisse_1905.jpg
finaleart	S19F21442	00:02:10:828	Image	void.png
finaleart	S19F21442	00:02:12:875	Image	delacroix-Reclining-Odalisque-or-Woman-with-a-Parakeet-1827.jpg
finaleart	S19F21442	00:02:16:921	Image	void.png
finaleart	S19F21442	00:02:18:984	Image	morning_in_a_pine_forest_Ivan_Shishkin_1889.jpg
finaleart	S19F21442	00:02:23:031	Image	void.png
finaleart	S19F21442	00:02:25:109	Image	the_rainbow__moore_henry_1865.jpg
finaleart	S19F21442	00:02:29:140	Image	void.png
finaleart	S19F21442	00:02:31:203	Image	garlic-cloves-and-knife-on-the-corner-of-a-table_caillebotte_1871.jpg
finaleart	S19F21442	00:02:35:265	Image	void.png
finaleart	S19F21442	00:02:37:328	Image	La_Ferme_des_Collettes_Renoir_1908.jpg
finaleart	S19F21442	00:02:41:375	Image	void.png
finaleart	S19F21442	00:02:43:421	Image	avenue_of_trees_in_a_small_town_sisley_1866.jpg
finaleart	S19F21442	00:02:47:484	Image	void.png
finaleart	S19F21442	00:02:49:531	Image	bowl_of_fruits_Fantin-Latour_1857.jpg
finaleart	S19F21442	00:02:53:593	Image	void.png
finaleart	S19F21442	00:02:55:656	Image	Turner-chichester-canal-1828.jpg
finaleart	S19F21442	00:02:59:703	Image	void.png
finaleart	S19F21442	00:03:01:750	Image	monticelli-still-life-with-white-pitcher-1822.jpg
finaleart	S19F21442	00:03:05:812	Image	void.png
finaleart	S19F21442	00:03:07:859	Image	Bank_Of_A_Lake_Pechstein_1910.jpg
finaleart	S19F21442	00:03:11:921	Image	void.png
finaleart	S19F21442	00:03:13:984	Image	still-life_matisse_0.jpg
finaleart	S19F21442	00:03:18:031	Image	void.png
finaleart	S19F21442	00:03:20:093	Image	storm_off_normandy_cost_isabey_1850.jpg
finaleart	S19F21442	00:03:24:125	Image	void.png
finaleart	S19F21442	00:03:26:187	Image	stilleven-met-vis_dubois-pillet_1885.jpg
finaleart	S19F21442	00:03:30:250	Image	void.png
finaleart	S19F21442	00:03:32:296	Image	Hayet-Nature-morte-1888.jpg
finaleart	S19F21442	00:03:36:359	Image	void.png
finaleart	S19F21442	00:03:38:421	Image	oysters_manet_1862.jpg
finaleart	S19F21442	00:03:42:484	Image	void.png
finaleart	S19F21442	00:03:44:546	Image	still-life_pissarro_1867.Jpg
finaleart	S19F21442	00:03:48:671	Image	void.png
finaleart	S19F21442	00:03:50:718	Image	Courbet-Femme-nue-couchee-1862.jpg
finaleart	S19F21442	00:03:54:781	Image	void.png
finaleart	S19F21442	00:03:56:828	Image	goya-still-life-plucked-turkey-and-pan-with-fish-1812.jpg
finaleart	S19F21442	00:04:00:875	Image	void.png
finaleart	S19F21442	00:04:02:921	Image	study_of_a_reclining_nude_Delacroix_1824.jpg
finaleart	S19F21442	00:04:06:968	Image	void.png
finaleart	S19F21442	00:04:09:046	Image	plage-de-la-vignassa_cross_1892.jpg
finaleart	S19F21442	00:04:13:125	Image	void.png
finaleart	S19F21442	00:04:15:171	Image	Le_port_d-Anvers_Braque_1906.jpg
finaleart	S19F21442	00:04:19:218	Image	void.png
finaleart	S19F21442	00:04:21:265	Image	Nature_Morte_Au_Citron_Matisse_1917.jpg
finaleart	S19F21442	00:04:25:312	Image	void.png
finaleart	S19F21442	00:04:27:343	Calibration	
finaleart	S19F21442	00:13:53:937	The deviations of the calibration are DevX = 0,3875 DevY = 0,3525
finaleart	S19F21442	00:13:54:171	Image	REJECTED_landscape_cross_0.jpg
finaleart	S19F21442	00:13:58:234	Image	void.png
finaleart	S19F21442	00:14:00:281	Image	Matejko-Akt-meski.jpg
finaleart	S19F21442	00:14:04:359	Image	void.png
finaleart	S19F21442	00:14:06:421	Image	nasturtiums-dahlias-in-a-basket_gauguin_1884.jpg
finaleart	S19F21442	00:14:10:468	Image	void.png
finaleart	S19F21442	00:14:12:546	Image	sargent-male-model-resting.jpg
finaleart	S19F21442	00:14:16:593	Image	void.png
finaleart	S19F21442	00:14:18:656	Image	madrazo-y-kuntz-Man-Holding-a-Dagger-1850.jpg
finaleart	S19F21442	00:14:22:703	Image	void.png
finaleart	S19F21442	00:14:24:750	Image	morning_Daubigny_1858.jpg
finaleart	S19F21442	00:14:28:796	Image	void.png
finaleart	S19F21442	00:14:30:859	Image	Nature-morte-Maurice-de-Vlaminck.jpg
finaleart	S19F21442	00:14:34:906	Image	void.png
finaleart	S19F21442	00:14:36:968	Image	Nature_morte_au_panier_Derain_1927.jpg
finaleart	S19F21442	00:14:41:000	Image	void.png
finaleart	S19F21442	00:14:43:062	Image	the_three_skulls_gericault_1814.jpg
finaleart	S19F21442	00:14:47:093	Image	void.png
finaleart	S19F21442	00:14:49:187	Image	Odalisque_Matisse.jpg
finaleart	S19F21442	00:14:53:234	Image	void.png
finaleart	S19F21442	00:14:55:281	Image	the-reclining-shepherdess_morisot_1891.jpg
finaleart	S19F21442	00:14:59:328	Image	void.png
finaleart	S19F21442	00:15:01:375	Image	Automne_En_France_Carr_1911.jpg
finaleart	S19F21442	00:15:05:421	Image	void.png
finaleart	S19F21442	00:15:07:500	Image	Le_Pin_A_St-Tropez_Signac_1909.jpg
finaleart	S19F21442	00:15:11:562	Image	void.png
finaleart	S19F21442	00:15:13:625	Image	Fleurs_et_fruits_camoin_1942.jpg
finaleart	S19F21442	00:15:17:687	Image	void.png
finaleart	S19F21442	00:15:19:734	Image	paysage_avec_du_betail_au_limousin_jules-dupre_1837.jpg
finaleart	S19F21442	00:15:23:781	Image	void.png
finaleart	S19F21442	00:15:25:843	Image	A_Highland_Landscape_Landseer_1830.jpg
finaleart	S19F21442	00:15:29:875	Image	void.png
finaleart	S19F21442	00:15:31:937	Image	the_forest_Cross_1907.jpg
finaleart	S19F21442	00:15:36:000	Image	void.png
finaleart	S19F21442	00:15:38:046	Image	pears-and-grapes_gauguin_1875.jpg
finaleart	S19F21442	00:15:42:093	Image	void.png
finaleart	S19F21442	00:15:44:171	Image	huisje_aan_een_sloot_mauve_1888.jpg
finaleart	S19F21442	00:15:48:203	Image	void.png
finaleart	S19F21442	00:15:50:250	Image	Still-life-of-Sheep-s-Ribs-and-Head-The-Butchers-conter_Goya_1812.jpg
finaleart	S19F21442	00:15:54:296	Image	void.png
finaleart	S19F21442	00:15:56:359	Image	red-mullets_monet_1869.jpg
finaleart	S19F21442	00:16:00:390	Image	void.png
finaleart	S19F21442	00:16:02:453	Image	Matisse-Nature-morte-a-la-cruche-bleue.jpg
finaleart	S19F21442	00:16:06:515	Image	void.png
finaleart	S19F21442	00:16:08:562	Image	The_Gardener_Vlaminck_1904.jpg
finaleart	S19F21442	00:16:12:609	Image	void.png
finaleart	S19F21442	00:16:14:671	Image	The_Augustan_Bridge_at_Narni_Corot_1826.jpg
finaleart	S19F21442	00:16:18:718	Image	void.png
finaleart	S19F21442	00:16:20:781	Image	mother_and_child_by_the_sea_dahl_1830.jpg
finaleart	S19F21442	00:16:24:828	Image	void.png
finaleart	S19F21442	00:16:26:890	Image	the-pointe-de-per-kiridec-at-roscoff_Rysselberghe_0.jpg
finaleart	S19F21442	00:16:30:921	Image	void.png
finaleart	S19F21442	00:16:32:953	Calibration	
finaleart	S19F21442	00:21:11:718	The deviations of the calibration are DevX = 0,29 DevY = 0,3025
finaleart	S19F21442	00:21:11:921	Image	REJECTED_olympia_manet_1863.jpg
finaleart	S19F21442	00:21:15:968	Image	void.png
finaleart	S19F21442	00:21:18:015	Image	Niagara_Falls_Hale_1902.jpg
finaleart	S19F21442	00:21:22:062	Image	void.png
finaleart	S19F21442	00:21:24:140	Image	courbet-the-sleepers-1866.jpg
finaleart	S19F21442	00:21:28:187	Image	void.png
finaleart	S19F21442	00:21:30:265	Image	chestnut_avenue_in_la_celle_saint_cloud_sisley_1865.jpg
finaleart	S19F21442	00:21:34:312	Image	void.png
finaleart	S19F21442	00:21:36:359	Image	luxe-calme-et-volupté_matisse_1905.jpg
finaleart	S19F21442	00:21:40:390	Image	void.png
finaleart	S19F21442	00:21:42:437	Image	resting-bacchante_sorolla_1887.jpg
finaleart	S19F21442	00:21:46:500	Image	void.png
finaleart	S19F21442	00:21:48:562	Image	Un_Jardin_Maison_Baptiste_Butler_1895.jpg
finaleart	S19F21442	00:21:52:609	Image	void.png
finaleart	S19F21442	00:21:54:656	Image	basket-of-fruits-Manet-1864.jpg
finaleart	S19F21442	00:21:58:703	Image	void.png
finaleart	S19F21442	00:22:00:750	Image	woman-at-her-toilette_degas_1877.jpg
finaleart	S19F21442	00:22:04:890	Image	void.png
finaleart	S19F21442	00:22:06:937	Image	Delacroix-odalisque-1825.jpg
finaleart	S19F21442	00:22:10:984	Image	void.png
finaleart	S19F21442	00:22:13:031	Image	turner-waves-breaking-against-the-wind-1830.jpg
finaleart	S19F21442	00:22:17:062	Image	void.png
finaleart	S19F21442	00:22:19:140	Image	the-banks-of-the-marne-at-dawn_dubois-pillet_1888.jpg
finaleart	S19F21442	00:22:23:203	Image	void.png
finaleart	S19F21442	00:22:25:250	Image	martin-vase-of-flowers-in-a-window.jpg
finaleart	S19F21442	00:22:29:328	Image	void.png
finaleart	S19F21442	00:22:31:375	Image	goya-Bodegón-con-salmón-1812.jpg
finaleart	S19F21442	00:22:35:468	Image	void.png
finaleart	S19F21442	00:22:37:515	Image	millet-the-bather-1848.jpg
finaleart	S19F21442	00:22:41:578	Image	void.png
finaleart	S19F21442	00:22:43:625	Image	sisley-still-life-heron-with-spread-wings-1867.jpg
finaleart	S19F21442	00:22:47:671	Image	void.png
finaleart	S19F21442	00:22:49:734	Image	Nature_morte_a_la_cafetiere_rouge_Vlaminck.png
finaleart	S19F21442	00:22:53:781	Image	void.png
finaleart	S19F21442	00:22:55:843	Image	reclining-nude_renoir_1883.jpg
finaleart	S19F21442	00:22:59:906	Image	void.png
finaleart	S19F21442	00:23:01:968	Image	Sailboats_On_The_River_Sheldt_van_Rysselberghe_1892.jpg
finaleart	S19F21442	00:23:06:000	Image	void.png
finaleart	S19F21442	00:23:08:093	Image	metzinger-nature-morte-1905.png
finaleart	S19F21442	00:23:12:156	Image	void.png
finaleart	S19F21442	00:23:14:218	Image	goya-Pavo-muerto-1812.jpg
finaleart	S19F21442	00:23:18:250	Image	void.png
finaleart	S19F21442	00:23:20:312	Image	bathers_cross_1902.jpg
finaleart	S19F21442	00:23:24:375	Image	void.png
finaleart	S19F21442	00:23:26:437	Image	Upper_Mississippi_Kensett_1855.jpg
finaleart	S19F21442	00:23:30:468	Image	void.png
finaleart	S19F21442	00:23:32:531	Image	courbet_Femme_nue_et_dormant_1858.jpg
finaleart	S19F21442	00:23:36:562	Image	void.png
finaleart	S19F21442	00:23:38:625	Image	kneeling-nude_degas_1888.jpg
finaleart	S19F21442	00:23:42:671	Image	void.png
finaleart	S19F21442	00:23:44:750	Image	courbet-woman-with-a-parrot-1866.jpg
finaleart	S19F21442	00:23:48:796	Image	void.png
finaleart	S19F21442	00:23:50:906	Calibration	
finaleart	S19F21442	00:29:02:218	The deviations of the calibration are DevX = 0,6975 DevY = 0,5125
finaleart	S19F21442	00:29:02:453	Image	REJECTED_rose_in_a_bowl_fantin_latour_1883.jpg
finaleart	S19F21442	00:29:06:500	Image	void.png
finaleart	S19F21442	00:29:08:562	Image	The_Joy_Of_Life_Matisse_1906.jpg
finaleart	S19F21442	00:29:12:609	Image	void.png
finaleart	S19F21442	00:29:14:656	Image	landschaft_mit_dem_ondregenbogen_caspar_david_friedrich_1810.jpg
finaleart	S19F21442	00:29:18:703	Image	void.png
finaleart	S19F21442	00:29:20:765	Image	still-life-post-bottle-cup-and-fruit_cezanne_1871.jpg
finaleart	S19F21442	00:29:24:812	Image	void.png
finaleart	S19F21442	00:29:26:875	Image	goya-Nature-morte-avec-Bouteilles-et-Pains-1826.jpg
finaleart	S19F21442	00:29:30:921	Image	void.png
finaleart	S19F21442	00:29:33:000	Image	Morning,_An_Overcast_Day_Rouen_Pissaro_1896.jpg
finaleart	S19F21442	00:29:37:031	Image	void.png
finaleart	S19F21442	00:29:39:125	Image	sargent-reclining-nude.JPG
finaleart	S19F21442	00:29:43:171	Image	void.png
finaleart	S19F21442	00:29:45:218	Image	still-life-with-fish_bazille_1866.jpg
finaleart	S19F21442	00:29:49:265	Image	void.png
finaleart	S19F21442	00:29:51:312	Image	Kiprensky-standing-sitter-with-a-stick-sitter-on-a-rock-1801.jpg
finaleart	S19F21442	00:29:55:359	Image	void.png
finaleart	S19F21442	00:29:57:421	Image	Le_Chemin_De_Fer_Berlin_Potsdam_Menzel_1847.jpg
finaleart	S19F21442	00:30:01:453	Image	void.png
finaleart	S19F21442	00:30:03:515	Image	still-life-with-bottle-of-wind_cross_1904.Jpg
finaleart	S19F21442	00:30:07:562	Image	void.png
finaleart	S19F21442	00:30:09:656	Image	cross-La-fuite-des-nymphes-1906.jpg
finaleart	S19F21442	00:30:13:718	Image	void.png
finaleart	S19F21442	00:30:15:765	Image	the-wood_cross_907.jpg
finaleart	S19F21442	00:30:19:812	Image	void.png
finaleart	S19F21442	00:30:21:875	Image	Houses_at_Chatou_Vlaminck_1905.jpg
finaleart	S19F21442	00:30:25:921	Image	void.png
finaleart	S19F21442	00:30:28:000	Image	Les_Bords_De_Seine_A_Neuilly_Dubois_Pillet_1886.jpg
finaleart	S19F21442	00:30:32:125	Image	void.png
finaleart	S19F21442	00:30:34:218	Image	goya-Bodegones-con-pargos-dorados-1812.jpg
finaleart	S19F21442	00:30:38:250	Image	void.png
finaleart	S19F21442	00:30:40:343	Image	courbet-female-nude-with-a-dog-portrait-of-leotine-renaude-1866.jpg
finaleart	S19F21442	00:30:44:390	Image	void.png
finaleart	S19F21442	00:30:46:437	Image	female_nude_reclining_on-a_divan_delacroix_1826.jpg
finaleart	S19F21442	00:30:50:500	Image	void.png
finaleart	S19F21442	00:30:52:546	Image	Girtin-Kirkstall-Abbey-Yorkshire-1801.jpg
finaleart	S19F21442	00:30:56:609	Image	void.png
finaleart	S19F21442	00:30:58:687	Image	dead_hare_ward.jpg
finaleart	S19F21442	00:31:02:734	Image	void.png
finaleart	S19F21442	00:31:04:796	Image	plate-of-peaches-Fantin-Latour-1862.jpg
finaleart	S19F21442	00:31:08:828	Image	void.png
finaleart	S19F21442	00:31:10:890	Image	Naked_man_reversed_on_the_ground_Gericault_1817.jpg
finaleart	S19F21442	00:31:14:937	Image	void.png
finaleart	S19F21442	00:31:17:000	Image	La_Danse_Matisse_1909.jpg
finaleart	S19F21442	00:31:21:046	Image	void.png
finaleart	S19F21442	00:31:23:109	Image	Rysselberghe-Vase-of-flowers-1907.Jpg
finaleart	S19F21442	00:31:27:171	Image	void.png
finaleart	S19F21442	00:31:29:218	Image	venice_from_porche_of_madonna_turner_1835.jpg
finaleart	S19F21442	00:31:33:265	Image	void.png
finaleart	S19F21442	00:31:35:343	Image	L'Ile_de_La_Grande_Jatte_Seurat_1884.jpg
finaleart	S19F21442	00:31:39:390	Image	void.png
finaleart	S19F21442	00:31:41:437	Calibration	
finaleart	S19F21442	00:37:52:625	The deviations of the calibration are DevX = 0,085 DevY = 0,335
finaleart	S19F21442	00:37:52:843	Image	REJECTED_after-the-bath_degas_1885.jpg
finaleart	S19F21442	00:37:56:890	Image	void.png
finaleart	S19F21442	00:37:58:953	Image	Rapids_on_the_Petite_Creuse_at_Fresselines_Monet_1889.jpg
finaleart	S19F21442	00:38:03:000	Image	void.png
finaleart	S19F21442	00:38:05:046	Image	manet-the-salmon-1868.jpg
finaleart	S19F21442	00:38:09:093	Image	void.png
finaleart	S19F21442	00:38:11:171	Image	lying-nude_ury_1889.JPG
finaleart	S19F21442	00:38:15:218	Image	void.png
finaleart	S19F21442	00:38:17:296	Image	delacroix-still-life-with-lobsters-1827.jpg
finaleart	S19F21442	00:38:21:343	Image	void.png
finaleart	S19F21442	00:38:23:421	Image	wright-vesuvius-from-posillipo-1774.jpg
finaleart	S19F21442	00:38:27:468	Image	void.png
finaleart	S19F21442	00:38:29:531	Image	Rochers_Sur_La_Cote_A_Agay_Guillaumin_1907.jpg
finaleart	S19F21442	00:38:33:578	Image	void.png
finaleart	S19F21442	00:38:35:640	Image	still-life-with-pumpkin-plums-cherries-figs-and-jug-Ribot-1860.jpg
finaleart	S19F21442	00:38:39:671	Image	void.png
finaleart	S19F21442	00:38:41:734	Image	Trouville_Black_Rocks_Boudin_1863.jpg
finaleart	S19F21442	00:38:45:781	Image	void.png
finaleart	S19F21442	00:38:47:843	Image	Young_Girls_Playing_With_A_Lion_Club_Valtat_1905.jpg
finaleart	S19F21442	00:38:51:906	Image	void.png
finaleart	S19F21442	00:38:53:953	Image	Le_Puy_In_The_Snow_Dubois-Pillet_1889.jpg
finaleart	S19F21442	00:38:58:015	Image	void.png
finaleart	S19F21442	00:39:00:062	Image	The_Luxembourg_Gardens_Matisse_1901.jpg
finaleart	S19F21442	00:39:04:093	Image	void.png
finaleart	S19F21442	00:39:06:156	Image	Landscape_at_L-Estaque_Braque-1906.jpg
finaleart	S19F21442	00:39:10:203	Image	void.png
finaleart	S19F21442	00:39:12:265	Image	les-deux-amies_marevna_0.jpg
finaleart	S19F21442	00:39:16:328	Image	void.png
finaleart	S19F21442	00:39:18:390	Image	courbet-the-bathers-1858.jpg
finaleart	S19F21442	00:39:22:437	Image	void.png
finaleart	S19F21442	00:39:24:484	Image	The_Girl_From_Rat_Mort_Vlaminck_1905.jpg
finaleart	S19F21442	00:39:28:531	Image	void.png
finaleart	S19F21442	00:39:30:593	Image	Kiprensky-two-sitters-1800.jpg
finaleart	S19F21442	00:39:34:640	Image	void.png
finaleart	S19F21442	00:39:36:703	Image	after_a_rain_country_road_Vasilyev_1869.jpg
finaleart	S19F21442	00:39:40:750	Image	void.png
finaleart	S19F21442	00:39:42:812	Image	The_Two_Models_Dufy_1930.jpg
finaleart	S19F21442	00:39:46:859	Image	void.png
finaleart	S19F21442	00:39:48:937	Image	the_model's_siesta_Rysselberghe_1920.jpg
finaleart	S19F21442	00:39:52:968	Image	void.png
finaleart	S19F21442	00:39:55:031	Image	flowers-and-fruit-a-melon_fantin-latour_1865.jpg
finaleart	S19F21442	00:39:59:078	Image	void.png
finaleart	S19F21442	00:40:01:156	Image	marquet-fruit-knife-and-napkin-1898.jpg
finaleart	S19F21442	00:40:05:218	Image	void.png
finaleart	S19F21442	00:40:07:281	Image	still-life-with-skate_Boudin_1861.jpg
finaleart	S19F21442	00:40:11:343	Image	void.png
finaleart	S19F21442	00:40:13:406	Image	Le-Restaurant-de-la-machine-a-Bougival-vlaminck-1905.jpg
finaleart	S19F21442	00:40:17:468	Image	void.png
finaleart	S19F21442	00:40:19:531	Image	L-Heure_Embrasee_Rysselberghe_1897.jpg
finaleart	S19F21442	00:40:23:593	Image	void.png
finaleart	S19F21442	00:40:25:656	Image	naked-woman-lying-on-a-couch_caillebotte_1873.jpg
finaleart	S19F21442	00:40:29:718	Image	void.png
finaleart	S19F21442	00:40:31:765	Calibration	
finaleart	S19F21442	00:47:43:718	The deviations of the calibration are DevX = 0,4225 DevY = 0,19
finaleart	S19F21442	00:47:43:937	Image	REJECTED_cezanne-still-life-with-green-pot-and-pewter-1870.jpg
finaleart	S19F21442	00:47:47:984	Image	void.png
finaleart	S19F21442	00:47:50:031	Image	still-life-with-red-mullet-and-jug_gaugain_1876.jpg
finaleart	S19F21442	00:47:54:093	Image	void.png
finaleart	S19F21442	00:47:56:140	Image	lair_of_the_sea_serpent_vedder_1899.jpg
finaleart	S19F21442	00:48:00:203	Image	void.png
finaleart	S19F21442	00:48:02:250	Image	still-life-fruits-on-a-table_manet_1864.jpg
finaleart	S19F21442	00:48:06:312	Image	void.png
finaleart	S19F21442	00:48:08:359	Image	Paysage_a_La_Ciotat_(La_Pointe_du-Capucin)_friesz_1907.jpg
finaleart	S19F21442	00:48:12:453	Image	void.png
finaleart	S19F21442	00:48:14:500	Image	renoir-still-life-with-peaches-and-grapes-1881.jpg
finaleart	S19F21442	00:48:18:546	Image	void.png
finaleart	S19F21442	00:48:20:609	Image	nature_morte_aux_oranges_Vlaminck_1909.jpg
finaleart	S19F21442	00:48:24:656	Image	void.png
finaleart	S19F21442	00:48:26:703	Image	The_Blue_Nude_Souvenir_of_Biskra_Matisse_1907.png
finaleart	S19F21442	00:48:30:750	Image	void.png
finaleart	S19F21442	00:48:32:828	Image	Georges-braque-still-life-with-jugs-and-pipe-1906.png
finaleart	S19F21442	00:48:36:859	Image	void.png
finaleart	S19F21442	00:48:38:921	Image	Pots_Et_Fruits_Matisse_1901.jpg
finaleart	S19F21442	00:48:42:968	Image	void.png
finaleart	S19F21442	00:48:45:015	Image	Poppy_Fields_near_Argenteuil_Monet_1875.jpg
finaleart	S19F21442	00:48:49:062	Image	void.png
finaleart	S19F21442	00:48:51:125	Image	the-large-bathers_renoir_1887.jpg
finaleart	S19F21442	00:48:55:171	Image	void.png
finaleart	S19F21442	00:48:57:234	Image	cows_at_a_pond_Bilders_1856.jpg
finaleart	S19F21442	00:49:01:296	Image	void.png
finaleart	S19F21442	00:49:03:328	Image	reclining-nude_bazille_1860.png
finaleart	S19F21442	00:49:07:375	Image	void.png
finaleart	S19F21442	00:49:09:437	Image	bacchante_sorolla_1886.Jpg
finaleart	S19F21442	00:49:13:468	Image	void.png
finaleart	S19F21442	00:49:15:531	Image	Ma_Maison_Martin_XXXX.jpg
finaleart	S19F21442	00:49:19:562	Image	void.png
finaleart	S19F21442	00:49:21:625	Image	the-tea-set_monet_1871.jpg
finaleart	S19F21442	00:49:25:656	Image	void.png
finaleart	S19F21442	00:49:27:703	Image	Nature_Morte_Aux_Raisins_Sur_Un_Plat_Derain_1944.jpg
finaleart	S19F21442	00:49:31:750	Image	void.png
finaleart	S19F21442	00:49:33:796	Image	Nu_Couche_Vlaminck_1905.jpg
finaleart	S19F21442	00:49:37:843	Image	void.png
finaleart	S19F21442	00:49:39:890	Image	chase-a-study-in-curves-1890.jpg
finaleart	S19F21442	00:49:43:953	Image	void.png
finaleart	S19F21442	00:49:46:000	Image	Turner-snow-storm-boat-off-a-harbours-mouth-1842.jpg
finaleart	S19F21442	00:49:50:046	Image	void.png
finaleart	S19F21442	00:49:52:109	Image	The_Lying_Nude_Matisse_1906.png
finaleart	S19F21442	00:49:56:156	Image	void.png
finaleart	S19F21442	00:49:58:218	Image	The_Orchard_Vlaminck_1905.jpg
finaleart	S19F21442	00:50:02:265	Image	void.png
finaleart	S19F21442	00:50:04:328	Image	ronde_cross_1905.jpg
finaleart	S19F21442	00:50:08:390	Image	void.png
finaleart	S19F21442	00:50:10:421	Image	Alfalfa_St-Denis_Seurat_1886.jpg
finaleart	S19F21442	00:50:14:484	Image	void.png
finaleart	S19F21442	00:50:16:531	Image	les_poseuses_seurat_1888.Jpg
finaleart	S19F21442	00:50:20:593	Image	void.png
finaleart	S19F21442	00:50:22:640	End of Experiment
