finaleart	S22H22551	00:00:00:000	Calibration	
finaleart	S22H22551	00:00:33:687	The deviations of the calibration are DevX = 0,3525 DevY = 0,6675
finaleart	S22H22551	00:00:34:187	Image	REJECTED_rose_in_a_bowl_fantin_latour_1883.jpg
finaleart	S22H22551	00:00:38:328	Image	void.png
finaleart	S22H22551	00:00:40:468	Image	REJECTED_landscape_cross_0.jpg
finaleart	S22H22551	00:00:44:531	Image	void.png
finaleart	S22H22551	00:00:46:609	Calibration	
finaleart	S22H22551	00:01:15:031	The deviations of the calibration are DevX = 0,33 DevY = 0,685
finaleart	S22H22551	00:01:15:343	Image	REJECTED_rose_in_a_bowl_fantin_latour_1883.jpg
finaleart	S22H22551	00:01:20:140	Image	void.png
finaleart	S22H22551	00:01:22:359	Image	Trouville_Black_Rocks_Boudin_1863.jpg
finaleart	S22H22551	00:01:26:421	Image	void.png
finaleart	S22H22551	00:01:28:484	Image	the-reclining-shepherdess_morisot_1891.jpg
finaleart	S22H22551	00:01:32:531	Image	void.png
finaleart	S22H22551	00:01:34:578	Image	Georges-braque-still-life-with-jugs-and-pipe-1906.png
finaleart	S22H22551	00:01:38:625	Image	void.png
finaleart	S22H22551	00:01:40:671	Image	Poppy_Fields_near_Argenteuil_Monet_1875.jpg
finaleart	S22H22551	00:01:44:703	Image	void.png
finaleart	S22H22551	00:01:46:812	Image	reclining-nude_bazille_1860.png
finaleart	S22H22551	00:01:50:859	Image	void.png
finaleart	S22H22551	00:01:52:937	Image	still-life-with-skate_Boudin_1861.jpg
finaleart	S22H22551	00:01:56:984	Image	void.png
finaleart	S22H22551	00:01:59:140	Image	martin-vase-of-flowers-in-a-window.jpg
finaleart	S22H22551	00:02:03:203	Image	void.png
finaleart	S22H22551	00:02:05:265	Image	courbet-woman-with-a-parrot-1866.jpg
finaleart	S22H22551	00:02:09:312	Image	void.png
finaleart	S22H22551	00:02:11:390	Image	The_Lying_Nude_Matisse_1906.png
finaleart	S22H22551	00:02:15:515	Image	void.png
finaleart	S22H22551	00:02:17:625	Image	still-life-with-a-puro-(II)_matisse_1904.jpg
finaleart	S22H22551	00:02:21:671	Image	void.png
finaleart	S22H22551	00:02:23:718	Image	Rapids_on_the_Petite_Creuse_at_Fresselines_Monet_1889.jpg
finaleart	S22H22551	00:02:27:765	Image	void.png
finaleart	S22H22551	00:02:29:828	Image	Le_Puy_In_The_Snow_Dubois-Pillet_1889.jpg
finaleart	S22H22551	00:02:33:875	Image	void.png
finaleart	S22H22551	00:02:35:953	Image	plate-of-peaches-Fantin-Latour-1862.jpg
finaleart	S22H22551	00:02:40:015	Image	void.png
finaleart	S22H22551	00:02:42:093	Image	lying-nude_ury_1889.JPG
finaleart	S22H22551	00:02:46:218	Image	void.png
finaleart	S22H22551	00:02:48:296	Image	dead_hare_ward.jpg
finaleart	S22H22551	00:02:52:343	Image	void.png
finaleart	S22H22551	00:02:54:484	Image	monticelli-still-life-with-white-pitcher-1822.jpg
finaleart	S22H22551	00:02:58:593	Image	void.png
finaleart	S22H22551	00:03:00:703	Image	Nature_Morte_Au_Citron_Matisse_1917.jpg
finaleart	S22H22551	00:03:04:750	Image	void.png
finaleart	S22H22551	00:03:06:796	Image	storm_off_normandy_cost_isabey_1850.jpg
finaleart	S22H22551	00:03:10:843	Image	void.png
finaleart	S22H22551	00:03:12:890	Image	Nature-morte-Maurice-de-Vlaminck.jpg
finaleart	S22H22551	00:03:16:937	Image	void.png
finaleart	S22H22551	00:03:18:984	Image	The_Two_Models_Dufy_1930.jpg
finaleart	S22H22551	00:03:23:031	Image	void.png
finaleart	S22H22551	00:03:25:078	Image	Paysage_a_La_Ciotat_(La_Pointe_du-Capucin)_friesz_1907.jpg
finaleart	S22H22551	00:03:29:140	Image	void.png
finaleart	S22H22551	00:03:31:187	Image	resting-bacchante_sorolla_1887.jpg
finaleart	S22H22551	00:03:35:234	Image	void.png
finaleart	S22H22551	00:03:37:281	Image	sargent-male-model-resting.jpg
finaleart	S22H22551	00:03:41:328	Image	void.png
finaleart	S22H22551	00:03:43:375	Image	Young_Girls_Playing_With_A_Lion_Club_Valtat_1905.jpg
finaleart	S22H22551	00:03:47:421	Image	void.png
finaleart	S22H22551	00:03:49:468	Image	Nature_morte_a_la_cafetiere_rouge_Vlaminck.png
finaleart	S22H22551	00:03:53:515	Image	void.png
finaleart	S22H22551	00:03:55:609	Calibration	
finaleart	S22H22551	00:04:22:421	The deviations of the calibration are DevX = 0,3925 DevY = 0,1475
finaleart	S22H22551	00:04:22:812	Image	REJECTED_cezanne-still-life-with-green-pot-and-pewter-1870.jpg
finaleart	S22H22551	00:04:26:890	Image	void.png
finaleart	S22H22551	00:04:28:984	Image	still-life_matisse_0.jpg
finaleart	S22H22551	00:04:33:031	Image	void.png
finaleart	S22H22551	00:04:35:156	Image	Matejko-Akt-meski.jpg
finaleart	S22H22551	00:04:39:265	Image	void.png
finaleart	S22H22551	00:04:41:296	Image	the-pointe-de-per-kiridec-at-roscoff_Rysselberghe_0.jpg
finaleart	S22H22551	00:04:45:343	Image	void.png
finaleart	S22H22551	00:04:47:453	Image	bathers_cross_1902.jpg
finaleart	S22H22551	00:04:51:562	Image	void.png
finaleart	S22H22551	00:04:53:640	Image	Kiprensky-standing-sitter-with-a-stick-sitter-on-a-rock-1801.jpg
finaleart	S22H22551	00:04:57:781	Image	void.png
finaleart	S22H22551	00:04:59:843	Image	Courbet-Femme-nue-couchee-1862.jpg
finaleart	S22H22551	00:05:03:890	Image	void.png
finaleart	S22H22551	00:05:05:937	Image	metzinger-nature-morte-1905.png
finaleart	S22H22551	00:05:10:000	Image	void.png
finaleart	S22H22551	00:05:12:109	Image	delacroix-Reclining-Odalisque-or-Woman-with-a-Parakeet-1827.jpg
finaleart	S22H22551	00:05:16:156	Image	void.png
finaleart	S22H22551	00:05:18:203	Image	bowl_of_fruits_Fantin-Latour_1857.jpg
finaleart	S22H22551	00:05:22:250	Image	void.png
finaleart	S22H22551	00:05:24:328	Image	Landscape_at_L-Estaque_Braque-1906.jpg
finaleart	S22H22551	00:05:28:375	Image	void.png
finaleart	S22H22551	00:05:30:437	Image	the_rainbow__moore_henry_1865.jpg
finaleart	S22H22551	00:05:34:562	Image	void.png
finaleart	S22H22551	00:05:36:640	Image	Nature_Morte_Aux_Raisins_Sur_Un_Plat_Derain_1944.jpg
finaleart	S22H22551	00:05:40:750	Image	void.png
finaleart	S22H22551	00:05:42:796	Image	morning_in_a_pine_forest_Ivan_Shishkin_1889.jpg
finaleart	S22H22551	00:05:46:843	Image	void.png
finaleart	S22H22551	00:05:48:906	Image	Ma_Maison_Martin_XXXX.jpg
finaleart	S22H22551	00:05:52:953	Image	void.png
finaleart	S22H22551	00:05:55:031	Image	A_Highland_Landscape_Landseer_1830.jpg
finaleart	S22H22551	00:05:59:093	Image	void.png
finaleart	S22H22551	00:06:01:171	Image	study_of_a_reclining_nude_Delacroix_1824.jpg
finaleart	S22H22551	00:06:05:203	Image	void.png
finaleart	S22H22551	00:06:07:265	Image	Sailboats_On_The_River_Sheldt_van_Rysselberghe_1892.jpg
finaleart	S22H22551	00:06:11:296	Image	void.png
finaleart	S22H22551	00:06:13:406	Image	Alfalfa_St-Denis_Seurat_1886.jpg
finaleart	S22H22551	00:06:17:531	Image	void.png
finaleart	S22H22551	00:06:19:562	Image	avenue_of_trees_in_a_small_town_sisley_1866.jpg
finaleart	S22H22551	00:06:23:687	Image	void.png
finaleart	S22H22551	00:06:25:750	Image	renoir-still-life-with-peaches-and-grapes-1881.jpg
finaleart	S22H22551	00:06:29:796	Image	void.png
finaleart	S22H22551	00:06:31:859	Image	manet-the-salmon-1868.jpg
finaleart	S22H22551	00:06:35:906	Image	void.png
finaleart	S22H22551	00:06:38:000	Image	paysage_avec_du_betail_au_limousin_jules-dupre_1837.jpg
finaleart	S22H22551	00:06:42:062	Image	void.png
finaleart	S22H22551	00:06:44:109	Image	woman-at-her-toilette_degas_1877.jpg
finaleart	S22H22551	00:06:48:140	Image	void.png
finaleart	S22H22551	00:06:50:203	Image	still-life-with-fish_bazille_1866.jpg
finaleart	S22H22551	00:06:54:281	Image	void.png
finaleart	S22H22551	00:06:56:375	Image	The_Luxembourg_Gardens_Matisse_1901.jpg
finaleart	S22H22551	00:07:00:484	Image	void.png
finaleart	S22H22551	00:07:02:546	Calibration	
finaleart	S22H22551	00:08:01:359	The deviations of the calibration are DevX = 0,5875 DevY = 0,26
finaleart	S22H22551	00:08:01:593	Image	REJECTED_Volga_Lagoon_Vassiliev_1870.jpg
finaleart	S22H22551	00:08:05:656	Image	void.png
finaleart	S22H22551	00:08:07:703	Image	sisley-still-life-heron-with-spread-wings-1867.jpg
finaleart	S22H22551	00:08:11:812	Image	void.png
finaleart	S22H22551	00:08:13:906	Image	courbet-the-bathers-1858.jpg
finaleart	S22H22551	00:08:17:984	Image	void.png
finaleart	S22H22551	00:08:20:046	Image	after_a_rain_country_road_Vasilyev_1869.jpg
finaleart	S22H22551	00:08:24:078	Image	void.png
finaleart	S22H22551	00:08:26:140	Image	Rochers_Sur_La_Cote_A_Agay_Guillaumin_1907.jpg
finaleart	S22H22551	00:08:30:218	Image	void.png
finaleart	S22H22551	00:08:32:390	Image	still-life-with-pumpkin-plums-cherries-figs-and-jug-Ribot-1860.jpg
finaleart	S22H22551	00:08:36:437	Image	void.png
finaleart	S22H22551	00:08:38:468	Image	Houses_at_Chatou_Vlaminck_1905.jpg
finaleart	S22H22551	00:08:42:531	Image	void.png
finaleart	S22H22551	00:08:44:703	Image	pears-and-grapes_gauguin_1875.jpg
finaleart	S22H22551	00:08:48:781	Image	void.png
finaleart	S22H22551	00:08:50:843	Image	Delacroix-odalisque-1825.jpg
finaleart	S22H22551	00:08:54:890	Image	void.png
finaleart	S22H22551	00:08:56:937	Image	still-life-with-red-mullet-and-jug_gaugain_1876.jpg
finaleart	S22H22551	00:09:01:000	Image	void.png
finaleart	S22H22551	00:09:03:062	Image	the_forest_Cross_1907.jpg
finaleart	S22H22551	00:09:07:125	Image	void.png
finaleart	S22H22551	00:09:09:203	Image	Nu_Couche_Vlaminck_1905.jpg
finaleart	S22H22551	00:09:13:250	Image	void.png
finaleart	S22H22551	00:09:15:312	Image	sargent-reclining-nude.JPG
finaleart	S22H22551	00:09:19:375	Image	void.png
finaleart	S22H22551	00:09:21:421	Image	L'Ile_de_La_Grande_Jatte_Seurat_1884.jpg
finaleart	S22H22551	00:09:25:468	Image	void.png
finaleart	S22H22551	00:09:27:531	Image	cows_at_a_pond_Bilders_1856.jpg
finaleart	S22H22551	00:09:31:593	Image	void.png
finaleart	S22H22551	00:09:33:656	Image	Fleurs_et_fruits_camoin_1942.jpg
finaleart	S22H22551	00:09:37:734	Image	void.png
finaleart	S22H22551	00:09:39:843	Image	goya-Bodegón-con-salmón-1812.jpg
finaleart	S22H22551	00:09:43:875	Image	void.png
finaleart	S22H22551	00:09:45:921	Image	courbet-the-sleepers-1866.jpg
finaleart	S22H22551	00:09:50:000	Image	void.png
finaleart	S22H22551	00:09:52:031	Image	goya-still-life-plucked-turkey-and-pan-with-fish-1812.jpg
finaleart	S22H22551	00:09:56:109	Image	void.png
finaleart	S22H22551	00:09:58:203	Image	The_Orchard_Vlaminck_1905.jpg
finaleart	S22H22551	00:10:02:250	Image	void.png
finaleart	S22H22551	00:10:04:312	Image	venice_from_porche_of_madonna_turner_1835.jpg
finaleart	S22H22551	00:10:08:343	Image	void.png
finaleart	S22H22551	00:10:10:421	Image	red-mullets_monet_1869.jpg
finaleart	S22H22551	00:10:14:468	Image	void.png
finaleart	S22H22551	00:10:16:625	Image	oysters_manet_1862.jpg
finaleart	S22H22551	00:10:20:687	Image	void.png
finaleart	S22H22551	00:10:22:750	Image	nasturtiums-dahlias-in-a-basket_gauguin_1884.jpg
finaleart	S22H22551	00:10:26:796	Image	void.png
finaleart	S22H22551	00:10:28:875	Image	Matisse-Nature-morte-a-la-cruche-bleue.jpg
finaleart	S22H22551	00:10:32:921	Image	void.png
finaleart	S22H22551	00:10:34:968	Image	lair_of_the_sea_serpent_vedder_1899.jpg
finaleart	S22H22551	00:10:39:015	Image	void.png
finaleart	S22H22551	00:10:41:062	Calibration	
finaleart	S22H22551	00:11:18:359	The deviations of the calibration are DevX = 0,8575 DevY = 0,32
finaleart	S22H22551	00:11:18:703	Image	REJECTED_after-the-bath_degas_1885.jpg
finaleart	S22H22551	00:11:22:875	Image	void.png
finaleart	S22H22551	00:11:24:937	Image	goya-Bodegones-con-pargos-dorados-1812.jpg
finaleart	S22H22551	00:11:29:000	Image	void.png
finaleart	S22H22551	00:11:31:062	Image	female_nude_reclining_on-a_divan_delacroix_1826.jpg
finaleart	S22H22551	00:11:35:125	Image	void.png
finaleart	S22H22551	00:11:37:156	Image	Still-life-of-Sheep-s-Ribs-and-Head-The-Butchers-conter_Goya_1812.jpg
finaleart	S22H22551	00:11:41:234	Image	void.png
finaleart	S22H22551	00:11:43:296	Image	the-banks-of-the-marne-at-dawn_dubois-pillet_1888.jpg
finaleart	S22H22551	00:11:47:375	Image	void.png
finaleart	S22H22551	00:11:49:421	Image	ronde_cross_1905.jpg
finaleart	S22H22551	00:11:53:515	Image	void.png
finaleart	S22H22551	00:11:55:593	Image	the-large-bathers_renoir_1887.jpg
finaleart	S22H22551	00:11:59:625	Image	void.png
finaleart	S22H22551	00:12:01:687	Image	Upper_Mississippi_Kensett_1855.jpg
finaleart	S22H22551	00:12:05:750	Image	void.png
finaleart	S22H22551	00:12:07:812	Image	chestnut_avenue_in_la_celle_saint_cloud_sisley_1865.jpg
finaleart	S22H22551	00:12:11:875	Image	void.png
finaleart	S22H22551	00:12:13:921	Image	The_Gardener_Vlaminck_1904.jpg
finaleart	S22H22551	00:12:17:968	Image	void.png
finaleart	S22H22551	00:12:20:078	Image	morning_Daubigny_1858.jpg
finaleart	S22H22551	00:12:24:125	Image	void.png
finaleart	S22H22551	00:12:26:187	Image	Nature_morte_au_panier_Derain_1927.jpg
finaleart	S22H22551	00:12:30:250	Image	void.png
finaleart	S22H22551	00:12:32:296	Image	Les_Bords_De_Seine_A_Neuilly_Dubois_Pillet_1886.jpg
finaleart	S22H22551	00:12:36:390	Image	void.png
finaleart	S22H22551	00:12:38:437	Image	marquet-fruit-knife-and-napkin-1898.jpg
finaleart	S22H22551	00:12:42:500	Image	void.png
finaleart	S22H22551	00:12:44:546	Image	goya-Nature-morte-avec-Bouteilles-et-Pains-1826.jpg
finaleart	S22H22551	00:12:48:640	Image	void.png
finaleart	S22H22551	00:12:50:734	Image	Turner-chichester-canal-1828.jpg
finaleart	S22H22551	00:12:54:796	Image	void.png
finaleart	S22H22551	00:12:56:890	Image	wright-vesuvius-from-posillipo-1774.jpg
finaleart	S22H22551	00:13:00:937	Image	void.png
finaleart	S22H22551	00:13:03:015	Image	reclining-nude_renoir_1883.jpg
finaleart	S22H22551	00:13:07:062	Image	void.png
finaleart	S22H22551	00:13:09:109	Image	stilleven-met-vis_dubois-pillet_1885.jpg
finaleart	S22H22551	00:13:13:171	Image	void.png
finaleart	S22H22551	00:13:15:250	Image	goya-Pavo-muerto-1812.jpg
finaleart	S22H22551	00:13:19:296	Image	void.png
finaleart	S22H22551	00:13:21:390	Image	Naked_man_reversed_on_the_ground_Gericault_1817.jpg
finaleart	S22H22551	00:13:25:468	Image	void.png
finaleart	S22H22551	00:13:27:515	Image	turner-waves-breaking-against-the-wind-1830.jpg
finaleart	S22H22551	00:13:31:625	Image	void.png
finaleart	S22H22551	00:13:33:671	Image	plage-de-la-vignassa_cross_1892.jpg
finaleart	S22H22551	00:13:37:750	Image	void.png
finaleart	S22H22551	00:13:39:781	Image	Odalisque_Matisse.jpg
finaleart	S22H22551	00:13:43:828	Image	void.png
finaleart	S22H22551	00:13:45:921	Image	the_three_skulls_gericault_1814.jpg
finaleart	S22H22551	00:13:50:015	Image	void.png
finaleart	S22H22551	00:13:52:078	Image	The_Blue_Nude_Souvenir_of_Biskra_Matisse_1907.png
finaleart	S22H22551	00:13:56:171	Image	void.png
finaleart	S22H22551	00:13:58:312	Calibration	
finaleart	S22H22551	00:15:28:171	The deviations of the calibration are DevX = 0,495 DevY = 0,3275
finaleart	S22H22551	00:15:28:500	Image	REJECTED_olympia_manet_1863.jpg
finaleart	S22H22551	00:15:32:796	Image	void.png
finaleart	S22H22551	00:15:34:843	Image	still-life_pissarro_1867.Jpg
finaleart	S22H22551	00:15:38:890	Image	void.png
finaleart	S22H22551	00:15:40:953	Image	Bank_Of_A_Lake_Pechstein_1910.jpg
finaleart	S22H22551	00:15:45:062	Image	void.png
finaleart	S22H22551	00:15:47:109	Image	Morning,_An_Overcast_Day_Rouen_Pissaro_1896.jpg
finaleart	S22H22551	00:15:51:250	Image	void.png
finaleart	S22H22551	00:15:53:296	Image	mother_and_child_by_the_sea_dahl_1830.jpg
finaleart	S22H22551	00:15:57:343	Image	void.png
finaleart	S22H22551	00:15:59:437	Image	Rysselberghe-Vase-of-flowers-1907.Jpg
finaleart	S22H22551	00:16:03:515	Image	void.png
finaleart	S22H22551	00:16:05:656	Image	the-wood_cross_907.jpg
finaleart	S22H22551	00:16:09:734	Image	void.png
finaleart	S22H22551	00:16:11:890	Image	La_Ferme_des_Collettes_Renoir_1908.jpg
finaleart	S22H22551	00:16:15:937	Image	void.png
finaleart	S22H22551	00:16:18:015	Image	les_poseuses_seurat_1888.Jpg
finaleart	S22H22551	00:16:22:109	Image	void.png
finaleart	S22H22551	00:16:24:234	Image	still-life-post-bottle-cup-and-fruit_cezanne_1871.jpg
finaleart	S22H22551	00:16:28:296	Image	void.png
finaleart	S22H22551	00:16:30:359	Image	naked-woman-lying-on-a-couch_caillebotte_1873.jpg
finaleart	S22H22551	00:16:34:453	Image	void.png
finaleart	S22H22551	00:16:36:484	Image	Automne_En_France_Carr_1911.jpg
finaleart	S22H22551	00:16:40:562	Image	void.png
finaleart	S22H22551	00:16:42:625	Image	still-life-fruits-on-a-table_manet_1864.jpg
finaleart	S22H22551	00:16:46:671	Image	void.png
finaleart	S22H22551	00:16:48:734	Image	landschaft_mit_dem_ondregenbogen_caspar_david_friedrich_1810.jpg
finaleart	S22H22551	00:16:52:781	Image	void.png
finaleart	S22H22551	00:16:54:828	Image	huisje_aan_een_sloot_mauve_1888.jpg
finaleart	S22H22551	00:16:58:921	Image	void.png
finaleart	S22H22551	00:17:01:031	Image	Niagara_Falls_Hale_1902.jpg
finaleart	S22H22551	00:17:05:078	Image	void.png
finaleart	S22H22551	00:17:07:156	Image	garlic-cloves-and-knife-on-the-corner-of-a-table_caillebotte_1871.jpg
finaleart	S22H22551	00:17:11:265	Image	void.png
finaleart	S22H22551	00:17:13:343	Image	basket-of-fruits-Manet-1864.jpg
finaleart	S22H22551	00:17:17:406	Image	void.png
finaleart	S22H22551	00:17:19:468	Image	parrot-tulips-(II)_matisse_1905.jpg
finaleart	S22H22551	00:17:23:531	Image	void.png
finaleart	S22H22551	00:17:25:609	Image	chase-a-study-in-curves-1890.jpg
finaleart	S22H22551	00:17:29:656	Image	void.png
finaleart	S22H22551	00:17:31:734	Image	La_Danse_Matisse_1909.jpg
finaleart	S22H22551	00:17:35:765	Image	void.png
finaleart	S22H22551	00:17:37:828	Image	les-deux-amies_marevna_0.jpg
finaleart	S22H22551	00:17:41:921	Image	void.png
finaleart	S22H22551	00:17:43:968	Image	bacchante_sorolla_1886.Jpg
finaleart	S22H22551	00:17:48:031	Image	void.png
finaleart	S22H22551	00:17:50:078	Image	Le_port_d-Anvers_Braque_1906.jpg
finaleart	S22H22551	00:17:54:125	Image	void.png
finaleart	S22H22551	00:17:56:171	Image	Un_Jardin_Maison_Baptiste_Butler_1895.jpg
finaleart	S22H22551	00:18:00:234	Image	void.png
finaleart	S22H22551	00:18:02:390	Image	still-life-with-bottle-of-wind_cross_1904.Jpg
finaleart	S22H22551	00:18:06:421	Image	void.png
finaleart	S22H22551	00:18:08:468	Calibration	
finaleart	S22H22551	00:18:41:406	The deviations of the calibration are DevX = 0,395 DevY = 0,28
finaleart	S22H22551	00:18:41:750	Image	REJECTED_cezanne-still-life-with-bread-and-eggs-1865.jpg
finaleart	S22H22551	00:18:45:875	Image	void.png
finaleart	S22H22551	00:18:47:937	Image	Hayet-Nature-morte-1888.jpg
finaleart	S22H22551	00:18:52:031	Image	void.png
finaleart	S22H22551	00:18:54:140	Image	Kiprensky-two-sitters-1800.jpg
finaleart	S22H22551	00:18:58:218	Image	void.png
finaleart	S22H22551	00:19:00:265	Image	nature_morte_aux_oranges_Vlaminck_1909.jpg
finaleart	S22H22551	00:19:04:328	Image	void.png
finaleart	S22H22551	00:19:06:390	Image	Pots_Et_Fruits_Matisse_1901.jpg
finaleart	S22H22551	00:19:10:437	Image	void.png
finaleart	S22H22551	00:19:12:500	Image	delacroix-still-life-with-lobsters-1827.jpg
finaleart	S22H22551	00:19:16:562	Image	void.png
finaleart	S22H22551	00:19:18:625	Image	Turner-snow-storm-boat-off-a-harbours-mouth-1842.jpg
finaleart	S22H22551	00:19:22:671	Image	void.png
finaleart	S22H22551	00:19:24:718	Image	Le_Pin_A_St-Tropez_Signac_1909.jpg
finaleart	S22H22551	00:19:28:765	Image	void.png
finaleart	S22H22551	00:19:30:828	Image	Le-Restaurant-de-la-machine-a-Bougival-vlaminck-1905.jpg
finaleart	S22H22551	00:19:34:921	Image	void.png
finaleart	S22H22551	00:19:36:953	Image	The_Joy_Of_Life_Matisse_1906.jpg
finaleart	S22H22551	00:19:41:015	Image	void.png
finaleart	S22H22551	00:19:43:109	Image	L-Heure_Embrasee_Rysselberghe_1897.jpg
finaleart	S22H22551	00:19:47:140	Image	void.png
finaleart	S22H22551	00:19:49:218	Image	The_Girl_From_Rat_Mort_Vlaminck_1905.jpg
finaleart	S22H22551	00:19:53:343	Image	void.png
finaleart	S22H22551	00:19:55:406	Image	kneeling-nude_degas_1888.jpg
finaleart	S22H22551	00:19:59:453	Image	void.png
finaleart	S22H22551	00:20:01:515	Image	the_model's_siesta_Rysselberghe_1920.jpg
finaleart	S22H22551	00:20:05:593	Image	void.png
finaleart	S22H22551	00:20:07:656	Image	courbet_Femme_nue_et_dormant_1858.jpg
finaleart	S22H22551	00:20:11:718	Image	void.png
finaleart	S22H22551	00:20:13:781	Image	luxe-calme-et-volupté_matisse_1905.jpg
finaleart	S22H22551	00:20:17:843	Image	void.png
finaleart	S22H22551	00:20:19:937	Image	Girtin-Kirkstall-Abbey-Yorkshire-1801.jpg
finaleart	S22H22551	00:20:23:984	Image	void.png
finaleart	S22H22551	00:20:26:046	Image	Le_Chemin_De_Fer_Berlin_Potsdam_Menzel_1847.jpg
finaleart	S22H22551	00:20:30:140	Image	void.png
finaleart	S22H22551	00:20:32:234	Image	The_Augustan_Bridge_at_Narni_Corot_1826.jpg
finaleart	S22H22551	00:20:36:359	Image	void.png
finaleart	S22H22551	00:20:38:453	Image	the_kiss_gericault_1816.jpg
finaleart	S22H22551	00:20:42:500	Image	void.png
finaleart	S22H22551	00:20:44:531	Image	millet-the-bather-1848.jpg
finaleart	S22H22551	00:20:48:593	Image	void.png
finaleart	S22H22551	00:20:50:656	Image	flowers-and-fruit-a-melon_fantin-latour_1865.jpg
finaleart	S22H22551	00:20:54:703	Image	void.png
finaleart	S22H22551	00:20:56:781	Image	the-tea-set_monet_1871.jpg
finaleart	S22H22551	00:21:00:843	Image	void.png
finaleart	S22H22551	00:21:02:890	Image	courbet-female-nude-with-a-dog-portrait-of-leotine-renaude-1866.jpg
finaleart	S22H22551	00:21:06:953	Image	void.png
finaleart	S22H22551	00:21:09:000	Image	madrazo-y-kuntz-Man-Holding-a-Dagger-1850.jpg
finaleart	S22H22551	00:21:13:062	Image	void.png
finaleart	S22H22551	00:21:15:125	Image	cross-La-fuite-des-nymphes-1906.jpg
finaleart	S22H22551	00:21:19:171	Image	void.png
finaleart	S22H22551	00:21:21:234	End of Experiment
