finaleart	S4120113	00:00:00:000	Calibration	
finaleart	S4120113	00:00:51:750	The deviations of the calibration are DevX = 0,4125 DevY = 0,145
finaleart	S4120113	00:00:51:968	Image	REJECTED_rose_in_a_bowl_fantin_latour_1883.jpg
finaleart	S4120113	00:00:56:031	Image	void.png
finaleart	S4120113	00:00:58:078	Image	REJECTED_landscape_cross_0.jpg
finaleart	S4120113	00:01:02:125	Image	void.png
finaleart	S4120113	00:01:04:156	Calibration	
finaleart	S4120113	00:01:38:078	The deviations of the calibration are DevX = 0,23 DevY = 0,7075
finaleart	S4120113	00:01:38:343	Image	REJECTED_olympia_manet_1863.jpg
finaleart	S4120113	00:01:42:468	Image	void.png
finaleart	S4120113	00:01:44:734	Image	La_Danse_Matisse_1909.jpg
finaleart	S4120113	00:01:48:765	Image	void.png
finaleart	S4120113	00:01:50:843	Image	Les_Bords_De_Seine_A_Neuilly_Dubois_Pillet_1886.jpg
finaleart	S4120113	00:01:54:890	Image	void.png
finaleart	S4120113	00:01:56:937	Image	Ma_Maison_Martin_XXXX.jpg
finaleart	S4120113	00:02:01:015	Image	void.png
finaleart	S4120113	00:02:03:062	Image	La_Ferme_des_Collettes_Renoir_1908.jpg
finaleart	S4120113	00:02:07:109	Image	void.png
finaleart	S4120113	00:02:09:203	Image	manet-the-salmon-1868.jpg
finaleart	S4120113	00:02:13:265	Image	void.png
finaleart	S4120113	00:02:15:328	Image	Nature_Morte_Au_Citron_Matisse_1917.jpg
finaleart	S4120113	00:02:19:390	Image	void.png
finaleart	S4120113	00:02:21:500	Image	Young_Girls_Playing_With_A_Lion_Club_Valtat_1905.jpg
finaleart	S4120113	00:02:25:546	Image	void.png
finaleart	S4120113	00:02:27:625	Image	Kiprensky-standing-sitter-with-a-stick-sitter-on-a-rock-1801.jpg
finaleart	S4120113	00:02:31:687	Image	void.png
finaleart	S4120113	00:02:33:734	Image	study_of_a_reclining_nude_Delacroix_1824.jpg
finaleart	S4120113	00:02:37:781	Image	void.png
finaleart	S4120113	00:02:39:890	Image	plage-de-la-vignassa_cross_1892.jpg
finaleart	S4120113	00:02:43:937	Image	void.png
finaleart	S4120113	00:02:46:000	Image	still-life_matisse_0.jpg
finaleart	S4120113	00:02:50:062	Image	void.png
finaleart	S4120113	00:02:52:171	Image	Nu_Couche_Vlaminck_1905.jpg
finaleart	S4120113	00:02:56:312	Image	void.png
finaleart	S4120113	00:02:58:359	Image	Un_Jardin_Maison_Baptiste_Butler_1895.jpg
finaleart	S4120113	00:03:02:406	Image	void.png
finaleart	S4120113	00:03:04:468	Image	Le_Puy_In_The_Snow_Dubois-Pillet_1889.jpg
finaleart	S4120113	00:03:08:500	Image	void.png
finaleart	S4120113	00:03:10:562	Image	Kiprensky-two-sitters-1800.jpg
finaleart	S4120113	00:03:14:625	Image	void.png
finaleart	S4120113	00:03:16:750	Image	Morning,_An_Overcast_Day_Rouen_Pissaro_1896.jpg
finaleart	S4120113	00:03:20:796	Image	void.png
finaleart	S4120113	00:03:22:843	Image	Courbet-Femme-nue-couchee-1862.jpg
finaleart	S4120113	00:03:26:890	Image	void.png
finaleart	S4120113	00:03:29:031	Image	The_Orchard_Vlaminck_1905.jpg
finaleart	S4120113	00:03:33:078	Image	void.png
finaleart	S4120113	00:03:35:140	Image	The_Joy_Of_Life_Matisse_1906.jpg
finaleart	S4120113	00:03:39:187	Image	void.png
finaleart	S4120113	00:03:41:218	Image	chestnut_avenue_in_la_celle_saint_cloud_sisley_1865.jpg
finaleart	S4120113	00:03:45:281	Image	void.png
finaleart	S4120113	00:03:47:406	Image	martin-vase-of-flowers-in-a-window.jpg
finaleart	S4120113	00:03:51:468	Image	void.png
finaleart	S4120113	00:03:53:578	Image	Houses_at_Chatou_Vlaminck_1905.jpg
finaleart	S4120113	00:03:57:625	Image	void.png
finaleart	S4120113	00:03:59:703	Image	L-Heure_Embrasee_Rysselberghe_1897.jpg
finaleart	S4120113	00:04:03:734	Image	void.png
finaleart	S4120113	00:04:05:812	Image	Bank_Of_A_Lake_Pechstein_1910.jpg
finaleart	S4120113	00:04:09:843	Image	void.png
finaleart	S4120113	00:04:11:906	Image	flowers-and-fruit-a-melon_fantin-latour_1865.jpg
finaleart	S4120113	00:04:15:968	Image	void.png
finaleart	S4120113	00:04:18:015	Calibration	
finaleart	S4120113	00:07:00:218	The deviations of the calibration are DevX = 0,4875 DevY = 0,75
finaleart	S4120113	00:07:00:468	Image	REJECTED_cezanne-still-life-with-green-pot-and-pewter-1870.jpg
finaleart	S4120113	00:07:04:531	Image	void.png
finaleart	S4120113	00:07:06:578	Image	Sailboats_On_The_River_Sheldt_van_Rysselberghe_1892.jpg
finaleart	S4120113	00:07:10:671	Image	void.png
finaleart	S4120113	00:07:12:734	Image	cross-La-fuite-des-nymphes-1906.jpg
finaleart	S4120113	00:07:16:796	Image	void.png
finaleart	S4120113	00:07:18:859	Image	the_forest_Cross_1907.jpg
finaleart	S4120113	00:07:22:921	Image	void.png
finaleart	S4120113	00:07:25:062	Image	The_Luxembourg_Gardens_Matisse_1901.jpg
finaleart	S4120113	00:07:29:187	Image	void.png
finaleart	S4120113	00:07:31:312	Image	naked-woman-lying-on-a-couch_caillebotte_1873.jpg
finaleart	S4120113	00:07:35:390	Image	void.png
finaleart	S4120113	00:07:37:437	Image	female_nude_reclining_on-a_divan_delacroix_1826.jpg
finaleart	S4120113	00:07:41:484	Image	void.png
finaleart	S4120113	00:07:43:546	Image	The_Blue_Nude_Souvenir_of_Biskra_Matisse_1907.png
finaleart	S4120113	00:07:47:609	Image	void.png
finaleart	S4120113	00:07:49:671	Image	still-life-with-pumpkin-plums-cherries-figs-and-jug-Ribot-1860.jpg
finaleart	S4120113	00:07:53:718	Image	void.png
finaleart	S4120113	00:07:55:828	Image	goya-Bodegón-con-salmón-1812.jpg
finaleart	S4120113	00:07:59:937	Image	void.png
finaleart	S4120113	00:08:02:015	Image	kneeling-nude_degas_1888.jpg
finaleart	S4120113	00:08:06:062	Image	void.png
finaleart	S4120113	00:08:08:125	Image	turner-waves-breaking-against-the-wind-1830.jpg
finaleart	S4120113	00:08:12:156	Image	void.png
finaleart	S4120113	00:08:14:218	Image	luxe-calme-et-volupté_matisse_1905.jpg
finaleart	S4120113	00:08:18:375	Image	void.png
finaleart	S4120113	00:08:20:406	Image	Landscape_at_L-Estaque_Braque-1906.jpg
finaleart	S4120113	00:08:24:468	Image	void.png
finaleart	S4120113	00:08:26:531	Image	the_kiss_gericault_1816.jpg
finaleart	S4120113	00:08:30:703	Image	void.png
finaleart	S4120113	00:08:32:765	Image	les-deux-amies_marevna_0.jpg
finaleart	S4120113	00:08:36:828	Image	void.png
finaleart	S4120113	00:08:38:906	Image	Turner-chichester-canal-1828.jpg
finaleart	S4120113	00:08:42:968	Image	void.png
finaleart	S4120113	00:08:45:046	Image	still-life-post-bottle-cup-and-fruit_cezanne_1871.jpg
finaleart	S4120113	00:08:49:125	Image	void.png
finaleart	S4120113	00:08:51:218	Image	Trouville_Black_Rocks_Boudin_1863.jpg
finaleart	S4120113	00:08:55:328	Image	void.png
finaleart	S4120113	00:08:57:468	Image	ronde_cross_1905.jpg
finaleart	S4120113	00:09:01:593	Image	void.png
finaleart	S4120113	00:09:03:640	Image	woman-at-her-toilette_degas_1877.jpg
finaleart	S4120113	00:09:07:703	Image	void.png
finaleart	S4120113	00:09:09:765	Image	the_three_skulls_gericault_1814.jpg
finaleart	S4120113	00:09:13:812	Image	void.png
finaleart	S4120113	00:09:16:000	Image	courbet-the-sleepers-1866.jpg
finaleart	S4120113	00:09:20:250	Image	void.png
finaleart	S4120113	00:09:22:328	Image	marquet-fruit-knife-and-napkin-1898.jpg
finaleart	S4120113	00:09:26:375	Image	void.png
finaleart	S4120113	00:09:28:468	Image	courbet-the-bathers-1858.jpg
finaleart	S4120113	00:09:32:546	Image	void.png
finaleart	S4120113	00:09:34:578	Image	venice_from_porche_of_madonna_turner_1835.jpg
finaleart	S4120113	00:09:38:687	Image	void.png
finaleart	S4120113	00:09:40:781	Calibration	
finaleart	S4120113	00:12:42:703	The deviations of the calibration are DevX = 0,7825 DevY = 1,13
finaleart	S4120113	00:12:42:921	Image	REJECTED_cezanne-still-life-with-bread-and-eggs-1865.jpg
finaleart	S4120113	00:12:46:984	Image	void.png
finaleart	S4120113	00:12:49:093	Image	courbet-female-nude-with-a-dog-portrait-of-leotine-renaude-1866.jpg
finaleart	S4120113	00:12:53:140	Image	void.png
finaleart	S4120113	00:12:55:296	Image	bathers_cross_1902.jpg
finaleart	S4120113	00:12:59:406	Image	void.png
finaleart	S4120113	00:13:01:546	Image	still-life-with-bottle-of-wind_cross_1904.Jpg
finaleart	S4120113	00:13:05:593	Image	void.png
finaleart	S4120113	00:13:07:640	Image	Odalisque_Matisse.jpg
finaleart	S4120113	00:13:11:703	Image	void.png
finaleart	S4120113	00:13:13:765	Image	The_Girl_From_Rat_Mort_Vlaminck_1905.jpg
finaleart	S4120113	00:13:17:890	Image	void.png
finaleart	S4120113	00:13:20:046	Image	Alfalfa_St-Denis_Seurat_1886.jpg
finaleart	S4120113	00:13:24:109	Image	void.png
finaleart	S4120113	00:13:26:156	Image	the_rainbow__moore_henry_1865.jpg
finaleart	S4120113	00:13:30:312	Image	void.png
finaleart	S4120113	00:13:32:359	Image	Nature-morte-Maurice-de-Vlaminck.jpg
finaleart	S4120113	00:13:36:437	Image	void.png
finaleart	S4120113	00:13:38:484	Image	basket-of-fruits-Manet-1864.jpg
finaleart	S4120113	00:13:42:609	Image	void.png
finaleart	S4120113	00:13:44:671	Image	courbet_Femme_nue_et_dormant_1858.jpg
finaleart	S4120113	00:13:48:734	Image	void.png
finaleart	S4120113	00:13:50:796	Image	Poppy_Fields_near_Argenteuil_Monet_1875.jpg
finaleart	S4120113	00:13:54:859	Image	void.png
finaleart	S4120113	00:13:56:921	Image	monticelli-still-life-with-white-pitcher-1822.jpg
finaleart	S4120113	00:14:01:031	Image	void.png
finaleart	S4120113	00:14:03:109	Image	bacchante_sorolla_1886.Jpg
finaleart	S4120113	00:14:07:187	Image	void.png
finaleart	S4120113	00:14:09:234	Image	the-banks-of-the-marne-at-dawn_dubois-pillet_1888.jpg
finaleart	S4120113	00:14:13:281	Image	void.png
finaleart	S4120113	00:14:15:406	Image	Automne_En_France_Carr_1911.jpg
finaleart	S4120113	00:14:19:453	Image	void.png
finaleart	S4120113	00:14:21:484	Image	goya-Bodegones-con-pargos-dorados-1812.jpg
finaleart	S4120113	00:14:25:531	Image	void.png
finaleart	S4120113	00:14:27:593	Image	morning_in_a_pine_forest_Ivan_Shishkin_1889.jpg
finaleart	S4120113	00:14:31:640	Image	void.png
finaleart	S4120113	00:14:33:765	Image	plate-of-peaches-Fantin-Latour-1862.jpg
finaleart	S4120113	00:14:37:812	Image	void.png
finaleart	S4120113	00:14:39:875	Image	avenue_of_trees_in_a_small_town_sisley_1866.jpg
finaleart	S4120113	00:14:43:937	Image	void.png
finaleart	S4120113	00:14:46:078	Image	garlic-cloves-and-knife-on-the-corner-of-a-table_caillebotte_1871.jpg
finaleart	S4120113	00:14:50:140	Image	void.png
finaleart	S4120113	00:14:52:203	Image	The_Gardener_Vlaminck_1904.jpg
finaleart	S4120113	00:14:56:281	Image	void.png
finaleart	S4120113	00:14:58:359	Image	pears-and-grapes_gauguin_1875.jpg
finaleart	S4120113	00:15:02:437	Image	void.png
finaleart	S4120113	00:15:04:500	Image	Naked_man_reversed_on_the_ground_Gericault_1817.jpg
finaleart	S4120113	00:15:08:562	Image	void.png
finaleart	S4120113	00:15:10:609	Image	parrot-tulips-(II)_matisse_1905.jpg
finaleart	S4120113	00:15:14:671	Image	void.png
finaleart	S4120113	00:15:16:718	Image	delacroix-still-life-with-lobsters-1827.jpg
finaleart	S4120113	00:15:20:843	Image	void.png
finaleart	S4120113	00:15:22:890	Calibration	
finaleart	S4120113	00:17:41:625	The deviations of the calibration are DevX = 0,385 DevY = 0,295
finaleart	S4120113	00:17:41:843	Image	REJECTED_after-the-bath_degas_1885.jpg
finaleart	S4120113	00:17:45:968	Image	void.png
finaleart	S4120113	00:17:48:031	Image	oysters_manet_1862.jpg
finaleart	S4120113	00:17:52:062	Image	void.png
finaleart	S4120113	00:17:54:140	Image	still-life_pissarro_1867.Jpg
finaleart	S4120113	00:17:58:265	Image	void.png
finaleart	S4120113	00:18:00:312	Image	bowl_of_fruits_Fantin-Latour_1857.jpg
finaleart	S4120113	00:18:04:359	Image	void.png
finaleart	S4120113	00:18:06:421	Image	Matejko-Akt-meski.jpg
finaleart	S4120113	00:18:10:484	Image	void.png
finaleart	S4120113	00:18:12:546	Image	The_Lying_Nude_Matisse_1906.png
finaleart	S4120113	00:18:16:640	Image	void.png
finaleart	S4120113	00:18:18:703	Image	dead_hare_ward.jpg
finaleart	S4120113	00:18:22:765	Image	void.png
finaleart	S4120113	00:18:24:812	Image	The_Two_Models_Dufy_1930.jpg
finaleart	S4120113	00:18:28:921	Image	void.png
finaleart	S4120113	00:18:30:953	Image	A_Highland_Landscape_Landseer_1830.jpg
finaleart	S4120113	00:18:35:015	Image	void.png
finaleart	S4120113	00:18:37:156	Image	the-tea-set_monet_1871.jpg
finaleart	S4120113	00:18:41:203	Image	void.png
finaleart	S4120113	00:18:43:343	Image	still-life-with-skate_Boudin_1861.jpg
finaleart	S4120113	00:18:47:437	Image	void.png
finaleart	S4120113	00:18:49:562	Image	Nature_morte_a_la_cafetiere_rouge_Vlaminck.png
finaleart	S4120113	00:18:53:750	Image	void.png
finaleart	S4120113	00:18:55:843	Image	lair_of_the_sea_serpent_vedder_1899.jpg
finaleart	S4120113	00:18:59:953	Image	void.png
finaleart	S4120113	00:19:02:031	Image	renoir-still-life-with-peaches-and-grapes-1881.jpg
finaleart	S4120113	00:19:06:078	Image	void.png
finaleart	S4120113	00:19:08:234	Image	the_model's_siesta_Rysselberghe_1920.jpg
finaleart	S4120113	00:19:12:312	Image	void.png
finaleart	S4120113	00:19:14:609	Image	after_a_rain_country_road_Vasilyev_1869.jpg
finaleart	S4120113	00:19:18:671	Image	void.png
finaleart	S4120113	00:19:20:750	Image	goya-still-life-plucked-turkey-and-pan-with-fish-1812.jpg
finaleart	S4120113	00:19:24:781	Image	void.png
finaleart	S4120113	00:19:26:828	Image	reclining-nude_renoir_1883.jpg
finaleart	S4120113	00:19:30:875	Image	void.png
finaleart	S4120113	00:19:32:937	Image	goya-Pavo-muerto-1812.jpg
finaleart	S4120113	00:19:37:000	Image	void.png
finaleart	S4120113	00:19:39:250	Image	sisley-still-life-heron-with-spread-wings-1867.jpg
finaleart	S4120113	00:19:43:406	Image	void.png
finaleart	S4120113	00:19:45:484	Image	Rapids_on_the_Petite_Creuse_at_Fresselines_Monet_1889.jpg
finaleart	S4120113	00:19:49:546	Image	void.png
finaleart	S4120113	00:19:51:671	Image	Rochers_Sur_La_Cote_A_Agay_Guillaumin_1907.jpg
finaleart	S4120113	00:19:55:718	Image	void.png
finaleart	S4120113	00:19:57:812	Image	mother_and_child_by_the_sea_dahl_1830.jpg
finaleart	S4120113	00:20:01:953	Image	void.png
finaleart	S4120113	00:20:04:000	Image	the-large-bathers_renoir_1887.jpg
finaleart	S4120113	00:20:08:046	Image	void.png
finaleart	S4120113	00:20:10:156	Image	Fleurs_et_fruits_camoin_1942.jpg
finaleart	S4120113	00:20:14:234	Image	void.png
finaleart	S4120113	00:20:16:343	Image	madrazo-y-kuntz-Man-Holding-a-Dagger-1850.jpg
finaleart	S4120113	00:20:20:453	Image	void.png
finaleart	S4120113	00:20:22:515	Calibration	
finaleart	S4120113	00:25:30:593	The deviations of the calibration are DevX = 0,32 DevY = 0,56
finaleart	S4120113	00:25:30:875	Image	REJECTED_rose_in_a_bowl_fantin_latour_1883.jpg
finaleart	S4120113	00:25:34:906	Image	void.png
finaleart	S4120113	00:25:36:968	Image	lying-nude_ury_1889.JPG
finaleart	S4120113	00:25:41:015	Image	void.png
finaleart	S4120113	00:25:43:078	Image	The_Augustan_Bridge_at_Narni_Corot_1826.jpg
finaleart	S4120113	00:25:47:187	Image	void.png
finaleart	S4120113	00:25:49:234	Image	resting-bacchante_sorolla_1887.jpg
finaleart	S4120113	00:25:53:359	Image	void.png
finaleart	S4120113	00:25:55:515	Image	Rysselberghe-Vase-of-flowers-1907.Jpg
finaleart	S4120113	00:25:59:546	Image	void.png
finaleart	S4120113	00:26:01:640	Image	still-life-fruits-on-a-table_manet_1864.jpg
finaleart	S4120113	00:26:05:671	Image	void.png
finaleart	S4120113	00:26:07:734	Image	Le-Restaurant-de-la-machine-a-Bougival-vlaminck-1905.jpg
finaleart	S4120113	00:26:11:812	Image	void.png
finaleart	S4120113	00:26:13:906	Image	reclining-nude_bazille_1860.png
finaleart	S4120113	00:26:17:968	Image	void.png
finaleart	S4120113	00:26:20:015	Image	landschaft_mit_dem_ondregenbogen_caspar_david_friedrich_1810.jpg
finaleart	S4120113	00:26:24:078	Image	void.png
finaleart	S4120113	00:26:26:203	Image	wright-vesuvius-from-posillipo-1774.jpg
finaleart	S4120113	00:26:30:234	Image	void.png
finaleart	S4120113	00:26:32:296	Image	L'Ile_de_La_Grande_Jatte_Seurat_1884.jpg
finaleart	S4120113	00:26:36:343	Image	void.png
finaleart	S4120113	00:26:38:437	Image	chase-a-study-in-curves-1890.jpg
finaleart	S4120113	00:26:42:484	Image	void.png
finaleart	S4120113	00:26:44:546	Image	cows_at_a_pond_Bilders_1856.jpg
finaleart	S4120113	00:26:48:593	Image	void.png
finaleart	S4120113	00:26:50:671	Image	the-pointe-de-per-kiridec-at-roscoff_Rysselberghe_0.jpg
finaleart	S4120113	00:26:54:734	Image	void.png
finaleart	S4120113	00:26:56:781	Image	les_poseuses_seurat_1888.Jpg
finaleart	S4120113	00:27:00:906	Image	void.png
finaleart	S4120113	00:27:03:046	Image	paysage_avec_du_betail_au_limousin_jules-dupre_1837.jpg
finaleart	S4120113	00:27:07:171	Image	void.png
finaleart	S4120113	00:27:09:218	Image	the-reclining-shepherdess_morisot_1891.jpg
finaleart	S4120113	00:27:13:343	Image	void.png
finaleart	S4120113	00:27:15:390	Image	red-mullets_monet_1869.jpg
finaleart	S4120113	00:27:19:437	Image	void.png
finaleart	S4120113	00:27:21:515	Image	Hayet-Nature-morte-1888.jpg
finaleart	S4120113	00:27:25:578	Image	void.png
finaleart	S4120113	00:27:27:640	Image	huisje_aan_een_sloot_mauve_1888.jpg
finaleart	S4120113	00:27:31:687	Image	void.png
finaleart	S4120113	00:27:33:765	Image	Paysage_a_La_Ciotat_(La_Pointe_du-Capucin)_friesz_1907.jpg
finaleart	S4120113	00:27:37:812	Image	void.png
finaleart	S4120113	00:27:39:875	Image	metzinger-nature-morte-1905.png
finaleart	S4120113	00:27:43:921	Image	void.png
finaleart	S4120113	00:27:46:000	Image	delacroix-Reclining-Odalisque-or-Woman-with-a-Parakeet-1827.jpg
finaleart	S4120113	00:27:50:046	Image	void.png
finaleart	S4120113	00:27:52:250	Image	still-life-with-a-puro-(II)_matisse_1904.jpg
finaleart	S4120113	00:27:56:531	Image	void.png
finaleart	S4120113	00:27:58:578	Image	Nature_Morte_Aux_Raisins_Sur_Un_Plat_Derain_1944.jpg
finaleart	S4120113	00:28:02:656	Image	void.png
finaleart	S4120113	00:28:04:703	Image	Girtin-Kirkstall-Abbey-Yorkshire-1801.jpg
finaleart	S4120113	00:28:08:828	Image	void.png
finaleart	S4120113	00:28:10:937	Calibration	
finaleart	S4120113	00:30:17:015	The deviations of the calibration are DevX = 0,565 DevY = 0,5075
finaleart	S4120113	00:30:17:250	Image	REJECTED_Volga_Lagoon_Vassiliev_1870.jpg
finaleart	S4120113	00:30:21:296	Image	void.png
finaleart	S4120113	00:30:23:375	Image	goya-Nature-morte-avec-Bouteilles-et-Pains-1826.jpg
finaleart	S4120113	00:30:27:437	Image	void.png
finaleart	S4120113	00:30:29:500	Image	Niagara_Falls_Hale_1902.jpg
finaleart	S4120113	00:30:33:609	Image	void.png
finaleart	S4120113	00:30:35:687	Image	Georges-braque-still-life-with-jugs-and-pipe-1906.png
finaleart	S4120113	00:30:39:828	Image	void.png
finaleart	S4120113	00:30:41:875	Image	millet-the-bather-1848.jpg
finaleart	S4120113	00:30:45:921	Image	void.png
finaleart	S4120113	00:30:48:156	Image	storm_off_normandy_cost_isabey_1850.jpg
finaleart	S4120113	00:30:52:203	Image	void.png
finaleart	S4120113	00:30:54:250	Image	the-wood_cross_907.jpg
finaleart	S4120113	00:30:58:328	Image	void.png
finaleart	S4120113	00:31:00:406	Image	Le_port_d-Anvers_Braque_1906.jpg
finaleart	S4120113	00:31:04:453	Image	void.png
finaleart	S4120113	00:31:06:578	Image	still-life-with-fish_bazille_1866.jpg
finaleart	S4120113	00:31:10:703	Image	void.png
finaleart	S4120113	00:31:12:750	Image	courbet-woman-with-a-parrot-1866.jpg
finaleart	S4120113	00:31:16:796	Image	void.png
finaleart	S4120113	00:31:18:953	Image	nasturtiums-dahlias-in-a-basket_gauguin_1884.jpg
finaleart	S4120113	00:31:22:984	Image	void.png
finaleart	S4120113	00:31:25:046	Image	sargent-reclining-nude.JPG
finaleart	S4120113	00:31:29:156	Image	void.png
finaleart	S4120113	00:31:31:218	Image	Still-life-of-Sheep-s-Ribs-and-Head-The-Butchers-conter_Goya_1812.jpg
finaleart	S4120113	00:31:35:265	Image	void.png
finaleart	S4120113	00:31:37:328	Image	Matisse-Nature-morte-a-la-cruche-bleue.jpg
finaleart	S4120113	00:31:41:406	Image	void.png
finaleart	S4120113	00:31:43:453	Image	Nature_morte_au_panier_Derain_1927.jpg
finaleart	S4120113	00:31:47:593	Image	void.png
finaleart	S4120113	00:31:49:703	Image	stilleven-met-vis_dubois-pillet_1885.jpg
finaleart	S4120113	00:31:53:781	Image	void.png
finaleart	S4120113	00:31:55:859	Image	still-life-with-red-mullet-and-jug_gaugain_1876.jpg
finaleart	S4120113	00:31:59:890	Image	void.png
finaleart	S4120113	00:32:01:953	Image	Le_Chemin_De_Fer_Berlin_Potsdam_Menzel_1847.jpg
finaleart	S4120113	00:32:06:031	Image	void.png
finaleart	S4120113	00:32:08:093	Image	Pots_Et_Fruits_Matisse_1901.jpg
finaleart	S4120113	00:32:12:125	Image	void.png
finaleart	S4120113	00:32:14:187	Image	Upper_Mississippi_Kensett_1855.jpg
finaleart	S4120113	00:32:18:328	Image	void.png
finaleart	S4120113	00:32:20:468	Image	morning_Daubigny_1858.jpg
finaleart	S4120113	00:32:24:531	Image	void.png
finaleart	S4120113	00:32:26:578	Image	Le_Pin_A_St-Tropez_Signac_1909.jpg
finaleart	S4120113	00:32:30:656	Image	void.png
finaleart	S4120113	00:32:32:765	Image	nature_morte_aux_oranges_Vlaminck_1909.jpg
finaleart	S4120113	00:32:36:875	Image	void.png
finaleart	S4120113	00:32:38:937	Image	Delacroix-odalisque-1825.jpg
finaleart	S4120113	00:32:42:984	Image	void.png
finaleart	S4120113	00:32:45:062	Image	Turner-snow-storm-boat-off-a-harbours-mouth-1842.jpg
finaleart	S4120113	00:32:49:109	Image	void.png
finaleart	S4120113	00:32:51:203	Image	sargent-male-model-resting.jpg
finaleart	S4120113	00:32:55:265	Image	void.png
finaleart	S4120113	00:32:57:468	End of Experiment
