finaleart	S6124332	00:00:00:000	Calibration	
finaleart	S6124332	00:00:32:234	The deviations of the calibration are DevX = 0,315 DevY = 0,4475
finaleart	S6124332	00:00:32:546	Image	REJECTED_after-the-bath_degas_1885.jpg
finaleart	S6124332	00:00:36:843	Image	void.png
finaleart	S6124332	00:00:39:109	Image	REJECTED_cezanne-still-life-with-green-pot-and-pewter-1870.jpg
finaleart	S6124332	00:00:43:156	Image	void.png
finaleart	S6124332	00:00:45:234	Calibration	
finaleart	S6124332	00:01:17:093	The deviations of the calibration are DevX = 0,4375 DevY = 0,2125
finaleart	S6124332	00:01:17:437	Image	REJECTED_olympia_manet_1863.jpg
finaleart	S6124332	00:01:22:031	Image	void.png
finaleart	S6124332	00:01:26:187	Image	Le_Pin_A_St-Tropez_Signac_1909.jpg
finaleart	S6124332	00:01:30:375	Image	void.png
finaleart	S6124332	00:01:32:531	Image	naked-woman-lying-on-a-couch_caillebotte_1873.jpg
finaleart	S6124332	00:01:36:578	Image	void.png
finaleart	S6124332	00:01:38:640	Image	the-reclining-shepherdess_morisot_1891.jpg
finaleart	S6124332	00:01:42:687	Image	void.png
finaleart	S6124332	00:01:44:921	Image	still-life_pissarro_1867.Jpg
finaleart	S6124332	00:01:49:156	Image	void.png
finaleart	S6124332	00:01:51:265	Image	Rochers_Sur_La_Cote_A_Agay_Guillaumin_1907.jpg
finaleart	S6124332	00:01:55:328	Image	void.png
finaleart	S6124332	00:01:57:421	Image	Niagara_Falls_Hale_1902.jpg
finaleart	S6124332	00:02:01:453	Image	void.png
finaleart	S6124332	00:02:03:609	Image	nasturtiums-dahlias-in-a-basket_gauguin_1884.jpg
finaleart	S6124332	00:02:07:687	Image	void.png
finaleart	S6124332	00:02:09:718	Image	the-wood_cross_907.jpg
finaleart	S6124332	00:02:13:765	Image	void.png
finaleart	S6124332	00:02:15:828	Image	The_Lying_Nude_Matisse_1906.png
finaleart	S6124332	00:02:19:875	Image	void.png
finaleart	S6124332	00:02:22:000	Image	La_Danse_Matisse_1909.jpg
finaleart	S6124332	00:02:26:093	Image	void.png
finaleart	S6124332	00:02:28:156	Image	Le_Chemin_De_Fer_Berlin_Potsdam_Menzel_1847.jpg
finaleart	S6124332	00:02:32:203	Image	void.png
finaleart	S6124332	00:02:34:265	Image	Still-life-of-Sheep-s-Ribs-and-Head-The-Butchers-conter_Goya_1812.jpg
finaleart	S6124332	00:02:38:375	Image	void.png
finaleart	S6124332	00:02:40:437	Image	Courbet-Femme-nue-couchee-1862.jpg
finaleart	S6124332	00:02:44:515	Image	void.png
finaleart	S6124332	00:02:46:593	Image	after_a_rain_country_road_Vasilyev_1869.jpg
finaleart	S6124332	00:02:50:640	Image	void.png
finaleart	S6124332	00:02:52:687	Image	red-mullets_monet_1869.jpg
finaleart	S6124332	00:02:56:781	Image	void.png
finaleart	S6124332	00:02:58:828	Image	Hayet-Nature-morte-1888.jpg
finaleart	S6124332	00:03:02:875	Image	void.png
finaleart	S6124332	00:03:04:937	Image	avenue_of_trees_in_a_small_town_sisley_1866.jpg
finaleart	S6124332	00:03:09:000	Image	void.png
finaleart	S6124332	00:03:11:046	Image	renoir-still-life-with-peaches-and-grapes-1881.jpg
finaleart	S6124332	00:03:15:093	Image	void.png
finaleart	S6124332	00:03:17:156	Image	monticelli-still-life-with-white-pitcher-1822.jpg
finaleart	S6124332	00:03:21:203	Image	void.png
finaleart	S6124332	00:03:23:265	Image	basket-of-fruits-Manet-1864.jpg
finaleart	S6124332	00:03:27:343	Image	void.png
finaleart	S6124332	00:03:29:437	Image	Trouville_Black_Rocks_Boudin_1863.jpg
finaleart	S6124332	00:03:33:484	Image	void.png
finaleart	S6124332	00:03:35:578	Image	still-life-with-bottle-of-wind_cross_1904.Jpg
finaleart	S6124332	00:03:39:687	Image	void.png
finaleart	S6124332	00:03:41:718	Image	resting-bacchante_sorolla_1887.jpg
finaleart	S6124332	00:03:45:781	Image	void.png
finaleart	S6124332	00:03:47:828	Image	metzinger-nature-morte-1905.png
finaleart	S6124332	00:03:51:875	Image	void.png
finaleart	S6124332	00:03:53:968	Image	goya-Bodegón-con-salmón-1812.jpg
finaleart	S6124332	00:03:58:015	Image	void.png
finaleart	S6124332	00:04:00:093	Calibration	
finaleart	S6124332	00:05:46:390	The deviations of the calibration are DevX = 0,4775 DevY = 0,4
finaleart	S6124332	00:05:46:687	Image	REJECTED_rose_in_a_bowl_fantin_latour_1883.jpg
finaleart	S6124332	00:05:50:734	Image	void.png
finaleart	S6124332	00:05:52:796	Image	Les_Bords_De_Seine_A_Neuilly_Dubois_Pillet_1886.jpg
finaleart	S6124332	00:05:56:921	Image	void.png
finaleart	S6124332	00:05:59:031	Image	Sailboats_On_The_River_Sheldt_van_Rysselberghe_1892.jpg
finaleart	S6124332	00:06:03:140	Image	void.png
finaleart	S6124332	00:06:05:281	Image	Delacroix-odalisque-1825.jpg
finaleart	S6124332	00:06:09:328	Image	void.png
finaleart	S6124332	00:06:11:437	Image	plate-of-peaches-Fantin-Latour-1862.jpg
finaleart	S6124332	00:06:15:500	Image	void.png
finaleart	S6124332	00:06:17:656	Image	Turner-snow-storm-boat-off-a-harbours-mouth-1842.jpg
finaleart	S6124332	00:06:21:687	Image	void.png
finaleart	S6124332	00:06:23:750	Image	landschaft_mit_dem_ondregenbogen_caspar_david_friedrich_1810.jpg
finaleart	S6124332	00:06:27:796	Image	void.png
finaleart	S6124332	00:06:29:875	Image	millet-the-bather-1848.jpg
finaleart	S6124332	00:06:33:921	Image	void.png
finaleart	S6124332	00:06:36:031	Image	wright-vesuvius-from-posillipo-1774.jpg
finaleart	S6124332	00:06:40:078	Image	void.png
finaleart	S6124332	00:06:42:187	Image	L'Ile_de_La_Grande_Jatte_Seurat_1884.jpg
finaleart	S6124332	00:06:46:312	Image	void.png
finaleart	S6124332	00:06:48:453	Image	Young_Girls_Playing_With_A_Lion_Club_Valtat_1905.jpg
finaleart	S6124332	00:06:52:562	Image	void.png
finaleart	S6124332	00:06:54:718	Image	still-life-with-skate_Boudin_1861.jpg
finaleart	S6124332	00:06:58:937	Image	void.png
finaleart	S6124332	00:07:01:062	Image	Nu_Couche_Vlaminck_1905.jpg
finaleart	S6124332	00:07:05:093	Image	void.png
finaleart	S6124332	00:07:07:171	Image	The_Girl_From_Rat_Mort_Vlaminck_1905.jpg
finaleart	S6124332	00:07:11:218	Image	void.png
finaleart	S6124332	00:07:13:281	Image	the_kiss_gericault_1816.jpg
finaleart	S6124332	00:07:17:343	Image	void.png
finaleart	S6124332	00:07:19:421	Image	huisje_aan_een_sloot_mauve_1888.jpg
finaleart	S6124332	00:07:23:500	Image	void.png
finaleart	S6124332	00:07:25:531	Image	Nature_Morte_Aux_Raisins_Sur_Un_Plat_Derain_1944.jpg
finaleart	S6124332	00:07:29:578	Image	void.png
finaleart	S6124332	00:07:31:640	Image	still-life-with-fish_bazille_1866.jpg
finaleart	S6124332	00:07:35:687	Image	void.png
finaleart	S6124332	00:07:37:734	Image	venice_from_porche_of_madonna_turner_1835.jpg
finaleart	S6124332	00:07:41:796	Image	void.png
finaleart	S6124332	00:07:43:843	Image	Upper_Mississippi_Kensett_1855.jpg
finaleart	S6124332	00:07:47:906	Image	void.png
finaleart	S6124332	00:07:49:968	Image	Morning,_An_Overcast_Day_Rouen_Pissaro_1896.jpg
finaleart	S6124332	00:07:54:031	Image	void.png
finaleart	S6124332	00:07:56:093	Image	Turner-chichester-canal-1828.jpg
finaleart	S6124332	00:08:00:140	Image	void.png
finaleart	S6124332	00:08:02:203	Image	Rapids_on_the_Petite_Creuse_at_Fresselines_Monet_1889.jpg
finaleart	S6124332	00:08:06:265	Image	void.png
finaleart	S6124332	00:08:08:312	Image	sisley-still-life-heron-with-spread-wings-1867.jpg
finaleart	S6124332	00:08:12:359	Image	void.png
finaleart	S6124332	00:08:14:406	Image	Nature-morte-Maurice-de-Vlaminck.jpg
finaleart	S6124332	00:08:18:468	Image	void.png
finaleart	S6124332	00:08:20:640	Image	mother_and_child_by_the_sea_dahl_1830.jpg
finaleart	S6124332	00:08:24:718	Image	void.png
finaleart	S6124332	00:08:26:812	Calibration	
finaleart	S6124332	00:10:12:609	The deviations of the calibration are DevX = 0,725 DevY = 0,2625
finaleart	S6124332	00:10:12:828	Image	REJECTED_rose_in_a_bowl_fantin_latour_1883.jpg
finaleart	S6124332	00:10:16:875	Image	void.png
finaleart	S6124332	00:10:19:000	Image	nature_morte_aux_oranges_Vlaminck_1909.jpg
finaleart	S6124332	00:10:23:046	Image	void.png
finaleart	S6124332	00:10:25:140	Image	L-Heure_Embrasee_Rysselberghe_1897.jpg
finaleart	S6124332	00:10:29:203	Image	void.png
finaleart	S6124332	00:10:31:328	Image	plage-de-la-vignassa_cross_1892.jpg
finaleart	S6124332	00:10:35:421	Image	void.png
finaleart	S6124332	00:10:37:531	Image	Odalisque_Matisse.jpg
finaleart	S6124332	00:10:41:593	Image	void.png
finaleart	S6124332	00:10:43:656	Image	storm_off_normandy_cost_isabey_1850.jpg
finaleart	S6124332	00:10:47:703	Image	void.png
finaleart	S6124332	00:10:49:750	Image	Matejko-Akt-meski.jpg
finaleart	S6124332	00:10:53:890	Image	void.png
finaleart	S6124332	00:10:55:937	Image	still-life-with-a-puro-(II)_matisse_1904.jpg
finaleart	S6124332	00:11:00:015	Image	void.png
finaleart	S6124332	00:11:02:125	Image	bathers_cross_1902.jpg
finaleart	S6124332	00:11:06:171	Image	void.png
finaleart	S6124332	00:11:08:265	Image	delacroix-still-life-with-lobsters-1827.jpg
finaleart	S6124332	00:11:12:437	Image	void.png
finaleart	S6124332	00:11:14:500	Image	bowl_of_fruits_Fantin-Latour_1857.jpg
finaleart	S6124332	00:11:18:593	Image	void.png
finaleart	S6124332	00:11:20:640	Image	courbet-woman-with-a-parrot-1866.jpg
finaleart	S6124332	00:11:24:703	Image	void.png
finaleart	S6124332	00:11:26:765	Image	cross-La-fuite-des-nymphes-1906.jpg
finaleart	S6124332	00:11:30:796	Image	void.png
finaleart	S6124332	00:11:32:859	Image	The_Orchard_Vlaminck_1905.jpg
finaleart	S6124332	00:11:36:953	Image	void.png
finaleart	S6124332	00:11:38:984	Image	paysage_avec_du_betail_au_limousin_jules-dupre_1837.jpg
finaleart	S6124332	00:11:43:093	Image	void.png
finaleart	S6124332	00:11:45:140	Image	The_Joy_Of_Life_Matisse_1906.jpg
finaleart	S6124332	00:11:49:203	Image	void.png
finaleart	S6124332	00:11:51:265	Image	cows_at_a_pond_Bilders_1856.jpg
finaleart	S6124332	00:11:55:296	Image	void.png
finaleart	S6124332	00:11:57:359	Image	Nature_Morte_Au_Citron_Matisse_1917.jpg
finaleart	S6124332	00:12:01:390	Image	void.png
finaleart	S6124332	00:12:03:453	Image	The_Gardener_Vlaminck_1904.jpg
finaleart	S6124332	00:12:07:515	Image	void.png
finaleart	S6124332	00:12:09:578	Image	courbet_Femme_nue_et_dormant_1858.jpg
finaleart	S6124332	00:12:13:640	Image	void.png
finaleart	S6124332	00:12:15:687	Image	still-life-post-bottle-cup-and-fruit_cezanne_1871.jpg
finaleart	S6124332	00:12:19:734	Image	void.png
finaleart	S6124332	00:12:21:843	Image	The_Blue_Nude_Souvenir_of_Biskra_Matisse_1907.png
finaleart	S6124332	00:12:25:906	Image	void.png
finaleart	S6124332	00:12:28:000	Image	Kiprensky-two-sitters-1800.jpg
finaleart	S6124332	00:12:32:046	Image	void.png
finaleart	S6124332	00:12:34:109	Image	madrazo-y-kuntz-Man-Holding-a-Dagger-1850.jpg
finaleart	S6124332	00:12:38:140	Image	void.png
finaleart	S6124332	00:12:40:187	Image	Fleurs_et_fruits_camoin_1942.jpg
finaleart	S6124332	00:12:44:328	Image	void.png
finaleart	S6124332	00:12:46:390	Image	garlic-cloves-and-knife-on-the-corner-of-a-table_caillebotte_1871.jpg
finaleart	S6124332	00:12:50:437	Image	void.png
finaleart	S6124332	00:12:52:531	Calibration	
finaleart	S6124332	00:15:35:187	The deviations of the calibration are DevX = 0,26 DevY = 0,825
finaleart	S6124332	00:15:35:421	Image	REJECTED_cezanne-still-life-with-bread-and-eggs-1865.jpg
finaleart	S6124332	00:15:39:453	Image	void.png
finaleart	S6124332	00:15:41:546	Image	Houses_at_Chatou_Vlaminck_1905.jpg
finaleart	S6124332	00:15:45:593	Image	void.png
finaleart	S6124332	00:15:47:671	Image	les_poseuses_seurat_1888.Jpg
finaleart	S6124332	00:15:51:734	Image	void.png
finaleart	S6124332	00:15:53:890	Image	flowers-and-fruit-a-melon_fantin-latour_1865.jpg
finaleart	S6124332	00:15:57:968	Image	void.png
finaleart	S6124332	00:16:00:000	Image	Pots_Et_Fruits_Matisse_1901.jpg
finaleart	S6124332	00:16:04:062	Image	void.png
finaleart	S6124332	00:16:06:109	Image	study_of_a_reclining_nude_Delacroix_1824.jpg
finaleart	S6124332	00:16:10:171	Image	void.png
finaleart	S6124332	00:16:12:218	Image	manet-the-salmon-1868.jpg
finaleart	S6124332	00:16:16:265	Image	void.png
finaleart	S6124332	00:16:18:343	Image	chase-a-study-in-curves-1890.jpg
finaleart	S6124332	00:16:22:421	Image	void.png
finaleart	S6124332	00:16:24:546	Image	Le_port_d-Anvers_Braque_1906.jpg
finaleart	S6124332	00:16:28:640	Image	void.png
finaleart	S6124332	00:16:30:734	Image	morning_Daubigny_1858.jpg
finaleart	S6124332	00:16:34:796	Image	void.png
finaleart	S6124332	00:16:36:859	Image	bacchante_sorolla_1886.Jpg
finaleart	S6124332	00:16:40:953	Image	void.png
finaleart	S6124332	00:16:43:000	Image	Un_Jardin_Maison_Baptiste_Butler_1895.jpg
finaleart	S6124332	00:16:47:046	Image	void.png
finaleart	S6124332	00:16:49:140	Image	Rysselberghe-Vase-of-flowers-1907.Jpg
finaleart	S6124332	00:16:53:250	Image	void.png
finaleart	S6124332	00:16:55:421	Image	Nature_morte_a_la_cafetiere_rouge_Vlaminck.png
finaleart	S6124332	00:16:59:453	Image	void.png
finaleart	S6124332	00:17:01:515	Image	lair_of_the_sea_serpent_vedder_1899.jpg
finaleart	S6124332	00:17:05:593	Image	void.png
finaleart	S6124332	00:17:07:734	Image	still-life-with-pumpkin-plums-cherries-figs-and-jug-Ribot-1860.jpg
finaleart	S6124332	00:17:11:781	Image	void.png
finaleart	S6124332	00:17:13:843	Image	courbet-the-bathers-1858.jpg
finaleart	S6124332	00:17:17:906	Image	void.png
finaleart	S6124332	00:17:19:968	Image	The_Two_Models_Dufy_1930.jpg
finaleart	S6124332	00:17:24:046	Image	void.png
finaleart	S6124332	00:17:26:109	Image	Bank_Of_A_Lake_Pechstein_1910.jpg
finaleart	S6124332	00:17:30:140	Image	void.png
finaleart	S6124332	00:17:32:203	Image	the_model's_siesta_Rysselberghe_1920.jpg
finaleart	S6124332	00:17:36:265	Image	void.png
finaleart	S6124332	00:17:38:312	Image	the_rainbow__moore_henry_1865.jpg
finaleart	S6124332	00:17:42:406	Image	void.png
finaleart	S6124332	00:17:44:453	Image	Kiprensky-standing-sitter-with-a-stick-sitter-on-a-rock-1801.jpg
finaleart	S6124332	00:17:48:500	Image	void.png
finaleart	S6124332	00:17:50:562	Image	Ma_Maison_Martin_XXXX.jpg
finaleart	S6124332	00:17:54:687	Image	void.png
finaleart	S6124332	00:17:56:859	Image	kneeling-nude_degas_1888.jpg
finaleart	S6124332	00:18:01:062	Image	void.png
finaleart	S6124332	00:18:03:156	Image	reclining-nude_bazille_1860.png
finaleart	S6124332	00:18:07:281	Image	void.png
finaleart	S6124332	00:18:09:390	Image	pears-and-grapes_gauguin_1875.jpg
finaleart	S6124332	00:18:13:468	Image	void.png
finaleart	S6124332	00:18:15:578	Calibration	
finaleart	S6124332	00:19:04:453	The deviations of the calibration are DevX = 0,6925 DevY = 1,0275
finaleart	S6124332	00:19:04:718	Image	REJECTED_landscape_cross_0.jpg
finaleart	S6124332	00:19:08:859	Image	void.png
finaleart	S6124332	00:19:10:906	Image	ronde_cross_1905.jpg
finaleart	S6124332	00:19:14:968	Image	void.png
finaleart	S6124332	00:19:17:046	Image	The_Augustan_Bridge_at_Narni_Corot_1826.jpg
finaleart	S6124332	00:19:21:109	Image	void.png
finaleart	S6124332	00:19:23:234	Image	goya-still-life-plucked-turkey-and-pan-with-fish-1812.jpg
finaleart	S6124332	00:19:27:312	Image	void.png
finaleart	S6124332	00:19:29:359	Image	La_Ferme_des_Collettes_Renoir_1908.jpg
finaleart	S6124332	00:19:33:421	Image	void.png
finaleart	S6124332	00:19:35:531	Image	the-banks-of-the-marne-at-dawn_dubois-pillet_1888.jpg
finaleart	S6124332	00:19:39:562	Image	void.png
finaleart	S6124332	00:19:41:625	Image	still-life_matisse_0.jpg
finaleart	S6124332	00:19:45:687	Image	void.png
finaleart	S6124332	00:19:47:750	Image	female_nude_reclining_on-a_divan_delacroix_1826.jpg
finaleart	S6124332	00:19:51:796	Image	void.png
finaleart	S6124332	00:19:53:937	Image	courbet-female-nude-with-a-dog-portrait-of-leotine-renaude-1866.jpg
finaleart	S6124332	00:19:58:062	Image	void.png
finaleart	S6124332	00:20:00:203	Image	Naked_man_reversed_on_the_ground_Gericault_1817.jpg
finaleart	S6124332	00:20:04:281	Image	void.png
finaleart	S6124332	00:20:06:375	Image	Automne_En_France_Carr_1911.jpg
finaleart	S6124332	00:20:10:406	Image	void.png
finaleart	S6124332	00:20:12:468	Image	dead_hare_ward.jpg
finaleart	S6124332	00:20:16:531	Image	void.png
finaleart	S6124332	00:20:18:609	Image	still-life-fruits-on-a-table_manet_1864.jpg
finaleart	S6124332	00:20:22:671	Image	void.png
finaleart	S6124332	00:20:24:781	Image	sargent-male-model-resting.jpg
finaleart	S6124332	00:20:28:906	Image	void.png
finaleart	S6124332	00:20:30:953	Image	Le-Restaurant-de-la-machine-a-Bougival-vlaminck-1905.jpg
finaleart	S6124332	00:20:35:062	Image	void.png
finaleart	S6124332	00:20:37:125	Image	goya-Bodegones-con-pargos-dorados-1812.jpg
finaleart	S6124332	00:20:41:250	Image	void.png
finaleart	S6124332	00:20:43:312	Image	The_Luxembourg_Gardens_Matisse_1901.jpg
finaleart	S6124332	00:20:47:375	Image	void.png
finaleart	S6124332	00:20:49:437	Image	Paysage_a_La_Ciotat_(La_Pointe_du-Capucin)_friesz_1907.jpg
finaleart	S6124332	00:20:53:515	Image	void.png
finaleart	S6124332	00:20:55:562	Image	delacroix-Reclining-Odalisque-or-Woman-with-a-Parakeet-1827.jpg
finaleart	S6124332	00:20:59:625	Image	void.png
finaleart	S6124332	00:21:01:656	Image	chestnut_avenue_in_la_celle_saint_cloud_sisley_1865.jpg
finaleart	S6124332	00:21:05:703	Image	void.png
finaleart	S6124332	00:21:07:781	Image	courbet-the-sleepers-1866.jpg
finaleart	S6124332	00:21:11:828	Image	void.png
finaleart	S6124332	00:21:13:984	Image	A_Highland_Landscape_Landseer_1830.jpg
finaleart	S6124332	00:21:18:156	Image	void.png
finaleart	S6124332	00:21:20:203	Image	turner-waves-breaking-against-the-wind-1830.jpg
finaleart	S6124332	00:21:24:281	Image	void.png
finaleart	S6124332	00:21:26:406	Image	luxe-calme-et-volupté_matisse_1905.jpg
finaleart	S6124332	00:21:30:468	Image	void.png
finaleart	S6124332	00:21:32:546	Image	martin-vase-of-flowers-in-a-window.jpg
finaleart	S6124332	00:21:36:656	Image	void.png
finaleart	S6124332	00:21:38:828	Image	sargent-reclining-nude.JPG
finaleart	S6124332	00:21:42:890	Image	void.png
finaleart	S6124332	00:21:44:921	Calibration	
finaleart	S6124332	00:23:10:406	The deviations of the calibration are DevX = 0,49 DevY = 0,6925
finaleart	S6124332	00:23:10:640	Image	REJECTED_Volga_Lagoon_Vassiliev_1870.jpg
finaleart	S6124332	00:23:14:734	Image	void.png
finaleart	S6124332	00:23:16:812	Image	the_forest_Cross_1907.jpg
finaleart	S6124332	00:23:20:843	Image	void.png
finaleart	S6124332	00:23:22:906	Image	Poppy_Fields_near_Argenteuil_Monet_1875.jpg
finaleart	S6124332	00:23:26:968	Image	void.png
finaleart	S6124332	00:23:29:015	Image	woman-at-her-toilette_degas_1877.jpg
finaleart	S6124332	00:23:33:171	Image	void.png
finaleart	S6124332	00:23:35:218	Image	marquet-fruit-knife-and-napkin-1898.jpg
finaleart	S6124332	00:23:39:265	Image	void.png
finaleart	S6124332	00:23:41:343	Image	still-life-with-red-mullet-and-jug_gaugain_1876.jpg
finaleart	S6124332	00:23:45:406	Image	void.png
finaleart	S6124332	00:23:47:515	Image	the-large-bathers_renoir_1887.jpg
finaleart	S6124332	00:23:51:562	Image	void.png
finaleart	S6124332	00:23:53:640	Image	Girtin-Kirkstall-Abbey-Yorkshire-1801.jpg
finaleart	S6124332	00:23:57:671	Image	void.png
finaleart	S6124332	00:23:59:750	Image	parrot-tulips-(II)_matisse_1905.jpg
finaleart	S6124332	00:24:03:796	Image	void.png
finaleart	S6124332	00:24:05:875	Image	Matisse-Nature-morte-a-la-cruche-bleue.jpg
finaleart	S6124332	00:24:09:953	Image	void.png
finaleart	S6124332	00:24:12:000	Image	goya-Pavo-muerto-1812.jpg
finaleart	S6124332	00:24:16:031	Image	void.png
finaleart	S6124332	00:24:18:093	Image	the-tea-set_monet_1871.jpg
finaleart	S6124332	00:24:22:218	Image	void.png
finaleart	S6124332	00:24:24:265	Image	les-deux-amies_marevna_0.jpg
finaleart	S6124332	00:24:28:312	Image	void.png
finaleart	S6124332	00:24:30:468	Image	the-pointe-de-per-kiridec-at-roscoff_Rysselberghe_0.jpg
finaleart	S6124332	00:24:34:562	Image	void.png
finaleart	S6124332	00:24:36:609	Image	the_three_skulls_gericault_1814.jpg
finaleart	S6124332	00:24:40:656	Image	void.png
finaleart	S6124332	00:24:42:765	Image	stilleven-met-vis_dubois-pillet_1885.jpg
finaleart	S6124332	00:24:46:828	Image	void.png
finaleart	S6124332	00:24:48:859	Image	reclining-nude_renoir_1883.jpg
finaleart	S6124332	00:24:52:906	Image	void.png
finaleart	S6124332	00:24:54:968	Image	morning_in_a_pine_forest_Ivan_Shishkin_1889.jpg
finaleart	S6124332	00:24:59:015	Image	void.png
finaleart	S6124332	00:25:01:109	Image	Le_Puy_In_The_Snow_Dubois-Pillet_1889.jpg
finaleart	S6124332	00:25:05:156	Image	void.png
finaleart	S6124332	00:25:07:203	Image	oysters_manet_1862.jpg
finaleart	S6124332	00:25:11:250	Image	void.png
finaleart	S6124332	00:25:13:328	Image	Nature_morte_au_panier_Derain_1927.jpg
finaleart	S6124332	00:25:17:375	Image	void.png
finaleart	S6124332	00:25:19:421	Image	Georges-braque-still-life-with-jugs-and-pipe-1906.png
finaleart	S6124332	00:25:23:484	Image	void.png
finaleart	S6124332	00:25:25:531	Image	lying-nude_ury_1889.JPG
finaleart	S6124332	00:25:29:625	Image	void.png
finaleart	S6124332	00:25:31:671	Image	goya-Nature-morte-avec-Bouteilles-et-Pains-1826.jpg
finaleart	S6124332	00:25:35:828	Image	void.png
finaleart	S6124332	00:25:37:890	Image	Alfalfa_St-Denis_Seurat_1886.jpg
finaleart	S6124332	00:25:41:937	Image	void.png
finaleart	S6124332	00:25:44:093	Image	Landscape_at_L-Estaque_Braque-1906.jpg
finaleart	S6124332	00:25:48:187	Image	void.png
finaleart	S6124332	00:25:50:390	End of Experiment
