finaleart	S7121223	00:00:00:000	Calibration	
finaleart	S7121223	00:00:34:218	The deviations of the calibration are DevX = 0,295 DevY = 0,3025
finaleart	S7121223	00:00:34:515	Image	REJECTED_olympia_manet_1863.jpg
finaleart	S7121223	00:00:38:640	Image	void.png
finaleart	S7121223	00:00:40:687	Image	REJECTED_rose_in_a_bowl_fantin_latour_1883.jpg
finaleart	S7121223	00:00:44:734	Image	void.png
finaleart	S7121223	00:00:46:781	Calibration	
finaleart	S7121223	00:01:24:750	The deviations of the calibration are DevX = 0,345 DevY = 0,325
finaleart	S7121223	00:01:25:015	Image	REJECTED_cezanne-still-life-with-bread-and-eggs-1865.jpg
finaleart	S7121223	00:01:29:062	Image	void.png
finaleart	S7121223	00:01:31:125	Image	madrazo-y-kuntz-Man-Holding-a-Dagger-1850.jpg
finaleart	S7121223	00:01:35:187	Image	void.png
finaleart	S7121223	00:01:37:281	Image	L'Ile_de_La_Grande_Jatte_Seurat_1884.jpg
finaleart	S7121223	00:01:41:390	Image	void.png
finaleart	S7121223	00:01:43:453	Image	plage-de-la-vignassa_cross_1892.jpg
finaleart	S7121223	00:01:47:500	Image	void.png
finaleart	S7121223	00:01:49:562	Image	sisley-still-life-heron-with-spread-wings-1867.jpg
finaleart	S7121223	00:01:53:593	Image	void.png
finaleart	S7121223	00:01:55:640	Image	ronde_cross_1905.jpg
finaleart	S7121223	00:01:59:718	Image	void.png
finaleart	S7121223	00:02:01:781	Image	Poppy_Fields_near_Argenteuil_Monet_1875.jpg
finaleart	S7121223	00:02:05:843	Image	void.png
finaleart	S7121223	00:02:07:890	Image	Les_Bords_De_Seine_A_Neuilly_Dubois_Pillet_1886.jpg
finaleart	S7121223	00:02:11:921	Image	void.png
finaleart	S7121223	00:02:13:968	Image	Un_Jardin_Maison_Baptiste_Butler_1895.jpg
finaleart	S7121223	00:02:18:031	Image	void.png
finaleart	S7121223	00:02:20:078	Image	marquet-fruit-knife-and-napkin-1898.jpg
finaleart	S7121223	00:02:24:140	Image	void.png
finaleart	S7121223	00:02:26:218	Image	still-life_pissarro_1867.Jpg
finaleart	S7121223	00:02:30:250	Image	void.png
finaleart	S7121223	00:02:32:296	Image	morning_Daubigny_1858.jpg
finaleart	S7121223	00:02:36:343	Image	void.png
finaleart	S7121223	00:02:38:421	Image	Paysage_a_La_Ciotat_(La_Pointe_du-Capucin)_friesz_1907.jpg
finaleart	S7121223	00:02:42:468	Image	void.png
finaleart	S7121223	00:02:44:531	Image	morning_in_a_pine_forest_Ivan_Shishkin_1889.jpg
finaleart	S7121223	00:02:48:640	Image	void.png
finaleart	S7121223	00:02:50:718	Image	Morning,_An_Overcast_Day_Rouen_Pissaro_1896.jpg
finaleart	S7121223	00:02:54:781	Image	void.png
finaleart	S7121223	00:02:56:859	Image	goya-Nature-morte-avec-Bouteilles-et-Pains-1826.jpg
finaleart	S7121223	00:03:00:921	Image	void.png
finaleart	S7121223	00:03:02:968	Image	The_Luxembourg_Gardens_Matisse_1901.jpg
finaleart	S7121223	00:03:07:015	Image	void.png
finaleart	S7121223	00:03:09:062	Image	Turner-snow-storm-boat-off-a-harbours-mouth-1842.jpg
finaleart	S7121223	00:03:13:109	Image	void.png
finaleart	S7121223	00:03:15:156	Image	La_Danse_Matisse_1909.jpg
finaleart	S7121223	00:03:19:234	Image	void.png
finaleart	S7121223	00:03:21:281	Image	Nature_morte_a_la_cafetiere_rouge_Vlaminck.png
finaleart	S7121223	00:03:25:343	Image	void.png
finaleart	S7121223	00:03:27:390	Image	Hayet-Nature-morte-1888.jpg
finaleart	S7121223	00:03:31:437	Image	void.png
finaleart	S7121223	00:03:33:484	Image	metzinger-nature-morte-1905.png
finaleart	S7121223	00:03:37:531	Image	void.png
finaleart	S7121223	00:03:39:593	Image	Courbet-Femme-nue-couchee-1862.jpg
finaleart	S7121223	00:03:43:656	Image	void.png
finaleart	S7121223	00:03:45:687	Image	Kiprensky-two-sitters-1800.jpg
finaleart	S7121223	00:03:49:734	Image	void.png
finaleart	S7121223	00:03:51:812	Image	goya-Bodegón-con-salmón-1812.jpg
finaleart	S7121223	00:03:55:843	Image	void.png
finaleart	S7121223	00:03:57:890	Image	bathers_cross_1902.jpg
finaleart	S7121223	00:04:01:968	Image	void.png
finaleart	S7121223	00:04:04:031	Calibration	
finaleart	S7121223	00:06:54:453	The deviations of the calibration are DevX = 0,0975 DevY = 0,3875
finaleart	S7121223	00:06:54:671	Image	REJECTED_after-the-bath_degas_1885.jpg
finaleart	S7121223	00:06:58:734	Image	void.png
finaleart	S7121223	00:07:00:781	Image	plate-of-peaches-Fantin-Latour-1862.jpg
finaleart	S7121223	00:07:04:828	Image	void.png
finaleart	S7121223	00:07:06:890	Image	millet-the-bather-1848.jpg
finaleart	S7121223	00:07:10:937	Image	void.png
finaleart	S7121223	00:07:13:015	Image	chase-a-study-in-curves-1890.jpg
finaleart	S7121223	00:07:17:046	Image	void.png
finaleart	S7121223	00:07:19:109	Image	sargent-reclining-nude.JPG
finaleart	S7121223	00:07:23:171	Image	void.png
finaleart	S7121223	00:07:25:234	Image	bowl_of_fruits_Fantin-Latour_1857.jpg
finaleart	S7121223	00:07:29:265	Image	void.png
finaleart	S7121223	00:07:31:328	Image	courbet-the-sleepers-1866.jpg
finaleart	S7121223	00:07:35:375	Image	void.png
finaleart	S7121223	00:07:37:421	Image	Le_port_d-Anvers_Braque_1906.jpg
finaleart	S7121223	00:07:41:468	Image	void.png
finaleart	S7121223	00:07:43:515	Image	still-life-with-fish_bazille_1866.jpg
finaleart	S7121223	00:07:47:562	Image	void.png
finaleart	S7121223	00:07:49:609	Image	Matisse-Nature-morte-a-la-cruche-bleue.jpg
finaleart	S7121223	00:07:53:656	Image	void.png
finaleart	S7121223	00:07:55:703	Image	the-wood_cross_907.jpg
finaleart	S7121223	00:07:59:734	Image	void.png
finaleart	S7121223	00:08:01:781	Image	The_Two_Models_Dufy_1930.jpg
finaleart	S7121223	00:08:05:828	Image	void.png
finaleart	S7121223	00:08:07:890	Image	oysters_manet_1862.jpg
finaleart	S7121223	00:08:11:953	Image	void.png
finaleart	S7121223	00:08:14:015	Image	still-life-with-skate_Boudin_1861.jpg
finaleart	S7121223	00:08:18:078	Image	void.png
finaleart	S7121223	00:08:20:125	Image	still-life-fruits-on-a-table_manet_1864.jpg
finaleart	S7121223	00:08:24:171	Image	void.png
finaleart	S7121223	00:08:26:203	Image	cows_at_a_pond_Bilders_1856.jpg
finaleart	S7121223	00:08:30:250	Image	void.png
finaleart	S7121223	00:08:32:312	Image	Georges-braque-still-life-with-jugs-and-pipe-1906.png
finaleart	S7121223	00:08:36:390	Image	void.png
finaleart	S7121223	00:08:38:437	Image	naked-woman-lying-on-a-couch_caillebotte_1873.jpg
finaleart	S7121223	00:08:42:484	Image	void.png
finaleart	S7121223	00:08:44:531	Image	basket-of-fruits-Manet-1864.jpg
finaleart	S7121223	00:08:48:578	Image	void.png
finaleart	S7121223	00:08:50:640	Image	the_rainbow__moore_henry_1865.jpg
finaleart	S7121223	00:08:54:671	Image	void.png
finaleart	S7121223	00:08:56:718	Image	venice_from_porche_of_madonna_turner_1835.jpg
finaleart	S7121223	00:09:00:750	Image	void.png
finaleart	S7121223	00:09:02:828	Image	Pots_Et_Fruits_Matisse_1901.jpg
finaleart	S7121223	00:09:06:890	Image	void.png
finaleart	S7121223	00:09:08:937	Image	manet-the-salmon-1868.jpg
finaleart	S7121223	00:09:12:968	Image	void.png
finaleart	S7121223	00:09:15:015	Image	Naked_man_reversed_on_the_ground_Gericault_1817.jpg
finaleart	S7121223	00:09:19:062	Image	void.png
finaleart	S7121223	00:09:21:125	Image	cross-La-fuite-des-nymphes-1906.jpg
finaleart	S7121223	00:09:25:171	Image	void.png
finaleart	S7121223	00:09:27:218	Image	study_of_a_reclining_nude_Delacroix_1824.jpg
finaleart	S7121223	00:09:31:265	Image	void.png
finaleart	S7121223	00:09:33:328	Calibration	
finaleart	S7121223	00:12:03:218	The deviations of the calibration are DevX = 0,3225 DevY = 0,2825
finaleart	S7121223	00:12:03:453	Image	REJECTED_rose_in_a_bowl_fantin_latour_1883.jpg
finaleart	S7121223	00:12:07:500	Image	void.png
finaleart	S7121223	00:12:09:562	Image	huisje_aan_een_sloot_mauve_1888.jpg
finaleart	S7121223	00:12:13:687	Image	void.png
finaleart	S7121223	00:12:15:718	Image	renoir-still-life-with-peaches-and-grapes-1881.jpg
finaleart	S7121223	00:12:19:765	Image	void.png
finaleart	S7121223	00:12:21:812	Image	goya-still-life-plucked-turkey-and-pan-with-fish-1812.jpg
finaleart	S7121223	00:12:25:859	Image	void.png
finaleart	S7121223	00:12:27:906	Image	garlic-cloves-and-knife-on-the-corner-of-a-table_caillebotte_1871.jpg
finaleart	S7121223	00:12:31:953	Image	void.png
finaleart	S7121223	00:12:34:000	Image	still-life-with-pumpkin-plums-cherries-figs-and-jug-Ribot-1860.jpg
finaleart	S7121223	00:12:38:078	Image	void.png
finaleart	S7121223	00:12:40:109	Image	The_Augustan_Bridge_at_Narni_Corot_1826.jpg
finaleart	S7121223	00:12:44:156	Image	void.png
finaleart	S7121223	00:12:46:234	Image	The_Lying_Nude_Matisse_1906.png
finaleart	S7121223	00:12:50:265	Image	void.png
finaleart	S7121223	00:12:52:312	Image	stilleven-met-vis_dubois-pillet_1885.jpg
finaleart	S7121223	00:12:56:359	Image	void.png
finaleart	S7121223	00:12:58:406	Image	after_a_rain_country_road_Vasilyev_1869.jpg
finaleart	S7121223	00:13:02:484	Image	void.png
finaleart	S7121223	00:13:04:515	Image	delacroix-Reclining-Odalisque-or-Woman-with-a-Parakeet-1827.jpg
finaleart	S7121223	00:13:08:578	Image	void.png
finaleart	S7121223	00:13:10:640	Image	courbet_Femme_nue_et_dormant_1858.jpg
finaleart	S7121223	00:13:14:703	Image	void.png
finaleart	S7121223	00:13:16:750	Image	flowers-and-fruit-a-melon_fantin-latour_1865.jpg
finaleart	S7121223	00:13:20:796	Image	void.png
finaleart	S7121223	00:13:22:859	Image	luxe-calme-et-volupté_matisse_1905.jpg
finaleart	S7121223	00:13:26:906	Image	void.png
finaleart	S7121223	00:13:28:953	Image	The_Gardener_Vlaminck_1904.jpg
finaleart	S7121223	00:13:33:000	Image	void.png
finaleart	S7121223	00:13:35:062	Image	Automne_En_France_Carr_1911.jpg
finaleart	S7121223	00:13:39:140	Image	void.png
finaleart	S7121223	00:13:41:171	Image	still-life_matisse_0.jpg
finaleart	S7121223	00:13:45:234	Image	void.png
finaleart	S7121223	00:13:47:296	Image	nasturtiums-dahlias-in-a-basket_gauguin_1884.jpg
finaleart	S7121223	00:13:51:328	Image	void.png
finaleart	S7121223	00:13:53:375	Image	still-life-with-red-mullet-and-jug_gaugain_1876.jpg
finaleart	S7121223	00:13:57:437	Image	void.png
finaleart	S7121223	00:13:59:500	Image	Girtin-Kirkstall-Abbey-Yorkshire-1801.jpg
finaleart	S7121223	00:14:03:546	Image	void.png
finaleart	S7121223	00:14:05:593	Image	the-reclining-shepherdess_morisot_1891.jpg
finaleart	S7121223	00:14:09:656	Image	void.png
finaleart	S7121223	00:14:11:703	Image	Niagara_Falls_Hale_1902.jpg
finaleart	S7121223	00:14:15:765	Image	void.png
finaleart	S7121223	00:14:17:812	Image	les_poseuses_seurat_1888.Jpg
finaleart	S7121223	00:14:21:843	Image	void.png
finaleart	S7121223	00:14:23:921	Image	courbet-female-nude-with-a-dog-portrait-of-leotine-renaude-1866.jpg
finaleart	S7121223	00:14:27:953	Image	void.png
finaleart	S7121223	00:14:30:015	Image	red-mullets_monet_1869.jpg
finaleart	S7121223	00:14:34:062	Image	void.png
finaleart	S7121223	00:14:36:093	Image	woman-at-her-toilette_degas_1877.jpg
finaleart	S7121223	00:14:40:140	Image	void.png
finaleart	S7121223	00:14:42:187	Calibration	
finaleart	S7121223	00:19:44:578	The deviations of the calibration are DevX = 0,1875 DevY = 0,335
finaleart	S7121223	00:19:44:812	Image	REJECTED_cezanne-still-life-with-green-pot-and-pewter-1870.jpg
finaleart	S7121223	00:19:48:875	Image	void.png
finaleart	S7121223	00:19:50:921	Image	Le-Restaurant-de-la-machine-a-Bougival-vlaminck-1905.jpg
finaleart	S7121223	00:19:54:968	Image	void.png
finaleart	S7121223	00:19:57:015	Image	parrot-tulips-(II)_matisse_1905.jpg
finaleart	S7121223	00:20:01:078	Image	void.png
finaleart	S7121223	00:20:03:125	Image	Delacroix-odalisque-1825.jpg
finaleart	S7121223	00:20:07:234	Image	void.png
finaleart	S7121223	00:20:09:281	Image	turner-waves-breaking-against-the-wind-1830.jpg
finaleart	S7121223	00:20:13:343	Image	void.png
finaleart	S7121223	00:20:15:390	Image	monticelli-still-life-with-white-pitcher-1822.jpg
finaleart	S7121223	00:20:19:437	Image	void.png
finaleart	S7121223	00:20:21:500	Image	Young_Girls_Playing_With_A_Lion_Club_Valtat_1905.jpg
finaleart	S7121223	00:20:25:531	Image	void.png
finaleart	S7121223	00:20:27:578	Image	Still-life-of-Sheep-s-Ribs-and-Head-The-Butchers-conter_Goya_1812.jpg
finaleart	S7121223	00:20:31:625	Image	void.png
finaleart	S7121223	00:20:33:671	Image	the-pointe-de-per-kiridec-at-roscoff_Rysselberghe_0.jpg
finaleart	S7121223	00:20:37:718	Image	void.png
finaleart	S7121223	00:20:39:765	Image	storm_off_normandy_cost_isabey_1850.jpg
finaleart	S7121223	00:20:43:828	Image	void.png
finaleart	S7121223	00:20:45:859	Image	Le_Chemin_De_Fer_Berlin_Potsdam_Menzel_1847.jpg
finaleart	S7121223	00:20:49:906	Image	void.png
finaleart	S7121223	00:20:51:953	Image	Rapids_on_the_Petite_Creuse_at_Fresselines_Monet_1889.jpg
finaleart	S7121223	00:20:56:015	Image	void.png
finaleart	S7121223	00:20:58:078	Image	wright-vesuvius-from-posillipo-1774.jpg
finaleart	S7121223	00:21:02:109	Image	void.png
finaleart	S7121223	00:21:04:156	Image	the_three_skulls_gericault_1814.jpg
finaleart	S7121223	00:21:08:203	Image	void.png
finaleart	S7121223	00:21:10:250	Image	lying-nude_ury_1889.JPG
finaleart	S7121223	00:21:14:312	Image	void.png
finaleart	S7121223	00:21:16:375	Image	Upper_Mississippi_Kensett_1855.jpg
finaleart	S7121223	00:21:20:437	Image	void.png
finaleart	S7121223	00:21:22:484	Image	Fleurs_et_fruits_camoin_1942.jpg
finaleart	S7121223	00:21:26:546	Image	void.png
finaleart	S7121223	00:21:28:593	Image	Matejko-Akt-meski.jpg
finaleart	S7121223	00:21:32:640	Image	void.png
finaleart	S7121223	00:21:34:703	Image	goya-Bodegones-con-pargos-dorados-1812.jpg
finaleart	S7121223	00:21:38:734	Image	void.png
finaleart	S7121223	00:21:40:796	Image	the-large-bathers_renoir_1887.jpg
finaleart	S7121223	00:21:44:859	Image	void.png
finaleart	S7121223	00:21:46:906	Image	the_model's_siesta_Rysselberghe_1920.jpg
finaleart	S7121223	00:21:50:953	Image	void.png
finaleart	S7121223	00:21:53:015	Image	The_Orchard_Vlaminck_1905.jpg
finaleart	S7121223	00:21:57:078	Image	void.png
finaleart	S7121223	00:21:59:125	Image	the-banks-of-the-marne-at-dawn_dubois-pillet_1888.jpg
finaleart	S7121223	00:22:03:187	Image	void.png
finaleart	S7121223	00:22:05:218	Image	Turner-chichester-canal-1828.jpg
finaleart	S7121223	00:22:09:296	Image	void.png
finaleart	S7121223	00:22:11:343	Image	Ma_Maison_Martin_XXXX.jpg
finaleart	S7121223	00:22:15:406	Image	void.png
finaleart	S7121223	00:22:17:500	Image	resting-bacchante_sorolla_1887.jpg
finaleart	S7121223	00:22:21:546	Image	void.png
finaleart	S7121223	00:22:23:609	Calibration	
finaleart	S7121223	00:24:23:500	The deviations of the calibration are DevX = 0,11 DevY = 0,4075
finaleart	S7121223	00:24:23:718	Image	REJECTED_landscape_cross_0.jpg
finaleart	S7121223	00:24:27:781	Image	void.png
finaleart	S7121223	00:24:29:828	Image	les-deux-amies_marevna_0.jpg
finaleart	S7121223	00:24:33:875	Image	void.png
finaleart	S7121223	00:24:35:937	Image	still-life-with-a-puro-(II)_matisse_1904.jpg
finaleart	S7121223	00:24:40:000	Image	void.png
finaleart	S7121223	00:24:42:062	Image	still-life-with-bottle-of-wind_cross_1904.Jpg
finaleart	S7121223	00:24:46:109	Image	void.png
finaleart	S7121223	00:24:48:140	Image	Nature_Morte_Au_Citron_Matisse_1917.jpg
finaleart	S7121223	00:24:52:187	Image	void.png
finaleart	S7121223	00:24:54:234	Image	Rysselberghe-Vase-of-flowers-1907.Jpg
finaleart	S7121223	00:24:58:312	Image	void.png
finaleart	S7121223	00:25:00:375	Image	L-Heure_Embrasee_Rysselberghe_1897.jpg
finaleart	S7121223	00:25:04:453	Image	void.png
finaleart	S7121223	00:25:06:515	Image	dead_hare_ward.jpg
finaleart	S7121223	00:25:10:546	Image	void.png
finaleart	S7121223	00:25:12:593	Image	reclining-nude_bazille_1860.png
finaleart	S7121223	00:25:16:703	Image	void.png
finaleart	S7121223	00:25:18:765	Image	courbet-the-bathers-1858.jpg
finaleart	S7121223	00:25:22:796	Image	void.png
finaleart	S7121223	00:25:24:859	Image	Le_Puy_In_The_Snow_Dubois-Pillet_1889.jpg
finaleart	S7121223	00:25:28:937	Image	void.png
finaleart	S7121223	00:25:30:984	Image	Alfalfa_St-Denis_Seurat_1886.jpg
finaleart	S7121223	00:25:35:015	Image	void.png
finaleart	S7121223	00:25:37:078	Image	lair_of_the_sea_serpent_vedder_1899.jpg
finaleart	S7121223	00:25:41:140	Image	void.png
finaleart	S7121223	00:25:43:203	Image	Landscape_at_L-Estaque_Braque-1906.jpg
finaleart	S7121223	00:25:47:250	Image	void.png
finaleart	S7121223	00:25:49:328	Image	chestnut_avenue_in_la_celle_saint_cloud_sisley_1865.jpg
finaleart	S7121223	00:25:53:375	Image	void.png
finaleart	S7121223	00:25:55:453	Image	the_kiss_gericault_1816.jpg
finaleart	S7121223	00:25:59:500	Image	void.png
finaleart	S7121223	00:26:01:562	Image	female_nude_reclining_on-a_divan_delacroix_1826.jpg
finaleart	S7121223	00:26:05:609	Image	void.png
finaleart	S7121223	00:26:07:656	Image	Bank_Of_A_Lake_Pechstein_1910.jpg
finaleart	S7121223	00:26:11:703	Image	void.png
finaleart	S7121223	00:26:13:765	Image	nature_morte_aux_oranges_Vlaminck_1909.jpg
finaleart	S7121223	00:26:17:796	Image	void.png
finaleart	S7121223	00:26:19:843	Image	Rochers_Sur_La_Cote_A_Agay_Guillaumin_1907.jpg
finaleart	S7121223	00:26:23:906	Image	void.png
finaleart	S7121223	00:26:25:937	Image	pears-and-grapes_gauguin_1875.jpg
finaleart	S7121223	00:26:29:968	Image	void.png
finaleart	S7121223	00:26:32:031	Image	bacchante_sorolla_1886.Jpg
finaleart	S7121223	00:26:36:062	Image	void.png
finaleart	S7121223	00:26:38:125	Image	the_forest_Cross_1907.jpg
finaleart	S7121223	00:26:42:171	Image	void.png
finaleart	S7121223	00:26:44:265	Image	Kiprensky-standing-sitter-with-a-stick-sitter-on-a-rock-1801.jpg
finaleart	S7121223	00:26:48:328	Image	void.png
finaleart	S7121223	00:26:50:375	Image	Nature_morte_au_panier_Derain_1927.jpg
finaleart	S7121223	00:26:54:421	Image	void.png
finaleart	S7121223	00:26:56:468	Image	Le_Pin_A_St-Tropez_Signac_1909.jpg
finaleart	S7121223	00:27:00:515	Image	void.png
finaleart	S7121223	00:27:02:578	Calibration	
finaleart	S7121223	00:30:55:687	The deviations of the calibration are DevX = 0,25 DevY = 0,465
finaleart	S7121223	00:30:55:937	Image	REJECTED_Volga_Lagoon_Vassiliev_1870.jpg
finaleart	S7121223	00:31:00:140	Image	void.png
finaleart	S7121223	00:31:02:171	Image	goya-Pavo-muerto-1812.jpg
finaleart	S7121223	00:31:06:218	Image	void.png
finaleart	S7121223	00:31:08:265	Image	sargent-male-model-resting.jpg
finaleart	S7121223	00:31:12:328	Image	void.png
finaleart	S7121223	00:31:14:406	Image	The_Girl_From_Rat_Mort_Vlaminck_1905.jpg
finaleart	S7121223	00:31:18:453	Image	void.png
finaleart	S7121223	00:31:20:515	Image	still-life-post-bottle-cup-and-fruit_cezanne_1871.jpg
finaleart	S7121223	00:31:24:578	Image	void.png
finaleart	S7121223	00:31:26:625	Image	avenue_of_trees_in_a_small_town_sisley_1866.jpg
finaleart	S7121223	00:31:30:671	Image	void.png
finaleart	S7121223	00:31:32:796	Image	Odalisque_Matisse.jpg
finaleart	S7121223	00:31:36:828	Image	void.png
finaleart	S7121223	00:31:38:890	Image	La_Ferme_des_Collettes_Renoir_1908.jpg
finaleart	S7121223	00:31:42:953	Image	void.png
finaleart	S7121223	00:31:45:000	Image	The_Joy_Of_Life_Matisse_1906.jpg
finaleart	S7121223	00:31:49:062	Image	void.png
finaleart	S7121223	00:31:51:109	Image	martin-vase-of-flowers-in-a-window.jpg
finaleart	S7121223	00:31:55:156	Image	void.png
finaleart	S7121223	00:31:57:234	Image	Nature-morte-Maurice-de-Vlaminck.jpg
finaleart	S7121223	00:32:01:296	Image	void.png
finaleart	S7121223	00:32:03:359	Image	The_Blue_Nude_Souvenir_of_Biskra_Matisse_1907.png
finaleart	S7121223	00:32:07:390	Image	void.png
finaleart	S7121223	00:32:09:453	Image	delacroix-still-life-with-lobsters-1827.jpg
finaleart	S7121223	00:32:13:500	Image	void.png
finaleart	S7121223	00:32:15:546	Image	Nature_Morte_Aux_Raisins_Sur_Un_Plat_Derain_1944.jpg
finaleart	S7121223	00:32:19:625	Image	void.png
finaleart	S7121223	00:32:21:656	Image	landschaft_mit_dem_ondregenbogen_caspar_david_friedrich_1810.jpg
finaleart	S7121223	00:32:25:718	Image	void.png
finaleart	S7121223	00:32:27:765	Image	Houses_at_Chatou_Vlaminck_1905.jpg
finaleart	S7121223	00:32:31:828	Image	void.png
finaleart	S7121223	00:32:33:875	Image	Trouville_Black_Rocks_Boudin_1863.jpg
finaleart	S7121223	00:32:37:937	Image	void.png
finaleart	S7121223	00:32:39:984	Image	courbet-woman-with-a-parrot-1866.jpg
finaleart	S7121223	00:32:44:031	Image	void.png
finaleart	S7121223	00:32:46:093	Image	A_Highland_Landscape_Landseer_1830.jpg
finaleart	S7121223	00:32:50:156	Image	void.png
finaleart	S7121223	00:32:52:203	Image	reclining-nude_renoir_1883.jpg
finaleart	S7121223	00:32:56:234	Image	void.png
finaleart	S7121223	00:32:58:296	Image	Nu_Couche_Vlaminck_1905.jpg
finaleart	S7121223	00:33:02:343	Image	void.png
finaleart	S7121223	00:33:04:406	Image	paysage_avec_du_betail_au_limousin_jules-dupre_1837.jpg
finaleart	S7121223	00:33:08:437	Image	void.png
finaleart	S7121223	00:33:10:484	Image	mother_and_child_by_the_sea_dahl_1830.jpg
finaleart	S7121223	00:33:14:531	Image	void.png
finaleart	S7121223	00:33:16:593	Image	Sailboats_On_The_River_Sheldt_van_Rysselberghe_1892.jpg
finaleart	S7121223	00:33:20:640	Image	void.png
finaleart	S7121223	00:33:22:703	Image	the-tea-set_monet_1871.jpg
finaleart	S7121223	00:33:26:765	Image	void.png
finaleart	S7121223	00:33:28:812	Image	kneeling-nude_degas_1888.jpg
finaleart	S7121223	00:33:32:859	Image	void.png
finaleart	S7121223	00:33:34:953	End of Experiment
