finaleart	S9H29221	00:00:00:000	Calibration	
finaleart	S9H29221	00:00:27:734	The deviations of the calibration are DevX = 0,2525 DevY = 0,1325
finaleart	S9H29221	00:00:28:140	Image	REJECTED_cezanne-still-life-with-bread-and-eggs-1865.jpg
finaleart	S9H29221	00:00:32:078	Image	void.png
finaleart	S9H29221	00:00:34:062	Image	REJECTED_Volga_Lagoon_Vassiliev_1870.jpg
finaleart	S9H29221	00:00:38:046	Image	void.png
finaleart	S9H29221	00:00:40:031	Calibration	
finaleart	S9H29221	00:01:32:593	The deviations of the calibration are DevX = 0,2575 DevY = 0,1925
finaleart	S9H29221	00:01:32:812	Image	REJECTED_after-the-bath_degas_1885.jpg
finaleart	S9H29221	00:01:36:812	Image	void.png
finaleart	S9H29221	00:01:38:812	Image	Nature_Morte_Aux_Raisins_Sur_Un_Plat_Derain_1944.jpg
finaleart	S9H29221	00:01:42:781	Image	void.png
finaleart	S9H29221	00:01:44:781	Image	lair_of_the_sea_serpent_vedder_1899.jpg
finaleart	S9H29221	00:01:48:781	Image	void.png
finaleart	S9H29221	00:01:50:781	Image	Le_port_d-Anvers_Braque_1906.jpg
finaleart	S9H29221	00:01:54:750	Image	void.png
finaleart	S9H29221	00:01:56:750	Image	Delacroix-odalisque-1825.jpg
finaleart	S9H29221	00:02:00:718	Image	void.png
finaleart	S9H29221	00:02:02:703	Image	Nature-morte-Maurice-de-Vlaminck.jpg
finaleart	S9H29221	00:02:06:671	Image	void.png
finaleart	S9H29221	00:02:08:703	Image	still-life-with-fish_bazille_1866.jpg
finaleart	S9H29221	00:02:12:687	Image	void.png
finaleart	S9H29221	00:02:14:687	Image	Le_Pin_A_St-Tropez_Signac_1909.jpg
finaleart	S9H29221	00:02:18:687	Image	void.png
finaleart	S9H29221	00:02:20:671	Image	chestnut_avenue_in_la_celle_saint_cloud_sisley_1865.jpg
finaleart	S9H29221	00:02:24:656	Image	void.png
finaleart	S9H29221	00:02:26:625	Image	paysage_avec_du_betail_au_limousin_jules-dupre_1837.jpg
finaleart	S9H29221	00:02:30:656	Image	void.png
finaleart	S9H29221	00:02:32:640	Image	the_three_skulls_gericault_1814.jpg
finaleart	S9H29221	00:02:36:656	Image	void.png
finaleart	S9H29221	00:02:38:625	Image	cows_at_a_pond_Bilders_1856.jpg
finaleart	S9H29221	00:02:42:625	Image	void.png
finaleart	S9H29221	00:02:44:625	Image	stilleven-met-vis_dubois-pillet_1885.jpg
finaleart	S9H29221	00:02:48:640	Image	void.png
finaleart	S9H29221	00:02:50:640	Image	Nature_morte_au_panier_Derain_1927.jpg
finaleart	S9H29221	00:02:54:656	Image	void.png
finaleart	S9H29221	00:02:56:671	Image	ronde_cross_1905.jpg
finaleart	S9H29221	00:03:00:656	Image	void.png
finaleart	S9H29221	00:03:02:656	Image	avenue_of_trees_in_a_small_town_sisley_1866.jpg
finaleart	S9H29221	00:03:06:640	Image	void.png
finaleart	S9H29221	00:03:08:640	Image	delacroix-Reclining-Odalisque-or-Woman-with-a-Parakeet-1827.jpg
finaleart	S9H29221	00:03:12:640	Image	void.png
finaleart	S9H29221	00:03:14:656	Image	Le-Restaurant-de-la-machine-a-Bougival-vlaminck-1905.jpg
finaleart	S9H29221	00:03:18:640	Image	void.png
finaleart	S9H29221	00:03:20:656	Image	plate-of-peaches-Fantin-Latour-1862.jpg
finaleart	S9H29221	00:03:24:640	Image	void.png
finaleart	S9H29221	00:03:26:625	Image	Upper_Mississippi_Kensett_1855.jpg
finaleart	S9H29221	00:03:30:609	Image	void.png
finaleart	S9H29221	00:03:32:593	Image	still-life-with-pumpkin-plums-cherries-figs-and-jug-Ribot-1860.jpg
finaleart	S9H29221	00:03:36:625	Image	void.png
finaleart	S9H29221	00:03:38:593	Image	The_Joy_Of_Life_Matisse_1906.jpg
finaleart	S9H29221	00:03:42:593	Image	void.png
finaleart	S9H29221	00:03:44:625	Image	Nu_Couche_Vlaminck_1905.jpg
finaleart	S9H29221	00:03:48:609	Image	void.png
finaleart	S9H29221	00:03:50:578	Image	Nature_morte_a_la_cafetiere_rouge_Vlaminck.png
finaleart	S9H29221	00:03:54:562	Image	void.png
finaleart	S9H29221	00:03:56:562	Image	the_kiss_gericault_1816.jpg
finaleart	S9H29221	00:04:00:531	Image	void.png
finaleart	S9H29221	00:04:02:484	Image	renoir-still-life-with-peaches-and-grapes-1881.jpg
finaleart	S9H29221	00:04:06:484	Image	void.png
finaleart	S9H29221	00:04:08:468	Calibration	
finaleart	S9H29221	00:05:28:859	The deviations of the calibration are DevX = 0,9 DevY = 0,83
finaleart	S9H29221	00:05:29:203	Image	REJECTED_cezanne-still-life-with-green-pot-and-pewter-1870.jpg
finaleart	S9H29221	00:05:33:203	Image	void.png
finaleart	S9H29221	00:05:35:203	Image	Le_Chemin_De_Fer_Berlin_Potsdam_Menzel_1847.jpg
finaleart	S9H29221	00:05:39:171	Image	void.png
finaleart	S9H29221	00:05:41:171	Image	Naked_man_reversed_on_the_ground_Gericault_1817.jpg
finaleart	S9H29221	00:05:45:156	Image	void.png
finaleart	S9H29221	00:05:47:140	Image	Still-life-of-Sheep-s-Ribs-and-Head-The-Butchers-conter_Goya_1812.jpg
finaleart	S9H29221	00:05:51:156	Image	void.png
finaleart	S9H29221	00:05:53:203	Image	Kiprensky-standing-sitter-with-a-stick-sitter-on-a-rock-1801.jpg
finaleart	S9H29221	00:05:57:187	Image	void.png
finaleart	S9H29221	00:05:59:171	Image	L'Ile_de_La_Grande_Jatte_Seurat_1884.jpg
finaleart	S9H29221	00:06:03:171	Image	void.png
finaleart	S9H29221	00:06:05:125	Image	Trouville_Black_Rocks_Boudin_1863.jpg
finaleart	S9H29221	00:06:09:109	Image	void.png
finaleart	S9H29221	00:06:11:125	Image	La_Danse_Matisse_1909.jpg
finaleart	S9H29221	00:06:15:109	Image	void.png
finaleart	S9H29221	00:06:17:078	Image	huisje_aan_een_sloot_mauve_1888.jpg
finaleart	S9H29221	00:06:21:062	Image	void.png
finaleart	S9H29221	00:06:23:078	Image	Rapids_on_the_Petite_Creuse_at_Fresselines_Monet_1889.jpg
finaleart	S9H29221	00:06:27:093	Image	void.png
finaleart	S9H29221	00:06:29:078	Image	Fleurs_et_fruits_camoin_1942.jpg
finaleart	S9H29221	00:06:33:062	Image	void.png
finaleart	S9H29221	00:06:35:031	Image	Nature_Morte_Au_Citron_Matisse_1917.jpg
finaleart	S9H29221	00:06:39:000	Image	void.png
finaleart	S9H29221	00:06:40:968	Image	still-life_pissarro_1867.Jpg
finaleart	S9H29221	00:06:44:984	Image	void.png
finaleart	S9H29221	00:06:47:015	Image	nasturtiums-dahlias-in-a-basket_gauguin_1884.jpg
finaleart	S9H29221	00:06:51:031	Image	void.png
finaleart	S9H29221	00:06:53:046	Image	Ma_Maison_Martin_XXXX.jpg
finaleart	S9H29221	00:06:57:046	Image	void.png
finaleart	S9H29221	00:06:59:046	Image	bowl_of_fruits_Fantin-Latour_1857.jpg
finaleart	S9H29221	00:07:03:078	Image	void.png
finaleart	S9H29221	00:07:05:062	Image	Bank_Of_A_Lake_Pechstein_1910.jpg
finaleart	S9H29221	00:07:09:093	Image	void.png
finaleart	S9H29221	00:07:11:078	Image	marquet-fruit-knife-and-napkin-1898.jpg
finaleart	S9H29221	00:07:15:046	Image	void.png
finaleart	S9H29221	00:07:17:031	Image	luxe-calme-et-volupté_matisse_1905.jpg
finaleart	S9H29221	00:07:21:000	Image	void.png
finaleart	S9H29221	00:07:23:031	Image	monticelli-still-life-with-white-pitcher-1822.jpg
finaleart	S9H29221	00:07:26:984	Image	void.png
finaleart	S9H29221	00:07:28:984	Image	The_Girl_From_Rat_Mort_Vlaminck_1905.jpg
finaleart	S9H29221	00:07:32:968	Image	void.png
finaleart	S9H29221	00:07:34:953	Image	sisley-still-life-heron-with-spread-wings-1867.jpg
finaleart	S9H29221	00:07:38:921	Image	void.png
finaleart	S9H29221	00:07:40:906	Image	naked-woman-lying-on-a-couch_caillebotte_1873.jpg
finaleart	S9H29221	00:07:44:890	Image	void.png
finaleart	S9H29221	00:07:46:875	Image	Automne_En_France_Carr_1911.jpg
finaleart	S9H29221	00:07:50:843	Image	void.png
finaleart	S9H29221	00:07:52:812	Image	courbet_Femme_nue_et_dormant_1858.jpg
finaleart	S9H29221	00:07:56:812	Image	void.png
finaleart	S9H29221	00:07:58:796	Image	La_Ferme_des_Collettes_Renoir_1908.jpg
finaleart	S9H29221	00:08:02:765	Image	void.png
finaleart	S9H29221	00:08:04:750	Calibration	
finaleart	S9H29221	00:09:38:312	The deviations of the calibration are DevX = 0,605 DevY = 1,01
finaleart	S9H29221	00:09:38:546	Image	REJECTED_rose_in_a_bowl_fantin_latour_1883.jpg
finaleart	S9H29221	00:09:42:531	Image	void.png
finaleart	S9H29221	00:09:44:546	Image	goya-Bodegón-con-salmón-1812.jpg
finaleart	S9H29221	00:09:48:531	Image	void.png
finaleart	S9H29221	00:09:50:562	Image	morning_Daubigny_1858.jpg
finaleart	S9H29221	00:09:54:531	Image	void.png
finaleart	S9H29221	00:09:56:531	Image	female_nude_reclining_on-a_divan_delacroix_1826.jpg
finaleart	S9H29221	00:10:00:500	Image	void.png
finaleart	S9H29221	00:10:02:500	Image	The_Two_Models_Dufy_1930.jpg
finaleart	S9H29221	00:10:06:500	Image	void.png
finaleart	S9H29221	00:10:08:484	Image	flowers-and-fruit-a-melon_fantin-latour_1865.jpg
finaleart	S9H29221	00:10:12:453	Image	void.png
finaleart	S9H29221	00:10:14:468	Image	Young_Girls_Playing_With_A_Lion_Club_Valtat_1905.jpg
finaleart	S9H29221	00:10:18:437	Image	void.png
finaleart	S9H29221	00:10:20:468	Image	chase-a-study-in-curves-1890.jpg
finaleart	S9H29221	00:10:24:500	Image	void.png
finaleart	S9H29221	00:10:26:484	Image	Rochers_Sur_La_Cote_A_Agay_Guillaumin_1907.jpg
finaleart	S9H29221	00:10:30:468	Image	void.png
finaleart	S9H29221	00:10:32:468	Image	L-Heure_Embrasee_Rysselberghe_1897.jpg
finaleart	S9H29221	00:10:36:468	Image	void.png
finaleart	S9H29221	00:10:38:468	Image	still-life-with-skate_Boudin_1861.jpg
finaleart	S9H29221	00:10:42:468	Image	void.png
finaleart	S9H29221	00:10:44:437	Image	Le_Puy_In_The_Snow_Dubois-Pillet_1889.jpg
finaleart	S9H29221	00:10:48:437	Image	void.png
finaleart	S9H29221	00:10:50:421	Image	A_Highland_Landscape_Landseer_1830.jpg
finaleart	S9H29221	00:10:54:437	Image	void.png
finaleart	S9H29221	00:10:56:468	Image	the-large-bathers_renoir_1887.jpg
finaleart	S9H29221	00:11:00:484	Image	void.png
finaleart	S9H29221	00:11:02:484	Image	still-life_matisse_0.jpg
finaleart	S9H29221	00:11:06:468	Image	void.png
finaleart	S9H29221	00:11:08:437	Image	Un_Jardin_Maison_Baptiste_Butler_1895.jpg
finaleart	S9H29221	00:11:12:421	Image	void.png
finaleart	S9H29221	00:11:14:406	Image	still-life-with-bottle-of-wind_cross_1904.Jpg
finaleart	S9H29221	00:11:18:390	Image	void.png
finaleart	S9H29221	00:11:20:390	Image	nature_morte_aux_oranges_Vlaminck_1909.jpg
finaleart	S9H29221	00:11:24:390	Image	void.png
finaleart	S9H29221	00:11:26:343	Image	still-life-with-red-mullet-and-jug_gaugain_1876.jpg
finaleart	S9H29221	00:11:30:343	Image	void.png
finaleart	S9H29221	00:11:32:328	Image	sargent-reclining-nude.JPG
finaleart	S9H29221	00:11:36:312	Image	void.png
finaleart	S9H29221	00:11:38:296	Image	goya-still-life-plucked-turkey-and-pan-with-fish-1812.jpg
finaleart	S9H29221	00:11:42:265	Image	void.png
finaleart	S9H29221	00:11:44:265	Image	les-deux-amies_marevna_0.jpg
finaleart	S9H29221	00:11:48:281	Image	void.png
finaleart	S9H29221	00:11:50:296	Image	Kiprensky-two-sitters-1800.jpg
finaleart	S9H29221	00:11:54:328	Image	void.png
finaleart	S9H29221	00:11:56:312	Image	venice_from_porche_of_madonna_turner_1835.jpg
finaleart	S9H29221	00:12:00:312	Image	void.png
finaleart	S9H29221	00:12:02:312	Image	Paysage_a_La_Ciotat_(La_Pointe_du-Capucin)_friesz_1907.jpg
finaleart	S9H29221	00:12:06:312	Image	void.png
finaleart	S9H29221	00:12:08:281	Image	courbet-female-nude-with-a-dog-portrait-of-leotine-renaude-1866.jpg
finaleart	S9H29221	00:12:12:250	Image	void.png
finaleart	S9H29221	00:12:14:218	Calibration	
finaleart	S9H29221	00:14:43:421	The deviations of the calibration are DevX = 0,4975 DevY = 0,5575
finaleart	S9H29221	00:14:43:656	Image	REJECTED_landscape_cross_0.jpg
finaleart	S9H29221	00:14:47:640	Image	void.png
finaleart	S9H29221	00:14:49:640	Image	Odalisque_Matisse.jpg
finaleart	S9H29221	00:14:53:609	Image	void.png
finaleart	S9H29221	00:14:55:609	Image	Matisse-Nature-morte-a-la-cruche-bleue.jpg
finaleart	S9H29221	00:14:59:593	Image	void.png
finaleart	S9H29221	00:15:01:578	Image	plage-de-la-vignassa_cross_1892.jpg
finaleart	S9H29221	00:15:05:546	Image	void.png
finaleart	S9H29221	00:15:07:546	Image	the-wood_cross_907.jpg
finaleart	S9H29221	00:15:11:562	Image	void.png
finaleart	S9H29221	00:15:13:562	Image	wright-vesuvius-from-posillipo-1774.jpg
finaleart	S9H29221	00:15:17:546	Image	void.png
finaleart	S9H29221	00:15:19:515	Image	Pots_Et_Fruits_Matisse_1901.jpg
finaleart	S9H29221	00:15:23:515	Image	void.png
finaleart	S9H29221	00:15:25:484	Image	the-banks-of-the-marne-at-dawn_dubois-pillet_1888.jpg
finaleart	S9H29221	00:15:29:437	Image	void.png
finaleart	S9H29221	00:15:31:437	Image	madrazo-y-kuntz-Man-Holding-a-Dagger-1850.jpg
finaleart	S9H29221	00:15:35:468	Image	void.png
finaleart	S9H29221	00:15:37:437	Image	Alfalfa_St-Denis_Seurat_1886.jpg
finaleart	S9H29221	00:15:41:406	Image	void.png
finaleart	S9H29221	00:15:43:421	Image	Morning,_An_Overcast_Day_Rouen_Pissaro_1896.jpg
finaleart	S9H29221	00:15:47:390	Image	void.png
finaleart	S9H29221	00:15:49:359	Image	Matejko-Akt-meski.jpg
finaleart	S9H29221	00:15:53:375	Image	void.png
finaleart	S9H29221	00:15:55:359	Image	reclining-nude_renoir_1883.jpg
finaleart	S9H29221	00:15:59:343	Image	void.png
finaleart	S9H29221	00:16:01:375	Image	Les_Bords_De_Seine_A_Neuilly_Dubois_Pillet_1886.jpg
finaleart	S9H29221	00:16:05:390	Image	void.png
finaleart	S9H29221	00:16:07:359	Image	The_Gardener_Vlaminck_1904.jpg
finaleart	S9H29221	00:16:11:343	Image	void.png
finaleart	S9H29221	00:16:13:312	Image	the-pointe-de-per-kiridec-at-roscoff_Rysselberghe_0.jpg
finaleart	S9H29221	00:16:17:328	Image	void.png
finaleart	S9H29221	00:16:19:296	Image	pears-and-grapes_gauguin_1875.jpg
finaleart	S9H29221	00:16:23:265	Image	void.png
finaleart	S9H29221	00:16:25:250	Image	The_Orchard_Vlaminck_1905.jpg
finaleart	S9H29221	00:16:29:218	Image	void.png
finaleart	S9H29221	00:16:31:218	Image	Houses_at_Chatou_Vlaminck_1905.jpg
finaleart	S9H29221	00:16:35:171	Image	void.png
finaleart	S9H29221	00:16:37:187	Image	oysters_manet_1862.jpg
finaleart	S9H29221	00:16:41:156	Image	void.png
finaleart	S9H29221	00:16:43:109	Image	les_poseuses_seurat_1888.Jpg
finaleart	S9H29221	00:16:47:078	Image	void.png
finaleart	S9H29221	00:16:49:046	Image	kneeling-nude_degas_1888.jpg
finaleart	S9H29221	00:16:53:015	Image	void.png
finaleart	S9H29221	00:16:55:015	Image	bathers_cross_1902.jpg
finaleart	S9H29221	00:16:59:000	Image	void.png
finaleart	S9H29221	00:17:00:984	Image	the_rainbow__moore_henry_1865.jpg
finaleart	S9H29221	00:17:04:953	Image	void.png
finaleart	S9H29221	00:17:06:921	Image	bacchante_sorolla_1886.Jpg
finaleart	S9H29221	00:17:10:906	Image	void.png
finaleart	S9H29221	00:17:12:921	Image	red-mullets_monet_1869.jpg
finaleart	S9H29221	00:17:16:906	Image	void.png
finaleart	S9H29221	00:17:18:890	Calibration	
finaleart	S9H29221	00:19:04:625	The deviations of the calibration are DevX = 0,4725 DevY = 0,5
finaleart	S9H29221	00:19:04:843	Image	REJECTED_olympia_manet_1863.jpg
finaleart	S9H29221	00:19:08:796	Image	void.png
finaleart	S9H29221	00:19:10:765	Image	Landscape_at_L-Estaque_Braque-1906.jpg
finaleart	S9H29221	00:19:14:750	Image	void.png
finaleart	S9H29221	00:19:16:781	Image	still-life-fruits-on-a-table_manet_1864.jpg
finaleart	S9H29221	00:19:20:750	Image	void.png
finaleart	S9H29221	00:19:22:765	Image	woman-at-her-toilette_degas_1877.jpg
finaleart	S9H29221	00:19:26:781	Image	void.png
finaleart	S9H29221	00:19:28:765	Image	Turner-snow-storm-boat-off-a-harbours-mouth-1842.jpg
finaleart	S9H29221	00:19:32:718	Image	void.png
finaleart	S9H29221	00:19:34:718	Image	delacroix-still-life-with-lobsters-1827.jpg
finaleart	S9H29221	00:19:38:687	Image	void.png
finaleart	S9H29221	00:19:40:687	Image	study_of_a_reclining_nude_Delacroix_1824.jpg
finaleart	S9H29221	00:19:44:687	Image	void.png
finaleart	S9H29221	00:19:46:656	Image	still-life-with-a-puro-(II)_matisse_1904.jpg
finaleart	S9H29221	00:19:50:625	Image	void.png
finaleart	S9H29221	00:19:52:593	Image	storm_off_normandy_cost_isabey_1850.jpg
finaleart	S9H29221	00:19:56:578	Image	void.png
finaleart	S9H29221	00:19:58:531	Image	The_Blue_Nude_Souvenir_of_Biskra_Matisse_1907.png
finaleart	S9H29221	00:20:02:500	Image	void.png
finaleart	S9H29221	00:20:04:484	Image	basket-of-fruits-Manet-1864.jpg
finaleart	S9H29221	00:20:08:484	Image	void.png
finaleart	S9H29221	00:20:10:453	Image	Sailboats_On_The_River_Sheldt_van_Rysselberghe_1892.jpg
finaleart	S9H29221	00:20:14:421	Image	void.png
finaleart	S9H29221	00:20:16:421	Image	turner-waves-breaking-against-the-wind-1830.jpg
finaleart	S9H29221	00:20:20:390	Image	void.png
finaleart	S9H29221	00:20:22:406	Image	after_a_rain_country_road_Vasilyev_1869.jpg
finaleart	S9H29221	00:20:26:421	Image	void.png
finaleart	S9H29221	00:20:28:390	Image	parrot-tulips-(II)_matisse_1905.jpg
finaleart	S9H29221	00:20:32:375	Image	void.png
finaleart	S9H29221	00:20:34:375	Image	Hayet-Nature-morte-1888.jpg
finaleart	S9H29221	00:20:38:359	Image	void.png
finaleart	S9H29221	00:20:40:359	Image	Rysselberghe-Vase-of-flowers-1907.Jpg
finaleart	S9H29221	00:20:44:359	Image	void.png
finaleart	S9H29221	00:20:46:359	Image	dead_hare_ward.jpg
finaleart	S9H29221	00:20:50:359	Image	void.png
finaleart	S9H29221	00:20:52:328	Image	The_Lying_Nude_Matisse_1906.png
finaleart	S9H29221	00:20:56:328	Image	void.png
finaleart	S9H29221	00:20:58:296	Image	courbet-woman-with-a-parrot-1866.jpg
finaleart	S9H29221	00:21:02:312	Image	void.png
finaleart	S9H29221	00:21:04:312	Image	goya-Pavo-muerto-1812.jpg
finaleart	S9H29221	00:21:08:312	Image	void.png
finaleart	S9H29221	00:21:10:296	Image	courbet-the-sleepers-1866.jpg
finaleart	S9H29221	00:21:14:281	Image	void.png
finaleart	S9H29221	00:21:16:281	Image	millet-the-bather-1848.jpg
finaleart	S9H29221	00:21:20:250	Image	void.png
finaleart	S9H29221	00:21:22:234	Image	resting-bacchante_sorolla_1887.jpg
finaleart	S9H29221	00:21:26:203	Image	void.png
finaleart	S9H29221	00:21:28:171	Image	Niagara_Falls_Hale_1902.jpg
finaleart	S9H29221	00:21:32:171	Image	void.png
finaleart	S9H29221	00:21:34:140	Image	goya-Nature-morte-avec-Bouteilles-et-Pains-1826.jpg
finaleart	S9H29221	00:21:38:171	Image	void.png
finaleart	S9H29221	00:21:40:156	Calibration	
finaleart	S9H29221	00:23:19:937	The deviations of the calibration are DevX = 0,4025 DevY = 0,175
finaleart	S9H29221	00:23:20:156	Image	REJECTED_rose_in_a_bowl_fantin_latour_1883.jpg
finaleart	S9H29221	00:23:24:125	Image	void.png
finaleart	S9H29221	00:23:26:125	Image	the_forest_Cross_1907.jpg
finaleart	S9H29221	00:23:30:093	Image	void.png
finaleart	S9H29221	00:23:32:062	Image	lying-nude_ury_1889.JPG
finaleart	S9H29221	00:23:36:046	Image	void.png
finaleart	S9H29221	00:23:38:031	Image	cross-La-fuite-des-nymphes-1906.jpg
finaleart	S9H29221	00:23:42:015	Image	void.png
finaleart	S9H29221	00:23:44:000	Image	sargent-male-model-resting.jpg
finaleart	S9H29221	00:23:48:000	Image	void.png
finaleart	S9H29221	00:23:49:968	Image	Poppy_Fields_near_Argenteuil_Monet_1875.jpg
finaleart	S9H29221	00:23:53:968	Image	void.png
finaleart	S9H29221	00:23:55:953	Image	the-reclining-shepherdess_morisot_1891.jpg
finaleart	S9H29221	00:23:59:921	Image	void.png
finaleart	S9H29221	00:24:01:921	Image	metzinger-nature-morte-1905.png
finaleart	S9H29221	00:24:05:890	Image	void.png
finaleart	S9H29221	00:24:07:906	Image	Georges-braque-still-life-with-jugs-and-pipe-1906.png
finaleart	S9H29221	00:24:11:875	Image	void.png
finaleart	S9H29221	00:24:13:859	Image	garlic-cloves-and-knife-on-the-corner-of-a-table_caillebotte_1871.jpg
finaleart	S9H29221	00:24:17:859	Image	void.png
finaleart	S9H29221	00:24:19:859	Image	still-life-post-bottle-cup-and-fruit_cezanne_1871.jpg
finaleart	S9H29221	00:24:23:843	Image	void.png
finaleart	S9H29221	00:24:25:843	Image	The_Augustan_Bridge_at_Narni_Corot_1826.jpg
finaleart	S9H29221	00:24:29:859	Image	void.png
finaleart	S9H29221	00:24:31:890	Image	morning_in_a_pine_forest_Ivan_Shishkin_1889.jpg
finaleart	S9H29221	00:24:35:921	Image	void.png
finaleart	S9H29221	00:24:37:906	Image	Courbet-Femme-nue-couchee-1862.jpg
finaleart	S9H29221	00:24:41:906	Image	void.png
finaleart	S9H29221	00:24:43:906	Image	Turner-chichester-canal-1828.jpg
finaleart	S9H29221	00:24:47:906	Image	void.png
finaleart	S9H29221	00:24:49:875	Image	landschaft_mit_dem_ondregenbogen_caspar_david_friedrich_1810.jpg
finaleart	S9H29221	00:24:53:890	Image	void.png
finaleart	S9H29221	00:24:55:890	Image	manet-the-salmon-1868.jpg
finaleart	S9H29221	00:24:59:890	Image	void.png
finaleart	S9H29221	00:25:01:875	Image	mother_and_child_by_the_sea_dahl_1830.jpg
finaleart	S9H29221	00:25:05:890	Image	void.png
finaleart	S9H29221	00:25:07:875	Image	The_Luxembourg_Gardens_Matisse_1901.jpg
finaleart	S9H29221	00:25:11:875	Image	void.png
finaleart	S9H29221	00:25:13:875	Image	courbet-the-bathers-1858.jpg
finaleart	S9H29221	00:25:17:859	Image	void.png
finaleart	S9H29221	00:25:19:796	Image	the-tea-set_monet_1871.jpg
finaleart	S9H29221	00:25:23:781	Image	void.png
finaleart	S9H29221	00:25:25:765	Image	martin-vase-of-flowers-in-a-window.jpg
finaleart	S9H29221	00:25:29:796	Image	void.png
finaleart	S9H29221	00:25:31:781	Image	reclining-nude_bazille_1860.png
finaleart	S9H29221	00:25:35:781	Image	void.png
finaleart	S9H29221	00:25:37:765	Image	the_model's_siesta_Rysselberghe_1920.jpg
finaleart	S9H29221	00:25:41:750	Image	void.png
finaleart	S9H29221	00:25:43:718	Image	Girtin-Kirkstall-Abbey-Yorkshire-1801.jpg
finaleart	S9H29221	00:25:47:734	Image	void.png
finaleart	S9H29221	00:25:49:687	Image	goya-Bodegones-con-pargos-dorados-1812.jpg
finaleart	S9H29221	00:25:53:656	Image	void.png
finaleart	S9H29221	00:25:55:703	End of Experiment
