[BeGaze]
Converted from:	C:\Documents and Settings\iViewX\Desktop\EXPERIMENTATIONS\Experiments\results\finaleart\S15H25531-finaleart-1.idf
Date:	27.03.2019 15:45:01
Version:	BeGaze 2.5.77
Sample Rate:	50
Subject:	S15H25531
Description:	Mikail Demirdelen

Table Header for Fixations:
Event Type	Trial	Number	Start	End	Duration	Location X	Location Y	Dispersion X	Dispersion Y	Plane	Avg. Pupil Size X	Avg. Pupil Size Y

Table Header for Saccades:
Event Type	Trial	Number	Start	End	Duration	Start Loc.X	Start Loc.Y	End Loc.X	End Loc.Y	Amplitude	Peak Speed	Peak Speed At	Average Speed	Peak Accel.	Peak Decel.	Average Accel.

Table Header for Blinks:
Event Type	Trial	Number	Start	End	Duration

Table Header for User Events:
Event Type	Trial	Number	Start	Description

UserEvent	1	1	4035556209	# Message: void.jpg
Saccade L	1	1	4035568126	4035647604	79478	1256.99	648.98	1266.33	368.75	4.48	196.53	0.75	56.35	4893.65	-3647.51	2126.68
Saccade R	1	1	4035568126	4035647604	79478	1256.99	648.98	1266.33	368.75	4.48	196.53	0.75	56.35	4893.65	-3647.51	2126.68
Fixation L	1	1	4035647604	4036085215	437611	1273.45	329.14	22	69	-1	15.62	15.62
Fixation R	1	1	4035647604	4036085215	437611	1273.45	329.14	22	69	-1	17.26	17.26
Blink L	1	1	4036085215	4036164709	79494
Blink R	1	1	4036085215	4036244348	159133
Fixation R	1	2	4036244348	4036741558	497210	1049.73	456.35	24	69	-1	14.46	14.46
Fixation L	1	2	4036264215	4036741558	477343	1049.13	454.36	18	69	-1	13.23	13.23
Saccade L	1	2	4036741558	4036781300	39742	1058.32	451.05	732.58	485.64	2.96	171.25	0.50	74.43	4053.03	-3684.80	3813.14
Saccade R	1	2	4036741558	4036781300	39742	1058.32	451.05	732.58	485.64	2.96	171.25	0.50	74.43	4053.03	-3684.80	3813.14
Fixation L	1	3	4036781300	4037020047	238747	750.86	531.01	26	71	-1	13.14	13.14
Fixation R	1	3	4036781300	4037020047	238747	750.86	531.01	26	71	-1	15.04	15.04
Saccade L	1	3	4037020047	4037039920	19873	757.95	557.56	760.68	559.57	0.07	4.91	1.00	3.32	61.78	-39.09	41.28
Saccade R	1	3	4037020047	4037039920	19873	757.95	557.56	760.68	559.57	0.07	4.91	1.00	3.32	61.78	-39.09	41.28
Fixation L	1	4	4037039920	4037199033	159113	761.75	562.16	23	10	-1	13.57	13.57
Fixation R	1	4	4037039920	4037199033	159113	761.75	562.16	23	10	-1	15.52	15.52
Saccade L	1	4	4037199033	4037218905	19872	761.48	563.95	881.50	557.10	1.00	121.59	1.00	50.31	2635.23	-2462.30	1918.98
Saccade R	1	4	4037199033	4037218905	19872	761.48	563.95	881.50	557.10	1.00	121.59	1.00	50.31	2635.23	-2462.30	1918.98
Fixation L	1	5	4037218905	4037557020	338115	861.26	545.05	44	21	-1	13.77	13.77
Fixation R	1	5	4037218905	4037557020	338115	861.26	545.05	44	21	-1	15.46	15.46
