[BeGaze]
Converted from:	C:\Documents and Settings\iViewX\Desktop\EXPERIMENTATIONS\Experiments\results\finaleart\S15H25531-finaleart-1.idf
Date:	27.03.2019 15:44:58
Version:	BeGaze 2.5.77
Sample Rate:	50
Subject:	S15H25531
Description:	Mikail Demirdelen

Table Header for Fixations:
Event Type	Trial	Number	Start	End	Duration	Location X	Location Y	Dispersion X	Dispersion Y	Plane	Avg. Pupil Size X	Avg. Pupil Size Y

Table Header for Saccades:
Event Type	Trial	Number	Start	End	Duration	Start Loc.X	Start Loc.Y	End Loc.X	End Loc.Y	Amplitude	Peak Speed	Peak Speed At	Average Speed	Peak Accel.	Peak Decel.	Average Accel.

Table Header for Blinks:
Event Type	Trial	Number	Start	End	Duration

Table Header for User Events:
Event Type	Trial	Number	Start	Description

UserEvent	1	1	4007130119	# Message: Trouville_Black_Rocks_Boudin_1863.jpg
Fixation L	1	1	4007145224	4007602695	457471	936.05	421.17	18	38	-1	14.44	14.44
Fixation R	1	1	4007145224	4007602695	457471	936.05	421.17	18	38	-1	15.38	15.38
Saccade L	1	1	4007602695	4007642449	39754	935.13	445.67	630.06	773.54	3.74	331.45	0.50	94.13	8257.75	-8010.72	5509.68
Saccade R	1	1	4007602695	4007642449	39754	935.13	445.67	630.06	773.54	3.74	331.45	0.50	94.13	8257.75	-8010.72	5509.68
Fixation L	1	2	4007642449	4007841313	198864	610.84	773.40	46	13	-1	13.74	13.74
Fixation R	1	2	4007642449	4007841313	198864	610.84	773.40	46	13	-1	14.96	14.96
Saccade L	1	2	4007841313	4007980556	139243	583.75	774.83	1429.26	852.48	15.88	423.22	0.86	114.04	10417.41	-10148.70	4780.39
Saccade R	1	2	4007841313	4007980556	139243	583.75	774.83	1429.26	852.48	15.88	423.22	0.86	114.04	10417.41	-10148.70	4780.39
Fixation L	1	3	4007980556	4008676774	696218	1431.72	867.49	17	56	-1	12.62	12.62
Fixation R	1	3	4007980556	4008676774	696218	1431.72	867.49	17	56	-1	13.34	13.34
Saccade L	1	3	4008676774	4008716518	39744	1420.98	858.50	1345.88	575.23	2.71	184.76	0.50	68.26	4563.23	-4222.21	3282.30
Saccade R	1	3	4008676774	4008716518	39744	1420.98	858.50	1345.88	575.23	2.71	184.76	0.50	68.26	4563.23	-4222.21	3282.30
Fixation L	1	4	4008716518	4008955260	238742	1325.58	560.32	44	28	-1	13.21	13.21
Fixation R	1	4	4008716518	4008955260	238742	1325.58	560.32	44	28	-1	14.09	14.09
Saccade L	1	4	4008955260	4008975138	19878	1301.68	556.34	1120.85	560.75	1.08	182.92	1.00	54.43	4396.98	-4559.64	3050.90
Saccade R	1	4	4008955260	4008975138	19878	1301.68	556.34	1120.85	560.75	1.08	182.92	1.00	54.43	4396.98	-4559.64	3050.90
Fixation L	1	5	4008975138	4009174001	198863	1128.92	557.28	9	17	-1	13.05	13.05
Fixation R	1	5	4008975138	4009174001	198863	1128.92	557.28	9	17	-1	13.69	13.69
Saccade L	1	5	4009174001	4009213746	39745	1130.52	567.98	1475.21	852.67	3.84	285.09	0.50	96.65	7058.60	-6900.01	5463.35
Saccade R	1	5	4009174001	4009213746	39745	1130.52	567.98	1475.21	852.67	3.84	285.09	0.50	96.65	7058.60	-6900.01	5463.35
Fixation L	1	6	4009213746	4009770721	556975	1453.60	851.94	53	15	-1	13.34	13.34
Fixation R	1	6	4009213746	4009770721	556975	1453.60	851.94	53	15	-1	13.85	13.85
Saccade L	1	6	4009770721	4009830341	59620	1431.37	857.69	700.11	874.42	7.50	359.78	0.67	125.80	8936.07	-8720.95	5809.29
Saccade R	1	6	4009770721	4009830341	59620	1431.37	857.69	700.11	874.42	7.50	359.78	0.67	125.80	8936.07	-8720.95	5809.29
Fixation L	1	7	4009830341	4010069082	238741	701.20	875.11	26	23	-1	12.79	12.79
Fixation R	1	7	4009830341	4010069082	238741	701.20	875.11	26	23	-1	13.86	13.86
Saccade L	1	7	4010069082	4010088951	19869	680.71	866.60	487.91	797.14	1.20	207.23	1.00	60.36	5058.22	-5067.30	3485.42
Saccade R	1	7	4010069082	4010088951	19869	680.71	866.60	487.91	797.14	1.20	207.23	1.00	60.36	5058.22	-5067.30	3485.42
Fixation L	1	8	4010088951	4010546432	457481	490.43	792.49	18	18	-1	12.59	12.59
Fixation R	1	8	4010088951	4010546432	457481	490.43	792.49	18	18	-1	13.66	13.66
Saccade L	1	8	4010546432	4010586183	39751	476.58	797.99	193.67	768.20	2.84	269.01	0.50	71.36	6706.52	-5523.71	3167.39
Saccade R	1	8	4010546432	4010586183	39751	476.58	797.99	193.67	768.20	2.84	269.01	0.50	71.36	6706.52	-5523.71	3167.39
Fixation L	1	9	4010586183	4010705552	119369	159.99	744.38	43	37	-1	12.32	12.32
Fixation R	1	9	4010586183	4010705552	119369	159.99	744.38	43	37	-1	13.79	13.79
Saccade L	1	9	4010705552	4010745305	39753	152.29	731.08	700.72	846.28	4.83	312.76	0.50	121.53	7552.49	-7222.44	6849.56
Saccade R	1	9	4010705552	4010745305	39753	152.29	731.08	700.72	846.28	4.83	312.76	0.50	121.53	7552.49	-7222.44	6849.56
Fixation L	1	10	4010745305	4010904426	159121	711.92	854.24	24	18	-1	12.56	12.56
Fixation R	1	10	4010745305	4010904426	159121	711.92	854.24	24	18	-1	14.22	14.22
Saccade L	1	10	4010904426	4010924294	19868	715.83	852.98	831.67	866.75	0.87	117.99	1.00	43.55	2758.86	-2581.91	1893.87
Saccade R	1	10	4010904426	4010924294	19868	715.83	852.98	831.67	866.75	0.87	117.99	1.00	43.55	2758.86	-2581.91	1893.87
Fixation L	1	11	4010924294	4011123170	198876	844.47	880.24	28	25	-1	12.71	12.71
Fixation R	1	11	4010924294	4011123170	198876	844.47	880.24	28	25	-1	14.53	14.53
