[BeGaze]
Converted from:	C:\Documents and Settings\iViewX\Desktop\EXPERIMENTATIONS\Experiments\results\finaleart\S15H25531-finaleart-1.idf
Date:	27.03.2019 15:45:07
Version:	BeGaze 2.5.77
Sample Rate:	50
Subject:	S15H25531
Description:	Mikail Demirdelen

Table Header for Fixations:
Event Type	Trial	Number	Start	End	Duration	Location X	Location Y	Dispersion X	Dispersion Y	Plane	Avg. Pupil Size X	Avg. Pupil Size Y

Table Header for Saccades:
Event Type	Trial	Number	Start	End	Duration	Start Loc.X	Start Loc.Y	End Loc.X	End Loc.Y	Amplitude	Peak Speed	Peak Speed At	Average Speed	Peak Accel.	Peak Decel.	Average Accel.

Table Header for Blinks:
Event Type	Trial	Number	Start	End	Duration

Table Header for User Events:
Event Type	Trial	Number	Start	Description

UserEvent	1	1	4086415325	# Message: Nature-morte-Maurice-de-Vlaminck.jpg
Fixation L	1	1	4086430808	4086888298	457490	844.45	539.82	17	50	-1	13.71	13.71
Fixation R	1	1	4086430808	4086888298	457490	844.45	539.82	17	50	-1	14.87	14.87
Saccade L	1	1	4086888298	4086928049	39751	841.40	556.49	1080.09	507.68	2.34	162.72	1.00	58.80	3996.16	-3524.97	2661.83
Saccade R	1	1	4086888298	4086928049	39751	841.40	556.49	1080.09	507.68	2.34	162.72	1.00	58.80	3996.16	-3524.97	2661.83
Fixation L	1	2	4086928049	4087146888	218839	1081.09	457.81	22	61	-1	14.17	14.17
Fixation R	1	2	4086928049	4087146888	218839	1081.09	457.81	22	61	-1	15.34	15.34
Saccade L	1	2	4087146888	4087186671	39783	1085.52	457.88	756.30	729.56	3.67	245.14	1.00	92.13	5948.01	-5534.17	5076.18
Saccade R	1	2	4087146888	4087186671	39783	1085.52	457.88	756.30	729.56	3.67	245.14	1.00	92.13	5948.01	-5534.17	5076.18
Fixation L	1	3	4087186671	4087465123	278452	766.94	745.73	21	25	-1	14.07	14.07
Fixation R	1	3	4087186671	4087485003	298332	766.20	748.69	21	63	-1	15.94	15.94
Blink L	1	1	4087465123	4087584376	119253
Saccade R	1	3	4087485003	4087544639	59636	755.13	793.06	701.39	761.40	4.77	199.44	0.33	80.05	4734.03	-3589.97	2886.51
Fixation R	1	4	4087544639	4087862866	318227	701.86	760.03	30	35	-1	17.00	17.00
Fixation L	1	4	4087584376	4087862866	278490	700.38	761.81	30	31	-1	15.76	15.76
Saccade L	1	3	4087862866	4087902609	39743	697.15	766.91	1141.24	630.75	3.79	290.89	0.50	95.42	7225.00	-7162.76	5797.44
Saccade R	1	4	4087862866	4087902609	39743	697.15	766.91	1141.24	630.75	3.79	290.89	0.50	95.42	7225.00	-7162.76	5797.44
Fixation L	1	5	4087902609	4088220837	318228	1146.22	626.85	13	13	-1	16.00	16.00
Fixation R	1	5	4087902609	4088220837	318228	1146.22	626.85	13	13	-1	16.82	16.82
Saccade L	1	4	4088220837	4088260723	39886	1150.56	631.62	1119.43	412.49	1.93	127.94	0.50	48.38	3129.21	-2927.80	2641.34
Saccade R	1	5	4088220837	4088260723	39886	1150.56	631.62	1119.43	412.49	1.93	127.94	0.50	48.38	3129.21	-2927.80	2641.34
Fixation L	1	6	4088260723	4088618704	357981	1095.03	414.31	48	18	-1	15.95	15.95
Fixation R	1	6	4088260723	4088618704	357981	1095.03	414.31	48	18	-1	16.52	16.52
Saccade L	1	5	4088618704	4088638574	19870	1070.92	411.01	920.76	424.28	0.89	152.46	1.00	44.99	3757.13	-3565.98	2611.10
Saccade R	1	6	4088618704	4088638574	19870	1070.92	411.01	920.76	424.28	0.89	152.46	1.00	44.99	3757.13	-3565.98	2611.10
Fixation L	1	7	4088638574	4089056309	417735	935.19	449.86	20	36	-1	16.20	16.20
Fixation R	1	7	4088638574	4089056309	417735	935.19	449.86	20	36	-1	17.08	17.08
Blink L	1	2	4089056309	4089175673	119364
Saccade R	1	7	4089056309	4089155676	99367	939.21	460.29	1145.25	623.05	5.85	217.96	0.20	58.83	5387.37	-3040.49	1768.60
Fixation R	1	8	4089155676	4089354664	198988	1136.51	589.13	18	57	-1	17.31	17.31
Fixation L	1	8	4089175673	4089354664	178991	1135.63	585.74	15	55	-1	16.53	16.53
Saccade L	1	6	4089354664	4089394412	39748	1127.96	565.17	645.76	770.85	4.68	327.16	0.50	117.64	7951.69	-7262.02	6321.60
Saccade R	1	8	4089354664	4089394412	39748	1127.96	565.17	645.76	770.85	4.68	327.16	0.50	117.64	7951.69	-7262.02	6321.60
Fixation L	1	9	4089394412	4089672898	278486	662.25	738.89	21	44	-1	16.25	16.25
Fixation R	1	9	4089394412	4089672898	278486	662.25	738.89	21	44	-1	16.59	16.59
Saccade L	1	7	4089672898	4089692777	19879	659.56	726.42	800.95	726.82	0.98	143.01	1.00	49.32	3509.33	-3476.62	2691.02
Saccade R	1	9	4089672898	4089692777	19879	659.56	726.42	800.95	726.82	0.98	143.01	1.00	49.32	3509.33	-3476.62	2691.02
Fixation L	1	10	4089692777	4090249629	556852	771.92	740.94	50	23	-1	16.25	16.25
Fixation R	1	10	4089692777	4090249629	556852	771.92	740.94	50	23	-1	17.21	17.21
Saccade L	1	8	4090249629	4090269626	19997	771.05	741.63	665.51	733.03	0.72	107.11	1.00	35.84	2452.30	-2507.55	1852.64
Saccade R	1	10	4090249629	4090269626	19997	771.05	741.63	665.51	733.03	0.72	107.11	1.00	35.84	2452.30	-2507.55	1852.64
Fixation L	1	11	4090269626	4090408869	139243	684.59	716.58	24	26	-1	15.98	15.98
Fixation R	1	11	4090269626	4090408869	139243	684.59	716.58	24	26	-1	17.15	17.15
