[BeGaze]
Converted from:	C:\Documents and Settings\iViewX\Desktop\EXPERIMENTATIONS\Experiments\results\finaleart\S15H25531-finaleart-1.idf
Date:	27.03.2019 15:45:44
Version:	BeGaze 2.5.77
Sample Rate:	50
Subject:	S15H25531
Description:	Mikail Demirdelen

Table Header for Fixations:
Event Type	Trial	Number	Start	End	Duration	Location X	Location Y	Dispersion X	Dispersion Y	Plane	Avg. Pupil Size X	Avg. Pupil Size Y

Table Header for Saccades:
Event Type	Trial	Number	Start	End	Duration	Start Loc.X	Start Loc.Y	End Loc.X	End Loc.Y	Amplitude	Peak Speed	Peak Speed At	Average Speed	Peak Accel.	Peak Decel.	Average Accel.

Table Header for Blinks:
Event Type	Trial	Number	Start	End	Duration

Table Header for User Events:
Event Type	Trial	Number	Start	Description

UserEvent	1	1	4590297372	# Message: courbet-woman-with-a-parrot-1866.jpg
Fixation L	1	1	4590306985	4590863823	556838	788.17	768.09	32	51	-1	16.85	16.85
Fixation R	1	1	4590306985	4590863823	556838	788.17	768.09	32	51	-1	18.42	18.42
Saccade L	1	1	4590863823	4590883696	19873	759.49	721.92	723.02	660.80	0.72	72.00	1.00	36.45	1775.03	-1492.93	1455.06
Saccade R	1	1	4590863823	4590883696	19873	759.49	721.92	723.02	660.80	0.72	72.00	1.00	36.45	1775.03	-1492.93	1455.06
Fixation L	1	2	4590883696	4591022938	139242	718.99	651.15	19	17	-1	16.38	16.38
Fixation R	1	2	4590883696	4591022938	139242	718.99	651.15	19	17	-1	18.28	18.28
Saccade L	1	2	4591022938	4591042813	19875	722.67	650.76	630.12	642.51	0.78	93.99	1.00	39.36	1950.50	-1592.79	1497.87
Saccade R	1	2	4591022938	4591042813	19875	722.67	650.76	630.12	642.51	0.78	93.99	1.00	39.36	1950.50	-1592.79	1497.87
Fixation L	1	3	4591042813	4591480412	437599	643.45	648.80	42	40	-1	15.02	15.02
Fixation R	1	3	4591042813	4591480412	437599	643.45	648.80	42	40	-1	16.89	16.89
Saccade L	1	3	4591480412	4591500296	19884	636.51	625.82	447.38	651.59	1.20	193.02	1.00	60.28	4751.49	-4576.28	3412.04
Saccade R	1	3	4591480412	4591500296	19884	636.51	625.82	447.38	651.59	1.20	193.02	1.00	60.28	4751.49	-4576.28	3412.04
Fixation L	1	4	4591500296	4592375508	875212	427.16	708.76	31	66	-1	15.22	15.22
Fixation R	1	4	4591500296	4592375508	875212	427.16	708.76	31	66	-1	17.47	17.47
Saccade L	1	4	4592375508	4592395379	19871	416.89	714.48	414.28	714.46	0.03	2.64	1.00	1.44	53.50	1.07	20.87
Saccade R	1	4	4592375508	4592395379	19871	416.89	714.48	414.28	714.46	0.03	2.64	1.00	1.44	53.50	1.07	20.87
Fixation L	1	5	4592395379	4593171092	775713	407.16	720.68	18	11	-1	16.50	16.50
Fixation R	1	5	4592395379	4593171092	775713	407.16	720.68	18	11	-1	18.66	18.66
Saccade L	1	5	4593171092	4593330209	159117	398.45	721.08	617.03	372.94	7.95	192.73	0.12	49.96	4800.62	-2722.80	1253.28
Saccade R	1	5	4593171092	4593330209	159117	398.45	721.08	617.03	372.94	7.95	192.73	0.12	49.96	4800.62	-2722.80	1253.28
Fixation L	1	6	4593330209	4593568944	238735	641.15	340.06	33	64	-1	15.39	15.39
Fixation R	1	6	4593330209	4593568944	238735	641.15	340.06	33	64	-1	17.58	17.58
Saccade L	1	6	4593568944	4593588832	19888	642.75	314.11	640.28	304.41	0.38	43.42	1.00	19.24	276.44	-832.32	409.58
Saccade R	1	6	4593568944	4593588832	19888	642.75	314.11	640.28	304.41	0.38	43.42	1.00	19.24	276.44	-832.32	409.58
Fixation L	1	7	4593588832	4594284910	696078	629.20	306.15	69	20	-1	14.31	14.31
Fixation R	1	7	4593588832	4594284910	696078	629.20	306.15	69	20	-1	16.21	16.21
