[BeGaze]
Converted from:	C:\Documents and Settings\iViewX\Desktop\EXPERIMENTATIONS\Experiments\results\finaleart\S15H25531-finaleart-1.idf
Date:	27.03.2019 15:45:38
Version:	BeGaze 2.5.77
Sample Rate:	50
Subject:	S15H25531
Description:	Mikail Demirdelen

Table Header for Fixations:
Event Type	Trial	Number	Start	End	Duration	Location X	Location Y	Dispersion X	Dispersion Y	Plane	Avg. Pupil Size X	Avg. Pupil Size Y

Table Header for Saccades:
Event Type	Trial	Number	Start	End	Duration	Start Loc.X	Start Loc.Y	End Loc.X	End Loc.Y	Amplitude	Peak Speed	Peak Speed At	Average Speed	Peak Accel.	Peak Decel.	Average Accel.

Table Header for Blinks:
Event Type	Trial	Number	Start	End	Duration

Table Header for User Events:
Event Type	Trial	Number	Start	Description

UserEvent	1	1	4535402835	# Message: plage-de-la-vignassa_cross_1892.jpg
Saccade L	1	1	4535410480	4535430354	19874	784.51	373.49	907.81	372.55	0.91	124.71	1.00	45.65	305.84	-2870.23	1058.69
Saccade R	1	1	4535410480	4535430354	19874	784.51	373.49	907.81	372.55	0.91	124.71	1.00	45.65	305.84	-2870.23	1058.69
Fixation L	1	1	4535430354	4536066814	636460	934.06	374.62	36	40	-1	12.66	12.66
Fixation R	1	1	4535430354	4536066814	636460	934.06	374.62	36	40	-1	13.32	13.32
Saccade L	1	2	4536066814	4536086822	20008	938.30	352.05	908.37	469.45	0.89	122.55	1.00	44.59	2935.42	-2576.18	2150.34
Saccade R	1	2	4536066814	4536086822	20008	938.30	352.05	908.37	469.45	0.89	122.55	1.00	44.59	2935.42	-2576.18	2150.34
Fixation L	1	2	4536086822	4536285688	198866	916.17	509.74	26	50	-1	12.20	12.20
Fixation R	1	2	4536086822	4536285688	198866	916.17	509.74	26	50	-1	12.82	12.82
Saccade L	1	3	4536285688	4536305559	19871	907.41	517.10	911.08	617.10	0.53	101.23	1.00	26.54	2484.92	-2379.53	1632.41
Saccade R	1	3	4536285688	4536305559	19871	907.41	517.10	911.08	617.10	0.53	101.23	1.00	26.54	2484.92	-2379.53	1632.41
Fixation L	1	3	4536305559	4536564165	258606	923.87	633.00	22	25	-1	11.79	11.79
Fixation R	1	3	4536305559	4536564165	258606	923.87	633.00	22	25	-1	12.58	12.58
Saccade L	1	4	4536564165	4536603917	39752	931.73	637.92	1146.15	592.75	1.90	135.86	1.00	47.76	3308.62	-3171.21	2623.70
Saccade R	1	4	4536564165	4536603917	39752	931.73	637.92	1146.15	592.75	1.90	135.86	1.00	47.76	3308.62	-3171.21	2623.70
Fixation L	1	4	4536603917	4537021650	417733	1145.38	602.08	18	26	-1	12.25	12.25
Fixation R	1	4	4536603917	4537021650	417733	1145.38	602.08	18	26	-1	12.55	12.55
Blink L	1	1	4537021650	4537180761	159111
Saccade R	1	5	4537021650	4537121018	99368	1139.34	592.84	950.71	588.37	10.55	232.99	0.80	106.16	5361.54	-5132.84	2578.09
Fixation R	1	5	4537121018	4537777366	656348	937.57	597.69	27	70	-1	13.50	13.50
Fixation L	1	5	4537180761	4537797363	616602	937.89	599.66	26	73	-1	13.44	13.44
Saccade R	1	6	4537777366	4537797363	19997	948.98	629.07	948.85	632.20	0.05	3.17	1.00	2.40	19.34	-42.95	24.09
Saccade L	1	5	4537797363	4537817228	19865	948.85	632.20	950.75	631.13	0.04	3.17	0.00	2.16	90.15	-42.95	47.69
Fixation R	1	6	4537797363	4538254846	457483	926.02	645.79	40	29	-1	13.49	13.49
Fixation L	1	6	4537817228	4538254846	437618	925.02	646.38	40	29	-1	13.00	13.00
Saccade L	1	6	4538254846	4538294583	39737	918.44	635.93	1046.98	446.44	2.28	155.82	0.50	57.32	3823.09	-3748.92	3032.07
Saccade R	1	7	4538254846	4538294583	39737	918.44	635.93	1046.98	446.44	2.28	155.82	0.50	57.32	3823.09	-3748.92	3032.07
Fixation L	1	7	4538294583	4538553077	258494	1062.45	442.72	20	19	-1	12.73	12.73
Fixation R	1	7	4538294583	4538553077	258494	1062.45	442.72	20	19	-1	12.81	12.81
Saccade L	1	7	4538553077	4538573068	19991	1066.14	432.61	885.69	447.14	1.25	183.07	1.00	62.32	4301.50	-4225.95	3155.00
Saccade R	1	8	4538553077	4538573068	19991	1066.14	432.61	885.69	447.14	1.25	183.07	1.00	62.32	4301.50	-4225.95	3155.00
Fixation L	1	8	4538573068	4538752067	178999	834.24	439.18	66	13	-1	12.19	12.19
Fixation R	1	8	4538573068	4538752067	178999	834.24	439.18	66	13	-1	12.23	12.23
Saccade L	1	8	4538752067	4538791827	39760	819.63	436.06	587.03	454.25	2.39	191.69	0.50	60.16	4637.86	-3486.89	2421.44
Saccade R	1	9	4538752067	4538791827	39760	819.63	436.06	587.03	454.25	2.39	191.69	0.50	60.16	4637.86	-3486.89	2421.44
Fixation L	1	9	4538791827	4539050419	258592	566.76	498.56	26	73	-1	12.03	12.03
Fixation R	1	9	4538791827	4539050419	258592	566.76	498.56	26	73	-1	12.51	12.51
Saccade L	1	9	4539050419	4539070300	19881	560.25	499.89	557.29	500.84	0.08	4.81	0.00	3.85	5.61	-16.81	9.95
Saccade R	1	10	4539050419	4539070300	19881	560.25	499.89	557.29	500.84	0.08	4.81	0.00	3.85	5.61	-16.81	9.95
Fixation L	1	10	4539070300	4539229422	159122	558.35	494.15	8	14	-1	12.27	12.27
Fixation R	1	10	4539070300	4539229422	159122	558.35	494.15	8	14	-1	12.64	12.64
Saccade L	1	10	4539229422	4539249289	19867	553.69	486.34	720.21	464.48	0.95	169.86	1.00	47.87	4197.73	-3672.94	2683.11
Saccade R	1	11	4539229422	4539249289	19867	553.69	486.34	720.21	464.48	0.95	169.86	1.00	47.87	4197.73	-3672.94	2683.11
Fixation L	1	11	4539249289	4539388539	139250	733.11	461.82	19	22	-1	12.48	12.48
Fixation R	1	11	4539249289	4539388539	139250	733.11	461.82	19	22	-1	13.35	13.35
