[BeGaze]
Converted from:	C:\Documents and Settings\iViewX\Desktop\EXPERIMENTATIONS\Experiments\results\finaleart\S15H25531-finaleart-1.idf
Date:	27.03.2019 15:45:16
Version:	BeGaze 2.5.77
Sample Rate:	50
Subject:	S15H25531
Description:	Mikail Demirdelen

Table Header for Fixations:
Event Type	Trial	Number	Start	End	Duration	Location X	Location Y	Dispersion X	Dispersion Y	Plane	Avg. Pupil Size X	Avg. Pupil Size Y

Table Header for Saccades:
Event Type	Trial	Number	Start	End	Duration	Start Loc.X	Start Loc.Y	End Loc.X	End Loc.Y	Amplitude	Peak Speed	Peak Speed At	Average Speed	Peak Accel.	Peak Decel.	Average Accel.

Table Header for Blinks:
Event Type	Trial	Number	Start	End	Duration

Table Header for User Events:
Event Type	Trial	Number	Start	Description

UserEvent	1	1	4233718608	# Message: the-reclining-shepherdess_morisot_1891.jpg
Fixation L	1	1	4233730024	4234147749	417725	945.81	456.47	10	13	-1	13.28	13.28
Fixation R	1	1	4233730024	4234147749	417725	945.81	456.47	10	13	-1	14.36	14.36
Saccade L	1	1	4234147749	4234187487	39738	940.64	452.76	1296.71	436.15	2.98	220.20	1.00	74.95	5470.13	-4970.36	4292.80
Saccade R	1	1	4234147749	4234187487	39738	940.64	452.76	1296.71	436.15	2.98	220.20	1.00	74.95	5470.13	-4970.36	4292.80
Fixation L	1	2	4234187487	4234346614	159127	1299.45	437.98	12	20	-1	13.42	13.42
Fixation R	1	2	4234187487	4234346614	159127	1299.45	437.98	12	20	-1	14.30	14.30
Saccade L	1	2	4234346614	4234366486	19872	1304.42	432.09	1471.24	432.53	0.91	168.71	1.00	45.79	4160.11	-4093.83	2758.42
Saccade R	1	2	4234346614	4234366486	19872	1304.42	432.09	1471.24	432.53	0.91	168.71	1.00	45.79	4160.11	-4093.83	2758.42
Fixation L	1	3	4234366486	4234624968	258482	1463.89	439.68	18	16	-1	11.84	11.84
Fixation R	1	3	4234366486	4234624968	258482	1463.89	439.68	18	16	-1	12.41	12.41
Saccade L	1	3	4234624968	4234644976	20008	1452.71	447.38	1369.39	556.70	0.84	139.02	1.00	42.17	3421.68	-3350.19	2394.50
Saccade R	1	3	4234624968	4234644976	20008	1452.71	447.38	1369.39	556.70	0.84	139.02	1.00	42.17	3421.68	-3350.19	2394.50
Fixation L	1	4	4234644976	4234843837	198861	1374.15	568.21	20	25	-1	11.29	11.29
Fixation R	1	4	4234644976	4234843837	198861	1374.15	568.21	20	25	-1	11.87	11.87
Saccade L	1	4	4234843837	4234883584	39747	1378.25	556.25	1442.72	414.35	1.34	87.23	0.50	33.64	2160.55	-2045.86	1842.13
Saccade R	1	4	4234843837	4234883584	39747	1378.25	556.25	1442.72	414.35	1.34	87.23	0.50	33.64	2160.55	-2045.86	1842.13
Fixation L	1	5	4234883584	4235142204	258620	1463.93	400.69	30	22	-1	11.11	11.11
Fixation R	1	5	4234883584	4235142204	258620	1463.93	400.69	30	22	-1	11.59	11.59
Saccade L	1	5	4235142204	4235162068	19864	1448.38	414.27	1043.39	595.64	2.68	447.99	1.00	134.93	11180.56	-10814.56	7566.74
Saccade R	1	5	4235142204	4235162068	19864	1448.38	414.27	1043.39	595.64	2.68	447.99	1.00	134.93	11180.56	-10814.56	7566.74
Fixation L	1	6	4235162068	4235261567	99499	987.98	609.55	71	25	-1	11.37	11.37
Fixation R	1	6	4235162068	4235261567	99499	987.98	609.55	71	25	-1	11.77	11.77
Saccade L	1	6	4235261567	4235281440	19873	971.85	600.85	966.19	606.67	0.15	12.01	0.00	7.76	40.56	-194.55	125.84
Saccade R	1	6	4235261567	4235281440	19873	971.85	600.85	966.19	606.67	0.15	12.01	0.00	7.76	40.56	-194.55	125.84
Fixation L	1	7	4235281440	4235559819	278379	961.31	606.59	9	35	-1	11.46	11.46
Fixation R	1	7	4235281440	4235559819	278379	961.31	606.59	9	35	-1	12.11	12.11
Saccade L	1	7	4235559819	4235579804	19985	963.50	631.85	887.27	674.79	0.60	88.51	1.00	29.82	2069.84	-1994.48	1514.66
Saccade R	1	7	4235559819	4235579804	19985	963.50	631.85	887.27	674.79	0.60	88.51	1.00	29.82	2069.84	-1994.48	1514.66
Fixation L	1	8	4235579804	4235699042	119238	876.96	656.60	17	29	-1	11.64	11.64
Fixation R	1	8	4235579804	4235699042	119238	876.96	656.60	17	29	-1	12.09	12.09
Saccade L	1	8	4235699042	4235758787	59745	871.81	668.27	865.52	162.01	5.48	205.77	0.33	91.69	4834.76	-4388.07	3667.30
Saccade R	1	8	4235699042	4235758787	59745	871.81	668.27	865.52	162.01	5.48	205.77	0.33	91.69	4834.76	-4388.07	3667.30
Fixation L	1	9	4235758787	4236017285	258498	855.95	182.31	19	46	-1	11.05	11.05
Fixation R	1	9	4235758787	4236017285	258498	855.95	182.31	19	46	-1	11.84	11.84
Saccade L	1	9	4236017285	4236037152	19867	849.55	208.65	845.30	365.04	1.02	158.23	1.00	51.34	3833.50	-3582.71	2652.38
Saccade R	1	9	4236017285	4236037152	19867	849.55	208.65	845.30	365.04	1.02	158.23	1.00	51.34	3833.50	-3582.71	2652.38
Fixation L	1	10	4236037152	4236335518	298366	830.87	316.46	21	57	-1	11.05	11.05
Fixation R	1	10	4236037152	4236335518	298366	830.87	316.46	21	57	-1	12.10	12.10
Saccade L	1	10	4236335518	4236355513	19995	824.29	313.43	636.23	455.35	1.34	238.21	1.00	67.11	5909.92	-5900.28	4143.13
Saccade R	1	10	4236335518	4236355513	19995	824.29	313.43	636.23	455.35	1.34	238.21	1.00	67.11	5909.92	-5900.28	4143.13
Fixation L	1	11	4236355513	4236554383	198870	635.34	506.42	5	82	-1	11.78	11.78
Fixation R	1	11	4236355513	4236554383	198870	635.34	506.42	5	82	-1	12.85	12.85
Saccade L	1	11	4236554383	4236594132	39749	637.63	538.01	368.16	742.83	2.99	226.21	0.50	75.18	5637.90	-5417.73	4071.19
Saccade R	1	11	4236554383	4236594132	39749	637.63	538.01	368.16	742.83	2.99	226.21	0.50	75.18	5637.90	-5417.73	4071.19
Fixation L	1	12	4236594132	4236852749	258617	359.49	747.48	17	13	-1	11.80	11.80
Fixation R	1	12	4236594132	4236852749	258617	359.49	747.48	17	13	-1	13.26	13.26
Saccade L	1	12	4236852749	4236912367	59618	365.32	753.68	1289.41	547.36	10.17	392.82	0.33	170.54	9783.51	-7041.60	6627.27
Saccade R	1	12	4236852749	4236912367	59618	365.32	753.68	1289.41	547.36	10.17	392.82	0.33	170.54	9783.51	-7041.60	6627.27
Fixation L	1	13	4236912367	4237051602	139235	1283.64	538.07	38	59	-1	12.06	12.06
Fixation R	1	13	4236912367	4237051602	139235	1283.64	538.07	38	59	-1	13.02	13.02
Saccade L	1	13	4237051602	4237091357	39755	1286.45	553.57	1392.05	462.35	1.47	79.03	0.50	37.09	1923.12	-1510.35	1478.13
Saccade R	1	13	4237051602	4237091357	39755	1286.45	553.57	1392.05	462.35	1.47	79.03	0.50	37.09	1923.12	-1510.35	1478.13
Fixation L	1	14	4237091357	4237310224	218867	1404.56	453.83	28	26	-1	11.70	11.70
Fixation R	1	14	4237091357	4237310224	218867	1404.56	453.83	28	26	-1	12.54	12.54
Saccade L	1	14	4237310224	4237330096	19872	1420.31	445.73	1481.65	424.56	0.58	65.64	1.00	29.05	1504.83	-1372.87	1159.88
Saccade R	1	14	4237310224	4237330096	19872	1420.31	445.73	1481.65	424.56	0.58	65.64	1.00	29.05	1504.83	-1372.87	1159.88
Fixation L	1	15	4237330096	4237568710	238614	1511.05	408.42	35	24	-1	11.25	11.25
Fixation R	1	15	4237330096	4237568710	238614	1511.05	408.42	35	24	-1	11.82	11.82
Saccade L	1	15	4237568710	4237588577	19867	1516.17	400.00	1557.88	496.69	0.67	106.52	1.00	33.59	2620.90	-2388.84	1844.57
Saccade R	1	15	4237568710	4237588577	19867	1516.17	400.00	1557.88	496.69	0.67	106.52	1.00	33.59	2620.90	-2388.84	1844.57
Fixation L	1	16	4237588577	4237707947	119370	1576.07	510.24	23	24	-1	11.48	11.48
Fixation R	1	16	4237588577	4237707947	119370	1576.07	510.24	23	24	-1	11.71	11.71
