[BeGaze]
Converted from:	C:\Documents and Settings\iViewX\Desktop\EXPERIMENTATIONS\Experiments\results\finaleart\S15H25531-finaleart-1.idf
Date:	27.03.2019 15:45:14
Version:	BeGaze 2.5.77
Sample Rate:	50
Subject:	S15H25531
Description:	Mikail Demirdelen

Table Header for Fixations:
Event Type	Trial	Number	Start	End	Duration	Location X	Location Y	Dispersion X	Dispersion Y	Plane	Avg. Pupil Size X	Avg. Pupil Size Y

Table Header for Saccades:
Event Type	Trial	Number	Start	End	Duration	Start Loc.X	Start Loc.Y	End Loc.X	End Loc.Y	Amplitude	Peak Speed	Peak Speed At	Average Speed	Peak Accel.	Peak Decel.	Average Accel.

Table Header for Blinks:
Event Type	Trial	Number	Start	End	Duration

Table Header for User Events:
Event Type	Trial	Number	Start	Description

UserEvent	1	1	4215414889	# Message: renoir-still-life-with-peaches-and-grapes-1881.jpg
Fixation L	1	1	4215431148	4215948249	517101	841.71	513.33	35	57	-1	14.38	14.38
Fixation R	1	1	4215431148	4215948249	517101	841.71	513.33	35	57	-1	15.86	15.86
Saccade L	1	1	4215948249	4215968250	20001	866.44	476.38	882.34	479.84	0.25	16.46	1.00	12.48	109.16	-46.58	65.24
Saccade R	1	1	4215948249	4215968250	20001	866.44	476.38	882.34	479.84	0.25	16.46	1.00	12.48	109.16	-46.58	65.24
Fixation L	1	2	4215968250	4216266483	298233	882.35	440.16	19	69	-1	12.91	12.91
Fixation R	1	2	4215968250	4216266483	298233	882.35	440.16	19	69	-1	14.14	14.14
Saccade L	1	2	4216266483	4216286471	19988	874.65	411.19	878.00	379.12	0.48	53.56	1.00	24.00	1251.15	-640.85	849.93
Saccade R	1	2	4216266483	4216286471	19988	874.65	411.19	878.00	379.12	0.48	53.56	1.00	24.00	1251.15	-640.85	849.93
Fixation L	1	3	4216286471	4216644461	357990	878.74	338.42	8	55	-1	11.47	11.47
Fixation R	1	3	4216286471	4216644461	357990	878.74	338.42	8	55	-1	12.50	12.50
Saccade L	1	3	4216644461	4216664330	19869	881.91	323.25	744.55	325.19	0.79	138.94	1.00	39.75	3377.40	-3262.59	2276.66
Saccade R	1	3	4216644461	4216664330	19869	881.91	323.25	744.55	325.19	0.79	138.94	1.00	39.75	3377.40	-3262.59	2276.66
Fixation L	1	4	4216664330	4216823447	159117	737.04	341.38	10	33	-1	10.95	10.95
Fixation R	1	4	4216664330	4216823447	159117	737.04	341.38	10	33	-1	12.22	12.22
Saccade L	1	4	4216823447	4216883067	59620	736.40	358.53	1245.82	676.01	6.34	350.26	0.67	106.35	8725.99	-8598.06	5075.85
Saccade R	1	4	4216823447	4216883067	59620	736.40	358.53	1245.82	676.01	6.34	350.26	0.67	106.35	8725.99	-8598.06	5075.85
Fixation L	1	5	4216883067	4217340553	457486	1254.52	700.44	28	54	-1	10.96	10.96
Fixation R	1	5	4216883067	4217340553	457486	1254.52	700.44	28	54	-1	11.97	11.97
Saccade L	1	5	4217340553	4217360426	19873	1270.33	723.38	1263.87	756.73	0.36	34.36	1.00	18.10	841.09	-650.17	602.53
Saccade R	1	5	4217340553	4217360426	19873	1270.33	723.38	1263.87	756.73	0.36	34.36	1.00	18.10	841.09	-650.17	602.53
Fixation L	1	6	4217360426	4217559417	198991	1270.65	767.49	19	24	-1	10.88	10.88
Fixation R	1	6	4217360426	4217559417	198991	1270.65	767.49	19	24	-1	11.88	11.88
Saccade L	1	6	4217559417	4217579287	19870	1278.24	767.62	1488.04	728.48	1.17	215.80	1.00	58.87	5262.32	-5338.25	3628.82
Saccade R	1	6	4217559417	4217579287	19870	1278.24	767.62	1488.04	728.48	1.17	215.80	1.00	58.87	5262.32	-5338.25	3628.82
Fixation L	1	7	4217579287	4217837900	258613	1480.94	717.59	11	18	-1	11.19	11.19
Fixation R	1	7	4217579287	4217837900	258613	1480.94	717.59	11	18	-1	12.10	12.10
Saccade L	1	7	4217837900	4217877653	39753	1481.45	718.10	1296.37	741.25	1.55	103.05	1.00	39.10	2473.05	-2434.34	2282.22
Saccade R	1	7	4217837900	4217877653	39753	1481.45	718.10	1296.37	741.25	1.55	103.05	1.00	39.10	2473.05	-2434.34	2282.22
Fixation L	1	8	4217877653	4218056642	178989	1299.42	747.27	16	23	-1	11.38	11.38
Fixation R	1	8	4217877653	4218056642	178989	1299.42	747.27	16	23	-1	12.25	12.25
Saccade L	1	8	4218056642	4218076511	19869	1290.41	760.89	1200.02	777.88	0.62	93.04	1.00	31.28	2181.63	-2239.95	1517.22
Saccade R	1	8	4218056642	4218076511	19869	1290.41	760.89	1200.02	777.88	0.62	93.04	1.00	31.28	2181.63	-2239.95	1517.22
Fixation L	1	9	4218076511	4218195887	119376	1186.82	779.86	18	11	-1	11.85	11.85
Fixation R	1	9	4218076511	4218195887	119376	1186.82	779.86	18	11	-1	12.53	12.53
Saccade L	1	9	4218195887	4218255505	59618	1181.81	786.22	917.15	399.43	4.94	180.13	0.67	82.82	4430.43	-4224.79	3226.40
Saccade R	1	9	4218195887	4218255505	59618	1181.81	786.22	917.15	399.43	4.94	180.13	0.67	82.82	4430.43	-4224.79	3226.40
Fixation L	1	10	4218255505	4218911847	656342	930.09	417.61	24	35	-1	11.72	11.72
Fixation R	1	10	4218255505	4218911847	656342	930.09	417.61	24	35	-1	12.70	12.70
Saccade L	1	10	4218911847	4218931843	19996	941.28	433.75	983.99	458.26	0.39	49.81	1.00	19.73	1171.61	-1072.86	951.45
Saccade R	1	10	4218911847	4218931843	19996	941.28	433.75	983.99	458.26	0.39	49.81	1.00	19.73	1171.61	-1072.86	951.45
Fixation L	1	11	4218931843	4219309705	377862	1006.71	502.59	33	61	-1	11.85	11.85
Fixation R	1	11	4218931843	4219309705	377862	1006.71	502.59	33	61	-1	12.85	12.85
Saccade L	1	11	4219309705	4219409200	99495	1017.57	496.52	950.73	516.58	1.66	40.79	0.40	16.68	781.67	-927.73	557.90
Saccade R	1	11	4219309705	4219409200	99495	1017.57	496.52	950.73	516.58	1.66	40.79	0.40	16.68	781.67	-927.73	557.90
