[BeGaze]
Converted from:	C:\Documents and Settings\iViewX\Desktop\EXPERIMENTATIONS\Experiments\results\finaleart\S15H25531-finaleart-1.idf
Date:	27.03.2019 15:45:11
Version:	BeGaze 2.5.77
Sample Rate:	50
Subject:	S15H25531
Description:	Mikail Demirdelen

Table Header for Fixations:
Event Type	Trial	Number	Start	End	Duration	Location X	Location Y	Dispersion X	Dispersion Y	Plane	Avg. Pupil Size X	Avg. Pupil Size Y

Table Header for Saccades:
Event Type	Trial	Number	Start	End	Duration	Start Loc.X	Start Loc.Y	End Loc.X	End Loc.Y	Amplitude	Peak Speed	Peak Speed At	Average Speed	Peak Accel.	Peak Decel.	Average Accel.

Table Header for Blinks:
Event Type	Trial	Number	Start	End	Duration

Table Header for User Events:
Event Type	Trial	Number	Start	Description

UserEvent	1	1	4123034440	# Message: goya-Pavo-muerto-1812.jpg
Fixation L	1	1	4123048308	4123167679	119371	832.80	614.25	29	4	-1	13.06	13.06
Fixation R	1	1	4123048308	4123167679	119371	832.80	614.25	29	4	-1	13.10	13.10
Saccade L	1	1	4123167679	4123187560	19881	857.46	612.84	1025.45	612.75	1.03	169.90	1.00	51.58	4227.21	-4129.02	2981.07
Saccade R	1	1	4123167679	4123187560	19881	857.46	612.84	1025.45	612.75	1.03	169.90	1.00	51.58	4227.21	-4129.02	2981.07
Fixation L	1	2	4123187560	4123326785	139225	1021.00	614.01	10	14	-1	13.51	13.51
Fixation R	1	2	4123187560	4123326785	139225	1021.00	614.01	10	14	-1	13.19	13.19
Blink L	1	1	4123326785	4123485910	159125
Blink R	1	1	4123326785	4123485910	159125
Fixation L	1	3	4123485910	4124122386	636476	952.04	560.92	26	60	-1	13.28	13.28
Fixation R	1	3	4123485910	4124122386	636476	952.04	560.92	26	60	-1	15.60	15.60
Saccade L	1	2	4124122386	4124142250	19864	949.06	551.05	982.53	467.01	0.63	91.50	1.00	31.75	2191.20	-1771.97	1543.57
Saccade R	1	2	4124122386	4124142250	19864	949.06	551.05	982.53	467.01	0.63	91.50	1.00	31.75	2191.20	-1771.97	1543.57
Fixation L	1	4	4124142250	4124480356	338106	1014.58	464.60	47	30	-1	13.50	13.50
Fixation R	1	4	4124142250	4124480356	338106	1014.58	464.60	47	30	-1	16.09	16.09
Saccade L	1	3	4124480356	4124500359	20003	1030.30	460.84	902.46	474.72	0.72	130.07	1.00	35.87	3225.12	-3104.41	2188.88
Saccade R	1	3	4124480356	4124500359	20003	1030.30	460.84	902.46	474.72	0.72	130.07	1.00	35.87	3225.12	-3104.41	2188.88
Fixation L	1	5	4124500359	4124838468	338109	920.43	479.48	25	19	-1	14.29	14.29
Fixation R	1	5	4124500359	4124838468	338109	920.43	479.48	25	19	-1	16.77	16.77
Saccade L	1	4	4124838468	4124858343	19875	923.68	475.09	997.96	572.12	1.01	123.60	1.00	51.06	2959.26	-2139.41	2186.17
Saccade R	1	4	4124838468	4124858343	19875	923.68	475.09	997.96	572.12	1.01	123.60	1.00	51.06	2959.26	-2139.41	2186.17
Fixation L	1	6	4124858343	4125236199	377856	1010.77	556.78	19	66	-1	14.77	14.77
Fixation R	1	6	4124858343	4125236199	377856	1010.77	556.78	19	66	-1	17.31	17.31
Saccade L	1	5	4125236199	4125276074	39875	1012.84	560.34	731.19	549.32	2.85	155.26	0.50	71.56	3847.36	-3124.81	3081.18
Saccade R	1	5	4125236199	4125276074	39875	1012.84	560.34	731.19	549.32	2.85	155.26	0.50	71.56	3847.36	-3124.81	3081.18
Fixation L	1	7	4125276074	4125415191	139117	785.04	538.65	66	32	-1	15.41	15.41
Fixation R	1	7	4125276074	4125415191	139117	785.04	538.65	66	32	-1	17.76	17.76
Saccade L	1	6	4125415191	4125474944	59753	789.60	517.00	449.47	461.48	4.59	304.07	1.00	76.89	7249.14	-6908.92	3132.46
Saccade R	1	6	4125415191	4125474944	59753	789.60	517.00	449.47	461.48	4.59	304.07	1.00	76.89	7249.14	-6908.92	3132.46
Fixation L	1	8	4125474944	4125673811	198867	411.58	437.72	55	41	-1	14.74	14.74
Fixation R	1	8	4125474944	4125673811	198867	411.58	437.72	55	41	-1	17.34	17.34
Saccade L	1	7	4125673811	4125713549	39738	413.39	420.41	907.95	436.93	4.20	348.21	0.50	105.67	8452.78	-8484.36	6029.49
Saccade R	1	7	4125673811	4125713549	39738	413.39	420.41	907.95	436.93	4.20	348.21	0.50	105.67	8452.78	-8484.36	6029.49
Fixation L	1	9	4125713549	4125932417	218868	907.43	429.76	20	12	-1	14.51	14.51
Fixation R	1	9	4125713549	4125932417	218868	907.43	429.76	20	12	-1	17.22	17.22
Saccade L	1	8	4125932417	4125952295	19878	900.79	429.63	1046.23	437.54	0.96	147.32	1.00	48.23	3612.63	-3150.82	2569.33
Saccade R	1	8	4125932417	4125952295	19878	900.79	429.63	1046.23	437.54	0.96	147.32	1.00	48.23	3612.63	-3150.82	2569.33
Fixation L	1	10	4125952295	4126747874	795579	1020.41	464.62	39	49	-1	15.34	15.34
Fixation R	1	10	4125952295	4126747874	795579	1020.41	464.62	39	49	-1	18.30	18.30
Blink L	1	2	4126747874	4126867249	119375
Saccade R	1	9	4126747874	4126807501	59627	1008.63	485.02	932.46	478.13	4.62	204.31	1.00	77.43	2813.50	-4469.83	2683.03
Fixation R	1	11	4126807501	4127026364	218863	949.79	489.77	22	49	-1	18.84	18.84
Fixation L	1	11	4126867249	4127026364	159115	951.57	485.76	7	16	-1	16.49	16.49
