[BeGaze]
Converted from:	C:\Documents and Settings\iViewX\Desktop\EXPERIMENTATIONS\Experiments\results\finaleart\S15H25531-finaleart-1.idf
Date:	27.03.2019 15:45:12
Version:	BeGaze 2.5.77
Sample Rate:	50
Subject:	S15H25531
Description:	Mikail Demirdelen

Table Header for Fixations:
Event Type	Trial	Number	Start	End	Duration	Location X	Location Y	Dispersion X	Dispersion Y	Plane	Avg. Pupil Size X	Avg. Pupil Size Y

Table Header for Saccades:
Event Type	Trial	Number	Start	End	Duration	Start Loc.X	Start Loc.Y	End Loc.X	End Loc.Y	Amplitude	Peak Speed	Peak Speed At	Average Speed	Peak Accel.	Peak Decel.	Average Accel.

Table Header for Blinks:
Event Type	Trial	Number	Start	End	Duration

Table Header for User Events:
Event Type	Trial	Number	Start	Description

UserEvent	1	1	4135258043	# Message: lying-nude_ury_1889.jpg
Saccade L	1	1	4135260850	4135340346	79496	910.18	601.11	1010.90	599.02	4.46	129.39	1.00	56.07	2182.83	-3016.54	1722.42
Saccade R	1	1	4135260850	4135340346	79496	910.18	601.11	1010.90	599.02	4.46	129.39	1.00	56.07	2182.83	-3016.54	1722.42
Fixation L	1	1	4135340346	4135678451	338105	998.28	603.36	24	19	-1	14.51	14.51
Fixation R	1	1	4135340346	4135678451	338105	998.28	603.36	24	19	-1	14.37	14.37
Saccade L	1	2	4135678451	4135718323	39872	986.27	608.62	529.12	656.82	4.18	350.74	0.50	104.84	8759.08	-7659.07	5531.54
Saccade R	1	2	4135678451	4135718323	39872	986.27	608.62	529.12	656.82	4.18	350.74	0.50	104.84	8759.08	-7659.07	5531.54
Fixation L	1	2	4135718323	4135917186	198863	516.19	629.92	19	40	-1	13.82	13.82
Fixation R	1	2	4135718323	4135917186	198863	516.19	629.92	19	40	-1	13.79	13.79
Saccade L	1	3	4135917186	4135937060	19874	510.08	642.58	329.75	700.66	1.29	191.59	1.00	65.03	4641.78	-4505.14	3354.26
Saccade R	1	3	4135917186	4135937060	19874	510.08	642.58	329.75	700.66	1.29	191.59	1.00	65.03	4641.78	-4505.14	3354.26
Fixation L	1	3	4135937060	4136334944	397884	335.22	699.51	15	81	-1	13.07	13.07
Fixation R	1	3	4135937060	4136334944	397884	335.22	699.51	15	81	-1	13.46	13.46
Saccade L	1	4	4136334944	4136394543	59599	341.24	733.09	510.41	734.64	2.28	165.22	1.00	38.30	4011.32	-3260.50	1715.40
Saccade R	1	4	4136334944	4136394543	59599	341.24	733.09	510.41	734.64	2.28	165.22	1.00	38.30	4011.32	-3260.50	1715.40
Fixation L	1	4	4136394543	4136673028	278485	480.26	725.30	77	21	-1	13.25	13.25
Fixation R	1	4	4136394543	4136673028	278485	480.26	725.30	77	21	-1	13.47	13.47
Saccade L	1	5	4136673028	4136692906	19878	531.93	715.54	538.61	713.08	0.20	18.56	1.00	9.95	-32.64	-283.86	141.14
Saccade R	1	5	4136673028	4136692906	19878	531.93	715.54	538.61	713.08	0.20	18.56	1.00	9.95	-32.64	-283.86	141.14
Fixation L	1	5	4136692906	4136871892	178986	540.46	697.00	9	28	-1	13.28	13.28
Fixation R	1	5	4136692906	4136871892	178986	540.46	697.00	9	28	-1	13.52	13.52
Saccade L	1	6	4136871892	4136911644	39752	544.28	684.62	907.83	682.14	2.99	203.33	0.50	75.32	4999.82	-4999.03	4477.30
Saccade R	1	6	4136871892	4136911644	39752	544.28	684.62	907.83	682.14	2.99	203.33	0.50	75.32	4999.82	-4999.03	4477.30
Fixation L	1	6	4136911644	4137408998	497354	910.66	696.39	42	54	-1	13.29	13.29
Fixation R	1	6	4136911644	4137408998	497354	910.66	696.39	42	54	-1	13.47	13.47
Saccade L	1	7	4137408998	4137428864	19866	901.36	726.54	875.76	712.65	0.43	29.46	1.00	21.66	415.24	-518.62	329.30
Saccade R	1	7	4137408998	4137428864	19866	901.36	726.54	875.76	712.65	0.43	29.46	1.00	21.66	415.24	-518.62	329.30
Fixation L	1	7	4137428864	4137627735	198871	871.27	716.97	12	68	-1	13.34	13.34
Fixation R	1	7	4137428864	4137627735	198871	871.27	716.97	12	68	-1	13.19	13.19
Saccade L	1	8	4137627735	4137647626	19891	878.84	670.06	939.66	582.83	0.89	107.56	1.00	44.87	2582.58	-2513.90	1717.63
Saccade R	1	8	4137627735	4137647626	19891	878.84	670.06	939.66	582.83	0.89	107.56	1.00	44.87	2582.58	-2513.90	1717.63
Fixation L	1	8	4137647626	4137866366	218740	979.81	591.33	49	37	-1	13.16	13.16
Fixation R	1	8	4137647626	4137866366	218740	979.81	591.33	49	37	-1	12.82	12.82
Saccade L	1	9	4137866366	4137906223	39857	989.06	600.20	1380.54	641.21	3.47	220.49	0.50	87.05	5402.15	-4837.29	4584.47
Saccade R	1	9	4137866366	4137906223	39857	989.06	600.20	1380.54	641.21	3.47	220.49	0.50	87.05	5402.15	-4837.29	4584.47
Fixation L	1	9	4137906223	4138124960	218737	1412.76	663.33	39	33	-1	12.78	12.78
Fixation R	1	9	4137906223	4138124960	218737	1412.76	663.33	39	33	-1	12.40	12.40
Saccade L	1	10	4138124960	4138144838	19878	1414.01	670.71	1547.95	676.90	0.82	135.62	1.00	41.20	3324.50	-3096.51	2324.05
Saccade R	1	10	4138124960	4138144838	19878	1414.01	670.71	1547.95	676.90	0.82	135.62	1.00	41.20	3324.50	-3096.51	2324.05
Fixation L	1	10	4138144838	4138343824	198986	1578.79	678.10	37	16	-1	12.25	12.25
Fixation R	1	10	4138144838	4138343824	198986	1578.79	678.10	37	16	-1	11.79	11.79
Saccade L	1	11	4138343824	4138383569	39745	1585.86	683.18	1580.78	330.79	3.17	231.71	0.50	79.64	5708.06	-5011.21	4083.46
Saccade R	1	11	4138343824	4138383569	39745	1585.86	683.18	1580.78	330.79	3.17	231.71	0.50	79.64	5708.06	-5011.21	4083.46
Fixation L	1	11	4138383569	4138562567	178998	1532.35	312.12	62	31	-1	11.67	11.67
Fixation R	1	11	4138383569	4138562567	178998	1532.35	312.12	62	31	-1	11.19	11.19
Saccade L	1	12	4138562567	4138602311	39744	1518.51	316.10	1115.42	301.44	3.45	271.95	0.50	86.85	6487.33	-6697.84	4899.16
Saccade R	1	12	4138562567	4138602311	39744	1518.51	316.10	1115.42	301.44	3.45	271.95	0.50	86.85	6487.33	-6697.84	4899.16
Fixation L	1	12	4138602311	4138761428	159117	1119.47	300.38	15	10	-1	11.86	11.86
Fixation R	1	12	4138602311	4138761428	159117	1119.47	300.38	15	10	-1	11.10	11.10
Saccade L	1	13	4138761428	4138801173	39745	1126.81	296.08	842.96	264.27	2.46	165.16	0.50	61.91	3850.33	-3974.57	3345.69
Saccade R	1	13	4138761428	4138801173	39745	1126.81	296.08	842.96	264.27	2.46	165.16	0.50	61.91	3850.33	-3974.57	3345.69
Fixation L	1	13	4138801173	4139258656	457483	841.19	242.72	18	30	-1	12.46	12.46
Fixation R	1	13	4138801173	4139258656	457483	841.19	242.72	18	30	-1	12.28	12.28
