[BeGaze]
Converted from:	C:\Documents and Settings\iViewX\Desktop\EXPERIMENTATIONS\Experiments\results\finaleart\S15H25531-finaleart-1.idf
Date:	27.03.2019 15:44:20
Version:	BeGaze 2.5.77
Sample Rate:	50
Subject:	S15H25531
Description:	Mikail Demirdelen

Table Header for Fixations:
Event Type	Trial	Number	Start	End	Duration	Location X	Location Y	Dispersion X	Dispersion Y	Plane	Avg. Pupil Size X	Avg. Pupil Size Y

Table Header for Saccades:
Event Type	Trial	Number	Start	End	Duration	Start Loc.X	Start Loc.Y	End Loc.X	End Loc.Y	Amplitude	Peak Speed	Peak Speed At	Average Speed	Peak Accel.	Peak Decel.	Average Accel.

Table Header for Blinks:
Event Type	Trial	Number	Start	End	Duration

Table Header for User Events:
Event Type	Trial	Number	Start	Description

UserEvent	1	1	3286090002	# Message: REJECTED_landscape_cross_0.jpg
Fixation L	1	1	3286101571	3286658571	557000	936.91	571.12	43	38	-1	14.76	14.76
Fixation R	1	1	3286101571	3286658571	557000	936.91	571.12	43	38	-1	16.00	16.00
Saccade L	1	1	3286658571	3286678425	19854	924.80	574.23	714.01	683.67	1.54	240.13	1.00	77.41	5950.36	-5929.53	4070.09
Saccade R	1	1	3286658571	3286678425	19854	924.80	574.23	714.01	683.67	1.54	240.13	1.00	77.41	5950.36	-5929.53	4070.09
Fixation L	1	2	3286678425	3286936908	258483	709.10	707.96	9	33	-1	13.12	13.12
Fixation R	1	2	3286678425	3286936908	258483	709.10	707.96	9	33	-1	14.44	14.44
Saccade L	1	2	3286936908	3286976778	39870	707.13	717.40	447.89	599.78	2.45	194.57	1.00	61.48	4742.65	-4847.78	3588.13
Saccade R	1	2	3286936908	3286976778	39870	707.13	717.40	447.89	599.78	2.45	194.57	1.00	61.48	4742.65	-4847.78	3588.13
Fixation L	1	3	3286976778	3287295008	318230	456.53	612.08	62	19	-1	12.04	12.04
Fixation R	1	3	3286976778	3287295008	318230	456.53	612.08	62	19	-1	13.36	13.36
Saccade L	1	3	3287295008	3287314887	19879	510.55	616.44	734.93	688.89	1.80	238.39	1.00	90.44	5901.69	-5545.98	3828.27
Saccade R	1	3	3287295008	3287314887	19879	510.55	616.44	734.93	688.89	1.80	238.39	1.00	90.44	5901.69	-5545.98	3828.27
Fixation L	1	4	3287314887	3287513745	198858	722.62	645.55	18	60	-1	11.99	11.99
Fixation R	1	4	3287314887	3287513745	198858	722.62	645.55	18	60	-1	13.29	13.29
Saccade L	1	4	3287513745	3287533628	19883	718.98	644.73	903.21	595.49	1.18	192.83	1.00	59.53	4740.93	-4491.50	3379.24
Saccade R	1	4	3287513745	3287533628	19883	718.98	644.73	903.21	595.49	1.18	192.83	1.00	59.53	4740.93	-4491.50	3379.24
Fixation L	1	5	3287533628	3287831990	298362	895.28	542.39	11	73	-1	12.58	12.58
Fixation R	1	5	3287533628	3287831990	298362	895.28	542.39	11	73	-1	13.86	13.86
Saccade L	1	5	3287831990	3287871733	39743	893.89	522.27	1023.87	697.14	2.02	157.98	0.50	50.76	3877.73	-3502.25	2697.46
Saccade R	1	5	3287831990	3287871733	39743	893.89	522.27	1023.87	697.14	2.02	157.98	0.50	50.76	3877.73	-3502.25	2697.46
Fixation L	1	6	3287871733	3288150223	278490	1035.84	710.33	16	52	-1	13.14	13.14
Fixation R	1	6	3287871733	3288150223	278490	1035.84	710.33	16	52	-1	14.15	14.15
Saccade L	1	6	3288150223	3288170093	19870	1035.19	728.08	910.19	721.27	0.69	126.61	1.00	34.63	3002.00	-3093.25	2065.49
Saccade R	1	6	3288150223	3288170093	19870	1035.19	728.08	910.19	721.27	0.69	126.61	1.00	34.63	3002.00	-3093.25	2065.49
Fixation L	1	7	3288170093	3288846443	676350	919.66	692.73	19	67	-1	13.42	13.42
Fixation R	1	7	3288170093	3288846443	676350	919.66	692.73	19	67	-1	14.82	14.82
Saccade L	1	7	3288846443	3288866315	19872	915.56	663.07	1006.51	659.77	0.52	92.07	1.00	26.27	2176.13	-2213.28	1483.80
Saccade R	1	7	3288846443	3288866315	19872	915.56	663.07	1006.51	659.77	0.52	92.07	1.00	26.27	2176.13	-2213.28	1483.80
Fixation L	1	8	3288866315	3289184540	318225	999.91	651.01	29	34	-1	13.21	13.21
Fixation R	1	8	3288866315	3289184540	318225	999.91	651.01	29	34	-1	14.29	14.29
Saccade L	1	8	3289184540	3289204421	19881	985.96	626.64	916.76	601.76	0.51	74.39	1.00	25.71	1833.21	-1674.53	1194.31
Saccade R	1	8	3289184540	3289204421	19881	985.96	626.64	916.76	601.76	0.51	74.39	1.00	25.71	1833.21	-1674.53	1194.31
Fixation L	1	9	3289204421	3289423164	218743	896.44	589.07	30	21	-1	12.99	12.99
Fixation R	1	9	3289204421	3289423164	218743	896.44	589.07	30	21	-1	13.75	13.75
Saccade L	1	9	3289423164	3289443160	19996	885.90	596.61	775.92	598.83	0.70	111.27	1.00	35.01	2725.47	-2649.08	1855.02
Saccade R	1	9	3289423164	3289443160	19996	885.90	596.61	775.92	598.83	0.70	111.27	1.00	35.01	2725.47	-2649.08	1855.02
Fixation L	1	10	3289443160	3289761388	318228	785.22	610.35	16	30	-1	12.54	12.54
Fixation R	1	10	3289443160	3289761388	318228	785.22	610.35	16	30	-1	13.82	13.82
Saccade L	1	10	3289761388	3289781268	19880	779.07	629.71	789.42	682.28	0.43	54.20	1.00	21.74	1219.49	-887.07	758.50
Saccade R	1	10	3289761388	3289781268	19880	779.07	629.71	789.42	682.28	0.43	54.20	1.00	21.74	1219.49	-887.07	758.50
Fixation L	1	11	3289781268	3289980128	198860	795.77	678.95	14	24	-1	12.74	12.74
Fixation R	1	11	3289781268	3289980128	198860	795.77	678.95	14	24	-1	14.04	14.04
Saccade L	1	11	3289980128	3290079630	99502	802.81	688.01	604.75	799.71	3.66	137.57	0.40	36.78	3357.89	-3204.58	1762.29
Saccade R	1	11	3289980128	3290079630	99502	802.81	688.01	604.75	799.71	3.66	137.57	0.40	36.78	3357.89	-3204.58	1762.29
