[BeGaze]
Converted from:	C:\Documents and Settings\iViewX\Desktop\EXPERIMENTATIONS\Experiments\results\finaleart\S15H25531-finaleart-1.idf
Date:	27.03.2019 15:46:00
Version:	BeGaze 2.5.77
Sample Rate:	50
Subject:	S15H25531
Description:	Mikail Demirdelen

Table Header for Fixations:
Event Type	Trial	Number	Start	End	Duration	Location X	Location Y	Dispersion X	Dispersion Y	Plane	Avg. Pupil Size X	Avg. Pupil Size Y

Table Header for Saccades:
Event Type	Trial	Number	Start	End	Duration	Start Loc.X	Start Loc.Y	End Loc.X	End Loc.Y	Amplitude	Peak Speed	Peak Speed At	Average Speed	Peak Accel.	Peak Decel.	Average Accel.

Table Header for Blinks:
Event Type	Trial	Number	Start	End	Duration

Table Header for User Events:
Event Type	Trial	Number	Start	Description

UserEvent	1	1	4778042482	# Message: void.jpg
Fixation L	1	1	4778059258	4778198671	139413	1028.21	521.89	5	23	-1	10.59	10.59
Fixation R	1	1	4778059258	4778198671	139413	1028.21	521.89	5	23	-1	11.11	11.11
Saccade L	1	1	4778198671	4778218375	19704	1030.90	508.85	888.08	506.07	1.05	144.47	1.00	53.36	3476.13	-3370.63	2748.61
Saccade R	1	1	4778198671	4778218375	19704	1030.90	508.85	888.08	506.07	1.05	144.47	1.00	53.36	3476.13	-3370.63	2748.61
Fixation L	1	2	4778218375	4778556477	338102	814.83	501.34	88	11	-1	9.92	9.92
Fixation R	1	2	4778218375	4778556477	338102	814.83	501.34	88	11	-1	11.61	11.61
Saccade R	1	2	4778556477	4778576477	20000	801.40	508.94	800.64	490.20	4.92	941.15	1.00	245.89	23310.52	-474.36	7963.94
Blink L	1	1	4778576477	4778874878	298401
Blink R	1	1	4778576477	4778874878	298401
Fixation L	1	3	4778874878	4779093579	218701	1730.42	555.71	35	51	-1	10.38	10.38
Fixation R	1	3	4778874878	4779093579	218701	1730.42	555.71	35	51	-1	11.99	11.99
Saccade L	1	2	4779093579	4779113449	19870	1718.55	564.73	1713.45	583.33	0.17	19.51	1.00	8.76	237.35	-196.53	170.80
Saccade R	1	3	4779093579	4779113449	19870	1718.55	564.73	1713.45	583.33	0.17	19.51	1.00	8.76	237.35	-196.53	170.80
Fixation L	1	4	4779113449	4779252703	139254	1701.25	589.57	25	18	-1	11.71	11.71
Fixation R	1	4	4779113449	4779252703	139254	1701.25	589.57	25	18	-1	12.25	12.25
Saccade L	1	3	4779252703	4779312317	59614	1689.15	596.95	1168.63	451.64	5.88	204.43	0.33	98.57	4953.75	-4249.06	3787.11
Saccade R	1	4	4779252703	4779312317	59614	1689.15	596.95	1168.63	451.64	5.88	204.43	0.33	98.57	4953.75	-4249.06	3787.11
Fixation L	1	5	4779312317	4779531179	218862	1189.27	423.00	25	41	-1	11.91	11.91
Fixation R	1	5	4779312317	4779531179	218862	1189.27	423.00	25	41	-1	12.06	12.06
Saccade L	1	4	4779531179	4779590812	59633	1194.59	410.18	724.52	427.34	4.90	242.28	0.67	82.14	5959.81	-5801.23	3817.97
Saccade R	1	5	4779531179	4779590812	59633	1194.59	410.18	724.52	427.34	4.90	242.28	0.67	82.14	5959.81	-5801.23	3817.97
Fixation L	1	6	4779590812	4779988663	397851	726.25	440.67	13	29	-1	11.54	11.54
Fixation R	1	6	4779590812	4779988663	397851	726.25	440.67	13	29	-1	12.42	12.42
Saccade L	1	5	4779988663	4780028408	39745	719.12	446.20	939.91	440.81	2.28	130.92	1.00	57.24	3260.50	0.00	1815.28
Saccade R	1	6	4779988663	4780028408	39745	719.12	446.20	939.91	440.81	2.28	130.92	1.00	57.24	3260.50	0.00	1815.28
