[BeGaze]
Converted from:	C:\Documents and Settings\iViewX\Desktop\EXPERIMENTATIONS\Experiments\results\finaleart\S15H25531-finaleart-1.idf
Date:	27.03.2019 15:45:34
Version:	BeGaze 2.5.77
Sample Rate:	50
Subject:	S15H25531
Description:	Mikail Demirdelen

Table Header for Fixations:
Event Type	Trial	Number	Start	End	Duration	Location X	Location Y	Dispersion X	Dispersion Y	Plane	Avg. Pupil Size X	Avg. Pupil Size Y

Table Header for Saccades:
Event Type	Trial	Number	Start	End	Duration	Start Loc.X	Start Loc.Y	End Loc.X	End Loc.Y	Amplitude	Peak Speed	Peak Speed At	Average Speed	Peak Accel.	Peak Decel.	Average Accel.

Table Header for Blinks:
Event Type	Trial	Number	Start	End	Duration

Table Header for User Events:
Event Type	Trial	Number	Start	Description

UserEvent	1	1	4498701184	# Message: still-life-with-pumpkin-plums-cherries-figs-and-jug-Ribot-1860.jpg
Fixation L	1	1	4498713355	4499131086	417731	877.57	512.56	8	21	-1	14.75	14.75
Fixation R	1	1	4498713355	4499131086	417731	877.57	512.56	8	21	-1	15.54	15.54
Saccade L	1	1	4499131086	4499150957	19871	879.70	517.35	700.89	512.17	1.00	180.91	1.00	50.18	4506.69	-4458.00	3093.80
Saccade R	1	1	4499131086	4499150957	19871	879.70	517.35	700.89	512.17	1.00	180.91	1.00	50.18	4506.69	-4458.00	3093.80
Fixation L	1	2	4499150957	4499369710	218753	712.21	507.35	15	14	-1	14.40	14.40
Fixation R	1	2	4499150957	4499369710	218753	712.21	507.35	15	14	-1	15.35	15.35
Saccade L	1	2	4499369710	4499409568	39858	709.36	502.48	1140.50	613.18	3.70	321.68	0.50	92.82	7952.59	-7865.75	5508.24
Saccade R	1	2	4499369710	4499409568	39858	709.36	502.48	1140.50	613.18	3.70	321.68	0.50	92.82	7952.59	-7865.75	5508.24
Fixation L	1	3	4499409568	4499787420	377852	1134.94	625.76	18	20	-1	14.99	14.99
Fixation R	1	3	4499409568	4499787420	377852	1134.94	625.76	18	20	-1	15.62	15.62
Saccade L	1	3	4499787420	4499827172	39752	1137.75	629.97	792.22	611.91	2.87	221.43	0.50	72.21	5465.66	-5406.11	4240.79
Saccade R	1	3	4499787420	4499827172	39752	1137.75	629.97	792.22	611.91	2.87	221.43	0.50	72.21	5465.66	-5406.11	4240.79
Fixation L	1	4	4499827172	4500065907	238735	779.73	587.46	25	38	-1	14.67	14.67
Fixation R	1	4	4499827172	4500065907	238735	779.73	587.46	25	38	-1	15.31	15.31
Saccade L	1	4	4500065907	4500085790	19883	772.26	574.63	656.46	560.37	0.82	118.01	1.00	41.26	2873.57	-2430.46	2104.49
Saccade R	1	4	4500065907	4500085790	19883	772.26	574.63	656.46	560.37	0.82	118.01	1.00	41.26	2873.57	-2430.46	2104.49
Fixation L	1	5	4500085790	4500384144	298354	677.65	550.52	41	16	-1	15.15	15.15
Fixation R	1	5	4500085790	4500384144	298354	677.65	550.52	41	16	-1	15.55	15.55
Saccade L	1	5	4500384144	4500423894	39750	676.64	551.03	641.55	803.68	2.47	147.92	0.50	62.11	3663.06	-2723.28	3022.86
Saccade R	1	5	4500384144	4500423894	39750	676.64	551.03	641.55	803.68	2.47	147.92	0.50	62.11	3663.06	-2723.28	3022.86
Fixation L	1	6	4500423894	4500682511	258617	610.79	801.65	36	23	-1	15.62	15.62
Fixation R	1	6	4500423894	4500682511	258617	610.79	801.65	36	23	-1	16.70	16.70
Saccade L	1	6	4500682511	4500722256	39745	611.89	810.58	654.79	535.30	3.19	211.91	0.50	80.30	5243.69	-3732.99	3729.05
Saccade R	1	6	4500682511	4500722256	39745	611.89	810.58	654.79	535.30	3.19	211.91	0.50	80.30	5243.69	-3732.99	3729.05
Fixation L	1	7	4500722256	4500901247	178991	706.91	538.21	65	11	-1	15.26	15.26
Fixation R	1	7	4500722256	4500901247	178991	706.91	538.21	65	11	-1	16.63	16.63
Saccade L	1	7	4500901247	4500940998	39751	706.06	541.32	1156.30	675.57	4.14	286.69	0.50	104.12	7025.39	-6307.45	5615.60
Saccade R	1	7	4500901247	4500940998	39751	706.06	541.32	1156.30	675.57	4.14	286.69	0.50	104.12	7025.39	-6307.45	5615.60
Fixation L	1	8	4500940998	4501199616	258618	1144.23	644.25	16	51	-1	15.62	15.62
Fixation R	1	8	4500940998	4501199616	258618	1144.23	644.25	16	51	-1	16.96	16.96
Saccade L	1	8	4501199616	4501219487	19871	1150.15	624.46	1155.51	591.46	0.31	33.82	1.00	15.60	789.56	-535.74	505.19
Saccade R	1	8	4501199616	4501219487	19871	1150.15	624.46	1155.51	591.46	0.31	33.82	1.00	15.60	789.56	-535.74	505.19
Fixation L	1	9	4501219487	4501497971	278484	1169.04	604.64	22	72	-1	15.33	15.33
Fixation R	1	9	4501219487	4501497971	278484	1169.04	604.64	22	72	-1	16.49	16.49
Saccade L	1	9	4501497971	4501517838	19867	1157.80	637.70	1150.43	644.38	0.21	19.69	1.00	10.81	-95.69	-240.60	160.10
Saccade R	1	9	4501497971	4501517838	19867	1157.80	637.70	1150.43	644.38	0.21	19.69	1.00	10.81	-95.69	-240.60	160.10
Fixation L	1	10	4501517838	4501617338	99500	1150.65	645.16	11	9	-1	15.25	15.25
Fixation R	1	10	4501517838	4501617338	99500	1150.65	645.16	11	9	-1	16.32	16.32
Saccade L	1	10	4501617338	4501657089	39751	1146.01	649.83	740.18	543.98	3.64	255.76	1.00	91.52	6368.51	-5543.87	5012.75
Saccade R	1	10	4501617338	4501657089	39751	1146.01	649.83	740.18	543.98	3.64	255.76	1.00	91.52	6368.51	-5543.87	5012.75
Fixation L	1	11	4501657089	4502233939	576850	717.81	531.86	67	31	-1	14.98	14.98
Fixation R	1	11	4501657089	4502233939	576850	717.81	531.86	67	31	-1	15.82	15.82
Saccade L	1	11	4502233939	4502253812	19873	741.01	519.75	740.30	517.78	0.03	2.13	1.00	1.74	19.70	1.53	13.02
Saccade R	1	11	4502233939	4502253812	19873	741.01	519.75	740.30	517.78	0.03	2.13	1.00	1.74	19.70	1.53	13.02
Fixation L	1	12	4502253812	4502691417	437605	743.03	522.32	19	31	-1	15.33	15.33
Fixation R	1	12	4502253812	4502691417	437605	743.03	522.32	19	31	-1	16.23	16.23
