[BeGaze]
Converted from:	C:\Documents and Settings\iViewX\Desktop\EXPERIMENTATIONS\Experiments\results\finaleart\S15H25531-finaleart-1.idf
Date:	27.03.2019 15:45:50
Version:	BeGaze 2.5.77
Sample Rate:	50
Subject:	S15H25531
Description:	Mikail Demirdelen

Table Header for Fixations:
Event Type	Trial	Number	Start	End	Duration	Location X	Location Y	Dispersion X	Dispersion Y	Plane	Avg. Pupil Size X	Avg. Pupil Size Y

Table Header for Saccades:
Event Type	Trial	Number	Start	End	Duration	Start Loc.X	Start Loc.Y	End Loc.X	End Loc.Y	Amplitude	Peak Speed	Peak Speed At	Average Speed	Peak Accel.	Peak Decel.	Average Accel.

Table Header for Blinks:
Event Type	Trial	Number	Start	End	Duration

Table Header for User Events:
Event Type	Trial	Number	Start	Description

UserEvent	1	1	4686578490	# Message: void.jpg
Saccade L	1	1	4686579763	4686599627	19864	972.36	279.50	807.46	281.21	1.17	166.78	1.00	58.98	254.36	-4079.48	1444.61
Saccade R	1	1	4686579763	4686599627	19864	972.36	279.50	807.46	281.21	1.17	166.78	1.00	58.98	254.36	-4079.48	1444.61
Fixation L	1	1	4686599627	4686858240	258613	810.70	301.15	5	28	-1	10.89	10.89
Fixation R	1	1	4686599627	4686858240	258613	810.70	301.15	5	28	-1	11.98	11.98
Saccade L	1	2	4686858240	4686878107	19867	811.08	308.78	1086.07	309.91	1.50	277.98	1.00	75.48	6908.21	-6818.82	4708.39
Saccade R	1	2	4686858240	4686878107	19867	811.08	308.78	1086.07	309.91	1.50	277.98	1.00	75.48	6908.21	-6818.82	4708.39
Fixation L	1	2	4686878107	4687096969	218862	1114.15	328.55	45	51	-1	11.25	11.25
Fixation R	1	2	4686878107	4687096969	218862	1114.15	328.55	45	51	-1	12.57	12.57
Blink L	1	1	4687096969	4687614070	517101
Blink R	1	1	4687096969	4687614070	517101
Fixation L	1	3	4687614070	4688091432	477362	934.88	425.76	14	76	-1	12.71	12.71
Fixation R	1	3	4687614070	4688091432	477362	934.88	425.76	14	76	-1	12.99	12.99
Saccade L	1	3	4688091432	4688131202	39770	934.93	443.76	718.93	445.76	2.05	133.59	1.00	51.46	3268.83	-2911.31	2382.93
Saccade R	1	3	4688091432	4688131202	39770	934.93	443.76	718.93	445.76	2.05	133.59	1.00	51.46	3268.83	-2911.31	2382.93
Fixation L	1	4	4688131202	4688389794	258592	665.72	447.51	65	17	-1	12.28	12.28
Fixation R	1	4	4688131202	4688389794	258592	665.72	447.51	65	17	-1	12.91	12.91
Saccade L	1	4	4688389794	4688409670	19876	653.70	458.83	660.42	486.67	0.26	28.97	1.00	13.19	528.42	-565.86	435.72
Saccade R	1	4	4688389794	4688409670	19876	653.70	458.83	660.42	486.67	0.26	28.97	1.00	13.19	528.42	-565.86	435.72
Fixation L	1	5	4688409670	4688548898	139228	664.40	489.14	10	47	-1	12.15	12.15
Fixation R	1	5	4688409670	4688548898	139228	664.40	489.14	10	47	-1	13.20	13.20
Saccade L	1	5	4688548898	4688568781	19883	660.45	521.68	669.26	594.44	0.69	74.14	1.00	34.94	1479.22	0.00	739.61
Saccade R	1	5	4688548898	4688568781	19883	660.45	521.68	669.26	594.44	0.69	74.14	1.00	34.94	1479.22	0.00	739.61
