[BeGaze]
Converted from:	C:\Documents and Settings\iViewX\Desktop\EXPERIMENTATIONS\Experiments\results\finaleart\S15H25531-finaleart-1.idf
Date:	27.03.2019 15:45:38
Version:	BeGaze 2.5.77
Sample Rate:	50
Subject:	S15H25531
Description:	Mikail Demirdelen

Table Header for Fixations:
Event Type	Trial	Number	Start	End	Duration	Location X	Location Y	Dispersion X	Dispersion Y	Plane	Avg. Pupil Size X	Avg. Pupil Size Y

Table Header for Saccades:
Event Type	Trial	Number	Start	End	Duration	Start Loc.X	Start Loc.Y	End Loc.X	End Loc.Y	Amplitude	Peak Speed	Peak Speed At	Average Speed	Peak Accel.	Peak Decel.	Average Accel.

Table Header for Blinks:
Event Type	Trial	Number	Start	End	Duration

Table Header for User Events:
Event Type	Trial	Number	Start	Description

UserEvent	1	1	4529198347	# Message: woman-at-her-toilette_degas_1877.jpg
Saccade L	1	1	4529204779	4529284396	79617	826.76	490.63	927.52	493.43	1.88	67.27	0.50	23.64	1681.70	-837.97	559.67
Saccade R	1	1	4529204779	4529284396	79617	826.76	490.63	927.52	493.43	1.88	67.27	0.50	23.64	1681.70	-837.97	559.67
Fixation L	1	1	4529284396	4529642434	358038	976.70	512.18	58	35	-1	12.85	12.85
Fixation R	1	1	4529284396	4529642434	358038	976.70	512.18	58	35	-1	14.14	14.14
Saccade L	1	2	4529642434	4529662262	19828	982.64	496.24	1061.63	343.57	1.06	173.84	1.00	53.69	4294.92	-3634.84	2645.35
Saccade R	1	2	4529642434	4529662262	19828	982.64	496.24	1061.63	343.57	1.06	173.84	1.00	53.69	4294.92	-3634.84	2645.35
Fixation L	1	2	4529662262	4529960610	298348	1075.74	331.97	67	31	-1	12.56	12.56
Fixation R	1	2	4529662262	4529960610	298348	1075.74	331.97	67	31	-1	13.44	13.44
Saccade L	1	3	4529960610	4529980491	19881	1109.26	311.65	1131.09	305.79	0.39	47.19	1.00	19.49	-60.30	-608.23	391.97
Saccade R	1	3	4529960610	4529980491	19881	1109.26	311.65	1131.09	305.79	0.39	47.19	1.00	19.49	-60.30	-608.23	391.97
Fixation L	1	3	4529980491	4530199354	218863	1134.68	295.31	9	18	-1	11.96	11.96
Fixation R	1	3	4529980491	4530199354	218863	1134.68	295.31	9	18	-1	12.90	12.90
Saccade L	1	4	4530199354	4530239100	39746	1135.71	293.64	1135.91	568.63	2.40	179.76	1.00	60.40	4336.88	-4284.05	3274.79
Saccade R	1	4	4530199354	4530239100	39746	1135.71	293.64	1135.91	568.63	2.40	179.76	1.00	60.40	4336.88	-4284.05	3274.79
Fixation L	1	4	4530239100	4530517578	278478	1131.79	599.12	6	39	-1	11.73	11.73
Fixation R	1	4	4530239100	4530517578	278478	1131.79	599.12	6	39	-1	12.77	12.77
Saccade L	1	5	4530517578	4530557326	39748	1134.98	606.69	1188.88	839.75	2.39	188.52	0.50	60.00	4660.58	-3994.56	3104.31
Saccade R	1	5	4530517578	4530557326	39748	1134.98	606.69	1188.88	839.75	2.39	188.52	0.50	60.00	4660.58	-3994.56	3104.31
Fixation L	1	5	4530557326	4530736323	178997	1211.77	839.59	28	3	-1	12.10	12.10
Fixation R	1	5	4530557326	4530736323	178997	1211.77	839.59	28	3	-1	13.11	13.11
Saccade L	1	6	4530736323	4530756195	19872	1216.09	839.82	1118.01	933.10	0.90	136.90	1.00	45.37	3387.76	-2879.43	2420.35
Saccade R	1	6	4530736323	4530756195	19872	1216.09	839.82	1118.01	933.10	0.90	136.90	1.00	45.37	3387.76	-2879.43	2420.35
Fixation L	1	6	4530756195	4531193804	437609	1130.32	907.16	14	38	-1	12.90	12.90
Fixation R	1	6	4530756195	4531193804	437609	1130.32	907.16	14	38	-1	13.58	13.58
Saccade L	1	7	4531193804	4531213678	19874	1131.86	912.45	1138.17	1005.04	0.58	93.88	1.00	29.16	2296.81	-2229.56	1602.51
Saccade R	1	7	4531193804	4531213678	19874	1131.86	912.45	1138.17	1005.04	0.58	93.88	1.00	29.16	2296.81	-2229.56	1602.51
Fixation L	1	7	4531213678	4531631407	417729	1147.55	1047.39	18	67	-1	13.28	13.28
Fixation R	1	7	4531213678	4531631407	417729	1147.55	1047.39	18	67	-1	14.34	14.34
Saccade L	1	8	4531631407	4531691031	59624	1142.86	1072.29	509.02	839.56	7.19	301.66	0.67	120.54	7482.94	-7061.73	5559.48
Saccade R	1	8	4531631407	4531691031	59624	1142.86	1072.29	509.02	839.56	7.19	301.66	0.67	120.54	7482.94	-7061.73	5559.48
Fixation L	1	8	4531691031	4531810393	119362	508.19	866.87	20	44	-1	13.27	13.27
Fixation R	1	8	4531691031	4531810393	119362	508.19	866.87	20	44	-1	14.50	14.50
Saccade L	1	9	4531810393	4531850147	39754	517.61	880.74	477.72	570.28	3.30	164.89	0.50	83.11	3837.18	-3462.50	3264.53
Saccade R	1	9	4531810393	4531850147	39754	517.61	880.74	477.72	570.28	3.30	164.89	0.50	83.11	3837.18	-3462.50	3264.53
Fixation L	1	9	4531850147	4532029261	179114	469.36	517.96	16	80	-1	13.07	13.07
Fixation R	1	9	4531850147	4532029261	179114	469.36	517.96	16	80	-1	14.29	14.29
Saccade L	1	10	4532029261	4532108762	79501	460.74	525.93	1281.72	458.93	9.81	400.34	0.50	123.34	9990.57	-9360.47	5716.75
Saccade R	1	10	4532029261	4532108762	79501	460.74	525.93	1281.72	458.93	9.81	400.34	0.50	123.34	9990.57	-9360.47	5716.75
Fixation L	1	10	4532108762	4532267888	159126	1309.44	420.76	40	55	-1	12.90	12.90
Fixation R	1	10	4532108762	4532267888	159126	1309.44	420.76	40	55	-1	14.04	14.04
Saccade L	1	11	4532267888	4532287748	19860	1319.63	410.60	1324.40	398.01	0.15	13.61	1.00	7.33	305.18	-120.77	159.06
Saccade R	1	11	4532267888	4532287748	19860	1319.63	410.60	1324.40	398.01	0.15	13.61	1.00	7.33	305.18	-120.77	159.06
Fixation L	1	11	4532287748	4532407114	119366	1334.87	397.15	46	20	-1	12.97	12.97
Fixation R	1	11	4532287748	4532407114	119366	1334.87	397.15	46	20	-1	14.11	14.11
Saccade L	1	12	4532407114	4532426998	19884	1369.25	384.94	1391.65	355.16	0.43	37.71	1.00	21.60	547.39	-766.35	656.78
Saccade R	1	12	4532407114	4532426998	19884	1369.25	384.94	1391.65	355.16	0.43	37.71	1.00	21.60	547.39	-766.35	656.78
Fixation L	1	12	4532426998	4532625853	198855	1399.46	354.79	14	16	-1	13.13	13.13
Fixation R	1	12	4532426998	4532625853	198855	1399.46	354.79	14	16	-1	14.31	14.31
Saccade L	1	13	4532625853	4532665729	39876	1405.62	361.53	1333.41	376.46	2.42	151.67	0.50	60.59	3602.50	-2262.66	2456.99
Saccade R	1	13	4532625853	4532665729	39876	1405.62	361.53	1333.41	376.46	2.42	151.67	0.50	60.59	3602.50	-2262.66	2456.99
Fixation L	1	13	4532665729	4532884469	218740	1293.14	404.69	47	37	-1	13.49	13.49
Fixation R	1	13	4532665729	4532884469	218740	1293.14	404.69	47	37	-1	14.57	14.57
Saccade L	1	14	4532884469	4532904337	19868	1291.58	407.42	1098.72	425.00	1.22	195.84	1.00	61.25	4812.57	-4741.30	3541.62
Saccade R	1	14	4532884469	4532904337	19868	1291.58	407.42	1098.72	425.00	1.22	195.84	1.00	61.25	4812.57	-4741.30	3541.62
Fixation L	1	14	4532904337	4533182849	278512	1139.46	407.52	48	35	-1	14.08	14.08
Fixation R	1	14	4532904337	4533182849	278512	1139.46	407.52	48	35	-1	15.12	15.12
