[BeGaze]
Converted from:	C:\Documents and Settings\iViewX\Desktop\EXPERIMENTATIONS\Experiments\results\finaleart\S15H25531-finaleart-1.idf
Date:	27.03.2019 15:45:30
Version:	BeGaze 2.5.77
Sample Rate:	50
Subject:	S15H25531
Description:	Mikail Demirdelen

Table Header for Fixations:
Event Type	Trial	Number	Start	End	Duration	Location X	Location Y	Dispersion X	Dispersion Y	Plane	Avg. Pupil Size X	Avg. Pupil Size Y

Table Header for Saccades:
Event Type	Trial	Number	Start	End	Duration	Start Loc.X	Start Loc.Y	End Loc.X	End Loc.Y	Amplitude	Peak Speed	Peak Speed At	Average Speed	Peak Accel.	Peak Decel.	Average Accel.

Table Header for Blinks:
Event Type	Trial	Number	Start	End	Duration

Table Header for User Events:
Event Type	Trial	Number	Start	Description

UserEvent	1	1	4365753905	# Message: void.jpg
Saccade L	1	1	4365759983	4365819595	59612	598.25	402.65	655.63	126.03	3.88	195.92	0.67	65.15	4898.12	-4263.75	2548.92
Saccade R	1	1	4365759983	4365819595	59612	598.25	402.65	655.63	126.03	3.88	195.92	0.67	65.15	4898.12	-4263.75	2548.92
Fixation L	1	1	4365819595	4365978820	159225	699.06	139.27	57	36	-1	12.01	12.01
Fixation R	1	1	4365819595	4365978820	159225	699.06	139.27	57	36	-1	13.52	13.52
Saccade L	1	2	4365978820	4366078181	99361	709.26	158.23	1021.51	175.93	4.36	213.20	1.00	43.85	5272.60	-5137.56	2149.70
Saccade R	1	2	4365978820	4366078181	99361	709.26	158.23	1021.51	175.93	4.36	213.20	1.00	43.85	5272.60	-5137.56	2149.70
Fixation L	1	2	4366078181	4366237314	159133	1014.98	179.99	9	18	-1	12.80	12.80
Fixation R	1	2	4366078181	4366237314	159133	1014.98	179.99	9	18	-1	14.04	14.04
Blink L	1	1	4366237314	4366515796	278482
Blink R	1	1	4366237314	4366515796	278482
Fixation L	1	3	4366515796	4367132390	616594	966.21	602.99	22	74	-1	13.45	13.45
Fixation R	1	3	4366515796	4367132390	616594	966.21	602.99	22	74	-1	14.80	14.80
Saccade L	1	3	4367132390	4367152268	19878	967.85	612.36	969.73	630.84	0.18	18.80	1.00	9.26	371.41	-218.62	204.71
Saccade R	1	3	4367132390	4367152268	19878	967.85	612.36	969.73	630.84	0.18	18.80	1.00	9.26	371.41	-218.62	204.71
Fixation L	1	4	4367152268	4367748998	596730	966.82	611.49	12	35	-1	12.71	12.71
Fixation R	1	4	4367152268	4367748998	596730	966.82	611.49	12	35	-1	14.15	14.15
