[BeGaze]
Converted from:	C:\Documents and Settings\iViewX\Desktop\EXPERIMENTATIONS\Experiments\results\finaleart\S15H25531-finaleart-1.idf
Date:	27.03.2019 15:45:52
Version:	BeGaze 2.5.77
Sample Rate:	50
Subject:	S15H25531
Description:	Mikail Demirdelen

Table Header for Fixations:
Event Type	Trial	Number	Start	End	Duration	Location X	Location Y	Dispersion X	Dispersion Y	Plane	Avg. Pupil Size X	Avg. Pupil Size Y

Table Header for Saccades:
Event Type	Trial	Number	Start	End	Duration	Start Loc.X	Start Loc.Y	End Loc.X	End Loc.Y	Amplitude	Peak Speed	Peak Speed At	Average Speed	Peak Accel.	Peak Decel.	Average Accel.

Table Header for Blinks:
Event Type	Trial	Number	Start	End	Duration

Table Header for User Events:
Event Type	Trial	Number	Start	Description

UserEvent	1	1	4698803777	# Message: void.jpg
Fixation L	1	1	4698812167	4699150276	338109	676.25	226.98	62	28	-1	11.82	11.82
Fixation R	1	1	4698812167	4699150276	338109	676.25	226.98	62	28	-1	13.43	13.43
Saccade L	1	1	4699150276	4699170150	19874	646.70	241.77	630.42	253.84	0.34	21.86	0.00	17.18	189.53	-210.14	165.43
Saccade R	1	1	4699150276	4699170150	19874	646.70	241.77	630.42	253.84	0.34	21.86	0.00	17.18	189.53	-210.14	165.43
Fixation L	1	2	4699170150	4699349134	178984	628.63	267.89	16	35	-1	12.59	12.59
Fixation R	1	2	4699170150	4699349134	178984	628.63	267.89	16	35	-1	14.39	14.39
Blink L	1	1	4699349134	4699448643	99509
Blink R	1	1	4699349134	4699667377	318243
Blink L	1	2	4699468515	4699667377	198862
Fixation L	1	3	4699667377	4700025480	358103	1374.39	506.74	43	41	-1	14.11	14.11
Fixation R	1	3	4699667377	4700025480	358103	1374.39	506.74	43	41	-1	14.55	14.55
Saccade L	1	2	4700025480	4700065233	39753	1355.93	509.95	978.27	516.06	3.40	257.24	0.50	85.53	6315.21	-5767.73	4424.17
Saccade R	1	2	4700025480	4700065233	39753	1355.93	509.95	978.27	516.06	3.40	257.24	0.50	85.53	6315.21	-5767.73	4424.17
Fixation L	1	4	4700065233	4700303841	238608	1010.18	509.48	39	17	-1	13.66	13.66
Fixation R	1	4	4700065233	4700303841	238608	1010.18	509.48	39	17	-1	14.34	14.34
Saccade L	1	3	4700303841	4700323845	20004	1012.98	503.74	877.83	499.41	0.78	136.77	1.00	39.04	3295.14	-3253.49	2227.11
Saccade R	1	3	4700303841	4700323845	20004	1012.98	503.74	877.83	499.41	0.78	136.77	1.00	39.04	3295.14	-3253.49	2227.11
Fixation L	1	5	4700323845	4700562459	238614	861.19	464.10	29	69	-1	13.23	13.23
Fixation R	1	5	4700323845	4700562459	238614	861.19	464.10	29	69	-1	14.05	14.05
Saccade L	1	4	4700562459	4700582328	19869	850.39	430.26	849.03	426.29	0.17	18.33	0.00	8.77	379.00	-160.37	210.38
Saccade R	1	4	4700562459	4700582328	19869	850.39	430.26	849.03	426.29	0.17	18.33	0.00	8.77	379.00	-160.37	210.38
Fixation L	1	6	4700582328	4700801210	218882	848.63	418.80	2	27	-1	13.21	13.21
Fixation R	1	6	4700582328	4700801210	218882	848.63	418.80	2	27	-1	14.13	14.13
