[BeGaze]
Converted from:	C:\Documents and Settings\iViewX\Desktop\EXPERIMENTATIONS\Experiments\results\finaleart\S15H25531-finaleart-1.idf
Date:	27.03.2019 15:45:38
Version:	BeGaze 2.5.77
Sample Rate:	50
Subject:	S15H25531
Description:	Mikail Demirdelen

Table Header for Fixations:
Event Type	Trial	Number	Start	End	Duration	Location X	Location Y	Dispersion X	Dispersion Y	Plane	Avg. Pupil Size X	Avg. Pupil Size Y

Table Header for Saccades:
Event Type	Trial	Number	Start	End	Duration	Start Loc.X	Start Loc.Y	End Loc.X	End Loc.Y	Amplitude	Peak Speed	Peak Speed At	Average Speed	Peak Accel.	Peak Decel.	Average Accel.

Table Header for Blinks:
Event Type	Trial	Number	Start	End	Duration

Table Header for User Events:
Event Type	Trial	Number	Start	Description

UserEvent	1	1	4533274711	# Message: void.jpg
Fixation L	1	1	4533282342	4533461316	178974	1110.20	407.26	19	17	-1	13.81	13.81
Fixation R	1	1	4533282342	4533461316	178974	1110.20	407.26	19	17	-1	15.28	15.28
Saccade L	1	1	4533461316	4533481189	19873	1103.23	404.07	1096.66	298.56	0.62	106.93	1.00	31.44	2591.35	-2572.47	1743.01
Saccade R	1	1	4533461316	4533481189	19873	1103.23	404.07	1096.66	298.56	0.62	106.93	1.00	31.44	2591.35	-2572.47	1743.01
Fixation L	1	2	4533481189	4533759678	278489	1085.61	295.48	26	14	-1	13.52	13.52
Fixation R	1	2	4533481189	4533759678	278489	1085.61	295.48	26	14	-1	14.92	14.92
Blink L	1	1	4533759678	4533899020	139342
Blink R	1	1	4533759678	4534177282	417604
Blink L	1	2	4533918804	4534177282	258478
Fixation L	1	3	4534177282	4534356268	178986	681.90	332.86	17	15	-1	13.61	13.61
Fixation R	1	3	4534177282	4534356268	178986	681.90	332.86	17	15	-1	13.98	13.98
Saccade L	1	2	4534356268	4534376277	20009	683.72	335.69	459.96	334.30	1.43	226.24	1.00	71.72	5597.89	-5409.40	4092.32
Saccade R	1	2	4534356268	4534376277	20009	683.72	335.69	459.96	334.30	1.43	226.24	1.00	71.72	5597.89	-5409.40	4092.32
Fixation L	1	4	4534376277	4534515512	139235	414.13	358.60	64	31	-1	13.43	13.43
Fixation R	1	4	4534376277	4534515512	139235	414.13	358.60	64	31	-1	14.17	14.17
Saccade L	1	3	4534515512	4534535386	19874	395.68	365.87	398.64	372.01	0.10	8.28	1.00	5.19	-19.33	-51.31	35.10
Saccade R	1	3	4534515512	4534535386	19874	395.68	365.87	398.64	372.01	0.10	8.28	1.00	5.19	-19.33	-51.31	35.10
Fixation L	1	5	4534535386	4534714386	179000	404.59	375.68	11	13	-1	12.80	12.80
Fixation R	1	5	4534535386	4534714386	179000	404.59	375.68	11	13	-1	13.63	13.63
Saccade L	1	4	4534714386	4534774002	59616	405.87	385.01	725.47	394.38	3.87	217.79	0.33	64.94	5406.16	-3932.09	2377.45
Saccade R	1	4	4534714386	4534774002	59616	405.87	385.01	725.47	394.38	3.87	217.79	0.33	64.94	5406.16	-3932.09	2377.45
Fixation L	1	6	4534774002	4535271241	497239	774.14	374.74	56	31	-1	12.65	12.65
Fixation R	1	6	4534774002	4535271241	497239	774.14	374.74	56	31	-1	13.50	13.50
