[BeGaze]
Converted from:	C:\Documents and Settings\iViewX\Desktop\EXPERIMENTATIONS\Experiments\results\finaleart\S15H25531-finaleart-1.idf
Date:	27.03.2019 15:45:11
Version:	BeGaze 2.5.77
Sample Rate:	50
Subject:	S15H25531
Description:	Mikail Demirdelen

Table Header for Fixations:
Event Type	Trial	Number	Start	End	Duration	Location X	Location Y	Dispersion X	Dispersion Y	Plane	Avg. Pupil Size X	Avg. Pupil Size Y

Table Header for Saccades:
Event Type	Trial	Number	Start	End	Duration	Start Loc.X	Start Loc.Y	End Loc.X	End Loc.Y	Amplitude	Peak Speed	Peak Speed At	Average Speed	Peak Accel.	Peak Decel.	Average Accel.

Table Header for Blinks:
Event Type	Trial	Number	Start	End	Duration

Table Header for User Events:
Event Type	Trial	Number	Start	Description

UserEvent	1	1	4127083862	# Message: void.jpg
Fixation L	1	1	4127086009	4127324715	238706	960.56	478.54	2	7	-1	16.73	16.73
Fixation R	1	1	4127086009	4127324715	238706	960.56	478.54	2	7	-1	18.91	18.91
Saccade L	1	1	4127324715	4127344602	19887	960.40	476.00	1013.87	602.42	0.95	138.83	1.00	47.63	3434.73	-2938.38	2495.26
Saccade R	1	1	4127324715	4127344602	19887	960.40	476.00	1013.87	602.42	0.95	138.83	1.00	47.63	3434.73	-2938.38	2495.26
Fixation L	1	2	4127344602	4127722470	377868	1007.76	575.66	51	44	-1	16.58	16.58
Fixation R	1	2	4127344602	4127722470	377868	1007.76	575.66	51	44	-1	18.70	18.70
Saccade L	1	2	4127722470	4127742326	19856	1020.65	557.43	1022.73	551.92	0.09	5.96	1.00	4.46	66.90	-27.58	40.86
Saccade R	1	2	4127722470	4127742326	19856	1020.65	557.43	1022.73	551.92	0.09	5.96	1.00	4.46	66.90	-27.58	40.86
Fixation L	1	3	4127742326	4128617540	875214	1021.28	555.52	15	27	-1	13.72	13.72
Fixation R	1	3	4127742326	4128617540	875214	1021.28	555.52	15	27	-1	16.11	16.11
Saccade L	1	3	4128617540	4128657288	39748	1012.69	554.51	795.42	518.44	2.14	186.56	0.50	53.88	4596.18	-4081.76	2603.22
Saccade R	1	3	4128617540	4128657288	39748	1012.69	554.51	795.42	518.44	2.14	186.56	0.50	53.88	4596.18	-4081.76	2603.22
Fixation L	1	4	4128657288	4128935768	278480	781.05	494.14	28	37	-1	14.11	14.11
Fixation R	1	4	4128657288	4128935768	278480	781.05	494.14	28	37	-1	16.61	16.61
Saccade L	1	4	4128935768	4128955648	19880	784.04	492.13	905.13	497.67	0.84	122.60	1.00	42.05	2910.94	-2659.66	2001.37
Saccade R	1	4	4128935768	4128955648	19880	784.04	492.13	905.13	497.67	0.84	122.60	1.00	42.05	2910.94	-2659.66	2001.37
Fixation L	1	5	4128955648	4129075028	119380	898.28	481.24	27	39	-1	14.61	14.61
Fixation R	1	5	4128955648	4129075028	119380	898.28	481.24	27	39	-1	17.19	17.19
