[BeGaze]
Converted from:	C:\Documents and Settings\iViewX\Desktop\EXPERIMENTATIONS\Experiments\results\finaleart\S15H25531-finaleart-1.idf
Date:	27.03.2019 15:45:49
Version:	BeGaze 2.5.77
Sample Rate:	50
Subject:	S15H25531
Description:	Mikail Demirdelen

Table Header for Fixations:
Event Type	Trial	Number	Start	End	Duration	Location X	Location Y	Dispersion X	Dispersion Y	Plane	Avg. Pupil Size X	Avg. Pupil Size Y

Table Header for Saccades:
Event Type	Trial	Number	Start	End	Duration	Start Loc.X	Start Loc.Y	End Loc.X	End Loc.Y	Amplitude	Peak Speed	Peak Speed At	Average Speed	Peak Accel.	Peak Decel.	Average Accel.

Table Header for Blinks:
Event Type	Trial	Number	Start	End	Duration

Table Header for User Events:
Event Type	Trial	Number	Start	Description

UserEvent	1	1	4676434583	# Message: venice_from_porche_of_madonna_turner_1835.jpg
Fixation L	1	1	4676435869	4676853613	417744	952.21	560.60	12	31	-1	14.98	14.98
Fixation R	1	1	4676435869	4676853613	417744	952.21	560.60	12	31	-1	16.45	16.45
Saccade L	1	1	4676853613	4676873473	19860	954.24	581.55	940.48	718.02	0.76	138.74	1.00	38.08	3292.41	-3072.99	2131.64
Saccade R	1	1	4676853613	4676873473	19860	954.24	581.55	940.48	718.02	0.76	138.74	1.00	38.08	3292.41	-3072.99	2131.64
Fixation L	1	2	4676873473	4677132079	258606	916.89	727.61	56	36	-1	13.91	13.91
Fixation R	1	2	4676873473	4677132079	258606	916.89	727.61	56	36	-1	15.36	15.36
Saccade L	1	2	4677132079	4677151949	19870	886.25	753.81	870.23	769.23	0.38	23.02	0.00	19.00	143.25	-251.48	209.05
Saccade R	1	2	4677132079	4677151949	19870	886.25	753.81	870.23	769.23	0.38	23.02	0.00	19.00	143.25	-251.48	209.05
Fixation L	1	3	4677151949	4677330937	178988	860.93	778.54	23	29	-1	11.58	11.58
Fixation R	1	3	4677151949	4677330937	178988	860.93	778.54	23	29	-1	12.78	12.78
Saccade L	1	3	4677330937	4677370686	39749	850.58	782.33	1181.07	784.89	2.90	214.96	1.00	72.88	5168.40	-5273.16	4050.49
Saccade R	1	3	4677330937	4677370686	39749	850.58	782.33	1181.07	784.89	2.90	214.96	1.00	72.88	5168.40	-5273.16	4050.49
Fixation L	1	4	4677370686	4677848042	477356	1201.65	784.44	34	17	-1	10.68	10.68
Fixation R	1	4	4677370686	4677848042	477356	1201.65	784.44	34	17	-1	11.56	11.56
Blink L	1	1	4677848042	4678086781	238739
Blink R	1	1	4677848042	4678086781	238739
Fixation L	1	5	4678086781	4678265779	178998	911.56	758.89	54	44	-1	11.56	11.56
Fixation R	1	5	4678086781	4678265779	178998	911.56	758.89	54	44	-1	12.85	12.85
Saccade L	1	4	4678265779	4678285645	19866	876.66	785.17	869.96	780.70	0.27	20.58	1.00	13.77	-83.47	-310.71	232.48
Saccade R	1	4	4678265779	4678285645	19866	876.66	785.17	869.96	780.70	0.27	20.58	1.00	13.77	-83.47	-310.71	232.48
Fixation L	1	6	4678285645	4678643634	357989	849.49	789.44	30	21	-1	11.30	11.30
Fixation R	1	6	4678285645	4678643634	357989	849.49	789.44	30	21	-1	12.73	12.73
Saccade L	1	5	4678643634	4678663505	19871	840.72	778.66	1018.82	782.32	1.27	180.15	1.00	63.74	4449.02	-4455.79	3519.83
Saccade R	1	5	4678643634	4678663505	19871	840.72	778.66	1018.82	782.32	1.27	180.15	1.00	63.74	4449.02	-4455.79	3519.83
Fixation L	1	7	4678663505	4678822624	159119	1075.40	760.45	67	32	-1	10.81	10.81
Fixation R	1	7	4678663505	4678822624	159119	1075.40	760.45	67	32	-1	11.99	11.99
Saccade L	1	6	4678822624	4678902243	79619	1081.97	750.06	1231.97	741.71	1.90	86.96	1.00	23.88	2120.16	-1871.85	1170.81
Saccade R	1	6	4678822624	4678902243	79619	1081.97	750.06	1231.97	741.71	1.90	86.96	1.00	23.88	2120.16	-1871.85	1170.81
Fixation L	1	8	4678902243	4679160851	258608	1224.55	736.18	65	31	-1	10.72	10.72
Fixation R	1	8	4678902243	4679160851	258608	1224.55	736.18	65	31	-1	11.74	11.74
Saccade L	1	7	4679160851	4679180731	19880	1170.67	756.71	1163.87	755.04	0.30	29.65	1.00	14.93	-52.12	-564.36	321.89
Saccade R	1	7	4679160851	4679180731	19880	1170.67	756.71	1163.87	755.04	0.30	29.65	1.00	14.93	-52.12	-564.36	321.89
Fixation L	1	9	4679180731	4679518838	338107	1156.06	771.95	16	37	-1	11.29	11.29
Fixation R	1	9	4679180731	4679518838	338107	1156.06	771.95	16	37	-1	11.95	11.95
Saccade L	1	8	4679518838	4679558587	39749	1149.05	780.34	797.72	781.59	3.09	227.28	0.50	77.71	5358.54	-5409.83	4220.16
Saccade R	1	8	4679518838	4679558587	39749	1149.05	780.34	797.72	781.59	3.09	227.28	0.50	77.71	5358.54	-5409.83	4220.16
Fixation L	1	10	4679558587	4679777453	218866	800.33	786.33	15	14	-1	11.68	11.68
Fixation R	1	10	4679558587	4679777453	218866	800.33	786.33	15	14	-1	12.70	12.70
Saccade L	1	9	4679777453	4679817195	39742	791.57	781.84	533.75	795.98	2.20	172.42	1.00	55.39	4199.82	-4173.08	3141.29
Saccade R	1	9	4679777453	4679817195	39742	791.57	781.84	533.75	795.98	2.20	172.42	1.00	55.39	4199.82	-4173.08	3141.29
Fixation L	1	11	4679817195	4680095688	278493	523.18	809.29	60	38	-1	11.71	11.71
Fixation R	1	11	4679817195	4680095688	278493	523.18	809.29	60	38	-1	13.06	13.06
Saccade L	1	10	4680095688	4680115556	19868	487.00	828.04	492.31	837.89	0.42	43.49	1.00	21.20	237.59	-804.44	368.88
Saccade R	1	10	4680095688	4680115556	19868	487.00	828.04	492.31	837.89	0.42	43.49	1.00	21.20	237.59	-804.44	368.88
Fixation L	1	12	4680115556	4680393921	278365	489.31	851.99	35	23	-1	11.70	11.70
Fixation R	1	12	4680115556	4680393921	278365	489.31	851.99	35	23	-1	13.38	13.38
Saccade L	1	11	4680393921	4680433798	39877	512.17	842.23	715.75	784.94	2.70	215.60	0.50	67.62	5296.99	0.00	1776.23
Saccade R	1	11	4680393921	4680433798	39877	512.17	842.23	715.75	784.94	2.70	215.60	0.50	67.62	5296.99	0.00	1776.23
