[BeGaze]
Converted from:	C:\Documents and Settings\iViewX\Desktop\EXPERIMENTATIONS\Experiments\results\finaleart\S15H25531-finaleart-1.idf
Date:	27.03.2019 15:45:50
Version:	BeGaze 2.5.77
Sample Rate:	50
Subject:	S15H25531
Description:	Mikail Demirdelen

Table Header for Fixations:
Event Type	Trial	Number	Start	End	Duration	Location X	Location Y	Dispersion X	Dispersion Y	Plane	Avg. Pupil Size X	Avg. Pupil Size Y

Table Header for Saccades:
Event Type	Trial	Number	Start	End	Duration	Start Loc.X	Start Loc.Y	End Loc.X	End Loc.Y	Amplitude	Peak Speed	Peak Speed At	Average Speed	Peak Accel.	Peak Decel.	Average Accel.

Table Header for Blinks:
Event Type	Trial	Number	Start	End	Duration

Table Header for User Events:
Event Type	Trial	Number	Start	Description

UserEvent	1	1	4682528151	# Message: Sailboats_On_The_River_Sheldt_van_Rysselberghe_1892.jpg
Fixation L	1	1	4682542071	4683079174	537103	964.62	527.73	10	38	-1	13.72	13.72
Fixation R	1	1	4682542071	4683079174	537103	964.62	527.73	10	38	-1	14.93	14.93
Saccade L	1	1	4683079174	4683099038	19864	972.76	509.03	1124.36	373.33	1.45	205.74	1.00	72.95	5129.12	-4723.55	3357.89
Saccade R	1	1	4683079174	4683099038	19864	972.76	509.03	1124.36	373.33	1.45	205.74	1.00	72.95	5129.12	-4723.55	3357.89
Fixation L	1	2	4683099038	4683198531	99493	1157.80	333.60	46	52	-1	12.25	12.25
Fixation R	1	2	4683099038	4683198531	99493	1157.80	333.60	46	52	-1	13.28	13.28
Saccade L	1	2	4683198531	4683218399	19868	1170.95	323.35	1169.21	317.05	0.09	6.61	1.00	4.35	99.97	-3.91	37.70
Saccade R	1	2	4683198531	4683218399	19868	1170.95	323.35	1169.21	317.05	0.09	6.61	1.00	4.35	99.97	-3.91	37.70
Fixation L	1	3	4683218399	4683357660	139261	1171.88	315.38	5	9	-1	11.00	11.00
Fixation R	1	3	4683218399	4683357660	139261	1171.88	315.38	5	9	-1	11.81	11.81
Saccade L	1	3	4683357660	4683397411	39751	1175.12	309.76	983.92	419.53	2.29	183.90	0.50	57.67	4566.92	-4039.94	3025.92
Saccade R	1	3	4683357660	4683397411	39751	1175.12	309.76	983.92	419.53	2.29	183.90	0.50	57.67	4566.92	-4039.94	3025.92
Fixation L	1	4	4683397411	4683695758	298347	952.42	423.81	42	12	-1	10.35	10.35
Fixation R	1	4	4683397411	4683695758	298347	952.42	423.81	42	12	-1	11.22	11.22
Saccade L	1	4	4683695758	4683735513	39755	941.83	421.98	1346.73	409.75	3.39	211.88	1.00	85.35	5270.03	-5266.27	5013.64
Saccade R	1	4	4683695758	4683735513	39755	941.83	421.98	1346.73	409.75	3.39	211.88	1.00	85.35	5270.03	-5266.27	5013.64
Fixation L	1	5	4683735513	4684133380	397867	1335.36	414.54	18	26	-1	10.81	10.81
Fixation R	1	5	4683735513	4684133380	397867	1335.36	414.54	18	26	-1	11.65	11.65
Saccade L	1	5	4684133380	4684173112	39732	1329.50	434.25	1263.21	640.58	2.01	168.68	0.50	50.48	4064.64	-3910.47	2670.13
Saccade R	1	5	4684133380	4684173112	39732	1329.50	434.25	1263.21	640.58	2.01	168.68	0.50	50.48	4064.64	-3910.47	2670.13
Fixation L	1	6	4684173112	4684610715	437603	1265.04	620.97	52	45	-1	11.98	11.98
Fixation R	1	6	4684173112	4684610715	437603	1265.04	620.97	52	45	-1	12.82	12.82
Saccade L	1	6	4684610715	4684630598	19883	1294.74	632.46	1297.05	634.05	0.08	5.13	1.00	3.88	-30.78	-57.16	43.63
Saccade R	1	6	4684610715	4684630598	19883	1294.74	632.46	1297.05	634.05	0.08	5.13	1.00	3.88	-30.78	-57.16	43.63
Fixation L	1	7	4684630598	4685028327	397729	1300.78	637.82	7	65	-1	12.11	12.11
Fixation R	1	7	4684630598	4685028327	397729	1300.78	637.82	7	65	-1	12.98	12.98
Saccade L	1	7	4685028327	4685048193	19866	1296.53	579.40	1275.44	389.52	1.50	193.20	1.00	75.53	4814.61	-4508.69	3306.13
Saccade R	1	7	4685028327	4685048193	19866	1296.53	579.40	1275.44	389.52	1.50	193.20	1.00	75.53	4814.61	-4508.69	3306.13
Fixation L	1	8	4685048193	4685227314	179121	1236.61	363.63	52	43	-1	12.22	12.22
Fixation R	1	8	4685048193	4685227314	179121	1236.61	363.63	52	43	-1	13.02	13.02
Saccade L	1	8	4685227314	4685247194	19880	1234.21	346.26	1232.85	340.19	0.09	6.29	1.00	4.40	94.82	-5.96	58.62
Saccade R	1	8	4685227314	4685247194	19880	1234.21	346.26	1232.85	340.19	0.09	6.29	1.00	4.40	94.82	-5.96	58.62
Fixation L	1	9	4685247194	4685346560	99366	1233.07	341.81	3	5	-1	12.26	12.26
Fixation R	1	9	4685247194	4685346560	99366	1233.07	341.81	3	5	-1	12.85	12.85
Saccade L	1	9	4685346560	4685366432	19872	1234.77	342.82	1117.73	349.27	0.63	118.56	1.00	31.79	2929.08	-2593.21	1868.05
Saccade R	1	9	4685346560	4685366432	19872	1234.77	342.82	1117.73	349.27	0.63	118.56	1.00	31.79	2929.08	-2593.21	1868.05
Fixation L	1	10	4685366432	4685545554	179122	1103.64	363.80	18	27	-1	11.92	11.92
Fixation R	1	10	4685366432	4685545554	179122	1103.64	363.80	18	27	-1	13.05	13.05
Saccade L	1	10	4685545554	4685565427	19873	1100.26	367.65	1183.87	285.82	0.71	118.34	1.00	35.86	2837.03	-2825.93	1921.37
Saccade R	1	10	4685545554	4685565427	19873	1100.26	367.65	1183.87	285.82	0.71	118.34	1.00	35.86	2837.03	-2825.93	1921.37
Fixation L	1	11	4685565427	4685764292	198865	1180.26	267.77	16	28	-1	11.17	11.17
Fixation R	1	11	4685565427	4685764292	198865	1180.26	267.77	16	28	-1	12.10	12.10
Saccade L	1	11	4685764292	4685804035	39743	1187.65	261.00	880.93	258.62	2.51	194.95	0.50	63.23	4806.95	-4802.96	3821.23
Saccade R	1	11	4685764292	4685804035	39743	1187.65	261.00	880.93	258.62	2.51	194.95	0.50	63.23	4806.95	-4802.96	3821.23
Fixation L	1	12	4685804035	4686102399	298364	880.32	277.61	4	44	-1	10.43	10.43
Fixation R	1	12	4685804035	4686102399	298364	880.32	277.61	4	44	-1	11.40	11.40
Saccade L	1	12	4686102399	4686122272	19873	879.18	300.71	972.07	305.49	0.71	94.08	1.00	35.69	2290.87	-1781.42	1663.02
Saccade R	1	12	4686102399	4686122272	19873	879.18	300.71	972.07	305.49	0.71	94.08	1.00	35.69	2290.87	-1781.42	1663.02
Fixation L	1	13	4686122272	4686341142	218870	985.32	356.05	21	62	-1	10.28	10.28
Fixation R	1	13	4686122272	4686341142	218870	985.32	356.05	21	62	-1	11.31	11.31
Saccade L	1	13	4686341142	4686361014	19872	993.58	359.91	1129.00	289.75	1.15	154.26	1.00	57.67	3847.68	-3722.83	3112.27
Saccade R	1	13	4686341142	4686361014	19872	993.58	359.91	1129.00	289.75	1.15	154.26	1.00	57.67	3847.68	-3722.83	3112.27
Fixation L	1	14	4686361014	4686460394	99380	1186.00	269.81	73	25	-1	10.55	10.55
Fixation R	1	14	4686361014	4686460394	99380	1186.00	269.81	73	25	-1	11.56	11.56
Saccade L	1	14	4686460394	4686520133	59739	1202.98	266.34	1192.42	275.99	0.34	14.54	1.00	5.64	314.06	-109.41	121.92
Saccade R	1	14	4686460394	4686520133	59739	1202.98	266.34	1192.42	275.99	0.34	14.54	1.00	5.64	314.06	-109.41	121.92
