[BeGaze]
Converted from:	C:\Documents and Settings\iViewX\Desktop\EXPERIMENTATIONS\Experiments\results\finaleart\S15H25531-finaleart-1.idf
Date:	27.03.2019 15:45:57
Version:	BeGaze 2.5.77
Sample Rate:	50
Subject:	S15H25531
Description:	Mikail Demirdelen

Table Header for Fixations:
Event Type	Trial	Number	Start	End	Duration	Location X	Location Y	Dispersion X	Dispersion Y	Plane	Avg. Pupil Size X	Avg. Pupil Size Y

Table Header for Saccades:
Event Type	Trial	Number	Start	End	Duration	Start Loc.X	Start Loc.Y	End Loc.X	End Loc.Y	Amplitude	Peak Speed	Peak Speed At	Average Speed	Peak Accel.	Peak Decel.	Average Accel.

Table Header for Blinks:
Event Type	Trial	Number	Start	End	Duration

Table Header for User Events:
Event Type	Trial	Number	Start	Description

UserEvent	1	1	4743508184	# Message: Nu_Couche_Vlaminck_1905.jpg
Fixation L	1	1	4743524904	4743962513	437609	775.08	581.05	31	32	-1	15.22	15.22
Fixation R	1	1	4743524904	4743962513	437609	775.08	581.05	31	32	-1	16.85	16.85
Saccade L	1	1	4743962513	4743982390	19877	749.64	590.24	630.20	502.55	0.99	149.86	1.00	49.56	3702.70	-3625.95	2574.85
Saccade R	1	1	4743962513	4743982390	19877	749.64	590.24	630.20	502.55	0.99	149.86	1.00	49.56	3702.70	-3625.95	2574.85
Fixation L	1	2	4743982390	4744141501	159111	646.93	489.82	22	51	-1	14.46	14.46
Fixation R	1	2	4743982390	4744141501	159111	646.93	489.82	22	51	-1	15.95	15.95
Saccade L	1	2	4744141501	4744161378	19877	647.80	469.50	641.44	346.08	1.02	124.99	1.00	51.42	2469.64	-2537.75	1915.63
Saccade R	1	2	4744141501	4744161378	19877	647.80	469.50	641.44	346.08	1.02	124.99	1.00	51.42	2469.64	-2537.75	1915.63
Fixation L	1	3	4744161378	4744618854	457476	617.58	365.59	44	51	-1	11.71	11.71
Fixation R	1	3	4744161378	4744618854	457476	617.58	365.59	44	51	-1	13.18	13.18
Saccade L	1	3	4744618854	4744638725	19871	630.07	397.63	633.63	404.01	0.13	8.42	1.00	6.66	-5.92	-120.32	50.63
Saccade R	1	3	4744618854	4744638725	19871	630.07	397.63	633.63	404.01	0.13	8.42	1.00	6.66	-5.92	-120.32	50.63
Fixation L	1	4	4744638725	4745016702	377977	645.71	404.87	25	62	-1	10.97	10.97
Fixation R	1	4	4744638725	4745016702	377977	645.71	404.87	25	62	-1	12.51	12.51
Saccade L	1	4	4745016702	4745036585	19883	638.77	356.02	636.64	343.09	0.47	48.48	0.00	23.59	-134.34	-862.67	387.61
Saccade R	1	4	4745016702	4745036585	19883	638.77	356.02	636.64	343.09	0.47	48.48	0.00	23.59	-134.34	-862.67	387.61
Fixation L	1	5	4745036585	4745454183	417598	614.15	360.41	31	30	-1	10.64	10.64
Fixation R	1	5	4745036585	4745454183	417598	614.15	360.41	31	30	-1	12.01	12.01
Saccade L	1	5	4745454183	4745494062	39879	605.16	361.77	1141.18	377.55	4.55	317.67	0.50	114.06	7894.64	-7340.19	6491.53
Saccade R	1	5	4745454183	4745494062	39879	605.16	361.77	1141.18	377.55	4.55	317.67	0.50	114.06	7894.64	-7340.19	6491.53
Fixation L	1	6	4745494062	4746090658	596596	1110.63	421.14	35	59	-1	10.90	10.90
Fixation R	1	6	4745494062	4746090658	596596	1110.63	421.14	35	59	-1	12.10	12.10
Saccade L	1	6	4746090658	4746110661	20003	1108.61	437.35	1096.77	453.85	0.16	20.54	1.00	8.19	474.12	-441.81	320.26
Saccade R	1	6	4746090658	4746110661	20003	1108.61	437.35	1096.77	453.85	0.16	20.54	1.00	8.19	474.12	-441.81	320.26
Fixation L	1	7	4746110661	4746568132	457471	1084.15	459.49	20	37	-1	11.68	11.68
Fixation R	1	7	4746110661	4746568132	457471	1084.15	459.49	20	37	-1	12.77	12.77
Saccade L	1	7	4746568132	4746588009	19877	1078.70	479.61	1159.99	440.27	0.61	91.35	1.00	30.73	2216.29	-1784.95	1506.53
Saccade R	1	7	4746568132	4746588009	19877	1078.70	479.61	1159.99	440.27	0.61	91.35	1.00	30.73	2216.29	-1784.95	1506.53
Fixation L	1	8	4746588009	4747005608	417599	1166.02	417.72	21	31	-1	11.77	11.77
Fixation R	1	8	4746588009	4747005608	417599	1166.02	417.72	21	31	-1	12.83	12.83
Saccade L	1	8	4747005608	4747025489	19881	1177.33	426.05	1109.55	437.12	0.44	69.47	1.00	22.33	1613.84	-1599.35	1092.65
Saccade R	1	8	4747005608	4747025489	19881	1177.33	426.05	1109.55	437.12	0.44	69.47	1.00	22.33	1613.84	-1599.35	1092.65
Fixation L	1	9	4747025489	4747184606	159117	1104.32	455.96	7	34	-1	11.80	11.80
Fixation R	1	9	4747025489	4747184606	159117	1104.32	455.96	7	34	-1	12.77	12.77
Saccade L	1	9	4747184606	4747224478	39872	1101.80	471.35	835.54	658.40	2.93	175.80	1.00	73.38	4342.52	-3903.44	3978.04
Saccade R	1	9	4747184606	4747224478	39872	1101.80	471.35	835.54	658.40	2.93	175.80	1.00	73.38	4342.52	-3903.44	3978.04
Fixation L	1	10	4747224478	4747502959	278481	812.02	641.46	28	42	-1	12.17	12.17
Fixation R	1	10	4747224478	4747502959	278481	812.02	641.46	28	42	-1	13.27	13.27
