[BeGaze]
Converted from:	C:\Documents and Settings\iViewX\Desktop\EXPERIMENTATIONS\Experiments\results\finaleart\S15H25531-finaleart-1.idf
Date:	27.03.2019 15:45:29
Version:	BeGaze 2.5.77
Sample Rate:	50
Subject:	S15H25531
Description:	Mikail Demirdelen

Table Header for Fixations:
Event Type	Trial	Number	Start	End	Duration	Location X	Location Y	Dispersion X	Dispersion Y	Plane	Avg. Pupil Size X	Avg. Pupil Size Y

Table Header for Saccades:
Event Type	Trial	Number	Start	End	Duration	Start Loc.X	Start Loc.Y	End Loc.X	End Loc.Y	Amplitude	Peak Speed	Peak Speed At	Average Speed	Peak Accel.	Peak Decel.	Average Accel.

Table Header for Blinks:
Event Type	Trial	Number	Start	End	Duration

Table Header for User Events:
Event Type	Trial	Number	Start	Description

UserEvent	1	1	4359666182	# Message: void.jpg
Saccade L	1	1	4359673634	4359693499	19865	964.72	606.86	954.49	467.75	1.15	141.08	1.00	57.86	812.75	-3413.27	1408.67
Saccade R	1	1	4359673634	4359693499	19865	964.72	606.86	954.49	467.75	1.15	141.08	1.00	57.86	812.75	-3413.27	1408.67
Fixation L	1	1	4359693499	4360190732	497233	929.77	445.14	46	35	-1	10.35	10.35
Fixation R	1	1	4359693499	4360190732	497233	929.77	445.14	46	35	-1	11.05	11.05
Blink L	1	1	4360190732	4360329961	139229
Saccade R	1	2	4360190732	4360369720	178988	908.05	443.69	873.48	486.75	16.81	301.15	1.00	93.90	7034.46	-7427.18	3597.59
Saccade L	1	2	4360329961	4360369720	39759	888.74	513.19	873.48	486.75	5.81	301.15	1.00	146.19	7034.46	-7427.18	6341.46
Fixation L	1	2	4360369720	4360707949	338229	862.68	516.58	18	57	-1	11.46	11.46
Fixation R	1	2	4360369720	4360707949	338229	862.68	516.58	18	57	-1	12.68	12.68
Saccade L	1	3	4360707949	4360727827	19878	861.24	539.05	741.58	576.30	0.68	126.77	1.00	34.24	3134.86	-2668.88	1950.23
Saccade R	1	3	4360707949	4360727827	19878	861.24	539.05	741.58	576.30	0.68	126.77	1.00	34.24	3134.86	-2668.88	1950.23
Fixation L	1	3	4360727827	4361284673	556846	737.52	598.64	30	57	-1	12.77	12.77
Fixation R	1	3	4360727827	4361284673	556846	737.52	598.64	30	57	-1	13.69	13.69
Saccade L	1	4	4361284673	4361304547	19874	729.20	592.87	576.21	597.86	0.85	154.82	1.00	42.67	3818.56	-3518.55	2486.03
Saccade R	1	4	4361284673	4361304547	19874	729.20	592.87	576.21	597.86	0.85	154.82	1.00	42.67	3818.56	-3518.55	2486.03
Fixation L	1	4	4361304547	4361503533	198986	573.09	610.29	13	21	-1	13.23	13.23
Fixation R	1	4	4361304547	4361503533	198986	573.09	610.29	13	21	-1	14.11	14.11
Saccade L	1	5	4361503533	4361662654	159121	571.99	617.22	672.36	958.02	36.88	1167.59	1.00	231.80	21062.93	-2490.44	4121.38
Saccade R	1	5	4361503533	4361662654	159121	571.99	617.22	672.36	958.02	36.88	1167.59	1.00	231.80	21062.93	-2490.44	4121.38
