[BeGaze]
Converted from:	C:\Documents and Settings\iViewX\Desktop\EXPERIMENTATIONS\Experiments\results\finaleart\S15H25531-finaleart-1.idf
Date:	27.03.2019 15:45:41
Version:	BeGaze 2.5.77
Sample Rate:	50
Subject:	S15H25531
Description:	Mikail Demirdelen

Table Header for Fixations:
Event Type	Trial	Number	Start	End	Duration	Location X	Location Y	Dispersion X	Dispersion Y	Plane	Avg. Pupil Size X	Avg. Pupil Size Y

Table Header for Saccades:
Event Type	Trial	Number	Start	End	Duration	Start Loc.X	Start Loc.Y	End Loc.X	End Loc.Y	Amplitude	Peak Speed	Peak Speed At	Average Speed	Peak Accel.	Peak Decel.	Average Accel.

Table Header for Blinks:
Event Type	Trial	Number	Start	End	Duration

Table Header for User Events:
Event Type	Trial	Number	Start	Description

UserEvent	1	1	4559798035	# Message: The_Lying_Nude_Matisse_1906.jpg
Fixation L	1	1	4559815559	4560253170	437611	947.33	531.95	4	15	-1	13.48	13.48
Fixation R	1	1	4559815559	4560253170	437611	947.33	531.95	4	15	-1	14.54	14.54
Saccade L	1	1	4560253170	4560292909	39739	948.56	530.59	649.25	467.99	2.90	205.94	0.50	72.88	5070.18	-4156.11	3577.73
Saccade R	1	1	4560253170	4560292909	39739	948.56	530.59	649.25	467.99	2.90	205.94	0.50	72.88	5070.18	-4156.11	3577.73
Fixation L	1	2	4560292909	4560452019	159110	664.26	482.90	38	38	-1	12.43	12.43
Fixation R	1	2	4560292909	4560452019	159110	664.26	482.90	38	38	-1	13.64	13.64
Saccade L	1	2	4560452019	4560471895	19876	640.60	468.48	625.81	456.18	0.33	33.36	0.00	16.46	426.02	-568.83	478.18
Saccade R	1	2	4560452019	4560471895	19876	640.60	468.48	625.81	456.18	0.33	33.36	0.00	16.46	426.02	-568.83	478.18
Fixation L	1	3	4560471895	4560650893	178998	608.28	433.92	27	41	-1	10.87	10.87
Fixation R	1	3	4560471895	4560650893	178998	608.28	433.92	27	41	-1	11.74	11.74
Saccade L	1	3	4560650893	4560670765	19872	598.13	414.60	424.82	411.52	0.93	175.30	1.00	47.05	4322.74	-4351.65	2938.21
Saccade R	1	3	4560650893	4560670765	19872	598.13	414.60	424.82	411.52	0.93	175.30	1.00	47.05	4322.74	-4351.65	2938.21
Fixation L	1	4	4560670765	4561526100	855335	424.39	403.99	33	62	-1	10.03	10.03
Fixation R	1	4	4560670765	4561526100	855335	424.39	403.99	33	62	-1	10.85	10.85
Saccade L	1	4	4561526100	4561545971	19871	409.94	445.73	411.97	449.60	0.06	4.41	1.00	2.92	28.33	-52.64	36.19
Saccade R	1	4	4561526100	4561545971	19871	409.94	445.73	411.97	449.60	0.06	4.41	1.00	2.92	28.33	-52.64	36.19
Fixation L	1	5	4561545971	4561764720	218749	417.63	453.03	12	7	-1	10.33	10.33
Fixation R	1	5	4561545971	4561764720	218749	417.63	453.03	12	7	-1	11.42	11.42
Saccade L	1	5	4561764720	4561824480	59760	424.76	452.44	983.71	431.55	5.98	255.42	0.67	100.07	6262.85	-5775.73	4886.20
Saccade R	1	5	4561764720	4561824480	59760	424.76	452.44	983.71	431.55	5.98	255.42	0.67	100.07	6262.85	-5775.73	4886.20
Fixation L	1	6	4561824480	4562023326	198846	1006.57	398.64	30	57	-1	10.60	10.60
Fixation R	1	6	4561824480	4562023326	198846	1006.57	398.64	30	57	-1	11.16	11.16
Saccade L	1	6	4562023326	4562063078	39752	1008.38	374.52	1302.76	293.94	2.92	199.95	0.50	73.34	4880.58	-4006.15	3634.49
Saccade R	1	6	4562023326	4562063078	39752	1008.38	374.52	1302.76	293.94	2.92	199.95	0.50	73.34	4880.58	-4006.15	3634.49
Fixation L	1	7	4562063078	4562480808	417730	1283.91	317.14	23	38	-1	10.74	10.74
Fixation R	1	7	4562063078	4562480808	417730	1283.91	317.14	23	38	-1	11.35	11.35
Saccade L	1	7	4562480808	4562500675	19867	1280.07	323.35	1375.93	204.29	0.86	154.59	1.00	43.42	3802.22	-3312.74	2447.21
Saccade R	1	7	4562480808	4562500675	19867	1280.07	323.35	1375.93	204.29	0.86	154.59	1.00	43.42	3802.22	-3312.74	2447.21
Fixation L	1	8	4562500675	4562779160	278485	1388.57	192.07	25	26	-1	11.08	11.08
Fixation R	1	8	4562500675	4562779160	278485	1388.57	192.07	25	26	-1	11.75	11.75
Saccade L	1	8	4562779160	4562858665	79505	1382.47	204.49	1180.97	204.57	3.06	124.85	0.50	38.54	3046.23	-3032.48	1962.87
Saccade R	1	8	4562779160	4562958166	179006	1382.47	204.49	988.91	303.90	12.75	284.05	0.89	71.25	6298.03	-6895.16	3203.31
Blink L	1	1	4562858665	4562978044	119379
Fixation R	1	9	4562958166	4563196777	238611	987.95	309.84	43	18	-1	12.14	12.14
Fixation L	1	9	4562978044	4563196777	218733	987.87	310.34	43	18	-1	11.46	11.46
Saccade L	1	9	4563196777	4563216769	19992	950.87	318.29	755.41	389.31	1.33	210.28	1.00	66.66	5239.29	-5090.52	3712.45
Saccade R	1	9	4563196777	4563216769	19992	950.87	318.29	755.41	389.31	1.33	210.28	1.00	66.66	5239.29	-5090.52	3712.45
Fixation L	1	10	4563216769	4563793491	576722	761.55	397.99	11	41	-1	11.63	11.63
Fixation R	1	10	4563216769	4563793491	576722	761.55	397.99	11	41	-1	12.69	12.69
