[BeGaze]
Converted from:	C:\Documents and Settings\iViewX\Desktop\EXPERIMENTATIONS\Experiments\results\finaleart\S15H25531-finaleart-1.idf
Date:	27.03.2019 15:45:23
Version:	BeGaze 2.5.77
Sample Rate:	50
Subject:	S15H25531
Description:	Mikail Demirdelen

Table Header for Fixations:
Event Type	Trial	Number	Start	End	Duration	Location X	Location Y	Dispersion X	Dispersion Y	Plane	Avg. Pupil Size X	Avg. Pupil Size Y

Table Header for Saccades:
Event Type	Trial	Number	Start	End	Duration	Start Loc.X	Start Loc.Y	End Loc.X	End Loc.Y	Amplitude	Peak Speed	Peak Speed At	Average Speed	Peak Accel.	Peak Decel.	Average Accel.

Table Header for Blinks:
Event Type	Trial	Number	Start	End	Duration

Table Header for User Events:
Event Type	Trial	Number	Start	Description

UserEvent	1	1	4294681611	# Message: courbet-the-sleepers-1866.jpg
Fixation L	1	1	4294692858	4295130465	437607	918.00	448.65	10	12	-1	13.72	13.72
Fixation R	1	1	4294692858	4295130465	437607	918.00	448.65	10	12	-1	13.76	13.76
Saccade L	1	1	4295130465	4295150323	19858	910.99	455.28	648.69	455.64	1.39	265.17	1.00	69.92	6620.82	-5825.95	4195.99
Saccade R	1	1	4295130465	4295150323	19858	910.99	455.28	648.69	455.64	1.39	265.17	1.00	69.92	6620.82	-5825.95	4195.99
Fixation L	1	2	4295150323	4295289575	139252	636.68	440.83	33	26	-1	13.49	13.49
Fixation R	1	2	4295150323	4295289575	139252	636.68	440.83	33	26	-1	13.68	13.68
Saccade L	1	2	4295289575	4295309449	19874	624.53	443.20	507.99	403.02	0.77	124.69	1.00	38.55	2821.49	-2702.76	1938.38
Saccade R	1	2	4295289575	4295309449	19874	624.53	443.20	507.99	403.02	0.77	124.69	1.00	38.55	2821.49	-2702.76	1938.38
Fixation L	1	3	4295309449	4295627676	318227	516.36	420.83	22	27	-1	12.55	12.55
Fixation R	1	3	4295309449	4295627676	318227	516.36	420.83	22	27	-1	12.62	12.62
Saccade L	1	3	4295627676	4295647684	20008	504.95	426.78	404.36	418.85	0.67	102.06	1.00	33.31	2429.81	-2526.13	1697.48
Saccade R	1	3	4295627676	4295647684	20008	504.95	426.78	404.36	418.85	0.67	102.06	1.00	33.31	2429.81	-2526.13	1697.48
Fixation L	1	4	4295647684	4295846551	198867	414.11	413.63	20	25	-1	12.44	12.44
Fixation R	1	4	4295647684	4295846551	198867	414.11	413.63	20	25	-1	12.87	12.87
Saccade L	1	4	4295846551	4295866425	19874	412.92	424.40	623.22	438.74	1.28	213.15	1.00	64.57	5081.14	-4352.85	3311.29
Saccade R	1	4	4295846551	4295866425	19874	412.92	424.40	623.22	438.74	1.28	213.15	1.00	64.57	5081.14	-4352.85	3311.29
Fixation L	1	5	4295866425	4296125040	258615	624.67	458.96	52	35	-1	13.06	13.06
Fixation R	1	5	4295866425	4296125040	258615	624.67	458.96	52	35	-1	13.39	13.39
Saccade L	1	5	4296125040	4296144912	19872	648.64	473.92	734.18	485.90	0.65	87.37	1.00	32.53	2117.55	-2021.43	1446.42
Saccade R	1	5	4296125040	4296144912	19872	648.64	473.92	734.18	485.90	0.65	87.37	1.00	32.53	2117.55	-2021.43	1446.42
Fixation L	1	6	4296144912	4296343778	198866	737.93	496.98	20	73	-1	13.59	13.59
Fixation R	1	6	4296144912	4296343778	198866	737.93	496.98	20	73	-1	13.92	13.92
Saccade L	1	6	4296343778	4296363650	19872	754.73	435.84	779.62	438.63	0.60	71.68	0.00	30.32	473.56	-1345.37	714.05
Saccade R	1	6	4296343778	4296363650	19872	754.73	435.84	779.62	438.63	0.60	71.68	0.00	30.32	473.56	-1345.37	714.05
Fixation L	1	7	4296363650	4296582514	218864	795.77	417.01	29	30	-1	13.65	13.65
Fixation R	1	7	4296363650	4296582514	218864	795.77	417.01	29	30	-1	13.94	13.94
Saccade L	1	7	4296582514	4296622264	39750	804.04	421.26	584.77	459.84	1.94	149.65	0.50	48.69	3632.82	-3456.78	2684.49
Saccade R	1	7	4296582514	4296622264	39750	804.04	421.26	584.77	459.84	1.94	149.65	0.50	48.69	3632.82	-3456.78	2684.49
Fixation L	1	8	4296622264	4297000122	377858	576.03	475.00	22	43	-1	12.88	12.88
Fixation R	1	8	4296622264	4297000122	377858	576.03	475.00	22	43	-1	13.20	13.20
Saccade L	1	8	4297000122	4297059863	59741	561.99	491.68	357.51	327.50	3.24	161.39	0.33	54.25	3963.24	-3591.19	2758.26
Saccade R	1	8	4297000122	4297059863	59741	561.99	491.68	357.51	327.50	3.24	161.39	0.33	54.25	3963.24	-3591.19	2758.26
Fixation L	1	9	4297059863	4297477480	417617	375.17	377.39	31	64	-1	12.72	12.72
Fixation R	1	9	4297059863	4297477480	417617	375.17	377.39	31	64	-1	13.13	13.13
Saccade L	1	9	4297477480	4297557092	79612	372.89	376.91	552.40	391.63	2.93	156.67	0.25	36.74	3809.26	-3732.59	1684.04
Saccade R	1	9	4297477480	4297636598	159118	372.89	376.91	520.39	450.58	6.91	156.67	0.12	43.44	3809.26	-3732.59	1395.13
Blink L	1	1	4297557092	4297676454	119362
Fixation R	1	10	4297636598	4297795700	159102	534.24	397.79	28	69	-1	13.50	13.50
Fixation L	1	10	4297676454	4297934946	258492	537.50	384.17	26	29	-1	13.33	13.33
Saccade R	1	10	4297795700	4297815581	19881	533.68	381.38	537.79	378.46	0.09	7.23	1.00	4.68	-45.40	-84.36	60.94
Fixation R	1	11	4297815581	4297934946	119365	539.99	376.20	6	7	-1	13.93	13.93
Saccade L	1	10	4297934946	4297974818	39872	544.11	375.02	935.84	483.40	3.52	249.54	0.50	88.39	6164.61	-5768.46	5005.25
Saccade R	1	11	4297934946	4297974818	39872	544.11	375.02	935.84	483.40	3.52	249.54	0.50	88.39	6164.61	-5768.46	5005.25
Fixation L	1	11	4297974818	4298233315	258497	930.74	474.49	13	23	-1	13.73	13.73
Fixation R	1	12	4297974818	4298233315	258497	930.74	474.49	13	23	-1	13.86	13.86
Saccade L	1	11	4298233315	4298273059	39744	928.89	478.59	988.58	497.68	2.18	140.43	0.50	54.84	3448.50	-2329.63	2414.39
Saccade R	1	12	4298233315	4298273059	39744	928.89	478.59	988.58	497.68	2.18	140.43	0.50	54.84	3448.50	-2329.63	2414.39
Fixation L	1	12	4298273059	4298392448	119389	1005.31	543.12	22	60	-1	13.80	13.80
Fixation R	1	13	4298273059	4298392448	119389	1005.31	543.12	22	60	-1	14.22	14.22
Saccade L	1	12	4298392448	4298432172	39724	1009.02	558.65	594.85	474.73	3.63	331.94	0.50	91.28	8253.88	-7733.37	5144.53
Saccade R	1	13	4298392448	4298432172	39724	1009.02	558.65	594.85	474.73	3.63	331.94	0.50	91.28	8253.88	-7733.37	5144.53
Fixation L	1	13	4298432172	4298670917	238745	576.07	464.32	28	32	-1	13.57	13.57
Fixation R	1	14	4298432172	4298670917	238745	576.07	464.32	28	32	-1	13.82	13.82
