[BeGaze]
Converted from:	C:\Documents and Settings\iViewX\Desktop\EXPERIMENTATIONS\Experiments\results\finaleart\S15H25531-finaleart-1.idf
Date:	27.03.2019 15:45:41
Version:	BeGaze 2.5.77
Sample Rate:	50
Subject:	S15H25531
Description:	Mikail Demirdelen

Table Header for Fixations:
Event Type	Trial	Number	Start	End	Duration	Location X	Location Y	Dispersion X	Dispersion Y	Plane	Avg. Pupil Size X	Avg. Pupil Size Y

Table Header for Saccades:
Event Type	Trial	Number	Start	End	Duration	Start Loc.X	Start Loc.Y	End Loc.X	End Loc.Y	Amplitude	Peak Speed	Peak Speed At	Average Speed	Peak Accel.	Peak Decel.	Average Accel.

Table Header for Blinks:
Event Type	Trial	Number	Start	End	Duration

Table Header for User Events:
Event Type	Trial	Number	Start	Description

UserEvent	1	1	4563837678	# Message: void.jpg
Fixation L	1	1	4563853254	4564370346	517092	756.25	389.41	9	21	-1	11.63	11.63
Fixation R	1	1	4563853254	4564410108	556854	756.32	392.59	9	57	-1	12.77	12.77
Blink L	1	1	4564410108	4564489700	79592
Blink R	1	1	4564410108	4564489700	79592
Blink L	1	2	4564489700	4564569207	79507
Saccade R	1	1	4564489700	4564549336	59636	763.49	598.61	797.42	403.69	11.93	972.16	1.00	199.98	724.10	-22015.79	4852.06
Fixation R	1	2	4564549336	4564887435	338099	810.24	449.53	19	76	-1	14.08	14.08
Fixation L	1	2	4564569207	4564967063	397856	810.21	459.63	11	87	-1	13.41	13.41
Saccade R	1	2	4564887435	4564907312	19877	806.89	479.75	806.86	492.74	0.18	13.14	1.00	9.10	144.08	-136.67	95.85
Fixation R	1	3	4564907312	4565384796	477484	831.59	496.77	80	16	-1	15.28	15.28
Saccade L	1	1	4564967063	4564986936	19873	806.11	494.05	805.70	495.74	0.07	7.67	1.00	3.41	18.30	-147.97	55.73
Fixation L	1	3	4564986936	4565384796	397860	836.30	497.85	80	7	-1	14.34	14.34
Saccade L	1	2	4565384796	4565404668	19872	884.15	496.49	883.07	481.12	0.15	15.59	1.00	7.77	332.58	-235.88	197.31
Saccade R	1	3	4565384796	4565404668	19872	884.15	496.49	883.07	481.12	0.15	15.59	1.00	7.77	332.58	-235.88	197.31
Fixation L	1	4	4565404668	4565822273	417605	883.61	492.24	10	16	-1	14.68	14.68
Fixation R	1	4	4565404668	4565822273	417605	883.61	492.24	10	16	-1	15.53	15.53
