[BeGaze]
Converted from:	C:\Documents and Settings\iViewX\Desktop\EXPERIMENTATIONS\Experiments\results\finaleart\S15H25531-finaleart-1.idf
Date:	27.03.2019 15:46:04
Version:	BeGaze 2.5.77
Sample Rate:	50
Subject:	S15H25531
Description:	Mikail Demirdelen

Table Header for Fixations:
Event Type	Trial	Number	Start	End	Duration	Location X	Location Y	Dispersion X	Dispersion Y	Plane	Avg. Pupil Size X	Avg. Pupil Size Y

Table Header for Saccades:
Event Type	Trial	Number	Start	End	Duration	Start Loc.X	Start Loc.Y	End Loc.X	End Loc.Y	Amplitude	Peak Speed	Peak Speed At	Average Speed	Peak Accel.	Peak Decel.	Average Accel.

Table Header for Blinks:
Event Type	Trial	Number	Start	End	Duration

Table Header for User Events:
Event Type	Trial	Number	Start	Description

UserEvent	1	1	4810578944	# Message: Turner-snow-storm-boat-off-a-harbours-mouth-1842.jpg
Fixation L	1	1	4810579485	4810957437	377952	784.75	511.05	12	21	-1	13.02	13.02
Fixation R	1	1	4810579485	4810957437	377952	784.75	511.05	12	21	-1	14.67	14.67
Saccade L	1	1	4810957437	4810997176	39739	788.91	524.87	1117.95	525.65	2.74	190.80	0.50	69.06	4698.60	-4666.13	4060.42
Saccade R	1	1	4810957437	4810997176	39739	788.91	524.87	1117.95	525.65	2.74	190.80	0.50	69.06	4698.60	-4666.13	4060.42
Fixation L	1	2	4810997176	4811235799	238623	1108.01	517.25	14	20	-1	12.16	12.16
Fixation R	1	2	4810997176	4811235799	238623	1108.01	517.25	14	20	-1	13.76	13.76
Saccade L	1	2	4811235799	4811255795	19996	1103.43	507.22	989.55	696.44	1.23	223.30	1.00	61.29	5463.39	-5382.41	3742.21
Saccade R	1	2	4811235799	4811255795	19996	1103.43	507.22	989.55	696.44	1.23	223.30	1.00	61.29	5463.39	-5382.41	3742.21
Fixation L	1	3	4811255795	4811514304	258509	1000.86	677.14	18	41	-1	11.78	11.78
Fixation R	1	3	4811255795	4811514304	258509	1000.86	677.14	18	41	-1	13.03	13.03
Saccade L	1	3	4811514304	4811534152	19848	1007.68	663.92	1010.98	579.61	0.68	85.35	1.00	34.23	1925.34	-1953.37	1484.23
Saccade R	1	3	4811514304	4811534152	19848	1007.68	663.92	1010.98	579.61	0.68	85.35	1.00	34.23	1925.34	-1953.37	1484.23
Fixation L	1	4	4811534152	4811733149	198997	1024.81	560.37	31	58	-1	11.74	11.74
Fixation R	1	4	4811534152	4811733149	198997	1024.81	560.37	31	58	-1	12.85	12.85
Saccade L	1	4	4811733149	4811753019	19870	1005.71	521.26	997.61	501.28	0.51	56.04	0.00	25.83	472.16	-837.47	572.57
Saccade R	1	4	4811733149	4811753019	19870	1005.71	521.26	997.61	501.28	0.51	56.04	0.00	25.83	472.16	-837.47	572.57
Fixation L	1	5	4811753019	4812190620	437601	977.24	496.53	27	69	-1	11.23	11.23
Fixation R	1	5	4811753019	4812190620	437601	977.24	496.53	27	69	-1	12.56	12.56
Saccade L	1	5	4812190620	4812210513	19893	989.72	549.67	993.62	557.56	0.13	10.28	0.00	6.58	159.29	-161.96	154.39
Saccade R	1	5	4812190620	4812210513	19893	989.72	549.67	993.62	557.56	0.13	10.28	0.00	6.58	159.29	-161.96	154.39
Fixation L	1	6	4812210513	4812429251	218738	1003.81	554.34	24	22	-1	11.30	11.30
Fixation R	1	6	4812210513	4812429251	218738	1003.81	554.34	24	22	-1	12.61	12.61
Saccade L	1	6	4812429251	4812468981	39730	1018.23	535.09	1157.22	266.06	2.97	233.26	0.50	74.64	5813.63	-5295.03	3735.19
Saccade R	1	6	4812429251	4812468981	39730	1018.23	535.09	1157.22	266.06	2.97	233.26	0.50	74.64	5813.63	-5295.03	3735.19
Fixation L	1	7	4812468981	4812687848	218867	1147.94	300.26	22	51	-1	10.93	10.93
Fixation R	1	7	4812468981	4812687848	218867	1147.94	300.26	22	51	-1	12.49	12.49
Saccade L	1	7	4812687848	4812707730	19882	1139.66	277.09	1140.23	238.67	0.43	38.88	1.00	21.58	476.02	-753.08	536.63
Saccade R	1	7	4812687848	4812707730	19882	1139.66	277.09	1140.23	238.67	0.43	38.88	1.00	21.58	476.02	-753.08	536.63
Fixation L	1	8	4812707730	4813006082	298352	1147.57	224.81	12	23	-1	10.82	10.82
Fixation R	1	8	4812707730	4813006082	298352	1147.57	224.81	12	23	-1	12.48	12.48
Saccade L	1	8	4813006082	4813025960	19878	1150.98	217.06	1042.75	334.27	0.89	161.35	1.00	44.57	3986.03	-3693.59	2633.47
Saccade R	1	8	4813006082	4813025960	19878	1150.98	217.06	1042.75	334.27	0.89	161.35	1.00	44.57	3986.03	-3693.59	2633.47
Fixation L	1	9	4813025960	4813304450	278490	1047.04	335.54	12	14	-1	11.58	11.58
Fixation R	1	9	4813025960	4813304450	278490	1047.04	335.54	12	14	-1	13.12	13.12
Saccade L	1	9	4813304450	4813324320	19870	1054.35	339.57	1030.70	480.61	0.96	144.63	1.00	48.07	3514.56	-3221.81	2583.28
Saccade R	1	9	4813304450	4813324320	19870	1054.35	339.57	1030.70	480.61	0.96	144.63	1.00	48.07	3514.56	-3221.81	2583.28
Fixation L	1	10	4813324320	4813523187	198867	1004.03	453.04	35	39	-1	12.23	12.23
Fixation R	1	10	4813324320	4813523187	198867	1004.03	453.04	35	39	-1	14.07	14.07
Saccade L	1	10	4813523187	4813543058	19871	995.21	451.24	979.85	623.56	0.99	174.96	1.00	49.62	4260.82	-4075.71	2887.16
Saccade R	1	10	4813523187	4813543058	19871	995.21	451.24	979.85	623.56	0.99	174.96	1.00	49.62	4260.82	-4075.71	2887.16
Fixation L	1	11	4813543058	4813881171	338113	973.88	650.05	55	44	-1	12.61	12.61
Fixation R	1	11	4813543058	4813881171	338113	973.88	650.05	55	44	-1	14.32	14.32
Saccade L	1	11	4813881171	4813901171	20000	991.67	667.33	1013.38	674.17	0.27	23.03	1.00	13.27	236.26	-441.88	269.82
Saccade R	1	11	4813881171	4813901171	20000	991.67	667.33	1013.38	674.17	0.27	23.03	1.00	13.27	236.26	-441.88	269.82
Fixation L	1	12	4813901171	4814338650	437479	1014.51	700.23	9	45	-1	12.70	12.70
Fixation R	1	12	4813901171	4814338650	437479	1014.51	700.23	9	45	-1	14.77	14.77
Saccade L	1	12	4814338650	4814398400	59750	1012.04	720.11	865.11	927.60	3.51	125.59	0.67	58.75	2982.98	-2100.74	2028.88
Saccade R	1	12	4814338650	4814398400	59750	1012.04	720.11	865.11	927.60	3.51	125.59	0.67	58.75	2982.98	-2100.74	2028.88
Fixation L	1	13	4814398400	4814577380	178980	860.88	938.63	30	39	-1	13.07	13.07
Fixation R	1	13	4814398400	4814577380	178980	860.88	938.63	30	39	-1	14.56	14.56
