[BeGaze]
Converted from:	C:\Documents and Settings\iViewX\Desktop\EXPERIMENTATIONS\Experiments\results\finaleart\S15H25531-finaleart-1.idf
Date:	27.03.2019 15:44:21
Version:	BeGaze 2.5.77
Sample Rate:	50
Subject:	S15H25531
Description:	Mikail Demirdelen

Table Header for Fixations:
Event Type	Trial	Number	Start	End	Duration	Location X	Location Y	Dispersion X	Dispersion Y	Plane	Avg. Pupil Size X	Avg. Pupil Size Y

Table Header for Saccades:
Event Type	Trial	Number	Start	End	Duration	Start Loc.X	Start Loc.Y	End Loc.X	End Loc.Y	Amplitude	Peak Speed	Peak Speed At	Average Speed	Peak Accel.	Peak Decel.	Average Accel.

Table Header for Blinks:
Event Type	Trial	Number	Start	End	Duration

Table Header for User Events:
Event Type	Trial	Number	Start	Description

UserEvent	1	1	3335334374	# Message: REJECTED_cezanne-still-life-with-bread-and-eggs-1865.jpg
Fixation L	1	1	3335345096	3335842321	497225	952.88	621.60	10	12	-1	16.32	16.32
Fixation R	1	1	3335345096	3335842321	497225	952.88	621.60	10	12	-1	17.91	17.91
Saccade L	1	1	3335842321	3335862199	19878	959.85	622.49	1044.93	621.39	0.49	86.07	1.00	24.43	2143.46	-1949.81	1368.13
Saccade R	1	1	3335842321	3335862199	19878	959.85	622.49	1044.93	621.39	0.49	86.07	1.00	24.43	2143.46	-1949.81	1368.13
Fixation L	1	2	3335862199	3336916394	1054195	1085.45	607.24	63	31	-1	17.55	17.55
Fixation R	1	2	3335862199	3336916394	1054195	1085.45	607.24	63	31	-1	18.85	18.85
Blink L	1	1	3336916394	3337075506	159112
Blink R	1	1	3336916394	3337075506	159112
Fixation L	1	3	3337075506	3337214744	139238	1111.75	797.94	6	42	-1	18.27	18.27
Fixation R	1	3	3337075506	3337214744	139238	1111.75	797.94	6	42	-1	20.05	20.05
Saccade L	1	2	3337214744	3337254498	39754	1109.24	797.61	722.00	790.44	3.37	243.11	1.00	84.79	6054.56	-5891.20	4647.03
Saccade R	1	2	3337214744	3337254498	39754	1109.24	797.61	722.00	790.44	3.37	243.11	1.00	84.79	6054.56	-5891.20	4647.03
Fixation L	1	4	3337254498	3337632485	377987	746.47	800.66	32	17	-1	17.82	17.82
Fixation R	1	4	3337254498	3337632485	377987	746.47	800.66	32	17	-1	19.72	19.72
Saccade L	1	3	3337632485	3337652353	19868	728.39	808.03	503.37	805.47	1.31	227.53	1.00	65.74	5548.17	-5568.48	3745.78
Saccade R	1	3	3337632485	3337652353	19868	728.39	808.03	503.37	805.47	1.31	227.53	1.00	65.74	5548.17	-5568.48	3745.78
Fixation L	1	5	3337652353	3337950715	298362	515.88	804.07	20	20	-1	17.78	17.78
Fixation R	1	5	3337652353	3337950715	298362	515.88	804.07	20	20	-1	19.79	19.79
Saccade L	1	4	3337950715	3337990458	39743	523.37	815.38	394.73	642.30	1.89	133.64	0.50	47.68	3295.45	-3040.17	2653.35
Saccade R	1	4	3337950715	3337990458	39743	523.37	815.38	394.73	642.30	1.89	133.64	0.50	47.68	3295.45	-3040.17	2653.35
Fixation L	1	6	3337990458	3338308696	318238	404.63	654.03	38	26	-1	17.73	17.73
Fixation R	1	6	3337990458	3338308696	318238	404.63	654.03	38	26	-1	19.76	19.76
Saccade L	1	5	3338308696	3338348446	39750	418.55	667.73	499.35	762.20	1.20	70.38	1.00	30.15	1635.63	-1692.65	1404.33
Saccade R	1	5	3338308696	3338348446	39750	418.55	667.73	499.35	762.20	1.20	70.38	1.00	30.15	1635.63	-1692.65	1404.33
Fixation L	1	7	3338348446	3338527561	179115	521.18	769.09	33	11	-1	18.13	18.13
Fixation R	1	7	3338348446	3338527561	179115	521.18	769.09	33	11	-1	20.26	20.26
Saccade L	1	6	3338527561	3338567309	39748	533.26	769.86	945.57	626.35	3.82	360.88	0.50	96.05	8890.41	-8495.19	5289.62
Saccade R	1	6	3338527561	3338567309	39748	533.26	769.86	945.57	626.35	3.82	360.88	0.50	96.05	8890.41	-8495.19	5289.62
Fixation L	1	8	3338567309	3338766175	198866	965.70	633.99	26	13	-1	18.50	18.50
Fixation R	1	8	3338567309	3338766175	198866	965.70	633.99	26	13	-1	20.41	20.41
Saccade L	1	7	3338766175	3338805925	39750	966.90	630.62	1088.96	583.88	1.45	98.36	0.50	36.58	2371.83	-1802.46	1582.39
Saccade R	1	7	3338766175	3338805925	39750	966.90	630.62	1088.96	583.88	1.45	98.36	0.50	36.58	2371.83	-1802.46	1582.39
Fixation L	1	9	3338805925	3339124155	318230	1100.02	581.68	54	36	-1	19.01	19.01
Fixation R	1	9	3338805925	3339124155	318230	1100.02	581.68	54	36	-1	20.37	20.37
Saccade L	1	8	3339124155	3339144152	19997	1142.98	572.42	1214.83	616.07	0.90	85.05	1.00	45.03	2094.40	-2116.25	1468.62
Saccade R	1	8	3339124155	3339144152	19997	1142.98	572.42	1214.83	616.07	0.90	85.05	1.00	45.03	2094.40	-2116.25	1468.62
Fixation L	1	10	3339144152	3339323148	178996	1232.10	656.00	22	49	-1	18.79	18.79
Fixation R	1	10	3339144152	3339323148	178996	1232.10	656.00	22	49	-1	20.12	20.12
