[BeGaze]
Converted from:	C:\Documents and Settings\iViewX\Desktop\EXPERIMENTATIONS\Experiments\results\finaleart\S15H25531-finaleart-1.idf
Date:	27.03.2019 15:45:47
Version:	BeGaze 2.5.77
Sample Rate:	50
Subject:	S15H25531
Description:	Mikail Demirdelen

Table Header for Fixations:
Event Type	Trial	Number	Start	End	Duration	Location X	Location Y	Dispersion X	Dispersion Y	Plane	Avg. Pupil Size X	Avg. Pupil Size Y

Table Header for Saccades:
Event Type	Trial	Number	Start	End	Duration	Start Loc.X	Start Loc.Y	End Loc.X	End Loc.Y	Amplitude	Peak Speed	Peak Speed At	Average Speed	Peak Accel.	Peak Decel.	Average Accel.

Table Header for Blinks:
Event Type	Trial	Number	Start	End	Duration

Table Header for User Events:
Event Type	Trial	Number	Start	Description

UserEvent	1	1	4658128839	# Message: REJECTED_rose_in_a_bowl_fantin_latour_1883.jpg
Fixation L	1	1	4658137048	4658554719	417671	921.14	574.14	15	24	-1	15.89	15.89
Fixation R	1	1	4658137048	4658554719	417671	921.14	574.14	15	24	-1	18.08	18.08
Saccade L	1	1	4658554719	4658574601	19882	913.49	588.88	757.63	609.17	0.93	158.96	1.00	46.62	3858.20	-3755.61	2705.75
Saccade R	1	1	4658554719	4658574601	19882	913.49	588.88	757.63	609.17	0.93	158.96	1.00	46.62	3858.20	-3755.61	2705.75
Fixation L	1	2	4658574601	4658952584	377983	769.06	622.71	24	20	-1	15.81	15.81
Fixation R	1	2	4658574601	4658952584	377983	769.06	622.71	24	20	-1	18.20	18.20
Saccade L	1	2	4658952584	4658992331	39747	776.77	629.99	1231.46	571.48	3.92	303.58	0.50	98.52	7562.93	-7312.46	5600.15
Saccade R	1	2	4658952584	4658992331	39747	776.77	629.99	1231.46	571.48	3.92	303.58	0.50	98.52	7562.93	-7312.46	5600.15
Fixation L	1	3	4658992331	4659191212	198881	1227.39	556.58	63	24	-1	15.70	15.70
Fixation R	1	3	4658992331	4659191212	198881	1227.39	556.58	63	24	-1	17.75	17.75
Saccade L	1	3	4659191212	4659211064	19852	1279.71	547.31	1304.18	555.05	0.53	54.45	0.00	26.80	633.88	-706.49	604.89
Saccade R	1	3	4659191212	4659211064	19852	1279.71	547.31	1304.18	555.05	0.53	54.45	0.00	26.80	633.88	-706.49	604.89
Fixation L	1	4	4659211064	4659509419	298355	1331.78	569.01	38	22	-1	14.93	14.93
Fixation R	1	4	4659211064	4659509419	298355	1331.78	569.01	38	22	-1	17.09	17.09
Blink L	1	1	4659509419	4659668532	159113
Blink R	1	1	4659509419	4659668532	159113
Saccade L	1	4	4659668532	4659688408	19876	1341.79	626.33	1357.21	601.63	2.75	455.77	1.00	138.33	1085.51	-10657.76	4117.15
Saccade R	1	4	4659668532	4659688408	19876	1341.79	626.33	1357.21	601.63	2.75	455.77	1.00	138.33	1085.51	-10657.76	4117.15
Fixation L	1	5	4659688408	4659887406	198998	1353.44	566.08	10	59	-1	15.50	15.50
Fixation R	1	5	4659688408	4659887406	198998	1353.44	566.08	10	59	-1	17.29	17.29
Saccade L	1	5	4659887406	4659927156	39750	1351.99	568.80	1100.11	546.47	2.23	158.49	1.00	56.15	3897.29	-3838.72	3014.59
Saccade R	1	5	4659887406	4659927156	39750	1351.99	568.80	1100.11	546.47	2.23	158.49	1.00	56.15	3897.29	-3838.72	3014.59
Fixation L	1	6	4659927156	4660205636	278480	1088.60	529.05	25	24	-1	15.82	15.82
Fixation R	1	6	4659927156	4660205636	278480	1088.60	529.05	25	24	-1	17.61	17.61
Saccade L	1	6	4660205636	4660245405	39769	1077.47	527.69	741.73	538.34	2.87	195.80	1.00	72.22	4838.02	-4724.54	4070.67
Saccade R	1	6	4660205636	4660245405	39769	1077.47	527.69	741.73	538.34	2.87	195.80	1.00	72.22	4838.02	-4724.54	4070.67
Fixation L	1	7	4660245405	4660802234	556829	746.86	567.66	14	45	-1	14.57	14.57
Fixation R	1	7	4660245405	4660802234	556829	746.86	567.66	14	45	-1	16.62	16.62
Saccade L	1	7	4660802234	4660822225	19991	748.32	565.53	821.65	423.71	0.85	161.47	1.00	42.45	4025.49	-3989.41	2716.52
Saccade R	1	7	4660802234	4660822225	19991	748.32	565.53	821.65	423.71	0.85	161.47	1.00	42.45	4025.49	-3989.41	2716.52
Fixation L	1	8	4660822225	4660961353	139128	827.00	419.48	12	29	-1	13.60	13.60
Fixation R	1	8	4660822225	4660961353	139128	827.00	419.48	12	29	-1	15.23	15.23
Saccade L	1	8	4660961353	4661001243	39890	834.39	421.68	1404.91	529.41	5.08	359.35	0.50	127.23	8747.29	-8750.53	7131.28
Saccade R	1	8	4660961353	4661001243	39890	834.39	421.68	1404.91	529.41	5.08	359.35	0.50	127.23	8747.29	-8750.53	7131.28
Fixation L	1	9	4661001243	4661319454	318211	1409.39	522.79	53	20	-1	13.02	13.02
Fixation R	1	9	4661001243	4661319454	318211	1409.39	522.79	53	20	-1	14.57	14.57
Saccade L	1	9	4661319454	4661339335	19881	1365.68	533.66	1341.39	537.67	0.41	28.28	0.00	20.46	102.02	-542.93	385.46
Saccade R	1	9	4661319454	4661339335	19881	1365.68	533.66	1341.39	537.67	0.41	28.28	0.00	20.46	102.02	-542.93	385.46
Fixation L	1	10	4661339335	4661438832	99497	1331.17	547.22	29	19	-1	13.19	13.19
Fixation R	1	10	4661339335	4661438832	99497	1331.17	547.22	29	19	-1	14.65	14.65
Blink L	1	2	4661438832	4661577943	139111
Saccade R	1	10	4661438832	4661538226	99394	1312.09	552.95	880.59	590.19	15.19	472.72	0.20	152.79	11545.42	-6897.58	5652.92
Fixation R	1	11	4661538226	4661836558	298332	902.83	600.21	29	30	-1	16.05	16.05
Fixation L	1	11	4661577943	4661836558	258615	904.47	601.36	17	30	-1	14.97	14.97
Saccade L	1	10	4661836558	4661856429	19871	892.46	600.96	772.26	615.97	0.74	122.53	1.00	37.05	3027.49	-3033.52	2112.56
Saccade R	1	11	4661836558	4661856429	19871	892.46	600.96	772.26	615.97	0.74	122.53	1.00	37.05	3027.49	-3033.52	2112.56
Fixation L	1	12	4661856429	4662115042	258613	772.29	618.09	6	25	-1	15.16	15.16
Fixation R	1	12	4661856429	4662115042	258613	772.29	618.09	6	25	-1	16.57	16.57
