[BeGaze]
Converted from:	C:\Documents and Settings\iViewX\Desktop\EXPERIMENTATIONS\Experiments\results\finaleart\S15H25531-finaleart-1.idf
Date:	27.03.2019 15:44:46
Version:	BeGaze 2.5.77
Sample Rate:	50
Subject:	S15H25531
Description:	Mikail Demirdelen

Table Header for Fixations:
Event Type	Trial	Number	Start	End	Duration	Location X	Location Y	Dispersion X	Dispersion Y	Plane	Avg. Pupil Size X	Avg. Pupil Size Y

Table Header for Saccades:
Event Type	Trial	Number	Start	End	Duration	Start Loc.X	Start Loc.Y	End Loc.X	End Loc.Y	Amplitude	Peak Speed	Peak Speed At	Average Speed	Peak Accel.	Peak Decel.	Average Accel.

Table Header for Blinks:
Event Type	Trial	Number	Start	End	Duration

Table Header for User Events:
Event Type	Trial	Number	Start	Description

UserEvent	1	1	3840335142	# Message: Le_Chemin_De_Fer_Berlin_Potsdam_Menzel_1847.jpg
Fixation L	1	1	3840350452	3841066540	716088	797.68	506.91	83	15	-1	13.85	13.85
Fixation R	1	1	3840350452	3841066540	716088	797.68	506.91	83	15	-1	15.56	15.56
Saccade L	1	1	3841066540	3841086408	19868	739.39	515.43	733.89	518.21	0.17	14.24	1.00	8.60	-94.26	-200.00	145.96
Saccade R	1	1	3841066540	3841086408	19868	739.39	515.43	733.89	518.21	0.17	14.24	1.00	8.60	-94.26	-200.00	145.96
Fixation L	1	2	3841086408	3841205656	119248	726.93	530.98	12	70	-1	14.15	14.15
Fixation R	1	2	3841086408	3841205656	119248	726.93	530.98	12	70	-1	15.95	15.95
Saccade L	1	2	3841205656	3841245521	39865	725.45	587.89	756.89	907.10	3.58	223.16	0.50	89.70	5459.45	-4983.85	3855.10
Saccade R	1	2	3841205656	3841245521	39865	725.45	587.89	756.89	907.10	3.58	223.16	0.50	89.70	5459.45	-4983.85	3855.10
Fixation L	1	3	3841245521	3841424518	178997	790.76	899.60	54	25	-1	14.43	14.43
Fixation R	1	3	3841245521	3841424518	178997	790.76	899.60	54	25	-1	16.36	16.36
Saccade L	1	3	3841424518	3841444397	19879	811.66	881.34	864.36	752.84	1.17	140.48	1.00	58.90	3417.99	-3259.00	2510.76
Saccade R	1	3	3841424518	3841444397	19879	811.66	881.34	864.36	752.84	1.17	140.48	1.00	58.90	3417.99	-3259.00	2510.76
Fixation L	1	4	3841444397	3841722883	278486	888.23	702.46	30	63	-1	14.58	14.58
Fixation R	1	4	3841444397	3841722883	278486	888.23	702.46	30	63	-1	16.48	16.48
Saccade L	1	4	3841722883	3841742753	19870	893.04	713.57	877.58	936.35	1.28	225.79	1.00	64.31	5450.31	-5460.08	3811.30
Saccade R	1	4	3841722883	3841742753	19870	893.04	713.57	877.58	936.35	1.28	225.79	1.00	64.31	5450.31	-5460.08	3811.30
Fixation L	1	5	3841742753	3842120612	377859	842.83	948.75	65	27	-1	15.43	15.43
Fixation R	1	5	3841742753	3842120612	377859	842.83	948.75	65	27	-1	17.10	17.10
Saccade L	1	5	3842120612	3842140483	19871	811.80	964.24	807.32	967.94	0.17	20.30	1.00	8.77	122.05	-360.28	179.11
Saccade R	1	5	3842120612	3842140483	19871	811.80	964.24	807.32	967.94	0.17	20.30	1.00	8.77	122.05	-360.28	179.11
Fixation L	1	6	3842140483	3842379230	238747	801.51	979.83	75	19	-1	15.90	15.90
Fixation R	1	6	3842140483	3842379230	238747	801.51	979.83	75	19	-1	17.59	17.59
Saccade L	1	6	3842379230	3842399093	19863	865.77	974.10	825.21	936.27	0.71	77.50	0.00	35.73	1351.03	-1756.46	1324.84
Saccade R	1	6	3842379230	3842399093	19863	865.77	974.10	825.21	936.27	0.71	77.50	0.00	35.73	1351.03	-1756.46	1324.84
Fixation L	1	7	3842399093	3842498596	99503	837.54	918.11	27	31	-1	15.79	15.79
Fixation R	1	7	3842399093	3842498596	99503	837.54	918.11	27	31	-1	17.36	17.36
Saccade L	1	7	3842498596	3842538346	39750	846.02	905.11	1212.61	769.74	3.43	210.45	1.00	86.16	5169.34	-5227.94	4801.87
Saccade R	1	7	3842498596	3842538346	39750	846.02	905.11	1212.61	769.74	3.43	210.45	1.00	86.16	5169.34	-5227.94	4801.87
Fixation L	1	8	3842538346	3842916197	377851	1206.44	787.58	10	29	-1	15.58	15.58
Fixation R	1	8	3842538346	3842916197	377851	1206.44	787.58	10	29	-1	16.98	16.98
Saccade L	1	8	3842916197	3842956077	39880	1208.90	794.28	1395.85	579.28	2.76	192.41	0.50	69.30	4648.76	-4392.07	3775.27
Saccade R	1	8	3842916197	3842956077	39880	1208.90	794.28	1395.85	579.28	2.76	192.41	0.50	69.30	4648.76	-4392.07	3775.27
Fixation L	1	9	3842956077	3843214556	258479	1408.68	583.99	24	72	-1	14.95	14.95
Fixation R	1	9	3842956077	3843214556	258479	1408.68	583.99	24	72	-1	16.17	16.17
Saccade L	1	9	3843214556	3843234439	19883	1395.09	554.83	1390.28	550.60	0.17	11.58	0.00	8.47	66.75	-21.04	40.88
Saccade R	1	9	3843214556	3843234439	19883	1395.09	554.83	1390.28	550.60	0.17	11.58	0.00	8.47	66.75	-21.04	40.88
Fixation L	1	10	3843234439	3843393555	159116	1386.86	536.27	13	18	-1	14.64	14.64
Fixation R	1	10	3843234439	3843393555	159116	1386.86	536.27	13	18	-1	15.63	15.63
Saccade L	1	10	3843393555	3843413542	19987	1384.09	531.61	1459.25	523.69	0.43	76.45	1.00	21.47	1820.18	-1660.07	1161.59
Saccade R	1	10	3843393555	3843413542	19987	1384.09	531.61	1459.25	523.69	0.43	76.45	1.00	21.47	1820.18	-1660.07	1161.59
Fixation L	1	11	3843413542	3843612417	198875	1466.33	503.22	11	40	-1	14.08	14.08
Fixation R	1	11	3843413542	3843612417	198875	1466.33	503.22	11	40	-1	15.31	15.31
Saccade L	1	11	3843612417	3843652158	39741	1471.07	482.77	1066.76	574.17	3.47	302.51	0.50	87.41	7502.19	-7426.75	5081.13
Saccade R	1	11	3843612417	3843652158	39741	1471.07	482.77	1066.76	574.17	3.47	302.51	0.50	87.41	7502.19	-7426.75	5081.13
Fixation L	1	12	3843652158	3843791404	139246	1058.34	582.96	13	21	-1	14.51	14.51
Fixation R	1	12	3843652158	3843791404	139246	1058.34	582.96	13	21	-1	15.47	15.47
Saccade L	1	12	3843791404	3843831160	39756	1053.52	592.30	948.57	669.49	1.27	82.85	0.50	31.89	2017.63	-1582.87	1445.37
Saccade R	1	12	3843791404	3843831160	39756	1053.52	592.30	948.57	669.49	1.27	82.85	0.50	31.89	2017.63	-1582.87	1445.37
Fixation L	1	13	3843831160	3844129516	298356	924.98	677.97	30	23	-1	14.66	14.66
Fixation R	1	13	3843831160	3844129516	298356	924.98	677.97	30	23	-1	15.93	15.93
Saccade L	1	13	3844129516	3844169270	39754	918.19	684.26	1111.70	445.71	2.81	243.59	0.50	70.69	5987.21	-5711.13	4010.35
Saccade R	1	13	3844129516	3844169270	39754	918.19	684.26	1111.70	445.71	2.81	243.59	0.50	70.69	5987.21	-5711.13	4010.35
Fixation L	1	14	3844169270	3844328384	159114	1123.59	459.77	18	22	-1	14.99	14.99
Fixation R	1	14	3844169270	3844328384	159114	1123.59	459.77	18	22	-1	16.28	16.28
