[BeGaze]
Converted from:	C:\Documents and Settings\iViewX\Desktop\EXPERIMENTATIONS\Experiments\results\finaleart\S15H25531-finaleart-1.idf
Date:	27.03.2019 15:45:32
Version:	BeGaze 2.5.77
Sample Rate:	50
Subject:	S15H25531
Description:	Mikail Demirdelen

Table Header for Fixations:
Event Type	Trial	Number	Start	End	Duration	Location X	Location Y	Dispersion X	Dispersion Y	Plane	Avg. Pupil Size X	Avg. Pupil Size Y

Table Header for Saccades:
Event Type	Trial	Number	Start	End	Duration	Start Loc.X	Start Loc.Y	End Loc.X	End Loc.Y	Amplitude	Peak Speed	Peak Speed At	Average Speed	Peak Accel.	Peak Decel.	Average Accel.

Table Header for Blinks:
Event Type	Trial	Number	Start	End	Duration

Table Header for User Events:
Event Type	Trial	Number	Start	Description

UserEvent	1	1	4480422821	# Message: Ma_Maison_Martin_XXXX.jpg
Fixation L	1	1	4480434491	4480872085	437594	1040.64	491.49	19	21	-1	15.94	15.94
Fixation R	1	1	4480434491	4480872085	437594	1040.64	491.49	19	21	-1	17.54	17.54
Saccade L	1	1	4480872085	4480911830	39745	1044.96	492.25	1394.74	427.44	3.19	298.84	0.50	80.23	7380.79	-6954.37	4270.03
Saccade R	1	1	4480872085	4480911830	39745	1044.96	492.25	1394.74	427.44	3.19	298.84	0.50	80.23	7380.79	-6954.37	4270.03
Fixation L	1	2	4480911830	4481031189	119359	1399.67	427.36	62	9	-1	15.09	15.09
Fixation R	1	2	4480911830	4481031189	119359	1399.67	427.36	62	9	-1	17.00	17.00
Saccade L	1	2	4481031189	4481070934	39745	1352.21	425.85	714.52	400.83	6.05	377.62	0.50	152.13	9395.71	-8112.55	7309.42
Saccade R	1	2	4481031189	4481070934	39745	1352.21	425.85	714.52	400.83	6.05	377.62	0.50	152.13	9395.71	-8112.55	7309.42
Fixation L	1	3	4481070934	4481289686	218752	765.27	391.45	57	39	-1	13.56	13.56
Fixation R	1	3	4481070934	4481289686	218752	765.27	391.45	57	39	-1	15.21	15.21
Saccade L	1	3	4481289686	4481409072	119386	771.78	377.18	996.41	725.25	5.94	243.70	0.83	49.78	6051.64	-5825.49	2599.78
Saccade R	1	3	4481289686	4481409072	119386	771.78	377.18	996.41	725.25	5.94	243.70	0.83	49.78	6051.64	-5825.49	2599.78
Fixation L	1	4	4481409072	4481767034	357962	999.14	715.11	24	16	-1	13.96	13.96
Fixation R	1	4	4481409072	4481767034	357962	999.14	715.11	24	16	-1	15.81	15.81
Saccade L	1	4	4481767034	4481806912	39878	1015.63	715.16	1441.09	423.94	4.47	358.69	0.50	111.99	8906.22	-8521.49	6265.08
Saccade R	1	4	4481767034	4481806912	39878	1015.63	715.16	1441.09	423.94	4.47	358.69	0.50	111.99	8906.22	-8521.49	6265.08
Fixation L	1	5	4481806912	4482005780	198868	1436.40	452.44	7	38	-1	14.93	14.93
Fixation R	1	5	4481806912	4482005780	198868	1436.40	452.44	7	38	-1	16.87	16.87
Saccade L	1	5	4482005780	4482065398	59618	1433.45	462.78	1022.81	460.06	4.44	265.81	0.67	74.46	6617.87	-5961.07	3347.20
Saccade R	1	5	4482005780	4482065398	59618	1433.45	462.78	1022.81	460.06	4.44	265.81	0.67	74.46	6617.87	-5961.07	3347.20
Fixation L	1	6	4482065398	4482602499	537101	998.17	425.50	32	43	-1	14.59	14.59
Fixation R	1	6	4482065398	4482622373	556975	999.36	425.67	42	43	-1	16.60	16.60
Blink L	1	1	4482602499	4482721863	119364
Saccade R	1	6	4482622373	4482681993	59620	1032.71	430.26	1419.62	374.90	4.70	167.00	0.67	78.85	3891.89	-3410.28	2858.46
Fixation R	1	7	4482681993	4482841110	159117	1409.25	362.11	18	24	-1	17.16	17.16
Fixation L	1	7	4482721863	4482841110	119247	1408.89	361.90	8	14	-1	15.56	15.56
Saccade L	1	6	4482841110	4482860981	19871	1406.89	363.56	1515.70	367.71	0.68	110.15	1.00	34.31	2599.08	-2327.24	1777.36
Saccade R	1	7	4482841110	4482860981	19871	1406.89	363.56	1515.70	367.71	0.68	110.15	1.00	34.31	2599.08	-2327.24	1777.36
Fixation L	1	8	4482860981	4483000226	139245	1488.70	393.42	39	45	-1	14.99	14.99
Fixation R	1	8	4482860981	4483000226	139245	1488.70	393.42	39	45	-1	16.75	16.75
Saccade L	1	7	4483000226	4483040100	39874	1482.76	410.67	1210.76	572.09	3.03	280.58	1.00	76.10	6886.42	-6632.09	3667.18
Saccade R	1	8	4483000226	4483040100	39874	1482.76	410.67	1210.76	572.09	3.03	280.58	1.00	76.10	6886.42	-6632.09	3667.18
Fixation L	1	9	4483040100	4483497453	457353	1225.21	535.80	25	45	-1	14.65	14.65
Fixation R	1	9	4483040100	4483497453	457353	1225.21	535.80	25	45	-1	15.82	15.82
Saccade L	1	8	4483497453	4483537330	39877	1214.78	539.53	1428.58	426.76	2.36	140.44	1.00	59.15	3495.87	-3247.61	2977.24
Saccade R	1	9	4483497453	4483537330	39877	1214.78	539.53	1428.58	426.76	2.36	140.44	1.00	59.15	3495.87	-3247.61	2977.24
Fixation L	1	10	4483537330	4483636701	99371	1438.32	451.85	16	37	-1	13.68	13.68
Fixation R	1	10	4483537330	4483636701	99371	1438.32	451.85	16	37	-1	15.15	15.15
Saccade L	1	9	4483636701	4483696446	59745	1437.79	464.13	743.15	865.18	8.46	356.22	0.67	141.66	8780.69	-8488.62	5861.18
Saccade R	1	10	4483636701	4483696446	59745	1437.79	464.13	743.15	865.18	8.46	356.22	0.67	141.66	8780.69	-8488.62	5861.18
Fixation L	1	11	4483696446	4483954934	258488	744.59	873.57	25	23	-1	13.74	13.74
Fixation R	1	11	4483696446	4483954934	258488	744.59	873.57	25	23	-1	15.44	15.44
Saccade L	1	10	4483954934	4484014686	59752	734.13	863.84	913.66	365.50	5.52	232.92	0.67	92.32	5758.05	-5642.89	4039.37
Saccade R	1	11	4483954934	4484014686	59752	734.13	863.84	913.66	365.50	5.52	232.92	0.67	92.32	5758.05	-5642.89	4039.37
Fixation L	1	12	4484014686	4484332917	318231	919.23	367.60	15	14	-1	13.21	13.21
Fixation R	1	12	4484014686	4484332917	318231	919.23	367.60	15	14	-1	15.01	15.01
Saccade L	1	11	4484332917	4484412413	79496	911.19	369.49	853.36	403.89	2.52	103.06	0.25	31.73	2507.58	-1183.38	880.10
Saccade R	1	12	4484332917	4484412413	79496	911.19	369.49	853.36	403.89	2.52	103.06	0.25	31.73	2507.58	-1183.38	880.10
