[BeGaze]
Converted from:	C:\Documents and Settings\iViewX\Desktop\EXPERIMENTATIONS\Experiments\results\finaleart\S15H25531-finaleart-1.idf
Date:	27.03.2019 15:44:32
Version:	BeGaze 2.5.77
Sample Rate:	50
Subject:	S15H25531
Description:	Mikail Demirdelen

Table Header for Fixations:
Event Type	Trial	Number	Start	End	Duration	Location X	Location Y	Dispersion X	Dispersion Y	Plane	Avg. Pupil Size X	Avg. Pupil Size Y

Table Header for Saccades:
Event Type	Trial	Number	Start	End	Duration	Start Loc.X	Start Loc.Y	End Loc.X	End Loc.Y	Amplitude	Peak Speed	Peak Speed At	Average Speed	Peak Accel.	Peak Decel.	Average Accel.

Table Header for Blinks:
Event Type	Trial	Number	Start	End	Duration

Table Header for User Events:
Event Type	Trial	Number	Start	Description

UserEvent	1	1	3439147709	# Message: Kiprensky-two-sitters-1800.jpg
Fixation L	1	1	3439151125	3439588725	437600	936.67	511.71	15	35	-1	14.95	14.95
Fixation R	1	1	3439151125	3439588725	437600	936.67	511.71	15	35	-1	16.33	16.33
Saccade L	1	1	3439588725	3439608599	19874	946.36	498.94	1042.42	465.66	0.72	102.83	1.00	36.13	2495.54	-2105.21	1811.85
Saccade R	1	1	3439588725	3439608599	19874	946.36	498.94	1042.42	465.66	0.72	102.83	1.00	36.13	2495.54	-2105.21	1811.85
Fixation L	1	2	3439608599	3439708092	99493	1038.04	424.55	18	62	-1	14.61	14.61
Fixation R	1	2	3439608599	3439708092	99493	1038.04	424.55	18	62	-1	16.15	16.15
Saccade L	1	2	3439708092	3439807592	99500	1045.19	403.24	907.41	574.26	3.75	208.27	1.00	37.67	4645.02	-4822.70	1521.38
Saccade R	1	2	3439708092	3439807592	99500	1045.19	403.24	907.41	574.26	3.75	208.27	1.00	37.67	4645.02	-4822.70	1521.38
Fixation L	1	3	3439807592	3440026334	218742	898.80	566.94	21	24	-1	12.11	12.11
Fixation R	1	3	3439807592	3440026334	218742	898.80	566.94	21	24	-1	13.50	13.50
Saccade L	1	3	3440026334	3440046204	19870	900.40	563.83	739.16	556.81	0.97	163.22	1.00	48.60	3985.13	-3946.60	2829.65
Saccade R	1	3	3440026334	3440046204	19870	900.40	563.83	739.16	556.81	0.97	163.22	1.00	48.60	3985.13	-3946.60	2829.65
Fixation L	1	4	3440046204	3440205318	159114	697.46	545.67	58	29	-1	11.96	11.96
Fixation R	1	4	3440046204	3440205318	159114	697.46	545.67	58	29	-1	13.76	13.76
Saccade L	1	4	3440205318	3440245074	39756	680.26	527.24	453.60	525.58	1.95	220.15	1.00	48.93	5295.59	-5024.52	2660.23
Saccade R	1	4	3440205318	3440245074	39756	680.26	527.24	453.60	525.58	1.95	220.15	1.00	48.93	5295.59	-5024.52	2660.23
Fixation L	1	5	3440245074	3440483803	238729	467.20	554.93	32	55	-1	12.71	12.71
Fixation R	1	5	3440245074	3440483803	238729	467.20	554.93	32	55	-1	14.63	14.63
Saccade L	1	5	3440483803	3440503683	19880	484.42	580.63	489.73	591.04	0.15	11.82	1.00	7.52	387.52	39.24	163.01
Saccade R	1	5	3440483803	3440503683	19880	484.42	580.63	489.73	591.04	0.15	11.82	1.00	7.52	387.52	39.24	163.01
Fixation L	1	6	3440503683	3440762297	258614	459.63	587.35	52	11	-1	13.20	13.20
Fixation R	1	6	3440503683	3440762297	258614	459.63	587.35	52	11	-1	15.11	15.11
Saccade L	1	6	3440762297	3440782166	19869	442.17	588.13	659.90	590.45	1.17	220.17	1.00	58.80	5454.76	-4783.54	3467.02
Saccade R	1	6	3440762297	3440782166	19869	442.17	588.13	659.90	590.45	1.17	220.17	1.00	58.80	5454.76	-4783.54	3467.02
Fixation L	1	7	3440782166	3441000908	218742	668.81	555.11	40	56	-1	13.12	13.12
Fixation R	1	7	3440782166	3441000908	218742	668.81	555.11	40	56	-1	15.27	15.27
Saccade L	1	7	3441000908	3441020776	19868	691.89	534.37	716.24	500.24	0.43	42.42	1.00	21.89	1002.64	-232.78	473.57
Saccade R	1	7	3441000908	3441020776	19868	691.89	534.37	716.24	500.24	0.43	42.42	1.00	21.89	1002.64	-232.78	473.57
Fixation L	1	8	3441020776	3441140154	119378	715.47	495.23	17	38	-1	13.32	13.32
Fixation R	1	8	3441020776	3441140154	119378	715.47	495.23	17	38	-1	15.48	15.48
Saccade L	1	8	3441140154	3441199773	59619	722.41	492.24	1057.44	148.06	5.29	209.75	0.67	88.76	5139.71	-4752.17	3702.27
Saccade R	1	8	3441140154	3441199773	59619	722.41	492.24	1057.44	148.06	5.29	209.75	0.67	88.76	5139.71	-4752.17	3702.27
Fixation L	1	9	3441199773	3441498129	298356	1061.46	155.32	32	26	-1	12.79	12.79
Fixation R	1	9	3441199773	3441498129	298356	1061.46	155.32	32	26	-1	14.69	14.69
Saccade L	1	9	3441498129	3441538002	39873	1050.56	170.70	1208.87	329.65	2.25	140.20	1.00	56.35	3439.39	-3334.11	2903.19
Saccade R	1	9	3441498129	3441538002	39873	1050.56	170.70	1208.87	329.65	2.25	140.20	1.00	56.35	3439.39	-3334.11	2903.19
Fixation L	1	10	3441538002	3441776622	238620	1228.36	346.34	28	24	-1	12.81	12.81
Fixation R	1	10	3441538002	3441776622	238620	1228.36	346.34	28	24	-1	14.55	14.55
Saccade L	1	10	3441776622	3441796505	19883	1237.17	341.76	1175.99	537.50	1.19	207.37	1.00	59.72	5041.80	-5055.55	3520.90
Saccade R	1	10	3441776622	3441796505	19883	1237.17	341.76	1175.99	537.50	1.19	207.37	1.00	59.72	5041.80	-5055.55	3520.90
Fixation L	1	11	3441796505	3442015366	218861	1182.91	547.18	25	22	-1	13.41	13.41
Fixation R	1	11	3441796505	3442015366	218861	1182.91	547.18	25	22	-1	15.05	15.05
Saccade L	1	11	3442015366	3442035231	19865	1177.46	559.41	1328.45	409.31	1.32	215.28	1.00	66.42	5170.53	-4907.45	3652.97
Saccade R	1	11	3442015366	3442035231	19865	1177.46	559.41	1328.45	409.31	1.32	215.28	1.00	66.42	5170.53	-4907.45	3652.97
Fixation L	1	12	3442035231	3442532461	497230	1322.12	402.10	51	44	-1	14.10	14.10
Fixation R	1	12	3442035231	3442532461	497230	1322.12	402.10	51	44	-1	15.95	15.95
Saccade L	1	12	3442532461	3442572205	39744	1299.88	393.90	1059.59	567.95	2.65	243.99	0.50	66.61	6049.72	-5375.81	3387.04
Saccade R	1	12	3442532461	3442572205	39744	1299.88	393.90	1059.59	567.95	2.65	243.99	0.50	66.61	6049.72	-5375.81	3387.04
Fixation L	1	13	3442572205	3442711451	139246	1035.34	570.70	30	32	-1	14.76	14.76
Fixation R	1	13	3442572205	3442711451	139246	1035.34	570.70	30	32	-1	16.83	16.83
Saccade L	1	13	3442711451	3442731315	19864	1031.66	580.49	915.42	578.56	0.86	117.59	1.00	43.06	2820.27	-2277.32	2073.53
Saccade R	1	13	3442711451	3442731315	19864	1031.66	580.49	915.42	578.56	0.86	117.59	1.00	43.06	2820.27	-2277.32	2073.53
Fixation L	1	14	3442731315	3442950187	218872	850.10	589.77	77	21	-1	15.05	15.05
Fixation R	1	14	3442731315	3442950187	218872	850.10	589.77	77	21	-1	16.96	16.96
Saccade L	1	14	3442950187	3442970062	19875	837.68	598.54	835.43	599.05	0.05	3.51	1.00	2.30	-29.20	-36.96	33.35
Saccade R	1	14	3442950187	3442970062	19875	837.68	598.54	835.43	599.05	0.05	3.51	1.00	2.30	-29.20	-36.96	33.35
Fixation L	1	15	3442970062	3443149057	178995	833.41	596.32	5	7	-1	15.09	15.09
Fixation R	1	15	3442970062	3443149057	178995	833.41	596.32	5	7	-1	16.76	16.76
