[BeGaze]
Converted from:	C:\Documents and Settings\iViewX\Desktop\EXPERIMENTATIONS\Experiments\results\finaleart\S15H25531-finaleart-1.idf
Date:	27.03.2019 15:44:39
Version:	BeGaze 2.5.77
Sample Rate:	50
Subject:	S15H25531
Description:	Mikail Demirdelen

Table Header for Fixations:
Event Type	Trial	Number	Start	End	Duration	Location X	Location Y	Dispersion X	Dispersion Y	Plane	Avg. Pupil Size X	Avg. Pupil Size Y

Table Header for Saccades:
Event Type	Trial	Number	Start	End	Duration	Start Loc.X	Start Loc.Y	End Loc.X	End Loc.Y	Amplitude	Peak Speed	Peak Speed At	Average Speed	Peak Accel.	Peak Decel.	Average Accel.

Table Header for Blinks:
Event Type	Trial	Number	Start	End	Duration

Table Header for User Events:
Event Type	Trial	Number	Start	Description

UserEvent	1	1	3773161255	# Message: landschaft_mit_dem_ondregenbogen_caspar_david_friedrich_1810.jpg
Fixation L	1	1	3773171292	3773768001	596709	922.15	576.66	18	54	-1	13.97	13.97
Fixation R	1	1	3773171292	3773768001	596709	922.15	576.66	18	54	-1	15.49	15.49
Saccade L	1	1	3773768001	3773787877	19876	917.67	592.78	917.07	480.62	1.03	113.45	1.00	51.77	2684.67	-2040.53	2128.51
Saccade R	1	1	3773768001	3773787877	19876	917.67	592.78	917.07	480.62	1.03	113.45	1.00	51.77	2684.67	-2040.53	2128.51
Fixation L	1	2	3773787877	3774006765	218888	910.65	422.06	14	80	-1	14.32	14.32
Fixation R	1	2	3773787877	3774006765	218888	910.65	422.06	14	80	-1	15.55	15.55
Saccade L	1	2	3774006765	3774026618	19853	904.11	400.38	833.94	424.37	0.52	75.01	1.00	26.06	1835.32	-1718.62	1342.36
Saccade R	1	2	3774006765	3774026618	19853	904.11	400.38	833.94	424.37	0.52	75.01	1.00	26.06	1835.32	-1718.62	1342.36
Fixation L	1	3	3774026618	3774961444	934826	808.50	402.88	33	49	-1	12.87	12.87
Fixation R	1	3	3774026618	3774961444	934826	808.50	402.88	33	49	-1	14.34	14.34
Blink L	1	1	3774961444	3775080818	119374
Saccade R	1	3	3774961444	3775021077	59633	804.59	424.70	1298.45	391.78	5.76	266.86	0.67	96.66	6583.70	-5348.76	3759.40
Fixation R	1	4	3775021077	3775259809	238732	1240.36	414.91	66	33	-1	13.56	13.56
Fixation L	1	4	3775080818	3775279678	198860	1234.39	417.84	9	15	-1	12.42	12.42
Saccade R	1	4	3775259809	3775319428	59619	1232.21	415.32	1569.83	491.18	3.97	193.95	1.00	66.56	4757.39	-4128.01	3240.43
Saccade L	1	3	3775279678	3775319428	39750	1231.45	411.79	1569.83	491.18	3.10	193.95	1.00	77.86	4757.39	-4128.01	4010.64
Fixation L	1	5	3775319428	3775558163	238735	1578.37	542.27	14	69	-1	12.81	12.81
Fixation R	1	5	3775319428	3775558163	238735	1578.37	542.27	14	69	-1	13.81	13.81
Saccade L	1	4	3775558163	3775578043	19880	1584.01	560.88	1677.82	591.23	0.72	99.73	1.00	36.32	2288.77	-2070.83	1588.71
Saccade R	1	5	3775558163	3775578043	19880	1584.01	560.88	1677.82	591.23	0.72	99.73	1.00	36.32	2288.77	-2070.83	1588.71
Fixation L	1	6	3775578043	3775677414	99371	1661.64	598.90	27	20	-1	13.27	13.27
Fixation R	1	6	3775578043	3775677414	99371	1661.64	598.90	27	20	-1	13.98	13.98
Saccade L	1	5	3775677414	3775776898	99484	1650.78	610.02	1102.79	958.21	26.51	1446.39	1.00	266.46	35693.13	-9275.98	8726.40
Saccade R	1	6	3775677414	3775776898	99484	1650.78	610.02	1102.79	958.21	26.51	1446.39	1.00	266.46	35693.13	-9275.98	8726.40
Blink L	1	2	3775776898	3775955902	179004
Blink R	1	1	3775776898	3775955902	179004
Saccade L	1	6	3775955902	3776035522	79620	1126.85	999.95	1061.56	1065.85	2.15	79.67	1.00	26.99	1723.25	-1409.49	744.32
Saccade R	1	7	3775955902	3776035522	79620	1126.85	999.95	1061.56	1065.85	2.15	79.67	1.00	26.99	1723.25	-1409.49	744.32
Fixation L	1	7	3776035522	3776154758	119236	1045.53	1066.40	30	15	-1	15.33	15.33
Fixation R	1	7	3776035522	3776154758	119236	1045.53	1066.40	30	15	-1	16.07	16.07
Blink L	1	3	3776154758	3776373628	218870
Blink R	1	2	3776154758	3776373628	218870
Fixation L	1	8	3776373628	3776990229	616601	1023.49	1036.46	29	69	-1	14.85	14.85
Fixation R	1	8	3776373628	3776990229	616601	1023.49	1036.46	29	69	-1	16.19	16.19
Saccade L	1	7	3776990229	3777010094	19865	1014.48	1024.32	1014.96	1022.97	0.02	1.44	1.00	1.07	10.98	4.23	6.91
Saccade R	1	8	3776990229	3777010094	19865	1014.48	1024.32	1014.96	1022.97	0.02	1.44	1.00	1.07	10.98	4.23	6.91
Fixation L	1	9	3777010094	3777129471	119377	1013.76	1024.42	2	3	-1	14.34	14.34
Fixation R	1	9	3777010094	3777129471	119377	1013.76	1024.42	2	3	-1	15.60	15.60
Saccade L	1	8	3777129471	3777149345	19874	1012.63	1024.53	876.75	1017.24	0.94	137.63	1.00	47.14	3373.37	0.00	1686.69
Saccade R	1	9	3777129471	3777149345	19874	1012.63	1024.53	876.75	1017.24	0.94	137.63	1.00	47.14	3373.37	0.00	1686.69
