[BeGaze]
Converted from:	C:\Documents and Settings\iViewX\Desktop\EXPERIMENTATIONS\Experiments\results\finaleart\S15H25531-finaleart-1.idf
Date:	27.03.2019 15:44:43
Version:	BeGaze 2.5.77
Sample Rate:	50
Subject:	S15H25531
Description:	Mikail Demirdelen

Table Header for Fixations:
Event Type	Trial	Number	Start	End	Duration	Location X	Location Y	Dispersion X	Dispersion Y	Plane	Avg. Pupil Size X	Avg. Pupil Size Y

Table Header for Saccades:
Event Type	Trial	Number	Start	End	Duration	Start Loc.X	Start Loc.Y	End Loc.X	End Loc.Y	Amplitude	Peak Speed	Peak Speed At	Average Speed	Peak Accel.	Peak Decel.	Average Accel.

Table Header for Blinks:
Event Type	Trial	Number	Start	End	Duration

Table Header for User Events:
Event Type	Trial	Number	Start	Description

UserEvent	1	1	3807800377	# Message: void.jpg
Saccade L	1	1	3807810386	3807870012	59626	1279.75	644.52	542.92	951.48	10.26	367.43	0.67	172.07	9185.75	-8232.17	4786.56
Saccade R	1	1	3807810386	3807870012	59626	1279.75	644.52	542.92	951.48	10.26	367.43	0.67	172.07	9185.75	-8232.17	4786.56
Fixation L	1	1	3807870012	3808426982	556970	555.62	958.06	38	17	-1	14.87	14.87
Fixation R	1	1	3807870012	3808426982	556970	555.62	958.06	38	17	-1	16.55	16.55
Blink L	1	1	3808426982	3808625842	198860
Blink R	1	1	3808426982	3808625842	198860
Fixation L	1	2	3808625842	3808983834	357992	593.40	909.92	32	65	-1	14.38	14.38
Fixation R	1	2	3808625842	3808983834	357992	593.40	909.92	32	65	-1	15.81	15.81
Saccade L	1	2	3808983834	3809003691	19857	572.74	933.12	570.01	933.17	0.09	5.85	1.00	4.58	110.69	-77.25	72.75
Saccade R	1	2	3808983834	3809003691	19857	572.74	933.12	570.01	933.17	0.09	5.85	1.00	4.58	110.69	-77.25	72.75
Fixation L	1	3	3809003691	3809381670	377979	562.59	950.62	11	28	-1	14.24	14.24
Fixation R	1	3	3809003691	3809381670	377979	562.59	950.62	11	28	-1	15.83	15.83
Saccade L	1	3	3809381670	3809461171	79501	563.36	953.70	1172.09	276.02	10.76	300.54	0.50	135.32	7437.89	-5379.90	4298.15
Saccade R	1	3	3809381670	3809461171	79501	563.36	953.70	1172.09	276.02	10.76	300.54	0.50	135.32	7437.89	-5379.90	4298.15
Fixation L	1	4	3809461171	3809799408	338237	1151.60	278.72	26	28	-1	13.67	13.67
Fixation R	1	4	3809461171	3809799408	338237	1151.60	278.72	26	28	-1	14.77	14.77
