[BeGaze]
Converted from:	C:\Documents and Settings\iViewX\Desktop\EXPERIMENTATIONS\Experiments\results\finaleart\S15H25531-finaleart-1.idf
Date:	27.03.2019 15:44:25
Version:	BeGaze 2.5.77
Sample Rate:	50
Subject:	S15H25531
Description:	Mikail Demirdelen

Table Header for Fixations:
Event Type	Trial	Number	Start	End	Duration	Location X	Location Y	Dispersion X	Dispersion Y	Plane	Avg. Pupil Size X	Avg. Pupil Size Y

Table Header for Saccades:
Event Type	Trial	Number	Start	End	Duration	Start Loc.X	Start Loc.Y	End Loc.X	End Loc.Y	Amplitude	Peak Speed	Peak Speed At	Average Speed	Peak Accel.	Peak Decel.	Average Accel.

Table Header for Blinks:
Event Type	Trial	Number	Start	End	Duration

Table Header for User Events:
Event Type	Trial	Number	Start	Description

UserEvent	1	1	3369925819	# Message: void.jpg
Fixation L	1	1	3369933812	3370630037	696225	1159.21	690.09	9	37	-1	16.01	16.01
Fixation R	1	1	3369933812	3370630037	696225	1159.21	690.09	9	37	-1	16.84	16.84
Saccade L	1	1	3370630037	3370709520	79483	1160.44	664.47	570.26	630.60	7.20	196.49	0.50	90.53	4744.28	-3099.05	2949.03
Saccade R	1	1	3370630037	3370709520	79483	1160.44	664.47	570.26	630.60	7.20	196.49	0.50	90.53	4744.28	-3099.05	2949.03
Fixation L	1	2	3370709520	3370888636	179116	553.69	623.90	43	37	-1	14.95	14.95
Fixation R	1	2	3370709520	3370888636	179116	553.69	623.90	43	37	-1	15.96	15.96
Saccade L	1	2	3370888636	3370908510	19874	541.57	610.69	531.79	598.54	0.18	15.78	1.00	9.15	264.12	-384.22	298.01
Saccade R	1	2	3370888636	3370908510	19874	541.57	610.69	531.79	598.54	0.18	15.78	1.00	9.15	264.12	-384.22	298.01
Fixation L	1	3	3370908510	3371544978	636468	544.09	635.41	23	66	-1	15.10	15.10
Fixation R	1	3	3370908510	3371544978	636468	544.09	635.41	23	66	-1	16.53	16.53
Saccade L	1	3	3371544978	3371584726	39748	543.40	656.89	845.84	599.37	2.62	199.08	0.50	65.89	4902.42	-4841.49	3736.75
Saccade R	1	3	3371544978	3371584726	39748	543.40	656.89	845.84	599.37	2.62	199.08	0.50	65.89	4902.42	-4841.49	3736.75
Fixation L	1	4	3371584726	3371843348	258622	843.99	570.29	8	46	-1	15.15	15.15
Fixation R	1	4	3371584726	3371843348	258622	843.99	570.29	8	46	-1	16.38	16.38
Saccade L	1	4	3371843348	3371922832	79484	849.07	557.96	947.58	506.96	3.05	72.61	0.50	38.43	1690.43	-861.61	797.41
Saccade R	1	4	3371843348	3371922832	79484	849.07	557.96	947.58	506.96	3.05	72.61	0.50	38.43	1690.43	-861.61	797.41
