[BeGaze]
Converted from:	C:\Documents and Settings\iViewX\Desktop\EXPERIMENTATIONS\Experiments\results\finaleart\S15H25531-finaleart-1.idf
Date:	27.03.2019 15:45:31
Version:	BeGaze 2.5.77
Sample Rate:	50
Subject:	S15H25531
Description:	Mikail Demirdelen

Table Header for Fixations:
Event Type	Trial	Number	Start	End	Duration	Location X	Location Y	Dispersion X	Dispersion Y	Plane	Avg. Pupil Size X	Avg. Pupil Size Y

Table Header for Saccades:
Event Type	Trial	Number	Start	End	Duration	Start Loc.X	Start Loc.Y	End Loc.X	End Loc.Y	Amplitude	Peak Speed	Peak Speed At	Average Speed	Peak Accel.	Peak Decel.	Average Accel.

Table Header for Blinks:
Event Type	Trial	Number	Start	End	Duration

Table Header for User Events:
Event Type	Trial	Number	Start	Description

UserEvent	1	1	4466158307	# Message: void.jpg
Fixation L	1	1	4466173282	4466610883	437601	676.80	511.11	73	19	-1	13.27	13.27
Fixation R	1	1	4466173282	4466610883	437601	676.80	511.11	73	19	-1	13.96	13.96
Saccade L	1	1	4466610883	4466630755	19872	687.66	518.35	700.31	529.38	0.11	16.98	1.00	5.78	377.31	-121.91	181.31
Saccade R	1	1	4466610883	4466630755	19872	687.66	518.35	700.31	529.38	0.11	16.98	1.00	5.78	377.31	-121.91	181.31
Fixation L	1	2	4466630755	4466988869	358114	717.05	526.58	43	55	-1	13.30	13.30
Fixation R	1	2	4466630755	4466988869	358114	717.05	526.58	43	55	-1	14.48	14.48
Saccade L	1	2	4466988869	4467008740	19871	730.93	523.15	733.20	530.46	0.15	10.09	0.00	7.64	-42.11	-170.01	114.61
Saccade R	1	2	4466988869	4467008740	19871	730.93	523.15	733.20	530.46	0.15	10.09	0.00	7.64	-42.11	-170.01	114.61
Fixation L	1	3	4467008740	4467505970	497230	732.15	529.62	10	51	-1	14.04	14.04
Fixation R	1	3	4467008740	4467505970	497230	732.15	529.62	10	51	-1	15.18	15.18
Saccade L	1	3	4467505970	4467545713	39743	732.91	499.28	1006.23	505.02	2.31	181.09	0.50	58.12	4443.95	-4307.18	3328.65
Saccade R	1	3	4467505970	4467545713	39743	732.91	499.28	1006.23	505.02	2.31	181.09	0.50	58.12	4443.95	-4307.18	3328.65
Fixation L	1	4	4467545713	4467923698	377985	1000.50	500.13	16	13	-1	14.44	14.44
Fixation R	1	4	4467545713	4467923698	377985	1000.50	500.13	16	13	-1	15.42	15.42
Saccade L	1	4	4467923698	4467943575	19877	1007.50	509.10	891.84	521.88	0.93	117.70	1.00	46.70	2823.00	-2558.28	2289.64
Saccade R	1	4	4467923698	4467943575	19877	1007.50	509.10	891.84	521.88	0.93	117.70	1.00	46.70	2823.00	-2558.28	2289.64
Fixation L	1	5	4467943575	4468142460	198885	834.76	516.62	71	18	-1	14.68	14.68
Fixation R	1	5	4467943575	4468142460	198885	834.76	516.62	71	18	-1	15.53	15.53
