[BeGaze]
Converted from:	C:\Documents and Settings\iViewX\Desktop\EXPERIMENTATIONS\Experiments\results\finaleart\S15H25531-finaleart-1.idf
Date:	27.03.2019 15:44:22
Version:	BeGaze 2.5.77
Sample Rate:	50
Subject:	S15H25531
Description:	Mikail Demirdelen

Table Header for Fixations:
Event Type	Trial	Number	Start	End	Duration	Location X	Location Y	Dispersion X	Dispersion Y	Plane	Avg. Pupil Size X	Avg. Pupil Size Y

Table Header for Saccades:
Event Type	Trial	Number	Start	End	Duration	Start Loc.X	Start Loc.Y	End Loc.X	End Loc.Y	Amplitude	Peak Speed	Peak Speed At	Average Speed	Peak Accel.	Peak Decel.	Average Accel.

Table Header for Blinks:
Event Type	Trial	Number	Start	End	Duration

Table Header for User Events:
Event Type	Trial	Number	Start	Description

UserEvent	1	1	3345478807	# Message: void.jpg
Fixation L	1	1	3345488983	3345608367	119384	558.56	707.37	40	11	-1	13.92	13.92
Fixation R	1	1	3345488983	3345608367	119384	558.56	707.37	40	11	-1	16.03	16.03
Saccade L	1	1	3345608367	3345628339	19972	528.75	700.51	502.30	631.33	0.66	74.92	1.00	33.09	1778.95	-1583.55	1380.25
Saccade R	1	1	3345608367	3345628339	19972	528.75	700.51	502.30	631.33	0.66	74.92	1.00	33.09	1778.95	-1583.55	1380.25
Fixation L	1	2	3345628339	3345807206	178867	502.60	617.33	17	53	-1	14.03	14.03
Fixation R	1	2	3345628339	3345807206	178867	502.60	617.33	17	53	-1	16.16	16.16
Saccade L	1	2	3345807206	3345827329	20123	514.27	653.74	722.39	623.78	1.39	212.60	1.00	69.25	5264.63	-5151.92	3565.71
Saccade R	1	2	3345807206	3345827329	20123	514.27	653.74	722.39	623.78	1.39	212.60	1.00	69.25	5264.63	-5151.92	3565.71
Fixation L	1	3	3345827329	3347139898	1312569	697.54	636.46	31	49	-1	14.56	14.56
Fixation R	1	3	3345827329	3347159770	1332441	697.47	636.93	31	54	-1	16.88	16.88
Blink L	1	1	3347139898	3347219391	79493
Saccade R	1	3	3347159770	3347199519	39749	692.95	668.45	701.73	665.77	1.70	93.80	1.00	42.84	2128.53	-2063.69	2054.43
Fixation R	1	4	3347199519	3347478011	278492	718.74	632.35	23	48	-1	18.18	18.18
Fixation L	1	4	3347219391	3347478011	258620	719.95	629.96	15	46	-1	16.56	16.56
