[BeGaze]
Converted from:	C:\Documents and Settings\iViewX\Desktop\EXPERIMENTATIONS\Experiments\results\finaleart\S15H25531-finaleart-1.idf
Date:	27.03.2019 15:46:04
Version:	BeGaze 2.5.77
Sample Rate:	50
Subject:	S15H25531
Description:	Mikail Demirdelen

Table Header for Fixations:
Event Type	Trial	Number	Start	End	Duration	Location X	Location Y	Dispersion X	Dispersion Y	Plane	Avg. Pupil Size X	Avg. Pupil Size Y

Table Header for Saccades:
Event Type	Trial	Number	Start	End	Duration	Start Loc.X	Start Loc.Y	End Loc.X	End Loc.Y	Amplitude	Peak Speed	Peak Speed At	Average Speed	Peak Accel.	Peak Decel.	Average Accel.

Table Header for Blinks:
Event Type	Trial	Number	Start	End	Duration

Table Header for User Events:
Event Type	Trial	Number	Start	Description

UserEvent	1	1	4814625569	# Message: void.jpg
Fixation L	1	1	4814637013	4814815998	178985	842.83	933.60	2	13	-1	12.97	12.97
Fixation R	1	1	4814637013	4814815998	178985	842.83	933.60	2	13	-1	14.51	14.51
Saccade L	1	1	4814815998	4814836001	20003	843.96	942.64	655.84	959.74	1.04	191.02	1.00	51.91	4648.68	-4399.50	3023.74
Saccade R	1	1	4814815998	4814836001	20003	843.96	942.64	655.84	959.74	1.04	191.02	1.00	51.91	4648.68	-4399.50	3023.74
Fixation L	1	2	4814836001	4815929946	1093945	642.06	989.01	27	45	-1	12.93	12.93
Fixation R	1	2	4814836001	4815929946	1093945	642.06	989.01	27	45	-1	14.70	14.70
Blink L	1	1	4815929946	4816009434	79488
Blink R	1	1	4815929946	4816128815	198869
Blink L	1	2	4816009434	4816128815	119381
Saccade L	1	2	4816128815	4816148681	19866	610.79	628.57	661.71	662.91	0.64	62.13	1.00	32.03	868.12	-1101.66	710.01
Saccade R	1	2	4816128815	4816148681	19866	610.79	628.57	661.71	662.91	0.64	62.13	1.00	32.03	868.12	-1101.66	710.01
Fixation L	1	3	4816148681	4816546540	397859	649.81	673.64	19	30	-1	13.26	13.26
Fixation R	1	3	4816148681	4816546540	397859	649.81	673.64	19	30	-1	15.23	15.23
Saccade L	1	3	4816546540	4816566408	19868	653.41	686.19	786.95	672.80	0.75	135.75	1.00	37.77	3287.88	-3159.10	2189.19
Saccade R	1	3	4816546540	4816566408	19868	653.41	686.19	786.95	672.80	0.75	135.75	1.00	37.77	3287.88	-3159.10	2189.19
Fixation L	1	4	4816566408	4816665791	99383	793.35	665.43	21	20	-1	12.86	12.86
Fixation R	1	4	4816566408	4816665791	99383	793.35	665.43	21	20	-1	14.43	14.43
