[BeGaze]
Converted from:	C:\Documents and Settings\iViewX\Desktop\EXPERIMENTATIONS\Experiments\results\finaleart\S15H25531-finaleart-1.idf
Date:	27.03.2019 15:44:58
Version:	BeGaze 2.5.77
Sample Rate:	50
Subject:	S15H25531
Description:	Mikail Demirdelen

Table Header for Fixations:
Event Type	Trial	Number	Start	End	Duration	Location X	Location Y	Dispersion X	Dispersion Y	Plane	Avg. Pupil Size X	Avg. Pupil Size Y

Table Header for Saccades:
Event Type	Trial	Number	Start	End	Duration	Start Loc.X	Start Loc.Y	End Loc.X	End Loc.Y	Amplitude	Peak Speed	Peak Speed At	Average Speed	Peak Accel.	Peak Decel.	Average Accel.

Table Header for Blinks:
Event Type	Trial	Number	Start	End	Duration

Table Header for User Events:
Event Type	Trial	Number	Start	Description

UserEvent	1	1	4001035258	# Message: sargent-reclining-nude.jpg
Fixation L	1	1	4001039024	4001436744	397720	981.08	511.50	36	48	-1	12.72	12.72
Fixation R	1	1	4001039024	4001436744	397720	981.08	511.50	36	48	-1	14.06	14.06
Saccade L	1	1	4001436744	4001496498	59754	987.29	532.58	723.90	259.75	4.68	264.59	0.33	78.30	6591.94	-6185.67	3401.83
Saccade R	1	1	4001436744	4001496498	59754	987.29	532.58	723.90	259.75	4.68	264.59	0.33	78.30	6591.94	-6185.67	3401.83
Fixation L	1	2	4001496498	4001615734	119236	715.39	200.11	12	81	-1	12.70	12.70
Fixation R	1	2	4001496498	4001615734	119236	715.39	200.11	12	81	-1	14.09	14.09
Saccade L	1	2	4001615734	4001635735	20001	715.16	198.09	575.96	155.77	1.01	147.15	1.00	50.47	2960.66	-3596.06	2311.70
Saccade R	1	2	4001615734	4001635735	20001	715.16	198.09	575.96	155.77	1.01	147.15	1.00	50.47	2960.66	-3596.06	2311.70
Fixation L	1	3	4001635735	4001834613	198878	592.37	133.87	26	71	-1	11.20	11.20
Fixation R	1	3	4001635735	4001834613	198878	592.37	133.87	26	71	-1	12.49	12.49
Saccade L	1	3	4001834613	4001854478	19865	600.96	110.33	600.13	99.98	0.20	14.42	1.00	10.04	8.47	-97.78	66.76
Saccade R	1	3	4001834613	4001854478	19865	600.96	110.33	600.13	99.98	0.20	14.42	1.00	10.04	8.47	-97.78	66.76
Fixation L	1	4	4001854478	4002391454	536976	587.87	78.91	28	37	-1	10.18	10.18
Fixation R	1	4	4001854478	4002391454	536976	587.87	78.91	28	37	-1	11.27	11.27
Saccade L	1	4	4002391454	4002411322	19868	571.56	99.65	574.73	20.56	0.75	80.07	1.00	37.56	1772.25	-1781.42	1636.78
Saccade R	1	4	4002391454	4002411322	19868	571.56	99.65	574.73	20.56	0.75	80.07	1.00	37.56	1772.25	-1781.42	1636.78
Fixation L	1	5	4002411322	4002570442	159120	578.96	55.81	10	65	-1	10.19	10.19
Fixation R	1	5	4002411322	4002570442	159120	578.96	55.81	10	65	-1	11.18	11.18
Saccade L	1	5	4002570442	4002610317	39875	583.37	46.45	838.48	319.40	3.91	221.53	0.50	98.04	4579.09	-4854.05	4210.38
Saccade R	1	5	4002570442	4002610317	39875	583.37	46.45	838.48	319.40	3.91	221.53	0.50	98.04	4579.09	-4854.05	4210.38
Fixation L	1	6	4002610317	4002928553	318236	851.98	271.55	19	72	-1	10.82	10.82
Fixation R	1	6	4002610317	4002928553	318236	851.98	271.55	19	72	-1	12.06	12.06
Saccade L	1	6	4002928553	4002968295	39742	846.45	262.87	1270.94	380.16	3.86	335.59	0.50	97.21	8136.11	-7814.53	5248.08
Saccade R	1	6	4002928553	4002968295	39742	846.45	262.87	1270.94	380.16	3.86	335.59	0.50	97.21	8136.11	-7814.53	5248.08
Fixation L	1	7	4002968295	4003207039	238744	1271.96	395.79	64	29	-1	11.97	11.97
Fixation R	1	7	4002968295	4003207039	238744	1271.96	395.79	64	29	-1	12.97	12.97
Saccade L	1	7	4003207039	4003226909	19870	1224.99	403.25	1207.76	416.26	0.41	26.52	1.00	20.75	-116.99	-169.96	140.73
Saccade R	1	7	4003207039	4003226909	19870	1224.99	403.25	1207.76	416.26	0.41	26.52	1.00	20.75	-116.99	-169.96	140.73
Fixation L	1	8	4003226909	4003366152	139243	1208.44	421.83	4	15	-1	12.56	12.56
Fixation R	1	8	4003226909	4003366152	139243	1208.44	421.83	4	15	-1	13.40	13.40
Saccade L	1	8	4003366152	4003386025	19873	1207.88	421.94	1391.85	411.26	1.02	186.36	1.00	51.16	4569.39	-4392.43	3093.94
Saccade R	1	8	4003366152	4003386025	19873	1207.88	421.94	1391.85	411.26	1.02	186.36	1.00	51.16	4569.39	-4392.43	3093.94
Fixation L	1	9	4003386025	4003724130	338105	1403.76	428.48	15	37	-1	12.32	12.32
Fixation R	1	9	4003386025	4003724130	338105	1403.76	428.48	15	37	-1	13.44	13.44
Saccade L	1	9	4003724130	4003744012	19882	1407.54	448.60	1568.43	440.19	0.88	162.94	1.00	44.38	4018.53	-4034.43	2717.19
Saccade R	1	9	4003724130	4003744012	19882	1407.54	448.60	1568.43	440.19	0.88	162.94	1.00	44.38	4018.53	-4034.43	2717.19
Fixation L	1	10	4003744012	4004062250	318238	1559.35	423.21	15	28	-1	12.59	12.59
Fixation R	1	10	4003744012	4004062250	318238	1559.35	423.21	15	28	-1	13.64	13.64
Saccade L	1	10	4004062250	4004101996	39746	1566.28	411.70	1153.01	441.71	3.66	329.85	1.00	91.99	8174.16	-7803.62	4873.25
Saccade R	1	10	4004062250	4004101996	39746	1566.28	411.70	1153.01	441.71	3.66	329.85	1.00	91.99	8174.16	-7803.62	4873.25
Fixation L	1	11	4004101996	4004619221	517225	1162.82	407.89	37	44	-1	13.14	13.14
Fixation R	1	11	4004101996	4004619221	517225	1162.82	407.89	37	44	-1	14.34	14.34
Saccade L	1	11	4004619221	4004658970	39749	1144.66	417.12	1029.97	321.09	1.83	98.20	1.00	46.13	2386.98	-2316.81	2149.75
Saccade R	1	11	4004619221	4004658970	39749	1144.66	417.12	1029.97	321.09	1.83	98.20	1.00	46.13	2386.98	-2316.81	2149.75
Fixation L	1	12	4004658970	4004917581	258611	1009.92	347.13	26	37	-1	13.01	13.01
Fixation R	1	12	4004658970	4004917581	258611	1009.92	347.13	26	37	-1	14.16	14.16
Saccade L	1	12	4004917581	4005016942	99361	1006.24	348.33	868.86	305.12	3.01	166.23	0.20	30.25	4073.73	-3849.74	1370.33
Saccade R	1	12	4004917581	4005016942	99361	1006.24	348.33	868.86	305.12	3.01	166.23	0.20	30.25	4073.73	-3849.74	1370.33
