[BeGaze]
Converted from:	C:\Documents and Settings\iViewX\Desktop\EXPERIMENTATIONS\Experiments\results\finaleart\S15H25531-finaleart-1.idf
Date:	27.03.2019 15:45:53
Version:	BeGaze 2.5.77
Sample Rate:	50
Subject:	S15H25531
Description:	Mikail Demirdelen

Table Header for Fixations:
Event Type	Trial	Number	Start	End	Duration	Location X	Location Y	Dispersion X	Dispersion Y	Plane	Avg. Pupil Size X	Avg. Pupil Size Y

Table Header for Saccades:
Event Type	Trial	Number	Start	End	Duration	Start Loc.X	Start Loc.Y	End Loc.X	End Loc.Y	Amplitude	Peak Speed	Peak Speed At	Average Speed	Peak Accel.	Peak Decel.	Average Accel.

Table Header for Blinks:
Event Type	Trial	Number	Start	End	Duration

Table Header for User Events:
Event Type	Trial	Number	Start	Description

UserEvent	1	1	4713025879	# Message: millet-the-bather-1848.jpg
Fixation L	1	1	4713033488	4713351711	318223	965.75	562.73	14	11	-1	15.66	15.66
Fixation R	1	1	4713033488	4713351711	318223	965.75	562.73	14	11	-1	17.13	17.13
Blink L	1	1	4713351711	4713431408	79697
Saccade R	1	1	4713351711	4713371589	19878	954.33	558.25	932.03	491.40	0.58	71.29	1.00	28.93	1601.49	206.35	734.64
Fixation R	1	2	4713371589	4713570605	199016	931.55	516.44	11	86	-1	16.72	16.72
Fixation L	1	2	4713431408	4713630208	198800	923.06	517.44	45	53	-1	14.88	14.88
Saccade R	1	2	4713570605	4713590472	19867	927.24	510.83	920.19	515.67	0.15	14.67	1.00	7.59	317.74	127.28	241.62
Fixation R	1	3	4713590472	4714167302	576830	873.44	491.93	56	34	-1	16.82	16.82
Saccade L	1	1	4713630208	4713650081	19873	887.01	503.42	894.16	499.93	0.28	21.37	0.00	14.21	-85.82	-215.77	155.74
Fixation L	1	3	4713650081	4714167302	517221	869.95	490.00	30	29	-1	15.13	15.13
Saccade L	1	2	4714167302	4714187185	19883	870.31	510.33	870.67	600.74	0.60	91.45	1.00	30.08	2259.67	-2003.03	1540.74
Saccade R	1	3	4714167302	4714187185	19883	870.31	510.33	870.67	600.74	0.60	91.45	1.00	30.08	2259.67	-2003.03	1540.74
Fixation L	1	4	4714187185	4714843527	656342	887.11	607.51	21	47	-1	15.63	15.63
Fixation R	1	4	4714187185	4714843527	656342	887.11	607.51	21	47	-1	17.62	17.62
Saccade L	1	3	4714843527	4714863395	19868	887.07	607.45	917.37	515.05	0.69	98.36	1.00	34.79	2411.09	-2024.26	1762.98
Saccade R	1	4	4714843527	4714863395	19868	887.07	607.45	917.37	515.05	0.69	98.36	1.00	34.79	2411.09	-2024.26	1762.98
Fixation L	1	5	4714863395	4715281127	417732	905.17	452.27	23	76	-1	16.46	16.46
Fixation R	1	5	4714863395	4715281127	417732	905.17	452.27	23	76	-1	18.19	18.19
Blink L	1	2	4715281127	4715420256	139129
Blink R	1	1	4715281127	4715420256	139129
Saccade L	1	4	4715420256	4715440247	19991	790.98	587.47	815.96	459.90	5.78	999.02	1.00	289.36	-81.24	-21688.32	8227.29
Saccade R	1	5	4715420256	4715440247	19991	790.98	587.47	815.96	459.90	5.78	999.02	1.00	289.36	-81.24	-21688.32	8227.29
Fixation L	1	6	4715440247	4715977223	536976	842.36	483.03	51	42	-1	18.48	18.48
Fixation R	1	6	4715440247	4715977223	536976	842.36	483.03	51	42	-1	18.34	18.34
Saccade L	1	5	4715977223	4715997094	19871	867.25	496.47	868.88	501.99	0.11	8.88	0.00	5.70	62.42	-102.20	68.09
Saccade R	1	6	4715977223	4715997094	19871	867.25	496.47	868.88	501.99	0.11	8.88	0.00	5.70	62.42	-102.20	68.09
Fixation L	1	7	4715997094	4716593816	596722	874.44	513.75	31	48	-1	18.25	18.25
Fixation R	1	7	4715997094	4716593816	596722	874.44	513.75	31	48	-1	18.99	18.99
Saccade L	1	6	4716593816	4716633558	39742	897.31	546.15	878.14	546.53	2.44	109.45	0.50	61.43	2421.57	-1931.31	1949.73
Saccade R	1	7	4716593816	4716633558	39742	897.31	546.15	878.14	546.53	2.44	109.45	0.50	61.43	2421.57	-1931.31	1949.73
Fixation L	1	8	4716633558	4717011551	377993	879.80	538.82	4	39	-1	18.64	18.64
Fixation R	1	8	4716633558	4717011551	377993	879.80	538.82	4	39	-1	19.17	19.17
