[BeGaze]
Converted from:	C:\Documents and Settings\iViewX\Desktop\EXPERIMENTATIONS\Experiments\results\finaleart\S15H25531-finaleart-1.idf
Date:	27.03.2019 15:45:10
Version:	BeGaze 2.5.77
Sample Rate:	50
Subject:	S15H25531
Description:	Mikail Demirdelen

Table Header for Fixations:
Event Type	Trial	Number	Start	End	Duration	Location X	Location Y	Dispersion X	Dispersion Y	Plane	Avg. Pupil Size X	Avg. Pupil Size Y

Table Header for Saccades:
Event Type	Trial	Number	Start	End	Duration	Start Loc.X	Start Loc.Y	End Loc.X	End Loc.Y	Amplitude	Peak Speed	Peak Speed At	Average Speed	Peak Accel.	Peak Decel.	Average Accel.

Table Header for Blinks:
Event Type	Trial	Number	Start	End	Duration

Table Header for User Events:
Event Type	Trial	Number	Start	Description

UserEvent	1	1	4110851075	# Message: Matejko-Akt-meski.jpg
Fixation L	1	1	4110855765	4110975140	119375	815.62	639.84	46	6	-1	14.10	14.10
Fixation R	1	1	4110855765	4110975140	119375	815.62	639.84	46	6	-1	16.05	16.05
Saccade L	1	1	4110975140	4110995034	19894	853.92	639.08	929.07	633.77	0.65	76.21	1.00	32.63	1871.66	-1588.48	1438.54
Saccade R	1	1	4110975140	4110995034	19894	853.92	639.08	929.07	633.77	0.65	76.21	1.00	32.63	1871.66	-1588.48	1438.54
Fixation L	1	2	4110995034	4111293389	298355	931.36	606.14	17	79	-1	14.50	14.50
Fixation R	1	2	4110995034	4111293389	298355	931.36	606.14	17	79	-1	16.14	16.14
Saccade L	1	2	4111293389	4111352997	59608	930.26	585.07	865.05	426.74	3.28	176.94	0.33	54.98	4397.67	-3611.88	2639.52
Saccade R	1	2	4111293389	4111352997	59608	930.26	585.07	865.05	426.74	3.28	176.94	0.33	54.98	4397.67	-3611.88	2639.52
Fixation L	1	3	4111352997	4111452486	99489	848.63	406.85	36	37	-1	14.11	14.11
Fixation R	1	3	4111352997	4111452486	99489	848.63	406.85	36	37	-1	14.94	14.94
Saccade L	1	3	4111452486	4111571851	119365	832.95	389.42	827.58	50.87	6.66	236.44	0.17	55.78	5435.20	-5670.16	2224.07
Saccade R	1	3	4111452486	4111571851	119365	832.95	389.42	827.58	50.87	6.66	236.44	0.17	55.78	5435.20	-5670.16	2224.07
Fixation L	1	4	4111571851	4111711101	139250	832.38	115.86	9	87	-1	13.00	13.00
Fixation R	1	4	4111571851	4111711101	139250	832.38	115.86	9	87	-1	14.21	14.21
Saccade L	1	4	4111711101	4111730971	19870	835.13	118.61	840.38	100.12	0.25	19.44	1.00	12.61	383.86	-327.70	293.13
Saccade R	1	4	4111711101	4111730971	19870	835.13	118.61	840.38	100.12	0.25	19.44	1.00	12.61	383.86	-327.70	293.13
Fixation L	1	5	4111730971	4112108835	377864	837.97	114.87	12	61	-1	12.80	12.80
Fixation R	1	5	4111730971	4112108835	377864	837.97	114.87	12	61	-1	13.74	13.74
Saccade L	1	5	4112108835	4112128702	19867	838.51	161.56	840.03	189.59	0.43	31.38	0.00	21.72	310.42	-505.88	324.54
Saccade R	1	5	4112108835	4112128702	19867	838.51	161.56	840.03	189.59	0.43	31.38	0.00	21.72	310.42	-505.88	324.54
Fixation L	1	6	4112128702	4112645932	517230	859.93	214.47	27	67	-1	13.66	13.66
Fixation R	1	6	4112128702	4112645932	517230	859.93	214.47	27	67	-1	15.24	15.24
Saccade L	1	6	4112645932	4112705556	59624	866.09	238.65	836.91	181.27	2.23	99.94	0.33	37.47	2406.69	-1696.71	1562.51
Saccade R	1	6	4112645932	4112705556	59624	866.09	238.65	836.91	181.27	2.23	99.94	0.33	37.47	2406.69	-1696.71	1562.51
Fixation L	1	7	4112705556	4113282398	576842	829.37	143.65	25	73	-1	14.89	14.89
Fixation R	1	7	4112705556	4113282398	576842	829.37	143.65	25	73	-1	16.72	16.72
Saccade L	1	7	4113282398	4113342019	59621	843.68	128.83	875.77	217.39	1.43	93.93	1.00	24.07	2265.31	-2140.20	1066.14
Saccade R	1	7	4113282398	4113342019	59621	843.68	128.83	875.77	217.39	1.43	93.93	1.00	24.07	2265.31	-2140.20	1066.14
Fixation L	1	8	4113342019	4113540901	198882	862.19	239.39	21	63	-1	15.47	15.47
Fixation R	1	8	4113342019	4113540901	198882	862.19	239.39	21	63	-1	17.35	17.35
Saccade L	1	8	4113540901	4113580757	39856	865.43	281.01	783.18	655.29	4.34	336.68	0.50	108.79	8252.09	-7348.93	4894.48
Saccade R	1	8	4113540901	4113580757	39856	865.43	281.01	783.18	655.29	4.34	336.68	0.50	108.79	8252.09	-7348.93	4894.48
Fixation L	1	9	4113580757	4113739877	159120	752.93	644.87	42	27	-1	15.94	15.94
Fixation R	1	9	4113580757	4113739877	159120	752.93	644.87	42	27	-1	17.87	17.87
Saccade L	1	9	4113739877	4113759753	19876	746.24	648.77	676.82	638.44	0.51	70.99	1.00	25.85	1589.00	-1720.31	1120.45
Saccade R	1	9	4113739877	4113759753	19876	746.24	648.77	676.82	638.44	0.51	70.99	1.00	25.85	1589.00	-1720.31	1120.45
Fixation L	1	10	4113759753	4114177357	417604	658.53	650.03	27	23	-1	15.30	15.30
Fixation R	1	10	4113759753	4114177357	417604	658.53	650.03	27	23	-1	17.16	17.16
Saccade L	1	10	4114177357	4114217230	39873	649.71	648.12	939.95	645.70	2.52	192.39	0.50	63.30	4704.24	-4468.50	3534.34
Saccade R	1	10	4114177357	4114217230	39873	649.71	648.12	939.95	645.70	2.52	192.39	0.50	63.30	4704.24	-4468.50	3534.34
Fixation L	1	11	4114217230	4114535461	318231	943.01	634.66	20	17	-1	13.68	13.68
Fixation R	1	11	4114217230	4114535461	318231	943.01	634.66	20	17	-1	15.50	15.50
Saccade L	1	11	4114535461	4114575214	39753	931.06	637.41	1428.80	602.49	4.20	252.70	1.00	105.76	6242.99	-5891.70	6031.74
Saccade R	1	11	4114535461	4114575214	39753	931.06	637.41	1428.80	602.49	4.20	252.70	1.00	105.76	6242.99	-5891.70	6031.74
Fixation L	1	12	4114575214	4114813952	238738	1432.31	620.96	38	44	-1	13.70	13.70
Fixation R	1	12	4114575214	4114813952	238738	1432.31	620.96	38	44	-1	15.15	15.15
Saccade L	1	12	4114813952	4114833830	19878	1413.55	641.89	1470.89	649.62	0.48	58.53	1.00	23.99	1233.56	0.00	616.78
Saccade R	1	12	4114813952	4114833830	19878	1413.55	641.89	1470.89	649.62	0.48	58.53	1.00	23.99	1233.56	0.00	616.78
