[BeGaze]
Converted from:	C:\Documents and Settings\iViewX\Desktop\EXPERIMENTATIONS\Experiments\results\finaleart\S15H25531-finaleart-1.idf
Date:	27.03.2019 15:46:03
Version:	BeGaze 2.5.77
Sample Rate:	50
Subject:	S15H25531
Description:	Mikail Demirdelen

Table Header for Fixations:
Event Type	Trial	Number	Start	End	Duration	Location X	Location Y	Dispersion X	Dispersion Y	Plane	Avg. Pupil Size X	Avg. Pupil Size Y

Table Header for Saccades:
Event Type	Trial	Number	Start	End	Duration	Start Loc.X	Start Loc.Y	End Loc.X	End Loc.Y	Amplitude	Peak Speed	Peak Speed At	Average Speed	Peak Accel.	Peak Decel.	Average Accel.

Table Header for Blinks:
Event Type	Trial	Number	Start	End	Duration

Table Header for User Events:
Event Type	Trial	Number	Start	Description

UserEvent	1	1	4802435922	# Message: void.jpg
Fixation L	1	1	4802444461	4802742823	298362	928.02	245.66	40	48	-1	14.68	14.68
Fixation R	1	1	4802444461	4802742823	298362	928.02	245.66	40	48	-1	14.59	14.59
Saccade L	1	1	4802742823	4802762701	19878	899.78	209.12	904.47	169.32	0.62	40.53	1.00	31.14	795.04	-631.64	496.29
Saccade R	1	1	4802742823	4802762701	19878	899.78	209.12	904.47	169.32	0.62	40.53	1.00	31.14	795.04	-631.64	496.29
Fixation L	1	2	4802762701	4802862191	99490	862.44	159.71	69	19	-1	14.52	14.52
Fixation R	1	2	4802762701	4802862191	99490	862.44	159.71	69	19	-1	14.93	14.93
Blink L	1	1	4802862191	4803001431	139240
Blink R	1	1	4802862191	4803001431	139240
Blink R	1	2	4803041193	4803458914	417721
Blink L	1	2	4803061089	4803458914	397825
Fixation L	1	3	4803458914	4803816896	357982	1038.38	893.99	55	43	-1	13.56	13.56
Fixation R	1	3	4803458914	4803816896	357982	1038.38	893.99	55	43	-1	15.08	15.08
Saccade L	1	2	4803816896	4803836771	19875	1033.76	915.60	1035.85	921.61	0.08	6.44	1.00	3.79	95.12	-120.75	83.24
Saccade R	1	2	4803816896	4803836771	19875	1033.76	915.60	1035.85	921.61	0.08	6.44	1.00	3.79	95.12	-120.75	83.24
Fixation L	1	4	4803836771	4804035762	198991	1046.29	920.06	19	10	-1	12.34	12.34
Fixation R	1	4	4803836771	4804035762	198991	1046.29	920.06	19	10	-1	14.06	14.06
Saccade L	1	3	4804035762	4804075515	39753	1050.31	915.89	707.22	811.43	3.31	229.00	0.50	83.34	5500.50	-5289.95	4399.23
Saccade R	1	3	4804035762	4804075515	39753	1050.31	915.89	707.22	811.43	3.31	229.00	0.50	83.34	5500.50	-5289.95	4399.23
Fixation L	1	5	4804075515	4804433493	357978	699.96	800.02	27	34	-1	11.47	11.47
Fixation R	1	5	4804075515	4804433493	357978	699.96	800.02	27	34	-1	13.18	13.18
