[BeGaze]
Converted from:	C:\Documents and Settings\iViewX\Desktop\EXPERIMENTATIONS\Experiments\results\finaleart\S15H25531-finaleart-1.idf
Date:	27.03.2019 15:44:59
Version:	BeGaze 2.5.77
Sample Rate:	50
Subject:	S15H25531
Description:	Mikail Demirdelen

Table Header for Fixations:
Event Type	Trial	Number	Start	End	Duration	Location X	Location Y	Dispersion X	Dispersion Y	Plane	Avg. Pupil Size X	Avg. Pupil Size Y

Table Header for Saccades:
Event Type	Trial	Number	Start	End	Duration	Start Loc.X	Start Loc.Y	End Loc.X	End Loc.Y	Amplitude	Peak Speed	Peak Speed At	Average Speed	Peak Accel.	Peak Decel.	Average Accel.

Table Header for Blinks:
Event Type	Trial	Number	Start	End	Duration

Table Header for User Events:
Event Type	Trial	Number	Start	Description

UserEvent	1	1	4013220728	# Message: The_Joy_Of_Life_Matisse_1906.jpg
Fixation L	1	1	4013231565	4013470289	238724	641.63	534.04	19	18	-1	13.89	13.89
Fixation R	1	1	4013231565	4013470289	238724	641.63	534.04	19	18	-1	15.72	15.72
Saccade L	1	1	4013470289	4013490163	19874	652.52	540.40	755.93	536.21	0.64	104.69	1.00	32.31	2468.94	-2476.01	1683.91
Saccade R	1	1	4013470289	4013490163	19874	652.52	540.40	755.93	536.21	0.64	104.69	1.00	32.31	2468.94	-2476.01	1683.91
Fixation L	1	2	4013490163	4013629443	139280	754.01	528.02	5	18	-1	14.09	14.09
Fixation R	1	2	4013490163	4013629443	139280	754.01	528.02	5	18	-1	15.64	15.64
Saccade L	1	2	4013629443	4013649296	19853	754.00	517.94	936.41	540.72	1.10	185.90	1.00	55.45	4619.29	-4075.46	3040.16
Saccade R	1	2	4013629443	4013649296	19853	754.00	517.94	936.41	540.72	1.10	185.90	1.00	55.45	4619.29	-4075.46	3040.16
Fixation L	1	3	4013649296	4013808399	159103	930.89	559.14	24	27	-1	14.24	14.24
Fixation R	1	3	4013649296	4013808399	159103	930.89	559.14	24	27	-1	15.37	15.37
Saccade L	1	3	4013808399	4013848148	39749	931.62	561.93	1397.70	399.63	4.27	287.61	0.50	107.49	7070.76	-6656.26	6138.20
Saccade R	1	3	4013808399	4013848148	39749	931.62	561.93	1397.70	399.63	4.27	287.61	0.50	107.49	7070.76	-6656.26	6138.20
Fixation L	1	4	4013848148	4014047023	198875	1419.74	412.09	28	20	-1	12.08	12.08
Fixation R	1	4	4013848148	4014047023	198875	1419.74	412.09	28	20	-1	12.98	12.98
Saccade L	1	4	4014047023	4014086893	39870	1423.76	419.80	1580.95	761.89	3.46	210.42	0.50	86.90	5206.72	-4722.33	4779.67
Saccade R	1	4	4014047023	4014086893	39870	1423.76	419.80	1580.95	761.89	3.46	210.42	0.50	86.90	5206.72	-4722.33	4779.67
Fixation L	1	5	4014086893	4014325503	238610	1564.55	792.85	38	44	-1	11.25	11.25
Fixation R	1	5	4014086893	4014325503	238610	1564.55	792.85	38	44	-1	11.71	11.71
Saccade L	1	5	4014325503	4014345373	19870	1546.17	798.23	1317.30	730.70	1.47	241.25	1.00	74.00	5901.61	-5874.64	4203.77
Saccade R	1	5	4014325503	4014345373	19870	1546.17	798.23	1317.30	730.70	1.47	241.25	1.00	74.00	5901.61	-5874.64	4203.77
Fixation L	1	6	4014345373	4014544244	198871	1279.82	702.91	42	42	-1	10.90	10.90
Fixation R	1	6	4014345373	4014544244	198871	1279.82	702.91	42	42	-1	11.37	11.37
Saccade L	1	6	4014544244	4014584119	39875	1275.05	688.08	1455.15	772.26	1.92	138.59	0.50	48.08	3420.62	-3123.10	2595.08
Saccade R	1	6	4014544244	4014584119	39875	1275.05	688.08	1455.15	772.26	1.92	138.59	0.50	48.08	3420.62	-3123.10	2595.08
Fixation L	1	7	4014584119	4014743236	159117	1458.06	777.41	18	20	-1	11.01	11.01
Fixation R	1	7	4014584119	4014743236	159117	1458.06	777.41	18	20	-1	11.42	11.42
Saccade L	1	7	4014743236	4014763106	19870	1458.58	786.91	1580.48	792.02	0.76	123.41	1.00	38.15	2999.40	-2096.24	1789.04
Saccade R	1	7	4014743236	4014763106	19870	1458.58	786.91	1580.48	792.02	0.76	123.41	1.00	38.15	2999.40	-2096.24	1789.04
Fixation L	1	8	4014763106	4015061470	298364	1566.77	812.90	52	30	-1	11.53	11.53
Fixation R	1	8	4014763106	4015061470	298364	1566.77	812.90	52	30	-1	12.00	12.00
Saccade L	1	8	4015061470	4015101216	39746	1576.63	817.43	1458.11	908.34	1.48	127.15	1.00	37.29	3151.30	-2849.01	1867.52
Saccade R	1	8	4015061470	4015101216	39746	1576.63	817.43	1458.11	908.34	1.48	127.15	1.00	37.29	3151.30	-2849.01	1867.52
Fixation L	1	9	4015101216	4015260334	159118	1464.77	915.66	20	13	-1	11.63	11.63
Fixation R	1	9	4015101216	4015260334	159118	1464.77	915.66	20	13	-1	12.08	12.08
Saccade L	1	9	4015260334	4015280211	19877	1471.96	919.75	1347.72	1034.00	1.10	170.70	1.00	55.28	4085.06	-3669.49	2913.13
Saccade R	1	9	4015260334	4015280211	19877	1471.96	919.75	1347.72	1034.00	1.10	170.70	1.00	55.28	4085.06	-3669.49	2913.13
Fixation L	1	10	4015280211	4015459201	178990	1349.31	1012.57	42	30	-1	12.10	12.10
Fixation R	1	10	4015280211	4015459201	178990	1349.31	1012.57	42	30	-1	12.63	12.63
Saccade L	1	10	4015459201	4015499075	39874	1331.84	1015.78	950.17	1006.34	3.42	327.17	0.50	85.73	8112.15	-7507.07	4478.46
Saccade R	1	10	4015459201	4015499075	39874	1331.84	1015.78	950.17	1006.34	3.42	327.17	0.50	85.73	8112.15	-7507.07	4478.46
Fixation L	1	11	4015499075	4015638311	139236	917.55	997.48	46	29	-1	12.48	12.48
Fixation R	1	11	4015499075	4015638311	139236	917.55	997.48	46	29	-1	13.66	13.66
Saccade L	1	11	4015638311	4015697938	59627	915.05	981.35	495.93	708.39	5.45	228.84	0.67	91.34	5632.35	-4940.45	3930.35
Saccade R	1	11	4015638311	4015697938	59627	915.05	981.35	495.93	708.39	5.45	228.84	0.67	91.34	5632.35	-4940.45	3930.35
Fixation L	1	12	4015697938	4015936555	238617	478.21	679.03	45	49	-1	12.00	12.00
Fixation R	1	12	4015697938	4015936555	238617	478.21	679.03	45	49	-1	13.24	13.24
Saccade L	1	12	4015936555	4015956548	19993	486.89	658.76	487.57	651.05	0.24	27.32	0.00	12.05	154.50	-397.87	198.35
Saccade R	1	12	4015936555	4015956548	19993	486.89	658.76	487.57	651.05	0.24	27.32	0.00	12.05	154.50	-397.87	198.35
Fixation L	1	13	4015956548	4016055923	99375	500.31	633.31	45	29	-1	12.01	12.01
Fixation R	1	13	4015956548	4016055923	99375	500.31	633.31	45	29	-1	13.16	13.16
Saccade L	1	13	4016055923	4016075796	19873	532.81	622.03	524.35	585.65	0.48	37.78	1.00	23.92	818.82	-589.61	583.03
Saccade R	1	13	4016055923	4016075796	19873	532.81	622.03	524.35	585.65	0.48	37.78	1.00	23.92	818.82	-589.61	583.03
Fixation L	1	14	4016075796	4016254791	178995	546.88	578.14	32	25	-1	11.70	11.70
Fixation R	1	14	4016075796	4016254791	178995	546.88	578.14	32	25	-1	12.84	12.84
Saccade L	1	14	4016254791	4016294674	39883	554.31	567.99	265.96	569.19	2.45	213.98	1.00	61.31	5319.42	-5275.63	3533.11
Saccade R	1	14	4016254791	4016294674	39883	554.31	567.99	265.96	569.19	2.45	213.98	1.00	61.31	5319.42	-5275.63	3533.11
Fixation L	1	15	4016294674	4016493524	198850	286.30	575.02	38	23	-1	11.74	11.74
Fixation R	1	15	4016294674	4016493524	198850	286.30	575.02	38	23	-1	13.08	13.08
Saccade L	1	15	4016493524	4016553142	59618	304.06	590.86	1187.57	648.24	9.90	491.94	0.33	166.12	12232.31	-11192.63	7900.71
Saccade R	1	15	4016493524	4016553142	59618	304.06	590.86	1187.57	648.24	9.90	491.94	0.33	166.12	12232.31	-11192.63	7900.71
Fixation L	1	16	4016553142	4016772006	218864	1228.38	659.20	78	21	-1	12.42	12.42
Fixation R	1	16	4016553142	4016772006	218864	1228.38	659.20	78	21	-1	13.39	13.39
Saccade L	1	16	4016772006	4016791888	19882	1236.37	669.35	1232.14	672.97	0.12	8.23	0.00	6.20	676.56	-24.23	249.98
Saccade R	1	16	4016772006	4016791888	19882	1236.37	669.35	1232.14	672.97	0.12	8.23	0.00	6.20	676.56	-24.23	249.98
Fixation L	1	17	4016791888	4017030497	238609	1208.15	688.76	39	34	-1	12.78	12.78
Fixation R	1	17	4016791888	4017030497	238609	1208.15	688.76	39	34	-1	13.98	13.98
Saccade L	1	17	4017030497	4017070376	39879	1192.60	698.94	1522.25	852.31	3.04	239.60	0.50	76.22	5937.82	-5832.58	4438.83
Saccade R	1	17	4017030497	4017070376	39879	1192.60	698.94	1522.25	852.31	3.04	239.60	0.50	76.22	5937.82	-5832.58	4438.83
Fixation L	1	18	4017070376	4017209634	139258	1522.79	868.53	23	31	-1	13.52	13.52
Fixation R	1	18	4017070376	4017209634	139258	1522.79	868.53	23	31	-1	14.35	14.35
