[BeGaze]
Converted from:	C:\Documents and Settings\iViewX\Desktop\EXPERIMENTATIONS\Experiments\results\finaleart\S15H25531-finaleart-1.idf
Date:	27.03.2019 15:45:18
Version:	BeGaze 2.5.77
Sample Rate:	50
Subject:	S15H25531
Description:	Mikail Demirdelen

Table Header for Fixations:
Event Type	Trial	Number	Start	End	Duration	Location X	Location Y	Dispersion X	Dispersion Y	Plane	Avg. Pupil Size X	Avg. Pupil Size Y

Table Header for Saccades:
Event Type	Trial	Number	Start	End	Duration	Start Loc.X	Start Loc.Y	End Loc.X	End Loc.Y	Amplitude	Peak Speed	Peak Speed At	Average Speed	Peak Accel.	Peak Decel.	Average Accel.

Table Header for Blinks:
Event Type	Trial	Number	Start	End	Duration

Table Header for User Events:
Event Type	Trial	Number	Start	Description

UserEvent	1	1	4252022545	# Message: the_three_skulls_gericault_1814.jpg
Fixation L	1	1	4252028773	4252168069	139296	844.15	454.44	7	78	-1	14.45	14.45
Fixation R	1	1	4252028773	4252168069	139296	844.15	454.44	7	78	-1	16.46	16.46
Saccade L	1	1	4252168069	4252188056	19987	848.87	521.95	848.90	544.83	0.54	72.71	0.00	27.16	397.86	-1678.70	829.47
Saccade R	1	1	4252168069	4252188056	19987	848.87	521.95	848.90	544.83	0.54	72.71	0.00	27.16	397.86	-1678.70	829.47
Fixation L	1	2	4252188056	4252446558	258502	853.19	547.20	8	19	-1	14.69	14.69
Fixation R	1	2	4252188056	4252446558	258502	853.19	547.20	8	19	-1	16.59	16.59
Saccade L	1	2	4252446558	4252466384	19826	855.59	557.66	962.58	581.31	0.68	110.83	1.00	34.29	2553.38	-2391.55	1744.84
Saccade R	1	2	4252446558	4252466384	19826	855.59	557.66	962.58	581.31	0.68	110.83	1.00	34.29	2553.38	-2391.55	1744.84
Fixation L	1	3	4252466384	4252685223	218839	992.52	589.31	38	22	-1	14.63	14.63
Fixation R	1	3	4252466384	4252685223	218839	992.52	589.31	38	22	-1	16.47	16.47
Saccade L	1	3	4252685223	4252724982	39759	1001.32	589.96	454.05	459.83	4.85	313.85	0.50	122.04	7832.02	-6918.00	6767.09
Saccade R	1	3	4252685223	4252724982	39759	1001.32	589.96	454.05	459.83	4.85	313.85	0.50	122.04	7832.02	-6918.00	6767.09
Fixation L	1	4	4252724982	4252844356	119374	488.77	492.08	48	49	-1	14.30	14.30
Fixation R	1	4	4252724982	4252844356	119374	488.77	492.08	48	49	-1	16.34	16.34
Saccade L	1	4	4252844356	4252864230	19874	503.03	508.23	505.72	504.82	0.10	6.35	1.00	5.07	-20.39	-48.82	31.25
Saccade R	1	4	4252844356	4252864230	19874	503.03	508.23	505.72	504.82	0.10	6.35	1.00	5.07	-20.39	-48.82	31.25
Fixation L	1	5	4252864230	4252983477	119247	509.95	515.16	9	21	-1	14.80	14.80
Fixation R	1	5	4252864230	4252983477	119247	509.95	515.16	9	21	-1	16.69	16.69
Saccade L	1	5	4252983477	4253023339	39862	510.43	520.96	1048.57	571.05	4.73	369.82	0.50	118.78	9021.93	-8456.98	6428.82
Saccade R	1	5	4252983477	4253023339	39862	510.43	520.96	1048.57	571.05	4.73	369.82	0.50	118.78	9021.93	-8456.98	6428.82
Fixation L	1	6	4253023339	4253381327	357988	1048.82	564.01	59	34	-1	15.16	15.16
Fixation R	1	6	4253023339	4253381327	357988	1048.82	564.01	59	34	-1	17.36	17.36
Saccade L	1	6	4253381327	4253401196	19869	1103.52	570.03	1135.75	571.63	0.56	58.35	0.00	28.04	795.28	-950.33	799.90
Saccade R	1	6	4253381327	4253401196	19869	1103.52	570.03	1135.75	571.63	0.56	58.35	0.00	28.04	795.28	-950.33	799.90
Fixation L	1	7	4253401196	4253540443	139247	1156.44	574.96	26	9	-1	15.27	15.27
Fixation R	1	7	4253401196	4253540443	139247	1156.44	574.96	26	9	-1	17.59	17.59
Saccade L	1	7	4253540443	4253580198	39755	1159.33	577.96	1457.32	520.47	2.56	171.23	0.50	64.48	4228.62	-4057.43	3722.75
Saccade R	1	7	4253540443	4253580198	39755	1159.33	577.96	1457.32	520.47	2.56	171.23	0.50	64.48	4228.62	-4057.43	3722.75
Fixation L	1	8	4253580198	4253838819	258621	1456.37	535.81	15	30	-1	15.72	15.72
Fixation R	1	8	4253580198	4253838819	258621	1456.37	535.81	15	30	-1	17.69	17.69
Saccade L	1	8	4253838819	4253878554	39735	1449.28	541.66	1028.16	678.05	4.00	238.85	1.00	100.55	5891.11	-5480.22	5274.83
Saccade R	1	8	4253838819	4253878554	39735	1449.28	541.66	1028.16	678.05	4.00	238.85	1.00	100.55	5891.11	-5480.22	5274.83
Fixation L	1	9	4253878554	4254157046	278492	1055.39	672.84	39	14	-1	16.13	16.13
Fixation R	1	9	4253878554	4254157046	278492	1055.39	672.84	39	14	-1	18.08	18.08
Saccade L	1	9	4254157046	4254176918	19872	1059.58	684.18	1063.93	731.80	0.40	48.38	1.00	20.14	1151.48	-1027.21	731.95
Saccade R	1	9	4254157046	4254176918	19872	1059.58	684.18	1063.93	731.80	0.40	48.38	1.00	20.14	1151.48	-1027.21	731.95
Fixation L	1	10	4254176918	4254415646	238728	1083.15	752.80	29	29	-1	16.56	16.56
Fixation R	1	10	4254176918	4254415646	238728	1083.15	752.80	29	29	-1	18.40	18.40
Saccade L	1	10	4254415646	4254455401	39755	1093.71	761.22	1090.38	551.95	1.88	115.32	1.00	47.40	2857.93	-2625.19	2428.22
Saccade R	1	10	4254415646	4254455401	39755	1093.71	761.22	1090.38	551.95	1.88	115.32	1.00	47.40	2857.93	-2625.19	2428.22
Fixation L	1	11	4254455401	4254833258	377857	1066.66	568.23	64	23	-1	16.67	16.67
Fixation R	1	11	4254455401	4254833258	377857	1066.66	568.23	64	23	-1	18.57	18.57
Saccade L	1	11	4254833258	4254853127	19869	1113.41	573.72	1126.78	590.70	0.49	62.44	1.00	24.76	135.07	-1014.36	534.74
Saccade R	1	11	4254833258	4254853127	19869	1113.41	573.72	1126.78	590.70	0.49	62.44	1.00	24.76	135.07	-1014.36	534.74
Fixation L	1	12	4254853127	4255111741	258614	1123.17	593.91	11	25	-1	16.22	16.22
Fixation R	1	12	4254853127	4255111741	258614	1123.17	593.91	11	25	-1	18.16	18.16
Saccade L	1	12	4255111741	4255131622	19881	1122.21	603.50	957.44	600.37	0.95	166.68	1.00	47.59	4116.90	-4112.47	2827.04
Saccade R	1	12	4255111741	4255131622	19881	1122.21	603.50	957.44	600.37	0.95	166.68	1.00	47.59	4116.90	-4112.47	2827.04
Fixation L	1	13	4255131622	4255270862	139240	970.88	595.19	18	12	-1	15.55	15.55
Fixation R	1	13	4255131622	4255270862	139240	970.88	595.19	18	12	-1	17.61	17.61
Saccade L	1	13	4255270862	4255310613	39751	969.47	587.54	516.28	548.31	3.99	320.14	0.50	100.41	7931.85	-7204.94	5424.53
Saccade R	1	13	4255270862	4255310613	39751	969.47	587.54	516.28	548.31	3.99	320.14	0.50	100.41	7931.85	-7204.94	5424.53
Fixation L	1	14	4255310613	4255648843	338230	505.71	516.06	21	42	-1	15.07	15.07
Fixation R	1	14	4255310613	4255648843	338230	505.71	516.06	21	42	-1	16.78	16.78
Saccade L	1	14	4255648843	4255708463	59620	498.16	512.36	1279.78	516.57	8.27	387.75	0.67	138.70	9672.52	-8691.38	6919.68
Saccade R	1	14	4255648843	4255708463	59620	498.16	512.36	1279.78	516.57	8.27	387.75	0.67	138.70	9672.52	-8691.38	6919.68
Fixation L	1	15	4255708463	4256006829	298366	1339.53	507.70	74	25	-1	14.98	14.98
Fixation R	1	15	4255708463	4256006829	298366	1339.53	507.70	74	25	-1	17.00	17.00
Saccade L	1	15	4256006829	4256026719	19890	1352.67	495.65	1352.09	494.33	0.04	2.02	1.00	1.80	0.00	-13.93	6.96
Saccade R	1	15	4256006829	4256026719	19890	1352.67	495.65	1352.09	494.33	0.04	2.02	1.00	1.80	0.00	-13.93	6.96
