[BeGaze]
Converted from:	C:\Documents and Settings\iViewX\Desktop\EXPERIMENTATIONS\Experiments\results\finaleart\S15H25531-finaleart-1.idf
Date:	27.03.2019 15:44:36
Version:	BeGaze 2.5.77
Sample Rate:	50
Subject:	S15H25531
Description:	Mikail Demirdelen

Table Header for Fixations:
Event Type	Trial	Number	Start	End	Duration	Location X	Location Y	Dispersion X	Dispersion Y	Plane	Avg. Pupil Size X	Avg. Pupil Size Y

Table Header for Saccades:
Event Type	Trial	Number	Start	End	Duration	Start Loc.X	Start Loc.Y	End Loc.X	End Loc.Y	Amplitude	Peak Speed	Peak Speed At	Average Speed	Peak Accel.	Peak Decel.	Average Accel.

Table Header for Blinks:
Event Type	Trial	Number	Start	End	Duration

Table Header for User Events:
Event Type	Trial	Number	Start	Description

UserEvent	1	1	3475831064	# Message: Un_Jardin_Maison_Baptiste_Butler_1895.jpg
Fixation L	1	1	3475848243	3476425086	576843	976.27	486.36	14	42	-1	15.08	15.08
Fixation R	1	1	3475848243	3476425086	576843	976.27	486.36	14	42	-1	16.32	16.32
Saccade L	1	1	3476425086	3476464832	39746	970.25	504.54	812.53	356.88	1.96	132.62	0.50	49.19	3271.46	-3151.14	2822.31
Saccade R	1	1	3476425086	3476464832	39746	970.25	504.54	812.53	356.88	1.96	132.62	0.50	49.19	3271.46	-3151.14	2822.31
Fixation L	1	2	3476464832	3476802937	338105	815.41	373.62	6	41	-1	12.15	12.15
Fixation R	1	2	3476464832	3476802937	338105	815.41	373.62	6	41	-1	13.30	13.30
Saccade L	1	2	3476802937	3476842824	39887	816.53	398.50	793.05	743.32	3.07	206.90	0.50	76.95	5137.86	-4723.87	4107.94
Saccade R	1	2	3476802937	3476842824	39887	816.53	398.50	793.05	743.32	3.07	206.90	0.50	76.95	5137.86	-4723.87	4107.94
Fixation L	1	3	3476842824	3477220679	377855	751.84	747.16	50	45	-1	11.51	11.51
Fixation R	1	3	3476842824	3477220679	377855	751.84	747.16	50	45	-1	12.98	12.98
Saccade L	1	3	3477220679	3477240547	19868	743.10	777.55	739.86	784.72	0.17	10.57	0.00	8.35	40.11	-95.45	46.39
Saccade R	1	3	3477220679	3477240547	19868	743.10	777.55	739.86	784.72	0.17	10.57	0.00	8.35	40.11	-95.45	46.39
Fixation L	1	4	3477240547	3477439420	198873	731.93	800.54	11	25	-1	11.95	11.95
Fixation R	1	4	3477240547	3477439420	198873	731.93	800.54	11	25	-1	13.46	13.46
Saccade L	1	4	3477439420	3477479281	39861	728.09	810.16	1132.78	809.66	3.41	210.24	1.00	85.55	5222.10	-4875.89	4904.36
Saccade R	1	4	3477439420	3477479281	39861	728.09	810.16	1132.78	809.66	3.41	210.24	1.00	85.55	5222.10	-4875.89	4904.36
Fixation L	1	5	3477479281	3477737772	258491	1158.14	806.93	32	10	-1	12.54	12.54
Fixation R	1	5	3477479281	3477737772	258491	1158.14	806.93	32	10	-1	13.32	13.32
Saccade L	1	5	3477737772	3477797515	59743	1164.90	809.21	1394.35	388.28	5.29	187.35	0.67	88.58	4619.70	-3990.34	3529.51
Saccade R	1	5	3477737772	3477797515	59743	1164.90	809.21	1394.35	388.28	5.29	187.35	0.67	88.58	4619.70	-3990.34	3529.51
Fixation L	1	6	3477797515	3478036138	238623	1401.21	414.86	16	37	-1	12.33	12.33
Fixation R	1	6	3477797515	3478036138	238623	1401.21	414.86	16	37	-1	13.37	13.37
Saccade L	1	6	3478036138	3478056000	19862	1411.10	390.15	1417.36	319.44	0.57	71.81	1.00	28.82	1750.49	-1204.04	1211.73
Saccade R	1	6	3478036138	3478056000	19862	1411.10	390.15	1417.36	319.44	0.57	71.81	1.00	28.82	1750.49	-1204.04	1211.73
Fixation L	1	7	3478056000	3478274871	218871	1426.47	336.53	45	49	-1	12.04	12.04
Fixation R	1	7	3478056000	3478274871	218871	1426.47	336.53	45	49	-1	12.70	12.70
Saccade L	1	7	3478274871	3478294752	19881	1391.85	299.65	1382.06	298.92	0.44	46.44	0.00	22.15	-60.02	-899.22	418.40
Saccade R	1	7	3478274871	3478294752	19881	1391.85	299.65	1382.06	298.92	0.44	46.44	0.00	22.15	-60.02	-899.22	418.40
Fixation L	1	8	3478294752	3478513501	218749	1374.11	287.73	12	16	-1	11.47	11.47
Fixation R	1	8	3478294752	3478513501	218749	1374.11	287.73	12	16	-1	12.41	12.41
Saccade L	1	8	3478513501	3478553363	39862	1370.94	285.02	1202.80	350.36	1.62	107.31	1.00	40.71	2617.40	-2669.45	2192.49
Saccade R	1	8	3478513501	3478553363	39862	1370.94	285.02	1202.80	350.36	1.62	107.31	1.00	40.71	2617.40	-2669.45	2192.49
Fixation L	1	9	3478553363	3478772096	218733	1198.93	357.51	8	12	-1	11.76	11.76
Fixation R	1	9	3478553363	3478772096	218733	1198.93	357.51	8	12	-1	12.46	12.46
Saccade L	1	9	3478772096	3478791975	19879	1194.54	356.72	986.70	482.15	1.36	245.43	1.00	68.19	6097.57	-5823.41	4136.91
Saccade R	1	9	3478772096	3478791975	19879	1194.54	356.72	986.70	482.15	1.36	245.43	1.00	68.19	6097.57	-5823.41	4136.91
Fixation L	1	10	3478791975	3479169832	377857	958.96	502.20	40	30	-1	12.49	12.49
Fixation R	1	10	3478791975	3479169832	377857	958.96	502.20	40	30	-1	13.28	13.28
Saccade L	1	10	3479169832	3479189830	19998	945.96	511.36	728.71	505.81	1.28	219.74	1.00	63.77	5303.73	-5411.34	3634.47
Saccade R	1	10	3479169832	3479189830	19998	945.96	511.36	728.71	505.81	1.28	219.74	1.00	63.77	5303.73	-5411.34	3634.47
Fixation L	1	11	3479189830	3479428446	238616	737.36	529.31	16	43	-1	13.46	13.46
Fixation R	1	11	3479189830	3479428446	238616	737.36	529.31	16	43	-1	14.97	14.97
Saccade L	1	11	3479428446	3479547816	119370	734.74	549.24	509.12	826.14	6.17	197.21	0.33	51.70	4840.27	-4209.66	2135.95
Saccade R	1	11	3479428446	3479547816	119370	734.74	549.24	509.12	826.14	6.17	197.21	0.33	51.70	4840.27	-4209.66	2135.95
Fixation L	1	12	3479547816	3479667174	119358	508.92	880.72	15	83	-1	13.42	13.42
Fixation R	1	12	3479547816	3479667174	119358	508.92	880.72	15	83	-1	14.66	14.66
Saccade L	1	12	3479667174	3479687053	19879	512.12	909.83	512.59	913.53	0.13	8.00	1.00	6.34	44.27	-83.50	55.25
Saccade R	1	12	3479667174	3479687053	19879	512.12	909.83	512.59	913.53	0.13	8.00	1.00	6.34	44.27	-83.50	55.25
Fixation L	1	13	3479687053	3479826302	139249	514.66	914.92	4	9	-1	13.17	13.17
Fixation R	1	13	3479687053	3479826302	139249	514.66	914.92	4	9	-1	14.74	14.74
