[BeGaze]
Converted from:	C:\Documents and Settings\iViewX\Desktop\EXPERIMENTATIONS\Experiments\results\finaleart\S15H25531-finaleart-1.idf
Date:	27.03.2019 15:45:54
Version:	BeGaze 2.5.77
Sample Rate:	50
Subject:	S15H25531
Description:	Mikail Demirdelen

Table Header for Fixations:
Event Type	Trial	Number	Start	End	Duration	Location X	Location Y	Dispersion X	Dispersion Y	Plane	Avg. Pupil Size X	Avg. Pupil Size Y

Table Header for Saccades:
Event Type	Trial	Number	Start	End	Duration	Start Loc.X	Start Loc.Y	End Loc.X	End Loc.Y	Amplitude	Peak Speed	Peak Speed At	Average Speed	Peak Accel.	Peak Decel.	Average Accel.

Table Header for Blinks:
Event Type	Trial	Number	Start	End	Duration

Table Header for User Events:
Event Type	Trial	Number	Start	Description

UserEvent	1	1	4719127942	# Message: Courbet-Femme-nue-couchee-1862.jpg
Fixation L	1	1	4719139714	4719557433	417719	903.39	515.20	14	33	-1	12.84	12.84
Fixation R	1	1	4719139714	4719557433	417719	903.39	515.20	14	33	-1	14.49	14.49
Saccade L	1	1	4719557433	4719597174	39741	895.45	504.68	1372.77	483.89	3.95	271.50	1.00	99.41	6735.07	-6484.83	5899.78
Saccade R	1	1	4719557433	4719597174	39741	895.45	504.68	1372.77	483.89	3.95	271.50	1.00	99.41	6735.07	-6484.83	5899.78
Fixation L	1	2	4719597174	4719855789	258615	1376.71	479.33	12	15	-1	13.58	13.58
Fixation R	1	2	4719597174	4719855789	258615	1376.71	479.33	12	15	-1	15.19	15.19
Saccade L	1	2	4719855789	4719875671	19882	1369.19	487.78	1243.09	584.14	0.99	160.50	1.00	49.66	3947.65	-3380.33	2587.99
Saccade R	1	2	4719855789	4719875671	19882	1369.19	487.78	1243.09	584.14	0.99	160.50	1.00	49.66	3947.65	-3380.33	2587.99
Fixation L	1	3	4719875671	4720114397	238726	1237.05	579.99	62	35	-1	14.44	14.44
Fixation R	1	3	4719875671	4720114397	238726	1237.05	579.99	62	35	-1	15.90	15.90
Saccade L	1	3	4720114397	4720134276	19879	1203.25	581.57	1196.53	584.25	0.25	33.61	1.00	12.60	66.64	-657.28	271.29
Saccade R	1	3	4720114397	4720134276	19879	1203.25	581.57	1196.53	584.25	0.25	33.61	1.00	12.60	66.64	-657.28	271.29
Fixation L	1	4	4720134276	4720253646	119370	1192.52	584.63	7	3	-1	14.78	14.78
Fixation R	1	4	4720134276	4720253646	119370	1192.52	584.63	7	3	-1	16.19	16.19
Saccade L	1	4	4720253646	4720273531	19885	1189.17	582.52	1327.68	492.76	0.95	166.92	1.00	47.96	4095.20	-3725.19	2759.55
Saccade R	1	4	4720253646	4720273531	19885	1189.17	582.52	1327.68	492.76	0.95	166.92	1.00	47.96	4095.20	-3725.19	2759.55
Fixation L	1	5	4720273531	4720432648	159117	1341.84	482.68	22	19	-1	14.76	14.76
Fixation R	1	5	4720273531	4720432648	159117	1341.84	482.68	22	19	-1	16.49	16.49
Saccade L	1	5	4720432648	4720472377	39729	1350.45	490.69	996.35	811.61	4.18	343.68	0.50	105.10	8525.37	-7843.17	5726.82
Saccade R	1	5	4720432648	4720472377	39729	1350.45	490.69	996.35	811.61	4.18	343.68	0.50	105.10	8525.37	-7843.17	5726.82
Fixation L	1	6	4720472377	4720711122	238745	993.96	787.78	12	30	-1	15.14	15.14
Fixation R	1	6	4720472377	4720711122	238745	993.96	787.78	12	30	-1	17.05	17.05
Saccade L	1	6	4720711122	4720750868	39746	988.09	781.35	1294.74	564.81	3.28	208.79	1.00	82.50	5188.56	-4622.10	4391.17
Saccade R	1	6	4720711122	4720750868	39746	988.09	781.35	1294.74	564.81	3.28	208.79	1.00	82.50	5188.56	-4622.10	4391.17
Fixation L	1	7	4720750868	4721347587	596719	1322.11	529.36	40	46	-1	15.27	15.27
Fixation R	1	7	4720750868	4721347587	596719	1322.11	529.36	40	46	-1	16.91	16.91
Blink L	1	1	4721347587	4721427081	79494
Saccade R	1	7	4721347587	4721407212	59625	1329.60	520.98	1339.61	530.21	3.24	131.02	0.33	54.27	3184.89	-1911.30	2026.89
Fixation R	1	8	4721407212	4721685702	278490	1341.56	543.90	34	53	-1	17.56	17.56
Fixation L	1	8	4721427081	4721685702	258621	1341.70	544.87	34	53	-1	16.95	16.95
Saccade L	1	7	4721685702	4721705568	19866	1324.03	571.25	1304.94	615.94	0.38	49.16	1.00	19.06	1125.74	-1095.19	826.69
Saccade R	1	8	4721685702	4721705568	19866	1324.03	571.25	1304.94	615.94	0.38	49.16	1.00	19.06	1125.74	-1095.19	826.69
Fixation L	1	9	4721705568	4721944178	238610	1292.72	601.62	66	24	-1	17.19	17.19
Fixation R	1	9	4721705568	4721944178	238610	1292.72	601.62	66	24	-1	17.91	17.91
Saccade L	1	8	4721944178	4721964186	20008	1243.28	613.72	1222.33	620.95	0.32	22.83	0.00	16.12	147.18	-503.36	364.10
Saccade R	1	9	4721944178	4721964186	20008	1243.28	613.72	1222.33	620.95	0.32	22.83	0.00	16.12	147.18	-503.36	364.10
Fixation L	1	10	4721964186	4722342048	377862	1201.08	615.10	50	17	-1	17.46	17.46
Fixation R	1	10	4721964186	4722342048	377862	1201.08	615.10	50	17	-1	18.16	18.16
Saccade L	1	9	4722342048	4722361911	19863	1226.94	612.71	1284.75	620.89	0.67	59.06	1.00	33.93	1430.52	-1377.30	1134.83
Saccade R	1	10	4722342048	4722361911	19863	1226.94	612.71	1284.75	620.89	0.67	59.06	1.00	33.93	1430.52	-1377.30	1134.83
Fixation L	1	11	4722361911	4723117749	755838	1298.06	664.50	18	80	-1	16.61	16.61
Fixation R	1	11	4722361911	4723117749	755838	1298.06	664.50	18	80	-1	17.26	17.26
