[BeGaze]
Converted from:	C:\Documents and Settings\iViewX\Desktop\EXPERIMENTATIONS\Experiments\results\finaleart\S15H25531-finaleart-1.idf
Date:	27.03.2019 15:44:34
Version:	BeGaze 2.5.77
Sample Rate:	50
Subject:	S15H25531
Description:	Mikail Demirdelen

Table Header for Fixations:
Event Type	Trial	Number	Start	End	Duration	Location X	Location Y	Dispersion X	Dispersion Y	Plane	Avg. Pupil Size X	Avg. Pupil Size Y

Table Header for Saccades:
Event Type	Trial	Number	Start	End	Duration	Start Loc.X	Start Loc.Y	End Loc.X	End Loc.Y	Amplitude	Peak Speed	Peak Speed At	Average Speed	Peak Accel.	Peak Decel.	Average Accel.

Table Header for Blinks:
Event Type	Trial	Number	Start	End	Duration

Table Header for User Events:
Event Type	Trial	Number	Start	Description

UserEvent	1	1	3457478115	# Message: reclining-nude_bazille_1860.jpg
Fixation L	1	1	3457489741	3457589257	99516	881.36	720.71	6	76	-1	16.27	16.27
Fixation R	1	1	3457489741	3457589257	99516	881.36	720.71	6	76	-1	18.13	18.13
Saccade L	1	1	3457589257	3457609237	19980	885.53	658.63	955.06	592.16	1.01	97.30	1.00	50.65	2400.84	-2134.25	1908.52
Saccade R	1	1	3457589257	3457609237	19980	885.53	658.63	955.06	592.16	1.01	97.30	1.00	50.65	2400.84	-2134.25	1908.52
Fixation L	1	2	3457609237	3457927348	318111	984.41	555.31	49	45	-1	15.77	15.77
Fixation R	1	2	3457609237	3457927348	318111	984.41	555.31	49	45	-1	17.74	17.74
Saccade L	1	2	3457927348	3457947227	19879	945.34	552.72	707.41	617.36	1.56	249.27	1.00	78.40	6131.32	-5504.58	4153.66
Saccade R	1	2	3457927348	3457947227	19879	945.34	552.72	707.41	617.36	1.56	249.27	1.00	78.40	6131.32	-5504.58	4153.66
Fixation L	1	3	3457947227	3458126214	178987	685.13	611.77	48	38	-1	15.65	15.65
Fixation R	1	3	3457947227	3458126214	178987	685.13	611.77	48	38	-1	17.55	17.55
Saccade L	1	3	3458126214	3458146080	19866	658.73	628.31	536.44	631.18	0.89	123.73	1.00	44.70	2767.49	-2858.26	1947.71
Saccade R	1	3	3458126214	3458146080	19866	658.73	628.31	536.44	631.18	0.89	123.73	1.00	44.70	2767.49	-2858.26	1947.71
Fixation L	1	4	3458146080	3458524067	377987	525.65	657.20	38	46	-1	15.04	15.04
Fixation R	1	4	3458146080	3458524067	377987	525.65	657.20	38	46	-1	17.40	17.40
Saccade L	1	4	3458524067	3458543937	19870	555.47	645.68	621.22	613.88	0.68	73.88	1.00	34.40	1815.62	-1305.05	1294.55
Saccade R	1	4	3458524067	3458543937	19870	555.47	645.68	621.22	613.88	0.68	73.88	1.00	34.40	1815.62	-1305.05	1294.55
Fixation L	1	5	3458543937	3458842308	298371	620.39	589.08	22	33	-1	15.00	15.00
Fixation R	1	5	3458543937	3458842308	298371	620.39	589.08	22	33	-1	17.33	17.33
Saccade L	1	5	3458842308	3458862177	19869	614.55	587.70	508.00	628.43	0.73	115.38	1.00	36.84	2771.95	-2244.63	1825.32
Saccade R	1	5	3458842308	3458862177	19869	614.55	587.70	508.00	628.43	0.73	115.38	1.00	36.84	2771.95	-2244.63	1825.32
Fixation L	1	6	3458862177	3459816880	954703	503.05	658.04	33	49	-1	16.02	16.02
Fixation R	1	6	3458862177	3459816880	954703	503.05	658.04	33	49	-1	18.19	18.19
Saccade L	1	6	3459816880	3459836758	19878	513.36	652.97	633.83	626.76	0.76	124.71	1.00	38.16	3039.24	-2579.51	1974.82
Saccade R	1	6	3459816880	3459836758	19878	513.36	652.97	633.83	626.76	0.76	124.71	1.00	38.16	3039.24	-2579.51	1974.82
Fixation L	1	7	3459836758	3460035747	198989	614.29	576.94	25	72	-1	16.27	16.27
Fixation R	1	7	3459836758	3460035747	198989	614.29	576.94	25	72	-1	18.43	18.43
Saccade L	1	7	3460035747	3460115243	79496	609.92	554.31	512.96	578.80	2.05	93.35	1.00	25.76	2295.37	-1632.10	891.22
Saccade R	1	7	3460035747	3460115243	79496	609.92	554.31	512.96	578.80	2.05	93.35	1.00	25.76	2295.37	-1632.10	891.22
Fixation L	1	8	3460115243	3460214735	99492	545.54	590.78	57	36	-1	15.91	15.91
Fixation R	1	8	3460115243	3460214735	99492	545.54	590.78	57	36	-1	18.34	18.34
Saccade L	1	8	3460214735	3460254486	39751	543.44	612.66	1143.66	716.13	5.16	378.33	0.50	129.82	9310.01	-9343.49	7338.75
Saccade R	1	8	3460214735	3460254486	39751	543.44	612.66	1143.66	716.13	5.16	378.33	0.50	129.82	9310.01	-9343.49	7338.75
Fixation L	1	9	3460254486	3460473226	218740	1179.91	703.85	55	33	-1	16.36	16.36
Fixation R	1	9	3460254486	3460473226	218740	1179.91	703.85	55	33	-1	18.06	18.06
Saccade L	1	9	3460473226	3460493101	19875	1199.07	700.07	1012.13	689.88	1.13	189.33	1.00	57.05	4548.36	-4543.35	3146.92
Saccade R	1	9	3460473226	3460493101	19875	1199.07	700.07	1012.13	689.88	1.13	189.33	1.00	57.05	4548.36	-4543.35	3146.92
Fixation L	1	10	3460493101	3460751715	258614	1028.45	654.12	22	50	-1	16.41	16.41
Fixation R	1	10	3460493101	3460751715	258614	1028.45	654.12	22	50	-1	18.32	18.32
Saccade L	1	10	3460751715	3460771588	19873	1035.12	639.77	918.96	661.83	0.65	119.59	1.00	32.76	2930.47	-2381.55	1798.48
Saccade R	1	10	3460751715	3460771588	19873	1035.12	639.77	918.96	661.83	0.65	119.59	1.00	32.76	2930.47	-2381.55	1798.48
Fixation L	1	11	3460771588	3461010327	238739	902.68	680.33	27	34	-1	16.19	16.19
Fixation R	1	11	3460771588	3461010327	238739	902.68	680.33	27	34	-1	17.84	17.84
Saccade L	1	11	3461010327	3461050072	39745	898.30	688.56	1401.33	685.91	4.18	299.50	0.50	105.05	7479.24	-7226.46	6218.43
Saccade R	1	11	3461010327	3461050072	39745	898.30	688.56	1401.33	685.91	4.18	299.50	0.50	105.05	7479.24	-7226.46	6218.43
Fixation L	1	12	3461050072	3461248939	198867	1394.30	691.65	12	14	-1	16.03	16.03
Fixation R	1	12	3461050072	3461248939	198867	1394.30	691.65	12	14	-1	17.51	17.51
Saccade L	1	12	3461248939	3461268812	19873	1395.54	700.52	1489.14	698.66	0.81	94.70	1.00	41.00	2273.82	-2265.42	1939.48
Saccade R	1	12	3461248939	3461268812	19873	1395.54	700.52	1489.14	698.66	0.81	94.70	1.00	41.00	2273.82	-2265.42	1939.48
Fixation L	1	13	3461268812	3461467814	199002	1544.40	704.57	64	17	-1	15.90	15.90
Fixation R	1	13	3461268812	3461467814	199002	1544.40	704.57	64	17	-1	17.12	17.12
