[BeGaze]
Converted from:	C:\Documents and Settings\iViewX\Desktop\EXPERIMENTATIONS\Experiments\results\finaleart\S15H25531-finaleart-1.idf
Date:	27.03.2019 15:44:24
Version:	BeGaze 2.5.77
Sample Rate:	50
Subject:	S15H25531
Description:	Mikail Demirdelen

Table Header for Fixations:
Event Type	Trial	Number	Start	End	Duration	Location X	Location Y	Dispersion X	Dispersion Y	Plane	Avg. Pupil Size X	Avg. Pupil Size Y

Table Header for Saccades:
Event Type	Trial	Number	Start	End	Duration	Start Loc.X	Start Loc.Y	End Loc.X	End Loc.Y	Amplitude	Peak Speed	Peak Speed At	Average Speed	Peak Accel.	Peak Decel.	Average Accel.

Table Header for Blinks:
Event Type	Trial	Number	Start	End	Duration

Table Header for User Events:
Event Type	Trial	Number	Start	Description

UserEvent	1	1	3363799399	# Message: void.jpg
Saccade L	1	1	3363807733	3363946973	139240	846.74	530.68	575.08	679.59	6.49	156.97	0.57	46.62	3916.09	-1833.52	1398.92
Saccade R	1	1	3363807733	3364046459	238726	846.74	530.68	3.15	0.00	42.36	1241.09	0.92	177.44	28376.67	-31001.06	7610.96
Blink L	1	1	3363946973	3364046459	99486
Saccade L	1	2	3364046459	3364066338	19879	3.15	0.00	2.12	0.00	6.19	1241.09	1.00	311.40	-17.83	-31001.06	10359.46
Saccade L	1	3	3364086209	3364185700	99491	1.59	0.00	669.56	652.96	20.35	1235.35	0.60	204.56	30875.37	-27828.30	10644.95
Saccade R	1	2	3364106082	3364125955	19873	1.26	0.00	1.03	0.00	6.14	1235.35	1.00	309.11	30875.37	-7.86	12564.46
Blink R	1	1	3364125955	3364205570	79615
Fixation L	1	1	3364185700	3364364693	178993	682.13	700.86	21	78	-1	14.51	14.51
Fixation R	1	1	3364205570	3364384568	178998	684.65	708.52	23	74	-1	15.56	15.56
Saccade L	1	4	3364364693	3364384568	19875	690.80	731.38	694.79	729.56	0.14	13.70	0.00	7.09	112.48	-248.07	136.94
Fixation L	1	2	3364384568	3365100539	715971	695.55	761.89	10	42	-1	14.78	14.78
Saccade R	1	3	3364384568	3364404440	19872	694.79	729.56	695.57	733.22	0.15	13.70	1.00	7.71	112.48	-248.07	127.94
Fixation R	1	2	3364404440	3365100539	696099	695.57	762.78	10	38	-1	16.20	16.20
Saccade L	1	5	3365100539	3365140409	39870	691.46	770.81	862.17	761.85	1.59	94.48	0.50	39.92	2182.09	-1934.50	1996.71
Saccade R	1	4	3365100539	3365140409	39870	691.46	770.81	862.17	761.85	1.59	94.48	0.50	39.92	2182.09	-1934.50	1996.71
Fixation L	1	3	3365140409	3365418793	278384	860.63	728.30	20	53	-1	15.41	15.41
Fixation R	1	3	3365140409	3365418793	278384	860.63	728.30	20	53	-1	16.72	16.72
Saccade L	1	6	3365418793	3365458643	39850	869.41	708.79	985.04	698.13	1.07	82.45	1.00	26.83	1861.15	-1326.14	1182.63
Saccade R	1	5	3365418793	3365458643	39850	869.41	708.79	985.04	698.13	1.07	82.45	1.00	26.83	1861.15	-1326.14	1182.63
Fixation L	1	4	3365458643	3365796755	338112	993.46	715.51	27	25	-1	15.90	15.90
Fixation R	1	4	3365458643	3365796755	338112	993.46	715.51	27	25	-1	16.80	16.80
