[BeGaze]
Converted from:	C:\Documents and Settings\iViewX\Desktop\EXPERIMENTATIONS\Experiments\results\finaleart\S15H25531-finaleart-1.idf
Date:	27.03.2019 15:44:40
Version:	BeGaze 2.5.77
Sample Rate:	50
Subject:	S15H25531
Description:	Mikail Demirdelen

Table Header for Fixations:
Event Type	Trial	Number	Start	End	Duration	Location X	Location Y	Dispersion X	Dispersion Y	Plane	Avg. Pupil Size X	Avg. Pupil Size Y

Table Header for Saccades:
Event Type	Trial	Number	Start	End	Duration	Start Loc.X	Start Loc.Y	End Loc.X	End Loc.Y	Amplitude	Peak Speed	Peak Speed At	Average Speed	Peak Accel.	Peak Decel.	Average Accel.

Table Header for Blinks:
Event Type	Trial	Number	Start	End	Duration

Table Header for User Events:
Event Type	Trial	Number	Start	Description

UserEvent	1	1	3785354043	# Message: red-mullets_monet_1869.jpg
Fixation L	1	1	3785354593	3785792061	437468	883.48	513.53	23	27	-1	11.93	11.93
Fixation R	1	1	3785354593	3785792061	437468	883.48	513.53	23	27	-1	12.62	12.62
Saccade L	1	1	3785792061	3785811925	19864	881.88	524.23	757.22	585.10	0.96	140.31	1.00	48.17	3241.58	-2642.76	2221.35
Saccade R	1	1	3785792061	3785811925	19864	881.88	524.23	757.22	585.10	0.96	140.31	1.00	48.17	3241.58	-2642.76	2221.35
Fixation L	1	2	3785811925	3785991044	179119	744.75	635.05	22	74	-1	11.57	11.57
Fixation R	1	2	3785811925	3785991044	179119	744.75	635.05	22	74	-1	12.55	12.55
Saccade L	1	2	3785991044	3786030794	39750	734.78	638.63	612.57	728.64	9.05	954.08	1.00	227.68	19835.89	-383.46	6102.62
Saccade R	1	2	3785991044	3786030794	39750	734.78	638.63	612.57	728.64	9.05	954.08	1.00	227.68	19835.89	-383.46	6102.62
Blink L	1	1	3786030794	3786229653	198859
Blink R	1	1	3786030794	3786229653	198859
Saccade L	1	3	3786229653	3786249535	19882	607.12	750.11	610.22	805.49	0.75	76.93	1.00	37.54	198.50	-976.73	565.23
Saccade R	1	3	3786229653	3786249535	19882	607.12	750.11	610.22	805.49	0.75	76.93	1.00	37.54	198.50	-976.73	565.23
Fixation L	1	3	3786249535	3786488277	238742	621.78	831.85	23	40	-1	13.51	13.51
Fixation R	1	3	3786249535	3786488277	238742	621.78	831.85	23	40	-1	14.98	14.98
Saccade L	1	4	3786488277	3786547895	59618	613.90	841.85	1175.41	525.72	6.78	292.35	0.67	113.74	7169.13	-6787.45	5544.65
Saccade R	1	4	3786488277	3786547895	59618	613.90	841.85	1175.41	525.72	6.78	292.35	0.67	113.74	7169.13	-6787.45	5544.65
Fixation L	1	4	3786547895	3786667262	119367	1182.26	507.41	46	37	-1	13.87	13.87
Fixation R	1	4	3786547895	3786667262	119367	1182.26	507.41	46	37	-1	15.01	15.01
Saccade L	1	5	3786667262	3786687132	19870	1216.16	488.52	1487.85	354.85	2.07	306.02	1.00	104.18	7389.50	-7397.42	5073.39
Saccade R	1	5	3786667262	3786687132	19870	1216.16	488.52	1487.85	354.85	2.07	306.02	1.00	104.18	7389.50	-7397.42	5073.39
Fixation L	1	5	3786687132	3786905870	218738	1531.02	346.95	53	26	-1	13.29	13.29
Fixation R	1	5	3786687132	3786905870	218738	1531.02	346.95	53	26	-1	14.46	14.46
Saccade L	1	6	3786905870	3786965624	59754	1536.82	349.01	1061.51	258.39	5.38	270.42	0.67	90.10	6655.92	-6191.25	4078.97
Saccade R	1	6	3786905870	3786965624	59754	1536.82	349.01	1061.51	258.39	5.38	270.42	0.67	90.10	6655.92	-6191.25	4078.97
Fixation L	1	6	3786965624	3787423103	457479	1044.01	255.23	22	20	-1	12.50	12.50
Fixation R	1	6	3786965624	3787423103	457479	1044.01	255.23	22	20	-1	13.29	13.29
Saccade L	1	7	3787423103	3787462863	39760	1047.22	256.21	887.80	406.01	1.98	162.07	1.00	49.71	3923.98	-3315.84	2637.53
Saccade R	1	7	3787423103	3787462863	39760	1047.22	256.21	887.80	406.01	1.98	162.07	1.00	49.71	3923.98	-3315.84	2637.53
Fixation L	1	7	3787462863	3787840722	377859	894.53	398.18	47	41	-1	12.76	12.76
Fixation R	1	7	3787462863	3787840722	377859	894.53	398.18	47	41	-1	13.68	13.68
Saccade L	1	8	3787840722	3787860582	19860	857.56	404.93	839.01	414.89	0.39	34.57	0.00	19.41	125.51	-727.14	386.12
Saccade R	1	8	3787840722	3787860582	19860	857.56	404.93	839.01	414.89	0.39	34.57	0.00	19.41	125.51	-727.14	386.12
Fixation L	1	8	3787860582	3788059574	198992	835.83	439.73	17	49	-1	11.46	11.46
Fixation R	1	8	3787860582	3788059574	198992	835.83	439.73	17	49	-1	13.79	13.79
Blink L	1	2	3788059574	3788158946	99372
Blink R	1	2	3788059574	3788158946	99372
Fixation L	1	9	3788158946	3788556801	397855	826.42	474.51	18	36	-1	12.10	12.10
Fixation R	1	9	3788158946	3788556801	397855	826.42	474.51	18	36	-1	13.03	13.03
Saccade L	1	9	3788556801	3788616415	59614	822.85	480.52	1392.79	357.88	6.14	318.43	0.67	102.95	7679.43	-7870.88	4465.16
Saccade R	1	9	3788556801	3788616415	59614	822.85	480.52	1392.79	357.88	6.14	318.43	0.67	102.95	7679.43	-7870.88	4465.16
Fixation L	1	10	3788616415	3788835279	218864	1396.85	341.59	31	39	-1	12.11	12.11
Fixation R	1	10	3788616415	3788835279	218864	1396.85	341.59	31	39	-1	12.57	12.57
Saccade L	1	10	3788835279	3788855160	19881	1414.44	322.21	1682.82	189.03	1.98	302.82	1.00	99.36	7233.69	-6769.92	4822.35
Saccade R	1	10	3788835279	3788855160	19881	1414.44	322.21	1682.82	189.03	1.98	302.82	1.00	99.36	7233.69	-6769.92	4822.35
Fixation L	1	11	3788855160	3788974525	119365	1708.50	183.78	37	41	-1	11.60	11.60
Fixation R	1	11	3788855160	3788974525	119365	1708.50	183.78	37	41	-1	12.28	12.28
Saccade L	1	11	3788974525	3788994397	19872	1705.53	197.82	1701.80	228.89	0.31	31.67	1.00	15.58	687.01	-669.45	534.65
Saccade R	1	11	3788974525	3788994397	19872	1705.53	197.82	1701.80	228.89	0.31	31.67	1.00	15.58	687.01	-669.45	534.65
Fixation L	1	12	3788994397	3789213139	218742	1679.68	241.14	30	33	-1	11.96	11.96
Fixation R	1	12	3788994397	3789213139	218742	1679.68	241.14	30	33	-1	12.32	12.32
Saccade L	1	12	3789213139	3789352387	139248	1672.05	244.95	1598.89	917.91	11.33	327.58	0.29	81.35	8085.27	-7207.97	3541.98
Saccade R	1	12	3789213139	3789352387	139248	1672.05	244.95	1598.89	917.91	11.33	327.58	0.29	81.35	8085.27	-7207.97	3541.98
