[BeGaze]
Converted from:	C:\Documents and Settings\iViewX\Desktop\EXPERIMENTATIONS\Experiments\results\finaleart\S15H25531-finaleart-1.idf
Date:	27.03.2019 15:45:23
Version:	BeGaze 2.5.77
Sample Rate:	50
Subject:	S15H25531
Description:	Mikail Demirdelen

Table Header for Fixations:
Event Type	Trial	Number	Start	End	Duration	Location X	Location Y	Dispersion X	Dispersion Y	Plane	Avg. Pupil Size X	Avg. Pupil Size Y

Table Header for Saccades:
Event Type	Trial	Number	Start	End	Duration	Start Loc.X	Start Loc.Y	End Loc.X	End Loc.Y	Amplitude	Peak Speed	Peak Speed At	Average Speed	Peak Accel.	Peak Decel.	Average Accel.

Table Header for Blinks:
Event Type	Trial	Number	Start	End	Duration

Table Header for User Events:
Event Type	Trial	Number	Start	Description

UserEvent	1	1	4300763686	# Message: still-life-fruits-on-a-table_manet_1864.jpg
Fixation L	1	1	4300779321	4301276545	497224	1002.38	496.83	29	39	-1	14.61	14.61
Fixation R	1	1	4300779321	4301276545	497224	1002.38	496.83	29	39	-1	14.91	14.91
Saccade L	1	1	4301276545	4301296408	19863	1005.76	490.86	778.56	472.93	1.52	230.43	1.00	76.61	5308.85	-5356.07	3618.52
Saccade R	1	1	4301276545	4301296408	19863	1005.76	490.86	778.56	472.93	1.52	230.43	1.00	76.61	5308.85	-5356.07	3618.52
Fixation L	1	2	4301296408	4301535034	238626	787.08	440.27	27	55	-1	13.02	13.02
Fixation R	1	2	4301296408	4301535034	238626	787.08	440.27	27	55	-1	13.15	13.15
Saccade L	1	2	4301535034	4301574908	39874	782.84	420.68	594.76	618.21	2.38	183.79	1.00	59.61	4507.01	-3418.83	3044.43
Saccade R	1	2	4301535034	4301574908	39874	782.84	420.68	594.76	618.21	2.38	183.79	1.00	59.61	4507.01	-3418.83	3044.43
Fixation L	1	3	4301574908	4301893149	318241	627.34	651.31	51	48	-1	12.17	12.17
Fixation R	1	3	4301574908	4301893149	318241	627.34	651.31	51	48	-1	12.65	12.65
Saccade L	1	3	4301893149	4301913009	19860	645.96	646.78	953.49	649.54	2.02	310.81	1.00	101.93	7722.97	-7507.15	5677.99
Saccade R	1	3	4301893149	4301913009	19860	645.96	646.78	953.49	649.54	2.02	310.81	1.00	101.93	7722.97	-7507.15	5677.99
Fixation L	1	4	4301913009	4302012380	99371	1021.50	652.57	91	5	-1	12.40	12.40
Fixation R	1	4	4301913009	4302012380	99371	1021.50	652.57	91	5	-1	12.31	12.31
Saccade L	1	4	4302012380	4302131753	119373	1032.53	654.60	1498.84	369.07	7.92	301.48	0.83	66.34	7344.00	-7472.98	3513.33
Saccade R	1	4	4302012380	4302131753	119373	1032.53	654.60	1498.84	369.07	7.92	301.48	0.83	66.34	7344.00	-7472.98	3513.33
Fixation L	1	5	4302131753	4302430113	298360	1503.36	372.90	7	20	-1	11.81	11.81
Fixation R	1	5	4302131753	4302430113	298360	1503.36	372.90	7	20	-1	12.00	12.00
Blink L	1	1	4302430113	4302609093	178980
Saccade R	1	5	4302430113	4302569348	139235	1502.93	386.00	1529.12	746.99	15.46	306.41	0.86	111.02	4215.45	-7056.95	3046.07
Fixation R	1	6	4302569348	4302708596	139248	1524.49	753.45	54	36	-1	11.84	11.84
Fixation L	1	6	4302609093	4302728470	119377	1513.89	756.54	59	36	-1	12.54	12.54
Saccade R	1	6	4302708596	4302788218	79622	1497.78	780.03	1380.06	841.29	2.99	89.80	0.75	37.55	1724.99	-491.45	546.32
Saccade L	1	5	4302728470	4302788218	59748	1483.17	765.56	1380.06	841.29	2.48	89.80	0.67	41.47	1724.99	-491.45	621.91
Fixation L	1	7	4302788218	4303086579	298361	1336.23	873.93	51	48	-1	12.57	12.57
Fixation R	1	7	4302788218	4303086579	298361	1336.23	873.93	51	48	-1	11.81	11.81
Saccade L	1	6	4303086579	4303106451	19872	1334.39	866.92	1488.96	820.14	1.10	163.33	1.00	55.60	4008.08	-3724.22	2991.55
Saccade R	1	7	4303086579	4303106451	19872	1334.39	866.92	1488.96	820.14	1.10	163.33	1.00	55.60	4008.08	-3724.22	2991.55
Fixation L	1	8	4303106451	4303265567	159116	1490.05	776.44	13	59	-1	12.31	12.31
Fixation R	1	8	4303106451	4303265567	159116	1490.05	776.44	13	59	-1	11.41	11.41
Saccade L	1	7	4303265567	4303285438	19871	1484.00	765.87	1330.47	874.64	1.08	190.28	1.00	54.23	4568.41	-4536.39	3104.51
Saccade R	1	8	4303265567	4303285438	19871	1484.00	765.87	1330.47	874.64	1.08	190.28	1.00	54.23	4568.41	-4536.39	3104.51
Fixation L	1	9	4303285438	4303543929	258491	1329.79	890.40	9	23	-1	12.23	12.23
Fixation R	1	9	4303285438	4303543929	258491	1329.79	890.40	9	23	-1	11.26	11.26
Saccade L	1	8	4303543929	4303603678	59749	1326.68	882.42	887.17	367.36	7.28	373.68	0.33	121.89	9309.21	-7208.36	5919.81
Saccade R	1	9	4303543929	4303603678	59749	1326.68	882.42	887.17	367.36	7.28	373.68	0.33	121.89	9309.21	-7208.36	5919.81
Fixation L	1	10	4303603678	4303802549	198871	888.12	397.71	14	42	-1	11.69	11.69
Fixation R	1	10	4303603678	4303802549	198871	888.12	397.71	14	42	-1	11.30	11.30
Saccade L	1	9	4303802549	4303822417	19868	888.64	401.41	778.43	391.29	0.80	111.95	1.00	40.13	2692.08	-2088.95	1957.55
Saccade R	1	10	4303802549	4303822417	19868	888.64	401.41	778.43	391.29	0.80	111.95	1.00	40.13	2692.08	-2088.95	1957.55
Fixation L	1	11	4303822417	4304100897	278480	793.80	408.60	41	27	-1	11.70	11.70
Fixation R	1	11	4303822417	4304100897	278480	793.80	408.60	41	27	-1	11.15	11.15
Saccade L	1	10	4304100897	4304120782	19885	790.00	418.76	582.49	619.42	1.72	291.77	1.00	86.37	7288.69	-6909.18	5087.55
Saccade R	1	11	4304100897	4304120782	19885	790.00	418.76	582.49	619.42	1.72	291.77	1.00	86.37	7288.69	-6909.18	5087.55
Fixation L	1	12	4304120782	4304399263	278481	551.45	667.57	38	59	-1	12.34	12.34
Fixation R	1	12	4304120782	4304399263	278481	551.45	667.57	38	59	-1	12.51	12.51
Saccade L	1	11	4304399263	4304439011	39748	544.04	665.79	708.55	384.93	3.22	188.74	1.00	81.08	4703.07	-4527.24	4362.84
Saccade R	1	12	4304399263	4304439011	39748	544.04	665.79	708.55	384.93	3.22	188.74	1.00	81.08	4703.07	-4527.24	4362.84
Fixation L	1	13	4304439011	4304697638	258627	743.20	384.28	61	10	-1	12.08	12.08
Fixation R	1	13	4304439011	4304697638	258627	743.20	384.28	61	10	-1	12.25	12.25
Saccade L	1	12	4304697638	4304757250	59612	770.11	384.29	961.72	346.53	2.73	190.82	0.33	45.84	4728.40	-4700.73	2427.19
Saccade R	1	13	4304697638	4304757250	59612	770.11	384.29	961.72	346.53	2.73	190.82	0.33	45.84	4728.40	-4700.73	2427.19
