[BeGaze]
Converted from:	C:\Documents and Settings\iViewX\Desktop\EXPERIMENTATIONS\Experiments\results\finaleart\S15H25531-finaleart-1.idf
Date:	27.03.2019 15:44:35
Version:	BeGaze 2.5.77
Sample Rate:	50
Subject:	S15H25531
Description:	Mikail Demirdelen

Table Header for Fixations:
Event Type	Trial	Number	Start	End	Duration	Location X	Location Y	Dispersion X	Dispersion Y	Plane	Avg. Pupil Size X	Avg. Pupil Size Y

Table Header for Saccades:
Event Type	Trial	Number	Start	End	Duration	Start Loc.X	Start Loc.Y	End Loc.X	End Loc.Y	Amplitude	Peak Speed	Peak Speed At	Average Speed	Peak Accel.	Peak Decel.	Average Accel.

Table Header for Blinks:
Event Type	Trial	Number	Start	End	Duration

Table Header for User Events:
Event Type	Trial	Number	Start	Description

UserEvent	1	1	3463579161	# Message: the-banks-of-the-marne-at-dawn_dubois-pillet_1888.jpg
Blink L	1	1	3463595958	3463735202	139244
Blink R	1	1	3463595958	3463954061	358103
Blink L	1	2	3463755081	3463954061	198980
Fixation L	1	1	3463954061	3464212536	258475	857.28	597.70	9	29	-1	16.05	16.05
Fixation R	1	1	3463954061	3464212536	258475	857.28	597.70	9	29	-1	17.32	17.32
Saccade L	1	1	3464212536	3464252288	39752	851.34	585.13	1140.79	575.73	2.81	257.19	0.50	70.65	6162.82	-5415.86	3299.57
Saccade R	1	1	3464212536	3464252288	39752	851.34	585.13	1140.79	575.73	2.81	257.19	0.50	70.65	6162.82	-5415.86	3299.57
Fixation L	1	2	3464252288	3464491047	238759	1181.46	575.08	49	12	-1	13.05	13.05
Fixation R	1	2	3464252288	3464491047	238759	1181.46	575.08	49	12	-1	13.63	13.63
Saccade L	1	2	3464491047	3464530780	39733	1184.18	581.25	1374.82	463.47	2.87	195.73	0.50	72.11	4785.14	-3481.28	3175.01
Saccade R	1	2	3464491047	3464530780	39733	1184.18	581.25	1374.82	463.47	2.87	195.73	0.50	72.11	4785.14	-3481.28	3175.01
Fixation L	1	3	3464530780	3464849012	318232	1376.14	508.96	25	65	-1	11.34	11.34
Fixation R	1	3	3464530780	3464849012	318232	1376.14	508.96	25	65	-1	11.76	11.76
Saccade L	1	3	3464849012	3464868908	19896	1355.71	513.95	1177.09	518.35	1.23	180.69	1.00	61.62	4502.98	-4290.44	3056.46
Saccade R	1	3	3464849012	3464868908	19896	1355.71	513.95	1177.09	518.35	1.23	180.69	1.00	61.62	4502.98	-4290.44	3056.46
Fixation L	1	4	3464868908	3465048010	179102	1139.67	532.78	47	22	-1	11.33	11.33
Fixation R	1	4	3464868908	3465048010	179102	1139.67	532.78	47	22	-1	11.57	11.57
Saccade L	1	4	3465048010	3465087756	39746	1135.51	540.72	916.19	599.42	2.35	183.52	0.50	59.06	4527.14	-3608.93	2822.59
Saccade R	1	4	3465048010	3465087756	39746	1135.51	540.72	916.19	599.42	2.35	183.52	0.50	59.06	4527.14	-3608.93	2822.59
Fixation L	1	5	3465087756	3465286616	198860	903.74	629.40	16	38	-1	11.49	11.49
Fixation R	1	5	3465087756	3465286616	198860	903.74	629.40	16	38	-1	12.18	12.18
Saccade L	1	5	3465286616	3465306498	19882	900.44	638.21	725.75	632.75	1.01	176.76	1.00	50.65	4407.75	-4156.90	2987.06
Saccade R	1	5	3465286616	3465306498	19882	900.44	638.21	725.75	632.75	1.01	176.76	1.00	50.65	4407.75	-4156.90	2987.06
Fixation L	1	6	3465306498	3465644595	338097	712.80	650.72	24	29	-1	11.12	11.12
Fixation R	1	6	3465306498	3465644595	338097	712.80	650.72	24	29	-1	11.62	11.62
Saccade L	1	6	3465644595	3465664474	19879	706.28	639.22	755.19	598.60	0.41	64.32	1.00	20.78	1402.16	-1459.69	966.21
Saccade R	1	6	3465644595	3465664474	19879	706.28	639.22	755.19	598.60	0.41	64.32	1.00	20.78	1402.16	-1459.69	966.21
Fixation L	1	7	3465664474	3466082202	417728	763.57	594.73	19	58	-1	10.77	10.77
Fixation R	1	7	3465664474	3466082202	417728	763.57	594.73	19	58	-1	11.20	11.20
Saccade L	1	7	3466082202	3466121958	39756	767.75	646.64	993.35	891.05	3.23	229.09	0.50	81.20	5708.92	-5388.33	3656.08
Saccade R	1	7	3466082202	3466121958	39756	767.75	646.64	993.35	891.05	3.23	229.09	0.50	81.20	5708.92	-5388.33	3656.08
Fixation L	1	8	3466121958	3466420313	298355	955.94	872.43	45	35	-1	10.79	10.79
Fixation R	1	8	3466121958	3466420313	298355	955.94	872.43	45	35	-1	11.35	11.35
Saccade L	1	8	3466420313	3466480056	59743	947.67	860.12	1460.48	435.45	7.32	319.65	0.67	122.47	7934.83	-7696.00	5368.19
Saccade R	1	8	3466420313	3466480056	59743	947.67	860.12	1460.48	435.45	7.32	319.65	0.67	122.47	7934.83	-7696.00	5368.19
Fixation L	1	9	3466480056	3466877786	397730	1446.92	452.15	29	45	-1	11.09	11.09
Fixation R	1	9	3466480056	3466877786	397730	1446.92	452.15	29	45	-1	11.24	11.24
Saccade L	1	9	3466877786	3466917670	39884	1431.39	480.61	1498.29	267.90	2.06	149.42	1.00	51.57	3349.93	-3591.12	2593.44
Saccade R	1	9	3466877786	3466917670	39884	1431.39	480.61	1498.29	267.90	2.06	149.42	1.00	51.57	3349.93	-3591.12	2593.44
Fixation L	1	10	3466917670	3467156285	238615	1511.53	247.85	21	31	-1	10.89	10.89
Fixation R	1	10	3466917670	3467156285	238615	1511.53	247.85	21	31	-1	10.95	10.95
Saccade L	1	10	3467156285	3467176156	19871	1516.27	238.23	1422.70	234.86	0.50	94.72	1.00	25.41	2305.17	-2305.88	1541.10
Saccade R	1	10	3467156285	3467176156	19871	1516.27	238.23	1422.70	234.86	0.50	94.72	1.00	25.41	2305.17	-2305.88	1541.10
Fixation L	1	11	3467176156	3467574011	397855	1412.99	218.80	45	47	-1	10.77	10.77
Fixation R	1	11	3467176156	3467574011	397855	1412.99	218.80	45	47	-1	10.71	10.71
