[BeGaze]
Converted from:	C:\Documents and Settings\iViewX\Desktop\EXPERIMENTATIONS\Experiments\results\finaleart\S15H25531-finaleart-1.idf
Date:	27.03.2019 15:45:35
Version:	BeGaze 2.5.77
Sample Rate:	50
Subject:	S15H25531
Description:	Mikail Demirdelen

Table Header for Fixations:
Event Type	Trial	Number	Start	End	Duration	Location X	Location Y	Dispersion X	Dispersion Y	Plane	Avg. Pupil Size X	Avg. Pupil Size Y

Table Header for Saccades:
Event Type	Trial	Number	Start	End	Duration	Start Loc.X	Start Loc.Y	End Loc.X	End Loc.Y	Amplitude	Peak Speed	Peak Speed At	Average Speed	Peak Accel.	Peak Decel.	Average Accel.

Table Header for Blinks:
Event Type	Trial	Number	Start	End	Duration

Table Header for User Events:
Event Type	Trial	Number	Start	Description

UserEvent	1	1	4504790467	# Message: The_Luxembourg_Gardens_Matisse_1901.jpg
Fixation L	1	1	4504799688	4505098042	298354	936.10	514.06	25	14	-1	14.70	14.70
Fixation R	1	1	4504799688	4505098042	298354	936.10	514.06	25	14	-1	15.82	15.82
Blink L	1	1	4505098042	4505316919	218877
Blink R	1	1	4505098042	4505316919	218877
Saccade L	1	1	4505316919	4505396406	79487	1165.92	392.05	946.98	429.99	3.73	216.81	1.00	46.88	5105.10	-4722.12	1867.70
Saccade R	1	1	4505316919	4505396406	79487	1165.92	392.05	946.98	429.99	3.73	216.81	1.00	46.88	5105.10	-4722.12	1867.70
Fixation L	1	2	4505396406	4505674898	278492	951.64	422.63	31	28	-1	14.80	14.80
Fixation R	1	2	4505396406	4505674898	278492	951.64	422.63	31	28	-1	15.89	15.89
Saccade L	1	2	4505674898	4505694766	19868	940.11	422.76	876.29	492.60	0.67	95.70	1.00	33.73	2258.38	-1961.56	1567.30
Saccade R	1	2	4505674898	4505694766	19868	940.11	422.76	876.29	492.60	0.67	95.70	1.00	33.73	2258.38	-1961.56	1567.30
Fixation L	1	3	4505694766	4505834012	139246	855.05	496.91	27	25	-1	14.88	14.88
Fixation R	1	3	4505694766	4505834012	139246	855.05	496.91	27	25	-1	16.05	16.05
Saccade L	1	3	4505834012	4505873762	39750	857.14	498.09	1305.58	506.94	3.70	325.63	0.50	93.15	8107.76	-8049.35	5527.91
Saccade R	1	3	4505834012	4505873762	39750	857.14	498.09	1305.58	506.94	3.70	325.63	0.50	93.15	8107.76	-8049.35	5527.91
Fixation L	1	4	4505873762	4506410861	537099	1297.70	511.76	27	32	-1	14.99	14.99
Fixation R	1	4	4505873762	4506410861	537099	1297.70	511.76	27	32	-1	15.97	15.97
Saccade L	1	4	4506410861	4506450608	39747	1284.92	528.09	846.51	545.81	3.71	245.58	0.50	93.22	6061.68	-5747.20	5322.27
Saccade R	1	4	4506410861	4506450608	39747	1284.92	528.09	846.51	545.81	3.71	245.58	0.50	93.22	6061.68	-5747.20	5322.27
Fixation L	1	5	4506450608	4506709225	258617	848.31	563.28	21	60	-1	15.74	15.74
Fixation R	1	5	4506450608	4506709225	258617	848.31	563.28	21	60	-1	16.90	16.90
Saccade L	1	5	4506709225	4506729095	19870	840.80	606.43	734.00	690.74	0.95	137.62	1.00	47.82	3366.25	-3171.82	2435.91
Saccade R	1	5	4506709225	4506729095	19870	840.80	606.43	734.00	690.74	0.95	137.62	1.00	47.82	3366.25	-3171.82	2435.91
Fixation L	1	6	4506729095	4506947828	218733	738.06	698.56	8	30	-1	15.28	15.28
Fixation R	1	6	4506729095	4506947828	218733	738.06	698.56	8	30	-1	16.64	16.64
Saccade L	1	6	4506947828	4506967847	20019	741.27	711.44	770.50	806.94	0.61	101.02	1.00	30.27	2477.01	-2255.99	1652.47
Saccade R	1	6	4506947828	4506967847	20019	741.27	711.44	770.50	806.94	0.61	101.02	1.00	30.27	2477.01	-2255.99	1652.47
Fixation L	1	7	4506967847	4507126944	159097	775.15	796.83	19	19	-1	14.70	14.70
Fixation R	1	7	4506967847	4507126944	159097	775.15	796.83	19	19	-1	16.32	16.32
Saccade L	1	7	4507126944	4507186584	59640	785.58	791.37	1185.23	449.20	5.81	242.31	0.67	97.39	5929.72	-5341.13	4312.99
Saccade R	1	7	4507126944	4507186584	59640	785.58	791.37	1185.23	449.20	5.81	242.31	0.67	97.39	5929.72	-5341.13	4312.99
Fixation L	1	8	4507186584	4507405332	218748	1206.11	423.43	24	34	-1	14.08	14.08
Fixation R	1	8	4507186584	4507405332	218748	1206.11	423.43	24	34	-1	15.39	15.39
Saccade L	1	8	4507405332	4507425189	19857	1209.60	414.79	1367.29	353.17	1.13	171.22	1.00	56.96	4271.37	-4063.14	3213.88
Saccade R	1	8	4507405332	4507425189	19857	1209.60	414.79	1367.29	353.17	1.13	171.22	1.00	56.96	4271.37	-4063.14	3213.88
Fixation L	1	9	4507425189	4507723547	298358	1358.66	330.42	20	53	-1	13.26	13.26
Fixation R	1	9	4507425189	4507723547	298358	1358.66	330.42	20	53	-1	14.44	14.44
Saccade L	1	9	4507723547	4507743424	19877	1350.22	344.76	1248.88	335.85	0.71	102.91	1.00	35.84	2447.39	-2205.30	1797.48
Saccade R	1	9	4507723547	4507743424	19877	1350.22	344.76	1248.88	335.85	0.71	102.91	1.00	35.84	2447.39	-2205.30	1797.48
Fixation L	1	10	4507743424	4508021908	278484	1250.09	276.15	11	79	-1	13.52	13.52
Fixation R	1	10	4507743424	4508021908	278484	1250.09	276.15	11	79	-1	14.44	14.44
Saccade L	1	10	4508021908	4508061783	39875	1255.69	256.37	1231.01	491.05	2.10	128.96	1.00	52.79	3204.52	-3004.19	2778.23
Saccade R	1	10	4508021908	4508061783	39875	1255.69	256.37	1231.01	491.05	2.10	128.96	1.00	52.79	3204.52	-3004.19	2778.23
Fixation L	1	11	4508061783	4508340142	278359	1191.16	489.30	55	42	-1	13.84	13.84
Fixation R	1	11	4508061783	4508340142	278359	1191.16	489.30	55	42	-1	14.88	14.88
Saccade L	1	11	4508340142	4508360013	19871	1178.36	524.75	1173.01	539.70	0.29	22.05	0.00	14.59	-80.19	-527.27	315.63
Saccade R	1	11	4508340142	4508360013	19871	1178.36	524.75	1173.01	539.70	0.29	22.05	0.00	14.59	-80.19	-527.27	315.63
Fixation L	1	12	4508360013	4508559004	198991	1168.73	540.60	8	4	-1	14.10	14.10
Fixation R	1	12	4508360013	4508559004	198991	1168.73	540.60	8	4	-1	14.82	14.82
Saccade L	1	12	4508559004	4508578876	19872	1164.92	539.28	928.92	546.95	1.31	238.73	1.00	65.70	5952.93	-5281.93	3885.62
Saccade R	1	12	4508559004	4508578876	19872	1164.92	539.28	928.92	546.95	1.31	238.73	1.00	65.70	5952.93	-5281.93	3885.62
Fixation L	1	13	4508578876	4508777743	198867	886.88	550.01	56	18	-1	14.18	14.18
Fixation R	1	13	4508578876	4508777743	198867	886.88	550.01	56	18	-1	15.72	15.72
