[BeGaze]
Converted from:	C:\Documents and Settings\iViewX\Desktop\EXPERIMENTATIONS\Experiments\results\finaleart\S13H22431-finaleart-1.idf
Date:	27.03.2019 15:41:21
Version:	BeGaze 2.5.77
Sample Rate:	50
Subject:	S13H22431
Description:	Jimmy Petit

Table Header for Fixations:
Event Type	Trial	Number	Start	End	Duration	Location X	Location Y	Dispersion X	Dispersion Y	Plane	Avg. Pupil Size X	Avg. Pupil Size Y

Table Header for Saccades:
Event Type	Trial	Number	Start	End	Duration	Start Loc.X	Start Loc.Y	End Loc.X	End Loc.Y	Amplitude	Peak Speed	Peak Speed At	Average Speed	Peak Accel.	Peak Decel.	Average Accel.

Table Header for Blinks:
Event Type	Trial	Number	Start	End	Duration

Table Header for User Events:
Event Type	Trial	Number	Start	Description

UserEvent	1	1	27252603835	# Message: void.jpg
Fixation L	1	1	27252610766	27252789746	178980	771.95	642.33	13	30	-1	18.49	18.49
Fixation R	1	1	27252610766	27252789746	178980	771.95	642.33	13	30	-1	19.21	19.21
Saccade L	1	1	27252789746	27252829639	39893	774.01	629.58	1006.58	764.25	2.59	152.83	0.50	64.82	3718.06	-3719.81	3674.45
Saccade R	1	1	27252789746	27252829639	39893	774.01	629.58	1006.58	764.25	2.59	152.83	0.50	64.82	3718.06	-3719.81	3674.45
Fixation L	1	2	27252829639	27253207478	377839	1015.69	750.06	13	21	-1	18.74	18.74
Fixation R	1	2	27252829639	27253207478	377839	1015.69	750.06	13	21	-1	19.25	19.25
Saccade L	1	2	27253207478	27253306974	99496	1016.89	749.58	1365.43	226.85	8.30	184.23	0.60	83.42	3441.16	-3059.01	2168.80
Saccade R	1	2	27253207478	27253306974	99496	1016.89	749.58	1365.43	226.85	8.30	184.23	0.60	83.42	3441.16	-3059.01	2168.80
Fixation L	1	3	27253306974	27253605335	298361	1366.22	244.19	29	44	-1	13.93	13.93
Fixation R	1	3	27253306974	27253605335	298361	1366.22	244.19	29	44	-1	13.41	13.41
Blink L	1	1	27253605335	27253724578	119243
Blink R	1	1	27253605335	27253724578	119243
Fixation L	1	4	27253724578	27254142309	417731	883.72	297.63	26	44	-1	15.79	15.79
Fixation R	1	4	27253724578	27254142309	417731	883.72	297.63	26	44	-1	16.06	16.06
Saccade L	1	3	27254142309	27254162193	19884	877.49	321.81	879.23	353.55	0.35	32.15	1.00	17.41	790.90	-738.83	614.59
Saccade R	1	3	27254142309	27254162193	19884	877.49	321.81	879.23	353.55	0.35	32.15	1.00	17.41	790.90	-738.83	614.59
Fixation L	1	5	27254162193	27254381058	218865	877.78	366.55	10	16	-1	16.74	16.74
Fixation R	1	5	27254162193	27254381058	218865	877.78	366.55	10	16	-1	17.16	17.16
Saccade L	1	4	27254381058	27254400927	19869	871.73	367.15	726.39	389.30	0.84	148.70	1.00	42.48	3677.22	-3434.26	2469.74
Saccade R	1	4	27254381058	27254400927	19869	871.73	367.15	726.39	389.30	0.84	148.70	1.00	42.48	3677.22	-3434.26	2469.74
Fixation L	1	6	27254400927	27254560044	159117	733.55	406.16	25	44	-1	16.48	16.48
Fixation R	1	6	27254400927	27254560044	159117	733.55	406.16	25	44	-1	17.27	17.27
Saccade L	1	5	27254560044	27254599798	39754	716.79	433.81	688.19	489.90	1.07	53.25	0.50	26.87	1219.90	-299.52	506.47
Saccade R	1	5	27254560044	27254599798	39754	716.79	433.81	688.19	489.90	1.07	53.25	0.50	26.87	1219.90	-299.52	506.47
