[BeGaze]
Converted from:	C:\Documents and Settings\iViewX\Desktop\EXPERIMENTATIONS\Experiments\results\finaleart\S13H22431-finaleart-1.idf
Date:	27.03.2019 15:41:31
Version:	BeGaze 2.5.77
Sample Rate:	50
Subject:	S13H22431
Description:	Jimmy Petit

Table Header for Fixations:
Event Type	Trial	Number	Start	End	Duration	Location X	Location Y	Dispersion X	Dispersion Y	Plane	Avg. Pupil Size X	Avg. Pupil Size Y

Table Header for Saccades:
Event Type	Trial	Number	Start	End	Duration	Start Loc.X	Start Loc.Y	End Loc.X	End Loc.Y	Amplitude	Peak Speed	Peak Speed At	Average Speed	Peak Accel.	Peak Decel.	Average Accel.

Table Header for Blinks:
Event Type	Trial	Number	Start	End	Duration

Table Header for User Events:
Event Type	Trial	Number	Start	Description

UserEvent	1	1	27395651909	# Message: mother_and_child_by_the_sea_dahl_1830.jpg
Saccade L	1	1	27395660064	27395739558	79494	925.26	250.05	938.95	293.38	3.18	77.27	1.00	39.98	1873.58	-1446.09	908.41
Blink R	1	1	27395660064	27395759527	99463
Fixation L	1	1	27395739558	27396057768	318210	937.79	265.95	15	42	-1	17.67	17.67
Fixation R	1	1	27395759527	27396057768	298241	937.72	264.23	15	38	-1	18.60	18.60
Saccade L	1	2	27396057768	27396077783	20015	933.67	264.45	928.81	424.28	1.16	161.72	1.00	57.84	3841.50	-3796.60	3010.23
Saccade R	1	1	27396057768	27396077783	20015	933.67	264.45	928.81	424.28	1.16	161.72	1.00	57.84	3841.50	-3796.60	3010.23
Fixation L	1	2	27396077783	27396177131	99348	912.01	476.66	25	66	-1	17.40	17.40
Fixation R	1	2	27396077783	27396177131	99348	912.01	476.66	25	66	-1	18.71	18.71
Saccade L	1	3	27396177131	27396217026	39895	903.43	488.75	849.14	639.49	1.56	143.81	1.00	39.22	3549.56	-3347.03	1829.53
Saccade R	1	2	27396177131	27396217026	39895	903.43	488.75	849.14	639.49	1.56	143.81	1.00	39.22	3549.56	-3347.03	1829.53
Fixation L	1	3	27396217026	27396396000	178974	852.21	614.95	39	35	-1	17.44	17.44
Fixation R	1	3	27396217026	27396396000	178974	852.21	614.95	39	35	-1	18.91	18.91
Saccade L	1	4	27396396000	27396415874	19874	829.51	614.17	703.66	677.63	1.06	142.56	1.00	53.39	3501.30	-3278.90	2545.10
Saccade R	1	3	27396396000	27396415874	19874	829.51	614.17	703.66	677.63	1.06	142.56	1.00	53.39	3501.30	-3278.90	2545.10
Fixation L	1	4	27396415874	27396714241	298367	701.87	722.79	39	56	-1	16.69	16.69
Fixation R	1	4	27396415874	27396714241	298367	701.87	722.79	39	56	-1	18.33	18.33
Saccade L	1	5	27396714241	27396734110	19869	682.04	721.66	677.98	726.71	0.08	6.55	1.00	3.79	77.81	-75.11	60.71
Saccade R	1	4	27396714241	27396734110	19869	682.04	721.66	677.98	726.71	0.08	6.55	1.00	3.79	77.81	-75.11	60.71
Fixation L	1	5	27396734110	27397350717	616607	706.85	749.84	56	38	-1	15.68	15.68
Fixation R	1	5	27396734110	27397350717	616607	706.85	749.84	56	38	-1	17.07	17.07
Saccade L	1	6	27397350717	27397370581	19864	733.51	748.40	790.93	730.97	0.63	60.70	1.00	31.83	370.69	-1057.35	571.47
Saccade R	1	5	27397350717	27397370581	19864	733.51	748.40	790.93	730.97	0.63	60.70	1.00	31.83	370.69	-1057.35	571.47
Fixation L	1	6	27397370581	27397549576	178995	797.11	719.31	12	22	-1	16.02	16.02
Fixation R	1	6	27397370581	27397549576	178995	797.11	719.31	12	22	-1	17.29	17.29
Saccade L	1	7	27397549576	27397569457	19881	795.73	711.68	801.13	808.35	0.62	97.93	1.00	31.20	2411.59	-2106.98	1680.43
Saccade R	1	6	27397549576	27397569457	19881	795.73	711.68	801.13	808.35	0.62	97.93	1.00	31.20	2411.59	-2106.98	1680.43
Fixation L	1	7	27397569457	27398146309	576852	787.34	800.83	36	22	-1	16.79	16.79
Fixation R	1	7	27397569457	27398146309	576852	787.34	800.83	36	22	-1	18.09	18.09
Saccade L	1	8	27398146309	27398186050	39741	793.95	805.85	1017.51	776.37	2.46	120.34	0.50	61.85	2971.39	-2049.66	2194.87
Saccade R	1	7	27398146309	27398186050	39741	793.95	805.85	1017.51	776.37	2.46	120.34	0.50	61.85	2971.39	-2049.66	2194.87
Fixation L	1	8	27398186050	27398444666	258616	1060.04	760.74	57	33	-1	17.11	17.11
Fixation R	1	8	27398186050	27398444666	258616	1060.04	760.74	57	33	-1	18.60	18.60
Saccade L	1	9	27398444666	27398464533	19867	1074.74	761.56	1084.70	672.88	0.58	90.27	1.00	29.22	2179.81	-1958.49	1419.69
Saccade R	1	8	27398444666	27398464533	19867	1074.74	761.56	1084.70	672.88	0.58	90.27	1.00	29.22	2179.81	-1958.49	1419.69
Fixation L	1	9	27398464533	27398623654	159121	1108.98	647.27	35	42	-1	16.96	16.96
Fixation R	1	9	27398464533	27398623654	159121	1108.98	647.27	35	42	-1	18.29	18.29
Saccade L	1	10	27398623654	27398683283	59629	1117.81	640.91	1223.78	1068.98	4.68	202.50	0.67	78.49	4895.49	-4886.86	3187.34
Saccade R	1	9	27398623654	27398683283	59629	1117.81	640.91	1223.78	1068.98	4.68	202.50	0.67	78.49	4895.49	-4886.86	3187.34
Fixation L	1	10	27398683283	27398842392	159109	1219.29	1071.61	50	18	-1	17.03	17.03
Fixation R	1	10	27398683283	27398842392	159109	1219.29	1071.61	50	18	-1	18.41	18.41
Saccade L	1	11	27398842392	27398862276	19884	1180.19	1086.82	1211.69	1138.31	0.68	61.07	1.00	34.41	1442.53	-1370.24	1148.45
Saccade R	1	10	27398842392	27398862276	19884	1180.19	1086.82	1211.69	1138.31	0.68	61.07	1.00	34.41	1442.53	-1370.24	1148.45
Fixation L	1	11	27398862276	27399120900	258624	1181.71	1126.41	40	21	-1	17.20	17.20
Fixation R	1	11	27398862276	27399120900	258624	1181.71	1126.41	40	21	-1	18.30	18.30
Saccade L	1	12	27399120900	27399180637	59737	1170.94	1117.09	852.38	867.56	4.43	218.78	0.67	74.22	5382.90	-5342.00	3222.82
Saccade R	1	11	27399120900	27399180637	59737	1170.94	1117.09	852.38	867.56	4.43	218.78	0.67	74.22	5382.90	-5342.00	3222.82
Fixation L	1	12	27399180637	27399339754	159117	847.12	863.85	34	26	-1	17.35	17.35
Fixation R	1	12	27399180637	27399339754	159117	847.12	863.85	34	26	-1	18.29	18.29
Saccade L	1	13	27399339754	27399359621	19867	820.42	845.86	776.48	719.22	0.88	135.58	1.00	44.27	3276.48	-3239.84	2374.35
Saccade R	1	12	27399339754	27399359621	19867	820.42	845.86	776.48	719.22	0.88	135.58	1.00	44.27	3276.48	-3239.84	2374.35
Fixation L	1	13	27399359621	27399598237	238616	766.96	714.90	16	22	-1	16.70	16.70
Fixation R	1	13	27399359621	27399598237	238616	766.96	714.90	16	22	-1	18.00	18.00
Saccade L	1	14	27399598237	27399637993	39756	762.77	701.03	756.72	391.61	3.22	171.30	1.00	80.92	4080.88	0.00	2519.70
Saccade R	1	13	27399598237	27399637993	39756	762.77	701.03	756.72	391.61	3.22	171.30	1.00	80.92	4080.88	0.00	2519.70
