[BeGaze]
Converted from:	C:\Documents and Settings\iViewX\Desktop\EXPERIMENTATIONS\Experiments\results\finaleart\S13H22431-finaleart-1.idf
Date:	27.03.2019 15:41:22
Version:	BeGaze 2.5.77
Sample Rate:	50
Subject:	S13H22431
Description:	Jimmy Petit

Table Header for Fixations:
Event Type	Trial	Number	Start	End	Duration	Location X	Location Y	Dispersion X	Dispersion Y	Plane	Avg. Pupil Size X	Avg. Pupil Size Y

Table Header for Saccades:
Event Type	Trial	Number	Start	End	Duration	Start Loc.X	Start Loc.Y	End Loc.X	End Loc.Y	Amplitude	Peak Speed	Peak Speed At	Average Speed	Peak Accel.	Peak Decel.	Average Accel.

Table Header for Blinks:
Event Type	Trial	Number	Start	End	Duration

Table Header for User Events:
Event Type	Trial	Number	Start	Description

UserEvent	1	1	27258713313	# Message: void.jpg
Fixation L	1	1	27258717123	27258896118	178995	644.90	462.19	36	22	-1	16.78	16.78
Fixation R	1	1	27258717123	27258896118	178995	644.90	462.19	36	22	-1	17.10	17.10
Saccade L	1	1	27258896118	27258915982	19864	652.07	477.67	701.03	606.35	0.87	139.25	1.00	43.64	3295.75	-3095.43	2178.22
Saccade R	1	1	27258896118	27258915982	19864	652.07	477.67	701.03	606.35	0.87	139.25	1.00	43.64	3295.75	-3095.43	2178.22
Fixation L	1	2	27258915982	27259353586	437604	725.71	586.70	31	40	-1	16.78	16.78
Fixation R	1	2	27258915982	27259353586	437604	725.71	586.70	31	40	-1	17.56	17.56
Saccade L	1	2	27259353586	27259373453	19867	713.31	615.09	550.37	766.84	1.68	225.13	1.00	84.48	5609.40	-5427.71	3937.83
Saccade R	1	2	27259353586	27259373453	19867	713.31	615.09	550.37	766.84	1.68	225.13	1.00	84.48	5609.40	-5427.71	3937.83
Fixation L	1	3	27259373453	27259592198	218745	548.95	835.88	3	78	-1	16.19	16.19
Fixation R	1	3	27259373453	27259592198	218745	548.95	835.88	3	78	-1	17.22	17.22
Blink L	1	1	27259592198	27259811062	218864
Blink R	1	1	27259592198	27259811062	218864
Fixation L	1	4	27259811062	27260129300	318238	929.06	378.63	29	47	-1	17.03	17.03
Fixation R	1	4	27259811062	27260129300	318238	929.06	378.63	29	47	-1	17.95	17.95
Saccade L	1	3	27260129300	27260149192	19892	953.52	410.02	1015.02	427.72	0.60	64.75	1.00	30.06	1448.96	-1499.68	1209.01
Saccade R	1	3	27260129300	27260149192	19892	953.52	410.02	1015.02	427.72	0.60	64.75	1.00	30.06	1448.96	-1499.68	1209.01
Fixation L	1	5	27260149192	27260308295	159103	1026.25	447.03	34	31	-1	17.70	17.70
Fixation R	1	5	27260149192	27260308295	159103	1026.25	447.03	34	31	-1	18.30	18.30
Saccade L	1	4	27260308295	27260348044	39749	1049.97	458.18	1265.23	454.01	2.37	122.11	0.50	59.53	2792.19	-2340.14	2210.19
Saccade R	1	4	27260308295	27260348044	39749	1049.97	458.18	1265.23	454.01	2.37	122.11	0.50	59.53	2792.19	-2340.14	2210.19
Fixation L	1	6	27260348044	27260566779	218735	1304.82	452.16	53	9	-1	17.95	17.95
Fixation R	1	6	27260348044	27260566779	218735	1304.82	452.16	53	9	-1	18.52	18.52
Saccade L	1	5	27260566779	27260586779	20000	1318.91	445.81	1354.77	457.22	0.33	38.07	1.00	16.42	886.22	-271.63	401.70
Saccade R	1	5	27260566779	27260586779	20000	1318.91	445.81	1354.77	457.22	0.33	38.07	1.00	16.42	886.22	-271.63	401.70
Fixation L	1	7	27260586779	27260706031	119252	1354.93	490.04	18	50	-1	18.34	18.34
Fixation R	1	7	27260586779	27260706031	119252	1354.93	490.04	18	50	-1	18.34	18.34
