[BeGaze]
Converted from:	C:\Documents and Settings\iViewX\Desktop\EXPERIMENTATIONS\Experiments\results\finaleart\S13H22431-finaleart-1.idf
Date:	27.03.2019 15:42:24
Version:	BeGaze 2.5.77
Sample Rate:	50
Subject:	S13H22431
Description:	Jimmy Petit

Table Header for Fixations:
Event Type	Trial	Number	Start	End	Duration	Location X	Location Y	Dispersion X	Dispersion Y	Plane	Avg. Pupil Size X	Avg. Pupil Size Y

Table Header for Saccades:
Event Type	Trial	Number	Start	End	Duration	Start Loc.X	Start Loc.Y	End Loc.X	End Loc.Y	Amplitude	Peak Speed	Peak Speed At	Average Speed	Peak Accel.	Peak Decel.	Average Accel.

Table Header for Blinks:
Event Type	Trial	Number	Start	End	Duration

Table Header for User Events:
Event Type	Trial	Number	Start	Description

UserEvent	1	1	28275075106	# Message: void.jpg
Fixation L	1	1	28275081947	28275758170	676223	891.73	488.32	32	37	-1	17.59	17.59
Fixation R	1	1	28275081947	28275758170	676223	891.73	488.32	32	37	-1	17.23	17.23
Saccade L	1	1	28275758170	28275778042	19872	890.48	480.54	986.68	425.24	0.99	112.23	1.00	49.87	2329.35	-2509.41	1971.70
Saccade R	1	1	28275758170	28275778042	19872	890.48	480.54	986.68	425.24	0.99	112.23	1.00	49.87	2329.35	-2509.41	1971.70
Fixation L	1	2	28275778042	28275897397	119355	1021.42	396.76	45	41	-1	13.94	13.94
Fixation R	1	2	28275778042	28275897397	119355	1021.42	396.76	45	41	-1	13.41	13.41
Saccade L	1	2	28275897397	28275917269	19872	1032.57	383.81	1033.22	368.48	0.20	15.52	1.00	9.93	60.59	-328.64	141.70
Saccade R	1	2	28275897397	28275917269	19872	1032.57	383.81	1033.22	368.48	0.20	15.52	1.00	9.93	60.59	-328.64	141.70
Fixation L	1	3	28275917269	28276156014	238745	1029.55	373.34	43	17	-1	13.90	13.90
Fixation R	1	3	28275917269	28276156014	238745	1029.55	373.34	43	17	-1	13.60	13.60
Saccade L	1	3	28276156014	28276255384	99370	991.96	380.01	548.90	508.54	7.75	183.27	1.00	78.04	3684.92	-4376.77	3147.09
Saccade R	1	3	28276156014	28276255384	99370	991.96	380.01	548.90	508.54	7.75	183.27	1.00	78.04	3684.92	-4376.77	3147.09
Fixation L	1	4	28276255384	28276752606	497222	580.03	534.53	60	38	-1	15.15	15.15
Fixation R	1	4	28276255384	28276752606	497222	580.03	534.53	60	38	-1	14.83	14.83
Saccade L	1	4	28276752606	28276772625	20019	591.55	541.90	741.01	562.85	1.11	152.64	1.00	55.69	3685.87	-3643.75	2789.38
Saccade R	1	4	28276752606	28276772625	20019	591.55	541.90	741.01	562.85	1.11	152.64	1.00	55.69	3685.87	-3643.75	2789.38
Fixation L	1	5	28276772625	28277070973	298348	768.26	558.33	52	13	-1	14.77	14.77
Fixation R	1	5	28276772625	28277070973	298348	768.26	558.33	52	13	-1	14.73	14.73
