[BeGaze]
Converted from:	C:\Documents and Settings\iViewX\Desktop\EXPERIMENTATIONS\Experiments\results\finaleart\S13H22431-finaleart-1.idf
Date:	27.03.2019 15:42:30
Version:	BeGaze 2.5.77
Sample Rate:	50
Subject:	S13H22431
Description:	Jimmy Petit

Table Header for Fixations:
Event Type	Trial	Number	Start	End	Duration	Location X	Location Y	Dispersion X	Dispersion Y	Plane	Avg. Pupil Size X	Avg. Pupil Size Y

Table Header for Saccades:
Event Type	Trial	Number	Start	End	Duration	Start Loc.X	Start Loc.Y	End Loc.X	End Loc.Y	Amplitude	Peak Speed	Peak Speed At	Average Speed	Peak Accel.	Peak Decel.	Average Accel.

Table Header for Blinks:
Event Type	Trial	Number	Start	End	Duration

Table Header for User Events:
Event Type	Trial	Number	Start	Description

UserEvent	1	1	28367518888	# Message: the-reclining-shepherdess_morisot_1891.jpg
Fixation L	1	1	28367531181	28367929048	397867	800.00	457.92	28	18	-1	14.90	14.90
Fixation R	1	1	28367531181	28367929048	397867	800.00	457.92	28	18	-1	15.80	15.80
Saccade L	1	1	28367929048	28367968772	39724	820.13	459.97	1180.58	477.19	3.31	273.38	0.50	83.29	6686.80	-6377.81	4152.76
Saccade R	1	1	28367929048	28367968772	39724	820.13	459.97	1180.58	477.19	3.31	273.38	0.50	83.29	6686.80	-6377.81	4152.76
Fixation L	1	2	28367968772	28368088022	119250	1200.59	471.28	28	19	-1	14.22	14.22
Fixation R	1	2	28367968772	28368088022	119250	1200.59	471.28	28	19	-1	15.48	15.48
Saccade L	1	2	28368088022	28368107892	19870	1203.38	459.97	1312.50	452.64	0.71	110.63	1.00	35.63	2661.91	-2602.96	1835.91
Saccade R	1	2	28368088022	28368107892	19870	1203.38	459.97	1312.50	452.64	0.71	110.63	1.00	35.63	2661.91	-2602.96	1835.91
Fixation L	1	3	28368107892	28368366517	258625	1333.30	445.45	39	30	-1	12.26	12.26
Fixation R	1	3	28368107892	28368366517	258625	1333.30	445.45	39	30	-1	13.50	13.50
Saccade L	1	3	28368366517	28368386388	19871	1351.56	434.31	1466.35	522.39	0.88	146.35	1.00	44.04	3578.76	-3196.39	2275.80
Saccade R	1	3	28368366517	28368386388	19871	1351.56	434.31	1466.35	522.39	0.88	146.35	1.00	44.04	3578.76	-3196.39	2275.80
Fixation L	1	4	28368386388	28368784235	397847	1462.44	556.24	32	51	-1	11.93	11.93
Fixation R	1	4	28368386388	28368784235	397847	1462.44	556.24	32	51	-1	12.76	12.76
Saccade L	1	4	28368784235	28368804113	19878	1443.86	573.84	1432.31	580.42	0.15	13.45	1.00	7.36	214.00	-214.14	201.64
Saccade R	1	4	28368784235	28368804113	19878	1443.86	573.84	1432.31	580.42	0.15	13.45	1.00	7.36	214.00	-214.14	201.64
Fixation L	1	5	28368804113	28368983109	178996	1424.32	588.99	18	18	-1	12.18	12.18
Fixation R	1	5	28368804113	28368983109	178996	1424.32	588.99	18	18	-1	12.60	12.60
Saccade L	1	5	28368983109	28369022852	39743	1415.79	596.65	1133.84	379.80	3.39	223.43	1.00	85.40	5481.53	-5362.54	4890.36
Saccade R	1	5	28368983109	28369022852	39743	1415.79	596.65	1133.84	379.80	3.39	223.43	1.00	85.40	5481.53	-5362.54	4890.36
Fixation L	1	6	28369022852	28369400840	377988	1109.53	386.95	36	19	-1	12.42	12.42
Fixation R	1	6	28369022852	28369400840	377988	1109.53	386.95	36	19	-1	13.24	13.24
Saccade L	1	6	28369400840	28369420713	19873	1097.76	384.74	1023.79	381.68	0.57	74.89	1.00	28.45	1601.38	-1806.86	1294.63
Saccade R	1	6	28369400840	28369420713	19873	1097.76	384.74	1023.79	381.68	0.57	74.89	1.00	28.45	1601.38	-1806.86	1294.63
Fixation L	1	7	28369420713	28369559955	139242	996.26	375.78	40	13	-1	13.16	13.16
Fixation R	1	7	28369420713	28369559955	139242	996.26	375.78	40	13	-1	12.14	12.14
Blink L	1	1	28369559955	28369738944	178989
Blink R	1	1	28369559955	28369738944	178989
Fixation L	1	8	28369738944	28369917936	178992	971.36	331.23	9	40	-1	14.76	14.76
Fixation R	1	8	28369738944	28369917936	178992	971.36	331.23	9	40	-1	14.88	14.88
Saccade L	1	7	28369917936	28369957685	39749	974.03	337.23	1093.75	424.48	1.39	100.23	0.50	34.90	2435.51	-2282.75	1878.53
Saccade R	1	7	28369917936	28369957685	39749	974.03	337.23	1093.75	424.48	1.39	100.23	0.50	34.90	2435.51	-2282.75	1878.53
Fixation L	1	9	28369957685	28370077060	119375	1096.62	442.56	20	29	-1	14.73	14.73
Fixation R	1	9	28369957685	28370077060	119375	1096.62	442.56	20	29	-1	15.10	15.10
Saccade L	1	8	28370077060	28370096936	19876	1112.75	451.64	1396.40	457.21	1.62	286.77	1.00	81.49	6945.92	-6986.03	4697.87
Saccade R	1	8	28370077060	28370096936	19876	1112.75	451.64	1396.40	457.21	1.62	286.77	1.00	81.49	6945.92	-6986.03	4697.87
Fixation L	1	10	28370096936	28370474923	377987	1393.82	476.78	40	57	-1	14.40	14.40
Fixation R	1	10	28370096936	28370474923	377987	1393.82	476.78	40	57	-1	15.01	15.01
Saccade L	1	9	28370474923	28370614027	139104	1417.61	452.19	1111.81	431.30	5.71	184.49	1.00	41.05	4555.72	-4515.40	1656.33
Saccade R	1	9	28370474923	28370614027	139104	1417.61	452.19	1111.81	431.30	5.71	184.49	1.00	41.05	4555.72	-4515.40	1656.33
Fixation L	1	11	28370614027	28370813025	198998	1065.27	412.81	54	34	-1	14.27	14.27
Fixation R	1	11	28370614027	28370813025	198998	1065.27	412.81	54	34	-1	14.35	14.35
Saccade L	1	10	28370813025	28370832893	19868	1058.67	406.34	1049.90	544.13	0.79	139.65	1.00	39.71	3340.75	-2692.34	2048.09
Saccade R	1	10	28370813025	28370832893	19868	1058.67	406.34	1049.90	544.13	0.79	139.65	1.00	39.71	3340.75	-2692.34	2048.09
Fixation L	1	12	28370832893	28370972141	139248	1040.43	571.37	24	50	-1	14.41	14.41
Fixation R	1	12	28370832893	28370972141	139248	1040.43	571.37	24	50	-1	14.32	14.32
Saccade L	1	11	28370972141	28371011897	39756	1027.78	590.67	1040.83	840.16	2.50	130.66	1.00	62.88	2733.02	-2794.14	2659.93
Saccade R	1	11	28370972141	28371011897	39756	1027.78	590.67	1040.83	840.16	2.50	130.66	1.00	62.88	2733.02	-2794.14	2659.93
Fixation L	1	13	28371011897	28371250507	238610	1068.60	823.71	41	25	-1	14.90	14.90
Fixation R	1	13	28371011897	28371250507	238610	1068.60	823.71	41	25	-1	14.99	14.99
Saccade L	1	12	28371250507	28371290382	39875	1082.45	815.11	1273.71	479.54	3.33	247.17	0.50	83.57	6083.25	-5795.08	4705.91
Saccade R	1	12	28371250507	28371290382	39875	1082.45	815.11	1273.71	479.54	3.33	247.17	0.50	83.57	6083.25	-5795.08	4705.91
Fixation L	1	14	28371290382	28371509125	218743	1264.08	477.33	18	24	-1	14.04	14.04
Fixation R	1	14	28371290382	28371509125	218743	1264.08	477.33	18	24	-1	14.45	14.45
