[BeGaze]
Converted from:	C:\Documents and Settings\iViewX\Desktop\EXPERIMENTATIONS\Experiments\results\finaleart\S13H22431-finaleart-1.idf
Date:	27.03.2019 15:41:54
Version:	BeGaze 2.5.77
Sample Rate:	50
Subject:	S13H22431
Description:	Jimmy Petit

Table Header for Fixations:
Event Type	Trial	Number	Start	End	Duration	Location X	Location Y	Dispersion X	Dispersion Y	Plane	Avg. Pupil Size X	Avg. Pupil Size Y

Table Header for Saccades:
Event Type	Trial	Number	Start	End	Duration	Start Loc.X	Start Loc.Y	End Loc.X	End Loc.Y	Amplitude	Peak Speed	Peak Speed At	Average Speed	Peak Accel.	Peak Decel.	Average Accel.

Table Header for Blinks:
Event Type	Trial	Number	Start	End	Duration

Table Header for User Events:
Event Type	Trial	Number	Start	Description

UserEvent	1	1	27894226906	# Message: void.jpg
Saccade L	1	1	27894232759	27894312235	79476	1016.44	718.33	467.11	663.18	7.92	197.16	0.50	99.64	4928.88	-3063.93	2241.68
Saccade R	1	1	27894232759	27894312235	79476	1016.44	718.33	467.11	663.18	7.92	197.16	0.50	99.64	4928.88	-3063.93	2241.68
Fixation L	1	1	27894312235	27894670341	358106	469.79	654.88	47	32	-1	13.31	13.31
Fixation R	1	1	27894312235	27894670341	358106	469.79	654.88	47	32	-1	13.46	13.46
Saccade L	1	2	27894670341	27894769709	99368	494.91	651.89	1289.17	-9.48	13.70	261.82	0.20	137.88	6472.00	-4597.19	3298.27
Saccade R	1	2	27894670341	27894769709	99368	494.91	651.89	1289.17	-9.48	13.70	261.82	0.20	137.88	6472.00	-4597.19	3298.27
Fixation L	1	2	27894769709	27894988580	218871	1269.22	10.88	39	27	-1	12.23	12.23
Fixation R	1	2	27894769709	27894988580	218871	1269.22	10.88	39	27	-1	12.32	12.32
Saccade L	1	3	27894988580	27895068083	79503	1249.68	17.55	461.17	147.94	9.48	272.08	0.25	119.29	6600.40	-5851.62	3929.56
Saccade R	1	3	27894988580	27895068083	79503	1249.68	17.55	461.17	147.94	9.48	272.08	0.25	119.29	6600.40	-5851.62	3929.56
Fixation L	1	3	27895068083	27895505685	437602	467.17	175.32	15	44	-1	13.17	13.17
Fixation R	1	3	27895068083	27895505685	437602	467.17	175.32	15	44	-1	13.42	13.42
Saccade L	1	4	27895505685	27895625055	119370	464.77	180.04	349.78	908.05	10.51	256.34	0.67	88.07	4632.85	-3963.47	2486.40
Saccade R	1	4	27895505685	27895625055	119370	464.77	180.04	349.78	908.05	10.51	256.34	0.67	88.07	4632.85	-3963.47	2486.40
Fixation L	1	4	27895625055	27895863661	238606	320.79	900.64	49	14	-1	14.59	14.59
Fixation R	1	4	27895625055	27895863661	238606	320.79	900.64	49	14	-1	15.03	15.03
Saccade L	1	5	27895863661	27895923412	59751	300.74	902.98	560.34	600.01	5.07	197.65	0.67	84.86	4871.68	-3679.06	3159.68
Saccade R	1	5	27895863661	27895923412	59751	300.74	902.98	560.34	600.01	5.07	197.65	0.67	84.86	4871.68	-3679.06	3159.68
Fixation L	1	5	27895923412	27896221779	298367	579.73	560.33	31	51	-1	13.55	13.55
Fixation R	1	5	27895923412	27896221779	298367	579.73	560.33	31	51	-1	14.44	14.44
