[BeGaze]
Converted from:	C:\Documents and Settings\iViewX\Desktop\EXPERIMENTATIONS\Experiments\results\finaleart\S13H22431-finaleart-1.idf
Date:	27.03.2019 15:42:41
Version:	BeGaze 2.5.77
Sample Rate:	50
Subject:	S13H22431
Description:	Jimmy Petit

Table Header for Fixations:
Event Type	Trial	Number	Start	End	Duration	Location X	Location Y	Dispersion X	Dispersion Y	Plane	Avg. Pupil Size X	Avg. Pupil Size Y

Table Header for Saccades:
Event Type	Trial	Number	Start	End	Duration	Start Loc.X	Start Loc.Y	End Loc.X	End Loc.Y	Amplitude	Peak Speed	Peak Speed At	Average Speed	Peak Accel.	Peak Decel.	Average Accel.

Table Header for Blinks:
Event Type	Trial	Number	Start	End	Duration

Table Header for User Events:
Event Type	Trial	Number	Start	Description

UserEvent	1	1	28483571338	# Message: goya-Bodegón-con-salmón-1812.jpg
Fixation L	1	1	28483589874	28483729132	139258	693.63	688.81	10	43	-1	17.27	17.27
Fixation R	1	1	28483589874	28483729132	139258	693.63	688.81	10	43	-1	17.84	17.84
Saccade L	1	1	28483729132	28483808622	79490	700.72	703.69	694.31	1014.60	4.47	197.37	0.25	56.25	4738.96	-4358.10	2599.67
Saccade R	1	1	28483729132	28483808622	79490	700.72	703.69	694.31	1014.60	4.47	197.37	0.25	56.25	4738.96	-4358.10	2599.67
Fixation L	1	2	28483808622	28483987623	179001	698.88	1020.92	10	8	-1	16.92	16.92
Fixation R	1	2	28483808622	28483987623	179001	698.88	1020.92	10	8	-1	17.39	17.39
Saccade L	1	2	28483987623	28484027482	39859	700.59	1021.99	909.33	732.50	3.05	267.27	0.50	76.49	6563.28	-6301.42	4334.21
Saccade R	1	2	28483987623	28484027482	39859	700.59	1021.99	909.33	732.50	3.05	267.27	0.50	76.49	6563.28	-6301.42	4334.21
Fixation L	1	3	28484027482	28484186597	159115	896.51	730.64	21	14	-1	16.02	16.02
Fixation R	1	3	28484027482	28484186597	159115	896.51	730.64	21	14	-1	16.56	16.56
Saccade L	1	3	28484186597	28484226345	39748	897.19	731.07	1140.13	664.16	2.30	199.60	0.50	57.75	4810.57	-4583.59	2944.98
Saccade R	1	3	28484186597	28484226345	39748	897.19	731.07	1140.13	664.16	2.30	199.60	0.50	57.75	4810.57	-4583.59	2944.98
Fixation L	1	4	28484226345	28484465095	238750	1144.65	658.96	40	40	-1	16.04	16.04
Fixation R	1	4	28484226345	28484465095	238750	1144.65	658.96	40	40	-1	15.96	15.96
Saccade L	1	4	28484465095	28484484959	19864	1177.87	685.03	1185.53	711.83	0.43	45.92	0.00	21.52	557.96	-995.94	556.10
Saccade R	1	4	28484465095	28484484959	19864	1177.87	685.03	1185.53	711.83	0.43	45.92	0.00	21.52	557.96	-995.94	556.10
Fixation L	1	5	28484484959	28484624240	139281	1196.73	714.04	26	30	-1	16.03	16.03
Fixation R	1	5	28484484959	28484624240	139281	1196.73	714.04	26	30	-1	15.70	15.70
Saccade L	1	5	28484624240	28484644083	19843	1207.42	715.07	1290.60	711.96	0.63	84.19	1.00	31.77	1985.44	-1982.01	1571.16
Saccade R	1	5	28484624240	28484644083	19843	1207.42	715.07	1290.60	711.96	0.63	84.19	1.00	31.77	1985.44	-1982.01	1571.16
Fixation L	1	6	28484644083	28484842948	198865	1320.92	697.40	36	32	-1	16.05	16.05
Fixation R	1	6	28484644083	28484842948	198865	1320.92	697.40	36	32	-1	15.44	15.44
Saccade L	1	6	28484842948	28484862825	19877	1325.42	687.19	1112.76	699.23	1.14	215.38	1.00	57.48	5321.04	-5348.81	3569.63
Saccade R	1	6	28484842948	28484862825	19877	1325.42	687.19	1112.76	699.23	1.14	215.38	1.00	57.48	5321.04	-5348.81	3569.63
Fixation L	1	7	28484862825	28485021933	159108	1111.45	695.02	5	7	-1	16.63	16.63
Fixation R	1	7	28484862825	28485021933	159108	1111.45	695.02	5	7	-1	16.20	16.20
Saccade L	1	7	28485021933	28485041818	19885	1113.61	695.97	891.17	701.88	1.37	225.00	1.00	68.82	5596.61	-5503.82	4080.17
Saccade R	1	7	28485021933	28485041818	19885	1113.61	695.97	891.17	701.88	1.37	225.00	1.00	68.82	5596.61	-5503.82	4080.17
Fixation L	1	8	28485041818	28485280558	238740	837.46	708.83	68	18	-1	16.59	16.59
Fixation R	1	8	28485041818	28485280558	238740	837.46	708.83	68	18	-1	16.86	16.86
Saccade L	1	8	28485280558	28485300425	19867	822.31	720.19	817.23	728.09	0.15	10.30	1.00	7.33	128.68	-33.87	97.05
Saccade R	1	8	28485280558	28485300425	19867	822.31	720.19	817.23	728.09	0.15	10.30	1.00	7.33	128.68	-33.87	97.05
Fixation L	1	9	28485300425	28485578919	278494	810.95	746.51	15	27	-1	16.67	16.67
Fixation R	1	9	28485300425	28485578919	278494	810.95	746.51	15	27	-1	17.06	17.06
Saccade L	1	9	28485578919	28485598787	19868	806.10	755.54	804.45	814.00	0.31	59.15	1.00	15.85	1414.61	-1244.13	893.65
Saccade R	1	9	28485578919	28485598787	19868	806.10	755.54	804.45	814.00	0.31	59.15	1.00	15.85	1414.61	-1244.13	893.65
Fixation L	1	10	28485598787	28485738050	139263	805.56	831.84	6	57	-1	16.61	16.61
Fixation R	1	10	28485598787	28485738050	139263	805.56	831.84	6	57	-1	17.08	17.08
Saccade L	1	10	28485738050	28485757907	19857	801.14	871.20	804.41	971.50	0.95	101.51	1.00	47.91	2407.71	-2460.57	1655.96
Saccade R	1	10	28485738050	28485757907	19857	801.14	871.20	804.41	971.50	0.95	101.51	1.00	47.91	2407.71	-2460.57	1655.96
Fixation L	1	11	28485757907	28486135769	377862	790.46	925.82	20	57	-1	16.71	16.71
Fixation R	1	11	28485757907	28486135769	377862	790.46	925.82	20	57	-1	17.52	17.52
Saccade L	1	11	28486135769	28486155638	19869	783.53	915.06	782.11	884.23	0.33	32.28	1.00	16.62	766.73	-721.95	744.85
Saccade R	1	11	28486135769	28486155638	19869	783.53	915.06	782.11	884.23	0.33	32.28	1.00	16.62	766.73	-721.95	744.85
Fixation L	1	12	28486155638	28486334759	179121	782.93	850.34	2	43	-1	16.67	16.67
Fixation R	1	12	28486155638	28486334759	179121	782.93	850.34	2	43	-1	17.44	17.44
Saccade L	1	12	28486334759	28486354632	19873	783.59	843.01	791.97	727.72	0.68	116.92	1.00	34.16	2876.94	-2677.82	1974.51
Saccade R	1	12	28486334759	28486354632	19873	783.59	843.01	791.97	727.72	0.68	116.92	1.00	34.16	2876.94	-2677.82	1974.51
Fixation L	1	13	28486354632	28486573367	218735	811.26	740.18	29	36	-1	16.79	16.79
Fixation R	1	13	28486354632	28486573367	218735	811.26	740.18	29	36	-1	17.40	17.40
Saccade L	1	13	28486573367	28486613121	39754	820.35	744.86	1000.48	630.54	1.89	134.25	0.50	47.47	3295.92	-3111.68	2654.52
Saccade R	1	13	28486573367	28486613121	39754	820.35	744.86	1000.48	630.54	1.89	134.25	0.50	47.47	3295.92	-3111.68	2654.52
Fixation L	1	14	28486613121	28486971222	358101	994.95	615.01	9	23	-1	16.54	16.54
Fixation R	1	14	28486613121	28486971222	358101	994.95	615.01	9	23	-1	17.18	17.18
Saccade L	1	14	28486971222	28487010973	39751	1000.27	609.10	1144.74	659.20	1.43	99.19	0.50	35.88	2192.56	-2267.54	1739.25
Saccade R	1	14	28486971222	28487010973	39751	1000.27	609.10	1144.74	659.20	1.43	99.19	0.50	35.88	2192.56	-2267.54	1739.25
Fixation L	1	15	28487010973	28487329211	318238	1147.20	680.37	18	30	-1	16.52	16.52
Fixation R	1	15	28487010973	28487329211	318238	1147.20	680.37	18	30	-1	16.69	16.69
Saccade L	1	15	28487329211	28487349087	19876	1139.05	677.70	1082.86	683.17	0.52	57.11	1.00	26.38	1180.46	-1279.36	1059.96
Saccade R	1	15	28487329211	28487349087	19876	1139.05	677.70	1082.86	683.17	0.52	57.11	1.00	26.38	1180.46	-1279.36	1059.96
Fixation L	1	16	28487349087	28487567843	218756	1045.62	680.83	46	13	-1	16.84	16.84
Fixation R	1	16	28487349087	28487567843	218756	1045.62	680.83	46	13	-1	17.06	17.06
