[BeGaze]
Converted from:	C:\Documents and Settings\iViewX\Desktop\EXPERIMENTATIONS\Experiments\results\finaleart\S13H22431-finaleart-1.idf
Date:	27.03.2019 15:42:33
Version:	BeGaze 2.5.77
Sample Rate:	50
Subject:	S13H22431
Description:	Jimmy Petit

Table Header for Fixations:
Event Type	Trial	Number	Start	End	Duration	Location X	Location Y	Dispersion X	Dispersion Y	Plane	Avg. Pupil Size X	Avg. Pupil Size Y

Table Header for Saccades:
Event Type	Trial	Number	Start	End	Duration	Start Loc.X	Start Loc.Y	End Loc.X	End Loc.Y	Amplitude	Peak Speed	Peak Speed At	Average Speed	Peak Accel.	Peak Decel.	Average Accel.

Table Header for Blinks:
Event Type	Trial	Number	Start	End	Duration

Table Header for User Events:
Event Type	Trial	Number	Start	Description

UserEvent	1	1	28398070446	# Message: Un_Jardin_Maison_Baptiste_Butler_1895.jpg
Fixation L	1	1	28398082365	28398539821	457456	777.50	565.83	35	44	-1	15.62	15.62
Fixation R	1	1	28398082365	28398539821	457456	777.50	565.83	35	44	-1	16.79	16.79
Saccade L	1	1	28398539821	28398559689	19868	798.99	580.24	874.46	588.78	0.57	76.83	1.00	28.62	1855.89	-1449.08	1231.04
Saccade R	1	1	28398539821	28398559689	19868	798.99	580.24	874.46	588.78	0.57	76.83	1.00	28.62	1855.89	-1449.08	1231.04
Fixation L	1	2	28398559689	28398698938	139249	912.26	600.64	51	34	-1	14.90	14.90
Fixation R	1	2	28398559689	28398698938	139249	912.26	600.64	51	34	-1	16.03	16.03
Saccade L	1	2	28398698938	28398738690	39752	926.26	611.03	1155.15	711.73	2.28	134.05	1.00	57.48	3118.98	-2813.74	2900.87
Saccade R	1	2	28398698938	28398738690	39752	926.26	611.03	1155.15	711.73	2.28	134.05	1.00	57.48	3118.98	-2813.74	2900.87
Fixation L	1	3	28398738690	28398957425	218735	1173.85	727.57	42	46	-1	13.17	13.17
Fixation R	1	3	28398738690	28398957425	218735	1173.85	727.57	42	46	-1	13.86	13.86
Saccade L	1	3	28398957425	28398977427	20002	1197.99	751.42	1195.88	762.71	0.34	23.58	1.00	16.91	225.94	-156.31	157.78
Saccade R	1	3	28398957425	28398977427	20002	1197.99	751.42	1195.88	762.71	0.34	23.58	1.00	16.91	225.94	-156.31	157.78
Fixation L	1	4	28398977427	28399156415	178988	1212.82	764.75	23	15	-1	12.70	12.70
Fixation R	1	4	28398977427	28399156415	178988	1212.82	764.75	23	15	-1	13.40	13.40
Saccade L	1	4	28399156415	28399196164	39749	1217.22	765.08	1180.34	437.43	2.95	231.96	0.50	74.09	5729.89	-5098.82	3795.35
Saccade R	1	4	28399156415	28399196164	39749	1217.22	765.08	1180.34	437.43	2.95	231.96	0.50	74.09	5729.89	-5098.82	3795.35
Fixation L	1	5	28399196164	28399355284	159120	1164.82	436.36	41	44	-1	12.35	12.35
Fixation R	1	5	28399196164	28399355284	159120	1164.82	436.36	41	44	-1	13.23	13.23
Saccade L	1	5	28399355284	28399395031	39747	1153.91	456.56	1056.52	241.32	2.17	168.42	1.00	54.52	3911.06	-3899.19	2701.07
Saccade R	1	5	28399355284	28399395031	39747	1153.91	456.56	1056.52	241.32	2.17	168.42	1.00	54.52	3911.06	-3899.19	2701.07
Fixation L	1	6	28399395031	28399912256	517225	1047.84	243.04	52	45	-1	12.34	12.34
Fixation R	1	6	28399395031	28399912256	517225	1047.84	243.04	52	45	-1	12.94	12.94
Saccade L	1	6	28399912256	28399952004	39748	1042.38	257.91	1381.79	268.99	3.01	248.82	0.50	75.82	6161.25	-5872.23	3982.82
Saccade R	1	6	28399912256	28399952004	39748	1042.38	257.91	1381.79	268.99	3.01	248.82	0.50	75.82	6161.25	-5872.23	3982.82
Fixation L	1	7	28399952004	28400131002	178998	1364.78	302.58	26	53	-1	12.79	12.79
Fixation R	1	7	28399952004	28400131002	178998	1364.78	302.58	26	53	-1	13.37	13.37
Saccade L	1	7	28400131002	28400150873	19871	1355.36	319.69	1462.91	313.21	0.62	108.98	1.00	31.19	2618.55	-2652.41	1819.87
Saccade R	1	7	28400131002	28400150873	19871	1355.36	319.69	1462.91	313.21	0.62	108.98	1.00	31.19	2618.55	-2652.41	1819.87
Fixation L	1	8	28400150873	28400290120	139247	1463.91	319.90	12	18	-1	12.88	12.88
Fixation R	1	8	28400150873	28400290120	139247	1463.91	319.90	12	18	-1	13.45	13.45
Saccade L	1	8	28400290120	28400329865	39745	1462.37	331.58	1305.10	635.29	3.06	267.05	0.50	77.08	6500.17	-6250.62	4062.67
Saccade R	1	8	28400290120	28400329865	39745	1462.37	331.58	1305.10	635.29	3.06	267.05	0.50	77.08	6500.17	-6250.62	4062.67
Fixation L	1	9	28400329865	28400667982	338117	1272.97	618.35	45	28	-1	13.85	13.85
Fixation R	1	9	28400329865	28400667982	338117	1272.97	618.35	45	28	-1	14.12	14.12
Saccade L	1	9	28400667982	28400687978	19996	1259.48	611.73	1161.90	610.10	0.65	98.73	1.00	32.67	2408.39	-2362.84	1756.54
Saccade R	1	9	28400667982	28400687978	19996	1259.48	611.73	1161.90	610.10	0.65	98.73	1.00	32.67	2408.39	-2362.84	1756.54
Fixation L	1	10	28400687978	28400926589	238611	1130.26	628.92	43	35	-1	13.57	13.57
Fixation R	1	10	28400687978	28400926589	238611	1130.26	628.92	43	35	-1	13.98	13.98
Saccade L	1	10	28400926589	28400946471	19882	1118.08	645.24	1014.26	638.36	0.60	105.25	1.00	30.23	2596.04	-2612.44	1748.74
Saccade R	1	10	28400926589	28400946471	19882	1118.08	645.24	1014.26	638.36	0.60	105.25	1.00	30.23	2596.04	-2612.44	1748.74
Fixation L	1	11	28400946471	28401185208	238737	1016.70	635.14	7	14	-1	13.41	13.41
Fixation R	1	11	28400946471	28401185208	238737	1016.70	635.14	7	14	-1	13.59	13.59
Saccade L	1	11	28401185208	28401244833	59625	1013.85	637.15	549.74	455.29	5.67	210.57	0.67	95.04	5243.36	-4556.64	3578.76
Saccade R	1	11	28401185208	28401244833	59625	1013.85	637.15	549.74	455.29	5.67	210.57	0.67	95.04	5243.36	-4556.64	3578.76
Fixation L	1	12	28401244833	28401503444	258611	551.87	469.58	18	28	-1	13.30	13.30
Fixation R	1	12	28401244833	28401503444	258611	551.87	469.58	18	28	-1	13.87	13.87
Saccade L	1	12	28401503444	28401523313	19869	547.90	464.72	537.05	628.73	0.96	166.23	1.00	48.31	3988.68	-3428.89	2626.27
Saccade R	1	12	28401503444	28401523313	19869	547.90	464.72	537.05	628.73	0.96	166.23	1.00	48.31	3988.68	-3428.89	2626.27
Fixation L	1	13	28401523313	28401901171	377858	529.50	667.12	19	79	-1	13.08	13.08
Fixation R	1	13	28401523313	28401901171	377858	529.50	667.12	19	79	-1	14.00	14.00
Saccade L	1	13	28401901171	28401921065	19894	536.22	707.98	536.80	715.81	0.34	42.09	0.00	17.09	181.58	-862.02	371.19
Saccade R	1	13	28401901171	28401921065	19894	536.22	707.98	536.80	715.81	0.34	42.09	0.00	17.09	181.58	-862.02	371.19
Fixation L	1	14	28401921065	28402020548	99483	551.12	728.91	39	21	-1	13.20	13.20
Fixation R	1	14	28401921065	28402020548	99483	551.12	728.91	39	21	-1	14.47	14.47
Saccade L	1	14	28402020548	28402060291	39743	576.45	736.89	883.51	827.73	3.54	201.53	0.50	89.19	4922.88	0.00	2502.41
Saccade R	1	14	28402020548	28402060291	39743	576.45	736.89	883.51	827.73	3.54	201.53	0.50	89.19	4922.88	0.00	2502.41
