[BeGaze]
Converted from:	C:\Documents and Settings\iViewX\Desktop\EXPERIMENTATIONS\Experiments\results\finaleart\S13H22431-finaleart-1.idf
Date:	27.03.2019 15:41:19
Version:	BeGaze 2.5.77
Sample Rate:	50
Subject:	S13H22431
Description:	Jimmy Petit

Table Header for Fixations:
Event Type	Trial	Number	Start	End	Duration	Location X	Location Y	Dispersion X	Dispersion Y	Plane	Avg. Pupil Size X	Avg. Pupil Size Y

Table Header for Saccades:
Event Type	Trial	Number	Start	End	Duration	Start Loc.X	Start Loc.Y	End Loc.X	End Loc.Y	Amplitude	Peak Speed	Peak Speed At	Average Speed	Peak Accel.	Peak Decel.	Average Accel.

Table Header for Blinks:
Event Type	Trial	Number	Start	End	Duration

Table Header for User Events:
Event Type	Trial	Number	Start	Description

UserEvent	1	1	27230223284	# Message: naked-woman-lying-on-a-couch_caillebotte_1873.jpg
Fixation L	1	1	27230234365	27230373652	139287	893.03	511.59	9	18	-1	18.53	18.53
Fixation R	1	1	27230234365	27230373652	139287	893.03	511.59	9	18	-1	18.89	18.89
Blink L	1	1	27230373652	27230532712	159060
Blink R	1	1	27230373652	27230532712	159060
Saccade L	1	1	27230532712	27230671963	139251	559.89	517.77	1032.12	468.42	10.89	284.90	0.86	78.23	6630.30	-6934.51	2907.50
Saccade R	1	1	27230532712	27230671963	139251	559.89	517.77	1032.12	468.42	10.89	284.90	0.86	78.23	6630.30	-6934.51	2907.50
Fixation L	1	2	27230671963	27230791324	119361	1025.46	461.00	12	14	-1	19.30	19.30
Fixation R	1	2	27230671963	27230791324	119361	1025.46	461.00	12	14	-1	19.72	19.72
Saccade L	1	2	27230791324	27230831074	39750	1029.84	457.18	1407.04	408.22	3.33	256.93	0.50	83.86	6236.08	-5908.85	4519.67
Saccade R	1	2	27230791324	27230831074	39750	1029.84	457.18	1407.04	408.22	3.33	256.93	0.50	83.86	6236.08	-5908.85	4519.67
Fixation L	1	3	27230831074	27231149318	318244	1382.67	405.24	36	40	-1	16.97	16.97
Fixation R	1	3	27230831074	27231149318	318244	1382.67	405.24	36	40	-1	17.56	17.56
Saccade L	1	3	27231149318	27231169186	19868	1392.44	388.28	1259.64	386.38	0.81	134.33	1.00	40.74	3286.80	-3231.53	2289.54
Saccade R	1	3	27231149318	27231169186	19868	1392.44	388.28	1259.64	386.38	0.81	134.33	1.00	40.74	3286.80	-3231.53	2289.54
Fixation L	1	4	27231169186	27231527295	358109	1247.79	356.51	35	55	-1	15.54	15.54
Fixation R	1	4	27231169186	27231527295	358109	1247.79	356.51	35	55	-1	15.87	15.87
Saccade L	1	4	27231527295	27231567054	39759	1268.17	331.11	1440.60	327.25	1.50	106.27	1.00	37.63	2549.25	-2643.94	2092.61
Saccade R	1	4	27231527295	27231567054	39759	1268.17	331.11	1440.60	327.25	1.50	106.27	1.00	37.63	2549.25	-2643.94	2092.61
Fixation L	1	5	27231567054	27231825657	258603	1442.49	331.05	23	67	-1	15.54	15.54
Fixation R	1	5	27231567054	27231805661	238607	1443.87	326.71	15	23	-1	15.61	15.61
Blink R	1	2	27231805661	27231944905	139244
Saccade L	1	5	27231825657	27231964901	139244	1424.54	387.58	1445.47	270.38	22.37	590.20	0.43	160.69	13814.23	-11754.62	3814.94
Saccade R	1	5	27231944905	27231964901	19996	1485.29	198.64	1445.47	270.38	1.17	120.02	1.00	58.48	50.61	-1845.68	940.61
Fixation L	1	6	27231964901	27232303013	338112	1460.01	264.59	27	63	-1	17.50	17.50
Fixation R	1	6	27231964901	27232303013	338112	1460.01	264.59	27	63	-1	19.05	19.05
Saccade L	1	6	27232303013	27232322891	19878	1443.79	308.34	1443.37	323.67	0.28	18.94	0.00	14.25	213.13	-84.77	151.08
Saccade R	1	6	27232303013	27232322891	19878	1443.79	308.34	1443.37	323.67	0.28	18.94	0.00	14.25	213.13	-84.77	151.08
Fixation L	1	7	27232322891	27232661001	338110	1422.35	367.02	42	57	-1	18.36	18.36
Fixation R	1	7	27232322891	27232661001	338110	1422.35	367.02	42	57	-1	20.14	20.14
Saccade L	1	7	27232661001	27232720616	59615	1403.87	380.93	1285.07	398.57	1.94	117.89	1.00	32.47	2888.24	-2862.65	1437.66
Saccade R	1	7	27232661001	27232720616	59615	1403.87	380.93	1285.07	398.57	1.94	117.89	1.00	32.47	2888.24	-2862.65	1437.66
Fixation L	1	8	27232720616	27233138354	417738	1241.34	389.26	59	36	-1	18.64	18.64
Fixation R	1	8	27232720616	27233138354	417738	1241.34	389.26	59	36	-1	20.73	20.73
Saccade L	1	8	27233138354	27233158223	19869	1261.18	373.17	1409.68	363.80	0.87	150.49	1.00	43.89	3676.79	-3641.65	2550.32
Saccade R	1	8	27233138354	27233158223	19869	1261.18	373.17	1409.68	363.80	0.87	150.49	1.00	43.89	3676.79	-3641.65	2550.32
Fixation L	1	9	27233158223	27233536209	377986	1426.23	364.49	23	53	-1	18.10	18.10
Fixation R	1	9	27233158223	27233536209	377986	1426.23	364.49	23	53	-1	19.59	19.59
Saccade L	1	9	27233536209	27233556081	19872	1413.54	410.52	1399.90	440.47	0.47	43.50	0.00	23.40	651.62	-847.64	631.89
Saccade R	1	9	27233536209	27233556081	19872	1413.54	410.52	1399.90	440.47	0.47	43.50	0.00	23.40	651.62	-847.64	631.89
Fixation L	1	10	27233556081	27234212431	656350	1397.63	409.81	14	59	-1	18.45	18.45
Fixation R	1	10	27233556081	27234212431	656350	1397.63	409.81	14	59	-1	20.15	20.15
