[BeGaze]
Converted from:	C:\Documents and Settings\iViewX\Desktop\EXPERIMENTATIONS\Experiments\results\finaleart\S13H22431-finaleart-1.idf
Date:	27.03.2019 15:42:04
Version:	BeGaze 2.5.77
Sample Rate:	50
Subject:	S13H22431
Description:	Jimmy Petit

Table Header for Fixations:
Event Type	Trial	Number	Start	End	Duration	Location X	Location Y	Dispersion X	Dispersion Y	Plane	Avg. Pupil Size X	Avg. Pupil Size Y

Table Header for Saccades:
Event Type	Trial	Number	Start	End	Duration	Start Loc.X	Start Loc.Y	End Loc.X	End Loc.Y	Amplitude	Peak Speed	Peak Speed At	Average Speed	Peak Accel.	Peak Decel.	Average Accel.

Table Header for Blinks:
Event Type	Trial	Number	Start	End	Duration

Table Header for User Events:
Event Type	Trial	Number	Start	Description

UserEvent	1	1	28024133743	# Message: void.jpg
Fixation L	1	1	28024134969	28024294138	159169	1519.87	1095.34	10	66	-1	14.34	14.34
Fixation R	1	1	28024134969	28024294138	159169	1519.87	1095.34	10	66	-1	13.10	13.10
Saccade L	1	1	28024294138	28024373592	79454	1519.74	1042.02	1400.42	225.22	10.40	281.46	0.50	130.87	6124.89	-4136.09	4046.85
Saccade R	1	1	28024294138	28024373592	79454	1519.74	1042.02	1400.42	225.22	10.40	281.46	0.50	130.87	6124.89	-4136.09	4046.85
Fixation L	1	2	28024373592	28024572596	199004	1389.08	254.26	23	47	-1	14.16	14.16
Fixation R	1	2	28024373592	28024572596	199004	1389.08	254.26	23	47	-1	13.12	13.12
Blink L	1	1	28024572596	28024850923	278327
Blink R	1	1	28024572596	28024850923	278327
Fixation L	1	3	28024850923	28025049934	199011	234.90	179.32	47	45	-1	14.87	14.87
Fixation R	1	3	28024850923	28025049934	199011	234.90	179.32	47	45	-1	14.36	14.36
Blink L	1	2	28025049934	28025209040	159106
Blink R	1	2	28025049934	28025209040	159106
Fixation L	1	4	28025209040	28025388039	178999	759.58	303.43	14	81	-1	15.86	15.86
Fixation R	1	4	28025209040	28025388039	178999	759.58	303.43	14	81	-1	15.84	15.84
Saccade L	1	2	28025388039	28025427781	39742	759.54	323.85	1010.06	463.77	3.05	196.64	1.00	76.83	4865.91	-3924.81	2978.10
Saccade R	1	2	28025388039	28025427781	39742	759.54	323.85	1010.06	463.77	3.05	196.64	1.00	76.83	4865.91	-3924.81	2978.10
Fixation L	1	5	28025427781	28025646525	218744	991.95	411.41	24	73	-1	15.44	15.44
Fixation R	1	5	28025427781	28025646525	218744	991.95	411.41	24	73	-1	16.05	16.05
Saccade L	1	3	28025646525	28025746019	99494	994.22	390.17	993.80	481.96	1.76	96.06	1.00	17.67	2326.56	-2109.71	732.01
Saccade R	1	3	28025646525	28025746019	99494	994.22	390.17	993.80	481.96	1.76	96.06	1.00	17.67	2326.56	-2109.71	732.01
Fixation L	1	6	28025746019	28025944886	198867	977.32	498.48	28	21	-1	15.47	15.47
Fixation R	1	6	28025746019	28025944886	198867	977.32	498.48	28	21	-1	15.62	15.62
Saccade L	1	4	28025944886	28025964756	19870	965.73	503.90	863.40	512.18	0.76	103.85	1.00	38.24	2580.83	-2499.90	2060.37
Saccade R	1	4	28025944886	28025964756	19870	965.73	503.90	863.40	512.18	0.76	103.85	1.00	38.24	2580.83	-2499.90	2060.37
Fixation L	1	7	28025964756	28026084129	119373	832.48	550.48	43	55	-1	15.83	15.83
Fixation R	1	7	28025964756	28026084129	119373	832.48	550.48	43	55	-1	15.77	15.77
Saccade L	1	5	28026084129	28026123999	39870	819.74	562.12	816.11	566.25	0.13	4.58	1.00	3.24	0.00	-2.26	1.42
Saccade R	1	5	28026084129	28026123999	39870	819.74	562.12	816.11	566.25	0.13	4.58	1.00	3.24	0.00	-2.26	1.42
