[BeGaze]
Converted from:	C:\Documents and Settings\iViewX\Desktop\EXPERIMENTATIONS\Experiments\results\finaleart\S13H22431-finaleart-1.idf
Date:	27.03.2019 15:41:24
Version:	BeGaze 2.5.77
Sample Rate:	50
Subject:	S13H22431
Description:	Jimmy Petit

Table Header for Fixations:
Event Type	Trial	Number	Start	End	Duration	Location X	Location Y	Dispersion X	Dispersion Y	Plane	Avg. Pupil Size X	Avg. Pupil Size Y

Table Header for Saccades:
Event Type	Trial	Number	Start	End	Duration	Start Loc.X	Start Loc.Y	End Loc.X	End Loc.Y	Amplitude	Peak Speed	Peak Speed At	Average Speed	Peak Accel.	Peak Decel.	Average Accel.

Table Header for Blinks:
Event Type	Trial	Number	Start	End	Duration

Table Header for User Events:
Event Type	Trial	Number	Start	Description

UserEvent	1	1	27277045817	# Message: void.jpg
Saccade L	1	1	27277055699	27277095565	39866	876.11	452.22	776.83	758.04	3.99	196.03	1.00	100.11	4900.78	-4552.32	2734.00
Saccade R	1	1	27277055699	27277095565	39866	876.11	452.22	776.83	758.04	3.99	196.03	1.00	100.11	4900.78	-4552.32	2734.00
Fixation L	1	1	27277095565	27277354048	258483	768.54	800.03	18	71	-1	14.21	14.21
Fixation R	1	1	27277095565	27277354048	258483	768.54	800.03	18	71	-1	15.19	15.19
Saccade L	1	2	27277354048	27277373928	19880	762.64	796.28	747.70	805.36	0.28	20.81	1.00	14.32	249.40	-21.82	171.45
Saccade R	1	2	27277354048	27277373928	19880	762.64	796.28	747.70	805.36	0.28	20.81	1.00	14.32	249.40	-21.82	171.45
Fixation L	1	2	27277373928	27277533049	159121	712.90	833.40	53	45	-1	13.99	13.99
Fixation R	1	2	27277373928	27277533049	159121	712.90	833.40	53	45	-1	15.14	15.14
Saccade L	1	3	27277533049	27277712037	178988	694.25	844.64	1343.71	97.00	15.80	188.35	0.56	88.25	4331.53	-2918.52	1559.64
Saccade R	1	3	27277533049	27277712037	178988	694.25	844.64	1343.71	97.00	15.80	188.35	0.56	88.25	4331.53	-2918.52	1559.64
Fixation L	1	3	27277712037	27277911031	198994	1331.98	102.62	35	37	-1	13.81	13.81
Fixation R	1	3	27277712037	27277911031	198994	1331.98	102.62	35	37	-1	14.66	14.66
Saccade L	1	4	27277911031	27277950806	39775	1323.39	116.16	1060.97	301.02	2.99	266.07	1.00	75.26	6456.48	-5897.96	3664.72
Saccade R	1	4	27277911031	27277950806	39775	1323.39	116.16	1060.97	301.02	2.99	266.07	1.00	75.26	6456.48	-5897.96	3664.72
Fixation L	1	4	27277950806	27278189518	238712	1009.13	327.62	63	36	-1	15.15	15.15
Fixation R	1	4	27277950806	27278189518	238712	1009.13	327.62	63	36	-1	16.13	16.13
Saccade L	1	5	27278189518	27278229266	39748	998.73	333.38	822.22	492.85	2.07	158.64	0.50	52.17	3902.57	-3880.73	2925.89
Saccade R	1	5	27278189518	27278229266	39748	998.73	333.38	822.22	492.85	2.07	158.64	0.50	52.17	3902.57	-3880.73	2925.89
Fixation L	1	5	27278229266	27278666873	437607	820.07	499.75	14	19	-1	16.21	16.21
Fixation R	1	5	27278229266	27278666873	437607	820.07	499.75	14	19	-1	17.12	17.12
Saccade L	1	6	27278666873	27278686743	19870	822.03	510.81	712.17	561.05	0.74	122.19	1.00	37.21	2918.30	-2761.99	2001.35
Saccade R	1	6	27278666873	27278686743	19870	822.03	510.81	712.17	561.05	0.74	122.19	1.00	37.21	2918.30	-2761.99	2001.35
Fixation L	1	6	27278686743	27279044730	357987	688.41	585.05	31	36	-1	15.73	15.73
Fixation R	1	6	27278686743	27279044730	357987	688.41	585.05	31	36	-1	17.46	17.46
