[BeGaze]
Converted from:	C:\Documents and Settings\iViewX\Desktop\EXPERIMENTATIONS\Experiments\results\finaleart\S13H22431-finaleart-1.idf
Date:	27.03.2019 15:41:17
Version:	BeGaze 2.5.77
Sample Rate:	50
Subject:	S13H22431
Description:	Jimmy Petit

Table Header for Fixations:
Event Type	Trial	Number	Start	End	Duration	Location X	Location Y	Dispersion X	Dispersion Y	Plane	Avg. Pupil Size X	Avg. Pupil Size Y

Table Header for Saccades:
Event Type	Trial	Number	Start	End	Duration	Start Loc.X	Start Loc.Y	End Loc.X	End Loc.Y	Amplitude	Peak Speed	Peak Speed At	Average Speed	Peak Accel.	Peak Decel.	Average Accel.

Table Header for Blinks:
Event Type	Trial	Number	Start	End	Duration

Table Header for User Events:
Event Type	Trial	Number	Start	Description

UserEvent	1	1	27203747986	# Message: void.jpg
Fixation L	1	1	27203760639	27204118745	358106	649.84	454.67	10	58	-1	14.56	14.56
Fixation R	1	1	27203760639	27204118745	358106	649.84	454.67	10	58	-1	14.60	14.60
Saccade L	1	1	27204118745	27204158491	39746	651.93	418.32	922.83	418.66	2.68	192.71	1.00	67.43	4744.53	-4464.22	2954.60
Saccade R	1	1	27204118745	27204158491	39746	651.93	418.32	922.83	418.66	2.68	192.71	1.00	67.43	4744.53	-4464.22	2954.60
Fixation L	1	2	27204158491	27204695467	536976	956.87	415.17	50	31	-1	15.06	15.06
Fixation R	1	2	27204158491	27204695467	536976	956.87	415.17	50	31	-1	15.12	15.12
Saccade L	1	2	27204695467	27204735332	39865	937.04	396.00	629.31	402.10	3.04	206.36	0.50	76.37	5094.52	-3927.35	3369.67
Saccade R	1	2	27204695467	27204735332	39865	937.04	396.00	629.31	402.10	3.04	206.36	0.50	76.37	5094.52	-3927.35	3369.67
Fixation L	1	3	27204735332	27205113190	377858	580.47	429.36	59	35	-1	15.39	15.39
Fixation R	1	3	27204735332	27205113190	377858	580.47	429.36	59	35	-1	15.93	15.93
Saccade L	1	3	27205113190	27205172813	59623	627.22	430.62	743.94	425.94	6.26	422.83	1.00	105.03	30729.12	-2929.67	9662.63
Saccade R	1	3	27205113190	27205172813	59623	627.22	430.62	743.94	425.94	6.26	422.83	1.00	105.03	30729.12	-2929.67	9662.63
Blink L	1	1	27205172813	27205292189	119376
Blink R	1	1	27205172813	27205292189	119376
Fixation L	1	4	27205292189	27205610420	318231	783.54	404.04	24	17	-1	16.51	16.51
Fixation R	1	4	27205292189	27205610420	318231	783.54	404.04	24	17	-1	16.37	16.37
Saccade L	1	4	27205610420	27205630303	19883	773.85	412.28	674.34	414.47	0.58	100.68	1.00	29.32	2436.62	-2481.64	1712.24
Saccade R	1	4	27205610420	27205630303	19883	773.85	412.28	674.34	414.47	0.58	100.68	1.00	29.32	2436.62	-2481.64	1712.24
Fixation L	1	5	27205630303	27205729799	99496	662.54	415.57	16	8	-1	16.39	16.39
Fixation R	1	5	27205630303	27205729799	99496	662.54	415.57	16	8	-1	16.77	16.77
