[BeGaze]
Converted from:	C:\Documents and Settings\iViewX\Desktop\EXPERIMENTATIONS\Experiments\results\finaleart\S13H22431-finaleart-1.idf
Date:	27.03.2019 15:42:18
Version:	BeGaze 2.5.77
Sample Rate:	50
Subject:	S13H22431
Description:	Jimmy Petit

Table Header for Fixations:
Event Type	Trial	Number	Start	End	Duration	Location X	Location Y	Dispersion X	Dispersion Y	Plane	Avg. Pupil Size X	Avg. Pupil Size Y

Table Header for Saccades:
Event Type	Trial	Number	Start	End	Duration	Start Loc.X	Start Loc.Y	End Loc.X	End Loc.Y	Amplitude	Peak Speed	Peak Speed At	Average Speed	Peak Accel.	Peak Decel.	Average Accel.

Table Header for Blinks:
Event Type	Trial	Number	Start	End	Duration

Table Header for User Events:
Event Type	Trial	Number	Start	Description

UserEvent	1	1	28209908754	# Message: La_Ferme_des_Collettes_Renoir_1908.jpg
Saccade L	1	1	28209921900	28210021395	99495	624.34	622.53	758.68	638.29	2.29	130.05	1.00	22.98	3146.11	-2972.09	955.11
Saccade R	1	1	28209921900	28210021395	99495	624.34	622.53	758.68	638.29	2.29	130.05	1.00	22.98	3146.11	-2972.09	955.11
Fixation L	1	1	28210021395	28210459015	437620	770.13	665.70	15	37	-1	14.93	14.93
Fixation R	1	1	28210021395	28210459015	437620	770.13	665.70	15	37	-1	15.37	15.37
Saccade L	1	2	28210459015	28210498740	39725	768.38	674.42	763.72	426.62	2.09	132.74	0.50	52.57	3293.10	-3072.54	2917.19
Saccade R	1	2	28210459015	28210498740	39725	768.38	674.42	763.72	426.62	2.09	132.74	0.50	52.57	3293.10	-3072.54	2917.19
Fixation L	1	2	28210498740	28210797099	298359	748.71	385.04	24	62	-1	13.96	13.96
Fixation R	1	2	28210498740	28210797099	298359	748.71	385.04	24	62	-1	14.10	14.10
Saccade L	1	3	28210797099	28210816981	19882	749.56	384.73	883.74	537.93	1.34	205.93	1.00	67.60	4974.28	-4914.80	3569.52
Saccade R	1	3	28210797099	28210816981	19882	749.56	384.73	883.74	537.93	1.34	205.93	1.00	67.60	4974.28	-4914.80	3569.52
Fixation L	1	3	28210816981	28210995967	178986	895.08	591.95	17	80	-1	14.03	14.03
Fixation R	1	3	28210816981	28210995967	178986	895.08	591.95	17	80	-1	13.94	13.94
Saccade L	1	4	28210995967	28211015844	19877	900.77	618.19	909.91	743.95	0.77	127.54	1.00	38.62	2797.61	-2855.52	1913.41
Saccade R	1	4	28210995967	28211015844	19877	900.77	618.19	909.91	743.95	0.77	127.54	1.00	38.62	2797.61	-2855.52	1913.41
Fixation L	1	4	28211015844	28211453454	437610	924.89	764.19	19	46	-1	14.56	14.56
Fixation R	1	4	28211015844	28211453454	437610	924.89	764.19	19	46	-1	14.78	14.78
Saccade L	1	5	28211453454	28211493196	39742	925.87	767.41	1153.35	518.15	3.36	187.85	0.50	84.51	4474.01	-3814.38	3880.74
Saccade R	1	5	28211453454	28211493196	39742	925.87	767.41	1153.35	518.15	3.36	187.85	0.50	84.51	4474.01	-3814.38	3880.74
Fixation L	1	5	28211493196	28211672201	179005	1168.82	499.28	20	50	-1	14.13	14.13
Fixation R	1	5	28211493196	28211672201	179005	1168.82	499.28	20	50	-1	14.06	14.06
Saccade L	1	6	28211672201	28211712065	39864	1171.01	511.08	1275.68	361.02	1.95	126.40	1.00	48.95	3157.30	-3114.95	1960.12
Saccade R	1	6	28211672201	28211712065	39864	1171.01	511.08	1275.68	361.02	1.95	126.40	1.00	48.95	3157.30	-3114.95	1960.12
Fixation L	1	6	28211712065	28211950681	238616	1280.01	328.20	32	49	-1	14.31	14.31
Fixation R	1	6	28211712065	28211950681	238616	1280.01	328.20	32	49	-1	13.96	13.96
Saccade L	1	7	28211950681	28212010427	59746	1274.00	328.00	953.85	261.39	3.47	203.79	0.67	58.14	4923.56	-5015.00	2838.78
Saccade R	1	7	28211950681	28212010427	59746	1274.00	328.00	953.85	261.39	3.47	203.79	0.67	58.14	4923.56	-5015.00	2838.78
Fixation L	1	7	28212010427	28212249037	238610	946.52	241.71	14	38	-1	14.08	14.08
Fixation R	1	7	28212010427	28212249037	238610	946.52	241.71	14	38	-1	13.94	13.94
Saccade L	1	8	28212249037	28212268936	19899	945.01	222.54	850.73	225.41	0.87	95.42	1.00	43.53	2241.25	-2040.40	2032.57
Saccade R	1	8	28212249037	28212268936	19899	945.01	222.54	850.73	225.41	0.87	95.42	1.00	43.53	2241.25	-2040.40	2032.57
Fixation L	1	8	28212268936	28212447909	178973	801.50	227.95	71	28	-1	14.34	14.34
Fixation R	1	8	28212268936	28212447909	178973	801.50	227.95	71	28	-1	14.49	14.49
Saccade L	1	9	28212447909	28212487786	39877	794.27	236.01	789.21	252.56	1.27	126.17	1.00	31.95	2738.87	-151.51	1100.65
Saccade R	1	9	28212447909	28212487786	39877	794.27	236.01	789.21	252.56	1.27	126.17	1.00	31.95	2738.87	-151.51	1100.65
Blink L	1	1	28212487786	28212666766	178980
Blink R	1	1	28212487786	28212666766	178980
Fixation L	1	9	28212666766	28212845765	178999	781.75	424.90	22	12	-1	16.34	16.34
Fixation R	1	9	28212666766	28212845765	178999	781.75	424.90	22	12	-1	16.33	16.33
Saccade L	1	10	28212845765	28212885512	39747	783.23	418.29	883.70	709.86	2.71	165.03	1.00	68.20	3964.84	-4038.37	3696.18
Saccade R	1	10	28212845765	28212885512	39747	783.23	418.29	883.70	709.86	2.71	165.03	1.00	68.20	3964.84	-4038.37	3696.18
Fixation L	1	10	28212885512	28213502110	616598	896.56	716.30	33	48	-1	16.24	16.24
Fixation R	1	10	28212885512	28213502110	616598	896.56	716.30	33	48	-1	16.57	16.57
Saccade L	1	11	28213502110	28213521993	19883	890.70	744.15	862.96	895.15	0.96	155.28	1.00	48.53	3867.98	-3620.73	2619.29
Saccade R	1	11	28213502110	28213521993	19883	890.70	744.15	862.96	895.15	0.96	155.28	1.00	48.53	3867.98	-3620.73	2619.29
Fixation L	1	11	28213521993	28213860099	338106	850.04	896.10	54	12	-1	16.11	16.11
Fixation R	1	11	28213521993	28213860099	338106	850.04	896.10	54	12	-1	16.71	16.71
Saccade L	1	12	28213860099	28213899972	39873	809.57	894.52	628.76	679.37	3.33	202.69	0.50	83.39	5024.70	0.00	1957.45
Saccade R	1	12	28213860099	28213899972	39873	809.57	894.52	628.76	679.37	3.33	202.69	0.50	83.39	5024.70	0.00	1957.45
