[BeGaze]
Converted from:	C:\Documents and Settings\iViewX\Desktop\EXPERIMENTATIONS\Experiments\results\finaleart\S13H22431-finaleart-1.idf
Date:	27.03.2019 15:41:57
Version:	BeGaze 2.5.77
Sample Rate:	50
Subject:	S13H22431
Description:	Jimmy Petit

Table Header for Fixations:
Event Type	Trial	Number	Start	End	Duration	Location X	Location Y	Dispersion X	Dispersion Y	Plane	Avg. Pupil Size X	Avg. Pupil Size Y

Table Header for Saccades:
Event Type	Trial	Number	Start	End	Duration	Start Loc.X	Start Loc.Y	End Loc.X	End Loc.Y	Amplitude	Peak Speed	Peak Speed At	Average Speed	Peak Accel.	Peak Decel.	Average Accel.

Table Header for Blinks:
Event Type	Trial	Number	Start	End	Duration

Table Header for User Events:
Event Type	Trial	Number	Start	Description

UserEvent	1	1	27920704140	# Message: Young_Girls_Playing_With_A_Lion_Club_Valtat_1905.jpg
Fixation L	1	1	27920706475	27921084323	377848	901.43	505.53	19	18	-1	15.52	15.52
Fixation R	1	1	27920706475	27921084323	377848	901.43	505.53	19	18	-1	16.10	16.10
Saccade L	1	1	27921084323	27921104192	19869	899.44	499.58	1006.79	458.35	0.67	116.31	1.00	33.83	2835.29	-2633.64	1902.12
Saccade R	1	1	27921084323	27921104192	19869	899.44	499.58	1006.79	458.35	0.67	116.31	1.00	33.83	2835.29	-2633.64	1902.12
Fixation L	1	2	27921104192	27921323055	218863	1003.12	465.26	9	21	-1	13.87	13.87
Fixation R	1	2	27921104192	27921323055	218863	1003.12	465.26	9	21	-1	14.61	14.61
Saccade L	1	2	27921323055	27921342946	19891	1001.31	459.53	1004.43	619.94	0.95	162.26	1.00	47.77	4009.50	-3982.45	2877.08
Saccade R	1	2	27921323055	27921342946	19891	1001.31	459.53	1004.43	619.94	0.95	162.26	1.00	47.77	4009.50	-3982.45	2877.08
Fixation L	1	3	27921342946	27922019151	676205	1016.77	576.24	25	72	-1	12.91	12.91
Fixation R	1	3	27921342946	27922019151	676205	1016.77	576.24	25	72	-1	13.19	13.19
Saccade L	1	3	27922019151	27922039029	19878	1009.20	624.95	1005.10	805.92	1.40	183.06	1.00	70.41	4427.22	-4435.95	3406.50
Saccade R	1	3	27922019151	27922039029	19878	1009.20	624.95	1005.10	805.92	1.40	183.06	1.00	70.41	4427.22	-4435.95	3406.50
Fixation L	1	4	27922039029	27922218141	179112	1003.48	808.32	8	88	-1	13.37	13.37
Fixation R	1	4	27922039029	27922218141	179112	1003.48	808.32	8	88	-1	13.62	13.62
Saccade L	1	4	27922218141	27922238016	19875	1003.03	785.96	1027.86	771.68	0.36	28.97	1.00	18.32	628.38	-360.24	451.31
Saccade R	1	4	27922218141	27922238016	19875	1003.03	785.96	1027.86	771.68	0.36	28.97	1.00	18.32	628.38	-360.24	451.31
Fixation L	1	5	27922238016	27922357266	119250	1048.48	746.50	32	53	-1	13.70	13.70
Fixation R	1	5	27922238016	27922357266	119250	1048.48	746.50	32	53	-1	13.94	13.94
Saccade L	1	5	27922357266	27922377266	20000	1044.85	774.73	930.83	914.80	1.58	182.64	1.00	78.84	4153.17	-4361.79	2865.80
Saccade R	1	5	27922357266	27922377266	20000	1044.85	774.73	930.83	914.80	1.58	182.64	1.00	78.84	4153.17	-4361.79	2865.80
Fixation L	1	6	27922377266	27922695503	318237	930.29	982.15	9	89	-1	14.32	14.32
Fixation R	1	6	27922377266	27922695503	318237	930.29	982.15	9	89	-1	14.68	14.68
Saccade L	1	6	27922695503	27922715380	19877	933.66	1004.20	935.54	1011.72	0.17	9.74	0.00	8.31	-6.04	-82.75	47.80
Saccade R	1	6	27922695503	27922715380	19877	933.66	1004.20	935.54	1011.72	0.17	9.74	0.00	8.31	-6.04	-82.75	47.80
Fixation L	1	7	27922715380	27923590459	875079	960.99	1040.07	32	45	-1	14.09	14.09
Fixation R	1	7	27922715380	27923590459	875079	960.99	1040.07	32	45	-1	14.51	14.51
Saccade L	1	7	27923590459	27923630334	39875	967.66	1028.59	682.01	1022.26	2.36	154.10	1.00	59.16	3815.38	-3785.19	3553.30
Saccade R	1	7	27923590459	27923630334	39875	967.66	1028.59	682.01	1022.26	2.36	154.10	1.00	59.16	3815.38	-3785.19	3553.30
Fixation L	1	8	27923630334	27923729701	99367	677.27	1027.48	12	10	-1	13.29	13.29
Fixation R	1	8	27923630334	27923729701	99367	677.27	1027.48	12	10	-1	13.81	13.81
Saccade L	1	8	27923729701	27923749580	19879	669.05	1032.72	549.40	1053.87	0.71	122.90	1.00	35.62	2955.30	-2923.20	1985.63
Saccade R	1	8	27923729701	27923749580	19879	669.05	1032.72	549.40	1053.87	0.71	122.90	1.00	35.62	2955.30	-2923.20	1985.63
Fixation L	1	9	27923749580	27924067813	318233	533.23	1078.34	34	50	-1	13.05	13.05
Fixation R	1	9	27923749580	27924067813	318233	533.23	1078.34	34	50	-1	13.73	13.73
Saccade L	1	9	27924067813	27924127561	59748	521.80	1104.39	393.84	449.03	7.22	266.11	0.67	120.90	6527.25	-5849.38	4573.46
Saccade R	1	9	27924067813	27924127561	59748	521.80	1104.39	393.84	449.03	7.22	266.11	0.67	120.90	6527.25	-5849.38	4573.46
Fixation L	1	10	27924127561	27924425930	298369	402.40	424.17	22	72	-1	12.89	12.89
Fixation R	1	10	27924127561	27924425930	298369	402.40	424.17	22	72	-1	13.69	13.69
Saccade L	1	10	27924425930	27924445797	19867	397.12	377.00	405.05	297.99	0.86	80.32	1.00	43.23	1726.44	-1773.88	1520.66
Saccade R	1	10	27924425930	27924445797	19867	397.12	377.00	405.05	297.99	0.86	80.32	1.00	43.23	1726.44	-1773.88	1520.66
Fixation L	1	11	27924445797	27924585046	139249	409.53	277.45	9	28	-1	12.47	12.47
Fixation R	1	11	27924445797	27924585046	139249	409.53	277.45	9	28	-1	13.13	13.13
Saccade L	1	11	27924585046	27924704413	119367	415.04	275.96	951.35	265.03	8.37	243.46	0.33	70.13	5949.37	-5916.23	3225.83
Saccade R	1	11	27924585046	27924704413	119367	415.04	275.96	951.35	265.03	8.37	243.46	0.33	70.13	5949.37	-5916.23	3225.83
