[BeGaze]
Converted from:	C:\Documents and Settings\iViewX\Desktop\EXPERIMENTATIONS\Experiments\results\finaleart\S13H22431-finaleart-1.idf
Date:	27.03.2019 15:42:02
Version:	BeGaze 2.5.77
Sample Rate:	50
Subject:	S13H22431
Description:	Jimmy Petit

Table Header for Fixations:
Event Type	Trial	Number	Start	End	Duration	Location X	Location Y	Dispersion X	Dispersion Y	Plane	Avg. Pupil Size X	Avg. Pupil Size Y

Table Header for Saccades:
Event Type	Trial	Number	Start	End	Duration	Start Loc.X	Start Loc.Y	End Loc.X	End Loc.Y	Amplitude	Peak Speed	Peak Speed At	Average Speed	Peak Accel.	Peak Decel.	Average Accel.

Table Header for Blinks:
Event Type	Trial	Number	Start	End	Duration

Table Header for User Events:
Event Type	Trial	Number	Start	Description

UserEvent	1	1	28005766018	# Message: void.jpg
Fixation L	1	1	28005776415	28006373127	596712	686.74	178.81	30	66	-1	14.60	14.60
Fixation R	1	1	28005776415	28006373127	596712	686.74	178.81	30	66	-1	15.34	15.34
Blink R	1	1	28006373127	28006552104	178977
Fixation L	1	2	28006532225	28006750966	218741	1644.86	139.55	26	59	-1	17.18	17.18
Fixation R	1	2	28006552104	28006750966	198862	1644.20	141.87	26	59	-1	16.52	16.52
Saccade L	1	1	28006750966	28006850465	99499	1628.52	169.28	1077.22	368.25	8.83	271.98	0.60	88.78	6458.89	-4113.64	3207.61
Saccade R	1	1	28006750966	28006850465	99499	1628.52	169.28	1077.22	368.25	8.83	271.98	0.60	88.78	6458.89	-4113.64	3207.61
Fixation L	1	3	28006850465	28007208464	357999	1077.78	325.59	14	50	-1	17.68	17.68
Fixation R	1	3	28006850465	28007208464	357999	1077.78	325.59	14	50	-1	17.18	17.18
Saccade L	1	2	28007208464	28007307945	99481	1072.23	325.35	1322.23	414.50	4.83	99.40	0.40	48.58	2283.84	-1927.89	1562.98
Saccade R	1	2	28007208464	28007307945	99481	1072.23	325.35	1322.23	414.50	4.83	99.40	0.40	48.58	2283.84	-1927.89	1562.98
Fixation L	1	4	28007307945	28007586440	278495	1367.52	426.24	54	29	-1	17.70	17.70
Fixation R	1	4	28007307945	28007586440	278495	1367.52	426.24	54	29	-1	17.37	17.37
Saccade L	1	3	28007586440	28007646076	59636	1367.62	444.25	872.83	466.55	5.78	185.69	1.00	96.92	4409.97	-3083.83	2986.71
Saccade R	1	3	28007586440	28007646076	59636	1367.62	444.25	872.83	466.55	5.78	185.69	1.00	96.92	4409.97	-3083.83	2986.71
Fixation L	1	5	28007646076	28007765426	119350	867.50	477.72	12	64	-1	17.37	17.37
Fixation R	1	5	28007646076	28007765426	119350	867.50	477.72	12	64	-1	17.46	17.46
