[BeGaze]
Converted from:	C:\Documents and Settings\iViewX\Desktop\EXPERIMENTATIONS\Experiments\results\finaleart\S13H22431-finaleart-1.idf
Date:	27.03.2019 15:41:25
Version:	BeGaze 2.5.77
Sample Rate:	50
Subject:	S13H22431
Description:	Jimmy Petit

Table Header for Fixations:
Event Type	Trial	Number	Start	End	Duration	Location X	Location Y	Dispersion X	Dispersion Y	Plane	Avg. Pupil Size X	Avg. Pupil Size Y

Table Header for Saccades:
Event Type	Trial	Number	Start	End	Duration	Start Loc.X	Start Loc.Y	End Loc.X	End Loc.Y	Amplitude	Peak Speed	Peak Speed At	Average Speed	Peak Accel.	Peak Decel.	Average Accel.

Table Header for Blinks:
Event Type	Trial	Number	Start	End	Duration

Table Header for User Events:
Event Type	Trial	Number	Start	Description

UserEvent	1	1	27289259004	# Message: void.jpg
Fixation L	1	1	27289268313	27289387662	119349	795.20	360.29	8	18	-1	13.29	13.29
Fixation R	1	1	27289268313	27289387662	119349	795.20	360.29	8	18	-1	14.87	14.87
Saccade L	1	1	27289387662	27289427422	39760	801.25	364.69	1053.28	504.00	2.61	197.67	0.50	65.53	4738.49	-4500.79	3405.47
Saccade R	1	1	27289387662	27289427422	39760	801.25	364.69	1053.28	504.00	2.61	197.67	0.50	65.53	4738.49	-4500.79	3405.47
Fixation L	1	2	27289427422	27289865031	437609	1043.10	545.97	15	66	-1	14.30	14.30
Fixation R	1	2	27289427422	27289865031	437609	1043.10	545.97	15	66	-1	15.64	15.64
Saccade L	1	2	27289865031	27289884890	19859	1040.03	547.37	1041.33	481.70	0.60	66.45	1.00	30.12	1623.95	-1584.03	1162.47
Saccade R	1	2	27289865031	27289884890	19859	1040.03	547.37	1041.33	481.70	0.60	66.45	1.00	30.12	1623.95	-1584.03	1162.47
Fixation L	1	3	27289884890	27290183246	298356	1065.58	478.75	38	37	-1	14.56	14.56
Fixation R	1	3	27289884890	27290183246	298356	1065.58	478.75	38	37	-1	15.70	15.70
Saccade L	1	3	27290183246	27290203125	19879	1079.58	483.21	1109.32	472.52	0.31	31.97	1.00	15.63	719.71	-571.29	499.62
Saccade R	1	3	27290183246	27290203125	19879	1079.58	483.21	1109.32	472.52	0.31	31.97	1.00	15.63	719.71	-571.29	499.62
Fixation L	1	4	27290203125	27290501478	298353	1121.58	453.14	17	27	-1	15.12	15.12
Fixation R	1	4	27290203125	27290501478	298353	1121.58	453.14	17	27	-1	16.06	16.06
Saccade L	1	4	27290501478	27290521357	19879	1115.55	456.08	1003.92	458.23	0.88	112.94	1.00	44.50	2736.65	-2688.08	2257.35
Saccade R	1	4	27290501478	27290521357	19879	1115.55	456.08	1003.92	458.23	0.88	112.94	1.00	44.50	2736.65	-2688.08	2257.35
Fixation L	1	5	27290521357	27290839596	318239	948.99	477.94	61	32	-1	15.56	15.56
Fixation R	1	5	27290521357	27290839596	318239	948.99	477.94	61	32	-1	16.51	16.51
Blink L	1	1	27290839596	27290978834	139238
Blink R	1	1	27290839596	27290978834	139238
Fixation L	1	6	27290978834	27291257329	278495	832.97	448.55	15	42	-1	17.51	17.51
Fixation R	1	6	27290978834	27291257329	278495	832.97	448.55	15	42	-1	17.65	17.65
