[BeGaze]
Converted from:	C:\Documents and Settings\iViewX\Desktop\EXPERIMENTATIONS\Experiments\results\finaleart\S13H22431-finaleart-1.idf
Date:	27.03.2019 15:41:37
Version:	BeGaze 2.5.77
Sample Rate:	50
Subject:	S13H22431
Description:	Jimmy Petit

Table Header for Fixations:
Event Type	Trial	Number	Start	End	Duration	Location X	Location Y	Dispersion X	Dispersion Y	Plane	Avg. Pupil Size X	Avg. Pupil Size Y

Table Header for Saccades:
Event Type	Trial	Number	Start	End	Duration	Start Loc.X	Start Loc.Y	End Loc.X	End Loc.Y	Amplitude	Peak Speed	Peak Speed At	Average Speed	Peak Accel.	Peak Decel.	Average Accel.

Table Header for Blinks:
Event Type	Trial	Number	Start	End	Duration

Table Header for User Events:
Event Type	Trial	Number	Start	Description

UserEvent	1	1	27462916331	# Message: Le_port_d-Anvers_Braque_1906.jpg
Fixation L	1	1	27462928366	27463047736	119370	572.51	475.21	13	17	-1	14.52	14.52
Fixation R	1	1	27462928366	27463047736	119370	572.51	475.21	13	17	-1	15.80	15.80
Saccade L	1	1	27463047736	27463087505	39769	565.93	485.55	436.75	740.16	2.86	181.44	0.50	71.96	4397.30	-3293.46	2990.80
Saccade R	1	1	27463047736	27463087505	39769	565.93	485.55	436.75	740.16	2.86	181.44	0.50	71.96	4397.30	-3293.46	2990.80
Fixation L	1	2	27463087505	27463186976	99471	434.60	710.54	6	48	-1	14.84	14.84
Fixation R	1	2	27463087505	27463186976	99471	434.60	710.54	6	48	-1	15.83	15.83
Saccade L	1	2	27463186976	27463226738	39762	431.98	708.36	298.06	840.83	2.07	122.50	1.00	52.04	2952.50	-2807.46	1895.78
Saccade R	1	2	27463186976	27463226738	39762	431.98	708.36	298.06	840.83	2.07	122.50	1.00	52.04	2952.50	-2807.46	1895.78
Fixation L	1	3	27463226738	27463326214	99476	297.23	879.36	20	51	-1	14.87	14.87
Fixation R	1	3	27463226738	27463326214	99476	297.23	879.36	20	51	-1	16.15	16.15
Saccade L	1	3	27463326214	27463365984	39770	312.16	881.85	734.85	562.59	4.64	352.07	0.50	116.59	8739.53	-8174.18	6333.04
Saccade R	1	3	27463326214	27463365984	39770	312.16	881.85	734.85	562.59	4.64	352.07	0.50	116.59	8739.53	-8174.18	6333.04
Fixation L	1	4	27463365984	27463604579	238595	763.96	536.62	38	35	-1	14.05	14.05
Fixation R	1	4	27463365984	27463604579	238595	763.96	536.62	38	35	-1	14.93	14.93
Saccade L	1	4	27463604579	27463644460	39881	773.75	527.51	898.51	504.27	1.27	79.68	1.00	31.78	1963.37	-1823.32	1383.78
Saccade R	1	4	27463604579	27463644460	39881	773.75	527.51	898.51	504.27	1.27	79.68	1.00	31.78	1963.37	-1823.32	1383.78
Fixation L	1	5	27463644460	27463823446	178986	894.94	456.93	9	83	-1	12.33	12.33
Fixation R	1	5	27463644460	27463823446	178986	894.94	456.93	9	83	-1	13.05	13.05
Saccade L	1	5	27463823446	27463863196	39750	892.09	475.68	879.26	840.66	3.44	241.53	0.50	86.42	5852.77	-5871.70	4193.61
Saccade R	1	5	27463823446	27463863196	39750	892.09	475.68	879.26	840.66	3.44	241.53	0.50	86.42	5852.77	-5871.70	4193.61
Fixation L	1	6	27463863196	27464360418	497222	846.21	856.05	69	29	-1	12.75	12.75
Fixation R	1	6	27463863196	27464360418	497222	846.21	856.05	69	29	-1	13.58	13.58
Saccade L	1	6	27464360418	27464420164	59746	813.24	868.74	982.37	397.12	5.89	200.79	0.67	98.55	4889.19	-3164.93	3252.06
Saccade R	1	6	27464360418	27464420164	59746	813.24	868.74	982.37	397.12	5.89	200.79	0.67	98.55	4889.19	-3164.93	3252.06
Fixation L	1	7	27464420164	27464579283	159119	998.10	359.11	24	71	-1	12.65	12.65
Fixation R	1	7	27464420164	27464579283	159119	998.10	359.11	24	71	-1	13.42	13.42
Saccade L	1	7	27464579283	27464678660	99377	1006.66	366.17	1291.85	227.85	4.97	189.16	0.80	50.00	4682.21	-3900.57	1726.11
Saccade R	1	7	27464579283	27464678660	99377	1006.66	366.17	1291.85	227.85	4.97	189.16	0.80	50.00	4682.21	-3900.57	1726.11
Fixation L	1	8	27464678660	27464857651	178991	1301.12	270.07	31	67	-1	13.38	13.38
Fixation R	1	8	27464678660	27464857651	178991	1301.12	270.07	31	67	-1	13.80	13.80
Saccade L	1	8	27464857651	27464937272	79621	1295.41	294.67	1106.00	278.79	2.64	194.11	1.00	33.12	4756.52	-4543.59	1616.62
Saccade R	1	8	27464857651	27464937272	79621	1295.41	294.67	1106.00	278.79	2.64	194.11	1.00	33.12	4756.52	-4543.59	1616.62
Fixation L	1	9	27464937272	27465116266	178994	1096.74	268.66	18	36	-1	13.93	13.93
Fixation R	1	9	27464937272	27465116266	178994	1096.74	268.66	18	36	-1	14.14	14.14
Saccade L	1	9	27465116266	27465136144	19878	1089.69	259.97	1003.91	271.05	0.57	87.50	1.00	28.49	2095.68	-1519.85	1278.30
Saccade R	1	9	27465116266	27465136144	19878	1089.69	259.97	1003.91	271.05	0.57	87.50	1.00	28.49	2095.68	-1519.85	1278.30
Fixation L	1	10	27465136144	27465335004	198860	1002.40	293.64	20	34	-1	14.02	14.02
Fixation R	1	10	27465136144	27465335004	198860	1002.40	293.64	20	34	-1	14.20	14.20
Saccade L	1	10	27465335004	27465355023	20019	1001.92	302.04	966.26	318.33	0.49	48.12	1.00	24.36	1103.69	-629.09	860.62
Saccade R	1	10	27465335004	27465355023	20019	1001.92	302.04	966.26	318.33	0.49	48.12	1.00	24.36	1103.69	-629.09	860.62
Fixation L	1	11	27465355023	27465494124	139101	925.12	352.63	55	44	-1	13.62	13.62
Fixation R	1	11	27465355023	27465494124	139101	925.12	352.63	55	44	-1	14.22	14.22
Saccade L	1	11	27465494124	27465514120	19996	910.75	359.94	909.62	359.55	0.06	4.18	0.00	2.86	54.43	-32.53	34.15
Saccade R	1	11	27465494124	27465514120	19996	910.75	359.94	909.62	359.55	0.06	4.18	0.00	2.86	54.43	-32.53	34.15
Fixation L	1	12	27465514120	27465752740	238620	905.93	402.57	13	79	-1	13.75	13.75
Fixation R	1	12	27465514120	27465752740	238620	905.93	402.57	13	79	-1	14.15	14.15
Saccade L	1	12	27465752740	27465772611	19871	898.80	435.83	895.78	442.92	0.11	8.96	1.00	5.72	150.85	-29.04	85.00
Saccade R	1	12	27465752740	27465772611	19871	898.80	435.83	895.78	442.92	0.11	8.96	1.00	5.72	150.85	-29.04	85.00
Fixation L	1	13	27465772611	27466051106	278495	864.11	436.00	54	28	-1	13.57	13.57
Fixation R	1	13	27465772611	27466051106	278495	864.11	436.00	54	28	-1	14.17	14.17
Saccade L	1	13	27466051106	27466110733	59627	841.53	420.26	628.00	535.54	2.88	113.52	0.67	48.25	2504.74	-2670.60	1779.36
Saccade R	1	13	27466051106	27466110733	59627	841.53	420.26	628.00	535.54	2.88	113.52	0.67	48.25	2504.74	-2670.60	1779.36
Fixation L	1	14	27466110733	27466428959	318226	638.70	562.51	14	39	-1	13.76	13.76
Fixation R	1	14	27466110733	27466428959	318226	638.70	562.51	14	39	-1	14.70	14.70
Saccade L	1	14	27466428959	27466488722	59763	638.88	575.31	886.61	538.43	2.86	103.60	0.33	47.94	2532.58	-1595.97	1741.24
Saccade R	1	14	27466428959	27466488722	59763	638.88	575.31	886.61	538.43	2.86	103.60	0.33	47.94	2532.58	-1595.97	1741.24
Fixation L	1	15	27466488722	27466667700	178978	869.95	504.08	27	59	-1	13.52	13.52
Fixation R	1	15	27466488722	27466667700	178978	869.95	504.08	27	59	-1	14.05	14.05
Saccade L	1	15	27466667700	27466707457	39757	889.61	478.52	1144.03	398.43	2.81	146.52	0.50	70.61	3583.29	-3060.05	3035.13
Saccade R	1	15	27466667700	27466707457	39757	889.61	478.52	1144.03	398.43	2.81	146.52	0.50	70.61	3583.29	-3060.05	3035.13
Fixation L	1	16	27466707457	27466906308	198851	1173.60	402.40	40	21	-1	13.02	13.02
Fixation R	1	16	27466707457	27466906308	198851	1173.60	402.40	40	21	-1	13.69	13.69
