[BeGaze]
Converted from:	C:\Documents and Settings\iViewX\Desktop\EXPERIMENTATIONS\Experiments\results\finaleart\S13H22431-finaleart-1.idf
Date:	27.03.2019 15:42:01
Version:	BeGaze 2.5.77
Sample Rate:	50
Subject:	S13H22431
Description:	Jimmy Petit

Table Header for Fixations:
Event Type	Trial	Number	Start	End	Duration	Location X	Location Y	Dispersion X	Dispersion Y	Plane	Avg. Pupil Size X	Avg. Pupil Size Y

Table Header for Saccades:
Event Type	Trial	Number	Start	End	Duration	Start Loc.X	Start Loc.Y	End Loc.X	End Loc.Y	Amplitude	Peak Speed	Peak Speed At	Average Speed	Peak Accel.	Peak Decel.	Average Accel.

Table Header for Blinks:
Event Type	Trial	Number	Start	End	Duration

Table Header for User Events:
Event Type	Trial	Number	Start	Description

UserEvent	1	1	27995598229	# Message: courbet-the-bathers-1858.jpg
Fixation L	1	1	27995612586	27995771711	159125	948.43	555.69	8	88	-1	17.59	17.59
Fixation R	1	1	27995612586	27995771711	159125	948.43	555.69	8	88	-1	17.24	17.24
Saccade L	1	1	27995771711	27995791579	19868	942.48	494.57	938.26	476.99	0.47	50.79	0.00	23.47	74.87	-1032.23	469.30
Saccade R	1	1	27995771711	27995791579	19868	942.48	494.57	938.26	476.99	0.47	50.79	0.00	23.47	74.87	-1032.23	469.30
Fixation L	1	2	27995791579	27996030190	238611	927.96	484.54	17	26	-1	16.25	16.25
Fixation R	1	2	27995791579	27996030190	238611	927.96	484.54	17	26	-1	15.66	15.66
Saccade L	1	2	27996030190	27996070058	39868	922.15	502.72	630.19	375.94	2.88	182.49	1.00	72.27	4343.20	-4434.48	3980.60
Saccade R	1	2	27996030190	27996070058	39868	922.15	502.72	630.19	375.94	2.88	182.49	1.00	72.27	4343.20	-4434.48	3980.60
Fixation L	1	3	27996070058	27996368444	298386	614.73	350.77	30	52	-1	16.31	16.31
Fixation R	1	3	27996070058	27996368444	298386	614.73	350.77	30	52	-1	15.70	15.70
Saccade L	1	3	27996368444	27996388296	19852	600.12	326.87	609.39	265.94	0.48	62.35	1.00	23.97	1416.09	-1274.44	1029.42
Saccade R	1	3	27996368444	27996388296	19852	600.12	326.87	609.39	265.94	0.48	62.35	1.00	23.97	1416.09	-1274.44	1029.42
Fixation L	1	4	27996388296	27996527537	139241	633.14	261.41	33	9	-1	16.56	16.56
Fixation R	1	4	27996388296	27996527537	139241	633.14	261.41	33	9	-1	15.55	15.55
Saccade L	1	4	27996527537	27996567284	39747	636.08	256.59	817.47	78.08	2.26	171.23	0.50	56.74	3982.83	-4096.31	3028.13
Saccade R	1	4	27996527537	27996567284	39747	636.08	256.59	817.47	78.08	2.26	171.23	0.50	56.74	3982.83	-4096.31	3028.13
Fixation L	1	5	27996567284	27996965022	397738	830.03	52.52	20	57	-1	16.86	16.86
Fixation R	1	5	27996567284	27996965022	397738	830.03	52.52	20	57	-1	16.16	16.16
Saccade L	1	5	27996965022	27997004891	39869	837.66	33.44	831.55	410.35	3.33	239.49	1.00	83.48	5924.06	-5803.52	4492.62
Saccade R	1	5	27996965022	27997004891	39869	837.66	33.44	831.55	410.35	3.33	239.49	1.00	83.48	5924.06	-5803.52	4492.62
Fixation L	1	6	27997004891	27997243516	238625	825.05	422.65	19	31	-1	18.39	18.39
Fixation R	1	6	27997004891	27997243516	238625	825.05	422.65	19	31	-1	18.00	18.00
Saccade L	1	6	27997243516	27997303262	59746	818.04	413.31	556.24	309.95	3.48	153.51	0.67	58.18	3709.91	-3639.54	2338.23
Saccade R	1	6	27997243516	27997303262	59746	818.04	413.31	556.24	309.95	3.48	153.51	0.67	58.18	3709.91	-3639.54	2338.23
Fixation L	1	7	27997303262	27997661239	357977	560.31	324.31	47	39	-1	18.64	18.64
Fixation R	1	7	27997303262	27997661239	357977	560.31	324.31	47	39	-1	18.28	18.28
Saccade L	1	7	27997661239	27997720871	59632	583.02	329.12	610.93	442.25	3.62	113.45	0.33	60.72	2742.58	-1529.69	1707.61
Blink R	1	1	27997661239	27997780608	119369
Fixation L	1	8	27997720871	27997840233	119362	591.28	434.52	28	41	-1	19.00	19.00
Saccade R	1	7	27997780608	27997860106	79498	584.53	441.53	585.81	559.94	2.47	122.60	1.00	31.09	2762.58	-3009.11	1133.05
Saccade L	1	8	27997840233	27997860106	19873	594.93	439.08	585.81	559.94	0.73	122.60	1.00	36.98	2762.58	-3009.11	2012.67
Fixation L	1	9	27997860106	27998118720	258614	580.86	558.59	10	5	-1	19.54	19.54
Fixation R	1	8	27997860106	27998118720	258614	580.86	558.59	10	5	-1	19.13	19.13
Saccade L	1	9	27998118720	27998158473	39753	576.73	557.45	752.47	788.05	2.44	153.15	0.50	61.39	3822.10	-3545.96	3605.05
Saccade R	1	8	27998118720	27998158473	39753	576.73	557.45	752.47	788.05	2.44	153.15	0.50	61.39	3822.10	-3545.96	3605.05
Fixation L	1	10	27998158473	27998337459	178986	752.55	778.25	8	21	-1	19.43	19.43
Fixation R	1	9	27998158473	27998337459	178986	752.55	778.25	8	21	-1	19.34	19.34
Saccade L	1	10	27998337459	27998377340	39881	757.60	766.62	1006.88	528.25	3.10	236.87	0.50	77.62	5845.07	-5288.12	4019.92
Saccade R	1	9	27998337459	27998377340	39881	757.60	766.62	1006.88	528.25	3.10	236.87	0.50	77.62	5845.07	-5288.12	4019.92
Fixation L	1	11	27998377340	27998695576	318236	968.33	535.93	44	15	-1	17.94	17.94
Fixation R	1	10	27998377340	27998695576	318236	968.33	535.93	44	15	-1	17.65	17.65
Saccade L	1	11	27998695576	27998715444	19868	965.95	532.20	938.12	610.17	0.61	83.75	1.00	30.93	2053.13	-1516.48	1485.49
Saccade R	1	10	27998695576	27998715444	19868	965.95	532.20	938.12	610.17	0.61	83.75	1.00	30.93	2053.13	-1516.48	1485.49
Fixation L	1	12	27998715444	27998814816	99372	897.45	632.63	55	34	-1	17.69	17.69
Fixation R	1	11	27998715444	27998814816	99372	897.45	632.63	55	34	-1	17.06	17.06
Saccade L	1	12	27998814816	27998834690	19874	882.41	636.86	872.53	629.65	0.12	12.37	1.00	6.17	217.69	-236.78	159.14
Saccade R	1	11	27998814816	27998834690	19874	882.41	636.86	872.53	629.65	0.12	12.37	1.00	6.17	217.69	-236.78	159.14
Fixation L	1	13	27998834690	27998973933	139243	870.20	630.77	3	16	-1	18.11	18.11
Fixation R	1	12	27998834690	27998973933	139243	870.20	630.77	3	16	-1	17.54	17.54
Saccade L	1	13	27998973933	27999013824	39891	870.51	643.22	912.58	436.74	2.42	111.66	1.00	60.57	2517.60	-2578.43	2065.12
Saccade R	1	12	27998973933	27999013824	39891	870.51	643.22	912.58	436.74	2.42	111.66	1.00	60.57	2517.60	-2578.43	2065.12
Fixation L	1	14	27999013824	27999113174	99350	915.06	374.85	17	77	-1	18.32	18.32
Fixation R	1	13	27999013824	27999113174	99350	915.06	374.85	17	77	-1	17.67	17.67
Saccade L	1	14	27999113174	27999133050	19876	919.96	360.69	923.56	354.30	0.09	7.42	1.00	4.38	97.67	-53.20	59.29
Saccade R	1	13	27999113174	27999133050	19876	919.96	360.69	923.56	354.30	0.09	7.42	1.00	4.38	97.67	-53.20	59.29
Fixation L	1	15	27999133050	27999590535	457485	934.48	339.28	25	22	-1	18.77	18.77
Fixation R	1	14	27999133050	27999590535	457485	934.48	339.28	25	22	-1	18.18	18.18
