[BeGaze]
Converted from:	C:\Documents and Settings\iViewX\Desktop\EXPERIMENTATIONS\Experiments\results\finaleart\S13H22431-finaleart-1.idf
Date:	27.03.2019 15:41:35
Version:	BeGaze 2.5.77
Sample Rate:	50
Subject:	S13H22431
Description:	Jimmy Petit

Table Header for Fixations:
Event Type	Trial	Number	Start	End	Duration	Location X	Location Y	Dispersion X	Dispersion Y	Plane	Avg. Pupil Size X	Avg. Pupil Size Y

Table Header for Saccades:
Event Type	Trial	Number	Start	End	Duration	Start Loc.X	Start Loc.Y	End Loc.X	End Loc.Y	Amplitude	Peak Speed	Peak Speed At	Average Speed	Peak Accel.	Peak Decel.	Average Accel.

Table Header for Blinks:
Event Type	Trial	Number	Start	End	Duration

Table Header for User Events:
Event Type	Trial	Number	Start	Description

UserEvent	1	1	27442516327	# Message: void.jpg
Fixation L	1	1	27442521145	27442700131	178986	1058.10	343.15	19	10	-1	11.74	11.74
Fixation R	1	1	27442521145	27442700131	178986	1058.10	343.15	19	10	-1	13.16	13.16
Saccade L	1	1	27442700131	27442719996	19865	1052.65	340.30	1165.40	354.50	0.85	114.95	1.00	43.04	2693.63	-2339.54	1955.08
Saccade R	1	1	27442700131	27442719996	19865	1052.65	340.30	1165.40	354.50	0.85	114.95	1.00	43.04	2693.63	-2339.54	1955.08
Fixation L	1	2	27442719996	27443058112	338116	1190.22	402.91	31	61	-1	11.85	11.85
Fixation R	1	2	27442719996	27443058112	338116	1190.22	402.91	31	61	-1	12.61	12.61
Blink L	1	1	27443058112	27443237110	178998
Blink R	1	1	27443058112	27443237110	178998
Fixation L	1	3	27443237110	27443495708	258598	1113.21	226.50	17	19	-1	12.99	12.99
Fixation R	1	3	27443237110	27443495708	258598	1113.21	226.50	17	19	-1	13.03	13.03
Saccade L	1	2	27443495708	27443555448	59740	1101.05	230.46	807.40	364.55	3.82	188.26	0.67	63.87	4466.27	-4540.76	2959.00
Saccade R	1	2	27443495708	27443555448	59740	1101.05	230.46	807.40	364.55	3.82	188.26	0.67	63.87	4466.27	-4540.76	2959.00
Fixation L	1	4	27443555448	27443674700	119252	805.76	363.21	4	23	-1	13.79	13.79
Fixation R	1	4	27443555448	27443674700	119252	805.76	363.21	4	23	-1	14.07	14.07
Saccade L	1	3	27443674700	27443754319	79619	803.33	348.79	531.64	802.19	7.31	239.27	0.50	91.76	5668.58	-4355.10	3174.06
Saccade R	1	3	27443674700	27443754319	79619	803.33	348.79	531.64	802.19	7.31	239.27	0.50	91.76	5668.58	-4355.10	3174.06
Fixation L	1	5	27443754319	27444152049	397730	504.49	791.52	46	49	-1	13.74	13.74
Fixation R	1	5	27443754319	27444152049	397730	504.49	791.52	46	49	-1	14.43	14.43
Saccade L	1	4	27444152049	27444251544	99495	484.69	773.17	976.25	361.76	9.00	160.96	0.40	90.49	3971.69	-3546.89	2096.57
Saccade R	1	4	27444152049	27444251544	99495	484.69	773.17	976.25	361.76	9.00	160.96	0.40	90.49	3971.69	-3546.89	2096.57
Fixation L	1	6	27444251544	27444450412	198868	1006.42	361.18	42	17	-1	12.66	12.66
Fixation R	1	6	27444251544	27444450412	198868	1006.42	361.18	42	17	-1	13.42	13.42
Saccade L	1	5	27444450412	27444510161	59749	1019.17	368.71	1376.17	330.75	4.48	142.80	0.33	74.93	3472.09	-837.44	1730.78
Saccade R	1	5	27444450412	27444510161	59749	1019.17	368.71	1376.17	330.75	4.48	142.80	0.33	74.93	3472.09	-837.44	1730.78
