[BeGaze]
Converted from:	C:\Documents and Settings\iViewX\Desktop\EXPERIMENTATIONS\Experiments\results\finaleart\S13H22431-finaleart-1.idf
Date:	27.03.2019 15:42:06
Version:	BeGaze 2.5.77
Sample Rate:	50
Subject:	S13H22431
Description:	Jimmy Petit

Table Header for Fixations:
Event Type	Trial	Number	Start	End	Duration	Location X	Location Y	Dispersion X	Dispersion Y	Plane	Avg. Pupil Size X	Avg. Pupil Size Y

Table Header for Saccades:
Event Type	Trial	Number	Start	End	Duration	Start Loc.X	Start Loc.Y	End Loc.X	End Loc.Y	Amplitude	Peak Speed	Peak Speed At	Average Speed	Peak Accel.	Peak Decel.	Average Accel.

Table Header for Blinks:
Event Type	Trial	Number	Start	End	Duration

Table Header for User Events:
Event Type	Trial	Number	Start	Description

UserEvent	1	1	28042471790	# Message: void.jpg
Fixation L	1	1	28042473690	28042712283	238593	1380.87	525.91	21	74	-1	18.99	18.99
Fixation R	1	1	28042473690	28042712283	238593	1380.87	525.91	21	74	-1	20.30	20.30
Saccade L	1	1	28042712283	28042732281	19998	1384.73	569.16	1381.79	574.18	0.18	17.09	0.00	8.89	33.37	-226.06	109.65
Saccade R	1	1	28042712283	28042732281	19998	1384.73	569.16	1381.79	574.18	0.18	17.09	0.00	8.89	33.37	-226.06	109.65
Fixation L	1	2	28042732281	28042990767	258486	1376.91	589.73	15	28	-1	19.29	19.29
Fixation R	1	2	28042732281	28042990767	258486	1376.91	589.73	15	28	-1	20.43	20.43
Saccade L	1	2	28042990767	28043110161	119394	1379.33	599.18	1536.70	-42.57	10.65	221.52	0.67	89.21	3591.67	-4442.38	2423.52
Saccade R	1	2	28042990767	28043110161	119394	1379.33	599.18	1536.70	-42.57	10.65	221.52	0.67	89.21	3591.67	-4442.38	2423.52
Fixation L	1	3	28043110161	28043229508	119347	1504.07	-43.74	48	47	-1	16.11	16.11
Fixation R	1	3	28043110161	28043229508	119347	1504.07	-43.74	48	47	-1	17.06	17.06
Saccade L	1	3	28043229508	28043388628	159120	1496.91	-47.33	640.10	185.82	14.15	262.02	0.88	88.95	5811.18	-5890.14	2354.81
Saccade R	1	3	28043229508	28043388628	159120	1496.91	-47.33	640.10	185.82	14.15	262.02	0.88	88.95	5811.18	-5890.14	2354.81
Fixation L	1	4	28043388628	28043667112	278484	642.16	133.50	17	68	-1	15.60	15.60
Fixation R	1	4	28043388628	28043667112	278484	642.16	133.50	17	68	-1	16.97	16.97
Blink L	1	1	28043667112	28043786374	119262
Blink R	1	1	28043667112	28043925603	258491
Fixation L	1	5	28043885859	28044164345	278486	1258.26	441.85	15	74	-1	16.83	16.83
Fixation R	1	5	28043925603	28044184218	258615	1255.10	439.82	26	42	-1	17.96	17.96
Saccade L	1	4	28044164345	28044204092	39747	1258.33	424.70	1102.85	651.88	2.85	229.98	1.00	71.77	5706.39	-5659.97	3299.35
Saccade R	1	4	28044184218	28044204092	19874	1235.67	467.23	1102.85	651.88	1.77	229.98	1.00	89.07	5706.39	-5659.97	4014.39
Fixation L	1	6	28044204092	28044462707	258615	1100.33	723.17	5	83	-1	16.61	16.61
Fixation R	1	6	28044204092	28044462707	258615	1100.33	723.17	5	83	-1	17.57	17.57
