[BeGaze]
Converted from:	C:\Documents and Settings\iViewX\Desktop\EXPERIMENTATIONS\Experiments\results\finaleart\S13H22431-finaleart-1.idf
Date:	27.03.2019 15:41:18
Version:	BeGaze 2.5.77
Sample Rate:	50
Subject:	S13H22431
Description:	Jimmy Petit

Table Header for Fixations:
Event Type	Trial	Number	Start	End	Duration	Location X	Location Y	Dispersion X	Dispersion Y	Plane	Avg. Pupil Size X	Avg. Pupil Size Y

Table Header for Saccades:
Event Type	Trial	Number	Start	End	Duration	Start Loc.X	Start Loc.Y	End Loc.X	End Loc.Y	Amplitude	Peak Speed	Peak Speed At	Average Speed	Peak Accel.	Peak Decel.	Average Accel.

Table Header for Blinks:
Event Type	Trial	Number	Start	End	Duration

Table Header for User Events:
Event Type	Trial	Number	Start	Description

UserEvent	1	1	27218000191	# Message: woman-at-her-toilette_degas_1877.jpg
Fixation L	1	1	27218002013	27218101423	99410	539.75	346.92	7	6	-1	17.88	17.88
Fixation R	1	1	27218002013	27218101423	99410	539.75	346.92	7	6	-1	18.46	18.46
Saccade L	1	1	27218101423	27218121385	19962	540.19	350.31	673.70	452.60	1.04	170.10	1.00	52.24	4168.43	-4085.29	2977.52
Saccade R	1	1	27218101423	27218121385	19962	540.19	350.31	673.70	452.60	1.04	170.10	1.00	52.24	4168.43	-4085.29	2977.52
Fixation L	1	2	27218121385	27218379908	258523	668.69	476.86	20	41	-1	17.86	17.86
Fixation R	1	2	27218121385	27218379908	258523	668.69	476.86	20	41	-1	18.77	18.77
Saccade L	1	2	27218379908	27218419753	39845	657.05	467.81	1013.90	370.20	3.19	213.56	1.00	80.05	5304.69	-5290.01	4627.53
Saccade R	1	2	27218379908	27218419753	39845	657.05	467.81	1013.90	370.20	3.19	213.56	1.00	80.05	5304.69	-5290.01	4627.53
Fixation L	1	3	27218419753	27218777728	357975	1024.07	378.88	30	39	-1	16.35	16.35
Fixation R	1	3	27218419753	27218777728	357975	1024.07	378.88	30	39	-1	17.30	17.30
Saccade L	1	3	27218777728	27218797602	19874	1044.03	370.60	1092.02	354.16	0.53	51.32	1.00	26.61	1272.88	-574.00	666.94
Saccade R	1	3	27218777728	27218797602	19874	1044.03	370.60	1092.02	354.16	0.53	51.32	1.00	26.61	1272.88	-574.00	666.94
Fixation L	1	4	27218797602	27218976594	178992	1095.60	328.73	21	44	-1	15.28	15.28
Fixation R	1	4	27218797602	27218976594	178992	1095.60	328.73	21	44	-1	16.31	16.31
Saccade L	1	4	27218976594	27218996472	19878	1093.54	317.46	1101.48	253.34	0.55	65.37	1.00	27.81	1362.10	-849.00	947.92
Saccade R	1	4	27218976594	27218996472	19878	1093.54	317.46	1101.48	253.34	0.55	65.37	1.00	27.81	1362.10	-849.00	947.92
Fixation L	1	5	27218996472	27219155585	159113	1096.71	277.81	6	42	-1	15.62	15.62
Fixation R	1	5	27218996472	27219155585	159113	1096.71	277.81	6	42	-1	16.26	16.26
Blink L	1	1	27219155585	27219533582	377997
Blink R	1	1	27219155585	27219533582	377997
Blink R	1	2	27219533582	27219652812	119230
Fixation L	1	6	27219593193	27219871680	278487	1045.52	357.13	28	68	-1	18.32	18.32
Fixation R	1	6	27219652812	27219871680	218868	1042.09	359.93	10	44	-1	18.78	18.78
Saccade L	1	5	27219871680	27219911427	39747	1041.00	369.81	1032.52	590.72	1.98	114.43	0.50	49.83	2742.30	-2579.63	2598.15
Saccade R	1	5	27219871680	27219911427	39747	1041.00	369.81	1032.52	590.72	1.98	114.43	0.50	49.83	2742.30	-2579.63	2598.15
Fixation L	1	7	27219911427	27220189919	278492	1021.58	589.60	25	72	-1	18.37	18.37
Fixation R	1	7	27219911427	27220189919	278492	1021.58	589.60	25	72	-1	18.93	18.93
Saccade L	1	6	27220189919	27220289423	99504	1008.55	641.08	998.91	656.88	1.46	28.23	1.00	14.72	30094.87	-620.64	4704.86
Saccade R	1	6	27220189919	27220289423	99504	1008.55	641.08	998.91	656.88	1.46	28.23	1.00	14.72	30094.87	-620.64	4704.86
Blink L	1	2	27220289423	27220408649	119226
Blink R	1	3	27220289423	27220408649	119226
Fixation L	1	8	27220408649	27220508159	99510	1046.93	303.25	54	34	-1	19.06	19.06
Fixation R	1	8	27220408649	27220508159	99510	1046.93	303.25	54	34	-1	18.47	18.47
Saccade L	1	7	27220508159	27220528022	19863	1050.73	280.25	1051.30	247.98	0.60	47.72	1.00	30.30	494.74	-376.53	299.23
Saccade R	1	7	27220508159	27220528022	19863	1050.73	280.25	1051.30	247.98	0.60	47.72	1.00	30.30	494.74	-376.53	299.23
Fixation L	1	9	27220528022	27220627397	99375	1055.00	289.55	25	70	-1	19.05	19.05
Fixation R	1	9	27220528022	27220627397	99375	1055.00	289.55	25	70	-1	18.58	18.58
Blink L	1	3	27220627397	27220826388	198991
Blink R	1	4	27220627397	27220826388	198991
Saccade L	1	8	27220826388	27220905881	79493	951.30	227.88	951.98	263.44	2.02	65.51	1.00	25.39	24230.71	-1521.08	4553.91
Saccade R	1	8	27220826388	27220905881	79493	951.30	227.88	951.98	263.44	2.02	65.51	1.00	25.39	24230.71	-1521.08	4553.91
Blink L	1	4	27220905881	27221005379	99498
Blink R	1	5	27220905881	27221005379	99498
Saccade L	1	9	27221005379	27221224114	218735	332.02	255.87	316.85	465.03	17.02	215.88	0.09	77.82	4428.65	-3230.97	1817.87
Saccade R	1	9	27221005379	27221224114	218735	332.02	255.87	316.85	465.03	17.02	215.88	0.09	77.82	4428.65	-3230.97	1817.87
Blink L	1	5	27221224114	27221422984	198870
Blink R	1	6	27221224114	27221422984	198870
Saccade L	1	10	27221422984	27221621973	198989	926.90	363.00	1026.00	453.43	9.49	123.37	0.80	47.67	2374.92	-2948.42	1077.83
Saccade R	1	10	27221422984	27221621973	198989	926.90	363.00	1026.00	453.43	9.49	123.37	0.80	47.67	2374.92	-2948.42	1077.83
Fixation L	1	10	27221621973	27221721347	99374	1046.34	474.91	29	64	-1	20.04	20.04
Fixation R	1	10	27221621973	27221721347	99374	1046.34	474.91	29	64	-1	19.83	19.83
Saccade L	1	11	27221721347	27221741219	19872	1054.36	502.62	1052.46	513.52	0.12	11.19	1.00	6.17	48.32	-74.72	62.64
Saccade R	1	11	27221721347	27221741219	19872	1054.36	502.62	1052.46	513.52	0.12	11.19	1.00	6.17	48.32	-74.72	62.64
Fixation L	1	11	27221741219	27221860610	119391	1051.22	510.76	16	24	-1	20.24	20.24
Fixation R	1	11	27221741219	27221860610	119391	1051.22	510.76	16	24	-1	19.93	19.93
Saccade L	1	12	27221860610	27221900336	39726	1062.38	513.32	1236.27	487.37	1.72	123.56	0.50	43.21	2727.74	-2909.71	2018.18
Saccade R	1	12	27221860610	27221900336	39726	1062.38	513.32	1236.27	487.37	1.72	123.56	0.50	43.21	2727.74	-2909.71	2018.18
Fixation L	1	12	27221900336	27221999828	99492	1229.52	478.43	10	26	-1	19.60	19.60
Fixation R	1	12	27221900336	27221999828	99492	1229.52	478.43	10	26	-1	19.55	19.55
