[BeGaze]
Converted from:	C:\Documents and Settings\iViewX\Desktop\EXPERIMENTATIONS\Experiments\results\finaleart\S13H22431-finaleart-1.idf
Date:	27.03.2019 15:41:59
Version:	BeGaze 2.5.77
Sample Rate:	50
Subject:	S13H22431
Description:	Jimmy Petit

Table Header for Fixations:
Event Type	Trial	Number	Start	End	Duration	Location X	Location Y	Dispersion X	Dispersion Y	Plane	Avg. Pupil Size X	Avg. Pupil Size Y

Table Header for Saccades:
Event Type	Trial	Number	Start	End	Duration	Start Loc.X	Start Loc.Y	End Loc.X	End Loc.Y	Amplitude	Peak Speed	Peak Speed At	Average Speed	Peak Accel.	Peak Decel.	Average Accel.

Table Header for Blinks:
Event Type	Trial	Number	Start	End	Duration

Table Header for User Events:
Event Type	Trial	Number	Start	Description

UserEvent	1	1	27969035435	# Message: void.jpg
Fixation L	1	1	27969039362	27969437211	397849	1394.69	255.20	79	19	-1	12.66	12.66
Fixation R	1	1	27969039362	27969437211	397849	1394.69	255.20	79	19	-1	13.09	13.09
Saccade L	1	1	27969437211	27969536585	99374	1350.60	264.62	1339.47	269.58	1.60	102.99	1.00	16.11	2479.92	-65.35	604.15
Saccade R	1	1	27969437211	27969536585	99374	1350.60	264.62	1339.47	269.58	1.60	102.99	1.00	16.11	2479.92	-65.35	604.15
Blink L	1	1	27969536585	27969775337	238752
Blink R	1	1	27969536585	27969775337	238752
Fixation L	1	2	27969775337	27969974191	198854	512.98	226.48	22	22	-1	13.95	13.95
Fixation R	1	2	27969775337	27969974191	198854	512.98	226.48	22	22	-1	15.48	15.48
Saccade L	1	2	27969974191	27970013944	39753	522.58	234.39	704.95	496.92	2.67	172.87	1.00	67.12	4286.85	-4101.27	3914.35
Saccade R	1	2	27969974191	27970013944	39753	522.58	234.39	704.95	496.92	2.67	172.87	1.00	67.12	4286.85	-4101.27	3914.35
Fixation L	1	3	27970013944	27970292435	278491	729.02	539.95	34	64	-1	14.68	14.68
Fixation R	1	3	27970013944	27970292435	278491	729.02	539.95	34	64	-1	16.63	16.63
Saccade L	1	3	27970292435	27970312303	19868	739.51	561.48	662.69	564.74	0.46	77.77	1.00	23.03	1875.63	-1684.48	1255.82
Saccade R	1	3	27970292435	27970312303	19868	739.51	561.48	662.69	564.74	0.46	77.77	1.00	23.03	1875.63	-1684.48	1255.82
Fixation L	1	4	27970312303	27970650422	338119	654.50	567.59	23	20	-1	14.38	14.38
Fixation R	1	4	27970312303	27970650422	338119	654.50	567.59	23	20	-1	16.74	16.74
Saccade L	1	4	27970650422	27970670413	19991	647.74	567.29	769.89	557.87	0.66	123.92	1.00	32.96	3023.80	-3037.37	2054.29
Saccade R	1	4	27970650422	27970670413	19991	647.74	567.29	769.89	557.87	0.66	123.92	1.00	32.96	3023.80	-3037.37	2054.29
Fixation L	1	5	27970670413	27971008523	338110	772.95	538.87	10	39	-1	14.12	14.12
Fixation R	1	5	27970670413	27971008523	338110	772.95	538.87	10	39	-1	15.88	15.88
Saccade L	1	5	27971008523	27971028397	19874	776.41	518.38	717.11	525.78	0.46	60.45	1.00	23.32	1327.35	0.00	663.67
Saccade R	1	5	27971008523	27971028397	19874	776.41	518.38	717.11	525.78	0.46	60.45	1.00	23.32	1327.35	0.00	663.67
