[BeGaze]
Converted from:	C:\Documents and Settings\iViewX\Desktop\EXPERIMENTATIONS\Experiments\results\finaleart\S13H22431-finaleart-1.idf
Date:	27.03.2019 15:41:34
Version:	BeGaze 2.5.77
Sample Rate:	50
Subject:	S13H22431
Description:	Jimmy Petit

Table Header for Fixations:
Event Type	Trial	Number	Start	End	Duration	Location X	Location Y	Dispersion X	Dispersion Y	Plane	Avg. Pupil Size X	Avg. Pupil Size Y

Table Header for Saccades:
Event Type	Trial	Number	Start	End	Duration	Start Loc.X	Start Loc.Y	End Loc.X	End Loc.Y	Amplitude	Peak Speed	Peak Speed At	Average Speed	Peak Accel.	Peak Decel.	Average Accel.

Table Header for Blinks:
Event Type	Trial	Number	Start	End	Duration

Table Header for User Events:
Event Type	Trial	Number	Start	Description

UserEvent	1	1	27430260374	# Message: void.jpg
Fixation L	1	1	27430268793	27430527420	258627	1104.47	791.01	29	28	-1	13.11	13.11
Fixation R	1	1	27430268793	27430527420	258627	1104.47	791.01	29	28	-1	13.59	13.59
Saccade L	1	1	27430527420	27430567155	39735	1103.56	775.66	760.19	760.90	2.94	184.98	0.50	74.03	4428.19	-4464.76	4192.11
Saccade R	1	1	27430527420	27430567155	39735	1103.56	775.66	760.19	760.90	2.94	184.98	0.50	74.03	4428.19	-4464.76	4192.11
Fixation L	1	2	27430567155	27430746132	178977	752.45	760.66	11	6	-1	13.38	13.38
Fixation R	1	2	27430567155	27430746132	178977	752.45	760.66	11	6	-1	14.14	14.14
Blink L	1	1	27430746132	27430984873	238741
Blink R	1	1	27430746132	27430984873	238741
Fixation L	1	3	27430984873	27431323004	338131	1163.83	81.90	17	38	-1	13.71	13.71
Fixation R	1	3	27430984873	27431323004	338131	1163.83	81.90	17	38	-1	14.26	14.26
Saccade L	1	2	27431323004	27431422482	99478	1155.01	95.86	551.65	826.84	12.98	336.72	0.60	130.44	6101.10	-6374.35	3972.23
Saccade R	1	2	27431323004	27431422482	99478	1155.01	95.86	551.65	826.84	12.98	336.72	0.60	130.44	6101.10	-6374.35	3972.23
Fixation L	1	4	27431422482	27431680970	258488	553.58	865.40	17	57	-1	15.38	15.38
Fixation R	1	4	27431422482	27431680970	258488	553.58	865.40	17	57	-1	16.47	16.47
Saccade L	1	3	27431680970	27431700843	19873	557.08	883.91	582.39	916.53	0.39	41.77	1.00	19.76	979.52	-677.66	673.42
Saccade R	1	3	27431680970	27431700843	19873	557.08	883.91	582.39	916.53	0.39	41.77	1.00	19.76	979.52	-677.66	673.42
Fixation L	1	5	27431700843	27432039079	338236	604.55	925.43	58	36	-1	14.13	14.13
Fixation R	1	5	27431700843	27432039079	338236	604.55	925.43	58	36	-1	15.37	15.37
Saccade L	1	4	27432039079	27432058950	19871	641.35	941.04	655.68	951.47	0.28	32.42	0.00	13.97	394.77	-725.40	468.32
Saccade R	1	4	27432039079	27432058950	19871	641.35	941.04	655.68	951.47	0.28	32.42	0.00	13.97	394.77	-725.40	468.32
Fixation L	1	6	27432058950	27432257823	198873	662.99	954.50	14	14	-1	13.90	13.90
Fixation R	1	6	27432058950	27432257823	198873	662.99	954.50	14	14	-1	15.21	15.21
