[BeGaze]
Converted from:	C:\Documents and Settings\iViewX\Desktop\EXPERIMENTATIONS\Experiments\results\finaleart\S13H22431-finaleart-1.idf
Date:	27.03.2019 15:41:38
Version:	BeGaze 2.5.77
Sample Rate:	50
Subject:	S13H22431
Description:	Jimmy Petit

Table Header for Fixations:
Event Type	Trial	Number	Start	End	Duration	Location X	Location Y	Dispersion X	Dispersion Y	Plane	Avg. Pupil Size X	Avg. Pupil Size Y

Table Header for Saccades:
Event Type	Trial	Number	Start	End	Duration	Start Loc.X	Start Loc.Y	End Loc.X	End Loc.Y	Amplitude	Peak Speed	Peak Speed At	Average Speed	Peak Accel.	Peak Decel.	Average Accel.

Table Header for Blinks:
Event Type	Trial	Number	Start	End	Duration

Table Header for User Events:
Event Type	Trial	Number	Start	Description

UserEvent	1	1	27466983769	# Message: void.jpg
Fixation L	1	1	27466985943	27467125208	139265	1166.48	423.43	54	11	-1	13.84	13.84
Fixation R	1	1	27466985943	27467125208	139265	1166.48	423.43	54	11	-1	14.14	14.14
Saccade L	1	1	27467125208	27467145058	19850	1121.49	427.79	1054.84	426.42	0.63	67.44	1.00	31.63	1577.16	-1384.36	1326.30
Saccade R	1	1	27467125208	27467145058	19850	1121.49	427.79	1054.84	426.42	0.63	67.44	1.00	31.63	1577.16	-1384.36	1326.30
Fixation L	1	2	27467145058	27467781537	636479	1052.30	422.50	29	53	-1	14.50	14.50
Fixation R	1	2	27467145058	27467741773	596715	1052.69	423.29	29	12	-1	14.62	14.62
Blink R	1	1	27467741773	27467881022	139249
Saccade L	1	2	27467781537	27467920767	139230	1038.66	436.92	818.03	446.15	6.21	117.09	1.00	44.60	2763.45	-2718.74	1044.43
Saccade R	1	2	27467881022	27467920767	39745	963.33	388.67	818.03	446.15	1.66	117.09	1.00	41.89	2763.45	-2718.74	1666.02
Fixation L	1	3	27467920767	27468099764	178997	807.59	432.22	18	40	-1	15.34	15.34
Fixation R	1	3	27467920767	27468099764	178997	807.59	432.22	18	40	-1	16.17	16.17
Saccade L	1	3	27468099764	27468139507	39743	799.07	433.32	594.23	558.16	2.14	151.54	0.50	53.86	3720.55	-3678.59	2987.32
Saccade R	1	3	27468099764	27468139507	39743	799.07	433.32	594.23	558.16	2.14	151.54	0.50	53.86	3720.55	-3678.59	2987.32
Fixation L	1	4	27468139507	27468815857	676350	605.15	595.24	19	65	-1	15.06	15.06
Fixation R	1	4	27468139507	27468815857	676350	605.15	595.24	19	65	-1	16.18	16.18
Saccade L	1	4	27468815857	27468974982	159125	606.59	604.11	227.72	823.50	8.15	137.23	0.25	51.23	3350.62	-2616.00	1176.66
Saccade R	1	4	27468815857	27468974982	159125	606.59	604.11	227.72	823.50	8.15	137.23	0.25	51.23	3350.62	-2616.00	1176.66
