[BeGaze]
Converted from:	C:\Documents and Settings\iViewX\Desktop\EXPERIMENTATIONS\Experiments\results\finaleart\S13H22431-finaleart-1.idf
Date:	27.03.2019 15:42:00
Version:	BeGaze 2.5.77
Sample Rate:	50
Subject:	S13H22431
Description:	Jimmy Petit

Table Header for Fixations:
Event Type	Trial	Number	Start	End	Duration	Location X	Location Y	Dispersion X	Dispersion Y	Plane	Avg. Pupil Size X	Avg. Pupil Size Y

Table Header for Saccades:
Event Type	Trial	Number	Start	End	Duration	Start Loc.X	Start Loc.Y	End Loc.X	End Loc.Y	Amplitude	Peak Speed	Peak Speed At	Average Speed	Peak Accel.	Peak Decel.	Average Accel.

Table Header for Blinks:
Event Type	Trial	Number	Start	End	Duration

Table Header for User Events:
Event Type	Trial	Number	Start	Description

UserEvent	1	1	27983373381	# Message: Le_Chemin_De_Fer_Berlin_Potsdam_Menzel_1847.jpg
Saccade L	1	1	27983380151	27983459854	79703	709.14	479.38	707.99	492.20	1.70	77.01	1.00	21.28	1883.31	-356.02	508.03
Saccade R	1	1	27983380151	27983459854	79703	709.14	479.38	707.99	492.20	1.70	77.01	1.00	21.28	1883.31	-356.02	508.03
Fixation L	1	1	27983459854	27983698393	238539	637.46	502.62	80	19	-1	15.66	15.66
Fixation R	1	1	27983459854	27983698393	238539	637.46	502.62	80	19	-1	16.12	16.12
Saccade L	1	2	27983698393	27983738125	39732	627.22	503.60	824.16	510.85	1.79	148.73	0.50	45.08	3675.84	-3210.23	2261.24
Saccade R	1	2	27983698393	27983738125	39732	627.22	503.60	824.16	510.85	1.79	148.73	0.50	45.08	3675.84	-3210.23	2261.24
Fixation L	1	2	27983738125	27983996707	258582	840.74	550.93	23	66	-1	16.25	16.25
Fixation R	1	2	27983738125	27983996707	258582	840.74	550.93	23	66	-1	16.17	16.17
Saccade L	1	3	27983996707	27984016584	19877	839.70	574.61	797.03	569.34	0.47	44.59	1.00	23.48	1044.31	-983.85	1013.30
Saccade R	1	3	27983996707	27984016584	19877	839.70	574.61	797.03	569.34	0.47	44.59	1.00	23.48	1044.31	-983.85	1013.30
Fixation L	1	3	27984016584	27984275197	258613	748.08	565.99	55	12	-1	15.92	15.92
Fixation R	1	3	27984016584	27984275197	258613	748.08	565.99	55	12	-1	15.98	15.98
Saccade L	1	4	27984275197	27984295074	19877	743.14	565.95	763.64	658.75	0.68	96.13	1.00	34.34	2341.48	-2247.93	1806.30
Saccade R	1	4	27984275197	27984295074	19877	743.14	565.95	763.64	658.75	0.68	96.13	1.00	34.34	2341.48	-2247.93	1806.30
Fixation L	1	4	27984295074	27984474066	178992	795.68	691.20	46	41	-1	16.79	16.79
Fixation R	1	4	27984295074	27984474066	178992	795.68	691.20	46	41	-1	16.93	16.93
Saccade L	1	5	27984474066	27984493933	19867	809.94	699.92	836.51	862.63	0.91	166.73	1.00	45.79	4074.18	-4122.91	2735.05
Saccade R	1	5	27984474066	27984493933	19867	809.94	699.92	836.51	862.63	0.91	166.73	1.00	45.79	4074.18	-4122.91	2735.05
Fixation L	1	5	27984493933	27985130410	636477	848.91	865.36	23	11	-1	17.60	17.60
Fixation R	1	5	27984493933	27985130410	636477	848.91	865.36	23	11	-1	17.65	17.65
Saccade L	1	6	27985130410	27985170285	39875	859.48	859.23	1209.80	693.56	3.41	207.64	0.50	85.64	5120.01	-4492.34	4682.16
Saccade R	1	6	27985130410	27985170285	39875	859.48	859.23	1209.80	693.56	3.41	207.64	0.50	85.64	5120.01	-4492.34	4682.16
Fixation L	1	6	27985170285	27985607890	437605	1223.59	680.10	52	35	-1	16.78	16.78
Fixation R	1	6	27985170285	27985607890	437605	1223.59	680.10	52	35	-1	16.70	16.70
Saccade L	1	7	27985607890	27985627765	19875	1261.98	657.78	1267.18	645.22	0.16	13.76	1.00	8.25	517.48	-91.35	247.05
Saccade R	1	7	27985607890	27985627765	19875	1261.98	657.78	1267.18	645.22	0.16	13.76	1.00	8.25	517.48	-91.35	247.05
Fixation L	1	7	27985627765	27985767009	139244	1238.27	669.12	49	50	-1	16.06	16.06
Fixation R	1	7	27985627765	27985767009	139244	1238.27	669.12	49	50	-1	15.62	15.62
Saccade L	1	8	27985767009	27985786875	19866	1220.89	693.44	1213.89	692.56	0.14	13.05	0.00	6.81	118.99	-209.07	137.76
Saccade R	1	8	27985767009	27985786875	19866	1220.89	693.44	1213.89	692.56	0.14	13.05	0.00	6.81	118.99	-209.07	137.76
Fixation L	1	8	27985786875	27985886253	99378	1208.30	690.15	9	4	-1	16.04	16.04
Fixation R	1	8	27985786875	27985886253	99378	1208.30	690.15	9	4	-1	15.46	15.46
Saccade L	1	9	27985886253	27985926125	39872	1204.87	690.10	1073.82	832.27	1.82	128.35	0.50	45.53	3161.96	-2868.86	2447.00
Saccade R	1	9	27985886253	27985926125	39872	1204.87	690.10	1073.82	832.27	1.82	128.35	0.50	45.53	3161.96	-2868.86	2447.00
Fixation L	1	9	27985926125	27986184619	258494	1045.25	823.60	82	15	-1	16.57	16.57
Fixation R	1	9	27985926125	27986184619	258494	1045.25	823.60	82	15	-1	15.96	15.96
Saccade L	1	10	27986184619	27986204488	19869	991.44	823.60	946.86	841.08	0.52	48.44	1.00	26.10	1153.42	-1159.69	1101.50
Saccade R	1	10	27986184619	27986204488	19869	991.44	823.60	946.86	841.08	0.52	48.44	1.00	26.10	1153.42	-1159.69	1101.50
Fixation L	1	10	27986204488	27986642091	437603	940.26	859.26	47	48	-1	17.22	17.22
Fixation R	1	10	27986204488	27986642091	437603	940.26	859.26	47	48	-1	17.09	17.09
Saccade L	1	11	27986642091	27986661973	19882	903.05	883.67	879.55	884.46	0.35	40.70	0.00	17.44	534.99	-945.75	654.90
Saccade R	1	11	27986642091	27986661973	19882	903.05	883.67	879.55	884.46	0.35	40.70	0.00	17.44	534.99	-945.75	654.90
Fixation L	1	11	27986661973	27987218950	556977	850.29	878.66	51	15	-1	17.34	17.34
Fixation R	1	11	27986661973	27987218950	556977	850.29	878.66	51	15	-1	17.67	17.67
Saccade L	1	12	27987218950	27987238820	19870	829.03	874.64	823.42	961.78	0.53	88.34	1.00	26.50	2171.37	-1959.31	1463.16
Saccade R	1	12	27987218950	27987238820	19870	829.03	874.64	823.42	961.78	0.53	88.34	1.00	26.50	2171.37	-1959.31	1463.16
Fixation L	1	12	27987238820	27987358188	119368	815.60	958.35	13	10	-1	17.85	17.85
Fixation R	1	12	27987238820	27987358188	119368	815.60	958.35	13	10	-1	18.19	18.19
