[BeGaze]
Converted from:	C:\Documents and Settings\iViewX\Desktop\EXPERIMENTATIONS\Experiments\results\finaleart\S13H22431-finaleart-1.idf
Date:	27.03.2019 15:42:13
Version:	BeGaze 2.5.77
Sample Rate:	50
Subject:	S13H22431
Description:	Jimmy Petit

Table Header for Fixations:
Event Type	Trial	Number	Start	End	Duration	Location X	Location Y	Dispersion X	Dispersion Y	Plane	Avg. Pupil Size X	Avg. Pupil Size Y

Table Header for Saccades:
Event Type	Trial	Number	Start	End	Duration	Start Loc.X	Start Loc.Y	End Loc.X	End Loc.Y	Amplitude	Peak Speed	Peak Speed At	Average Speed	Peak Accel.	Peak Decel.	Average Accel.

Table Header for Blinks:
Event Type	Trial	Number	Start	End	Duration

Table Header for User Events:
Event Type	Trial	Number	Start	Description

UserEvent	1	1	28152852995	# Message: void.jpg
Fixation L	1	1	28152857148	28153016347	159199	524.61	633.89	8	17	-1	16.98	16.98
Fixation R	1	1	28152857148	28153016347	159199	524.61	633.89	8	17	-1	17.95	17.95
Saccade L	1	1	28153016347	28153115748	99401	523.20	627.66	757.23	606.01	6.23	204.57	1.00	62.66	27780.55	-3226.56	6375.52
Saccade R	1	1	28153016347	28153115748	99401	523.20	627.66	757.23	606.01	6.23	204.57	1.00	62.66	27780.55	-3226.56	6375.52
Blink L	1	1	28153115748	28153235126	119378
Blink R	1	1	28153115748	28153235126	119378
Fixation L	1	2	28153235126	28153473727	238601	829.91	587.03	18	18	-1	17.09	17.09
Fixation R	1	2	28153235126	28153473727	238601	829.91	587.03	18	18	-1	17.64	17.64
Saccade L	1	2	28153473727	28153831828	358101	835.42	588.98	743.21	482.61	49.41	505.94	0.83	137.98	10438.84	-8358.09	3638.07
Saccade R	1	2	28153473727	28153831828	358101	835.42	588.98	743.21	482.61	49.41	505.94	0.83	137.98	10438.84	-8358.09	3638.07
Fixation L	1	3	28153831828	28154070447	238619	755.53	487.67	19	53	-1	15.51	15.51
Fixation R	1	3	28153831828	28154070447	238619	755.53	487.67	19	53	-1	15.35	15.35
Saccade L	1	3	28154070447	28154110185	39738	762.24	480.03	919.63	509.28	1.48	128.46	1.00	37.28	2908.07	-3150.94	1872.10
Saccade R	1	3	28154070447	28154110185	39738	762.24	480.03	919.63	509.28	1.48	128.46	1.00	37.28	2908.07	-3150.94	1872.10
Fixation L	1	4	28154110185	28154249437	139252	916.82	507.95	9	12	-1	16.03	16.03
Fixation R	1	4	28154110185	28154249437	139252	916.82	507.95	9	12	-1	16.01	16.01
Saccade L	1	4	28154249437	28154309184	59747	920.47	506.21	1336.48	497.18	4.48	175.81	0.33	75.00	4068.09	-2967.09	2864.78
Saccade R	1	4	28154249437	28154309184	59747	920.47	506.21	1336.48	497.18	4.48	175.81	0.33	75.00	4068.09	-2967.09	2864.78
Fixation L	1	5	28154309184	28154488180	178996	1326.85	486.10	15	25	-1	16.73	16.73
Fixation R	1	5	28154309184	28154488180	178996	1326.85	486.10	15	25	-1	16.05	16.05
Blink L	1	2	28154488180	28154627418	139238
Blink R	1	2	28154488180	28154627418	139238
Fixation L	1	6	28154627418	28154846159	218741	1018.50	323.83	11	31	-1	15.32	15.32
Fixation R	1	6	28154627418	28154846159	218741	1018.50	323.83	11	31	-1	15.85	15.85
