[BeGaze]
Converted from:	C:\Documents and Settings\iViewX\Desktop\EXPERIMENTATIONS\Experiments\results\finaleart\S13H22431-finaleart-1.idf
Date:	27.03.2019 15:42:21
Version:	BeGaze 2.5.77
Sample Rate:	50
Subject:	S13H22431
Description:	Jimmy Petit

Table Header for Fixations:
Event Type	Trial	Number	Start	End	Duration	Location X	Location Y	Dispersion X	Dispersion Y	Plane	Avg. Pupil Size X	Avg. Pupil Size Y

Table Header for Saccades:
Event Type	Trial	Number	Start	End	Duration	Start Loc.X	Start Loc.Y	End Loc.X	End Loc.Y	Amplitude	Peak Speed	Peak Speed At	Average Speed	Peak Accel.	Peak Decel.	Average Accel.

Table Header for Blinks:
Event Type	Trial	Number	Start	End	Duration

Table Header for User Events:
Event Type	Trial	Number	Start	Description

UserEvent	1	1	28244534705	# Message: void.jpg
Saccade L	1	1	28244550644	28244630147	79503	335.71	1014.05	1226.91	1033.24	12.15	358.13	0.50	152.83	8953.18	-8010.89	5576.78
Saccade R	1	1	28244550644	28244630147	79503	335.71	1014.05	1226.91	1033.24	12.15	358.13	0.50	152.83	8953.18	-8010.89	5576.78
Fixation L	1	1	28244630147	28244789267	159120	1252.37	1051.52	34	27	-1	14.21	14.21
Fixation R	1	1	28244630147	28244789267	159120	1252.37	1051.52	34	27	-1	14.88	14.88
Saccade L	1	2	28244789267	28244809122	19855	1261.66	1060.51	1374.31	1064.16	0.70	114.00	1.00	35.41	2804.63	-2544.97	1951.76
Saccade R	1	2	28244789267	28244809122	19855	1261.66	1060.51	1374.31	1064.16	0.70	114.00	1.00	35.41	2804.63	-2544.97	1951.76
Fixation L	1	2	28244809122	28244968244	159122	1351.86	1072.51	30	23	-1	14.12	14.12
Fixation R	1	2	28244809122	28244968244	159122	1351.86	1072.51	30	23	-1	14.71	14.71
Saccade L	1	3	28244968244	28245485469	517225	1352.02	1055.09	1384.73	-59.65	83.01	1428.54	0.27	160.50	28454.30	-34724.05	4529.00
Saccade R	1	3	28244968244	28245485469	517225	1352.02	1055.09	1384.73	-59.65	83.01	1428.54	0.27	160.50	28454.30	-34724.05	4529.00
Blink L	1	1	28245485469	28245644591	159122
Blink R	1	1	28245485469	28245644591	159122
Fixation L	1	3	28245644591	28245922954	278363	494.05	120.44	23	18	-1	14.73	14.73
Fixation R	1	3	28245644591	28245922954	278363	494.05	120.44	23	18	-1	14.75	14.75
Saccade L	1	4	28245922954	28245962830	39876	501.14	122.95	755.44	219.89	2.62	198.28	0.50	65.74	4949.12	-3821.12	3145.48
Saccade R	1	4	28245922954	28245962830	39876	501.14	122.95	755.44	219.89	2.62	198.28	0.50	65.74	4949.12	-3821.12	3145.48
Fixation L	1	4	28245962830	28246241313	278483	732.85	237.73	51	24	-1	14.67	14.67
Fixation R	1	4	28245962830	28246241313	278483	732.85	237.73	51	24	-1	15.13	15.13
Saccade L	1	5	28246241313	28246281062	39749	750.86	244.14	901.26	424.06	2.24	167.00	0.50	56.33	4057.26	-4002.69	3111.91
Saccade R	1	5	28246241313	28246281062	39749	750.86	244.14	901.26	424.06	2.24	167.00	0.50	56.33	4057.26	-4002.69	3111.91
Fixation L	1	5	28246281062	28246519679	238617	911.08	405.67	22	46	-1	15.04	15.04
Fixation R	1	5	28246281062	28246519679	238617	911.08	405.67	22	46	-1	15.80	15.80
