[BeGaze]
Converted from:	C:\Documents and Settings\iViewX\Desktop\EXPERIMENTATIONS\Experiments\results\finaleart\S13H22431-finaleart-1.idf
Date:	27.03.2019 15:42:39
Version:	BeGaze 2.5.77
Sample Rate:	50
Subject:	S13H22431
Description:	Jimmy Petit

Table Header for Fixations:
Event Type	Trial	Number	Start	End	Duration	Location X	Location Y	Dispersion X	Dispersion Y	Plane	Avg. Pupil Size X	Avg. Pupil Size Y

Table Header for Saccades:
Event Type	Trial	Number	Start	End	Duration	Start Loc.X	Start Loc.Y	End Loc.X	End Loc.Y	Amplitude	Peak Speed	Peak Speed At	Average Speed	Peak Accel.	Peak Decel.	Average Accel.

Table Header for Blinks:
Event Type	Trial	Number	Start	End	Duration

Table Header for User Events:
Event Type	Trial	Number	Start	Description

UserEvent	1	1	28459130459	# Message: resting-bacchante_sorolla_1887.jpg
Fixation L	1	1	28459144939	28459542664	397725	588.39	980.52	8	15	-1	16.84	16.84
Fixation R	1	1	28459144939	28459542664	397725	588.39	980.52	8	15	-1	18.25	18.25
Saccade L	1	1	28459542664	28459582558	39894	593.05	978.13	817.09	704.59	3.15	293.14	0.50	78.90	7215.55	-6948.57	4219.85
Saccade R	1	1	28459542664	28459582558	39894	593.05	978.13	817.09	704.59	3.15	293.14	0.50	78.90	7215.55	-6948.57	4219.85
Fixation L	1	2	28459582558	28459721785	139227	823.42	707.83	27	19	-1	16.37	16.37
Fixation R	1	2	28459582558	28459721785	139227	823.42	707.83	27	19	-1	17.53	17.53
Saccade L	1	2	28459721785	28459761535	39750	829.43	711.93	423.45	525.13	4.22	275.09	1.00	106.14	6773.62	-6749.37	5468.68
Saccade R	1	2	28459721785	28459761535	39750	829.43	711.93	423.45	525.13	4.22	275.09	1.00	106.14	6773.62	-6749.37	5468.68
Fixation L	1	3	28459761535	28460099643	338108	398.63	478.97	32	60	-1	13.21	13.21
Fixation R	1	3	28459761535	28460099643	338108	398.63	478.97	32	60	-1	14.21	14.21
Saccade L	1	3	28460099643	28460159267	59624	405.26	487.89	651.37	653.89	3.23	123.18	0.67	54.17	2966.27	-2856.12	2190.18
Saccade R	1	3	28460099643	28460159267	59624	405.26	487.89	651.37	653.89	3.23	123.18	0.67	54.17	2966.27	-2856.12	2190.18
Fixation L	1	4	28460159267	28460358260	198993	651.62	644.16	12	22	-1	13.25	13.25
Fixation R	1	4	28460159267	28460358260	198993	651.62	644.16	12	22	-1	14.16	14.16
Saccade L	1	4	28460358260	28460378140	19880	654.41	635.23	545.45	636.29	0.80	110.22	1.00	40.09	2540.02	-2596.89	1930.72
Saccade R	1	4	28460358260	28460378140	19880	654.41	635.23	545.45	636.29	0.80	110.22	1.00	40.09	2540.02	-2596.89	1930.72
Fixation L	1	5	28460378140	28460636624	258484	509.27	621.42	59	39	-1	14.27	14.27
Fixation R	1	5	28460378140	28460636624	258484	509.27	621.42	59	39	-1	15.30	15.30
Saccade L	1	5	28460636624	28460656627	20003	485.70	648.03	492.60	654.36	0.22	20.19	0.00	10.76	32.10	-374.92	171.05
Saccade R	1	5	28460636624	28460656627	20003	485.70	648.03	492.60	654.36	0.22	20.19	0.00	10.76	32.10	-374.92	171.05
Fixation L	1	6	28460656627	28460855495	198868	484.67	656.02	12	13	-1	14.73	14.73
Fixation R	1	6	28460656627	28460855495	198868	484.67	656.02	12	13	-1	15.93	15.93
Saccade L	1	6	28460855495	28460875371	19876	488.45	659.60	606.41	655.83	0.88	119.37	1.00	44.43	2952.27	-2557.03	2227.32
Saccade R	1	6	28460855495	28460875371	19876	488.45	659.60	606.41	655.83	0.88	119.37	1.00	44.43	2952.27	-2557.03	2227.32
Fixation L	1	7	28460875371	28461034504	159133	646.55	651.97	51	12	-1	14.86	14.86
Fixation R	1	7	28460875371	28461034504	159133	646.55	651.97	51	12	-1	15.84	15.84
Saccade L	1	7	28461034504	28461054356	19852	653.96	644.53	767.39	646.00	0.65	114.73	1.00	32.55	2705.69	-2731.24	1871.79
Saccade R	1	7	28461034504	28461054356	19852	653.96	644.53	767.39	646.00	0.65	114.73	1.00	32.55	2705.69	-2731.24	1871.79
Fixation L	1	8	28461054356	28461352712	298356	778.80	656.64	15	22	-1	14.65	14.65
Fixation R	1	8	28461054356	28461352712	298356	778.80	656.64	15	22	-1	14.53	14.53
Blink L	1	1	28461352712	28461491956	139244
Blink R	1	1	28461352712	28461491956	139244
Fixation L	1	9	28461491956	28461730710	238754	775.03	669.82	8	14	-1	15.63	15.63
Fixation R	1	9	28461491956	28461730710	238754	775.03	669.82	8	14	-1	16.24	16.24
Saccade L	1	8	28461730710	28461770446	39736	772.88	676.34	1103.89	694.24	3.01	181.25	0.50	75.73	4518.03	-3622.98	3864.09
Saccade R	1	8	28461730710	28461770446	39736	772.88	676.34	1103.89	694.24	3.01	181.25	0.50	75.73	4518.03	-3622.98	3864.09
Fixation L	1	10	28461770446	28461969316	198870	1138.93	697.11	69	26	-1	15.61	15.61
Fixation R	1	10	28461770446	28461969316	198870	1138.93	697.11	69	26	-1	16.06	16.06
Saccade L	1	9	28461969316	28462009078	39762	1173.08	705.22	1518.79	699.70	3.17	234.12	0.50	79.63	5790.06	-5466.46	4022.09
Saccade R	1	9	28461969316	28462009078	39762	1173.08	705.22	1518.79	699.70	3.17	234.12	0.50	79.63	5790.06	-5466.46	4022.09
Fixation L	1	11	28462009078	28462267677	258599	1494.44	714.72	34	22	-1	15.29	15.29
Fixation R	1	11	28462009078	28462267677	258599	1494.44	714.72	34	22	-1	15.33	15.33
Saccade L	1	10	28462267677	28462287552	19875	1488.32	720.26	1588.88	712.61	0.57	102.02	1.00	28.51	2439.14	-2401.21	1625.59
Saccade R	1	10	28462267677	28462287552	19875	1488.32	720.26	1588.88	712.61	0.57	102.02	1.00	28.51	2439.14	-2401.21	1625.59
Fixation L	1	12	28462287552	28462486421	198869	1577.14	711.27	18	6	-1	15.27	15.27
Fixation R	1	12	28462287552	28462486421	198869	1577.14	711.27	18	6	-1	15.40	15.40
Saccade L	1	11	28462486421	28462566036	79615	1572.13	709.14	539.87	480.93	12.77	383.20	0.25	160.40	9569.25	-5043.84	5604.29
Saccade R	1	11	28462486421	28462566036	79615	1572.13	709.14	539.87	480.93	12.77	383.20	0.25	160.40	9569.25	-5043.84	5604.29
Fixation L	1	13	28462566036	28462725157	159121	555.61	509.58	25	43	-1	15.65	15.65
Fixation R	1	13	28462566036	28462725157	159121	555.61	509.58	25	43	-1	16.31	16.31
Saccade L	1	12	28462725157	28462764912	39755	564.15	515.83	383.05	431.82	1.94	143.35	0.50	48.85	3483.95	-3176.14	2532.94
Saccade R	1	12	28462725157	28462764912	39755	564.15	515.83	383.05	431.82	1.94	143.35	0.50	48.85	3483.95	-3176.14	2532.94
Fixation L	1	14	28462764912	28463122888	357976	383.72	448.14	27	25	-1	15.21	15.21
Fixation R	1	14	28462764912	28463122888	357976	383.72	448.14	27	25	-1	15.90	15.90
