[BeGaze]
Converted from:	C:\Documents and Settings\iViewX\Desktop\EXPERIMENTATIONS\Experiments\results\finaleart\S13H22431-finaleart-1.idf
Date:	27.03.2019 15:41:40
Version:	BeGaze 2.5.77
Sample Rate:	50
Subject:	S13H22431
Description:	Jimmy Petit

Table Header for Fixations:
Event Type	Trial	Number	Start	End	Duration	Location X	Location Y	Dispersion X	Dispersion Y	Plane	Avg. Pupil Size X	Avg. Pupil Size Y

Table Header for Saccades:
Event Type	Trial	Number	Start	End	Duration	Start Loc.X	Start Loc.Y	End Loc.X	End Loc.Y	Amplitude	Peak Speed	Peak Speed At	Average Speed	Peak Accel.	Peak Decel.	Average Accel.

Table Header for Blinks:
Event Type	Trial	Number	Start	End	Duration

Table Header for User Events:
Event Type	Trial	Number	Start	Description

UserEvent	1	1	27493484453	# Message: kneeling-nude_degas_1888.jpg
Saccade L	1	1	27493499411	27493618961	119550	913.51	293.35	1155.67	485.28	5.66	174.03	0.83	47.33	4163.81	-3334.01	1634.41
Saccade R	1	1	27493499411	27493618961	119550	913.51	293.35	1155.67	485.28	5.66	174.03	0.83	47.33	4163.81	-3334.01	1634.41
Fixation L	1	1	27493618961	27493857542	238581	1147.56	507.40	14	38	-1	16.97	16.97
Fixation R	1	1	27493618961	27493857542	238581	1147.56	507.40	14	38	-1	17.19	17.19
Saccade L	1	2	27493857542	27493897276	39734	1140.75	505.34	812.69	416.97	3.08	251.52	0.50	77.41	6197.92	-5743.72	4212.62
Saccade R	1	2	27493857542	27493897276	39734	1140.75	505.34	812.69	416.97	3.08	251.52	0.50	77.41	6197.92	-5743.72	4212.62
Fixation L	1	2	27493897276	27494076253	178977	827.23	420.97	28	51	-1	15.44	15.44
Fixation R	1	2	27493897276	27494076253	178977	827.23	420.97	28	51	-1	15.68	15.68
Saccade L	1	3	27494076253	27494116001	39748	830.25	431.67	1158.03	692.53	3.61	282.84	0.50	90.81	6635.37	-6863.57	5040.67
Saccade R	1	3	27494076253	27494116001	39748	830.25	431.67	1158.03	692.53	3.61	282.84	0.50	90.81	6635.37	-6863.57	5040.67
Fixation L	1	3	27494116001	27494275125	159124	1170.68	696.24	19	12	-1	13.28	13.28
Fixation R	1	3	27494116001	27494275125	159124	1170.68	696.24	19	12	-1	13.40	13.40
Saccade L	1	4	27494275125	27494294998	19873	1177.68	697.13	1202.92	768.69	0.53	76.76	1.00	26.91	1889.43	-1539.90	1337.28
Saccade R	1	4	27494275125	27494294998	19873	1177.68	697.13	1202.92	768.69	0.53	76.76	1.00	26.91	1889.43	-1539.90	1337.28
Fixation L	1	4	27494294998	27494533737	238739	1228.66	794.86	40	49	-1	12.90	12.90
Fixation R	1	4	27494294998	27494533737	238739	1228.66	794.86	40	49	-1	12.94	12.94
Saccade L	1	5	27494533737	27494553608	19871	1230.55	818.02	1217.29	846.76	0.27	32.02	1.00	13.45	586.15	-426.01	352.75
Saccade R	1	5	27494533737	27494553608	19871	1230.55	818.02	1217.29	846.76	0.27	32.02	1.00	13.45	586.15	-426.01	352.75
Fixation L	1	5	27494553608	27494931468	377860	1216.68	849.02	17	12	-1	13.37	13.37
Fixation R	1	5	27494553608	27494931468	377860	1216.68	849.02	17	12	-1	13.30	13.30
Saccade L	1	6	27494931468	27494971344	39876	1211.10	848.11	1226.63	531.30	2.98	181.95	1.00	74.84	4492.33	-3916.30	3519.59
Saccade R	1	6	27494931468	27494971344	39876	1211.10	848.11	1226.63	531.30	2.98	181.95	1.00	74.84	4492.33	-3916.30	3519.59
Fixation L	1	6	27494971344	27495130469	159125	1237.66	478.44	19	71	-1	12.81	12.81
Fixation R	1	6	27494971344	27495130469	159125	1237.66	478.44	19	71	-1	12.93	12.93
Saccade L	1	7	27495130469	27495170220	39751	1245.77	466.21	1245.51	276.08	1.82	133.52	1.00	45.69	3300.81	-3149.85	2131.36
Saccade R	1	7	27495130469	27495170220	39751	1245.77	466.21	1245.51	276.08	1.82	133.52	1.00	45.69	3300.81	-3149.85	2131.36
Fixation L	1	7	27495170220	27495329326	159106	1233.68	260.46	25	28	-1	12.67	12.67
Fixation R	1	7	27495170220	27495329326	159106	1233.68	260.46	25	28	-1	12.48	12.48
Saccade L	1	8	27495329326	27495388946	59620	1219.59	257.99	799.56	196.66	4.44	214.51	0.67	74.47	5240.32	-5143.44	3706.70
Saccade R	1	8	27495329326	27495388946	59620	1219.59	257.99	799.56	196.66	4.44	214.51	0.67	74.47	5240.32	-5143.44	3706.70
Fixation L	1	8	27495388946	27495627691	238745	787.39	168.91	32	47	-1	12.66	12.66
Fixation R	1	8	27495388946	27495627691	238745	787.39	168.91	32	47	-1	12.63	12.63
Saccade L	1	9	27495627691	27495647561	19870	766.92	153.34	700.56	178.98	0.59	71.97	1.00	29.65	1732.95	-1394.77	1092.01
Saccade R	1	9	27495627691	27495647561	19870	766.92	153.34	700.56	178.98	0.59	71.97	1.00	29.65	1732.95	-1394.77	1092.01
Fixation L	1	9	27495647561	27495786808	139247	686.48	190.76	29	42	-1	12.82	12.82
Fixation R	1	9	27495647561	27495786808	139247	686.48	190.76	29	42	-1	12.77	12.77
Saccade L	1	10	27495786808	27495806683	19875	681.82	187.79	556.19	199.54	0.75	127.62	1.00	37.53	2963.32	-2895.64	2029.70
Saccade R	1	10	27495786808	27495806683	19875	681.82	187.79	556.19	199.54	0.75	127.62	1.00	37.53	2963.32	-2895.64	2029.70
Fixation L	1	10	27495806683	27496045419	238736	543.10	203.07	18	22	-1	13.40	13.40
Fixation R	1	10	27495806683	27496045419	238736	543.10	203.07	18	22	-1	13.68	13.68
Saccade L	1	11	27496045419	27496085169	39750	545.42	219.84	517.12	498.10	2.62	194.90	1.00	65.98	4736.68	-4750.02	3211.36
Saccade R	1	11	27496045419	27496085169	39750	545.42	219.84	517.12	498.10	2.62	194.90	1.00	65.98	4736.68	-4750.02	3211.36
Fixation L	1	11	27496085169	27496323804	238635	485.47	515.91	50	32	-1	14.61	14.61
Fixation R	1	11	27496085169	27496323804	238635	485.47	515.91	50	32	-1	14.77	14.77
Saccade L	1	12	27496323804	27496363669	39865	484.59	524.19	793.71	882.84	4.12	293.95	0.50	103.45	7068.49	-7124.42	5719.06
Saccade R	1	12	27496323804	27496363669	39865	484.59	524.19	793.71	882.84	4.12	293.95	0.50	103.45	7068.49	-7124.42	5719.06
Fixation L	1	12	27496363669	27496582398	218729	759.48	880.56	51	17	-1	14.53	14.53
Fixation R	1	12	27496363669	27496582398	218729	759.48	880.56	51	17	-1	14.98	14.98
Saccade L	1	13	27496582398	27496642027	59629	750.81	869.26	1207.53	866.72	4.81	174.36	0.67	80.69	4110.20	-4285.37	3332.00
Saccade R	1	13	27496582398	27496642027	59629	750.81	869.26	1207.53	866.72	4.81	174.36	0.67	80.69	4110.20	-4285.37	3332.00
Fixation L	1	13	27496642027	27496801151	159124	1211.95	866.49	51	6	-1	13.98	13.98
Fixation R	1	13	27496642027	27496801151	159124	1211.95	866.49	51	6	-1	14.09	14.09
Saccade L	1	14	27496801151	27496841009	39858	1256.53	869.10	1516.56	908.08	2.98	199.76	0.50	74.88	4973.48	-3671.45	2642.66
Saccade R	1	14	27496801151	27496841009	39858	1256.53	869.10	1516.56	908.08	2.98	199.76	0.50	74.88	4973.48	-3671.45	2642.66
Fixation L	1	14	27496841009	27497000126	159117	1508.23	945.76	25	52	-1	13.29	13.29
Fixation R	1	14	27496841009	27497000126	159117	1508.23	945.76	25	52	-1	13.33	13.33
Saccade L	1	15	27497000126	27497020011	19885	1492.83	937.08	1231.35	847.79	1.63	279.29	1.00	82.19	6898.54	-6850.05	4621.33
Saccade R	1	15	27497000126	27497020011	19885	1492.83	937.08	1231.35	847.79	1.63	279.29	1.00	82.19	6898.54	-6850.05	4621.33
Fixation L	1	15	27497020011	27497258618	238607	1237.99	813.92	28	52	-1	13.14	13.14
Fixation R	1	15	27497020011	27497258618	238607	1237.99	813.92	28	52	-1	12.95	12.95
Saccade L	1	16	27497258618	27497358111	99493	1257.08	795.59	1447.17	278.88	7.82	161.21	0.80	78.58	2780.75	-3542.10	1811.94
Saccade R	1	16	27497258618	27497358111	99493	1257.08	795.59	1447.17	278.88	7.82	161.21	0.80	78.58	2780.75	-3542.10	1811.94
Fixation L	1	16	27497358111	27497477482	119371	1433.15	301.98	29	54	-1	12.97	12.97
Fixation R	1	16	27497358111	27497477482	119371	1433.15	301.98	29	54	-1	13.00	13.00
