[BeGaze]
Converted from:	C:\Documents and Settings\iViewX\Desktop\EXPERIMENTATIONS\Experiments\results\finaleart\S13H22431-finaleart-1.idf
Date:	27.03.2019 15:41:24
Version:	BeGaze 2.5.77
Sample Rate:	50
Subject:	S13H22431
Description:	Jimmy Petit

Table Header for Fixations:
Event Type	Trial	Number	Start	End	Duration	Location X	Location Y	Dispersion X	Dispersion Y	Plane	Avg. Pupil Size X	Avg. Pupil Size Y

Table Header for Saccades:
Event Type	Trial	Number	Start	End	Duration	Start Loc.X	Start Loc.Y	End Loc.X	End Loc.Y	Amplitude	Peak Speed	Peak Speed At	Average Speed	Peak Accel.	Peak Decel.	Average Accel.

Table Header for Blinks:
Event Type	Trial	Number	Start	End	Duration

Table Header for User Events:
Event Type	Trial	Number	Start	Description

UserEvent	1	1	27279094153	# Message: les-deux-amies_marevna_0.jpg
Saccade L	1	1	27279104360	27279124355	19995	895.67	399.74	940.34	341.61	0.51	74.16	1.00	25.46	55.24	-1732.51	595.92
Saccade R	1	1	27279104360	27279124355	19995	895.67	399.74	940.34	341.61	0.51	74.16	1.00	25.46	55.24	-1732.51	595.92
Fixation L	1	1	27279124355	27279382837	258482	951.77	342.06	17	11	-1	14.95	14.95
Fixation R	1	1	27279124355	27279382837	258482	951.77	342.06	17	11	-1	16.72	16.72
Blink L	1	1	27279382837	27279601702	218865
Blink R	1	1	27279382837	27279601702	218865
Saccade L	1	2	27279601702	27279720951	119249	1157.49	464.13	1391.27	328.38	4.51	193.02	1.00	37.79	4684.24	-4699.30	1730.47
Saccade R	1	2	27279601702	27279720951	119249	1157.49	464.13	1391.27	328.38	4.51	193.02	1.00	37.79	4684.24	-4699.30	1730.47
Fixation L	1	2	27279720951	27279939816	218865	1394.34	319.05	18	14	-1	14.02	14.02
Fixation R	1	2	27279720951	27279939816	218865	1394.34	319.05	18	14	-1	15.98	15.98
Saccade L	1	3	27279939816	27279959696	19880	1383.00	321.05	1304.51	322.45	0.57	79.42	1.00	28.74	1837.56	-1868.66	1258.19
Saccade R	1	3	27279939816	27279959696	19880	1383.00	321.05	1304.51	322.45	0.57	79.42	1.00	28.74	1837.56	-1868.66	1258.19
Fixation L	1	3	27279959696	27280158553	198857	1289.83	328.42	19	11	-1	14.21	14.21
Fixation R	1	3	27279959696	27280158553	198857	1289.83	328.42	19	11	-1	15.58	15.58
Saccade L	1	4	27280158553	27280178428	19875	1288.97	323.77	1417.90	315.51	0.76	130.67	1.00	38.07	3237.48	-3254.69	2279.98
Saccade R	1	4	27280158553	27280178428	19875	1288.97	323.77	1417.90	315.51	0.76	130.67	1.00	38.07	3237.48	-3254.69	2279.98
Fixation L	1	4	27280178428	27280456921	278493	1426.75	332.08	16	43	-1	14.68	14.68
Fixation R	1	4	27280178428	27280456921	278493	1426.75	332.08	16	43	-1	16.02	16.02
Saccade L	1	5	27280456921	27280476792	19871	1432.25	359.41	1436.42	498.07	0.88	140.31	1.00	44.17	3462.85	-3207.98	2273.81
Saccade R	1	5	27280456921	27280476792	19871	1432.25	359.41	1436.42	498.07	0.88	140.31	1.00	44.17	3462.85	-3207.98	2273.81
Fixation L	1	5	27280476792	27280994017	517225	1453.20	517.24	27	69	-1	15.94	15.94
Fixation R	1	5	27280476792	27280994017	517225	1453.20	517.24	27	69	-1	17.43	17.43
Saccade L	1	6	27280994017	27281013893	19876	1463.85	555.32	1469.34	556.13	0.10	6.91	0.00	5.27	-17.62	-117.30	51.94
Saccade R	1	6	27280994017	27281013893	19876	1463.85	555.32	1469.34	556.13	0.10	6.91	0.00	5.27	-17.62	-117.30	51.94
Fixation L	1	6	27281013893	27281352006	338113	1446.41	559.33	48	25	-1	16.35	16.35
Fixation R	1	6	27281013893	27281352006	338113	1446.41	559.33	48	25	-1	17.78	17.78
Saccade L	1	7	27281352006	27281371880	19874	1427.28	547.81	1297.92	558.18	0.73	131.26	1.00	36.89	3036.06	-3193.08	2085.95
Saccade R	1	7	27281352006	27281371880	19874	1427.28	547.81	1297.92	558.18	0.73	131.26	1.00	36.89	3036.06	-3193.08	2085.95
Fixation L	1	7	27281371880	27281670246	298366	1289.69	576.21	37	30	-1	16.18	16.18
Fixation R	1	7	27281371880	27281670246	298366	1289.69	576.21	37	30	-1	17.54	17.54
Saccade L	1	8	27281670246	27281729888	59642	1266.78	586.20	845.65	675.04	4.58	244.59	0.67	76.84	5994.66	-5682.43	3267.90
Saccade R	1	8	27281670246	27281729888	59642	1266.78	586.20	845.65	675.04	4.58	244.59	0.67	76.84	5994.66	-5682.43	3267.90
Fixation L	1	8	27281729888	27281988487	258599	865.47	680.28	31	11	-1	15.79	15.79
Fixation R	1	8	27281729888	27281988487	258599	865.47	680.28	31	11	-1	17.46	17.46
Saccade L	1	9	27281988487	27282008352	19865	853.59	674.07	691.42	506.98	1.34	235.42	1.00	67.35	5783.08	-5381.79	3754.52
Saccade R	1	9	27281988487	27282008352	19865	853.59	674.07	691.42	506.98	1.34	235.42	1.00	67.35	5783.08	-5381.79	3754.52
Fixation L	1	9	27282008352	27282187343	178991	691.84	479.06	13	36	-1	14.75	14.75
Fixation R	1	9	27282008352	27282187343	178991	691.84	479.06	13	36	-1	16.80	16.80
Saccade L	1	10	27282187343	27282207221	19878	695.77	475.22	857.29	469.62	1.11	163.45	1.00	55.92	4006.94	-3901.86	3043.12
Saccade R	1	10	27282187343	27282207221	19878	695.77	475.22	857.29	469.62	1.11	163.45	1.00	55.92	4006.94	-3901.86	3043.12
Fixation L	1	10	27282207221	27282485712	278491	911.93	467.10	61	12	-1	14.63	14.63
Fixation R	1	10	27282207221	27282485712	278491	911.93	467.10	61	12	-1	16.88	16.88
Saccade L	1	11	27282485712	27282605074	119362	912.41	471.03	381.80	206.22	8.96	275.49	1.00	75.08	6371.26	-6596.58	3406.62
Saccade R	1	11	27282485712	27282605074	119362	912.41	471.03	381.80	206.22	8.96	275.49	1.00	75.08	6371.26	-6596.58	3406.62
Fixation L	1	11	27282605074	27283082432	477358	360.24	185.20	59	32	-1	15.03	15.03
Fixation R	1	11	27282605074	27283082432	477358	360.24	185.20	59	32	-1	16.44	16.44
