[BeGaze]
Converted from:	C:\Documents and Settings\iViewX\Desktop\EXPERIMENTATIONS\Experiments\results\finaleart\S13H22431-finaleart-1.idf
Date:	27.03.2019 15:41:16
Version:	BeGaze 2.5.77
Sample Rate:	50
Subject:	S13H22431
Description:	Jimmy Petit

Table Header for Fixations:
Event Type	Trial	Number	Start	End	Duration	Location X	Location Y	Dispersion X	Dispersion Y	Plane	Avg. Pupil Size X	Avg. Pupil Size Y

Table Header for Saccades:
Event Type	Trial	Number	Start	End	Duration	Start Loc.X	Start Loc.Y	End Loc.X	End Loc.Y	Amplitude	Peak Speed	Peak Speed At	Average Speed	Peak Accel.	Peak Decel.	Average Accel.

Table Header for Blinks:
Event Type	Trial	Number	Start	End	Duration

Table Header for User Events:
Event Type	Trial	Number	Start	Description

UserEvent	1	1	27197643318	# Message: void.jpg
Saccade L	1	1	27197654401	27197753893	99492	272.05	692.19	793.70	469.96	8.56	233.49	0.80	86.03	5697.02	-5286.74	2837.24
Saccade R	1	1	27197654401	27197753893	99492	272.05	692.19	793.70	469.96	8.56	233.49	0.80	86.03	5697.02	-5286.74	2837.24
Fixation L	1	1	27197753893	27197932882	178989	793.56	437.10	40	54	-1	15.95	15.95
Fixation R	1	1	27197753893	27197932882	178989	793.56	437.10	40	54	-1	16.12	16.12
Saccade L	1	2	27197932882	27197952749	19867	825.73	415.46	866.59	401.48	0.49	43.71	0.00	24.43	1032.13	-917.26	948.10
Saccade R	1	2	27197932882	27197952749	19867	825.73	415.46	866.59	401.48	0.49	43.71	0.00	24.43	1032.13	-917.26	948.10
Fixation L	1	2	27197952749	27198211378	258629	859.24	383.97	13	27	-1	15.85	15.85
Fixation R	1	2	27197952749	27198211378	258629	859.24	383.97	13	27	-1	16.03	16.03
Blink L	1	1	27198211378	27198330627	119249
Blink R	1	1	27198211378	27198330627	119249
Fixation L	1	3	27198330627	27198947218	616591	789.66	370.82	32	47	-1	18.40	18.40
Fixation R	1	3	27198330627	27198947218	616591	789.66	370.82	32	47	-1	17.82	17.82
Saccade L	1	3	27198947218	27198967207	19989	771.62	404.90	761.35	448.25	0.59	45.07	1.00	29.61	892.04	-797.84	672.92
Saccade R	1	3	27198947218	27198967207	19989	771.62	404.90	761.35	448.25	0.59	45.07	1.00	29.61	892.04	-797.84	672.92
Fixation L	1	4	27198967207	27199384819	417612	737.76	428.49	30	54	-1	18.80	18.80
Fixation R	1	4	27198967207	27199384819	417612	737.76	428.49	30	54	-1	18.71	18.71
Saccade L	1	4	27199384819	27199404687	19868	751.89	409.76	870.94	404.98	0.75	120.51	1.00	37.77	2955.06	-2929.38	2064.41
Saccade R	1	4	27199384819	27199404687	19868	751.89	409.76	870.94	404.98	0.75	120.51	1.00	37.77	2955.06	-2929.38	2064.41
Fixation L	1	5	27199404687	27199524064	119377	864.24	404.63	9	9	-1	19.07	19.07
Fixation R	1	5	27199404687	27199524064	119377	864.24	404.63	9	9	-1	18.82	18.82
Saccade L	1	5	27199524064	27199543936	19872	864.08	404.35	983.68	400.13	0.83	121.06	1.00	41.93	2950.71	-2952.34	2246.60
Saccade R	1	5	27199524064	27199543936	19872	864.08	404.35	983.68	400.13	0.83	121.06	1.00	41.93	2950.71	-2952.34	2246.60
Fixation L	1	6	27199543936	27199643432	99496	1010.63	383.30	33	25	-1	19.08	19.08
Fixation R	1	6	27199543936	27199643432	99496	1010.63	383.30	33	25	-1	18.96	18.96
