[BeGaze]
Converted from:	C:\Documents and Settings\iViewX\Desktop\EXPERIMENTATIONS\Experiments\results\finaleart\S13H22431-finaleart-1.idf
Date:	27.03.2019 15:41:38
Version:	BeGaze 2.5.77
Sample Rate:	50
Subject:	S13H22431
Description:	Jimmy Petit

Table Header for Fixations:
Event Type	Trial	Number	Start	End	Duration	Location X	Location Y	Dispersion X	Dispersion Y	Plane	Avg. Pupil Size X	Avg. Pupil Size Y

Table Header for Saccades:
Event Type	Trial	Number	Start	End	Duration	Start Loc.X	Start Loc.Y	End Loc.X	End Loc.Y	Amplitude	Peak Speed	Peak Speed At	Average Speed	Peak Accel.	Peak Decel.	Average Accel.

Table Header for Blinks:
Event Type	Trial	Number	Start	End	Duration

Table Header for User Events:
Event Type	Trial	Number	Start	Description

UserEvent	1	1	27473109737	# Message: void.jpg
Fixation L	1	1	27473112178	27473271510	159332	962.28	271.94	16	42	-1	11.72	11.72
Fixation R	1	1	27473112178	27473271510	159332	962.28	271.94	16	42	-1	12.01	12.01
Saccade L	1	1	27473271510	27473311032	39522	971.07	248.21	879.79	66.26	1.93	132.30	1.00	48.94	3151.50	-3135.22	2367.37
Saccade R	1	1	27473271510	27473311032	39522	971.07	248.21	879.79	66.26	1.93	132.30	1.00	48.94	3151.50	-3135.22	2367.37
Fixation L	1	2	27473311032	27473609392	298360	879.64	92.90	12	36	-1	11.24	11.24
Fixation R	1	2	27473311032	27473609392	298360	879.64	92.90	12	36	-1	11.56	11.56
Saccade L	1	2	27473609392	27473688889	79497	881.46	96.16	1570.95	-19.76	8.46	197.46	0.75	106.44	4762.07	-4505.58	3030.02
Saccade R	1	2	27473609392	27473688889	79497	881.46	96.16	1570.95	-19.76	8.46	197.46	0.75	106.44	4762.07	-4505.58	3030.02
Fixation L	1	3	27473688889	27473848029	159140	1551.68	-12.10	34	21	-1	11.13	11.13
Fixation R	1	3	27473688889	27473848029	159140	1551.68	-12.10	34	21	-1	11.45	11.45
Blink L	1	1	27473848029	27474066753	218724
Blink R	1	1	27473848029	27473927648	79619
Saccade R	1	3	27473927648	27474046878	119230	0.00	-1.19	815.73	24.84	47.45	1583.67	1.00	398.01	3103.34	-31619.87	6141.01
Fixation R	1	4	27474046878	27474225993	179115	819.20	31.12	7	28	-1	13.45	13.45
Fixation L	1	4	27474066753	27474225993	159240	819.59	31.82	7	28	-1	12.87	12.87
Saccade L	1	3	27474225993	27474265749	39756	814.93	33.94	613.79	266.20	2.93	196.48	1.00	73.59	4852.68	-4753.98	4221.25
Saccade R	1	4	27474225993	27474265749	39756	814.93	33.94	613.79	266.20	2.93	196.48	1.00	73.59	4852.68	-4753.98	4221.25
Fixation L	1	5	27474265749	27474484484	218735	602.84	264.12	17	38	-1	13.75	13.75
Fixation R	1	5	27474265749	27474484484	218735	602.84	264.12	17	38	-1	14.47	14.47
Saccade L	1	4	27474484484	27474524233	39749	606.12	291.80	671.98	470.88	1.95	127.31	1.00	49.15	2746.01	-3122.95	2088.52
Saccade R	1	5	27474484484	27474524233	39749	606.12	291.80	671.98	470.88	1.95	127.31	1.00	49.15	2746.01	-3122.95	2088.52
Fixation L	1	6	27474524233	27474802721	278488	684.19	460.90	24	34	-1	13.51	13.51
Fixation R	1	6	27474524233	27474802721	278488	684.19	460.90	24	34	-1	14.94	14.94
Saccade L	1	5	27474802721	27474822595	19874	686.92	449.40	740.27	477.73	0.43	61.11	1.00	21.84	1474.09	-666.60	846.77
Saccade R	1	6	27474802721	27474822595	19874	686.92	449.40	740.27	477.73	0.43	61.11	1.00	21.84	1474.09	-666.60	846.77
Fixation L	1	7	27474822595	27475001587	178992	758.11	486.08	48	28	-1	13.29	13.29
Fixation R	1	7	27474822595	27475001587	178992	758.11	486.08	48	28	-1	14.76	14.76
Saccade L	1	6	27475001587	27475101078	99491	767.58	497.53	912.58	568.10	2.91	107.44	0.40	29.23	2296.37	-2476.67	1156.11
Saccade R	1	7	27475001587	27475101078	99491	767.58	497.53	912.58	568.10	2.91	107.44	0.40	29.23	2296.37	-2476.67	1156.11
