[BeGaze]
Converted from:	C:\Documents and Settings\iViewX\Desktop\EXPERIMENTATIONS\Experiments\results\finaleart\S13H22431-finaleart-1.idf
Date:	27.03.2019 15:41:51
Version:	BeGaze 2.5.77
Sample Rate:	50
Subject:	S13H22431
Description:	Jimmy Petit

Table Header for Fixations:
Event Type	Trial	Number	Start	End	Duration	Location X	Location Y	Dispersion X	Dispersion Y	Plane	Avg. Pupil Size X	Avg. Pupil Size Y

Table Header for Saccades:
Event Type	Trial	Number	Start	End	Duration	Start Loc.X	Start Loc.Y	End Loc.X	End Loc.Y	Amplitude	Peak Speed	Peak Speed At	Average Speed	Peak Accel.	Peak Decel.	Average Accel.

Table Header for Blinks:
Event Type	Trial	Number	Start	End	Duration

Table Header for User Events:
Event Type	Trial	Number	Start	Description

UserEvent	1	1	27857590307	# Message: void.jpg
Fixation L	1	1	27857595211	27857774198	178987	891.90	336.80	11	12	-1	15.30	15.30
Fixation R	1	1	27857595211	27857774198	178987	891.90	336.80	11	12	-1	15.65	15.65
Saccade L	1	1	27857774198	27857794076	19878	896.53	341.76	944.05	425.21	0.57	97.14	1.00	28.63	2360.62	-2169.63	1511.11
Saccade R	1	1	27857774198	27857794076	19878	896.53	341.76	944.05	425.21	0.57	97.14	1.00	28.63	2360.62	-2169.63	1511.11
Fixation L	1	2	27857794076	27858569789	775713	954.51	393.48	19	65	-1	15.78	15.78
Fixation R	1	2	27857794076	27858569789	775713	954.51	393.48	19	65	-1	16.08	16.08
Saccade L	1	2	27858569789	27858669154	99365	943.27	379.17	764.05	504.74	16.75	458.46	0.20	168.57	11226.86	-8796.71	5969.30
Saccade R	1	2	27858569789	27858669154	99365	943.27	379.17	764.05	504.74	16.75	458.46	0.20	168.57	11226.86	-8796.71	5969.30
Fixation L	1	3	27858669154	27859146513	477359	754.77	490.71	18	76	-1	17.26	17.26
Fixation R	1	3	27858669154	27859146513	477359	754.77	490.71	18	76	-1	18.68	18.68
Saccade L	1	3	27859146513	27859166381	19868	751.22	505.76	748.37	510.47	0.15	16.96	1.00	7.73	296.10	-107.15	153.61
Saccade R	1	3	27859146513	27859166381	19868	751.22	505.76	748.37	510.47	0.15	16.96	1.00	7.73	296.10	-107.15	153.61
Fixation L	1	4	27859166381	27859584122	417741	737.72	505.60	30	43	-1	16.65	16.65
Fixation R	1	4	27859166381	27859584122	417741	737.72	505.60	30	43	-1	18.12	18.12
