[BeGaze]
Converted from:	C:\Documents and Settings\iViewX\Desktop\EXPERIMENTATIONS\Experiments\results\finaleart\S13H22431-finaleart-1.idf
Date:	27.03.2019 15:42:03
Version:	BeGaze 2.5.77
Sample Rate:	50
Subject:	S13H22431
Description:	Jimmy Petit

Table Header for Fixations:
Event Type	Trial	Number	Start	End	Duration	Location X	Location Y	Dispersion X	Dispersion Y	Plane	Avg. Pupil Size X	Avg. Pupil Size Y

Table Header for Saccades:
Event Type	Trial	Number	Start	End	Duration	Start Loc.X	Start Loc.Y	End Loc.X	End Loc.Y	Amplitude	Peak Speed	Peak Speed At	Average Speed	Peak Accel.	Peak Decel.	Average Accel.

Table Header for Blinks:
Event Type	Trial	Number	Start	End	Duration

Table Header for User Events:
Event Type	Trial	Number	Start	Description

UserEvent	1	1	28011907340	# Message: void.jpg
Fixation L	1	1	28011922385	28012101364	178979	2.07	0.01	5	0	-1	18.27	18.27
Fixation R	1	1	28011922385	28012101364	178979	2.07	0.01	5	0	-1	17.03	17.03
Fixation L	1	2	28012161114	28012479342	318228	299.34	681.71	50	34	-1	18.32	18.32
Fixation R	1	2	28012161114	28012479342	318228	299.34	681.71	50	34	-1	18.38	18.38
Blink L	1	1	28012479342	28012678219	198877
Blink R	1	1	28012479342	28012678219	198877
Fixation L	1	3	28012678219	28012797586	119367	858.06	112.95	16	18	-1	13.60	13.60
Fixation R	1	3	28012678219	28012797586	119367	858.06	112.95	16	18	-1	14.86	14.86
Saccade L	1	1	28012797586	28012857204	59618	857.23	123.70	1286.47	190.20	5.16	179.49	1.00	86.61	3495.26	-4369.97	2910.60
Saccade R	1	1	28012797586	28012857204	59618	857.23	123.70	1286.47	190.20	5.16	179.49	1.00	86.61	3495.26	-4369.97	2910.60
Fixation L	1	4	28012857204	28013095947	238743	1284.05	252.68	3	89	-1	14.42	14.42
Fixation R	1	4	28012857204	28013095947	238743	1284.05	252.68	3	89	-1	15.31	15.31
Saccade L	1	2	28013095947	28013135698	39751	1282.49	279.94	1161.05	576.94	2.93	181.20	0.50	73.81	4269.99	-4243.08	3897.95
Saccade R	1	2	28013095947	28013135698	39751	1282.49	279.94	1161.05	576.94	2.93	181.20	0.50	73.81	4269.99	-4243.08	3897.95
Fixation L	1	5	28013135698	28013274943	139245	1135.55	583.14	71	13	-1	15.68	15.68
Fixation R	1	5	28013135698	28013274943	139245	1135.55	583.14	71	13	-1	16.55	16.55
Saccade L	1	3	28013274943	28013314690	39747	1089.27	589.75	727.01	622.51	3.42	213.85	0.50	86.13	5307.43	-5006.03	4167.87
Saccade R	1	3	28013274943	28013314690	39747	1089.27	589.75	727.01	622.51	3.42	213.85	0.50	86.13	5307.43	-5006.03	4167.87
Fixation L	1	6	28013314690	28013772169	457479	742.29	647.50	24	68	-1	15.63	15.63
Fixation R	1	6	28013314690	28013772169	457479	742.29	647.50	24	68	-1	16.76	16.76
Saccade L	1	4	28013772169	28013792046	19877	751.08	598.79	754.49	549.84	0.58	54.21	0.00	29.02	1024.65	-1266.45	1027.40
Saccade R	1	4	28013772169	28013792046	19877	751.08	598.79	754.49	549.84	0.58	54.21	0.00	29.02	1024.65	-1266.45	1027.40
Fixation L	1	7	28013792046	28013891532	99486	758.33	534.52	7	26	-1	15.14	15.14
Fixation R	1	7	28013792046	28013891532	99486	758.33	534.52	7	26	-1	16.34	16.34
