[BeGaze]
Converted from:	C:\Documents and Settings\iViewX\Desktop\EXPERIMENTATIONS\Experiments\results\finaleart\S13H22431-finaleart-1.idf
Date:	27.03.2019 15:41:31
Version:	BeGaze 2.5.77
Sample Rate:	50
Subject:	S13H22431
Description:	Jimmy Petit

Table Header for Fixations:
Event Type	Trial	Number	Start	End	Duration	Location X	Location Y	Dispersion X	Dispersion Y	Plane	Avg. Pupil Size X	Avg. Pupil Size Y

Table Header for Saccades:
Event Type	Trial	Number	Start	End	Duration	Start Loc.X	Start Loc.Y	End Loc.X	End Loc.Y	Amplitude	Peak Speed	Peak Speed At	Average Speed	Peak Accel.	Peak Decel.	Average Accel.

Table Header for Blinks:
Event Type	Trial	Number	Start	End	Duration

Table Header for User Events:
Event Type	Trial	Number	Start	Description

UserEvent	1	1	27399714322	# Message: void.jpg
Fixation L	1	1	27399717642	27400214843	497201	759.55	365.03	13	33	-1	16.03	16.03
Fixation R	1	1	27399717642	27400214843	497201	759.55	365.03	13	33	-1	17.40	17.40
Saccade L	1	1	27400214843	27400314334	99491	762.31	379.54	1384.13	265.77	8.35	185.72	0.60	83.89	3742.19	-2777.08	2164.24
Saccade R	1	1	27400214843	27400314334	99491	762.31	379.54	1384.13	265.77	8.35	185.72	0.60	83.89	3742.19	-2777.08	2164.24
Fixation L	1	2	27400314334	27400572831	258497	1382.84	232.21	21	56	-1	13.55	13.55
Fixation R	1	2	27400314334	27400572831	258497	1382.84	232.21	21	56	-1	14.80	14.80
Blink L	1	1	27400572831	27400712062	139231
Blink R	1	1	27400572831	27400712062	139231
Fixation L	1	3	27400712062	27401129802	417740	1089.64	215.42	25	30	-1	15.19	15.19
Fixation R	1	3	27400712062	27401129802	417740	1089.64	215.42	25	30	-1	15.97	15.97
Saccade L	1	2	27401129802	27401169548	39746	1079.48	192.06	824.97	339.13	2.78	190.79	0.50	69.95	4656.88	-4321.90	3374.71
Saccade R	1	2	27401129802	27401169548	39746	1079.48	192.06	824.97	339.13	2.78	190.79	0.50	69.95	4656.88	-4321.90	3374.71
Fixation L	1	4	27401169548	27401567408	397860	854.81	354.42	39	53	-1	16.50	16.50
Fixation R	1	4	27401169548	27401567408	397860	854.81	354.42	39	53	-1	17.60	17.60
Saccade L	1	3	27401567408	27401587275	19867	851.68	372.41	804.32	456.31	0.77	97.46	1.00	38.64	2369.50	-1542.91	1676.38
Saccade R	1	3	27401567408	27401587275	19867	851.68	372.41	804.32	456.31	0.77	97.46	1.00	38.64	2369.50	-1542.91	1676.38
Fixation L	1	5	27401587275	27401706644	119369	790.99	482.18	27	48	-1	16.11	16.11
Fixation R	1	5	27401587275	27401706644	119369	790.99	482.18	27	48	-1	17.89	17.89
