[BeGaze]
Converted from:	C:\Documents and Settings\iViewX\Desktop\EXPERIMENTATIONS\Experiments\results\finaleart\S13H22431-finaleart-1.idf
Date:	27.03.2019 15:41:49
Version:	BeGaze 2.5.77
Sample Rate:	50
Subject:	S13H22431
Description:	Jimmy Petit

Table Header for Fixations:
Event Type	Trial	Number	Start	End	Duration	Location X	Location Y	Dispersion X	Dispersion Y	Plane	Avg. Pupil Size X	Avg. Pupil Size Y

Table Header for Saccades:
Event Type	Trial	Number	Start	End	Duration	Start Loc.X	Start Loc.Y	End Loc.X	End Loc.Y	Amplitude	Peak Speed	Peak Speed At	Average Speed	Peak Accel.	Peak Decel.	Average Accel.

Table Header for Blinks:
Event Type	Trial	Number	Start	End	Duration

Table Header for User Events:
Event Type	Trial	Number	Start	Description

UserEvent	1	1	27839274831	# Message: void.jpg
Fixation L	1	1	27839276384	27839435495	159111	1472.01	859.64	7	8	-1	14.74	14.74
Fixation R	1	1	27839276384	27839435495	159111	1472.01	859.64	7	8	-1	15.53	15.53
Saccade L	1	1	27839435495	27839475248	39753	1469.64	856.01	1118.57	885.60	3.17	220.95	1.00	79.76	5431.21	-5025.03	4065.22
Saccade R	1	1	27839435495	27839475248	39753	1469.64	856.01	1118.57	885.60	3.17	220.95	1.00	79.76	5431.21	-5025.03	4065.22
Fixation L	1	2	27839475248	27839753731	278483	1125.13	924.76	9	53	-1	15.24	15.24
Fixation R	1	2	27839475248	27839753731	278483	1125.13	924.76	9	53	-1	16.15	16.15
Saccade L	1	2	27839753731	27839813351	59620	1127.42	917.21	623.66	1036.89	5.32	220.89	0.67	89.23	5475.87	-5430.88	3868.19
Saccade R	1	2	27839753731	27839813351	59620	1127.42	917.21	623.66	1036.89	5.32	220.89	0.67	89.23	5475.87	-5430.88	3868.19
Fixation L	1	3	27839813351	27840012359	199008	629.12	1041.13	14	7	-1	15.17	15.17
Fixation R	1	3	27839813351	27840012359	199008	629.12	1041.13	14	7	-1	16.21	16.21
Saccade L	1	3	27840012359	27840052095	39736	636.68	1040.62	790.29	538.28	4.76	348.39	0.50	119.79	8631.74	-7236.60	6116.76
Saccade R	1	3	27840012359	27840052095	39736	636.68	1040.62	790.29	538.28	4.76	348.39	0.50	119.79	8631.74	-7236.60	6116.76
Fixation L	1	4	27840052095	27840310704	258609	810.49	492.12	26	72	-1	14.57	14.57
Fixation R	1	4	27840052095	27840310704	258609	810.49	492.12	26	72	-1	16.07	16.07
Saccade L	1	4	27840310704	27840390198	79494	805.86	492.01	1011.86	108.97	5.95	191.03	0.50	74.79	4748.59	-3525.67	2851.49
Saccade R	1	4	27840310704	27840390198	79494	805.86	492.01	1011.86	108.97	5.95	191.03	0.50	74.79	4748.59	-3525.67	2851.49
Fixation L	1	5	27840390198	27840628941	238743	1020.30	106.87	42	52	-1	14.11	14.11
Fixation R	1	5	27840390198	27840628941	238743	1020.30	106.87	42	52	-1	15.25	15.25
Saccade L	1	5	27840628941	27840648820	19879	999.70	83.12	973.31	97.76	0.46	33.67	1.00	23.12	394.97	-569.74	347.66
Saccade R	1	5	27840628941	27840648820	19879	999.70	83.12	973.31	97.76	0.46	33.67	1.00	23.12	394.97	-569.74	347.66
Fixation L	1	6	27840648820	27840847676	198856	964.32	78.35	55	24	-1	15.04	15.04
Fixation R	1	6	27840648820	27840847676	198856	964.32	78.35	55	24	-1	16.16	16.16
Saccade L	1	6	27840847676	27840867558	19882	919.19	74.98	755.14	77.43	1.35	165.93	1.00	67.79	4071.95	-3925.90	2669.37
Saccade R	1	6	27840847676	27840867558	19882	919.19	74.98	755.14	77.43	1.35	165.93	1.00	67.79	4071.95	-3925.90	2669.37
Fixation L	1	7	27840867558	27841146041	278483	709.10	85.71	64	28	-1	15.88	15.88
Fixation R	1	7	27840867558	27841146041	278483	709.10	85.71	64	28	-1	15.80	15.80
Saccade L	1	7	27841146041	27841265414	119373	690.87	63.71	643.28	124.30	22.59	697.05	0.17	189.22	17274.94	-15482.98	5152.29
Saccade R	1	7	27841146041	27841265414	119373	690.87	63.71	643.28	124.30	22.59	697.05	0.17	189.22	17274.94	-15482.98	5152.29
