[BeGaze]
Converted from:	C:\Documents and Settings\iViewX\Desktop\EXPERIMENTATIONS\Experiments\results\finaleart\S13H22431-finaleart-1.idf
Date:	27.03.2019 15:41:40
Version:	BeGaze 2.5.77
Sample Rate:	50
Subject:	S13H22431
Description:	Jimmy Petit

Table Header for Fixations:
Event Type	Trial	Number	Start	End	Duration	Location X	Location Y	Dispersion X	Dispersion Y	Plane	Avg. Pupil Size X	Avg. Pupil Size Y

Table Header for Saccades:
Event Type	Trial	Number	Start	End	Duration	Start Loc.X	Start Loc.Y	End Loc.X	End Loc.Y	Amplitude	Peak Speed	Peak Speed At	Average Speed	Peak Accel.	Peak Decel.	Average Accel.

Table Header for Blinks:
Event Type	Trial	Number	Start	End	Duration

Table Header for User Events:
Event Type	Trial	Number	Start	Description

UserEvent	1	1	27487362641	# Message: Nu_Couche_Vlaminck_1905.jpg
Fixation L	1	1	27487373305	27487512644	139339	1166.49	353.56	11	4	-1	15.66	15.66
Fixation R	1	1	27487373305	27487512644	139339	1166.49	353.56	11	4	-1	15.33	15.33
Saccade L	1	1	27487512644	27487572161	59517	1158.15	350.64	671.68	360.51	5.03	192.30	0.67	84.59	4644.46	-4723.26	3674.12
Saccade R	1	1	27487512644	27487572161	59517	1158.15	350.64	671.68	360.51	5.03	192.30	0.67	84.59	4644.46	-4723.26	3674.12
Fixation L	1	2	27487572161	27487810902	238741	669.99	396.70	12	61	-1	15.49	15.49
Fixation R	1	2	27487572161	27487810902	238741	669.99	396.70	12	61	-1	15.87	15.87
Saccade L	1	2	27487810902	27487830788	19886	667.66	421.52	703.60	478.53	0.49	68.17	1.00	24.49	1456.48	-817.75	872.20
Saccade R	1	2	27487810902	27487830788	19886	667.66	421.52	703.60	478.53	0.49	68.17	1.00	24.49	1456.48	-817.75	872.20
Fixation L	1	3	27487830788	27487989900	159112	700.11	450.71	28	45	-1	14.81	14.81
Fixation R	1	3	27487830788	27487989900	159112	700.11	450.71	28	45	-1	15.51	15.51
Saccade L	1	3	27487989900	27488029655	39755	699.68	440.12	577.43	390.26	1.64	123.07	0.50	41.15	2791.34	-2850.78	1471.52
Saccade R	1	3	27487989900	27488029655	39755	699.68	440.12	577.43	390.26	1.64	123.07	0.50	41.15	2791.34	-2850.78	1471.52
Fixation L	1	4	27488029655	27488467249	437594	560.99	363.56	27	70	-1	11.79	11.79
Fixation R	1	4	27488029655	27488467249	437594	560.99	363.56	27	70	-1	12.74	12.74
Saccade L	1	4	27488467249	27488487119	19870	552.22	392.14	539.46	392.78	0.14	12.93	1.00	7.18	280.84	-269.93	256.64
Saccade R	1	4	27488467249	27488487119	19870	552.22	392.14	539.46	392.78	0.14	12.93	1.00	7.18	280.84	-269.93	256.64
Fixation L	1	5	27488487119	27488705992	218873	543.94	390.40	24	5	-1	11.94	11.94
Fixation R	1	5	27488487119	27488705992	218873	543.94	390.40	24	5	-1	11.61	11.61
Blink L	1	1	27488705992	27488805362	99370
Blink R	1	1	27488705992	27488805362	99370
Saccade L	1	5	27488805362	27488865110	59748	530.59	385.03	827.97	490.59	4.40	271.03	1.00	73.61	6412.90	-6504.05	3058.51
Saccade R	1	5	27488805362	27488865110	59748	530.59	385.03	827.97	490.59	4.40	271.03	1.00	73.61	6412.90	-6504.05	3058.51
Fixation L	1	6	27488865110	27489063975	198865	837.47	521.07	24	44	-1	14.41	14.41
Fixation R	1	6	27488865110	27489063975	198865	837.47	521.07	24	44	-1	14.19	14.19
Saccade L	1	6	27489063975	27489083853	19878	819.09	504.80	589.15	325.87	1.81	294.48	1.00	91.05	7349.40	-6935.69	4891.81
Saccade R	1	6	27489063975	27489083853	19878	819.09	504.80	589.15	325.87	1.81	294.48	1.00	91.05	7349.40	-6935.69	4891.81
Fixation L	1	7	27489083853	27489441837	357984	553.46	294.76	44	47	-1	13.99	13.99
Fixation R	1	7	27489083853	27489441837	357984	553.46	294.76	44	47	-1	14.34	14.34
Saccade L	1	7	27489441837	27489461704	19867	572.49	317.74	631.16	371.86	0.74	80.74	1.00	37.40	1748.07	-1485.52	1252.06
Saccade R	1	7	27489441837	27489461704	19867	572.49	317.74	631.16	371.86	0.74	80.74	1.00	37.40	1748.07	-1485.52	1252.06
Fixation L	1	8	27489461704	27489819820	358116	642.65	394.01	49	49	-1	14.11	14.11
Fixation R	1	8	27489461704	27489819820	358116	642.65	394.01	49	49	-1	14.47	14.47
Saccade L	1	8	27489819820	27489839688	19868	666.79	406.04	669.66	407.45	0.11	13.85	1.00	5.63	1105.20	25.95	465.44
Saccade R	1	8	27489819820	27489839688	19868	666.79	406.04	669.66	407.45	0.11	13.85	1.00	5.63	1105.20	25.95	465.44
Fixation L	1	9	27489839688	27490177806	338118	610.03	423.13	71	28	-1	14.41	14.41
Fixation R	1	9	27489839688	27490177806	338118	610.03	423.13	71	28	-1	14.29	14.29
Saccade L	1	9	27490177806	27490197675	19869	604.57	436.30	605.72	438.70	0.08	6.67	1.00	4.18	184.27	-99.71	107.53
Saccade R	1	9	27490177806	27490197675	19869	604.57	436.30	605.72	438.70	0.08	6.67	1.00	4.18	184.27	-99.71	107.53
Fixation L	1	10	27490197675	27490297171	99496	596.90	410.93	28	70	-1	14.10	14.10
Fixation R	1	10	27490197675	27490297171	99496	596.90	410.93	28	70	-1	14.44	14.44
Saccade L	1	10	27490297171	27490317046	19875	581.84	373.68	568.01	361.93	0.30	33.46	1.00	15.09	-68.38	-377.59	271.29
Saccade R	1	10	27490297171	27490317046	19875	581.84	373.68	568.01	361.93	0.30	33.46	1.00	15.09	-68.38	-377.59	271.29
Fixation L	1	11	27490317046	27490476160	159114	562.79	358.58	14	12	-1	13.98	13.98
Fixation R	1	11	27490317046	27490476160	159114	562.79	358.58	14	12	-1	14.42	14.42
Saccade L	1	11	27490476160	27490615413	139253	562.23	357.11	1116.07	368.83	8.71	283.20	0.14	62.56	6994.71	-7044.00	3132.06
Saccade R	1	11	27490476160	27490615413	139253	562.23	357.11	1116.07	368.83	8.71	283.20	0.14	62.56	6994.71	-7044.00	3132.06
Fixation L	1	12	27490615413	27490893897	278484	1128.95	406.93	19	79	-1	14.37	14.37
Fixation R	1	12	27490615413	27490893897	278484	1128.95	406.93	19	79	-1	14.20	14.20
Saccade L	1	12	27490893897	27490913768	19871	1123.52	448.26	1118.40	454.59	0.08	8.24	1.00	3.99	99.90	-96.87	68.85
Saccade R	1	12	27490893897	27490913768	19871	1123.52	448.26	1118.40	454.59	0.08	8.24	1.00	3.99	99.90	-96.87	68.85
Fixation L	1	13	27490913768	27491192133	278365	1085.39	467.26	46	37	-1	14.57	14.57
Fixation R	1	13	27490913768	27491192133	278365	1085.39	467.26	46	37	-1	14.21	14.21
Saccade L	1	13	27491192133	27491232006	39873	1075.71	490.21	1226.18	664.35	2.21	125.70	1.00	55.52	2951.75	-3019.98	2868.77
Saccade R	1	13	27491192133	27491232006	39873	1075.71	490.21	1226.18	664.35	2.21	125.70	1.00	55.52	2951.75	-3019.98	2868.77
Fixation L	1	14	27491232006	27491351249	119243	1241.05	673.38	20	19	-1	14.40	14.40
Fixation R	1	14	27491232006	27491351249	119243	1241.05	673.38	20	19	-1	14.03	14.03
