[BeGaze]
Converted from:	C:\Documents and Settings\iViewX\Desktop\EXPERIMENTATIONS\Experiments\results\finaleart\S13H22431-finaleart-1.idf
Date:	27.03.2019 15:41:57
Version:	BeGaze 2.5.77
Sample Rate:	50
Subject:	S13H22431
Description:	Jimmy Petit

Table Header for Fixations:
Event Type	Trial	Number	Start	End	Duration	Location X	Location Y	Dispersion X	Dispersion Y	Plane	Avg. Pupil Size X	Avg. Pupil Size Y

Table Header for Saccades:
Event Type	Trial	Number	Start	End	Duration	Start Loc.X	Start Loc.Y	End Loc.X	End Loc.Y	Amplitude	Peak Speed	Peak Speed At	Average Speed	Peak Accel.	Peak Decel.	Average Accel.

Table Header for Blinks:
Event Type	Trial	Number	Start	End	Duration

Table Header for User Events:
Event Type	Trial	Number	Start	Description

UserEvent	1	1	27924761365	# Message: void.jpg
Saccade L	1	1	27924764056	27924783916	19860	977.44	298.51	973.85	420.67	0.85	123.61	1.00	42.74	115.10	-2923.56	1012.88
Saccade R	1	1	27924764056	27924783916	19860	977.44	298.51	973.85	420.67	0.85	123.61	1.00	42.74	115.10	-2923.56	1012.88
Fixation L	1	1	27924783916	27925042519	258603	987.83	409.85	33	63	-1	13.54	13.54
Fixation R	1	1	27924783916	27925042519	258603	987.83	409.85	33	63	-1	14.03	14.03
Saccade L	1	2	27925042519	27925062391	19872	1005.56	428.83	1009.27	428.39	0.14	11.05	1.00	6.95	464.00	-182.03	243.28
Saccade R	1	2	27925042519	27925062391	19872	1005.56	428.83	1009.27	428.39	0.14	11.05	1.00	6.95	464.00	-182.03	243.28
Fixation L	1	2	27925062391	27925221515	159124	1013.61	436.45	15	21	-1	13.90	13.90
Fixation R	1	2	27925062391	27925221515	159124	1013.61	436.45	15	21	-1	14.47	14.47
Blink L	1	1	27925221515	27925360776	139261
Blink R	1	1	27925221515	27925480122	258607
Fixation L	1	3	27925420379	27925539761	119382	1497.79	19.73	51	36	-1	27.91	27.91
Fixation R	1	3	27925480122	27925718740	238618	1486.24	43.42	38	42	-1	14.86	14.86
Fixation L	1	4	27925559629	27925718740	159111	1482.03	50.65	33	36	-1	13.87	13.87
Saccade L	1	3	27925718740	27925798361	79621	1466.06	59.37	575.12	143.59	11.00	289.01	0.25	138.20	7127.59	-4740.02	3828.53
Saccade R	1	3	27925718740	27925798361	79621	1466.06	59.37	575.12	143.59	11.00	289.01	0.25	138.20	7127.59	-4740.02	3828.53
Fixation L	1	5	27925798361	27926156350	357989	576.96	164.29	22	39	-1	14.15	14.15
Fixation R	1	4	27925798361	27926156350	357989	576.96	164.29	22	39	-1	15.72	15.72
Saccade L	1	4	27926156350	27926176220	19870	570.26	154.76	414.84	157.61	1.01	157.22	1.00	50.95	3840.47	-3508.59	2763.35
Saccade R	1	4	27926156350	27926176220	19870	570.26	154.76	414.84	157.61	1.01	157.22	1.00	50.95	3840.47	-3508.59	2763.35
Fixation L	1	6	27926176220	27926394961	218741	403.46	200.31	28	65	-1	14.72	14.72
Fixation R	1	5	27926176220	27926394961	218741	403.46	200.31	28	65	-1	16.21	16.21
Saccade L	1	5	27926394961	27926414965	20004	406.95	223.14	408.99	229.56	0.08	6.81	1.00	4.09	102.65	-73.97	63.66
Saccade R	1	5	27926394961	27926414965	20004	406.95	223.14	408.99	229.56	0.08	6.81	1.00	4.09	102.65	-73.97	63.66
Fixation L	1	7	27926414965	27926613825	198860	409.72	238.34	15	21	-1	14.85	14.85
Fixation R	1	6	27926414965	27926613825	198860	409.72	238.34	15	21	-1	16.60	16.60
Saccade L	1	6	27926613825	27926753075	139250	406.77	247.06	962.16	286.69	9.46	168.74	0.14	67.92	4101.81	-2914.24	1597.59
Saccade R	1	6	27926613825	27926753075	139250	406.77	247.06	962.16	286.69	9.46	168.74	0.14	67.92	4101.81	-2914.24	1597.59
