[BeGaze]
Converted from:	C:\Documents and Settings\iViewX\Desktop\EXPERIMENTATIONS\Experiments\results\finaleart\S13H22431-finaleart-1.idf
Date:	27.03.2019 15:42:15
Version:	BeGaze 2.5.77
Sample Rate:	50
Subject:	S13H22431
Description:	Jimmy Petit

Table Header for Fixations:
Event Type	Trial	Number	Start	End	Duration	Location X	Location Y	Dispersion X	Dispersion Y	Plane	Avg. Pupil Size X	Avg. Pupil Size Y

Table Header for Saccades:
Event Type	Trial	Number	Start	End	Duration	Start Loc.X	Start Loc.Y	End Loc.X	End Loc.Y	Amplitude	Peak Speed	Peak Speed At	Average Speed	Peak Accel.	Peak Decel.	Average Accel.

Table Header for Blinks:
Event Type	Trial	Number	Start	End	Duration

Table Header for User Events:
Event Type	Trial	Number	Start	Description

UserEvent	1	1	28179364364	# Message: still-life_matisse_0.jpg
Saccade L	1	1	28179370742	28179410498	39756	819.80	399.25	730.91	404.34	1.20	90.55	1.00	30.14	2263.68	-2191.47	1158.51
Saccade R	1	1	28179370742	28179410498	39756	819.80	399.25	730.91	404.34	1.20	90.55	1.00	30.14	2263.68	-2191.47	1158.51
Fixation L	1	1	28179410498	28179669081	258583	716.78	425.39	23	35	-1	16.39	16.39
Fixation R	1	1	28179410498	28179669081	258583	716.78	425.39	23	35	-1	17.10	17.10
Saccade L	1	2	28179669081	28179688951	19870	707.17	439.55	622.16	440.42	0.52	86.00	1.00	26.25	2082.50	-2117.36	1497.52
Saccade R	1	2	28179669081	28179688951	19870	707.17	439.55	622.16	440.42	0.52	86.00	1.00	26.25	2082.50	-2117.36	1497.52
Fixation L	1	2	28179688951	28179808324	119373	630.76	444.22	77	9	-1	16.14	16.14
Fixation R	1	2	28179688951	28179808324	119373	630.76	444.22	77	9	-1	17.10	17.10
Saccade L	1	3	28179808324	28179828199	19875	694.01	449.78	806.95	457.41	1.03	114.50	1.00	51.73	2727.06	-2710.94	2391.69
Saccade R	1	3	28179808324	28179828199	19875	694.01	449.78	806.95	457.41	1.03	114.50	1.00	51.73	2727.06	-2710.94	2391.69
Fixation L	1	3	28179828199	28180027064	198865	806.50	460.29	12	10	-1	15.95	15.95
Fixation R	1	3	28179828199	28180027064	198865	806.50	460.29	12	10	-1	16.76	16.76
Saccade L	1	4	28180027064	28180046933	19869	805.50	465.14	1031.73	542.15	1.38	241.60	1.00	69.20	6031.54	-5627.36	4149.20
Saccade R	1	4	28180027064	28180046933	19869	805.50	465.14	1031.73	542.15	1.38	241.60	1.00	69.20	6031.54	-5627.36	4149.20
Fixation L	1	4	28180046933	28180305555	258622	1077.76	560.97	64	25	-1	14.89	14.89
Fixation R	1	4	28180046933	28180305555	258622	1077.76	560.97	64	25	-1	16.07	16.07
Saccade L	1	5	28180305555	28180345302	39747	1080.54	564.15	1023.73	635.92	0.81	73.13	1.00	20.50	1786.69	-1553.93	1028.83
Saccade R	1	5	28180305555	28180345302	39747	1080.54	564.15	1023.73	635.92	0.81	73.13	1.00	20.50	1786.69	-1553.93	1028.83
Fixation L	1	5	28180345302	28180683413	338111	998.42	640.10	62	10	-1	14.94	14.94
Fixation R	1	5	28180345302	28180683413	338111	998.42	640.10	62	10	-1	15.64	15.64
Saccade L	1	6	28180683413	28180703283	19870	961.70	636.76	943.69	621.14	0.34	31.15	1.00	17.05	-53.81	-269.97	166.60
Saccade R	1	6	28180683413	28180703283	19870	961.70	636.76	943.69	621.14	0.34	31.15	1.00	17.05	-53.81	-269.97	166.60
Fixation L	1	6	28180703283	28180842531	139248	941.07	600.20	16	71	-1	14.19	14.19
Fixation R	1	6	28180703283	28180842531	139248	941.07	600.20	16	71	-1	14.91	14.91
Saccade L	1	7	28180842531	28180882281	39750	932.21	549.53	745.03	525.16	2.10	102.06	1.00	52.79	2105.71	-2527.83	2119.40
Saccade R	1	7	28180842531	28180882281	39750	932.21	549.53	745.03	525.16	2.10	102.06	1.00	52.79	2105.71	-2527.83	2119.40
Fixation L	1	7	28180882281	28181319889	437608	745.58	502.08	34	43	-1	13.55	13.55
Fixation R	1	7	28180882281	28181319889	437608	745.58	502.08	34	43	-1	14.48	14.48
Saccade L	1	8	28181319889	28181339759	19870	720.00	481.16	615.56	475.43	0.77	105.80	1.00	38.60	2209.86	-2337.52	1641.09
Saccade R	1	8	28181319889	28181339759	19870	720.00	481.16	615.56	475.43	0.77	105.80	1.00	38.60	2209.86	-2337.52	1641.09
Fixation L	1	8	28181339759	28181538754	198995	637.73	462.09	30	23	-1	13.58	13.58
Fixation R	1	8	28181339759	28181538754	198995	637.73	462.09	30	23	-1	14.64	14.64
Saccade L	1	9	28181538754	28181558622	19868	643.05	453.48	797.90	651.62	1.64	254.23	1.00	82.51	6310.15	-6074.42	4720.75
Saccade R	1	9	28181538754	28181558622	19868	643.05	453.48	797.90	651.62	1.64	254.23	1.00	82.51	6310.15	-6074.42	4720.75
Fixation L	1	9	28181558622	28182075729	517107	813.84	704.95	24	71	-1	14.83	14.83
Fixation R	1	9	28181558622	28182075729	517107	813.84	704.95	24	71	-1	15.95	15.95
Saccade L	1	10	28182075729	28182135353	59624	822.39	710.63	1190.70	489.28	5.27	174.79	0.33	88.32	4326.90	-3127.24	2690.35
Saccade R	1	10	28182075729	28182135353	59624	822.39	710.63	1190.70	489.28	5.27	174.79	0.33	88.32	4326.90	-3127.24	2690.35
Fixation L	1	10	28182135353	28182354216	218863	1208.57	445.10	28	66	-1	15.06	15.06
Fixation R	1	10	28182135353	28182354216	218863	1208.57	445.10	28	66	-1	15.58	15.58
Saccade L	1	11	28182354216	28182413837	59621	1215.84	449.89	1353.00	224.87	3.34	110.01	0.67	56.04	2224.47	-1968.99	1575.45
Saccade R	1	11	28182354216	28182413837	59621	1215.84	449.89	1353.00	224.87	3.34	110.01	0.67	56.04	2224.47	-1968.99	1575.45
Fixation L	1	11	28182413837	28182553082	139245	1337.29	266.86	28	62	-1	15.02	15.02
Fixation R	1	11	28182413837	28182553082	139245	1337.29	266.86	28	62	-1	15.60	15.60
Saccade L	1	12	28182553082	28182572956	19874	1327.48	287.82	1326.05	298.38	0.15	10.78	1.00	7.33	55.71	-184.79	86.36
Saccade R	1	12	28182553082	28182572956	19874	1327.48	287.82	1326.05	298.38	0.15	10.78	1.00	7.33	55.71	-184.79	86.36
Fixation L	1	12	28182572956	28182831572	258616	1332.03	293.22	13	10	-1	14.51	14.51
Fixation R	1	12	28182572956	28182831572	258616	1332.03	293.22	13	10	-1	14.98	14.98
Saccade L	1	13	28182831572	28182871338	39766	1339.15	290.32	1033.02	289.51	2.54	191.90	0.50	63.81	4759.75	-4706.24	3792.12
Saccade R	1	13	28182831572	28182871338	39766	1339.15	290.32	1033.02	289.51	2.54	191.90	0.50	63.81	4759.75	-4706.24	3792.12
Fixation L	1	13	28182871338	28183010560	139222	1030.63	284.46	11	11	-1	14.49	14.49
Fixation R	1	13	28182871338	28183010560	139222	1030.63	284.46	11	11	-1	14.18	14.18
Blink L	1	1	28183010560	28183129932	119372
Blink R	1	1	28183010560	28183149800	139240
Fixation L	1	14	28183129932	28183348676	218744	852.05	258.08	31	32	-1	15.00	15.00
Fixation R	1	14	28183149800	28183348676	198876	850.22	257.37	23	32	-1	15.18	15.18
