[BeGaze]
Converted from:	C:\Documents and Settings\iViewX\Desktop\EXPERIMENTATIONS\Experiments\results\finaleart\S13H22431-finaleart-1.idf
Date:	27.03.2019 15:41:16
Version:	BeGaze 2.5.77
Sample Rate:	50
Subject:	S13H22431
Description:	Jimmy Petit

Table Header for Fixations:
Event Type	Trial	Number	Start	End	Duration	Location X	Location Y	Dispersion X	Dispersion Y	Plane	Avg. Pupil Size X	Avg. Pupil Size Y

Table Header for Saccades:
Event Type	Trial	Number	Start	End	Duration	Start Loc.X	Start Loc.Y	End Loc.X	End Loc.Y	Amplitude	Peak Speed	Peak Speed At	Average Speed	Peak Accel.	Peak Decel.	Average Accel.

Table Header for Blinks:
Event Type	Trial	Number	Start	End	Duration

Table Header for User Events:
Event Type	Trial	Number	Start	Description

UserEvent	1	1	27199691748	# Message: Fleurs_et_fruits_camoin_1942.jpg
Fixation L	1	1	27199703067	27199842373	139306	1012.86	352.85	6	10	-1	18.95	18.95
Fixation R	1	1	27199703067	27199842373	139306	1012.86	352.85	6	10	-1	18.83	18.83
Saccade L	1	1	27199842373	27199862174	19801	1008.80	350.85	913.61	377.31	0.64	99.94	1.00	32.57	2471.81	-2291.96	1778.31
Saccade R	1	1	27199842373	27199862174	19801	1008.80	350.85	913.61	377.31	0.64	99.94	1.00	32.57	2471.81	-2291.96	1778.31
Fixation L	1	2	27199862174	27200120791	258617	886.22	393.37	39	27	-1	19.01	19.01
Fixation R	1	2	27199862174	27200120791	258617	886.22	393.37	39	27	-1	19.19	19.19
Saccade L	1	2	27200120791	27200140656	19865	906.90	404.74	933.14	530.11	1.01	129.55	1.00	50.88	3118.90	-2804.02	2174.21
Saccade R	1	2	27200120791	27200140656	19865	906.90	404.74	933.14	530.11	1.01	129.55	1.00	50.88	3118.90	-2804.02	2174.21
Fixation L	1	3	27200140656	27200279943	139287	948.79	496.44	23	45	-1	19.27	19.27
Fixation R	1	3	27200140656	27200279943	139287	948.79	496.44	23	45	-1	19.43	19.43
Saccade L	1	3	27200279943	27200319654	39711	952.39	493.66	623.04	497.00	2.97	185.16	0.50	74.68	4408.03	-4083.51	3861.63
Saccade R	1	3	27200279943	27200319654	39711	952.39	493.66	623.04	497.00	2.97	185.16	0.50	74.68	4408.03	-4083.51	3861.63
Fixation L	1	4	27200319654	27200618020	298366	652.58	505.78	73	21	-1	17.59	17.59
Fixation R	1	4	27200319654	27200618020	298366	652.58	505.78	73	21	-1	18.14	18.14
Saccade L	1	4	27200618020	27200637886	19866	696.35	511.55	868.27	638.87	1.56	216.31	1.00	78.51	5361.85	-4869.08	3507.38
Saccade R	1	4	27200618020	27200637886	19866	696.35	511.55	868.27	638.87	1.56	216.31	1.00	78.51	5361.85	-4869.08	3507.38
Fixation L	1	5	27200637886	27200976005	338119	905.92	660.81	50	27	-1	16.12	16.12
Fixation R	1	5	27200637886	27200976005	338119	905.92	660.81	50	27	-1	16.36	16.36
Saccade L	1	5	27200976005	27200995996	19991	914.00	645.02	1061.48	617.69	0.91	151.70	1.00	45.40	3738.04	-3145.57	2396.84
Saccade R	1	5	27200976005	27200995996	19991	914.00	645.02	1061.48	617.69	0.91	151.70	1.00	45.40	3738.04	-3145.57	2396.84
Fixation L	1	6	27200995996	27201115248	119252	1063.85	616.74	7	32	-1	15.47	15.47
Fixation R	1	6	27200995996	27201115248	119252	1063.85	616.74	7	32	-1	15.78	15.78
Saccade L	1	6	27201115248	27201155123	39875	1061.47	619.61	1215.86	448.48	2.03	158.44	0.50	50.86	3900.10	-3841.51	2891.88
Saccade R	1	6	27201115248	27201155123	39875	1061.47	619.61	1215.86	448.48	2.03	158.44	0.50	50.86	3900.10	-3841.51	2891.88
Fixation L	1	7	27201155123	27201552845	397722	1222.84	441.72	17	33	-1	14.99	14.99
Fixation R	1	7	27201155123	27201552845	397722	1222.84	441.72	17	33	-1	15.16	15.16
Saccade L	1	7	27201552845	27201592597	39752	1225.99	432.56	999.68	220.81	3.23	212.13	1.00	81.22	5049.54	-5117.97	3674.20
Saccade R	1	7	27201552845	27201592597	39752	1225.99	432.56	999.68	220.81	3.23	212.13	1.00	81.22	5049.54	-5117.97	3674.20
Fixation L	1	8	27201592597	27201851224	258627	963.97	175.16	45	53	-1	13.58	13.58
Fixation R	1	8	27201592597	27201851224	258627	963.97	175.16	45	53	-1	13.75	13.75
Saccade L	1	8	27201851224	27201871084	19860	953.82	171.41	950.04	170.67	0.08	5.95	0.00	4.09	18.30	-65.04	32.07
Saccade R	1	8	27201851224	27201871084	19860	953.82	171.41	950.04	170.67	0.08	5.95	0.00	4.09	18.30	-65.04	32.07
Fixation L	1	9	27201871084	27202388314	517230	955.90	192.94	38	57	-1	13.81	13.81
Fixation R	1	9	27201871084	27202388314	517230	955.90	192.94	38	57	-1	13.85	13.85
Saccade L	1	9	27202388314	27202487686	99372	979.29	176.69	971.68	423.90	3.44	133.68	1.00	34.64	3264.00	-3231.66	1771.38
Saccade R	1	9	27202388314	27202487686	99372	979.29	176.69	971.68	423.90	3.44	133.68	1.00	34.64	3264.00	-3231.66	1771.38
Fixation L	1	10	27202487686	27202706560	218874	971.21	420.34	15	20	-1	14.46	14.46
Fixation R	1	10	27202487686	27202706560	218874	971.21	420.34	15	20	-1	14.41	14.41
Saccade L	1	10	27202706560	27202726427	19867	971.03	426.30	1017.76	657.33	1.59	238.31	1.00	79.89	5745.68	-5632.60	4035.39
Saccade R	1	10	27202706560	27202726427	19867	971.03	426.30	1017.76	657.33	1.59	238.31	1.00	79.89	5745.68	-5632.60	4035.39
Fixation L	1	11	27202726427	27202865688	139261	1059.59	686.21	53	44	-1	14.98	14.98
Fixation R	1	11	27202726427	27202865688	139261	1059.59	686.21	53	44	-1	14.72	14.72
Saccade L	1	11	27202865688	27202885541	19853	1071.45	688.93	1073.32	684.96	0.09	4.61	1.00	4.45	78.89	-4.26	28.38
Saccade R	1	11	27202865688	27202885541	19853	1071.45	688.93	1073.32	684.96	0.09	4.61	1.00	4.45	78.89	-4.26	28.38
Fixation L	1	12	27202885541	27203223651	338110	1083.32	690.06	30	38	-1	14.44	14.44
Fixation R	1	12	27202885541	27203223651	338110	1083.32	690.06	30	38	-1	14.53	14.53
Saccade L	1	12	27203223651	27203263408	39757	1094.49	716.49	874.05	665.48	2.06	145.76	0.50	51.93	3428.92	-3509.27	2678.50
Saccade R	1	12	27203223651	27203263408	39757	1094.49	716.49	874.05	665.48	2.06	145.76	0.50	51.93	3428.92	-3509.27	2678.50
Fixation L	1	13	27203263408	27203442385	178977	875.73	659.36	8	29	-1	14.45	14.45
Fixation R	1	13	27203263408	27203442385	178977	875.73	659.36	8	29	-1	14.60	14.60
Saccade L	1	13	27203442385	27203462273	19888	880.66	675.81	801.34	650.30	0.58	84.28	1.00	29.19	2050.61	-1614.74	1349.20
Saccade R	1	13	27203442385	27203462273	19888	880.66	675.81	801.34	650.30	0.58	84.28	1.00	29.19	2050.61	-1614.74	1349.20
Fixation L	1	14	27203462273	27203601505	139232	779.96	644.70	37	11	-1	14.35	14.35
Fixation R	1	14	27203462273	27203601505	139232	779.96	644.70	37	11	-1	14.47	14.47
Saccade L	1	14	27203601505	27203681133	79628	775.09	638.32	659.72	480.94	3.62	168.20	0.25	45.44	4115.96	-3546.69	1643.23
Saccade R	1	14	27203601505	27203681133	79628	775.09	638.32	659.72	480.94	3.62	168.20	0.25	45.44	4115.96	-3546.69	1643.23
