[BeGaze]
Converted from:	C:\Documents and Settings\iViewX\Desktop\EXPERIMENTATIONS\Experiments\results\finaleart\S13H22431-finaleart-1.idf
Date:	27.03.2019 15:41:37
Version:	BeGaze 2.5.77
Sample Rate:	50
Subject:	S13H22431
Description:	Jimmy Petit

Table Header for Fixations:
Event Type	Trial	Number	Start	End	Duration	Location X	Location Y	Dispersion X	Dispersion Y	Plane	Avg. Pupil Size X	Avg. Pupil Size Y

Table Header for Saccades:
Event Type	Trial	Number	Start	End	Duration	Start Loc.X	Start Loc.Y	End Loc.X	End Loc.Y	Amplitude	Peak Speed	Peak Speed At	Average Speed	Peak Accel.	Peak Decel.	Average Accel.

Table Header for Blinks:
Event Type	Trial	Number	Start	End	Duration

Table Header for User Events:
Event Type	Trial	Number	Start	Description

UserEvent	1	1	27460876466	# Message: void.jpg
Fixation L	1	1	27460879707	27461138186	258479	1148.51	882.67	32	57	-1	12.05	12.05
Fixation R	1	1	27460879707	27461138186	258479	1148.51	882.67	32	57	-1	12.01	12.01
Saccade L	1	1	27461138186	27461178060	39874	1127.13	843.33	914.46	420.47	4.32	293.42	0.50	108.46	7184.07	-6743.40	5548.96
Saccade R	1	1	27461138186	27461178060	39874	1127.13	843.33	914.46	420.47	4.32	293.42	0.50	108.46	7184.07	-6743.40	5548.96
Fixation L	1	2	27461178060	27461337177	159117	902.57	424.14	16	63	-1	11.89	11.89
Fixation R	1	2	27461178060	27461337177	159117	902.57	424.14	16	63	-1	12.09	12.09
Saccade L	1	2	27461337177	27461536062	198885	899.89	433.68	1073.08	-81.44	11.24	201.69	0.10	56.50	4725.41	-2743.32	1411.47
Saccade R	1	2	27461337177	27461536062	198885	899.89	433.68	1073.08	-81.44	11.24	201.69	0.10	56.50	4725.41	-2743.32	1411.47
Fixation L	1	3	27461536062	27461774792	238730	1069.87	-75.05	8	82	-1	12.38	12.38
Fixation R	1	3	27461536062	27461774792	238730	1069.87	-75.05	8	82	-1	12.66	12.66
Saccade L	1	3	27461774792	27461913904	139112	1064.52	-71.71	491.57	353.69	10.56	207.89	0.86	75.93	5103.64	-4918.88	3712.93
Saccade R	1	3	27461774792	27461913904	139112	1064.52	-71.71	491.57	353.69	10.56	207.89	0.86	75.93	5103.64	-4918.88	3712.93
Fixation L	1	4	27461913904	27462192399	278495	494.30	346.85	16	21	-1	14.34	14.34
Fixation R	1	4	27461913904	27462192399	278495	494.30	346.85	16	21	-1	14.37	14.37
Saccade L	1	4	27462192399	27462232154	39755	499.33	359.52	340.40	435.39	1.95	102.56	1.00	49.03	2086.65	-2124.22	1755.19
Saccade R	1	4	27462192399	27462232154	39755	499.33	359.52	340.40	435.39	1.95	102.56	1.00	49.03	2086.65	-2124.22	1755.19
Fixation L	1	5	27462232154	27462530502	298348	335.57	480.04	25	61	-1	14.70	14.70
Fixation R	1	5	27462232154	27462530502	298348	335.57	480.04	25	61	-1	15.43	15.43
Saccade L	1	5	27462530502	27462610131	79629	336.59	496.70	978.19	340.12	7.92	200.13	0.75	99.52	4735.41	-4834.79	3204.35
Saccade R	1	5	27462530502	27462610131	79629	336.59	496.70	978.19	340.12	7.92	200.13	0.75	99.52	4735.41	-4834.79	3204.35
Fixation L	1	6	27462610131	27462769268	159137	961.32	335.22	27	16	-1	15.01	15.01
Fixation R	1	6	27462610131	27462769268	159137	961.32	335.22	27	16	-1	15.20	15.20
Saccade L	1	6	27462769268	27462868734	99466	953.84	332.13	561.85	452.62	6.39	220.34	0.40	64.21	5450.91	-5090.09	2591.66
Saccade R	1	6	27462769268	27462868734	99466	953.84	332.13	561.85	452.62	6.39	220.34	0.40	64.21	5450.91	-5090.09	2591.66
