[BeGaze]
Converted from:	C:\Documents and Settings\iViewX\Desktop\EXPERIMENTATIONS\Experiments\results\finaleart\S13H22431-finaleart-1.idf
Date:	27.03.2019 15:41:15
Version:	BeGaze 2.5.77
Sample Rate:	50
Subject:	S13H22431
Description:	Jimmy Petit

Table Header for Fixations:
Event Type	Trial	Number	Start	End	Duration	Location X	Location Y	Dispersion X	Dispersion Y	Plane	Avg. Pupil Size X	Avg. Pupil Size Y

Table Header for Saccades:
Event Type	Trial	Number	Start	End	Duration	Start Loc.X	Start Loc.Y	End Loc.X	End Loc.Y	Amplitude	Peak Speed	Peak Speed At	Average Speed	Peak Accel.	Peak Decel.	Average Accel.

Table Header for Blinks:
Event Type	Trial	Number	Start	End	Duration

Table Header for User Events:
Event Type	Trial	Number	Start	Description

UserEvent	1	1	27187486362	# Message: The_Luxembourg_Gardens_Matisse_1901.jpg
Fixation L	1	1	27187490602	27187928204	437602	979.80	498.31	51	38	-1	16.81	16.81
Fixation R	1	1	27187490602	27187928204	437602	979.80	498.31	51	38	-1	16.62	16.62
Saccade L	1	1	27187928204	27187948069	19865	986.19	506.73	838.01	516.93	1.06	150.22	1.00	53.36	3568.29	-3608.14	2676.70
Saccade R	1	1	27187928204	27187948069	19865	986.19	506.73	838.01	516.93	1.06	150.22	1.00	53.36	3568.29	-3608.14	2676.70
Fixation L	1	2	27187948069	27188206551	258482	789.37	494.83	60	36	-1	16.44	16.44
Fixation R	1	2	27187948069	27188206551	258482	789.37	494.83	60	36	-1	16.26	16.26
Saccade L	1	2	27188206551	27188266303	59752	777.05	480.59	771.40	679.75	2.25	184.43	1.00	37.69	4487.21	-4555.01	1978.88
Saccade R	1	2	27188206551	27188266303	59752	777.05	480.59	771.40	679.75	2.25	184.43	1.00	37.69	4487.21	-4555.01	1978.88
Fixation L	1	3	27188266303	27188524920	258617	772.28	670.00	54	23	-1	15.41	15.41
Fixation R	1	3	27188266303	27188524920	258617	772.28	670.00	54	23	-1	15.57	15.57
Saccade L	1	3	27188524920	27188544789	19869	818.80	656.22	835.43	481.70	1.36	177.30	1.00	68.33	4401.55	-4285.99	2915.36
Saccade R	1	3	27188524920	27188544789	19869	818.80	656.22	835.43	481.70	1.36	177.30	1.00	68.33	4401.55	-4285.99	2915.36
Fixation L	1	4	27188544789	27188743656	198867	852.28	447.90	39	50	-1	15.54	15.54
Fixation R	1	4	27188544789	27188743656	198867	852.28	447.90	39	50	-1	15.45	15.45
Saccade L	1	4	27188743656	27188763525	19869	875.27	431.22	892.11	426.68	0.33	27.33	0.00	16.85	81.87	-481.43	277.90
Saccade R	1	4	27188743656	27188763525	19869	875.27	431.22	892.11	426.68	0.33	27.33	0.00	16.85	81.87	-481.43	277.90
Fixation L	1	5	27188763525	27188962399	198874	909.55	426.71	26	15	-1	15.43	15.43
Fixation R	1	5	27188763525	27188962399	198874	909.55	426.71	26	15	-1	15.15	15.15
Saccade L	1	5	27188962399	27188982264	19865	918.06	422.58	983.96	424.96	0.37	66.70	1.00	18.50	1574.05	-1382.77	991.33
Saccade R	1	5	27188962399	27188982264	19865	918.06	422.58	983.96	424.96	0.37	66.70	1.00	18.50	1574.05	-1382.77	991.33
Fixation L	1	6	27188982264	27189201136	218872	981.23	406.27	15	35	-1	15.29	15.29
Fixation R	1	6	27188982264	27189201136	218872	981.23	406.27	15	35	-1	14.97	14.97
Saccade L	1	6	27189201136	27189221022	19886	982.46	389.74	1107.01	394.59	1.12	126.07	1.00	56.55	3089.07	-2968.49	2733.71
Saccade R	1	6	27189201136	27189221022	19886	982.46	389.74	1107.01	394.59	1.12	126.07	1.00	56.55	3089.07	-2968.49	2733.71
Fixation L	1	7	27189221022	27189360252	139230	1179.07	395.23	90	8	-1	15.91	15.91
Fixation R	1	7	27189221022	27189360252	139230	1179.07	395.23	90	8	-1	15.44	15.44
Saccade L	1	7	27189360252	27189459749	99497	1187.25	399.88	1338.45	337.34	2.59	146.42	1.00	25.99	3614.54	-3037.43	1065.82
Saccade R	1	7	27189360252	27189459749	99497	1187.25	399.88	1338.45	337.34	2.59	146.42	1.00	25.99	3614.54	-3037.43	1065.82
Fixation L	1	8	27189459749	27189678492	218743	1325.30	318.82	21	29	-1	16.63	16.63
Fixation R	1	8	27189459749	27189678492	218743	1325.30	318.82	21	29	-1	15.96	15.96
Saccade L	1	8	27189678492	27189698372	19880	1316.92	324.74	1316.88	493.97	0.94	171.15	1.00	47.24	4187.91	-3888.17	2692.10
Saccade R	1	8	27189678492	27189698372	19880	1316.92	324.74	1316.88	493.97	0.94	171.15	1.00	47.24	4187.91	-3888.17	2692.10
Fixation L	1	9	27189698372	27189996726	298354	1351.29	492.94	74	12	-1	17.34	17.34
Fixation R	1	9	27189698372	27189996726	298354	1351.29	492.94	74	12	-1	16.43	16.43
Saccade L	1	9	27189996726	27190016596	19870	1391.46	500.64	1395.17	510.29	0.28	28.62	1.00	14.07	325.50	-454.12	296.24
Saccade R	1	9	27189996726	27190016596	19870	1391.46	500.64	1395.17	510.29	0.28	28.62	1.00	14.07	325.50	-454.12	296.24
Fixation L	1	10	27190016596	27190175714	159118	1415.91	518.64	30	59	-1	17.68	17.68
Fixation R	1	10	27190016596	27190175714	159118	1415.91	518.64	30	59	-1	16.77	16.77
Saccade L	1	10	27190175714	27190195594	19880	1425.75	562.01	1424.28	576.41	0.36	37.85	1.00	17.99	-202.58	-580.28	346.25
Saccade R	1	10	27190175714	27190195594	19880	1425.75	562.01	1424.28	576.41	0.36	37.85	1.00	17.99	-202.58	-580.28	346.25
Fixation L	1	11	27190195594	27190354717	159123	1422.37	594.86	24	66	-1	17.69	17.69
Fixation R	1	11	27190195594	27190354717	159123	1422.37	594.86	24	66	-1	16.73	16.73
Saccade L	1	11	27190354717	27190374581	19864	1402.24	642.94	1236.98	796.34	1.42	227.98	1.00	71.68	5641.29	-5532.58	4129.68
Saccade R	1	11	27190354717	27190374581	19864	1402.24	642.94	1236.98	796.34	1.42	227.98	1.00	71.68	5641.29	-5532.58	4129.68
Fixation L	1	12	27190374581	27190573577	198996	1229.98	801.16	59	31	-1	17.54	17.54
Fixation R	1	12	27190374581	27190573577	198996	1229.98	801.16	59	31	-1	16.87	16.87
Saccade L	1	12	27190573577	27190593452	19875	1178.82	823.74	1083.97	820.74	0.86	96.00	1.00	43.49	2307.71	-2285.30	1977.43
Saccade R	1	12	27190573577	27190593452	19875	1178.82	823.74	1083.97	820.74	0.86	96.00	1.00	43.49	2307.71	-2285.30	1977.43
Fixation L	1	13	27190593452	27190752566	159114	1080.92	839.23	6	28	-1	17.25	17.25
Fixation R	1	13	27190593452	27190752566	159114	1080.92	839.23	6	28	-1	16.94	16.94
Saccade L	1	13	27190752566	27190792322	39756	1084.50	849.19	898.66	838.97	1.73	100.83	1.00	43.46	2410.24	-2009.46	2049.83
Saccade R	1	13	27190752566	27190792322	39756	1084.50	849.19	898.66	838.97	1.73	100.83	1.00	43.46	2410.24	-2009.46	2049.83
Fixation L	1	14	27190792322	27191150301	357979	915.70	793.09	22	74	-1	16.86	16.86
Fixation R	1	14	27190792322	27191150301	357979	915.70	793.09	22	74	-1	16.40	16.40
Saccade L	1	14	27191150301	27191229928	79627	903.49	764.47	756.48	763.77	2.27	70.71	0.75	28.54	1617.13	-1587.16	1143.33
Saccade R	1	14	27191150301	27191229928	79627	903.49	764.47	756.48	763.77	2.27	70.71	0.75	28.54	1617.13	-1587.16	1143.33
Fixation L	1	15	27191229928	27191468537	238609	739.51	772.15	28	25	-1	16.81	16.81
Fixation R	1	15	27191229928	27191468537	238609	739.51	772.15	28	25	-1	16.78	16.78
