[BeGaze]
Converted from:	C:\Documents and Settings\iViewX\Desktop\EXPERIMENTATIONS\Experiments\results\finaleart\S13H22431-finaleart-1.idf
Date:	27.03.2019 15:41:13
Version:	BeGaze 2.5.77
Sample Rate:	50
Subject:	S13H22431
Description:	Jimmy Petit

Table Header for Fixations:
Event Type	Trial	Number	Start	End	Duration	Location X	Location Y	Dispersion X	Dispersion Y	Plane	Avg. Pupil Size X	Avg. Pupil Size Y

Table Header for Saccades:
Event Type	Trial	Number	Start	End	Duration	Start Loc.X	Start Loc.Y	End Loc.X	End Loc.Y	Amplitude	Peak Speed	Peak Speed At	Average Speed	Peak Accel.	Peak Decel.	Average Accel.

Table Header for Blinks:
Event Type	Trial	Number	Start	End	Duration

Table Header for User Events:
Event Type	Trial	Number	Start	Description

UserEvent	1	1	27169177351	# Message: study_of_a_reclining_nude_Delacroix_1824.jpg
Fixation L	1	1	27169191769	27169330963	139194	1922.43	6.24	68	10	-1	15.95	15.95
Fixation R	1	1	27169191769	27169330963	139194	1922.43	6.24	68	10	-1	15.50	15.50
Saccade L	1	1	27169330963	27169390618	59655	1870.35	4.90	861.93	182.95	11.22	511.80	0.34	188.02	12739.11	-7866.05	7949.28
Saccade R	1	1	27169330963	27169390618	59655	1870.35	4.90	861.93	182.95	11.22	511.80	0.34	188.02	12739.11	-7866.05	7949.28
Fixation L	1	2	27169390618	27169569635	179017	869.09	166.81	13	33	-1	16.93	16.93
Fixation R	1	2	27169390618	27169569635	179017	869.09	166.81	13	33	-1	16.67	16.67
Saccade L	1	2	27169569635	27169609363	39728	863.05	149.81	889.88	440.78	2.53	158.57	1.00	63.62	3839.69	-3832.48	3527.57
Saccade R	1	2	27169569635	27169609363	39728	863.05	149.81	889.88	440.78	2.53	158.57	1.00	63.62	3839.69	-3832.48	3527.57
Fixation L	1	3	27169609363	27169728739	119376	903.13	420.85	48	33	-1	17.35	17.35
Fixation R	1	3	27169609363	27169728739	119376	903.13	420.85	48	33	-1	17.11	17.11
Saccade L	1	3	27169728739	27169768481	39742	938.03	414.21	1241.91	470.36	3.08	243.80	0.50	77.55	5603.54	-5975.13	3372.57
Saccade R	1	3	27169728739	27169768481	39742	938.03	414.21	1241.91	470.36	3.08	243.80	0.50	77.55	5603.54	-5975.13	3372.57
Fixation L	1	4	27169768481	27169967376	198895	1241.95	458.92	17	33	-1	17.34	17.34
Fixation R	1	4	27169768481	27169967376	198895	1241.95	458.92	17	33	-1	17.12	17.12
Saccade L	1	4	27169967376	27169987231	19855	1252.00	439.79	1287.89	351.65	0.70	96.27	1.00	35.34	2140.86	-2376.26	1620.29
Saccade R	1	4	27169967376	27169987231	19855	1252.00	439.79	1287.89	351.65	0.70	96.27	1.00	35.34	2140.86	-2376.26	1620.29
Fixation L	1	5	27169987231	27170245853	258622	1303.60	338.74	61	35	-1	16.23	16.23
Fixation R	1	5	27169987231	27170245853	258622	1303.60	338.74	61	35	-1	15.98	15.98
Saccade L	1	5	27170245853	27170265711	19858	1340.89	317.47	1345.60	310.34	0.29	27.47	0.00	14.48	-61.58	-419.14	190.35
Saccade R	1	5	27170245853	27170265711	19858	1340.89	317.47	1345.60	310.34	0.29	27.47	0.00	14.48	-61.58	-419.14	190.35
Fixation L	1	6	27170265711	27170564070	298359	1366.14	310.36	28	11	-1	16.10	16.10
Fixation R	1	6	27170265711	27170564070	298359	1366.14	310.36	28	11	-1	15.70	15.70
Saccade L	1	6	27170564070	27170603815	39745	1368.88	316.53	1085.79	522.64	3.33	328.05	0.50	83.86	8161.73	-6830.89	3928.02
Saccade R	1	6	27170564070	27170603815	39745	1368.88	316.53	1085.79	522.64	3.33	328.05	0.50	83.86	8161.73	-6830.89	3928.02
Fixation L	1	7	27170603815	27170762932	159117	1063.15	539.64	40	42	-1	17.49	17.49
Fixation R	1	7	27170603815	27170743066	139251	1065.38	538.88	36	42	-1	16.62	16.62
Blink R	1	1	27170743066	27170882309	139243
Saccade L	1	7	27170762932	27170862432	99500	1045.31	545.66	753.44	649.85	32.53	1244.79	0.40	326.97	30399.95	-29989.01	14814.88
Fixation L	1	8	27170862432	27170961931	99499	765.64	631.89	20	43	-1	18.07	18.07
Saccade R	1	7	27170882309	27170981805	99496	759.92	657.82	913.36	655.76	6.11	249.37	1.00	61.46	3378.44	-5386.70	1925.20
Saccade L	1	8	27170961931	27170981805	19874	773.87	620.25	913.36	655.76	0.92	145.58	1.00	46.20	3378.44	-3375.10	2408.63
Fixation L	1	9	27170981805	27171260302	278497	948.20	667.03	42	16	-1	18.54	18.54
Fixation R	1	8	27170981805	27171260302	278497	948.20	667.03	42	16	-1	18.82	18.82
Saccade L	1	9	27171260302	27171300045	39743	949.83	663.90	569.46	768.71	3.27	264.83	1.00	82.19	6582.58	-6438.35	4866.49
Saccade R	1	8	27171260302	27171300045	39743	949.83	663.90	569.46	768.71	3.27	264.83	1.00	82.19	6582.58	-6438.35	4866.49
Fixation L	1	10	27171300045	27171439280	139235	573.53	783.02	17	26	-1	18.53	18.53
Fixation R	1	9	27171300045	27171439280	139235	573.53	783.02	17	26	-1	19.41	19.41
Saccade L	1	10	27171439280	27171459159	19879	584.13	795.30	404.58	791.22	1.05	181.62	1.00	52.85	4512.37	-4423.72	3032.20
Saccade R	1	9	27171439280	27171459159	19879	584.13	795.30	404.58	791.22	1.05	181.62	1.00	52.85	4512.37	-4423.72	3032.20
Fixation L	1	11	27171459159	27171876883	417724	365.72	798.43	68	24	-1	17.95	17.95
Fixation R	1	10	27171459159	27171876883	417724	365.72	798.43	68	24	-1	18.66	18.66
Saccade L	1	11	27171876883	27171936513	59630	335.95	794.22	526.27	431.13	4.99	177.36	0.33	83.76	4354.16	-3651.69	3192.22
Saccade R	1	10	27171876883	27171936513	59630	335.95	794.22	526.27	431.13	4.99	177.36	0.33	83.76	4354.16	-3651.69	3192.22
Fixation L	1	12	27171936513	27172195132	258619	526.88	407.69	10	31	-1	17.19	17.19
Fixation R	1	11	27171936513	27172195132	258619	526.88	407.69	10	31	-1	18.07	18.07
Saccade L	1	12	27172195132	27172215001	19869	529.69	399.35	642.61	366.93	0.84	118.83	1.00	42.52	2876.93	-2808.03	2272.57
Saccade R	1	11	27172195132	27172215001	19869	529.69	399.35	642.61	366.93	0.84	118.83	1.00	42.52	2876.93	-2808.03	2272.57
Fixation L	1	13	27172215001	27172334388	119387	672.15	342.61	46	42	-1	17.70	17.70
Fixation R	1	12	27172215001	27172334388	119387	672.15	342.61	46	42	-1	18.20	18.20
Saccade L	1	13	27172334388	27172394015	59627	683.05	344.70	1145.47	372.64	4.81	327.68	0.67	80.67	8083.24	-8036.79	4261.38
Saccade R	1	12	27172334388	27172394015	59627	683.05	344.70	1145.47	372.64	4.81	327.68	0.67	80.67	8083.24	-8036.79	4261.38
Fixation L	1	14	27172394015	27172572984	178969	1157.10	361.96	47	19	-1	18.19	18.19
Fixation R	1	13	27172394015	27172572984	178969	1157.10	361.96	47	19	-1	18.55	18.55
Saccade L	1	14	27172572984	27172592855	19871	1192.56	359.88	1370.21	351.65	1.20	179.85	1.00	60.56	4429.48	-4188.66	3028.77
Saccade R	1	13	27172572984	27172592855	19871	1192.56	359.88	1370.21	351.65	1.20	179.85	1.00	60.56	4429.48	-4188.66	3028.77
Fixation L	1	15	27172592855	27173169707	576852	1384.45	339.01	40	27	-1	18.17	18.17
Fixation R	1	14	27172592855	27173169707	576852	1384.45	339.01	40	27	-1	18.13	18.13
