[BeGaze]
Converted from:	C:\Documents and Settings\iViewX\Desktop\EXPERIMENTATIONS\Experiments\results\finaleart\S13H22431-finaleart-1.idf
Date:	27.03.2019 15:42:42
Version:	BeGaze 2.5.77
Sample Rate:	50
Subject:	S13H22431
Description:	Jimmy Petit

Table Header for Fixations:
Event Type	Trial	Number	Start	End	Duration	Location X	Location Y	Dispersion X	Dispersion Y	Plane	Avg. Pupil Size X	Avg. Pupil Size Y

Table Header for Saccades:
Event Type	Trial	Number	Start	End	Duration	Start Loc.X	Start Loc.Y	End Loc.X	End Loc.Y	Amplitude	Peak Speed	Peak Speed At	Average Speed	Peak Accel.	Peak Decel.	Average Accel.

Table Header for Blinks:
Event Type	Trial	Number	Start	End	Duration

Table Header for User Events:
Event Type	Trial	Number	Start	Description

UserEvent	1	1	28493712244	# Message: void.jpg
Fixation L	1	1	28493713970	28493892933	178963	978.05	266.44	68	25	-1	13.66	13.66
Fixation R	1	1	28493713970	28493892933	178963	978.05	266.44	68	25	-1	13.38	13.38
Saccade L	1	1	28493892933	28493912802	19869	1033.79	285.13	1044.58	291.21	0.48	58.65	0.00	24.05	18.84	-1135.35	435.61
Saccade R	1	1	28493892933	28493912802	19869	1033.79	285.13	1044.58	291.21	0.48	58.65	0.00	24.05	18.84	-1135.35	435.61
Fixation L	1	2	28493912802	28494250915	338113	1058.26	297.51	40	31	-1	14.39	14.39
Fixation R	1	2	28493912802	28494250915	338113	1058.26	297.51	40	31	-1	14.24	14.24
Saccade L	1	2	28494250915	28494270794	19879	1085.52	320.62	1136.44	331.27	0.54	52.63	1.00	26.92	1034.35	-704.24	791.95
Saccade R	1	2	28494250915	28494270794	19879	1085.52	320.62	1136.44	331.27	0.54	52.63	1.00	26.92	1034.35	-704.24	791.95
Fixation L	1	3	28494270794	28494410025	139231	1126.69	360.57	21	53	-1	15.20	15.20
Fixation R	1	3	28494270794	28494410025	139231	1126.69	360.57	21	53	-1	15.23	15.23
Blink L	1	1	28494410025	28494589143	179118
Blink R	1	1	28494410025	28494589143	179118
Fixation L	1	4	28494589143	28495324996	735853	740.90	505.02	22	25	-1	15.38	15.38
Fixation R	1	4	28494589143	28495324996	735853	740.90	505.02	22	25	-1	16.24	16.24
Saccade L	1	3	28495324996	28495344871	19875	737.33	512.61	836.95	511.40	0.65	100.78	1.00	32.67	2508.75	-2271.18	1824.73
Saccade R	1	3	28495324996	28495344871	19875	737.33	512.61	836.95	511.40	0.65	100.78	1.00	32.67	2508.75	-2271.18	1824.73
Fixation L	1	5	28495344871	28495702974	358103	858.15	510.65	28	18	-1	15.48	15.48
Fixation R	1	5	28495344871	28495702974	358103	858.15	510.65	28	18	-1	16.35	16.35
