[BeGaze]
Converted from:	C:\Documents and Settings\iViewX\Desktop\EXPERIMENTATIONS\Experiments\results\finaleart\S13H22431-finaleart-1.idf
Date:	27.03.2019 15:42:39
Version:	BeGaze 2.5.77
Sample Rate:	50
Subject:	S13H22431
Description:	Jimmy Petit

Table Header for Fixations:
Event Type	Trial	Number	Start	End	Duration	Location X	Location Y	Dispersion X	Dispersion Y	Plane	Avg. Pupil Size X	Avg. Pupil Size Y

Table Header for Saccades:
Event Type	Trial	Number	Start	End	Duration	Start Loc.X	Start Loc.Y	End Loc.X	End Loc.Y	Amplitude	Peak Speed	Peak Speed At	Average Speed	Peak Accel.	Peak Decel.	Average Accel.

Table Header for Blinks:
Event Type	Trial	Number	Start	End	Duration

Table Header for User Events:
Event Type	Trial	Number	Start	Description

UserEvent	1	1	28457094949	# Message: void.jpg
Blink L	1	1	28457096279	28457215664	119385
Blink R	1	1	28457096279	28457215664	119385
Fixation L	1	1	28457215664	28457593511	377847	1169.78	360.82	24	51	-1	16.56	16.56
Fixation R	1	1	28457215664	28457593511	377847	1169.78	360.82	24	51	-1	16.57	16.57
Saccade L	1	1	28457593511	28457692999	99488	1156.22	377.14	640.41	1138.09	12.07	279.46	0.20	121.34	6857.52	-4741.10	3355.85
Saccade R	1	1	28457593511	28457692999	99488	1156.22	377.14	640.41	1138.09	12.07	279.46	0.20	121.34	6857.52	-4741.10	3355.85
Fixation L	1	2	28457692999	28457991364	298365	630.59	1128.24	20	14	-1	16.66	16.66
Fixation R	1	2	28457692999	28457991364	298365	630.59	1128.24	20	14	-1	16.93	16.93
Saccade L	1	2	28457991364	28458011261	19897	623.02	1132.73	632.75	1023.50	0.59	110.93	1.00	29.84	2736.41	-2506.10	1757.84
Saccade R	1	2	28457991364	28458011261	19897	623.02	1132.73	632.75	1023.50	0.59	110.93	1.00	29.84	2736.41	-2506.10	1757.84
Fixation L	1	3	28458011261	28458568086	556825	661.17	1023.05	38	11	-1	15.59	15.59
Fixation R	1	3	28458011261	28458568086	556825	661.17	1023.05	38	11	-1	16.76	16.76
Saccade L	1	3	28458568086	28458587956	19870	659.48	1015.93	601.91	975.53	0.42	71.15	1.00	21.22	1723.94	-1212.65	1013.04
Saccade R	1	3	28458568086	28458587956	19870	659.48	1015.93	601.91	975.53	0.42	71.15	1.00	21.22	1723.94	-1212.65	1013.04
Fixation L	1	4	28458587956	28459085312	497356	588.12	964.68	20	29	-1	16.13	16.13
Fixation R	1	4	28458587956	28459085312	497356	588.12	964.68	20	29	-1	17.40	17.40
