[BeGaze]
Converted from:	C:\Documents and Settings\iViewX\Desktop\EXPERIMENTATIONS\Experiments\results\finaleart\S13H22431-finaleart-1.idf
Date:	27.03.2019 15:41:16
Version:	BeGaze 2.5.77
Sample Rate:	50
Subject:	S13H22431
Description:	Jimmy Petit

Table Header for Fixations:
Event Type	Trial	Number	Start	End	Duration	Location X	Location Y	Dispersion X	Dispersion Y	Plane	Avg. Pupil Size X	Avg. Pupil Size Y

Table Header for Saccades:
Event Type	Trial	Number	Start	End	Duration	Start Loc.X	Start Loc.Y	End Loc.X	End Loc.Y	Amplitude	Peak Speed	Peak Speed At	Average Speed	Peak Accel.	Peak Decel.	Average Accel.

Table Header for Blinks:
Event Type	Trial	Number	Start	End	Duration

Table Header for User Events:
Event Type	Trial	Number	Start	Description

UserEvent	1	1	27193586720	# Message: La_Danse_Matisse_1909.jpg
Fixation L	1	1	27193596829	27193895182	298353	821.40	445.89	30	20	-1	17.69	17.69
Fixation R	1	1	27193596829	27193895182	298353	821.40	445.89	30	20	-1	17.96	17.96
Saccade L	1	1	27193895182	27193994673	99491	843.48	437.75	928.74	454.15	2.10	63.81	0.20	21.12	25631.21	-1447.28	4315.04
Saccade R	1	1	27193895182	27193994673	99491	843.48	437.75	928.74	454.15	2.10	63.81	0.20	21.12	25631.21	-1447.28	4315.04
Blink L	1	1	27193994673	27194133934	139261
Blink R	1	1	27193994673	27194133934	139261
Fixation L	1	2	27194133934	27194233293	99359	895.83	567.66	18	13	-1	17.60	17.60
Fixation R	1	2	27194133934	27194233293	99359	895.83	567.66	18	13	-1	18.18	18.18
Saccade L	1	2	27194233293	27194293041	59748	894.37	568.77	855.79	208.59	3.85	164.46	0.67	64.47	3981.84	-3942.77	2959.35
Saccade R	1	2	27194233293	27194293041	59748	894.37	568.77	855.79	208.59	3.85	164.46	0.67	64.47	3981.84	-3942.77	2959.35
Fixation L	1	3	27194293041	27194531657	238616	863.51	198.58	64	33	-1	14.85	14.85
Fixation R	1	3	27194293041	27194531657	238616	863.51	198.58	64	33	-1	15.26	15.26
Saccade L	1	3	27194531657	27194551527	19870	902.41	209.17	902.17	221.18	0.23	12.15	1.00	11.36	36.86	-200.62	88.50
Saccade R	1	3	27194531657	27194551527	19870	902.41	209.17	902.17	221.18	0.23	12.15	1.00	11.36	36.86	-200.62	88.50
Fixation L	1	4	27194551527	27194670917	119390	902.86	233.55	9	20	-1	13.89	13.89
Fixation R	1	4	27194551527	27194670917	119390	902.86	233.55	9	20	-1	13.77	13.77
Saccade L	1	4	27194670917	27194730523	59606	908.08	235.44	1377.79	124.76	5.11	297.04	0.67	85.70	7334.93	-6984.30	3995.70
Saccade R	1	4	27194670917	27194730523	59606	908.08	235.44	1377.79	124.76	5.11	297.04	0.67	85.70	7334.93	-6984.30	3995.70
Fixation L	1	5	27194730523	27195327245	596722	1404.18	117.36	44	49	-1	14.62	14.62
Fixation R	1	5	27194730523	27195327245	596722	1404.18	117.36	44	49	-1	14.62	14.62
Saccade L	1	5	27195327245	27195347114	19869	1386.98	133.35	1494.45	104.74	0.82	112.49	1.00	41.29	2696.35	-2438.54	2043.00
Saccade R	1	5	27195327245	27195347114	19869	1386.98	133.35	1494.45	104.74	0.82	112.49	1.00	41.29	2696.35	-2438.54	2043.00
Fixation L	1	6	27195347114	27195486366	139252	1461.39	126.14	52	31	-1	16.07	16.07
Fixation R	1	6	27195347114	27195486366	139252	1461.39	126.14	52	31	-1	16.44	16.44
Saccade L	1	6	27195486366	27195526110	39744	1450.00	136.30	1438.02	335.22	1.89	111.50	1.00	47.57	2649.20	-2440.41	2265.59
Saccade R	1	6	27195486366	27195526110	39744	1450.00	136.30	1438.02	335.22	1.89	111.50	1.00	47.57	2649.20	-2440.41	2265.59
Fixation L	1	7	27195526110	27195625604	99494	1426.49	349.74	18	22	-1	17.53	17.53
Fixation R	1	7	27195526110	27195625604	99494	1426.49	349.74	18	22	-1	17.40	17.40
Saccade L	1	7	27195625604	27195645487	19883	1425.92	356.12	1431.84	417.12	0.42	61.99	1.00	21.13	1475.02	-1464.19	995.65
Saccade R	1	7	27195625604	27195645487	19883	1425.92	356.12	1431.84	417.12	0.42	61.99	1.00	21.13	1475.02	-1464.19	995.65
Fixation L	1	8	27195645487	27195864348	218861	1447.87	418.45	26	10	-1	17.85	17.85
Fixation R	1	8	27195645487	27195864348	218861	1447.87	418.45	26	10	-1	17.82	17.82
Saccade L	1	8	27195864348	27195884216	19868	1454.66	417.92	1527.63	554.75	0.89	156.83	1.00	44.89	3863.75	-3264.87	2490.94
Saccade R	1	8	27195864348	27195884216	19868	1454.66	417.92	1527.63	554.75	0.89	156.83	1.00	44.89	3863.75	-3264.87	2490.94
Fixation L	1	9	27195884216	27196262087	377871	1551.19	577.80	30	33	-1	18.24	18.24
Fixation R	1	9	27195884216	27196262087	377871	1551.19	577.80	30	33	-1	17.96	17.96
Saccade L	1	9	27196262087	27196281961	19874	1546.90	587.02	1430.60	684.24	0.88	153.31	1.00	44.47	3802.93	-3721.79	2562.31
Saccade R	1	9	27196262087	27196281961	19874	1546.90	587.02	1430.60	684.24	0.88	153.31	1.00	44.47	3802.93	-3721.79	2562.31
Fixation L	1	10	27196281961	27196421196	139235	1445.15	689.98	22	73	-1	18.36	18.36
Fixation R	1	10	27196281961	27196421196	139235	1445.15	689.98	22	73	-1	17.59	17.59
Saccade L	1	10	27196421196	27196441066	19870	1438.31	750.18	1439.99	765.51	0.51	75.55	0.00	25.68	332.80	-1657.82	664.57
Saccade R	1	10	27196421196	27196441066	19870	1438.31	750.18	1439.99	765.51	0.51	75.55	0.00	25.68	332.80	-1657.82	664.57
Fixation L	1	11	27196441066	27196659934	218868	1421.34	760.69	37	22	-1	18.29	18.29
Fixation R	1	11	27196441066	27196659934	218868	1421.34	760.69	37	22	-1	17.81	17.81
Saccade L	1	11	27196659934	27196679814	19880	1402.84	772.79	1214.20	792.97	1.38	191.85	1.00	69.56	4750.59	-4518.09	3456.15
Saccade R	1	11	27196659934	27196679814	19880	1402.84	772.79	1214.20	792.97	1.38	191.85	1.00	69.56	4750.59	-4518.09	3456.15
Fixation L	1	12	27196679814	27196898553	218739	1163.60	805.74	59	21	-1	18.22	18.22
Fixation R	1	12	27196679814	27196898553	218739	1163.60	805.74	59	21	-1	18.05	18.05
Saccade L	1	12	27196898553	27196938430	39877	1155.96	814.06	965.55	644.50	2.29	180.65	0.50	57.49	4455.81	-4343.68	3196.90
Saccade R	1	12	27196898553	27196938430	39877	1155.96	814.06	965.55	644.50	2.29	180.65	0.50	57.49	4455.81	-4343.68	3196.90
Fixation L	1	13	27196938430	27197415779	477349	973.70	642.50	65	28	-1	16.57	16.57
Fixation R	1	13	27196938430	27197415779	477349	973.70	642.50	65	28	-1	16.52	16.52
Saccade L	1	13	27197415779	27197574895	159116	1019.57	623.61	261.44	684.45	13.32	240.77	0.88	83.71	5721.75	-5450.23	2508.46
Saccade R	1	13	27197415779	27197574895	159116	1019.57	623.61	261.44	684.45	13.32	240.77	0.88	83.71	5721.75	-5450.23	2508.46
