[BeGaze]
Converted from:	C:\Documents and Settings\iViewX\Desktop\EXPERIMENTATIONS\Experiments\results\finaleart\S13H22431-finaleart-1.idf
Date:	27.03.2019 15:41:53
Version:	BeGaze 2.5.77
Sample Rate:	50
Subject:	S13H22431
Description:	Jimmy Petit

Table Header for Fixations:
Event Type	Trial	Number	Start	End	Duration	Location X	Location Y	Dispersion X	Dispersion Y	Plane	Avg. Pupil Size X	Avg. Pupil Size Y

Table Header for Saccades:
Event Type	Trial	Number	Start	End	Duration	Start Loc.X	Start Loc.Y	End Loc.X	End Loc.Y	Amplitude	Peak Speed	Peak Speed At	Average Speed	Peak Accel.	Peak Decel.	Average Accel.

Table Header for Blinks:
Event Type	Trial	Number	Start	End	Duration

Table Header for User Events:
Event Type	Trial	Number	Start	Description

UserEvent	1	1	27875922521	# Message: void.jpg
Fixation L	1	1	27875933793	27876132800	199007	451.34	545.23	9	82	-1	17.07	17.07
Fixation R	1	1	27875933793	27876132800	199007	451.34	545.23	9	82	-1	17.28	17.28
Saccade L	1	1	27876132800	27876152647	19847	451.35	611.18	453.99	634.51	0.53	57.44	0.00	26.84	20.88	-1354.56	635.88
Saccade R	1	1	27876132800	27876152647	19847	451.35	611.18	453.99	634.51	0.53	57.44	0.00	26.84	20.88	-1354.56	635.88
Fixation L	1	2	27876152647	27876371382	218735	453.89	626.58	12	22	-1	16.54	16.54
Fixation R	1	2	27876152647	27876371382	218735	453.89	626.58	12	22	-1	17.17	17.17
Saccade L	1	2	27876371382	27876590257	218875	446.92	614.06	1121.41	-82.05	53.34	1180.80	0.64	243.70	24776.79	-29394.71	9046.41
Saccade R	1	2	27876371382	27876590257	218875	446.92	614.06	1121.41	-82.05	53.34	1180.80	0.64	243.70	24776.79	-29394.71	9046.41
Fixation L	1	3	27876590257	27876749380	159123	1126.70	-81.46	12	84	-1	15.34	15.34
Fixation R	1	3	27876590257	27876749380	159123	1126.70	-81.46	12	84	-1	15.67	15.67
Saccade L	1	3	27876749380	27876769241	19861	1122.09	-77.97	1174.65	-67.59	0.49	54.20	1.00	24.77	1348.67	-999.24	1071.51
Saccade R	1	3	27876749380	27876769241	19861	1122.09	-77.97	1174.65	-67.59	0.49	54.20	1.00	24.77	1348.67	-999.24	1071.51
Fixation L	1	4	27876769241	27876888488	119247	1185.41	-21.52	22	67	-1	15.80	15.80
Fixation R	1	4	27876769241	27876888488	119247	1185.41	-21.52	22	67	-1	15.43	15.43
Blink L	1	1	27876888488	27877007858	119370
Blink R	1	1	27876888488	27877007858	119370
Saccade L	1	4	27877007858	27877067610	59752	1485.92	0.07	1458.66	70.00	1.28	44.44	1.00	21.47	665.60	-629.56	434.43
Saccade R	1	4	27877007858	27877067610	59752	1485.92	0.07	1458.66	70.00	1.28	44.44	1.00	21.47	665.60	-629.56	434.43
Fixation L	1	5	27877067610	27877306218	238608	1428.79	97.69	51	48	-1	17.85	17.85
Fixation R	1	5	27877067610	27877306218	238608	1428.79	97.69	51	48	-1	18.16	18.16
Saccade L	1	5	27877306218	27877385840	79622	1406.90	114.55	566.76	536.10	11.33	293.15	0.25	142.33	7128.18	-5101.33	4145.36
Saccade R	1	5	27877306218	27877385840	79622	1406.90	114.55	566.76	536.10	11.33	293.15	0.25	142.33	7128.18	-5101.33	4145.36
Fixation L	1	6	27877385840	27877485215	99375	540.03	532.18	52	44	-1	18.70	18.70
Fixation R	1	6	27877385840	27877485215	99375	540.03	532.18	52	44	-1	19.23	19.23
Saccade L	1	6	27877485215	27877505086	19871	514.45	504.14	504.75	502.15	0.30	26.13	0.00	15.26	140.99	-590.54	347.18
Saccade R	1	6	27877485215	27877505086	19871	514.45	504.14	504.75	502.15	0.30	26.13	0.00	15.26	140.99	-590.54	347.18
Fixation L	1	7	27877505086	27877664206	159120	506.57	519.99	13	33	-1	18.11	18.11
Fixation R	1	7	27877505086	27877664206	159120	506.57	519.99	13	33	-1	18.54	18.54
Saccade L	1	7	27877664206	27877783572	119366	500.80	518.40	276.35	523.64	4.76	141.47	0.17	39.87	3432.96	-3242.54	1491.69
Saccade R	1	7	27877664206	27877783572	119366	500.80	518.40	276.35	523.64	4.76	141.47	0.17	39.87	3432.96	-3242.54	1491.69
Fixation L	1	8	27877783572	27877922843	139271	232.93	529.42	74	20	-1	16.18	16.18
Fixation R	1	8	27877783572	27877922843	139271	232.93	529.42	74	20	-1	16.98	16.98
