[BeGaze]
Converted from:	C:\Documents and Settings\iViewX\Desktop\EXPERIMENTATIONS\Experiments\results\finaleart\S13H22431-finaleart-1.idf
Date:	27.03.2019 15:42:17
Version:	BeGaze 2.5.77
Sample Rate:	50
Subject:	S13H22431
Description:	Jimmy Petit

Table Header for Fixations:
Event Type	Trial	Number	Start	End	Duration	Location X	Location Y	Dispersion X	Dispersion Y	Plane	Avg. Pupil Size X	Avg. Pupil Size Y

Table Header for Saccades:
Event Type	Trial	Number	Start	End	Duration	Start Loc.X	Start Loc.Y	End Loc.X	End Loc.Y	Amplitude	Peak Speed	Peak Speed At	Average Speed	Peak Accel.	Peak Decel.	Average Accel.

Table Header for Blinks:
Event Type	Trial	Number	Start	End	Duration

Table Header for User Events:
Event Type	Trial	Number	Start	Description

UserEvent	1	1	28201753126	# Message: void.jpg
Saccade L	1	1	28201767021	28201786889	19868	585.50	493.17	598.12	540.93	0.35	49.97	1.00	17.81	86.16	-879.12	321.76
Saccade R	1	1	28201767021	28201786889	19868	585.50	493.17	598.12	540.93	0.35	49.97	1.00	17.81	86.16	-879.12	321.76
Fixation L	1	1	28201786889	28202025489	238600	615.85	570.07	29	58	-1	15.99	15.99
Fixation R	1	1	28201786889	28202025489	238600	615.85	570.07	29	58	-1	17.25	17.25
Saccade L	1	2	28202025489	28202045480	19991	627.89	599.56	628.12	612.29	0.18	18.83	0.00	8.96	291.22	-397.88	306.58
Saccade R	1	2	28202025489	28202045480	19991	627.89	599.56	628.12	612.29	0.18	18.83	0.00	8.96	291.22	-397.88	306.58
Fixation L	1	2	28202045480	28202423341	377861	638.45	623.83	21	27	-1	15.43	15.43
Fixation R	1	2	28202045480	28202423341	377861	638.45	623.83	21	27	-1	16.92	16.92
Saccade L	1	3	28202423341	28202443219	19878	642.59	630.57	625.92	698.23	0.47	70.49	1.00	23.49	1692.55	-1363.13	1101.71
Saccade R	1	3	28202423341	28202443219	19878	642.59	630.57	625.92	698.23	0.47	70.49	1.00	23.49	1692.55	-1363.13	1101.71
Fixation L	1	3	28202443219	28202642079	198860	626.35	711.24	21	30	-1	14.25	14.25
Fixation R	1	3	28202443219	28202642079	198860	626.35	711.24	21	30	-1	15.62	15.62
Saccade L	1	4	28202642079	28202721707	79628	627.22	704.13	1069.58	482.55	6.62	200.76	0.50	83.13	4695.34	-3419.93	2931.17
Saccade R	1	4	28202642079	28202721707	79628	627.22	704.13	1069.58	482.55	6.62	200.76	0.50	83.13	4695.34	-3419.93	2931.17
Fixation L	1	4	28202721707	28202841075	119368	1058.71	443.39	24	68	-1	14.62	14.62
Fixation R	1	4	28202721707	28202841075	119368	1058.71	443.39	24	68	-1	16.21	16.21
Saccade L	1	5	28202841075	28202860949	19874	1054.03	435.00	1059.40	403.96	0.30	31.87	1.00	15.08	397.98	-192.64	198.81
Saccade R	1	5	28202841075	28202860949	19874	1054.03	435.00	1059.40	403.96	0.30	31.87	1.00	15.08	397.98	-192.64	198.81
Fixation L	1	5	28202860949	28203179183	318234	1053.59	419.92	13	46	-1	14.65	14.65
Fixation R	1	5	28202860949	28203179183	318234	1053.59	419.92	13	46	-1	16.11	16.11
Saccade L	1	6	28203179183	28203199063	19880	1053.26	444.64	1015.40	456.70	0.40	40.20	1.00	19.90	525.74	-765.19	479.91
Saccade R	1	6	28203179183	28203199063	19880	1053.26	444.64	1015.40	456.70	0.40	40.20	1.00	19.90	525.74	-765.19	479.91
Fixation L	1	6	28203199063	28203537171	338108	993.69	485.25	37	61	-1	15.50	15.50
Fixation R	1	6	28203199063	28203537171	338108	993.69	485.25	37	61	-1	16.42	16.42
Saccade L	1	7	28203537171	28203596919	59748	980.28	517.55	892.51	522.43	1.48	82.15	1.00	24.85	1862.58	-1320.81	805.05
Saccade R	1	7	28203537171	28203596919	59748	980.28	517.55	892.51	522.43	1.48	82.15	1.00	24.85	1862.58	-1320.81	805.05
Fixation L	1	7	28203596919	28203756036	159117	895.97	552.03	36	42	-1	16.10	16.10
Fixation R	1	7	28203596919	28203756036	159117	895.97	552.03	36	42	-1	17.03	17.03
