[BeGaze]
Converted from:	C:\Documents and Settings\iViewX\Desktop\EXPERIMENTATIONS\Experiments\results\finaleart\S13H22431-finaleart-1.idf
Date:	27.03.2019 15:42:36
Version:	BeGaze 2.5.77
Sample Rate:	50
Subject:	S13H22431
Description:	Jimmy Petit

Table Header for Fixations:
Event Type	Trial	Number	Start	End	Duration	Location X	Location Y	Dispersion X	Dispersion Y	Plane	Avg. Pupil Size X	Avg. Pupil Size Y

Table Header for Saccades:
Event Type	Trial	Number	Start	End	Duration	Start Loc.X	Start Loc.Y	End Loc.X	End Loc.Y	Amplitude	Peak Speed	Peak Speed At	Average Speed	Peak Accel.	Peak Decel.	Average Accel.

Table Header for Blinks:
Event Type	Trial	Number	Start	End	Duration

Table Header for User Events:
Event Type	Trial	Number	Start	Description

UserEvent	1	1	28428636564	# Message: bathers_cross_1902.jpg
Saccade L	1	1	28428653392	28428693144	39752	750.61	450.15	929.67	450.69	2.15	156.50	1.00	54.09	3912.59	-3776.89	1939.38
Saccade R	1	1	28428653392	28428693144	39752	750.61	450.15	929.67	450.69	2.15	156.50	1.00	54.09	3912.59	-3776.89	1939.38
Fixation L	1	1	28428693144	28428892126	198982	961.79	457.55	40	34	-1	16.09	16.09
Fixation R	1	1	28428693144	28428892126	198982	961.79	457.55	40	34	-1	16.37	16.37
Saccade L	1	2	28428892126	28428931884	39758	964.63	468.17	968.27	706.79	2.55	138.70	1.00	64.01	3158.86	-3335.81	2496.38
Saccade R	1	2	28428892126	28428931884	39758	964.63	468.17	968.27	706.79	2.55	138.70	1.00	64.01	3158.86	-3335.81	2496.38
Fixation L	1	2	28428931884	28429091007	159123	976.38	657.84	15	66	-1	15.69	15.69
Fixation R	1	2	28428931884	28429091007	159123	976.38	657.84	15	66	-1	16.18	16.18
Saccade L	1	3	28429091007	28429110893	19886	982.49	645.45	890.08	446.61	1.38	221.70	1.00	69.18	5414.83	-5429.62	3996.76
Saccade R	1	3	28429091007	28429110893	19886	982.49	645.45	890.08	446.61	1.38	221.70	1.00	69.18	5414.83	-5429.62	3996.76
Fixation L	1	3	28429110893	28429309737	198844	892.39	409.41	9	51	-1	14.75	14.75
Fixation R	1	3	28429110893	28429309737	198844	892.39	409.41	9	51	-1	15.16	15.16
Saccade L	1	4	28429309737	28429329603	19866	889.41	401.27	883.16	224.56	1.06	178.82	1.00	53.19	4330.20	-4120.72	3024.07
Saccade R	1	4	28429309737	28429329603	19866	889.41	401.27	883.16	224.56	1.06	178.82	1.00	53.19	4330.20	-4120.72	3024.07
Fixation L	1	4	28429329603	28429468860	139257	888.89	196.41	15	44	-1	12.84	12.84
Fixation R	1	4	28429329603	28429468860	139257	888.89	196.41	15	44	-1	13.30	13.30
Saccade L	1	5	28429468860	28429488726	19866	892.07	200.06	976.46	116.92	0.92	119.82	1.00	46.27	2809.09	-2814.39	2235.71
Saccade R	1	5	28429468860	28429488726	19866	892.07	200.06	976.46	116.92	0.92	119.82	1.00	46.27	2809.09	-2814.39	2235.71
Fixation L	1	5	28429488726	28429886584	397858	980.77	164.01	28	58	-1	12.78	12.78
Fixation R	1	5	28429488726	28429886584	397858	980.77	164.01	28	58	-1	12.78	12.78
Saccade L	1	6	28429886584	28429926330	39746	975.89	161.83	1244.19	485.65	3.77	311.43	0.50	94.91	7755.77	-7007.00	5061.86
Saccade R	1	6	28429886584	28429926330	39746	975.89	161.83	1244.19	485.65	3.77	311.43	0.50	94.91	7755.77	-7007.00	5061.86
Fixation L	1	6	28429926330	28430105321	178991	1272.43	499.36	40	35	-1	13.82	13.82
Fixation R	1	6	28429926330	28430105321	178991	1272.43	499.36	40	35	-1	13.88	13.88
Saccade L	1	7	28430105321	28430125343	20022	1284.68	491.68	1374.51	596.18	0.80	139.38	1.00	40.07	3437.29	-3037.59	2256.22
Saccade R	1	7	28430105321	28430125343	20022	1284.68	491.68	1374.51	596.18	0.80	139.38	1.00	40.07	3437.29	-3037.59	2256.22
Fixation L	1	7	28430125343	28430523052	397709	1362.49	622.34	47	49	-1	14.05	14.05
Fixation R	1	7	28430125343	28430523052	397709	1362.49	622.34	47	49	-1	14.04	14.04
Saccade L	1	8	28430523052	28430602676	79624	1377.72	644.68	1356.86	646.03	1.30	46.79	1.00	16.29	1056.06	-520.59	448.81
Saccade R	1	8	28430523052	28430602676	79624	1377.72	644.68	1356.86	646.03	1.30	46.79	1.00	16.29	1056.06	-520.59	448.81
Fixation L	1	8	28430602676	28430841289	238613	1297.22	641.33	79	18	-1	13.90	13.90
Fixation R	1	8	28430602676	28430841289	238613	1297.22	641.33	79	18	-1	13.94	13.94
Saccade L	1	9	28430841289	28430861165	19876	1277.79	630.56	1273.55	629.84	0.19	13.83	0.00	9.53	-8.26	-72.69	36.39
Saccade R	1	9	28430841289	28430861165	19876	1277.79	630.56	1273.55	629.84	0.19	13.83	0.00	9.53	-8.26	-72.69	36.39
Fixation L	1	9	28430861165	28431020280	159115	1256.84	624.59	26	9	-1	14.29	14.29
Fixation R	1	9	28430861165	28431020280	159115	1256.84	624.59	26	9	-1	14.02	14.02
Saccade L	1	10	28431020280	28431060172	39892	1246.61	622.22	1067.50	392.52	2.54	204.21	0.50	63.68	4940.59	-4760.30	3463.75
Saccade R	1	10	28431020280	28431060172	39892	1246.61	622.22	1067.50	392.52	2.54	204.21	0.50	63.68	4940.59	-4760.30	3463.75
Fixation L	1	10	28431060172	28431239149	178977	1068.25	392.58	9	18	-1	14.25	14.25
Fixation R	1	10	28431060172	28431239149	178977	1068.25	392.58	9	18	-1	14.19	14.19
Saccade L	1	11	28431239149	28431278898	39749	1067.63	389.44	736.92	322.82	3.16	226.11	1.00	79.49	5557.61	-5529.55	3968.73
Saccade R	1	11	28431239149	28431278898	39749	1067.63	389.44	736.92	322.82	3.16	226.11	1.00	79.49	5557.61	-5529.55	3968.73
Fixation L	1	11	28431278898	28431457884	178986	705.19	317.71	45	51	-1	13.84	13.84
Fixation R	1	11	28431278898	28431457884	178986	705.19	317.71	45	51	-1	14.30	14.30
Saccade L	1	12	28431457884	28431477782	19898	691.24	301.41	690.63	292.80	0.35	44.27	1.00	17.82	954.82	-86.53	353.85
Saccade R	1	12	28431457884	28431477782	19898	691.24	301.41	690.63	292.80	0.35	44.27	1.00	17.82	954.82	-86.53	353.85
Fixation L	1	12	28431477782	28431795999	318217	741.03	294.75	59	34	-1	14.13	14.13
Fixation R	1	12	28431477782	28431795999	318217	741.03	294.75	59	34	-1	14.62	14.62
Saccade L	1	13	28431795999	28431815877	19878	748.82	309.85	748.26	320.88	0.09	11.18	1.00	4.34	206.69	-184.11	136.01
Saccade R	1	13	28431795999	28431815877	19878	748.82	309.85	748.26	320.88	0.09	11.18	1.00	4.34	206.69	-184.11	136.01
Fixation L	1	13	28431815877	28432154116	338239	743.57	336.78	24	45	-1	14.47	14.47
Fixation R	1	13	28431815877	28432154116	338239	743.57	336.78	24	45	-1	14.72	14.72
Saccade L	1	14	28432154116	28432174001	19885	761.87	364.83	846.77	419.69	0.75	102.24	1.00	37.56	2482.60	-2280.93	1745.07
Saccade R	1	14	28432154116	28432174001	19885	761.87	364.83	846.77	419.69	0.75	102.24	1.00	37.56	2482.60	-2280.93	1745.07
Fixation L	1	14	28432174001	28432452478	278477	855.62	425.12	17	16	-1	14.79	14.79
Fixation R	1	14	28432174001	28432452478	278477	855.62	425.12	17	16	-1	14.90	14.90
Saccade L	1	15	28432452478	28432472344	19866	847.49	428.73	841.38	617.04	1.00	190.54	1.00	50.56	4713.01	-4571.52	3114.66
Saccade R	1	15	28432452478	28432472344	19866	847.49	428.73	841.38	617.04	1.00	190.54	1.00	50.56	4713.01	-4571.52	3114.66
Fixation L	1	15	28432472344	28432631465	159121	841.68	607.28	1	14	-1	14.67	14.67
Fixation R	1	15	28432472344	28432631465	159121	841.68	607.28	1	14	-1	14.93	14.93
