[BeGaze]
Converted from:	C:\Documents and Settings\iViewX\Desktop\EXPERIMENTATIONS\Experiments\results\finaleart\S13H22431-finaleart-1.idf
Date:	27.03.2019 15:42:40
Version:	BeGaze 2.5.77
Sample Rate:	50
Subject:	S13H22431
Description:	Jimmy Petit

Table Header for Fixations:
Event Type	Trial	Number	Start	End	Duration	Location X	Location Y	Dispersion X	Dispersion Y	Plane	Avg. Pupil Size X	Avg. Pupil Size Y

Table Header for Saccades:
Event Type	Trial	Number	Start	End	Duration	Start Loc.X	Start Loc.Y	End Loc.X	End Loc.Y	Amplitude	Peak Speed	Peak Speed At	Average Speed	Peak Accel.	Peak Decel.	Average Accel.

Table Header for Blinks:
Event Type	Trial	Number	Start	End	Duration

Table Header for User Events:
Event Type	Trial	Number	Start	Description

UserEvent	1	1	28469330106	# Message: void.jpg
Saccade L	1	1	28469348501	28469368495	19994	942.17	676.05	1004.71	612.13	0.68	90.46	1.00	34.15	299.82	-2045.28	781.70
Saccade R	1	1	28469348501	28469368495	19994	942.17	676.05	1004.71	612.13	0.68	90.46	1.00	34.15	299.82	-2045.28	781.70
Fixation L	1	1	28469368495	28469671294	302799	1014.59	618.33	17	72	-1	14.43	14.43
Fixation R	1	1	28469368495	28469671294	302799	1014.59	618.33	17	72	-1	14.90	14.90
Saccade L	1	2	28469671294	28469686738	15444	1021.97	570.03	1025.21	545.53	0.42	53.94	1.00	26.95	-228.53	-723.45	490.43
Saccade R	1	2	28469671294	28469686738	15444	1021.97	570.03	1025.21	545.53	0.42	53.94	1.00	26.95	-228.53	-723.45	490.43
Fixation L	1	2	28469686738	28469825970	139232	1036.03	552.22	17	11	-1	14.39	14.39
Fixation R	1	2	28469686738	28469825970	139232	1036.03	552.22	17	11	-1	15.14	15.14
Saccade L	1	3	28469825970	28469905481	79511	1043.01	552.08	1472.51	407.38	5.52	147.14	0.75	69.39	3124.61	-3347.74	2185.23
Saccade R	1	3	28469825970	28469905481	79511	1043.01	552.08	1472.51	407.38	5.52	147.14	0.75	69.39	3124.61	-3347.74	2185.23
Fixation L	1	3	28469905481	28470243582	338101	1442.23	425.28	46	50	-1	13.77	13.77
Fixation R	1	3	28469905481	28470243582	338101	1442.23	425.28	46	50	-1	14.17	14.17
Saccade L	1	4	28470243582	28470382831	139249	1429.74	444.63	1204.03	444.22	3.67	127.57	1.00	26.32	3139.93	-3032.98	1284.89
Saccade R	1	4	28470243582	28470382831	139249	1429.74	444.63	1204.03	444.22	3.67	127.57	1.00	26.32	3139.93	-3032.98	1284.89
Fixation L	1	4	28470382831	28470780679	397848	1196.41	458.41	36	29	-1	15.22	15.22
Fixation R	1	4	28470382831	28470780679	397848	1196.41	458.41	36	29	-1	15.55	15.55
Saccade L	1	5	28470780679	28470800558	19879	1173.53	463.68	1051.66	464.88	0.74	123.27	1.00	36.99	2997.53	-3008.36	2043.24
Saccade R	1	5	28470780679	28470800558	19879	1173.53	463.68	1051.66	464.88	0.74	123.27	1.00	36.99	2997.53	-3008.36	2043.24
Fixation L	1	5	28470800558	28471138671	338113	1053.71	473.14	40	43	-1	15.71	15.71
Fixation R	1	5	28470800558	28471138671	338113	1053.71	473.14	40	43	-1	16.17	16.17
Saccade L	1	6	28471138671	28471158536	19865	1024.06	499.34	889.68	506.23	0.86	136.10	1.00	43.28	3265.05	-3202.05	2261.97
Saccade R	1	6	28471138671	28471158536	19865	1024.06	499.34	889.68	506.23	0.86	136.10	1.00	43.28	3265.05	-3202.05	2261.97
Fixation L	1	6	28471158536	28471317656	159120	875.82	517.65	17	22	-1	15.61	15.61
Fixation R	1	6	28471158536	28471317656	159120	875.82	517.65	17	22	-1	16.78	16.78
