[BeGaze]
Converted from:	C:\Documents and Settings\iViewX\Desktop\EXPERIMENTATIONS\Experiments\results\finaleart\S13H22431-finaleart-1.idf
Date:	27.03.2019 15:41:22
Version:	BeGaze 2.5.77
Sample Rate:	50
Subject:	S13H22431
Description:	Jimmy Petit

Table Header for Fixations:
Event Type	Trial	Number	Start	End	Duration	Location X	Location Y	Dispersion X	Dispersion Y	Plane	Avg. Pupil Size X	Avg. Pupil Size Y

Table Header for Saccades:
Event Type	Trial	Number	Start	End	Duration	Start Loc.X	Start Loc.Y	End Loc.X	End Loc.Y	Amplitude	Peak Speed	Peak Speed At	Average Speed	Peak Accel.	Peak Decel.	Average Accel.

Table Header for Blinks:
Event Type	Trial	Number	Start	End	Duration

Table Header for User Events:
Event Type	Trial	Number	Start	Description

UserEvent	1	1	27254665452	# Message: the_forest_Cross_1907.jpg
Fixation L	1	1	27254679443	27254798675	119232	672.09	508.79	7	8	-1	16.68	16.68
Fixation R	1	1	27254679443	27254798675	119232	672.09	508.79	7	8	-1	17.58	17.58
Saccade L	1	1	27254798675	27254838541	39866	669.44	512.39	933.24	508.22	2.31	136.01	1.00	57.87	3351.29	-3071.19	3112.77
Saccade R	1	1	27254798675	27254838541	39866	669.44	512.39	933.24	508.22	2.31	136.01	1.00	57.87	3351.29	-3071.19	3112.77
Fixation L	1	2	27254838541	27255156794	318253	958.46	504.13	32	8	-1	16.61	16.61
Fixation R	1	2	27254838541	27255156794	318253	958.46	504.13	32	8	-1	17.64	17.64
Saccade L	1	2	27255156794	27255176665	19871	959.00	500.77	885.28	552.91	0.59	91.34	1.00	29.75	2215.16	-1999.98	1495.25
Saccade R	1	2	27255156794	27255176665	19871	959.00	500.77	885.28	552.91	0.59	91.34	1.00	29.75	2215.16	-1999.98	1495.25
Fixation L	1	3	27255176665	27255296015	119350	871.59	555.28	21	38	-1	16.20	16.20
Fixation R	1	3	27255176665	27255296015	119350	871.59	555.28	21	38	-1	17.23	17.23
Saccade L	1	3	27255296015	27255315885	19870	863.48	553.57	950.77	723.68	1.06	193.34	1.00	53.29	4590.79	-4219.99	2983.50
Saccade R	1	3	27255296015	27255315885	19870	863.48	553.57	950.77	723.68	1.06	193.34	1.00	53.29	4590.79	-4219.99	2983.50
Fixation L	1	4	27255315885	27255773366	457481	939.52	689.25	25	72	-1	14.03	14.03
Fixation R	1	4	27255315885	27255773366	457481	939.52	689.25	25	72	-1	14.95	14.95
Saccade L	1	4	27255773366	27255793248	19882	949.78	657.92	948.38	648.53	0.08	9.60	1.00	4.08	215.12	36.52	109.57
Saccade R	1	4	27255773366	27255793248	19882	949.78	657.92	948.38	648.53	0.08	9.60	1.00	4.08	215.12	36.52	109.57
Fixation L	1	5	27255793248	27256907067	1113819	960.65	644.54	61	30	-1	13.61	13.61
Fixation R	1	5	27255793248	27256907067	1113819	960.65	644.54	61	30	-1	14.16	14.16
Saccade L	1	5	27256907067	27257026441	119374	1003.14	656.24	1133.98	681.14	2.89	123.10	1.00	24.22	2943.83	-2847.78	895.63
Saccade R	1	5	27256907067	27257026441	119374	1003.14	656.24	1133.98	681.14	2.89	123.10	1.00	24.22	2943.83	-2847.78	895.63
Fixation L	1	6	27257026441	27257265051	238610	1155.94	724.46	37	59	-1	14.97	14.97
Fixation R	1	6	27257026441	27257265051	238610	1155.94	724.46	37	59	-1	15.03	15.03
Saccade L	1	6	27257265051	27257284921	19870	1171.39	741.12	1175.15	742.50	0.12	15.13	1.00	5.92	110.71	-277.07	138.69
Saccade R	1	6	27257265051	27257284921	19870	1171.39	741.12	1175.15	742.50	0.12	15.13	1.00	5.92	110.71	-277.07	138.69
Fixation L	1	7	27257284921	27257583290	298369	1187.85	758.56	21	29	-1	14.82	14.82
Fixation R	1	7	27257284921	27257583290	298369	1187.85	758.56	21	29	-1	14.85	14.85
Saccade L	1	7	27257583290	27257662904	79614	1190.88	772.43	1381.90	178.48	7.64	195.95	0.25	95.92	4859.93	-3061.07	2654.98
Saccade R	1	7	27257583290	27257662904	79614	1190.88	772.43	1381.90	178.48	7.64	195.95	0.25	95.92	4859.93	-3061.07	2654.98
Fixation L	1	8	27257662904	27257921399	258495	1355.06	223.00	38	57	-1	14.04	14.04
Fixation R	1	8	27257662904	27257921399	258495	1355.06	223.00	38	57	-1	14.05	14.05
Blink L	1	1	27257921399	27258060639	139240
Blink R	1	1	27257921399	27258060639	139240
Fixation L	1	9	27258060639	27258199887	139248	1069.42	266.29	7	6	-1	15.17	15.17
Fixation R	1	9	27258060639	27258199887	139248	1069.42	266.29	7	6	-1	15.04	15.04
Saccade L	1	8	27258199887	27258239638	39751	1066.01	266.01	812.06	273.21	2.18	178.33	0.50	54.91	4363.22	-4197.54	3011.03
Saccade R	1	8	27258199887	27258239638	39751	1066.01	266.01	812.06	273.21	2.18	178.33	0.50	54.91	4363.22	-4197.54	3011.03
Fixation L	1	10	27258239638	27258398751	159113	796.25	292.17	21	27	-1	15.29	15.29
Fixation R	1	10	27258239638	27258398751	159113	796.25	292.17	21	27	-1	15.39	15.39
Saccade L	1	9	27258398751	27258438631	39880	794.34	298.89	553.54	297.03	2.08	170.32	1.00	52.17	4195.84	-4153.50	2910.28
Saccade R	1	9	27258398751	27258438631	39880	794.34	298.89	553.54	297.03	2.08	170.32	1.00	52.17	4195.84	-4153.50	2910.28
Fixation L	1	11	27258438631	27258657364	218733	574.22	288.97	38	16	-1	16.09	16.09
Fixation R	1	11	27258438631	27258657364	218733	574.22	288.97	38	16	-1	16.47	16.47
