[BeGaze]
Converted from:	C:\Documents and Settings\iViewX\Desktop\EXPERIMENTATIONS\Experiments\results\finaleart\S13H22431-finaleart-1.idf
Date:	27.03.2019 15:42:08
Version:	BeGaze 2.5.77
Sample Rate:	50
Subject:	S13H22431
Description:	Jimmy Petit

Table Header for Fixations:
Event Type	Trial	Number	Start	End	Duration	Location X	Location Y	Dispersion X	Dispersion Y	Plane	Avg. Pupil Size X	Avg. Pupil Size Y

Table Header for Saccades:
Event Type	Trial	Number	Start	End	Duration	Start Loc.X	Start Loc.Y	End Loc.X	End Loc.Y	Amplitude	Peak Speed	Peak Speed At	Average Speed	Peak Accel.	Peak Decel.	Average Accel.

Table Header for Blinks:
Event Type	Trial	Number	Start	End	Duration

Table Header for User Events:
Event Type	Trial	Number	Start	Description

UserEvent	1	1	28068964242	# Message: Le-Restaurant-de-la-machine-a-Bougival-vlaminck-1905.jpg
Fixation L	1	1	28068967276	28069245753	278477	1000.10	451.99	51	26	-1	15.40	15.40
Fixation R	1	1	28068967276	28069245753	278477	1000.10	451.99	51	26	-1	15.75	15.75
Saccade L	1	1	28069245753	28069285504	39751	1010.31	440.67	835.36	456.33	1.57	100.09	1.00	39.50	2222.40	-1976.47	1983.90
Saccade R	1	1	28069245753	28069285504	39751	1010.31	440.67	835.36	456.33	1.57	100.09	1.00	39.50	2222.40	-1976.47	1983.90
Fixation L	1	2	28069285504	28069564001	278497	823.70	483.56	18	43	-1	14.71	14.71
Fixation R	1	2	28069285504	28069564001	278497	823.70	483.56	18	43	-1	15.10	15.10
Saccade L	1	2	28069564001	28069603741	39740	818.76	493.45	572.85	356.39	2.54	201.60	1.00	63.86	5028.46	-4813.79	3568.30
Saccade R	1	2	28069564001	28069603741	39740	818.76	493.45	572.85	356.39	2.54	201.60	1.00	63.86	5028.46	-4813.79	3568.30
Fixation L	1	3	28069603741	28069782742	179001	574.18	357.53	10	22	-1	13.08	13.08
Fixation R	1	3	28069603741	28069782742	179001	574.18	357.53	10	22	-1	13.69	13.69
Saccade L	1	3	28069782742	28069802607	19865	573.51	364.68	578.58	483.63	0.87	120.42	1.00	43.80	2930.87	-2603.87	2268.16
Saccade R	1	3	28069782742	28069802607	19865	573.51	364.68	578.58	483.63	0.87	120.42	1.00	43.80	2930.87	-2603.87	2268.16
Fixation L	1	4	28069802607	28069941861	139254	583.66	452.45	27	50	-1	12.31	12.31
Fixation R	1	4	28069802607	28069941861	139254	583.66	452.45	27	50	-1	13.01	13.01
Saccade L	1	4	28069941861	28069961729	19868	563.70	449.45	502.87	441.64	0.50	62.04	1.00	25.01	1411.13	-1521.11	1131.49
Saccade R	1	4	28069941861	28069961729	19868	563.70	449.45	502.87	441.64	0.50	62.04	1.00	25.01	1411.13	-1521.11	1131.49
Fixation L	1	5	28069961729	28070260090	298361	496.38	438.97	10	13	-1	12.29	12.29
Fixation R	1	5	28069961729	28070260090	298361	496.38	438.97	10	13	-1	12.84	12.84
Saccade L	1	5	28070260090	28070279959	19869	501.05	437.57	592.04	438.28	0.73	92.04	1.00	36.72	2280.92	-1525.73	1573.05
Saccade R	1	5	28070260090	28070279959	19869	501.05	437.57	592.04	438.28	0.73	92.04	1.00	36.72	2280.92	-1525.73	1573.05
Fixation L	1	6	28070279959	28070598204	318245	577.00	454.93	66	24	-1	12.78	12.78
Fixation R	1	6	28070279959	28070598204	318245	577.00	454.93	66	24	-1	13.41	13.41
Saccade L	1	6	28070598204	28070618193	19989	614.54	449.26	652.89	438.60	0.47	40.26	1.00	23.61	834.74	-846.64	689.78
Saccade R	1	6	28070598204	28070618193	19989	614.54	449.26	652.89	438.60	0.47	40.26	1.00	23.61	834.74	-846.64	689.78
Fixation L	1	7	28070618193	28070936432	318239	648.46	396.96	15	68	-1	12.77	12.77
Fixation R	1	7	28070618193	28070936432	318239	648.46	396.96	15	68	-1	13.58	13.58
Saccade L	1	7	28070936432	28070976182	39750	652.21	376.51	890.25	686.35	3.50	206.57	0.50	88.03	5107.98	-4526.55	4610.47
Saccade R	1	7	28070936432	28070976182	39750	652.21	376.51	890.25	686.35	3.50	206.57	0.50	88.03	5107.98	-4526.55	4610.47
Fixation L	1	8	28070976182	28071175049	198867	887.19	719.99	21	45	-1	13.59	13.59
Fixation R	1	8	28070976182	28071175049	198867	887.19	719.99	21	45	-1	13.98	13.98
Saccade L	1	8	28071175049	28071194916	19867	902.05	731.28	1045.06	737.97	0.81	144.81	1.00	40.80	3582.11	-3471.61	2443.99
Saccade R	1	8	28071175049	28071194916	19867	902.05	731.28	1045.06	737.97	0.81	144.81	1.00	40.80	3582.11	-3471.61	2443.99
Fixation L	1	9	28071194916	28071354048	159132	1048.45	749.74	71	21	-1	13.45	13.45
Fixation R	1	9	28071194916	28071354048	159132	1048.45	749.74	71	21	-1	13.96	13.96
Saccade L	1	9	28071354048	28071393911	39863	1104.97	759.42	1482.65	768.41	3.91	254.72	0.50	98.04	6287.67	-5550.28	3975.96
Saccade R	1	9	28071354048	28071393911	39863	1104.97	759.42	1482.65	768.41	3.91	254.72	0.50	98.04	6287.67	-5550.28	3975.96
Fixation L	1	10	28071393911	28071692272	298361	1506.23	799.29	33	46	-1	12.77	12.77
Fixation R	1	10	28071393911	28071692272	298361	1506.23	799.29	33	46	-1	12.77	12.77
Saccade L	1	10	28071692272	28071751893	59621	1502.79	793.70	1473.11	187.28	6.77	255.90	0.33	113.52	6220.23	-4707.97	3816.61
Saccade R	1	10	28071692272	28071751893	59621	1502.79	793.70	1473.11	187.28	6.77	255.90	0.33	113.52	6220.23	-4707.97	3816.61
Fixation L	1	11	28071751893	28071911011	159118	1439.35	168.96	52	47	-1	12.19	12.19
Fixation R	1	11	28071751893	28071911011	159118	1439.35	168.96	52	47	-1	12.41	12.41
Saccade L	1	11	28071911011	28071930892	19881	1424.36	182.77	1419.05	189.84	0.19	15.31	1.00	9.41	312.45	-99.74	150.79
Saccade R	1	11	28071911011	28071930892	19881	1424.36	182.77	1419.05	189.84	0.19	15.31	1.00	9.41	312.45	-99.74	150.79
Fixation L	1	12	28071930892	28072030379	99487	1419.50	180.29	16	26	-1	12.49	12.49
Fixation R	1	12	28071930892	28072030379	99487	1419.50	180.29	16	26	-1	12.49	12.49
Saccade L	1	12	28072030379	28072050262	19883	1409.34	187.36	1224.91	171.75	1.16	187.17	1.00	58.52	4057.96	-4475.04	2858.05
Saccade R	1	12	28072030379	28072050262	19883	1409.34	187.36	1224.91	171.75	1.16	187.17	1.00	58.52	4057.96	-4475.04	2858.05
Fixation L	1	13	28072050262	28072308745	258483	1204.47	146.39	39	36	-1	13.14	13.14
Fixation R	1	13	28072050262	28072308745	258483	1204.47	146.39	39	36	-1	13.00	13.00
Saccade L	1	13	28072308745	28072328747	20002	1185.42	145.20	1086.92	271.14	0.92	161.71	1.00	45.76	3952.52	-3804.93	2610.44
Saccade R	1	13	28072308745	28072328747	20002	1185.42	145.20	1086.92	271.14	0.92	161.71	1.00	45.76	3952.52	-3804.93	2610.44
Fixation L	1	14	28072328747	28072467862	139115	1080.14	271.27	14	14	-1	13.41	13.41
Fixation R	1	14	28072328747	28072467862	139115	1080.14	271.27	14	14	-1	13.57	13.57
Saccade L	1	14	28072467862	28072527614	59752	1074.64	266.85	1119.54	793.54	5.70	213.83	0.33	95.44	5236.96	-3592.70	3602.93
Saccade R	1	14	28072467862	28072527614	59752	1074.64	266.85	1119.54	793.54	5.70	213.83	0.33	95.44	5236.96	-3592.70	3602.93
Fixation L	1	15	28072527614	28072865728	338114	1126.01	770.47	35	33	-1	13.92	13.92
Fixation R	1	15	28072527614	28072865728	338114	1126.01	770.47	35	33	-1	14.14	14.14
Saccade L	1	15	28072865728	28072945346	79618	1104.29	771.20	555.82	371.93	9.40	288.29	0.50	118.12	7013.02	-6718.41	4570.31
Saccade R	1	15	28072865728	28072945346	79618	1104.29	771.20	555.82	371.93	9.40	288.29	0.50	118.12	7013.02	-6718.41	4570.31
