[BeGaze]
Converted from:	C:\Documents and Settings\iViewX\Desktop\EXPERIMENTATIONS\Experiments\results\finaleart\S13H22431-finaleart-1.idf
Date:	27.03.2019 15:41:28
Version:	BeGaze 2.5.77
Sample Rate:	50
Subject:	S13H22431
Description:	Jimmy Petit

Table Header for Fixations:
Event Type	Trial	Number	Start	End	Duration	Location X	Location Y	Dispersion X	Dispersion Y	Plane	Avg. Pupil Size X	Avg. Pupil Size Y

Table Header for Saccades:
Event Type	Trial	Number	Start	End	Duration	Start Loc.X	Start Loc.Y	End Loc.X	End Loc.Y	Amplitude	Peak Speed	Peak Speed At	Average Speed	Peak Accel.	Peak Decel.	Average Accel.

Table Header for Blinks:
Event Type	Trial	Number	Start	End	Duration

Table Header for User Events:
Event Type	Trial	Number	Start	Description

UserEvent	1	1	27363013708	# Message: void.jpg
Fixation L	1	1	27363020365	27363179591	159226	705.90	707.88	54	1	-1	18.96	18.96
Fixation R	1	1	27363020365	27363179591	159226	705.90	707.88	54	1	-1	20.38	20.38
Saccade L	1	1	27363179591	27363199321	19730	752.25	708.04	830.64	708.66	0.74	79.30	1.00	37.52	1935.14	-1943.37	1545.23
Saccade R	1	1	27363179591	27363199321	19730	752.25	708.04	830.64	708.66	0.74	79.30	1.00	37.52	1935.14	-1943.37	1545.23
Fixation L	1	2	27363199321	27363796054	596733	852.14	725.90	29	64	-1	17.76	17.76
Fixation R	1	2	27363199321	27363796054	596733	852.14	725.90	29	64	-1	18.96	18.96
Saccade L	1	2	27363796054	27363815921	19867	856.29	685.40	852.90	679.00	0.19	26.26	1.00	9.66	17.05	-473.31	217.56
Saccade R	1	2	27363796054	27363815921	19867	856.29	685.40	852.90	679.00	0.19	26.26	1.00	9.66	17.05	-473.31	217.56
Fixation L	1	3	27363815921	27364134161	318240	847.22	666.04	9	32	-1	13.95	13.95
Fixation R	1	3	27363815921	27364134161	318240	847.22	666.04	9	32	-1	14.80	14.80
Saccade L	1	3	27364134161	27364174031	39870	851.50	646.84	899.06	459.62	1.75	106.77	1.00	43.90	2338.40	-2342.95	2321.88
Saccade R	1	3	27364134161	27364174031	39870	851.50	646.84	899.06	459.62	1.75	106.77	1.00	43.90	2338.40	-2342.95	2321.88
Fixation L	1	4	27364174031	27364472265	298234	915.69	467.78	23	21	-1	13.89	13.89
Fixation R	1	4	27364174031	27364472265	298234	915.69	467.78	23	21	-1	14.40	14.40
Blink L	1	1	27364472265	27364651402	179137
Blink R	1	1	27364472265	27364651402	179137
Fixation L	1	5	27364651402	27365009377	357975	898.73	375.10	53	31	-1	16.18	16.18
Fixation R	1	5	27364651402	27365009377	357975	898.73	375.10	53	31	-1	15.60	15.60
