[BeGaze]
Converted from:	C:\Documents and Settings\iViewX\Desktop\EXPERIMENTATIONS\Experiments\results\finaleart\S13H22431-finaleart-1.idf
Date:	27.03.2019 15:42:21
Version:	BeGaze 2.5.77
Sample Rate:	50
Subject:	S13H22431
Description:	Jimmy Petit

Table Header for Fixations:
Event Type	Trial	Number	Start	End	Duration	Location X	Location Y	Dispersion X	Dispersion Y	Plane	Avg. Pupil Size X	Avg. Pupil Size Y

Table Header for Saccades:
Event Type	Trial	Number	Start	End	Duration	Start Loc.X	Start Loc.Y	End Loc.X	End Loc.Y	Amplitude	Peak Speed	Peak Speed At	Average Speed	Peak Accel.	Peak Decel.	Average Accel.

Table Header for Blinks:
Event Type	Trial	Number	Start	End	Duration

Table Header for User Events:
Event Type	Trial	Number	Start	Description

UserEvent	1	1	28240459417	# Message: still-life-with-pumpkin-plums-cherries-figs-and-jug-Ribot-1860.jpg
Fixation L	1	1	28240473090	28240751546	278456	972.65	552.86	37	24	-1	16.13	16.13
Fixation R	1	1	28240473090	28240731673	258583	974.95	553.81	4	19	-1	17.27	17.27
Blink R	1	1	28240731673	28240890817	159144
Saccade L	1	1	28240751546	28240791421	39875	940.44	539.58	815.46	544.28	6.47	420.67	1.00	162.32	9561.91	-9295.15	8315.88
Fixation L	1	2	28240791421	28241049910	258489	795.94	537.72	27	57	-1	16.18	16.18
Fixation R	1	2	28240890817	28241049910	159093	795.56	531.91	6	33	-1	16.89	16.89
Saccade L	1	2	28241049910	28241069796	19886	791.06	555.85	797.12	629.39	0.61	74.64	1.00	30.47	1794.06	-1283.59	1127.83
Saccade R	1	1	28241049910	28241069796	19886	791.06	555.85	797.12	629.39	0.61	74.64	1.00	30.47	1794.06	-1283.59	1127.83
Fixation L	1	3	28241069796	28241248780	178984	782.46	639.01	55	37	-1	16.24	16.24
Fixation R	1	3	28241069796	28241248780	178984	782.46	639.01	55	37	-1	17.07	17.07
Saccade L	1	3	28241248780	28241268787	20007	743.57	632.41	736.22	633.87	0.14	7.58	1.00	6.91	7.24	-153.88	55.91
Saccade R	1	2	28241248780	28241268787	20007	743.57	632.41	736.22	633.87	0.14	7.58	1.00	6.91	7.24	-153.88	55.91
Fixation L	1	4	28241268787	28241547143	278356	729.58	597.58	21	78	-1	15.88	15.88
Fixation R	1	4	28241268787	28241547143	278356	729.58	597.58	21	78	-1	16.80	16.80
Saccade L	1	4	28241547143	28241646641	99498	721.10	556.82	605.60	756.41	3.97	227.94	1.00	39.85	5623.20	-5434.36	1813.15
Saccade R	1	3	28241547143	28241646641	99498	721.10	556.82	605.60	756.41	3.97	227.94	1.00	39.85	5623.20	-5434.36	1813.15
Fixation L	1	5	28241646641	28242064367	417726	598.47	800.04	34	64	-1	13.94	13.94
Fixation R	1	5	28241646641	28242064367	417726	598.47	800.04	34	64	-1	14.63	14.63
Saccade L	1	5	28242064367	28242084239	19872	621.38	796.36	623.93	796.21	0.09	7.33	0.00	4.39	-36.53	-123.24	75.52
Saccade R	1	4	28242064367	28242084239	19872	621.38	796.36	623.93	796.21	0.09	7.33	0.00	4.39	-36.53	-123.24	75.52
Fixation L	1	6	28242084239	28242223486	139247	615.49	808.19	36	56	-1	13.27	13.27
Fixation R	1	6	28242084239	28242223486	139247	615.49	808.19	36	56	-1	14.41	14.41
Saccade L	1	6	28242223486	28242243360	19874	596.41	850.43	580.25	841.19	0.46	31.04	0.00	23.28	45.38	-174.47	76.09
Saccade R	1	5	28242223486	28242243360	19874	596.41	850.43	580.25	841.19	0.46	31.04	0.00	23.28	45.38	-174.47	76.09
Fixation L	1	7	28242243360	28242462115	218755	571.76	843.80	31	31	-1	13.48	13.48
Fixation R	1	7	28242243360	28242462115	218755	571.76	843.80	31	31	-1	14.39	14.39
Saccade L	1	7	28242462115	28242501973	39858	560.81	850.79	1040.35	782.52	4.13	313.80	0.50	103.55	7765.57	-7415.65	5966.86
Saccade R	1	6	28242462115	28242501973	39858	560.81	850.79	1040.35	782.52	4.13	313.80	0.50	103.55	7765.57	-7415.65	5966.86
Fixation L	1	8	28242501973	28242760474	258501	1046.59	761.32	17	53	-1	14.29	14.29
Fixation R	1	8	28242501973	28242760474	258501	1046.59	761.32	17	53	-1	14.93	14.93
Saccade L	1	8	28242760474	28242780340	19866	1051.25	728.98	1097.12	689.45	0.60	61.26	1.00	30.21	1313.62	-1174.13	1081.84
Saccade R	1	7	28242760474	28242780340	19866	1051.25	728.98	1097.12	689.45	0.60	61.26	1.00	30.21	1313.62	-1174.13	1081.84
Fixation L	1	9	28242780340	28242959338	178998	1112.18	680.26	20	17	-1	13.73	13.73
Fixation R	1	9	28242780340	28242959338	178998	1112.18	680.26	20	17	-1	14.11	14.11
Saccade L	1	9	28242959338	28242979336	19998	1117.80	674.54	1183.76	668.29	0.52	67.02	1.00	25.84	1586.08	-1383.31	1134.14
Saccade R	1	8	28242959338	28242979336	19998	1117.80	674.54	1183.76	668.29	0.52	67.02	1.00	25.84	1586.08	-1383.31	1134.14
Fixation L	1	10	28242979336	28243198070	218734	1180.84	646.55	32	63	-1	13.46	13.46
Fixation R	1	10	28242979336	28243198070	218734	1180.84	646.55	32	63	-1	13.59	13.59
Saccade L	1	10	28243198070	28243217950	19880	1191.74	604.47	1193.45	588.75	0.31	22.65	0.00	15.77	95.50	-260.10	189.92
Saccade R	1	9	28243198070	28243217950	19880	1191.74	604.47	1193.45	588.75	0.31	22.65	0.00	15.77	95.50	-260.10	189.92
Fixation L	1	11	28243217950	28243377068	159118	1199.10	595.01	14	28	-1	13.35	13.35
Fixation R	1	11	28243217950	28243377068	159118	1199.10	595.01	14	28	-1	13.33	13.33
Saccade L	1	11	28243377068	28243396945	19877	1207.70	597.02	1219.53	672.18	0.58	76.97	1.00	29.01	1715.05	-1538.46	1115.29
Saccade R	1	10	28243377068	28243396945	19877	1207.70	597.02	1219.53	672.18	0.58	76.97	1.00	29.01	1715.05	-1538.46	1115.29
Fixation L	1	12	28243396945	28243595931	198986	1219.84	681.18	11	41	-1	13.41	13.41
Fixation R	1	12	28243396945	28243595931	198986	1219.84	681.18	11	41	-1	13.33	13.33
Saccade L	1	12	28243595931	28243655555	59624	1219.21	696.97	919.84	965.45	4.66	238.82	0.33	78.22	5672.66	-3484.64	3171.27
Saccade R	1	11	28243595931	28243655555	59624	1219.21	696.97	919.84	965.45	4.66	238.82	0.33	78.22	5672.66	-3484.64	3171.27
Fixation L	1	13	28243655555	28243794793	139238	915.94	974.41	9	14	-1	13.92	13.92
Fixation R	1	13	28243655555	28243794793	139238	915.94	974.41	9	14	-1	14.19	14.19
Saccade L	1	13	28243794793	28243854417	59624	911.31	971.83	412.42	978.29	5.14	214.56	0.33	86.13	5273.39	-4472.66	3803.60
Saccade R	1	12	28243794793	28243854417	59624	911.31	971.83	412.42	978.29	5.14	214.56	0.33	86.13	5273.39	-4472.66	3803.60
Fixation L	1	14	28243854417	28244391517	537100	421.45	989.76	62	21	-1	14.15	14.15
Fixation R	1	14	28243854417	28244391517	537100	421.45	989.76	62	21	-1	14.52	14.52
Saccade L	1	14	28244391517	28244451137	59620	382.50	992.78	356.03	1006.18	0.74	22.42	0.67	12.35	358.63	-295.20	207.77
Saccade R	1	13	28244391517	28244451137	59620	382.50	992.78	356.03	1006.18	0.74	22.42	0.67	12.35	358.63	-295.20	207.77
