[BeGaze]
Converted from:	C:\Documents and Settings\iViewX\Desktop\EXPERIMENTATIONS\Experiments\results\finaleart\S13H22431-finaleart-1.idf
Date:	27.03.2019 15:41:41
Version:	BeGaze 2.5.77
Sample Rate:	50
Subject:	S13H22431
Description:	Jimmy Petit

Table Header for Fixations:
Event Type	Trial	Number	Start	End	Duration	Location X	Location Y	Dispersion X	Dispersion Y	Plane	Avg. Pupil Size X	Avg. Pupil Size Y

Table Header for Saccades:
Event Type	Trial	Number	Start	End	Duration	Start Loc.X	Start Loc.Y	End Loc.X	End Loc.Y	Amplitude	Peak Speed	Peak Speed At	Average Speed	Peak Accel.	Peak Decel.	Average Accel.

Table Header for Blinks:
Event Type	Trial	Number	Start	End	Duration

Table Header for User Events:
Event Type	Trial	Number	Start	Description

UserEvent	1	1	27503671345	# Message: void.jpg
Fixation L	1	1	27503683240	27503882083	198843	965.62	135.82	13	20	-1	11.98	11.98
Fixation R	1	1	27503683240	27503882083	198843	965.62	135.82	13	20	-1	12.65	12.65
Saccade L	1	1	27503882083	27504021349	139266	972.07	137.40	1618.52	562.01	12.34	227.27	1.00	88.60	5637.55	-5346.35	3638.52
Saccade R	1	1	27503882083	27504021349	139266	972.07	137.40	1618.52	562.01	12.34	227.27	1.00	88.60	5637.55	-5346.35	3638.52
Fixation L	1	2	27504021349	27504200313	178964	1589.27	589.98	42	53	-1	12.77	12.77
Fixation R	1	2	27504021349	27504200313	178964	1589.27	589.98	42	53	-1	13.01	13.01
Saccade L	1	2	27504200313	27504279934	79621	1576.26	615.10	1878.93	103.04	8.33	216.40	0.25	104.63	5312.80	-2704.11	2923.59
Saccade R	1	2	27504200313	27504279934	79621	1576.26	615.10	1878.93	103.04	8.33	216.40	0.25	104.63	5312.80	-2704.11	2923.59
Fixation L	1	3	27504279934	27504458805	178871	1887.52	94.20	37	58	-1	12.02	12.02
Fixation R	1	3	27504279934	27504458805	178871	1887.52	94.20	37	58	-1	12.48	12.48
Saccade L	1	3	27504458805	27504558312	99507	1878.97	102.59	682.09	185.98	15.52	440.41	0.40	155.98	10849.90	-5580.48	5095.69
Saccade R	1	3	27504458805	27504558312	99507	1878.97	102.59	682.09	185.98	15.52	440.41	0.40	155.98	10849.90	-5580.48	5095.69
Fixation L	1	4	27504558312	27504777160	218848	678.28	149.68	22	50	-1	13.66	13.66
Fixation R	1	4	27504558312	27504777160	218848	678.28	149.68	22	50	-1	13.62	13.62
Saccade L	1	4	27504777160	27504797048	19888	661.94	137.02	487.80	136.28	1.10	176.11	1.00	55.22	4320.18	-4193.90	2949.94
Saccade R	1	4	27504777160	27504797048	19888	661.94	137.02	487.80	136.28	1.10	176.11	1.00	55.22	4320.18	-4193.90	2949.94
Fixation L	1	5	27504797048	27505035652	238604	467.66	157.13	33	37	-1	14.08	14.08
Fixation R	1	5	27504797048	27505035652	238604	467.66	157.13	33	37	-1	14.07	14.07
Saccade L	1	5	27505035652	27505075404	39752	466.67	174.09	627.12	291.02	1.92	142.09	1.00	48.36	3500.61	-3417.30	2633.50
Saccade R	1	5	27505035652	27505075404	39752	466.67	174.09	627.12	291.02	1.92	142.09	1.00	48.36	3500.61	-3417.30	2633.50
Fixation L	1	6	27505075404	27505234519	159115	625.18	280.93	7	50	-1	14.72	14.72
Fixation R	1	6	27505075404	27505234519	159115	625.18	280.93	7	50	-1	15.22	15.22
Blink L	1	1	27505234519	27505393640	159121
Blink R	1	1	27505234519	27505393640	159121
Fixation L	1	7	27505393640	27505552887	159247	744.94	332.08	22	25	-1	14.51	14.51
Fixation R	1	7	27505393640	27505552887	159247	744.94	332.08	22	25	-1	15.01	15.01
Saccade L	1	6	27505552887	27505652271	99384	748.73	340.91	903.61	351.43	2.91	124.34	0.20	29.27	2639.83	-3061.82	1228.53
Saccade R	1	6	27505552887	27505652271	99384	748.73	340.91	903.61	351.43	2.91	124.34	0.20	29.27	2639.83	-3061.82	1228.53
