[BeGaze]
Converted from:	C:\Documents and Settings\iViewX\Desktop\EXPERIMENTATIONS\Experiments\results\finaleart\S13H22431-finaleart-1.idf
Date:	27.03.2019 15:42:19
Version:	BeGaze 2.5.77
Sample Rate:	50
Subject:	S13H22431
Description:	Jimmy Petit

Table Header for Fixations:
Event Type	Trial	Number	Start	End	Duration	Location X	Location Y	Dispersion X	Dispersion Y	Plane	Avg. Pupil Size X	Avg. Pupil Size Y

Table Header for Saccades:
Event Type	Trial	Number	Start	End	Duration	Start Loc.X	Start Loc.Y	End Loc.X	End Loc.Y	Amplitude	Peak Speed	Peak Speed At	Average Speed	Peak Accel.	Peak Decel.	Average Accel.

Table Header for Blinks:
Event Type	Trial	Number	Start	End	Duration

Table Header for User Events:
Event Type	Trial	Number	Start	Description

UserEvent	1	1	28216033319	# Message: parrot-tulips-(II)_matisse_1905.jpg
Fixation L	1	1	28216048004	28216326506	278502	914.17	547.63	4	24	-1	15.63	15.63
Fixation R	1	1	28216048004	28216326506	278502	914.17	547.63	4	24	-1	17.16	17.16
Saccade L	1	1	28216326506	28216346363	19857	914.27	552.59	843.33	560.45	0.60	72.20	1.00	30.33	1787.48	-1230.17	1378.58
Saccade R	1	1	28216326506	28216346363	19857	914.27	552.59	843.33	560.45	0.60	72.20	1.00	30.33	1787.48	-1230.17	1378.58
Fixation L	1	2	28216346363	28216565243	218880	860.21	568.17	45	16	-1	15.20	15.20
Fixation R	1	2	28216346363	28216565243	218880	860.21	568.17	45	16	-1	16.38	16.38
Saccade L	1	2	28216565243	28216585126	19883	865.63	573.90	1026.91	569.50	1.13	163.17	1.00	56.74	4057.58	-3425.43	2819.81
Saccade R	1	2	28216565243	28216585126	19883	865.63	573.90	1026.91	569.50	1.13	163.17	1.00	56.74	4057.58	-3425.43	2819.81
Fixation L	1	3	28216585126	28216783969	198843	1036.35	538.35	13	55	-1	13.48	13.48
Fixation R	1	3	28216585126	28216783969	198843	1036.35	538.35	13	55	-1	15.04	15.04
Saccade L	1	3	28216783969	28216803838	19869	1038.08	554.59	1039.13	630.07	0.62	76.36	1.00	31.34	1823.96	-1807.50	1469.57
Saccade R	1	3	28216783969	28216803838	19869	1038.08	554.59	1039.13	630.07	0.62	76.36	1.00	31.34	1823.96	-1807.50	1469.57
Fixation L	1	4	28216803838	28217042577	238739	1048.40	635.94	17	57	-1	12.47	12.47
Fixation R	1	4	28216803838	28217042577	238739	1048.40	635.94	17	57	-1	13.72	13.72
Saccade L	1	4	28217042577	28217082340	39763	1055.54	636.80	1128.87	749.11	1.51	84.84	1.00	37.97	1902.32	-2076.27	1859.52
Saccade R	1	4	28217042577	28217082340	39763	1055.54	636.80	1128.87	749.11	1.51	84.84	1.00	37.97	1902.32	-2076.27	1859.52
Fixation L	1	5	28217082340	28217281197	198857	1142.87	758.08	19	15	-1	12.85	12.85
Fixation R	1	5	28217082340	28217281197	198857	1142.87	758.08	19	15	-1	13.70	13.70
Saccade L	1	5	28217281197	28217340954	59757	1134.21	764.11	634.76	854.18	5.73	270.18	0.33	95.81	6736.64	-4659.73	4148.63
Saccade R	1	5	28217281197	28217340954	59757	1134.21	764.11	634.76	854.18	5.73	270.18	0.33	95.81	6736.64	-4659.73	4148.63
Fixation L	1	6	28217340954	28217539812	198858	646.19	852.64	23	22	-1	13.44	13.44
Fixation R	1	6	28217340954	28217539812	198858	646.19	852.64	23	22	-1	14.41	14.41
Saccade L	1	6	28217539812	28217559688	19876	649.53	845.64	552.06	844.51	0.59	98.60	1.00	29.90	2455.84	-2379.07	1679.64
Saccade R	1	6	28217539812	28217559688	19876	649.53	845.64	552.06	844.51	0.59	98.60	1.00	29.90	2455.84	-2379.07	1679.64
Fixation L	1	7	28217559688	28217738681	178993	534.89	834.14	36	26	-1	13.10	13.10
Fixation R	1	7	28217559688	28217738681	178993	534.89	834.14	36	26	-1	14.60	14.60
Saccade L	1	7	28217738681	28217758550	19869	515.88	818.07	490.14	791.15	0.30	37.68	1.00	15.15	781.85	-741.72	543.58
Saccade R	1	7	28217738681	28217758550	19869	515.88	818.07	490.14	791.15	0.30	37.68	1.00	15.15	781.85	-741.72	543.58
Fixation L	1	8	28217758550	28217877938	119388	492.20	781.95	18	15	-1	13.01	13.01
Fixation R	1	8	28217758550	28217877938	119388	492.20	781.95	18	15	-1	14.02	14.02
Saccade L	1	8	28217877938	28217937673	59735	504.58	778.60	1244.18	639.91	8.06	311.39	0.67	134.86	7560.58	-7467.64	5900.85
Saccade R	1	8	28217877938	28217937673	59735	504.58	778.60	1244.18	639.91	8.06	311.39	0.67	134.86	7560.58	-7467.64	5900.85
Fixation L	1	9	28217937673	28218156408	218735	1265.80	608.90	31	46	-1	12.78	12.78
Fixation R	1	9	28217937673	28218156408	218735	1265.80	608.90	31	46	-1	14.03	14.03
Saccade L	1	9	28218156408	28218236024	79616	1268.55	596.60	1004.36	176.47	5.99	196.88	0.50	75.26	4894.43	-4162.94	2959.80
Saccade R	1	9	28218156408	28218236024	79616	1268.55	596.60	1004.36	176.47	5.99	196.88	0.50	75.26	4894.43	-4162.94	2959.80
Fixation L	1	10	28218236024	28218395154	159130	1010.58	183.20	23	38	-1	12.62	12.62
Fixation R	1	10	28218236024	28218395154	159130	1010.58	183.20	23	38	-1	13.68	13.68
Saccade L	1	10	28218395154	28218434899	39745	1010.57	176.91	616.09	189.27	3.72	230.48	0.50	93.71	5416.96	-4614.85	4462.93
Saccade R	1	10	28218395154	28218434899	39745	1010.57	176.91	616.09	189.27	3.72	230.48	0.50	93.71	5416.96	-4614.85	4462.93
Fixation L	1	11	28218434899	28218633780	198881	595.55	205.84	43	52	-1	13.09	13.09
Fixation R	1	11	28218434899	28218633780	198881	595.55	205.84	43	52	-1	14.20	14.20
Saccade L	1	11	28218633780	28218653637	19857	602.03	229.77	561.61	227.85	0.59	63.28	1.00	29.95	1452.78	-948.85	1054.72
Saccade R	1	11	28218633780	28218653637	19857	602.03	229.77	561.61	227.85	0.59	63.28	1.00	29.95	1452.78	-948.85	1054.72
Fixation L	1	12	28218653637	28218832625	178988	501.29	212.89	72	26	-1	13.24	13.24
Fixation R	1	12	28218653637	28218832625	178988	501.29	212.89	72	26	-1	14.20	14.20
Saccade L	1	12	28218832625	28218932125	99500	494.12	203.97	906.19	249.82	6.15	241.92	1.00	61.84	5904.09	-5149.91	2739.22
Saccade R	1	12	28218832625	28218932125	99500	494.12	203.97	906.19	249.82	6.15	241.92	1.00	61.84	5904.09	-5149.91	2739.22
Fixation L	1	13	28218932125	28219170864	238739	938.23	240.38	43	32	-1	13.57	13.57
Fixation R	1	13	28218932125	28219170864	238739	938.23	240.38	43	32	-1	14.75	14.75
Saccade L	1	13	28219170864	28219190738	19874	945.46	243.94	1053.83	260.19	0.72	110.84	1.00	36.18	2589.75	-2459.88	1819.46
Saccade R	1	13	28219170864	28219190738	19874	945.46	243.94	1053.83	260.19	0.72	110.84	1.00	36.18	2589.75	-2459.88	1819.46
Fixation L	1	14	28219190738	28219429357	238619	1054.85	303.21	12	70	-1	14.56	14.56
Fixation R	1	14	28219190738	28219429357	238619	1054.85	303.21	12	70	-1	16.06	16.06
Saccade L	1	14	28219429357	28219469102	39745	1059.74	324.71	1271.83	420.07	2.25	162.81	0.50	56.52	4007.50	-3852.22	3220.61
Saccade R	1	14	28219429357	28219469102	39745	1059.74	324.71	1271.83	420.07	2.25	162.81	0.50	56.52	4007.50	-3852.22	3220.61
Fixation L	1	15	28219469102	28219707855	238753	1277.95	448.06	23	70	-1	14.85	14.85
Fixation R	1	15	28219469102	28219707855	238753	1277.95	448.06	23	70	-1	15.89	15.89
Saccade L	1	15	28219707855	28219727719	19864	1260.40	490.59	1240.46	480.85	0.41	36.09	1.00	20.67	-73.76	-397.65	270.77
Saccade R	1	15	28219707855	28219727719	19864	1260.40	490.59	1240.46	480.85	0.41	36.09	1.00	20.67	-73.76	-397.65	270.77
Fixation L	1	16	28219727719	28219906707	178988	1225.87	496.07	26	24	-1	14.84	14.84
Fixation R	1	16	28219727719	28219906707	178988	1225.87	496.07	26	24	-1	15.82	15.82
Saccade L	1	16	28219906707	28219926597	19890	1228.06	504.83	1306.61	579.91	0.72	109.91	1.00	35.98	2704.09	-2482.98	1775.46
Saccade R	1	16	28219906707	28219926597	19890	1228.06	504.83	1306.61	579.91	0.72	109.91	1.00	35.98	2704.09	-2482.98	1775.46
Fixation L	1	17	28219926597	28220026086	99489	1313.45	601.70	14	29	-1	15.02	15.02
Fixation R	1	17	28219926597	28220026086	99489	1313.45	601.70	14	29	-1	16.06	16.06
