[BeGaze]
Converted from:	C:\Documents and Settings\iViewX\Desktop\EXPERIMENTATIONS\Experiments\results\finaleart\S13H22431-finaleart-1.idf
Date:	27.03.2019 15:42:22
Version:	BeGaze 2.5.77
Sample Rate:	50
Subject:	S13H22431
Description:	Jimmy Petit

Table Header for Fixations:
Event Type	Trial	Number	Start	End	Duration	Location X	Location Y	Dispersion X	Dispersion Y	Plane	Avg. Pupil Size X	Avg. Pupil Size Y

Table Header for Saccades:
Event Type	Trial	Number	Start	End	Duration	Start Loc.X	Start Loc.Y	End Loc.X	End Loc.Y	Amplitude	Peak Speed	Peak Speed At	Average Speed	Peak Accel.	Peak Decel.	Average Accel.

Table Header for Blinks:
Event Type	Trial	Number	Start	End	Duration

Table Header for User Events:
Event Type	Trial	Number	Start	Description

UserEvent	1	1	28246577012	# Message: Georges-braque-still-life-with-jugs-and-pipe-1906.jpg
Fixation L	1	1	28246579438	28246718677	139239	932.27	483.80	13	24	-1	14.97	14.97
Fixation R	1	1	28246579438	28246718677	139239	932.27	483.80	13	24	-1	15.59	15.59
Saccade L	1	1	28246718677	28246738689	20012	938.90	481.03	853.24	502.15	0.80	89.24	1.00	39.82	1849.69	-1938.86	1579.39
Saccade R	1	1	28246718677	28246738689	20012	938.90	481.03	853.24	502.15	0.80	89.24	1.00	39.82	1849.69	-1938.86	1579.39
Fixation L	1	2	28246738689	28247017041	278352	845.25	535.28	14	53	-1	15.03	15.03
Fixation R	1	2	28246738689	28247017041	278352	845.25	535.28	14	53	-1	15.67	15.67
Saccade L	1	2	28247017041	28247036921	19880	842.91	531.99	974.34	520.94	0.89	133.40	1.00	44.73	3204.81	-2972.42	2363.13
Saccade R	1	2	28247017041	28247036921	19880	842.91	531.99	974.34	520.94	0.89	133.40	1.00	44.73	3204.81	-2972.42	2363.13
Fixation L	1	3	28247036921	28247215913	178992	1007.13	499.64	46	48	-1	14.35	14.35
Fixation R	1	3	28247036921	28247215913	178992	1007.13	499.64	46	48	-1	15.37	15.37
Saccade L	1	3	28247215913	28247235774	19861	1021.05	483.65	1138.30	679.16	1.64	230.50	1.00	82.77	5616.71	-5417.58	4312.77
Saccade R	1	3	28247215913	28247235774	19861	1021.05	483.65	1138.30	679.16	1.64	230.50	1.00	82.77	5616.71	-5417.58	4312.77
Fixation L	1	4	28247235774	28247355247	119473	1149.57	745.24	14	83	-1	12.84	12.84
Fixation R	1	4	28247235774	28247355247	119473	1149.57	745.24	14	83	-1	13.83	13.83
Saccade L	1	4	28247355247	28247434654	79407	1152.92	755.38	1253.99	989.27	3.13	142.39	0.75	39.36	3467.77	-3158.16	1992.50
Saccade R	1	4	28247355247	28247434654	79407	1152.92	755.38	1253.99	989.27	3.13	142.39	0.75	39.36	3467.77	-3158.16	1992.50
Fixation L	1	5	28247434654	28247693248	258594	1263.93	980.49	19	16	-1	12.48	12.48
Fixation R	1	5	28247434654	28247693248	258594	1263.93	980.49	19	16	-1	12.89	12.89
Saccade L	1	5	28247693248	28247732993	39745	1254.80	979.29	668.08	972.25	5.12	349.22	0.50	128.70	8668.03	-8010.22	7008.37
Saccade R	1	5	28247693248	28247732993	39745	1254.80	979.29	668.08	972.25	5.12	349.22	0.50	128.70	8668.03	-8010.22	7008.37
Fixation L	1	6	28247732993	28247892111	159118	635.93	949.03	39	39	-1	12.64	12.64
Fixation R	1	6	28247732993	28247892111	159118	635.93	949.03	39	39	-1	13.12	13.12
Saccade L	1	6	28247892111	28247931866	39755	632.01	933.01	420.10	1028.85	2.12	150.76	0.50	53.26	3576.33	-3662.73	3009.41
Saccade R	1	6	28247892111	28247931866	39755	632.01	933.01	420.10	1028.85	2.12	150.76	0.50	53.26	3576.33	-3662.73	3009.41
Fixation L	1	7	28247931866	28248528715	596849	413.09	1046.37	20	28	-1	12.78	12.78
Fixation R	1	7	28247931866	28248528715	596849	413.09	1046.37	20	28	-1	13.46	13.46
Saccade L	1	7	28248528715	28248608214	79499	399.77	1043.65	796.58	408.17	9.21	266.38	0.50	115.89	6599.13	-4246.63	3662.30
Saccade R	1	7	28248528715	28248608214	79499	399.77	1043.65	796.58	408.17	9.21	266.38	0.50	115.89	6599.13	-4246.63	3662.30
Fixation L	1	8	28248608214	28248787205	178991	816.86	400.64	33	53	-1	13.12	13.12
Fixation R	1	8	28248608214	28248787205	178991	816.86	400.64	33	53	-1	14.10	14.10
Saccade L	1	8	28248787205	28248827076	39871	830.28	398.46	1085.18	397.03	2.29	156.49	1.00	57.50	3475.62	-3680.45	2997.10
Saccade R	1	8	28248787205	28248827076	39871	830.28	398.46	1085.18	397.03	2.29	156.49	1.00	57.50	3475.62	-3680.45	2997.10
Fixation L	1	9	28248827076	28249503166	676090	1102.92	399.30	46	25	-1	13.65	13.65
Fixation R	1	9	28248827076	28249503166	676090	1102.92	399.30	46	25	-1	14.23	14.23
Saccade L	1	9	28249503166	28249523168	20002	1063.87	392.73	1013.23	391.58	0.59	51.24	1.00	29.25	1122.42	-856.43	866.25
Saccade R	1	9	28249503166	28249523168	20002	1063.87	392.73	1013.23	391.58	0.59	51.24	1.00	29.25	1122.42	-856.43	866.25
Fixation L	1	10	28249523168	28249881159	357991	1010.59	384.80	25	16	-1	14.56	14.56
Fixation R	1	10	28249523168	28249881159	357991	1010.59	384.80	25	16	-1	15.03	15.03
Saccade L	1	10	28249881159	28249920906	39747	1006.56	378.98	843.98	427.85	1.58	114.81	0.50	39.70	2602.64	-2719.10	1921.72
Saccade R	1	10	28249881159	28249920906	39747	1006.56	378.98	843.98	427.85	1.58	114.81	0.50	39.70	2602.64	-2719.10	1921.72
Fixation L	1	11	28249920906	28250458006	537100	844.33	414.85	18	54	-1	14.36	14.36
Fixation R	1	11	28249920906	28250458006	537100	844.33	414.85	18	54	-1	14.74	14.74
Saccade L	1	11	28250458006	28250577251	119245	839.50	415.24	749.30	423.89	35.60	1045.96	0.67	298.51	22128.34	-24813.49	9124.03
Saccade R	1	11	28250458006	28250577251	119245	839.50	415.24	749.30	423.89	35.60	1045.96	0.67	298.51	22128.34	-24813.49	9124.03
