[BeGaze]
Converted from:	C:\Documents and Settings\iViewX\Desktop\EXPERIMENTATIONS\Experiments\results\finaleart\S13H22431-finaleart-1.idf
Date:	27.03.2019 15:41:20
Version:	BeGaze 2.5.77
Sample Rate:	50
Subject:	S13H22431
Description:	Jimmy Petit

Table Header for Fixations:
Event Type	Trial	Number	Start	End	Duration	Location X	Location Y	Dispersion X	Dispersion Y	Plane	Avg. Pupil Size X	Avg. Pupil Size Y

Table Header for Saccades:
Event Type	Trial	Number	Start	End	Duration	Start Loc.X	Start Loc.Y	End Loc.X	End Loc.Y	Amplitude	Peak Speed	Peak Speed At	Average Speed	Peak Accel.	Peak Decel.	Average Accel.

Table Header for Blinks:
Event Type	Trial	Number	Start	End	Duration

Table Header for User Events:
Event Type	Trial	Number	Start	Description

UserEvent	1	1	27236331070	# Message: the_three_skulls_gericault_1814.jpg
Fixation L	1	1	27236340737	27236459969	119232	482.32	404.47	7	22	-1	17.49	17.49
Fixation R	1	1	27236340737	27236459969	119232	482.32	404.47	7	22	-1	17.99	17.99
Saccade L	1	1	27236459969	27236499835	39866	485.80	390.48	718.01	552.18	2.45	179.08	1.00	61.52	4229.75	-4294.20	3415.02
Saccade R	1	1	27236459969	27236499835	39866	485.80	390.48	718.01	552.18	2.45	179.08	1.00	61.52	4229.75	-4294.20	3415.02
Fixation L	1	2	27236499835	27236678827	178992	711.50	561.86	10	18	-1	17.41	17.41
Fixation R	1	2	27236499835	27236678827	178992	711.50	561.86	10	18	-1	18.29	18.29
Saccade L	1	2	27236678827	27236718584	39757	708.92	560.05	971.99	519.51	2.21	148.47	0.50	55.67	3693.40	-3657.57	3373.91
Saccade R	1	2	27236678827	27236718584	39757	708.92	560.05	971.99	519.51	2.21	148.47	0.50	55.67	3693.40	-3657.57	3373.91
Fixation L	1	3	27236718584	27236857822	139238	964.15	512.98	14	19	-1	16.94	16.94
Fixation R	1	3	27236718584	27236857822	139238	964.15	512.98	14	19	-1	17.64	17.64
Saccade L	1	3	27236857822	27236877689	19867	960.25	500.99	1063.98	521.41	0.62	106.94	1.00	31.16	2544.66	-2461.76	1764.56
Saccade R	1	3	27236857822	27236877689	19867	960.25	500.99	1063.98	521.41	0.62	106.94	1.00	31.16	2544.66	-2461.76	1764.56
Fixation L	1	4	27236877689	27237016935	139246	1078.56	516.58	21	10	-1	16.42	16.42
Fixation R	1	4	27236877689	27237016935	139246	1078.56	516.58	21	10	-1	17.00	17.00
Saccade L	1	4	27237016935	27237036813	19878	1083.94	518.80	968.14	534.69	0.63	118.22	1.00	31.71	2914.12	-2805.79	1943.61
Saccade R	1	4	27237016935	27237036813	19878	1083.94	518.80	968.14	534.69	0.63	118.22	1.00	31.71	2914.12	-2805.79	1943.61
Fixation L	1	5	27237036813	27237195927	159114	959.51	523.26	18	20	-1	16.75	16.75
Fixation R	1	5	27237036813	27237195927	159114	959.51	523.26	18	20	-1	17.29	17.29
Saccade L	1	5	27237195927	27237235679	39752	949.58	519.46	381.38	484.57	4.80	340.32	0.50	120.69	8444.39	-8218.27	6990.11
Saccade R	1	5	27237195927	27237235679	39752	949.58	519.46	381.38	484.57	4.80	340.32	0.50	120.69	8444.39	-8218.27	6990.11
Fixation L	1	6	27237235679	27237553919	318240	399.32	484.34	31	17	-1	17.55	17.55
Fixation R	1	6	27237235679	27237553919	318240	399.32	484.34	31	17	-1	18.03	18.03
Saccade L	1	6	27237553919	27237613659	59740	412.96	493.91	1087.64	484.88	7.15	252.58	0.33	119.73	6099.77	-5579.00	4749.49
Saccade R	1	6	27237553919	27237613659	59740	412.96	493.91	1087.64	484.88	7.15	252.58	0.33	119.73	6099.77	-5579.00	4749.49
Fixation L	1	7	27237613659	27237792648	178989	1074.90	477.59	28	16	-1	18.13	18.13
Fixation R	1	7	27237613659	27237792648	178989	1074.90	477.59	28	16	-1	18.63	18.63
Saccade L	1	7	27237792648	27237812519	19871	1096.00	479.56	1283.26	478.44	1.18	189.37	1.00	59.49	4610.68	-4232.15	3060.69
Saccade R	1	7	27237792648	27237812519	19871	1096.00	479.56	1283.26	478.44	1.18	189.37	1.00	59.49	4610.68	-4232.15	3060.69
Fixation L	1	8	27237812519	27237971640	159121	1291.38	500.95	15	33	-1	18.72	18.72
Fixation R	1	8	27237812519	27237971640	159121	1291.38	500.95	15	33	-1	19.23	19.23
Blink L	1	1	27237971640	27238170504	198864
Blink R	1	1	27237971640	27238170504	198864
Fixation L	1	9	27238170504	27238508744	338240	980.95	503.64	59	32	-1	20.23	20.23
Fixation R	1	9	27238170504	27238508744	338240	980.95	503.64	59	32	-1	19.93	19.93
Saccade L	1	8	27238508744	27238568370	59626	954.59	514.58	410.61	414.45	5.96	264.67	0.67	99.95	6378.17	-6200.39	4190.54
Saccade R	1	8	27238508744	27238568370	59626	954.59	514.58	410.61	414.45	5.96	264.67	0.67	99.95	6378.17	-6200.39	4190.54
Fixation L	1	10	27238568370	27238966095	397725	396.06	421.64	33	59	-1	19.24	19.24
Fixation R	1	10	27238568370	27238966095	397725	396.06	421.64	33	59	-1	19.12	19.12
Saccade L	1	9	27238966095	27239005982	39887	407.38	450.91	932.22	562.73	4.75	334.68	0.50	119.10	8222.96	-7954.74	6388.77
Saccade R	1	9	27238966095	27239005982	39887	407.38	450.91	932.22	562.73	4.75	334.68	0.50	119.10	8222.96	-7954.74	6388.77
Fixation L	1	11	27239005982	27239165087	159105	924.59	556.89	13	10	-1	18.47	18.47
Fixation R	1	11	27239005982	27239165087	159105	924.59	556.89	13	10	-1	18.40	18.40
Blink L	1	2	27239165087	27239304329	139242
Blink R	1	2	27239165087	27239304329	139242
Fixation L	1	12	27239304329	27239682193	377864	969.48	545.27	24	13	-1	19.12	19.12
Fixation R	1	12	27239304329	27239682193	377864	969.48	545.27	24	13	-1	19.54	19.54
Blink L	1	3	27239682193	27239861187	178994
Blink R	1	3	27239682193	27239861187	178994
Fixation L	1	13	27239861187	27240020301	159114	1006.09	644.61	15	15	-1	20.68	20.68
Fixation R	1	13	27239861187	27240020301	159114	1006.09	644.61	15	15	-1	19.77	19.77
Saccade L	1	10	27240020301	27240040183	19882	1008.43	643.82	1047.80	719.10	0.65	85.93	1.00	32.58	2128.14	-1714.78	1635.19
Saccade R	1	10	27240020301	27240040183	19882	1008.43	643.82	1047.80	719.10	0.65	85.93	1.00	32.58	2128.14	-1714.78	1635.19
Fixation L	1	14	27240040183	27240318668	278485	1073.22	742.39	32	41	-1	20.26	20.26
Fixation R	1	14	27240040183	27240318668	278485	1073.22	742.39	32	41	-1	19.47	19.47
