[BeGaze]
Converted from:	C:\Documents and Settings\iViewX\Desktop\EXPERIMENTATIONS\Experiments\results\finaleart\S13H22431-finaleart-1.idf
Date:	27.03.2019 15:41:46
Version:	BeGaze 2.5.77
Sample Rate:	50
Subject:	S13H22431
Description:	Jimmy Petit

Table Header for Fixations:
Event Type	Trial	Number	Start	End	Duration	Location X	Location Y	Dispersion X	Dispersion Y	Plane	Avg. Pupil Size X	Avg. Pupil Size Y

Table Header for Saccades:
Event Type	Trial	Number	Start	End	Duration	Start Loc.X	Start Loc.Y	End Loc.X	End Loc.Y	Amplitude	Peak Speed	Peak Speed At	Average Speed	Peak Accel.	Peak Decel.	Average Accel.

Table Header for Blinks:
Event Type	Trial	Number	Start	End	Duration

Table Header for User Events:
Event Type	Trial	Number	Start	Description

UserEvent	1	1	27808717168	# Message: void.jpg
Saccade L	1	1	27808725226	27808784836	59610	696.86	1063.64	659.50	944.38	1.91	126.02	1.00	32.02	3133.18	-2690.48	1317.84
Saccade R	1	1	27808725226	27808784836	59610	696.86	1063.64	659.50	944.38	1.91	126.02	1.00	32.02	3133.18	-2690.48	1317.84
Fixation L	1	1	27808784836	27808983713	198877	633.78	916.33	40	42	-1	16.27	16.27
Fixation R	1	1	27808784836	27808983713	198877	633.78	916.33	40	42	-1	17.84	17.84
Saccade L	1	2	27808983713	27809043442	59729	619.42	902.26	609.23	463.60	5.09	164.40	0.33	85.22	4070.11	-3276.38	2708.93
Saccade R	1	2	27808983713	27809043442	59729	619.42	902.26	609.23	463.60	5.09	164.40	0.33	85.22	4070.11	-3276.38	2708.93
Fixation L	1	2	27809043442	27809202555	159113	606.68	430.41	9	52	-1	15.88	15.88
Fixation R	1	2	27809043442	27809202555	159113	606.68	430.41	9	52	-1	17.30	17.30
Saccade L	1	3	27809202555	27809301926	99371	606.89	432.68	1208.44	77.60	9.49	238.29	0.40	95.49	5865.97	-3223.92	2592.42
Saccade R	1	3	27809202555	27809301926	99371	606.89	432.68	1208.44	77.60	9.49	238.29	0.40	95.49	5865.97	-3223.92	2592.42
Fixation L	1	3	27809301926	27809660043	358117	1233.29	96.05	33	43	-1	14.75	14.75
Fixation R	1	3	27809301926	27809660043	358117	1233.29	96.05	33	43	-1	15.62	15.62
Saccade L	1	4	27809660043	27809779409	119366	1227.61	121.04	540.97	492.53	11.02	194.08	0.67	92.34	4233.30	-3476.27	2221.00
Saccade R	1	4	27809660043	27809779409	119366	1227.61	121.04	540.97	492.53	11.02	194.08	0.67	92.34	4233.30	-3476.27	2221.00
Fixation L	1	4	27809779409	27810057776	278367	534.31	511.44	18	31	-1	15.60	15.60
Fixation R	1	4	27809779409	27810057776	278367	534.31	511.44	18	31	-1	16.17	16.17
Blink L	1	1	27810057776	27810177156	119380
Blink R	1	1	27810057776	27810177156	119380
Fixation L	1	5	27810177156	27810455630	278474	818.97	431.36	29	23	-1	16.11	16.11
Fixation R	1	5	27810177156	27810455630	278474	818.97	431.36	29	23	-1	15.70	15.70
Saccade L	1	5	27810455630	27810475513	19883	830.33	438.93	902.01	432.23	0.44	72.82	1.00	22.17	1759.32	-1729.55	1228.97
Saccade R	1	5	27810455630	27810475513	19883	830.33	438.93	902.01	432.23	0.44	72.82	1.00	22.17	1759.32	-1729.55	1228.97
Fixation L	1	6	27810475513	27810714245	238732	904.94	441.68	9	14	-1	16.58	16.58
Fixation R	1	6	27810475513	27810714245	238732	904.94	441.68	9	14	-1	16.37	16.37
