[BeGaze]
Converted from:	C:\Documents and Settings\iViewX\Desktop\EXPERIMENTATIONS\Experiments\results\finaleart\S13H22431-finaleart-1.idf
Date:	27.03.2019 15:41:54
Version:	BeGaze 2.5.77
Sample Rate:	50
Subject:	S13H22431
Description:	Jimmy Petit

Table Header for Fixations:
Event Type	Trial	Number	Start	End	Duration	Location X	Location Y	Dispersion X	Dispersion Y	Plane	Avg. Pupil Size X	Avg. Pupil Size Y

Table Header for Saccades:
Event Type	Trial	Number	Start	End	Duration	Start Loc.X	Start Loc.Y	End Loc.X	End Loc.Y	Amplitude	Peak Speed	Peak Speed At	Average Speed	Peak Accel.	Peak Decel.	Average Accel.

Table Header for Blinks:
Event Type	Trial	Number	Start	End	Duration

Table Header for User Events:
Event Type	Trial	Number	Start	Description

UserEvent	1	1	27890171990	# Message: garlic-cloves-and-knife-on-the-corner-of-a-table_caillebotte_1871.jpg
Blink L	1	1	27890175180	27890254687	79507
Blink R	1	1	27890175180	27890254687	79507
Fixation L	1	1	27890254687	27890592790	338103	974.34	1237.77	28	69	-1	16.80	16.80
Fixation R	1	1	27890254687	27890592790	338103	974.34	1237.77	28	69	-1	17.36	17.36
Saccade L	1	1	27890592790	27890652515	59725	989.59	1275.91	873.59	587.79	7.45	317.74	0.33	124.73	7559.66	-6558.48	5778.30
Saccade R	1	1	27890592790	27890652515	59725	989.59	1275.91	873.59	587.79	7.45	317.74	0.33	124.73	7559.66	-6558.48	5778.30
Fixation L	1	2	27890652515	27890831510	178995	890.65	587.77	75	22	-1	16.01	16.01
Fixation R	1	2	27890652515	27890831510	178995	890.65	587.77	75	22	-1	16.33	16.33
Saccade L	1	2	27890831510	27890851381	19871	949.39	601.67	1126.86	610.48	1.29	179.70	1.00	64.86	4369.65	-4248.54	3358.60
Saccade R	1	2	27890831510	27890851381	19871	949.39	601.67	1126.86	610.48	1.29	179.70	1.00	64.86	4369.65	-4248.54	3358.60
Fixation L	1	3	27890851381	27891070125	218744	1125.42	640.03	24	44	-1	15.66	15.66
Fixation R	1	3	27890851381	27891070125	218744	1125.42	640.03	24	44	-1	15.55	15.55
Saccade L	1	3	27891070125	27891110001	39876	1108.58	654.45	737.84	725.79	3.50	320.49	0.50	87.73	7874.30	-7633.37	4549.13
Saccade R	1	3	27891070125	27891110001	39876	1108.58	654.45	737.84	725.79	3.50	320.49	0.50	87.73	7874.30	-7633.37	4549.13
Fixation L	1	4	27891110001	27891328738	218737	732.84	721.83	48	28	-1	14.91	14.91
Fixation R	1	4	27891110001	27891328738	218737	732.84	721.83	48	28	-1	14.93	14.93
Saccade L	1	4	27891328738	27891348615	19877	692.70	717.05	573.69	720.65	0.88	120.43	1.00	44.19	2984.90	-2944.67	2278.33
Saccade R	1	4	27891328738	27891348615	19877	692.70	717.05	573.69	720.65	0.88	120.43	1.00	44.19	2984.90	-2944.67	2278.33
Fixation L	1	5	27891348615	27891666850	318235	577.10	720.74	80	11	-1	14.17	14.17
Fixation R	1	5	27891348615	27891666850	318235	577.10	720.74	80	11	-1	14.45	14.45
Saccade L	1	5	27891666850	27891766341	99491	644.73	728.25	737.67	765.76	3.01	85.93	1.00	30.27	2047.41	-1779.53	1005.52
Saccade R	1	5	27891666850	27891766341	99491	644.73	728.25	737.67	765.76	3.01	85.93	1.00	30.27	2047.41	-1779.53	1005.52
Fixation L	1	6	27891766341	27891905593	139252	810.09	766.18	86	8	-1	14.36	14.36
Fixation R	1	6	27891766341	27891905593	139252	810.09	766.18	86	8	-1	14.75	14.75
Saccade L	1	6	27891905593	27891925463	19870	824.53	768.42	826.40	775.53	0.07	7.44	1.00	3.64	147.07	-142.61	101.73
Saccade R	1	6	27891905593	27891925463	19870	824.53	768.42	826.40	775.53	0.07	7.44	1.00	3.64	147.07	-142.61	101.73
Fixation L	1	7	27891925463	27892323210	397747	826.65	788.56	19	35	-1	14.16	14.16
Fixation R	1	7	27891925463	27892323210	397747	826.65	788.56	19	35	-1	14.45	14.45
Saccade L	1	7	27892323210	27892382945	59735	814.12	786.75	1179.23	697.76	4.21	182.31	0.67	70.50	4394.44	-4339.34	2827.95
Saccade R	1	7	27892323210	27892382945	59735	814.12	786.75	1179.23	697.76	4.21	182.31	0.67	70.50	4394.44	-4339.34	2827.95
Fixation L	1	8	27892382945	27892581807	198862	1182.78	691.80	12	23	-1	13.45	13.45
Fixation R	1	8	27892382945	27892581807	198862	1182.78	691.80	12	23	-1	13.55	13.55
Saccade L	1	8	27892581807	27892601685	19878	1187.72	681.91	1251.84	643.65	0.63	75.53	1.00	31.81	1846.48	-1717.61	1548.01
Saccade R	1	8	27892581807	27892601685	19878	1187.72	681.91	1251.84	643.65	0.63	75.53	1.00	31.81	1846.48	-1717.61	1548.01
Fixation L	1	9	27892601685	27892880169	278484	1280.65	606.65	41	44	-1	13.21	13.21
Fixation R	1	9	27892601685	27892880169	278484	1280.65	606.65	41	44	-1	13.22	13.22
Saccade L	1	9	27892880169	27892900037	19868	1249.50	607.75	1216.36	618.64	0.42	35.29	1.00	21.31	264.63	-603.32	314.60
Saccade R	1	9	27892880169	27892900037	19868	1249.50	607.75	1216.36	618.64	0.42	35.29	1.00	21.31	264.63	-603.32	314.60
Fixation L	1	10	27892900037	27893039285	139248	1218.35	630.96	14	21	-1	12.90	12.90
Fixation R	1	10	27892900037	27893039285	139248	1218.35	630.96	14	21	-1	12.66	12.66
Saccade L	1	10	27893039285	27893059163	19878	1228.21	635.76	1386.34	612.93	1.08	161.59	1.00	54.33	3911.58	-3562.42	2665.89
Saccade R	1	10	27893039285	27893059163	19878	1228.21	635.76	1386.34	612.93	1.08	161.59	1.00	54.33	3911.58	-3562.42	2665.89
Fixation L	1	11	27893059163	27893755380	696217	1398.68	601.34	48	48	-1	12.65	12.65
Fixation R	1	11	27893059163	27893755380	696217	1398.68	601.34	48	48	-1	12.68	12.68
Saccade L	1	11	27893755380	27893775269	19889	1381.61	618.00	1338.20	735.12	0.82	126.34	1.00	41.03	3029.81	-3114.90	2155.38
Saccade R	1	11	27893755380	27893775269	19889	1381.61	618.00	1338.20	735.12	0.82	126.34	1.00	41.03	3029.81	-3114.90	2155.38
Fixation L	1	12	27893775269	27893994007	218738	1322.67	749.30	30	19	-1	13.00	13.00
Fixation R	1	12	27893775269	27893994007	218738	1322.67	749.30	30	19	-1	12.46	12.46
Saccade L	1	12	27893994007	27894053747	59740	1312.76	753.41	1023.64	735.36	3.09	154.29	0.67	51.73	3759.73	-3745.98	2146.88
Saccade R	1	12	27893994007	27894053747	59740	1312.76	753.41	1023.64	735.36	3.09	154.29	0.67	51.73	3759.73	-3745.98	2146.88
Fixation L	1	13	27894053747	27894172996	119249	1020.57	724.99	6	19	-1	13.09	13.09
Fixation R	1	13	27894053747	27894172996	119249	1020.57	724.99	6	19	-1	13.18	13.18
