[BeGaze]
Converted from:	C:\Documents and Settings\iViewX\Desktop\EXPERIMENTATIONS\Experiments\results\finaleart\S13H22431-finaleart-1.idf
Date:	27.03.2019 15:41:19
Version:	BeGaze 2.5.77
Sample Rate:	50
Subject:	S13H22431
Description:	Jimmy Petit

Table Header for Fixations:
Event Type	Trial	Number	Start	End	Duration	Location X	Location Y	Dispersion X	Dispersion Y	Plane	Avg. Pupil Size X	Avg. Pupil Size Y

Table Header for Saccades:
Event Type	Trial	Number	Start	End	Duration	Start Loc.X	Start Loc.Y	End Loc.X	End Loc.Y	Amplitude	Peak Speed	Peak Speed At	Average Speed	Peak Accel.	Peak Decel.	Average Accel.

Table Header for Blinks:
Event Type	Trial	Number	Start	End	Duration

Table Header for User Events:
Event Type	Trial	Number	Start	Description

UserEvent	1	1	27224110639	# Message: Hayet-Nature-morte-1888.jpg
Saccade L	1	1	27224128126	27224227639	99513	1696.12	164.73	1323.47	233.62	6.35	220.41	0.40	63.80	5510.18	-5178.25	2483.43
Saccade R	1	1	27224128126	27224227639	99513	1696.12	164.73	1323.47	233.62	6.35	220.41	0.40	63.80	5510.18	-5178.25	2483.43
Blink L	1	1	27224227639	27224386733	159094
Blink R	1	1	27224227639	27224386733	159094
Saccade L	1	2	27224386733	27224506108	119375	1209.02	222.74	910.21	431.72	6.18	262.68	1.00	51.76	6478.69	-6408.46	2344.31
Saccade R	1	2	27224386733	27224506108	119375	1209.02	222.74	910.21	431.72	6.18	262.68	1.00	51.76	6478.69	-6408.46	2344.31
Fixation L	1	1	27224506108	27224665218	159110	932.90	432.74	28	14	-1	19.46	19.46
Fixation R	1	1	27224506108	27224665218	159110	932.90	432.74	28	14	-1	19.79	19.79
Saccade L	1	3	27224665218	27224704971	39753	934.74	439.22	472.72	430.19	4.04	288.15	0.50	101.71	7183.55	-6577.84	5530.94
Saccade R	1	3	27224665218	27224704971	39753	934.74	439.22	472.72	430.19	4.04	288.15	0.50	101.71	7183.55	-6577.84	5530.94
Fixation L	1	2	27224704971	27225062946	357975	470.15	485.05	12	76	-1	17.74	17.74
Fixation R	1	2	27224704971	27225062946	357975	470.15	485.05	12	76	-1	18.64	18.64
Saccade L	1	4	27225062946	27225122693	59747	470.24	492.31	866.58	468.40	4.15	214.26	0.67	69.44	5331.70	-5174.17	3074.98
Saccade R	1	4	27225062946	27225122693	59747	470.24	492.31	866.58	468.40	4.15	214.26	0.67	69.44	5331.70	-5174.17	3074.98
Fixation L	1	3	27225122693	27225281813	159120	855.30	470.98	23	12	-1	16.29	16.29
Fixation R	1	3	27225122693	27225281813	159120	855.30	470.98	23	12	-1	16.81	16.81
Saccade L	1	5	27225281813	27225301692	19879	867.68	475.00	1067.04	465.98	1.36	201.79	1.00	68.30	4933.59	-4997.91	3542.20
Saccade R	1	5	27225281813	27225301692	19879	867.68	475.00	1067.04	465.98	1.36	201.79	1.00	68.30	4933.59	-4997.91	3542.20
Fixation L	1	4	27225301692	27225560178	258486	1122.99	457.38	68	29	-1	16.17	16.17
Fixation R	1	4	27225301692	27225560178	258486	1122.99	457.38	68	29	-1	16.67	16.67
Saccade L	1	6	27225560178	27225580062	19884	1134.63	441.16	1137.40	439.99	0.21	33.64	1.00	10.68	821.41	-54.81	328.68
Saccade R	1	6	27225560178	27225580062	19884	1134.63	441.16	1137.40	439.99	0.21	33.64	1.00	10.68	821.41	-54.81	328.68
Fixation L	1	5	27225580062	27225818789	238727	1176.02	448.83	51	18	-1	16.30	16.30
Fixation R	1	5	27225580062	27225818789	238727	1176.02	448.83	51	18	-1	16.68	16.68
Saccade L	1	7	27225818789	27225858543	39754	1184.97	456.38	894.67	456.45	2.42	174.42	1.00	60.83	4314.99	-4205.62	3566.13
Saccade R	1	7	27225818789	27225858543	39754	1184.97	456.38	894.67	456.45	2.42	174.42	1.00	60.83	4314.99	-4205.62	3566.13
Fixation L	1	6	27225858543	27225997790	139247	882.35	459.19	19	6	-1	15.73	15.73
Fixation R	1	6	27225858543	27225997790	139247	882.35	459.19	19	6	-1	15.97	15.97
Blink L	1	2	27225997790	27226117173	119383
Blink R	1	2	27225997790	27226117173	119383
Fixation L	1	7	27226117173	27226515011	397838	751.47	355.98	34	64	-1	16.93	16.93
Fixation R	1	7	27226117173	27226515011	397838	751.47	355.98	34	64	-1	16.41	16.41
Saccade L	1	8	27226515011	27226574634	59623	762.02	358.81	1171.20	322.67	4.80	223.09	0.67	80.42	5384.14	-4196.49	2861.20
Saccade R	1	8	27226515011	27226574634	59623	762.02	358.81	1171.20	322.67	4.80	223.09	0.67	80.42	5384.14	-4196.49	2861.20
Fixation L	1	8	27226574634	27226813255	238621	1188.76	295.76	24	67	-1	17.49	17.49
Fixation R	1	8	27226574634	27226813255	238621	1188.76	295.76	24	67	-1	17.09	17.09
Saccade L	1	9	27226813255	27226833251	19996	1187.90	297.45	1218.24	288.78	0.51	47.23	1.00	25.52	736.71	-657.77	687.68
Saccade R	1	9	27226813255	27226833251	19996	1187.90	297.45	1218.24	288.78	0.51	47.23	1.00	25.52	736.71	-657.77	687.68
Fixation L	1	9	27226833251	27226992239	158988	1256.78	298.68	50	24	-1	18.11	18.11
Fixation R	1	9	27226833251	27226992239	158988	1256.78	298.68	50	24	-1	17.51	17.51
Blink L	1	3	27226992239	27227171234	178995
Blink R	1	3	27226992239	27227171234	178995
Fixation L	1	10	27227171234	27227270733	99499	1148.84	300.39	27	22	-1	18.42	18.42
Fixation R	1	10	27227171234	27227270733	99499	1148.84	300.39	27	22	-1	18.86	18.86
Saccade L	1	10	27227270733	27227290601	19868	1136.37	304.90	1008.14	416.29	0.99	171.78	1.00	49.93	4174.98	-3521.04	2566.03
Saccade R	1	10	27227270733	27227290601	19868	1136.37	304.90	1008.14	416.29	0.99	171.78	1.00	49.93	4174.98	-3521.04	2566.03
Fixation L	1	11	27227290601	27227509347	218746	1023.19	413.14	24	47	-1	18.76	18.76
Fixation R	1	11	27227290601	27227509347	218746	1023.19	413.14	24	47	-1	18.92	18.92
Saccade L	1	11	27227509347	27227529227	19880	1007.72	436.94	920.72	601.21	1.19	187.98	1.00	59.98	4583.47	-4584.28	3192.78
Saccade R	1	11	27227509347	27227529227	19880	1007.72	436.94	920.72	601.21	1.19	187.98	1.00	59.98	4583.47	-4584.28	3192.78
Fixation L	1	12	27227529227	27227708344	179117	912.84	593.43	15	21	-1	19.06	19.06
Fixation R	1	12	27227529227	27227708344	179117	912.84	593.43	15	21	-1	19.44	19.44
Saccade L	1	12	27227708344	27227728204	19860	911.25	588.65	850.57	634.03	0.59	76.65	1.00	29.90	1756.58	-883.32	1063.33
Saccade R	1	12	27227708344	27227728204	19860	911.25	588.65	850.57	634.03	0.59	76.65	1.00	29.90	1756.58	-883.32	1063.33
Fixation L	1	13	27227728204	27227966822	238618	816.02	638.79	42	56	-1	18.56	18.56
Fixation R	1	13	27227728204	27227966822	238618	816.02	638.79	42	56	-1	19.26	19.26
Saccade L	1	13	27227966822	27228106071	139249	807.69	640.10	615.44	837.51	5.37	148.37	0.43	38.55	3433.69	-3522.98	1506.15
Saccade R	1	13	27227966822	27228106071	139249	807.69	640.10	615.44	837.51	5.37	148.37	0.43	38.55	3433.69	-3522.98	1506.15
