[BeGaze]
Converted from:	C:\Documents and Settings\iViewX\Desktop\EXPERIMENTATIONS\Experiments\results\finaleart\S13H22431-finaleart-1.idf
Date:	27.03.2019 15:42:23
Version:	BeGaze 2.5.77
Sample Rate:	50
Subject:	S13H22431
Description:	Jimmy Petit

Table Header for Fixations:
Event Type	Trial	Number	Start	End	Duration	Location X	Location Y	Dispersion X	Dispersion Y	Plane	Avg. Pupil Size X	Avg. Pupil Size Y

Table Header for Saccades:
Event Type	Trial	Number	Start	End	Duration	Start Loc.X	Start Loc.Y	End Loc.X	End Loc.Y	Amplitude	Peak Speed	Peak Speed At	Average Speed	Peak Accel.	Peak Decel.	Average Accel.

Table Header for Blinks:
Event Type	Trial	Number	Start	End	Duration

Table Header for User Events:
Event Type	Trial	Number	Start	Description

UserEvent	1	1	28262881437	# Message: void.jpg
Saccade L	1	1	28262889226	28262909233	20007	604.42	415.88	687.80	415.02	0.84	84.34	1.00	42.08	1047.06	-1930.63	992.56
Saccade R	1	1	28262889226	28262909233	20007	604.42	415.88	687.80	415.02	0.84	84.34	1.00	42.08	1047.06	-1930.63	992.56
Fixation L	1	1	28262909233	28263147824	238591	737.96	414.07	59	13	-1	14.55	14.55
Fixation R	1	1	28262909233	28263147824	238591	737.96	414.07	59	13	-1	14.92	14.92
Saccade L	1	2	28263147824	28263207451	59627	745.10	406.76	389.25	548.25	4.39	177.26	0.67	73.67	4298.01	-3662.39	3104.59
Saccade R	1	2	28263147824	28263207451	59627	745.10	406.76	389.25	548.25	4.39	177.26	0.67	73.67	4298.01	-3662.39	3104.59
Fixation L	1	2	28263207451	28263326820	119369	387.84	582.28	8	43	-1	13.83	13.83
Fixation R	1	2	28263207451	28263326820	119369	387.84	582.28	8	43	-1	14.68	14.68
Saccade L	1	3	28263326820	28263744562	417742	389.13	590.98	1457.84	-74.59	190.42	1604.90	0.33	455.83	37668.73	-40111.22	11079.77
Saccade R	1	3	28263326820	28263744562	417742	389.13	590.98	1457.84	-74.59	190.42	1604.90	0.33	455.83	37668.73	-40111.22	11079.77
Blink L	1	1	28263744562	28263824049	79487
Blink R	1	1	28263744562	28263844048	99486
Saccade L	1	4	28263824049	28263844048	19999	0.00	-8.94	0.00	-6.21	5.29	1049.11	1.00	264.39	17416.83	-26158.71	14547.67
Blink L	1	2	28263844048	28263943418	99370
Saccade R	1	4	28263844048	28263863927	19879	0.00	-6.21	0.00	-4.74	3.52	699.44	1.00	176.97	17416.83	-67.47	6544.93
Blink R	1	2	28263863927	28263943418	79491
Fixation L	1	3	28263943418	28264062789	119371	682.40	415.29	5	12	-1	14.29	14.29
Fixation R	1	3	28263943418	28264062789	119371	682.40	415.29	5	12	-1	15.34	15.34
Saccade L	1	5	28264062789	28264102548	39759	679.92	415.61	943.30	419.08	2.23	155.98	0.50	56.01	3871.10	-3657.04	3273.41
Saccade R	1	5	28264062789	28264102548	39759	679.92	415.61	943.30	419.08	2.23	155.98	0.50	56.01	3871.10	-3657.04	3273.41
Fixation L	1	4	28264102548	28264361167	258619	964.12	438.20	29	37	-1	14.48	14.48
Fixation R	1	4	28264102548	28264361167	258619	964.12	438.20	29	37	-1	15.58	15.58
Saccade L	1	6	28264361167	28264400895	39728	972.65	442.99	797.51	479.14	1.67	112.87	0.50	42.00	2743.68	-2428.34	1935.27
Saccade R	1	6	28264361167	28264400895	39728	972.65	442.99	797.51	479.14	1.67	112.87	0.50	42.00	2743.68	-2428.34	1935.27
Fixation L	1	5	28264400895	28264858404	457509	791.83	485.92	25	66	-1	13.74	13.74
Fixation R	1	5	28264400895	28264858404	457509	791.83	485.92	25	66	-1	15.04	15.04
Saccade L	1	7	28264858404	28264878254	19850	806.45	516.70	810.31	522.49	0.23	17.32	0.00	11.39	0.00	-69.15	34.57
Saccade R	1	7	28264858404	28264878254	19850	806.45	516.70	810.31	522.49	0.23	17.32	0.00	11.39	0.00	-69.15	34.57
