[BeGaze]
Converted from:	C:\Documents and Settings\iViewX\Desktop\EXPERIMENTATIONS\Experiments\results\finaleart\S13H22431-finaleart-1.idf
Date:	27.03.2019 15:42:36
Version:	BeGaze 2.5.77
Sample Rate:	50
Subject:	S13H22431
Description:	Jimmy Petit

Table Header for Fixations:
Event Type	Trial	Number	Start	End	Duration	Location X	Location Y	Dispersion X	Dispersion Y	Plane	Avg. Pupil Size X	Avg. Pupil Size Y

Table Header for Saccades:
Event Type	Trial	Number	Start	End	Duration	Start Loc.X	Start Loc.Y	End Loc.X	End Loc.Y	Amplitude	Peak Speed	Peak Speed At	Average Speed	Peak Accel.	Peak Decel.	Average Accel.

Table Header for Blinks:
Event Type	Trial	Number	Start	End	Duration

Table Header for User Events:
Event Type	Trial	Number	Start	Description

UserEvent	1	1	28426583532	# Message: void.jpg
Fixation L	1	1	28426584853	28426863342	278489	711.12	503.67	20	26	-1	12.79	12.79
Fixation R	1	1	28426584853	28426863342	278489	711.12	503.67	20	26	-1	13.08	13.08
Saccade L	1	1	28426863342	28426883227	19885	706.51	500.77	793.73	457.01	0.69	98.71	1.00	34.87	2392.08	-2127.87	1554.42
Saccade R	1	1	28426863342	28426883227	19885	706.51	500.77	793.73	457.01	0.69	98.71	1.00	34.87	2392.08	-2127.87	1554.42
Fixation L	1	2	28426883227	28427022458	139231	809.55	440.44	21	29	-1	12.54	12.54
Fixation R	1	2	28426883227	28427022458	139231	809.55	440.44	21	29	-1	12.72	12.72
Blink L	1	1	28427022458	28427261076	238618
Blink R	1	1	28427022458	28427101965	79507
Blink R	1	2	28427121830	28427261076	139246
Fixation L	1	3	28427261076	28427360568	99492	1497.15	312.78	8	35	-1	13.37	13.37
Fixation R	1	3	28427261076	28427360568	99492	1497.15	312.78	8	35	-1	13.97	13.97
Blink L	1	2	28427360568	28428275530	914962
Blink R	1	3	28427360568	28428275530	914962
Blink L	1	3	28428295402	28428374901	79499
Blink R	1	4	28428295402	28428374901	79499
Fixation L	1	4	28428374901	28428573888	198987	726.21	427.80	33	35	-1	15.89	15.89
Fixation R	1	4	28428374901	28428573888	198987	726.21	427.80	33	35	-1	15.94	15.94
