[BeGaze]
Converted from:	C:\Documents and Settings\iViewX\Desktop\EXPERIMENTATIONS\Experiments\results\finaleart\S19F21442-finaleart-1.idf
Date:	27.03.2019 15:52:03
Version:	BeGaze 2.5.77
Sample Rate:	50
Subject:	S19F21442
Description:	Juliette Veuillez

Table Header for Fixations:
Event Type	Trial	Number	Start	End	Duration	Location X	Location Y	Dispersion X	Dispersion Y	Plane	Avg. Pupil Size X	Avg. Pupil Size Y

Table Header for Saccades:
Event Type	Trial	Number	Start	End	Duration	Start Loc.X	Start Loc.Y	End Loc.X	End Loc.Y	Amplitude	Peak Speed	Peak Speed At	Average Speed	Peak Accel.	Peak Decel.	Average Accel.

Table Header for Blinks:
Event Type	Trial	Number	Start	End	Duration

Table Header for User Events:
Event Type	Trial	Number	Start	Description

UserEvent	1	1	8355731031	# Message: ronde_cross_1905.jpg
Fixation L	1	1	8355743552	8356638493	894941	781.23	481.75	60	30	-1	10.80	10.80
Fixation R	1	1	8355743552	8356638493	894941	781.23	481.75	60	30	-1	13.31	13.31
Saccade L	1	1	8356638493	8356698231	59738	758.26	488.95	456.55	523.57	3.90	186.73	0.33	65.34	4645.33	-3096.06	2744.74
Saccade R	1	1	8356638493	8356698231	59738	758.26	488.95	456.55	523.57	3.90	186.73	0.33	65.34	4645.33	-3096.06	2744.74
Fixation L	1	2	8356698231	8356956724	258493	430.14	523.19	36	44	-1	9.23	9.23
Fixation R	1	2	8356698231	8356956724	258493	430.14	523.19	36	44	-1	11.62	11.62
Saccade L	1	2	8356956724	8356976597	19873	430.73	541.57	441.31	561.88	0.24	23.17	1.00	12.12	436.60	-273.43	314.33
Saccade R	1	2	8356956724	8356976597	19873	430.73	541.57	441.31	561.88	0.24	23.17	1.00	12.12	436.60	-273.43	314.33
Fixation L	1	3	8356976597	8357573320	596723	451.69	565.40	20	27	-1	9.58	9.58
Fixation R	1	3	8356976597	8357573320	596723	451.69	565.40	20	27	-1	11.97	11.97
Saccade L	1	3	8357573320	8357633067	59747	454.19	563.82	1054.57	522.95	6.45	276.13	0.67	107.88	6597.41	-6781.91	4524.97
Saccade R	1	3	8357573320	8357633067	59747	454.19	563.82	1054.57	522.95	6.45	276.13	0.67	107.88	6597.41	-6781.91	4524.97
Fixation L	1	4	8357633067	8357871689	238622	1048.37	505.14	10	41	-1	10.12	10.12
Fixation R	1	4	8357633067	8357871689	238622	1048.37	505.14	10	41	-1	12.07	12.07
Saccade L	1	4	8357871689	8357891559	19870	1044.87	501.26	1156.23	491.86	0.62	113.05	1.00	31.28	2724.98	-2488.17	1767.20
Saccade R	1	4	8357871689	8357891559	19870	1044.87	501.26	1156.23	491.86	0.62	113.05	1.00	31.28	2724.98	-2488.17	1767.20
Fixation L	1	5	8357891559	8358349034	457475	1163.79	506.68	50	40	-1	9.87	9.87
Fixation R	1	5	8357891559	8358349034	457475	1163.79	506.68	50	40	-1	11.48	11.48
Saccade L	1	5	8358349034	8358368914	19880	1123.64	531.75	985.43	599.71	1.18	155.77	1.00	59.19	3753.29	-3512.82	2688.57
Saccade R	1	5	8358349034	8358368914	19880	1123.64	531.75	985.43	599.71	1.18	155.77	1.00	59.19	3753.29	-3512.82	2688.57
Fixation L	1	6	8358368914	8358547907	178993	987.01	594.46	8	23	-1	10.15	10.15
Fixation R	1	6	8358368914	8358547907	178993	987.01	594.46	8	23	-1	11.83	11.83
Saccade L	1	6	8358547907	8358567908	20001	990.00	600.01	1002.14	444.88	1.10	157.38	1.00	55.21	3789.37	-2496.79	2539.03
Saccade R	1	6	8358547907	8358567908	20001	990.00	600.01	1002.14	444.88	1.10	157.38	1.00	55.21	3789.37	-2496.79	2539.03
Fixation L	1	7	8358567908	8358746895	178987	1027.95	447.28	39	59	-1	10.00	10.00
Fixation R	1	7	8358567908	8358746895	178987	1027.95	447.28	39	59	-1	11.90	11.90
Saccade L	1	7	8358746895	8358786638	39743	1041.70	440.65	1063.90	455.16	0.55	34.85	1.00	13.74	788.01	-395.01	457.35
Saccade R	1	7	8358746895	8358786638	39743	1041.70	440.65	1063.90	455.16	0.55	34.85	1.00	13.74	788.01	-395.01	457.35
Fixation L	1	8	8358786638	8358985514	198876	1083.28	494.30	28	47	-1	10.05	10.05
Fixation R	1	8	8358786638	8358985514	198876	1083.28	494.30	28	47	-1	12.02	12.02
Saccade L	1	8	8358985514	8359025252	39738	1092.86	502.94	1327.96	525.92	2.03	147.37	0.50	50.98	3621.45	-3395.29	2881.58
Saccade R	1	8	8358985514	8359025252	39738	1092.86	502.94	1327.96	525.92	2.03	147.37	0.50	50.98	3621.45	-3395.29	2881.58
Fixation L	1	9	8359025252	8359582255	557003	1316.66	589.05	19	77	-1	10.46	10.46
Fixation R	1	9	8359025252	8359582255	557003	1316.66	589.05	19	77	-1	11.92	11.92
Saccade L	1	9	8359582255	8359721478	139223	1316.48	600.42	1252.52	263.39	5.73	160.91	0.29	41.16	3950.49	-3825.21	1854.67
Saccade R	1	9	8359582255	8359721478	139223	1316.48	600.42	1252.52	263.39	5.73	160.91	0.29	41.16	3950.49	-3825.21	1854.67
