[BeGaze]
Converted from:	C:\Documents and Settings\iViewX\Desktop\EXPERIMENTATIONS\Experiments\results\finaleart\S19F21442-finaleart-1.idf
Date:	27.03.2019 15:50:09
Version:	BeGaze 2.5.77
Sample Rate:	50
Subject:	S19F21442
Description:	Juliette Veuillez

Table Header for Fixations:
Event Type	Trial	Number	Start	End	Duration	Location X	Location Y	Dispersion X	Dispersion Y	Plane	Avg. Pupil Size X	Avg. Pupil Size Y

Table Header for Saccades:
Event Type	Trial	Number	Start	End	Duration	Start Loc.X	Start Loc.Y	End Loc.X	End Loc.Y	Amplitude	Peak Speed	Peak Speed At	Average Speed	Peak Accel.	Peak Decel.	Average Accel.

Table Header for Blinks:
Event Type	Trial	Number	Start	End	Duration

Table Header for User Events:
Event Type	Trial	Number	Start	Description

UserEvent	1	1	5533174393	# Message: monticelli-still-life-with-white-pitcher-1822.jpg
Fixation L	1	1	5533176691	5533574552	397861	1045.62	593.68	16	23	-1	14.87	14.87
Fixation R	1	1	5533176691	5533574552	397861	1045.62	593.68	16	23	-1	18.68	18.68
Saccade L	1	1	5533574552	5533614290	39738	1037.66	595.41	956.11	537.65	1.18	64.89	1.00	29.72	1414.93	-1262.06	1311.66
Saccade R	1	1	5533574552	5533614290	39738	1037.66	595.41	956.11	537.65	1.18	64.89	1.00	29.72	1414.93	-1262.06	1311.66
Fixation L	1	2	5533614290	5533912651	298361	944.82	509.01	23	53	-1	13.90	13.90
Fixation R	1	2	5533614290	5533912651	298361	944.82	509.01	23	53	-1	17.76	17.76
Saccade L	1	2	5533912651	5533932523	19872	961.76	499.34	1045.48	513.59	0.65	85.90	1.00	32.56	1783.36	-1895.56	1280.37
Saccade R	1	2	5533912651	5533932523	19872	961.76	499.34	1045.48	513.59	0.65	85.90	1.00	32.56	1783.36	-1895.56	1280.37
Fixation L	1	3	5533932523	5534290508	357985	1058.04	506.86	22	23	-1	12.77	12.77
Fixation R	1	3	5533932523	5534290508	357985	1058.04	506.86	22	23	-1	16.34	16.34
Saccade L	1	3	5534290508	5534310378	19870	1064.19	499.06	974.50	497.63	0.53	90.73	1.00	26.87	2167.84	-2140.12	1476.78
Saccade R	1	3	5534290508	5534310378	19870	1064.19	499.06	974.50	497.63	0.53	90.73	1.00	26.87	2167.84	-2140.12	1476.78
Fixation L	1	4	5534310378	5534867357	556979	950.82	485.49	35	34	-1	13.44	13.44
Fixation R	1	4	5534310378	5534867357	556979	950.82	485.49	35	34	-1	17.41	17.41
Saccade L	1	4	5534867357	5534887228	19871	961.78	474.47	1034.50	483.06	0.54	74.07	1.00	27.40	1512.91	-1536.39	1096.49
Saccade R	1	4	5534867357	5534887228	19871	961.78	474.47	1034.50	483.06	0.54	74.07	1.00	27.40	1512.91	-1536.39	1096.49
Fixation L	1	5	5534887228	5535245213	357985	1038.28	497.28	15	78	-1	13.70	13.70
Fixation R	1	5	5534887228	5535245213	357985	1038.28	497.28	15	78	-1	17.75	17.75
Saccade L	1	5	5535245213	5535364587	119374	1033.12	521.09	986.85	351.34	3.66	155.42	0.83	30.63	3516.25	-3644.59	1030.13
Saccade R	1	5	5535245213	5535364587	119374	1033.12	521.09	986.85	351.34	3.66	155.42	0.83	30.63	3516.25	-3644.59	1030.13
Fixation L	1	6	5535364587	5535523702	159115	974.03	334.79	27	50	-1	13.86	13.86
Fixation R	1	6	5535364587	5535523702	159115	974.03	334.79	27	50	-1	17.85	17.85
Saccade L	1	6	5535523702	5535543570	19868	959.18	338.35	964.23	223.21	1.06	116.58	1.00	53.40	2561.77	-1199.34	1910.91
Saccade R	1	6	5535523702	5535543570	19868	959.18	338.35	964.23	223.21	1.06	116.58	1.00	53.40	2561.77	-1199.34	1910.91
Fixation L	1	7	5535543570	5535941451	397881	968.23	191.74	12	82	-1	13.63	13.63
Fixation R	1	7	5535543570	5535941451	397881	968.23	191.74	12	82	-1	17.35	17.35
Saccade L	1	7	5535941451	5535961308	19857	964.56	197.36	966.61	234.59	0.27	37.72	1.00	13.52	801.92	-729.42	529.08
Saccade R	1	7	5535941451	5535961308	19857	964.56	197.36	966.61	234.59	0.27	37.72	1.00	13.52	801.92	-729.42	529.08
Fixation L	1	8	5535961308	5536120425	159117	967.85	215.64	11	42	-1	14.27	14.27
Fixation R	1	8	5535961308	5536120425	159117	967.85	215.64	11	42	-1	17.81	17.81
Saccade L	1	8	5536120425	5536160189	39764	974.54	237.86	1317.44	293.18	3.39	204.61	1.00	85.14	4561.72	-4637.47	3979.50
Saccade R	1	8	5536120425	5536160189	39764	974.54	237.86	1317.44	293.18	3.39	204.61	1.00	85.14	4561.72	-4637.47	3979.50
Fixation L	1	9	5536160189	5536697275	537086	1345.19	280.19	41	53	-1	14.60	14.60
Fixation R	1	9	5536160189	5536697275	537086	1345.19	280.19	41	53	-1	18.12	18.12
Saccade L	1	9	5536697275	5536717146	19871	1332.80	313.65	1332.07	318.46	0.08	6.47	1.00	3.94	12.99	-43.00	31.55
Saccade R	1	9	5536697275	5536717146	19871	1332.80	313.65	1332.07	318.46	0.08	6.47	1.00	3.94	12.99	-43.00	31.55
Fixation L	1	10	5536717146	5537015517	298371	1335.44	326.93	21	25	-1	14.34	14.34
Fixation R	1	10	5536717146	5537015517	298371	1335.44	326.93	21	25	-1	17.52	17.52
Saccade L	1	10	5537015517	5537055253	39736	1350.51	310.58	1177.68	548.27	2.72	184.75	1.00	68.42	4156.12	-4523.16	3612.05
Saccade R	1	10	5537015517	5537055253	39736	1350.51	310.58	1177.68	548.27	2.72	184.75	1.00	68.42	4156.12	-4523.16	3612.05
Fixation L	1	11	5537055253	5537174617	119364	1187.97	536.61	16	20	-1	14.25	14.25
Fixation R	1	11	5537055253	5537174617	119364	1187.97	536.61	16	20	-1	17.54	17.54
