[BeGaze]
Converted from:	C:\Documents and Settings\iViewX\Desktop\EXPERIMENTATIONS\Experiments\results\finaleart\S19F21442-finaleart-1.idf
Date:	27.03.2019 15:50:10
Version:	BeGaze 2.5.77
Sample Rate:	50
Subject:	S19F21442
Description:	Juliette Veuillez

Table Header for Fixations:
Event Type	Trial	Number	Start	End	Duration	Location X	Location Y	Dispersion X	Dispersion Y	Plane	Avg. Pupil Size X	Avg. Pupil Size Y

Table Header for Saccades:
Event Type	Trial	Number	Start	End	Duration	Start Loc.X	Start Loc.Y	End Loc.X	End Loc.Y	Amplitude	Peak Speed	Peak Speed At	Average Speed	Peak Accel.	Peak Decel.	Average Accel.

Table Header for Blinks:
Event Type	Trial	Number	Start	End	Duration

Table Header for User Events:
Event Type	Trial	Number	Start	Description

UserEvent	1	1	5539281703	# Message: Bank_Of_A_Lake_Pechstein_1910.jpg
Fixation L	1	1	5539282924	5539700652	417728	1007.43	557.86	16	80	-1	14.44	14.44
Fixation R	1	1	5539282924	5539700652	417728	1007.43	557.86	16	80	-1	18.56	18.56
Saccade L	1	1	5539700652	5539740394	39742	1004.00	602.19	761.66	335.56	3.05	191.81	1.00	76.70	4608.54	-4548.15	4381.45
Saccade R	1	1	5539700652	5539740394	39742	1004.00	602.19	761.66	335.56	3.05	191.81	1.00	76.70	4608.54	-4548.15	4381.45
Fixation L	1	2	5539740394	5539859760	119366	746.74	341.73	23	10	-1	13.80	13.80
Fixation R	1	2	5539740394	5539859760	119366	746.74	341.73	23	10	-1	17.98	17.98
Saccade L	1	2	5539859760	5539899503	39743	739.13	344.49	678.56	130.67	2.02	139.40	0.50	50.93	3382.77	-3161.71	2527.37
Saccade R	1	2	5539859760	5539899503	39743	739.13	344.49	678.56	130.67	2.02	139.40	0.50	50.93	3382.77	-3161.71	2527.37
Fixation L	1	3	5539899503	5540217744	318241	677.10	176.35	25	67	-1	10.80	10.80
Fixation R	1	3	5539899503	5540217744	318241	677.10	176.35	25	67	-1	14.97	14.97
Saccade L	1	3	5540217744	5540237741	19997	662.20	191.56	653.63	188.63	0.11	9.16	1.00	5.59	148.24	-112.48	119.59
Saccade R	1	3	5540217744	5540237741	19997	662.20	191.56	653.63	188.63	0.11	9.16	1.00	5.59	148.24	-112.48	119.59
Fixation L	1	4	5540237741	5540715099	477358	647.04	192.06	13	28	-1	10.48	10.48
Fixation R	1	4	5540237741	5540715099	477358	647.04	192.06	13	28	-1	14.50	14.50
Saccade L	1	4	5540715099	5540754849	39750	649.67	208.30	654.52	526.53	2.66	208.10	1.00	66.83	5154.56	-4986.24	3892.81
Saccade R	1	4	5540715099	5540754849	39750	649.67	208.30	654.52	526.53	2.66	208.10	1.00	66.83	5154.56	-4986.24	3892.81
Fixation L	1	5	5540754849	5541033332	278483	671.96	536.62	24	24	-1	11.56	11.56
Fixation R	1	5	5540754849	5541033332	278483	671.96	536.62	24	24	-1	15.76	15.76
Saccade L	1	5	5541033332	5541053209	19877	676.93	544.50	672.69	608.99	0.57	65.37	1.00	28.55	1614.59	-1134.03	1290.23
Saccade R	1	5	5541033332	5541053209	19877	676.93	544.50	672.69	608.99	0.57	65.37	1.00	28.55	1614.59	-1134.03	1290.23
Fixation L	1	6	5541053209	5541271951	218742	662.69	586.38	16	45	-1	11.44	11.44
Fixation R	1	6	5541053209	5541271951	218742	662.69	586.38	16	45	-1	15.66	15.66
Saccade L	1	6	5541271951	5541331718	59767	658.24	592.73	1136.51	594.85	5.11	239.16	0.66	85.56	5900.46	-5349.10	3741.13
Saccade R	1	6	5541271951	5541331718	59767	658.24	592.73	1136.51	594.85	5.11	239.16	0.66	85.56	5900.46	-5349.10	3741.13
Fixation L	1	7	5541331718	5541530561	198843	1157.31	605.26	25	17	-1	11.64	11.64
Fixation R	1	7	5541331718	5541530561	198843	1157.31	605.26	25	17	-1	14.69	14.69
Saccade L	1	7	5541530561	5541570314	39753	1162.28	610.74	1451.91	698.27	2.63	207.29	1.00	66.05	5055.56	-4944.57	3712.09
Saccade R	1	7	5541530561	5541570314	39753	1162.28	610.74	1451.91	698.27	2.63	207.29	1.00	66.05	5055.56	-4944.57	3712.09
Fixation L	1	8	5541570314	5541729432	159118	1449.67	713.90	9	20	-1	11.46	11.46
Fixation R	1	8	5541570314	5541729432	159118	1449.67	713.90	9	20	-1	14.25	14.25
Saccade L	1	8	5541729432	5541769198	39766	1445.55	717.23	1514.85	600.62	1.47	108.06	0.50	36.87	2635.25	-1749.87	1502.03
Saccade R	1	8	5541729432	5541769198	39766	1445.55	717.23	1514.85	600.62	1.47	108.06	0.50	36.87	2635.25	-1749.87	1502.03
Fixation L	1	9	5541769198	5541988045	218847	1546.09	580.98	40	34	-1	11.27	11.27
Fixation R	1	9	5541769198	5541988045	218847	1546.09	580.98	40	34	-1	13.81	13.81
Saccade L	1	9	5541988045	5542027800	39755	1555.82	565.84	1167.09	566.69	3.34	210.18	0.50	83.93	5088.50	-4781.59	4690.83
Saccade R	1	9	5541988045	5542027800	39755	1555.82	565.84	1167.09	566.69	3.34	210.18	0.50	83.93	5088.50	-4781.59	4690.83
Fixation L	1	10	5542027800	5542286403	258603	1152.52	599.37	18	54	-1	10.99	10.99
Fixation R	1	10	5542027800	5542286403	258603	1152.52	599.37	18	54	-1	13.56	13.56
Saccade L	1	10	5542286403	5542326153	39750	1152.97	621.26	1201.34	348.27	2.59	179.17	0.50	65.24	4407.48	-3665.36	3201.50
Saccade R	1	10	5542286403	5542326153	39750	1152.97	621.26	1201.34	348.27	2.59	179.17	0.50	65.24	4407.48	-3665.36	3201.50
Fixation L	1	11	5542326153	5542584768	258615	1237.59	333.32	43	34	-1	10.85	10.85
Fixation R	1	11	5542326153	5542584768	258615	1237.59	333.32	43	34	-1	13.65	13.65
Saccade L	1	11	5542584768	5542624517	39749	1243.49	313.75	1396.58	85.03	2.43	191.33	0.50	61.06	4716.83	-4467.93	3279.19
Saccade R	1	11	5542584768	5542624517	39749	1243.49	313.75	1396.58	85.03	2.43	191.33	0.50	61.06	4716.83	-4467.93	3279.19
Fixation L	1	12	5542624517	5543022255	397738	1402.01	111.74	36	49	-1	11.46	11.46
Fixation R	1	12	5542624517	5543022255	397738	1402.01	111.74	36	49	-1	14.37	14.37
Saccade L	1	12	5543022255	5543101869	79614	1388.21	126.85	588.83	190.22	9.55	319.02	0.50	119.97	7933.12	-6289.67	4796.21
Saccade R	1	12	5543022255	5543101869	79614	1388.21	126.85	588.83	190.22	9.55	319.02	0.50	119.97	7933.12	-6289.67	4796.21
Fixation L	1	13	5543101869	5543280862	178993	569.90	200.55	26	48	-1	12.46	12.46
Fixation R	1	13	5543101869	5543280862	178993	569.90	200.55	26	48	-1	16.28	16.28
