[BeGaze]
Converted from:	C:\Documents and Settings\iViewX\Desktop\EXPERIMENTATIONS\Experiments\results\finaleart\S19F21442-finaleart-1.idf
Date:	27.03.2019 15:51:02
Version:	BeGaze 2.5.77
Sample Rate:	50
Subject:	S19F21442
Description:	Juliette Veuillez

Table Header for Fixations:
Event Type	Trial	Number	Start	End	Duration	Location X	Location Y	Dispersion X	Dispersion Y	Plane	Avg. Pupil Size X	Avg. Pupil Size Y

Table Header for Saccades:
Event Type	Trial	Number	Start	End	Duration	Start Loc.X	Start Loc.Y	End Loc.X	End Loc.Y	Amplitude	Peak Speed	Peak Speed At	Average Speed	Peak Accel.	Peak Decel.	Average Accel.

Table Header for Blinks:
Event Type	Trial	Number	Start	End	Duration

Table Header for User Events:
Event Type	Trial	Number	Start	Description

UserEvent	1	1	6776143346	# Message: courbet-woman-with-a-parrot-1866.jpg
Fixation L	1	1	6776151788	6776549630	397842	965.24	459.48	12	20	-1	11.19	11.19
Fixation R	1	1	6776151788	6776549630	397842	965.24	459.48	12	20	-1	13.14	13.14
Saccade L	1	1	6776549630	6776708757	159127	962.08	471.79	448.97	588.39	10.76	197.04	0.88	67.62	4609.16	-4669.09	2514.68
Saccade R	1	1	6776549630	6776708757	159127	962.08	471.79	448.97	588.39	10.76	197.04	0.88	67.62	4609.16	-4669.09	2514.68
Fixation L	1	2	6776708757	6776887754	178997	450.93	604.29	13	29	-1	11.16	11.16
Fixation R	1	2	6776708757	6776887754	178997	450.93	604.29	13	29	-1	13.57	13.57
Saccade L	1	2	6776887754	6776907633	19879	453.92	617.62	375.00	615.41	0.47	79.87	1.00	23.74	1934.33	-1969.41	1359.40
Saccade R	1	2	6776887754	6776907633	19879	453.92	617.62	375.00	615.41	0.47	79.87	1.00	23.74	1934.33	-1969.41	1359.40
Fixation L	1	3	6776907633	6777444723	537090	377.71	632.70	39	29	-1	10.56	10.56
Fixation R	1	3	6776907633	6777444723	537090	377.71	632.70	39	29	-1	13.45	13.45
Saccade L	1	3	6777444723	6777484477	39754	389.68	625.36	582.33	243.68	3.89	328.88	0.50	97.80	8061.06	-7652.15	5002.86
Saccade R	1	3	6777444723	6777484477	39754	389.68	625.36	582.33	243.68	3.89	328.88	0.50	97.80	8061.06	-7652.15	5002.86
Fixation L	1	4	6777484477	6777862335	377858	600.64	245.72	35	60	-1	11.46	11.46
Fixation R	1	4	6777484477	6777862335	377858	600.64	245.72	35	60	-1	14.08	14.08
Saccade L	1	4	6777862335	6777882204	19869	580.33	286.60	576.73	285.31	0.10	10.76	1.00	4.97	42.99	-172.40	78.42
Saccade R	1	4	6777862335	6777882204	19869	580.33	286.60	576.73	285.31	0.10	10.76	1.00	4.97	42.99	-172.40	78.42
Fixation L	1	5	6777882204	6778876787	994583	577.15	270.51	19	48	-1	12.15	12.15
Fixation R	1	5	6777882204	6778876787	994583	577.15	270.51	19	48	-1	14.61	14.61
Blink L	1	1	6778876787	6779016029	139242
Blink R	1	1	6778876787	6779016029	139242
Fixation L	1	6	6779016029	6779175139	159110	441.93	808.94	42	16	-1	14.75	14.75
Fixation R	1	6	6779016029	6779175139	159110	441.93	808.94	42	16	-1	15.51	15.51
Saccade L	1	5	6779175139	6779195026	19887	456.48	804.47	432.27	762.33	0.40	49.16	1.00	19.88	1058.48	-829.20	789.99
Saccade R	1	5	6779175139	6779195026	19887	456.48	804.47	432.27	762.33	0.40	49.16	1.00	19.88	1058.48	-829.20	789.99
Fixation L	1	7	6779195026	6779692253	497227	423.48	726.99	33	49	-1	13.16	13.16
Fixation R	1	7	6779195026	6779692253	497227	423.48	726.99	33	49	-1	14.24	14.24
Saccade L	1	6	6779692253	6779732012	39759	424.64	723.21	559.40	247.88	4.24	255.67	0.50	106.54	6356.31	-5641.18	5898.85
Saccade R	1	6	6779692253	6779732012	39759	424.64	723.21	559.40	247.88	4.24	255.67	0.50	106.54	6356.31	-5641.18	5898.85
Fixation L	1	8	6779732012	6780129860	397848	591.77	225.13	39	48	-1	12.88	12.88
Fixation R	1	8	6779732012	6780129860	397848	591.77	225.13	39	48	-1	13.54	13.54
