[BeGaze]
Converted from:	C:\Documents and Settings\iViewX\Desktop\EXPERIMENTATIONS\Experiments\results\finaleart\S19F21442-finaleart-1.idf
Date:	27.03.2019 15:51:59
Version:	BeGaze 2.5.77
Sample Rate:	50
Subject:	S19F21442
Description:	Juliette Veuillez

Table Header for Fixations:
Event Type	Trial	Number	Start	End	Duration	Location X	Location Y	Dispersion X	Dispersion Y	Plane	Avg. Pupil Size X	Avg. Pupil Size Y

Table Header for Saccades:
Event Type	Trial	Number	Start	End	Duration	Start Loc.X	Start Loc.Y	End Loc.X	End Loc.Y	Amplitude	Peak Speed	Peak Speed At	Average Speed	Peak Accel.	Peak Decel.	Average Accel.

Table Header for Blinks:
Event Type	Trial	Number	Start	End	Duration

Table Header for User Events:
Event Type	Trial	Number	Start	Description

UserEvent	1	1	8325210854	# Message: Nu_Couche_Vlaminck_1905.jpg
Fixation L	1	1	8325212114	8325669592	457478	804.77	499.62	52	42	-1	12.74	12.74
Fixation R	1	1	8325212114	8325669592	457478	804.77	499.62	52	42	-1	14.36	14.36
Saccade L	1	1	8325669592	8325689455	19863	765.45	475.74	607.07	391.00	1.58	181.65	1.00	79.39	4314.58	-2999.95	2586.38
Saccade R	1	1	8325669592	8325689455	19863	765.45	475.74	607.07	391.00	1.58	181.65	1.00	79.39	4314.58	-2999.95	2586.38
Fixation L	1	2	8325689455	8325828709	139254	606.32	405.31	25	73	-1	11.74	11.74
Fixation R	1	2	8325689455	8325828709	139254	606.32	405.31	25	73	-1	13.41	13.41
Saccade L	1	2	8325828709	8325848579	19870	598.26	387.22	589.83	382.96	0.18	13.06	1.00	9.31	106.79	-98.42	97.67
Saccade R	1	2	8325828709	8325848579	19870	598.26	387.22	589.83	382.96	0.18	13.06	1.00	9.31	106.79	-98.42	97.67
Fixation L	1	3	8325848579	8326425425	576846	568.57	387.95	63	28	-1	9.37	9.37
Fixation R	1	3	8325848579	8326425425	576846	568.57	387.95	63	28	-1	11.07	11.07
Saccade L	1	3	8326425425	8326445308	19883	595.07	402.97	622.70	411.84	0.65	64.30	0.00	32.54	532.02	-897.15	561.97
Saccade R	1	3	8326425425	8326445308	19883	595.07	402.97	622.70	411.84	0.65	64.30	0.00	32.54	532.02	-897.15	561.97
Fixation L	1	4	8326445308	8326624300	178992	628.94	437.10	9	52	-1	9.53	9.53
Fixation R	1	4	8326445308	8326624300	178992	628.94	437.10	9	52	-1	11.27	11.27
Saccade L	1	4	8326624300	8326664166	39866	632.03	464.29	814.42	673.32	2.69	219.79	0.50	67.59	5389.53	-5191.29	3434.66
Saccade R	1	4	8326624300	8326664166	39866	632.03	464.29	814.42	673.32	2.69	219.79	0.50	67.59	5389.53	-5191.29	3434.66
Fixation L	1	5	8326664166	8326803293	139127	833.62	650.94	32	34	-1	9.77	9.77
Fixation R	1	5	8326664166	8326803293	139127	833.62	650.94	32	34	-1	11.44	11.44
Saccade L	1	5	8326803293	8326843168	39875	846.46	642.76	1028.29	537.66	2.00	135.21	1.00	50.05	3267.68	-3117.83	2583.51
Saccade R	1	5	8326803293	8326843168	39875	846.46	642.76	1028.29	537.66	2.00	135.21	1.00	50.05	3267.68	-3117.83	2583.51
Fixation L	1	6	8326843168	8327400014	556846	1064.60	524.92	44	29	-1	10.14	10.14
Fixation R	1	6	8326843168	8327400014	556846	1064.60	524.92	44	29	-1	11.13	11.13
Saccade L	1	6	8327400014	8327439889	39875	1065.81	524.40	824.90	612.69	2.47	155.29	1.00	61.92	3781.58	-3839.72	2940.97
Saccade R	1	6	8327400014	8327439889	39875	1065.81	524.40	824.90	612.69	2.47	155.29	1.00	61.92	3781.58	-3839.72	2940.97
Fixation L	1	7	8327439889	8327638748	198859	815.83	654.39	15	51	-1	9.95	9.95
Fixation R	1	7	8327439889	8327638748	198859	815.83	654.39	15	51	-1	11.54	11.54
Saccade L	1	7	8327638748	8327678497	39749	817.26	654.69	1057.09	525.73	2.29	155.24	0.50	57.64	3858.70	-3799.79	3451.61
Saccade R	1	7	8327638748	8327678497	39749	817.26	654.69	1057.09	525.73	2.29	155.24	0.50	57.64	3858.70	-3799.79	3451.61
Fixation L	1	8	8327678497	8327956990	278493	1061.10	531.43	41	25	-1	10.25	10.25
Fixation R	1	8	8327678497	8327956990	278493	1061.10	531.43	41	25	-1	11.42	11.42
Saccade L	1	8	8327956990	8327976876	19886	1095.74	551.68	1255.60	683.80	1.34	209.70	1.00	67.28	5160.13	-5193.19	3646.97
Saccade R	1	8	8327956990	8327976876	19886	1095.74	551.68	1255.60	683.80	1.34	209.70	1.00	67.28	5160.13	-5193.19	3646.97
Fixation L	1	9	8327976876	8328454219	477343	1275.14	675.54	30	27	-1	10.32	10.32
Fixation R	1	9	8327976876	8328454219	477343	1275.14	675.54	30	27	-1	10.90	10.90
Saccade L	1	9	8328454219	8328493962	39743	1286.14	662.86	1015.83	529.04	2.92	248.51	1.00	73.51	6125.15	-6039.26	3382.61
Saccade R	1	9	8328454219	8328493962	39743	1286.14	662.86	1015.83	529.04	2.92	248.51	1.00	73.51	6125.15	-6039.26	3382.61
Fixation L	1	10	8328493962	8328613340	119378	967.26	523.42	59	11	-1	10.20	10.20
Fixation R	1	10	8328493962	8328613340	119378	967.26	523.42	59	11	-1	11.11	11.11
Saccade L	1	10	8328613340	8328752584	139244	960.99	528.23	792.49	589.02	5.06	154.43	0.86	36.36	3385.35	-3243.60	1302.69
Saccade R	1	10	8328613340	8328752584	139244	960.99	528.23	792.49	589.02	5.06	154.43	0.86	36.36	3385.35	-3243.60	1302.69
Fixation L	1	11	8328752584	8328891843	139259	779.02	612.06	18	39	-1	10.16	10.16
Fixation R	1	11	8328752584	8328891843	139259	779.02	612.06	18	39	-1	11.52	11.52
Saccade L	1	11	8328891843	8328931562	39719	774.89	628.25	578.87	391.02	2.95	221.02	1.00	74.18	5025.35	-5277.37	3581.96
Saccade R	1	11	8328891843	8328931562	39719	774.89	628.25	578.87	391.02	2.95	221.02	1.00	74.18	5025.35	-5277.37	3581.96
Fixation L	1	12	8328931562	8329210063	278501	551.54	367.67	35	40	-1	9.92	9.92
Fixation R	1	12	8328931562	8329210063	278501	551.54	367.67	35	40	-1	12.06	12.06
