[BeGaze]
Converted from:	C:\Documents and Settings\iViewX\Desktop\EXPERIMENTATIONS\Experiments\results\finaleart\S19F21442-finaleart-1.idf
Date:	27.03.2019 15:50:45
Version:	BeGaze 2.5.77
Sample Rate:	50
Subject:	S19F21442
Description:	Juliette Veuillez

Table Header for Fixations:
Event Type	Trial	Number	Start	End	Duration	Location X	Location Y	Dispersion X	Dispersion Y	Plane	Avg. Pupil Size X	Avg. Pupil Size Y

Table Header for Saccades:
Event Type	Trial	Number	Start	End	Duration	Start Loc.X	Start Loc.Y	End Loc.X	End Loc.Y	Amplitude	Peak Speed	Peak Speed At	Average Speed	Peak Accel.	Peak Decel.	Average Accel.

Table Header for Blinks:
Event Type	Trial	Number	Start	End	Duration

Table Header for User Events:
Event Type	Trial	Number	Start	Description

UserEvent	1	1	6651800359	# Message: void.jpg
Fixation L	1	1	6651818707	6652415439	596732	1441.06	240.01	36	23	-1	10.23	10.23
Fixation R	1	1	6651818707	6652415439	596732	1441.06	240.01	36	23	-1	11.30	11.30
Saccade L	1	1	6652415439	6652475185	59746	1426.68	239.43	906.18	283.46	5.39	212.66	0.67	90.27	5275.46	-5251.39	3530.21
Saccade R	1	1	6652415439	6652475185	59746	1426.68	239.43	906.18	283.46	5.39	212.66	0.67	90.27	5275.46	-5251.39	3530.21
Fixation L	1	2	6652475185	6652952534	477349	884.38	311.83	34	63	-1	11.19	11.19
Fixation R	1	2	6652475185	6652952534	477349	884.38	311.83	34	63	-1	13.09	13.09
Saccade L	1	2	6652952534	6652972405	19871	874.38	340.93	875.07	351.45	0.18	14.01	1.00	8.89	-51.45	-87.77	74.28
Saccade R	1	2	6652952534	6652972405	19871	874.38	340.93	875.07	351.45	0.18	14.01	1.00	8.89	-51.45	-87.77	74.28
Fixation L	1	3	6652972405	6653410014	437609	878.02	357.02	17	22	-1	11.36	11.36
Fixation R	1	3	6652972405	6653410014	437609	878.02	357.02	17	22	-1	13.49	13.49
Saccade L	1	3	6653410014	6653429877	19863	866.47	369.26	825.72	406.72	0.50	55.99	1.00	25.26	1188.17	-741.67	734.84
Saccade R	1	3	6653410014	6653429877	19863	866.47	369.26	825.72	406.72	0.50	55.99	1.00	25.26	1188.17	-741.67	734.84
Fixation L	1	4	6653429877	6653787870	357993	807.28	438.78	26	41	-1	11.65	11.65
Fixation R	1	4	6653429877	6653787870	357993	807.28	438.78	26	41	-1	14.14	14.14
