[BeGaze]
Converted from:	C:\Documents and Settings\iViewX\Desktop\EXPERIMENTATIONS\Experiments\results\finaleart\S19F21442-finaleart-1.idf
Date:	27.03.2019 15:51:42
Version:	BeGaze 2.5.77
Sample Rate:	50
Subject:	S19F21442
Description:	Juliette Veuillez

Table Header for Fixations:
Event Type	Trial	Number	Start	End	Duration	Location X	Location Y	Dispersion X	Dispersion Y	Plane	Avg. Pupil Size X	Avg. Pupil Size Y

Table Header for Saccades:
Event Type	Trial	Number	Start	End	Duration	Start Loc.X	Start Loc.Y	End Loc.X	End Loc.Y	Amplitude	Peak Speed	Peak Speed At	Average Speed	Peak Accel.	Peak Decel.	Average Accel.

Table Header for Blinks:
Event Type	Trial	Number	Start	End	Duration

Table Header for User Events:
Event Type	Trial	Number	Start	Description

UserEvent	1	1	7764827594	# Message: Le-Restaurant-de-la-machine-a-Bougival-vlaminck-1905.jpg
Fixation L	1	1	7764834301	7765311637	477336	893.26	575.59	19	56	-1	10.75	10.75
Fixation R	1	1	7764834301	7765311637	477336	893.26	575.59	19	56	-1	13.17	13.17
Saccade L	1	1	7765311637	7765331520	19883	884.96	570.92	672.75	433.06	1.41	255.83	1.00	71.14	6254.98	-6163.38	4201.37
Saccade R	1	1	7765311637	7765331520	19883	884.96	570.92	672.75	433.06	1.41	255.83	1.00	71.14	6254.98	-6163.38	4201.37
Fixation L	1	2	7765331520	7765590139	258619	657.60	430.75	66	17	-1	9.77	9.77
Fixation R	1	2	7765331520	7765590139	258619	657.60	430.75	66	17	-1	12.30	12.30
Saccade L	1	2	7765590139	7765610007	19868	606.44	426.22	502.91	407.82	0.90	106.37	1.00	45.31	2427.81	-2473.90	1956.81
Saccade R	1	2	7765590139	7765610007	19868	606.44	426.22	502.91	407.82	0.90	106.37	1.00	45.31	2427.81	-2473.90	1956.81
Fixation L	1	3	7765610007	7765987863	377856	515.76	426.05	55	32	-1	8.62	8.62
Fixation R	1	3	7765610007	7765987863	377856	515.76	426.05	55	32	-1	11.17	11.17
Saccade L	1	3	7765987863	7766007733	19870	558.91	422.97	604.42	433.86	0.58	47.34	1.00	29.13	744.60	-1084.13	938.49
Saccade R	1	3	7765987863	7766007733	19870	558.91	422.97	604.42	433.86	0.58	47.34	1.00	29.13	744.60	-1084.13	938.49
Fixation L	1	4	7766007733	7766425470	417737	617.30	428.26	25	22	-1	9.13	9.13
Fixation R	1	4	7766007733	7766425470	417737	617.30	428.26	25	22	-1	11.44	11.44
Saccade L	1	4	7766425470	7766465220	39750	629.50	423.47	905.31	637.38	3.08	204.23	1.00	77.58	4972.54	-4827.98	4155.00
Saccade R	1	4	7766425470	7766465220	39750	629.50	423.47	905.31	637.38	3.08	204.23	1.00	77.58	4972.54	-4827.98	4155.00
Fixation L	1	5	7766465220	7766743710	278490	923.73	631.17	27	28	-1	9.79	9.79
Fixation R	1	5	7766465220	7766743710	278490	923.73	631.17	27	28	-1	11.77	11.77
Saccade L	1	5	7766743710	7766803451	59741	933.24	631.85	1520.56	1049.63	7.64	427.06	0.67	127.81	10508.83	-10476.75	6701.39
Saccade R	1	5	7766743710	7766803451	59741	933.24	631.85	1520.56	1049.63	7.64	427.06	0.67	127.81	10508.83	-10476.75	6701.39
Fixation L	1	6	7766803451	7767141566	338115	1545.93	1064.17	50	38	-1	9.47	9.47
Fixation R	1	6	7766803451	7767141566	338115	1545.93	1064.17	50	38	-1	10.47	10.47
Saccade L	1	6	7767141566	7767161444	19878	1571.10	1082.21	1582.00	1092.21	0.18	14.96	1.00	8.92	37.11	-173.19	96.24
Saccade R	1	6	7767141566	7767161444	19878	1571.10	1082.21	1582.00	1092.21	0.18	14.96	1.00	8.92	37.11	-173.19	96.24
Fixation L	1	7	7767161444	7767857533	696089	1571.84	1105.76	54	41	-1	9.44	9.44
Fixation R	1	7	7767161444	7767857533	696089	1571.84	1105.76	54	41	-1	10.38	10.38
Saccade L	1	7	7767857533	7767877400	19867	1555.50	1121.16	1551.30	1126.89	0.11	7.19	1.00	5.33	82.31	-11.90	55.49
Saccade R	1	7	7767857533	7767877400	19867	1555.50	1121.16	1551.30	1126.89	0.11	7.19	1.00	5.33	82.31	-11.90	55.49
Fixation L	1	8	7767877400	7768354885	477485	1574.45	1121.80	44	14	-1	9.90	9.90
Fixation R	1	8	7767877400	7768354885	477485	1574.45	1121.80	44	14	-1	10.98	10.98
Saccade L	1	8	7768354885	7768434636	79751	1589.89	1115.30	1432.43	169.50	11.27	344.45	0.75	141.29	7925.92	-8391.02	5419.34
Saccade R	1	8	7768354885	7768434636	79751	1589.89	1115.30	1432.43	169.50	11.27	344.45	0.75	141.29	7925.92	-8391.02	5419.34
Fixation L	1	9	7768434636	7768712863	278227	1415.36	204.81	39	58	-1	10.05	10.05
Fixation R	1	9	7768434636	7768712863	278227	1415.36	204.81	39	58	-1	11.48	11.48
Saccade L	1	9	7768712863	7768812239	99376	1401.99	227.18	1149.34	264.47	4.19	169.35	0.20	42.13	4171.63	-3696.94	2086.72
Saccade R	1	9	7768712863	7768812239	99376	1401.99	227.18	1149.34	264.47	4.19	169.35	0.20	42.13	4171.63	-3696.94	2086.72
