[BeGaze]
Converted from:	C:\Documents and Settings\iViewX\Desktop\EXPERIMENTATIONS\Experiments\results\finaleart\S19F21442-finaleart-1.idf
Date:	27.03.2019 15:51:56
Version:	BeGaze 2.5.77
Sample Rate:	50
Subject:	S19F21442
Description:	Juliette Veuillez

Table Header for Fixations:
Event Type	Trial	Number	Start	End	Duration	Location X	Location Y	Dispersion X	Dispersion Y	Plane	Avg. Pupil Size X	Avg. Pupil Size Y

Table Header for Saccades:
Event Type	Trial	Number	Start	End	Duration	Start Loc.X	Start Loc.Y	End Loc.X	End Loc.Y	Amplitude	Peak Speed	Peak Speed At	Average Speed	Peak Accel.	Peak Decel.	Average Accel.

Table Header for Blinks:
Event Type	Trial	Number	Start	End	Duration

Table Header for User Events:
Event Type	Trial	Number	Start	Description

UserEvent	1	1	8300842960	# Message: bacchante_sorolla_1886.jpg
Fixation L	1	1	8300846803	8301125159	278356	642.93	650.22	47	42	-1	11.20	11.20
Fixation R	1	1	8300846803	8301125159	278356	642.93	650.22	47	42	-1	12.70	12.70
Saccade L	1	1	8301125159	8301145158	19999	680.31	622.72	662.91	605.30	0.62	52.63	1.00	31.08	739.56	-692.92	551.14
Saccade R	1	1	8301125159	8301145158	19999	680.31	622.72	662.91	605.30	0.62	52.63	1.00	31.08	739.56	-692.92	551.14
Fixation L	1	2	8301145158	8301324144	178986	691.50	608.72	38	21	-1	11.23	11.23
Fixation R	1	2	8301145158	8301324144	178986	691.50	608.72	38	21	-1	12.72	12.72
Saccade L	1	2	8301324144	8301363924	39780	701.88	608.30	389.99	603.66	2.61	180.55	1.00	65.64	4480.69	-4261.68	3800.73
Saccade R	1	2	8301324144	8301363924	39780	701.88	608.30	389.99	603.66	2.61	180.55	1.00	65.64	4480.69	-4261.68	3800.73
Fixation L	1	3	8301363924	8301721884	357960	389.23	582.90	22	34	-1	9.52	9.52
Fixation R	1	3	8301363924	8301721884	357960	389.23	582.90	22	34	-1	11.20	11.20
Saccade L	1	3	8301721884	8301781632	59748	399.33	575.61	1122.16	503.55	7.66	314.65	0.33	128.16	7697.70	-7417.44	5963.13
Saccade R	1	3	8301721884	8301781632	59748	399.33	575.61	1122.16	503.55	7.66	314.65	0.33	128.16	7697.70	-7417.44	5963.13
Fixation L	1	4	8301781632	8301940744	159112	1127.90	497.61	12	13	-1	10.04	10.04
Fixation R	1	4	8301781632	8301940744	159112	1127.90	497.61	12	13	-1	10.94	10.94
Saccade L	1	4	8301940744	8301980511	39767	1134.22	490.12	1388.82	459.58	3.51	245.22	0.50	88.20	5988.06	-5461.88	4754.29
Saccade R	1	4	8301940744	8301980511	39767	1134.22	490.12	1388.82	459.58	3.51	245.22	0.50	88.20	5988.06	-5461.88	4754.29
Fixation L	1	5	8301980511	8302239117	258606	1386.97	443.23	30	28	-1	10.10	10.10
Fixation R	1	5	8301980511	8302239117	258606	1386.97	443.23	30	28	-1	10.65	10.65
Saccade L	1	5	8302239117	8302278860	39743	1361.61	461.83	1002.43	530.28	3.45	226.91	0.50	86.91	5610.73	-5042.96	4076.75
Saccade R	1	5	8302239117	8302278860	39743	1361.61	461.83	1002.43	530.28	3.45	226.91	0.50	86.91	5610.73	-5042.96	4076.75
Fixation L	1	6	8302278860	8302597093	318233	999.16	523.08	11	47	-1	10.28	10.28
Fixation R	1	6	8302278860	8302597093	318233	999.16	523.08	11	47	-1	10.95	10.95
Saccade L	1	6	8302597093	8302636844	39751	1006.23	511.78	1500.75	93.01	5.59	329.66	0.50	140.60	8038.62	-8027.91	7872.66
Saccade R	1	6	8302597093	8302636844	39751	1006.23	511.78	1500.75	93.01	5.59	329.66	0.50	140.60	8038.62	-8027.91	7872.66
Fixation L	1	7	8302636844	8302875576	238732	1525.41	92.59	36	59	-1	9.87	9.87
Fixation R	1	7	8302636844	8302875576	238732	1525.41	92.59	36	59	-1	11.02	11.02
Saccade L	1	7	8302875576	8302915325	39749	1521.29	126.50	1118.03	279.76	4.33	234.86	1.00	108.97	5126.38	-5534.13	4856.32
Saccade R	1	7	8302875576	8302915325	39749	1521.29	126.50	1118.03	279.76	4.33	234.86	1.00	108.97	5126.38	-5534.13	4856.32
Fixation L	1	8	8302915325	8303134075	218750	1081.87	312.27	42	51	-1	10.30	10.30
Fixation R	1	8	8302915325	8303134075	218750	1081.87	312.27	42	51	-1	10.97	10.97
Saccade L	1	8	8303134075	8303154071	19996	1081.24	295.45	983.52	125.38	1.14	198.35	1.00	57.15	4916.12	-4716.10	3322.61
Saccade R	1	8	8303134075	8303154071	19996	1081.24	295.45	983.52	125.38	1.14	198.35	1.00	57.15	4916.12	-4716.10	3322.61
Fixation L	1	9	8303154071	8303412559	258488	951.12	125.79	39	16	-1	10.46	10.46
Fixation R	1	9	8303154071	8303412559	258488	951.12	125.79	39	16	-1	11.60	11.60
Saccade L	1	9	8303412559	8303432435	19876	944.27	134.31	897.39	114.21	0.38	51.60	1.00	19.00	1203.47	-487.74	723.08
Saccade R	1	9	8303412559	8303432435	19876	944.27	134.31	897.39	114.21	0.38	51.60	1.00	19.00	1203.47	-487.74	723.08
Fixation L	1	10	8303432435	8303551807	119372	892.22	84.54	36	53	-1	10.24	10.24
Fixation R	1	10	8303432435	8303551807	119372	892.22	84.54	36	53	-1	11.49	11.49
Saccade L	1	10	8303551807	8303671178	119371	881.75	70.27	259.48	112.40	9.88	316.31	0.83	82.79	7727.92	-7077.64	3299.33
Saccade R	1	10	8303551807	8303671178	119371	881.75	70.27	259.48	112.40	9.88	316.31	0.83	82.79	7727.92	-7077.64	3299.33
Fixation L	1	11	8303671178	8303810427	139249	279.94	157.70	34	65	-1	10.46	10.46
Fixation R	1	11	8303671178	8303810427	139249	279.94	157.70	34	65	-1	11.78	11.78
Saccade L	1	11	8303810427	8303830293	19866	283.37	176.74	286.55	187.72	0.12	11.57	1.00	5.84	210.80	-116.78	136.27
Saccade R	1	11	8303810427	8303830293	19866	283.37	176.74	286.55	187.72	0.12	11.57	1.00	5.84	210.80	-116.78	136.27
Fixation L	1	12	8303830293	8303989409	159116	290.19	195.46	6	17	-1	10.27	10.27
Fixation R	1	12	8303830293	8303989409	159116	290.19	195.46	6	17	-1	11.94	11.94
Saccade L	1	12	8303989409	8304068903	79494	289.88	201.00	1530.53	16.24	14.97	392.28	0.75	188.34	8679.40	-8800.51	5892.78
Saccade R	1	12	8303989409	8304068903	79494	289.88	201.00	1530.53	16.24	14.97	392.28	0.75	188.34	8679.40	-8800.51	5892.78
Fixation L	1	13	8304068903	8304248026	179123	1564.75	51.80	43	50	-1	10.38	10.38
Fixation R	1	13	8304068903	8304248026	179123	1564.75	51.80	43	50	-1	11.58	11.58
Saccade L	1	13	8304248026	8304327522	79496	1569.48	66.97	1471.61	74.56	1.65	101.72	1.00	20.75	2511.22	-2491.52	948.84
Saccade R	1	13	8304248026	8304327522	79496	1569.48	66.97	1471.61	74.56	1.65	101.72	1.00	20.75	2511.22	-2491.52	948.84
Fixation L	1	14	8304327522	8304566270	238748	1508.96	62.59	58	41	-1	10.06	10.06
Fixation R	1	14	8304327522	8304566270	238748	1508.96	62.59	58	41	-1	11.21	11.21
Saccade L	1	14	8304566270	8304586137	19867	1516.87	39.77	1515.35	36.84	0.12	11.47	0.00	6.05	204.03	-183.82	145.61
Saccade R	1	14	8304566270	8304586137	19867	1516.87	39.77	1515.35	36.84	0.12	11.47	0.00	6.05	204.03	-183.82	145.61
Fixation L	1	15	8304586137	8304785011	198874	1509.65	45.01	9	31	-1	9.98	9.98
Fixation R	1	15	8304586137	8304785011	198874	1509.65	45.01	9	31	-1	10.75	10.75
Saccade L	1	15	8304785011	8304824742	39731	1506.26	42.43	1507.01	584.05	5.65	352.66	1.00	142.27	8600.84	0.00	4381.03
Saccade R	1	15	8304785011	8304824742	39731	1506.26	42.43	1507.01	584.05	5.65	352.66	1.00	142.27	8600.84	0.00	4381.03
