[BeGaze]
Converted from:	C:\Documents and Settings\iViewX\Desktop\EXPERIMENTATIONS\Experiments\results\finaleart\S19F21442-finaleart-1.idf
Date:	27.03.2019 15:52:00
Version:	BeGaze 2.5.77
Sample Rate:	50
Subject:	S19F21442
Description:	Juliette Veuillez

Table Header for Fixations:
Event Type	Trial	Number	Start	End	Duration	Location X	Location Y	Dispersion X	Dispersion Y	Plane	Avg. Pupil Size X	Avg. Pupil Size Y

Table Header for Saccades:
Event Type	Trial	Number	Start	End	Duration	Start Loc.X	Start Loc.Y	End Loc.X	End Loc.Y	Amplitude	Peak Speed	Peak Speed At	Average Speed	Peak Accel.	Peak Decel.	Average Accel.

Table Header for Blinks:
Event Type	Trial	Number	Start	End	Duration

Table Header for User Events:
Event Type	Trial	Number	Start	Description

UserEvent	1	1	8331307173	# Message: chase-a-study-in-curves-1890.jpg
Fixation L	1	1	8331318349	8331736080	417731	704.05	530.49	13	17	-1	11.99	11.99
Fixation R	1	1	8331318349	8331736080	417731	704.05	530.49	13	17	-1	14.27	14.27
Saccade L	1	1	8331736080	8331775836	39756	697.59	526.58	372.68	580.30	2.85	197.64	0.50	71.75	4722.52	-4670.79	4020.51
Saccade R	1	1	8331736080	8331775836	39756	697.59	526.58	372.68	580.30	2.85	197.64	0.50	71.75	4722.52	-4670.79	4020.51
Fixation L	1	2	8331775836	8331994678	218842	363.94	581.23	54	8	-1	11.40	11.40
Fixation R	1	2	8331775836	8331994678	218842	363.94	581.23	54	8	-1	14.35	14.35
Saccade L	1	2	8331994678	8332014567	19889	322.52	585.27	283.38	585.88	0.54	39.59	1.00	27.16	408.52	-532.26	315.26
Saccade R	1	2	8331994678	8332014567	19889	322.52	585.27	283.38	585.88	0.54	39.59	1.00	27.16	408.52	-532.26	315.26
Fixation L	1	3	8332014567	8332491920	477353	293.38	597.71	39	48	-1	10.97	10.97
Fixation R	1	3	8332014567	8332491920	477353	293.38	597.71	39	48	-1	13.76	13.76
Saccade L	1	3	8332491920	8332511793	19873	319.67	610.27	350.13	612.52	0.31	30.90	1.00	15.67	431.27	-565.16	382.19
Saccade R	1	3	8332491920	8332511793	19873	319.67	610.27	350.13	612.52	0.31	30.90	1.00	15.67	431.27	-565.16	382.19
Fixation L	1	4	8332511793	8332670921	159128	343.79	610.94	20	32	-1	11.53	11.53
Fixation R	1	4	8332511793	8332670921	159128	343.79	610.94	20	32	-1	14.25	14.25
Saccade L	1	4	8332670921	8332710659	39738	352.26	590.96	508.62	550.36	1.63	139.28	0.50	41.13	3230.14	-3290.98	1794.34
Saccade R	1	4	8332670921	8332710659	39738	352.26	590.96	508.62	550.36	1.63	139.28	0.50	41.13	3230.14	-3290.98	1794.34
Fixation L	1	5	8332710659	8332929519	218860	521.48	502.00	20	78	-1	11.57	11.57
Fixation R	1	5	8332710659	8332929519	218860	521.48	502.00	20	78	-1	13.93	13.93
Saccade L	1	5	8332929519	8332949407	19888	529.19	474.06	531.09	480.23	0.13	10.65	0.00	6.39	155.12	-65.16	92.00
Saccade R	1	5	8332929519	8332949407	19888	529.19	474.06	531.09	480.23	0.13	10.65	0.00	6.39	155.12	-65.16	92.00
Fixation L	1	6	8332949407	8333088637	139230	538.88	484.17	16	11	-1	11.44	11.44
Fixation R	1	6	8332949407	8333088637	139230	538.88	484.17	16	11	-1	13.58	13.58
Saccade L	1	6	8333088637	8333128390	39753	547.84	489.87	508.62	680.46	1.82	110.13	0.50	45.86	2675.39	-2215.29	2177.98
Saccade R	1	6	8333088637	8333128390	39753	547.84	489.87	508.62	680.46	1.82	110.13	0.50	45.86	2675.39	-2215.29	2177.98
Fixation L	1	7	8333128390	8333446622	318232	477.29	676.02	40	12	-1	11.15	11.15
Fixation R	1	7	8333128390	8333446622	318232	477.29	676.02	40	12	-1	13.57	13.57
Saccade L	1	7	8333446622	8333466500	19878	485.66	682.25	720.33	682.48	1.57	237.27	1.00	78.88	5878.52	-5726.00	4395.15
Saccade R	1	7	8333446622	8333466500	19878	485.66	682.25	720.33	682.48	1.57	237.27	1.00	78.88	5878.52	-5726.00	4395.15
Fixation L	1	8	8333466500	8333625617	159117	786.86	680.46	80	15	-1	11.21	11.21
Fixation R	1	8	8333466500	8333625617	159117	786.86	680.46	80	15	-1	13.38	13.38
Saccade L	1	8	8333625617	8333645494	19877	800.75	674.11	796.93	669.34	0.09	7.51	1.00	4.66	52.40	-33.37	38.27
Saccade R	1	8	8333625617	8333645494	19877	800.75	674.11	796.93	669.34	0.09	7.51	1.00	4.66	52.40	-33.37	38.27
Fixation L	1	9	8333645494	8334023475	377981	784.32	658.19	30	39	-1	10.83	10.83
Fixation R	1	9	8333645494	8334023475	377981	784.32	658.19	30	39	-1	12.93	12.93
Saccade L	1	9	8334023475	8334063226	39751	772.42	640.31	955.35	370.22	2.93	200.14	0.50	73.74	4814.25	-4416.33	3953.42
Saccade R	1	9	8334023475	8334063226	39751	772.42	640.31	955.35	370.22	2.93	200.14	0.50	73.74	4814.25	-4416.33	3953.42
Fixation L	1	10	8334063226	8334441209	377983	976.87	380.18	46	53	-1	10.55	10.55
Fixation R	1	10	8334063226	8334441209	377983	976.87	380.18	46	53	-1	12.05	12.05
Saccade L	1	10	8334441209	8334461085	19876	1001.43	349.52	1006.71	354.44	0.39	42.28	1.00	19.47	125.56	-874.45	352.23
Saccade R	1	10	8334441209	8334461085	19876	1001.43	349.52	1006.71	354.44	0.39	42.28	1.00	19.47	125.56	-874.45	352.23
Fixation L	1	11	8334461085	8334878686	417601	1030.50	334.89	36	61	-1	11.21	11.21
Fixation R	1	11	8334461085	8334878686	417601	1030.50	334.89	36	61	-1	12.96	12.96
Saccade L	1	11	8334878686	8334918558	39872	1043.47	330.95	1494.58	610.70	4.52	308.07	0.50	113.28	7401.86	-7664.68	6391.96
Saccade R	1	11	8334878686	8334918558	39872	1043.47	330.95	1494.58	610.70	4.52	308.07	0.50	113.28	7401.86	-7664.68	6391.96
Fixation L	1	12	8334918558	8335117428	198870	1488.84	643.37	9	55	-1	12.59	12.59
Fixation R	1	12	8334918558	8335117428	198870	1488.84	643.37	9	55	-1	13.84	13.84
Saccade L	1	12	8335117428	8335137298	19870	1485.13	665.34	1638.68	664.52	1.16	155.30	1.00	58.26	3727.86	-3617.91	2959.49
Saccade R	1	12	8335117428	8335137298	19870	1485.13	665.34	1638.68	664.52	1.16	155.30	1.00	58.26	3727.86	-3617.91	2959.49
Fixation L	1	13	8335137298	8335296410	159112	1698.66	655.27	71	17	-1	12.26	12.26
Fixation R	1	13	8335137298	8335296410	159112	1698.66	655.27	71	17	-1	13.47	13.47
