[BeGaze]
Converted from:	C:\Documents and Settings\iViewX\Desktop\EXPERIMENTATIONS\Experiments\results\finaleart\S19F21442-finaleart-1.idf
Date:	27.03.2019 15:50:24
Version:	BeGaze 2.5.77
Sample Rate:	50
Subject:	S19F21442
Description:	Juliette Veuillez

Table Header for Fixations:
Event Type	Trial	Number	Start	End	Duration	Location X	Location Y	Dispersion X	Dispersion Y	Plane	Avg. Pupil Size X	Avg. Pupil Size Y

Table Header for Saccades:
Event Type	Trial	Number	Start	End	Duration	Start Loc.X	Start Loc.Y	End Loc.X	End Loc.Y	Amplitude	Peak Speed	Peak Speed At	Average Speed	Peak Accel.	Peak Decel.	Average Accel.

Table Header for Blinks:
Event Type	Trial	Number	Start	End	Duration

Table Header for User Events:
Event Type	Trial	Number	Start	Description

UserEvent	1	1	6216150958	# Message: morning_Daubigny_1858.jpg
Fixation L	1	1	6216159723	6216577477	417754	835.36	538.08	19	74	-1	14.18	14.18
Fixation R	1	1	6216159723	6216577477	417754	835.36	538.08	19	74	-1	16.43	16.43
Saccade L	1	1	6216577477	6216597326	19849	849.82	595.63	883.17	770.18	1.32	179.71	1.00	66.43	4422.93	-4231.41	3074.92
Saccade R	1	1	6216577477	6216597326	19849	849.82	595.63	883.17	770.18	1.32	179.71	1.00	66.43	4422.93	-4231.41	3074.92
Fixation L	1	2	6216597326	6216756440	159114	901.78	743.51	30	42	-1	13.59	13.59
Fixation R	1	2	6216597326	6216756440	159114	901.78	743.51	30	42	-1	15.53	15.53
Saccade L	1	2	6216756440	6216776318	19878	906.60	742.09	715.10	916.68	1.51	261.97	1.00	75.73	6169.53	-6197.99	4157.36
Saccade R	1	2	6216756440	6216776318	19878	906.60	742.09	715.10	916.68	1.51	261.97	1.00	75.73	6169.53	-6197.99	4157.36
Fixation L	1	3	6216776318	6217134305	357987	694.17	909.81	59	29	-1	9.59	9.59
Fixation R	1	3	6216776318	6217134305	357987	694.17	909.81	59	29	-1	11.56	11.56
Saccade L	1	3	6217134305	6217154297	19992	656.02	909.54	644.14	913.60	0.51	43.59	0.00	25.28	-246.09	-714.17	462.52
Saccade R	1	3	6217134305	6217154297	19992	656.02	909.54	644.14	913.60	0.51	43.59	0.00	25.28	-246.09	-714.17	462.52
Fixation L	1	4	6217154297	6217611657	457360	629.29	883.19	25	71	-1	8.64	8.64
Fixation R	1	4	6217154297	6217611657	457360	629.29	883.19	25	71	-1	10.41	10.41
Saccade L	1	4	6217611657	6217631675	20018	639.20	855.79	645.97	846.78	0.20	14.96	1.00	9.96	234.40	87.49	153.64
Saccade R	1	4	6217611657	6217631675	20018	639.20	855.79	645.97	846.78	0.20	14.96	1.00	9.96	234.40	87.49	153.64
Fixation L	1	5	6217631675	6217949893	318218	655.96	878.93	20	69	-1	9.03	9.03
Fixation R	1	5	6217631675	6217949893	318218	655.96	878.93	20	69	-1	10.68	10.68
Saccade L	1	5	6217949893	6217969769	19876	646.26	841.01	662.02	929.59	0.73	91.01	1.00	36.88	1847.00	-1477.85	1363.56
Saccade R	1	5	6217949893	6217969769	19876	646.26	841.01	662.02	929.59	0.73	91.01	1.00	36.88	1847.00	-1477.85	1363.56
Fixation L	1	6	6217969769	6218327754	357985	652.56	894.76	29	64	-1	9.90	9.90
Fixation R	1	6	6217969769	6218327754	357985	652.56	894.76	29	64	-1	11.67	11.67
Saccade L	1	6	6218327754	6218347619	19865	673.61	884.89	696.85	889.13	0.30	23.90	1.00	15.01	294.67	-216.32	203.66
Saccade R	1	6	6218327754	6218347619	19865	673.61	884.89	696.85	889.13	0.30	23.90	1.00	15.01	294.67	-216.32	203.66
Fixation L	1	7	6218347619	6218526616	178997	720.82	910.47	39	40	-1	9.77	9.77
Fixation R	1	7	6218347619	6218526616	178997	720.82	910.47	39	40	-1	11.90	11.90
Saccade L	1	7	6218526616	6218566485	39869	735.45	929.74	1013.23	735.66	3.35	271.19	1.00	84.10	6419.69	-6510.84	3803.52
Saccade R	1	7	6218526616	6218566485	39869	735.45	929.74	1013.23	735.66	3.35	271.19	1.00	84.10	6419.69	-6510.84	3803.52
Fixation L	1	8	6218566485	6218964218	397733	1067.06	740.72	60	25	-1	10.74	10.74
Fixation R	1	8	6218566485	6218964218	397733	1067.06	740.72	60	25	-1	11.60	11.60
Saccade L	1	8	6218964218	6218984126	19908	1073.49	747.47	1069.21	766.40	0.13	19.63	1.00	6.77	418.46	-383.17	268.46
Saccade R	1	8	6218964218	6218984126	19908	1073.49	747.47	1069.21	766.40	0.13	19.63	1.00	6.77	418.46	-383.17	268.46
Fixation L	1	9	6218984126	6219143217	159091	1070.15	765.45	7	18	-1	10.77	10.77
Fixation R	1	9	6218984126	6219143217	159091	1070.15	765.45	7	18	-1	11.77	11.77
Saccade L	1	9	6219143217	6219163086	19869	1073.86	756.62	1171.16	724.44	0.63	103.66	1.00	31.85	2518.66	-1755.77	1456.48
Saccade R	1	9	6219143217	6219163086	19869	1073.86	756.62	1171.16	724.44	0.63	103.66	1.00	31.85	2518.66	-1755.77	1456.48
Fixation L	1	10	6219163086	6219521217	358131	1162.69	713.72	13	38	-1	10.81	10.81
Fixation R	1	10	6219163086	6219521217	358131	1162.69	713.72	13	38	-1	11.38	11.38
Saccade L	1	10	6219521217	6219560949	39732	1167.07	702.69	1497.30	696.24	3.33	177.28	0.50	83.92	3887.73	-3515.86	3547.36
Saccade R	1	10	6219521217	6219560949	39732	1167.07	702.69	1497.30	696.24	3.33	177.28	0.50	83.92	3887.73	-3515.86	3547.36
Fixation L	1	11	6219560949	6219759813	198864	1544.81	695.19	58	34	-1	10.37	10.37
Fixation R	1	11	6219560949	6219759813	198864	1544.81	695.19	58	34	-1	8.84	8.84
Saccade L	1	11	6219759813	6219938806	178993	1548.04	701.05	1695.91	651.02	4.44	95.63	0.56	24.78	2095.09	-2278.70	803.42
Saccade R	1	11	6219759813	6219938806	178993	1548.04	701.05	1695.91	651.02	4.44	95.63	0.56	24.78	2095.09	-2278.70	803.42
Fixation L	1	12	6219938806	6220097923	159117	1659.88	633.04	55	41	-1	10.39	10.39
Fixation R	1	12	6219938806	6220097923	159117	1659.88	633.04	55	41	-1	7.16	7.16
Saccade L	1	12	6220097923	6220137792	39869	1648.53	637.54	1669.61	645.35	1.03	52.12	1.00	25.73	1275.11	0.00	634.81
Saccade R	1	12	6220097923	6220137792	39869	1648.53	637.54	1669.61	645.35	1.03	52.12	1.00	25.73	1275.11	0.00	634.81
