[BeGaze]
Converted from:	C:\Documents and Settings\iViewX\Desktop\EXPERIMENTATIONS\Experiments\results\finaleart\S19F21442-finaleart-1.idf
Date:	27.03.2019 15:51:06
Version:	BeGaze 2.5.77
Sample Rate:	50
Subject:	S19F21442
Description:	Juliette Veuillez

Table Header for Fixations:
Event Type	Trial	Number	Start	End	Duration	Location X	Location Y	Dispersion X	Dispersion Y	Plane	Avg. Pupil Size X	Avg. Pupil Size Y

Table Header for Saccades:
Event Type	Trial	Number	Start	End	Duration	Start Loc.X	Start Loc.Y	End Loc.X	End Loc.Y	Amplitude	Peak Speed	Peak Speed At	Average Speed	Peak Accel.	Peak Decel.	Average Accel.

Table Header for Blinks:
Event Type	Trial	Number	Start	End	Duration

Table Header for User Events:
Event Type	Trial	Number	Start	Description

UserEvent	1	1	7122332130	# Message: void.jpg
Fixation L	1	1	7122337557	7122476670	139113	493.23	548.52	31	24	-1	11.09	11.09
Fixation R	1	1	7122337557	7122476670	139113	493.23	548.52	31	24	-1	12.90	12.90
Saccade L	1	1	7122476670	7122516552	39882	504.05	545.60	511.95	251.12	2.55	241.22	1.00	64.03	5874.01	-5637.79	3488.54
Saccade R	1	1	7122476670	7122516552	39882	504.05	545.60	511.95	251.12	2.55	241.22	1.00	64.03	5874.01	-5637.79	3488.54
Fixation L	1	2	7122516552	7123391632	875080	521.38	227.45	24	71	-1	11.40	11.40
Fixation R	1	2	7122516552	7123391632	875080	521.38	227.45	24	71	-1	12.98	12.98
Saccade L	1	2	7123391632	7123411500	19868	535.73	260.53	541.62	256.40	0.17	12.44	1.00	8.42	-20.45	-128.74	78.60
Saccade R	1	2	7123391632	7123411500	19868	535.73	260.53	541.62	256.40	0.17	12.44	1.00	8.42	-20.45	-128.74	78.60
Fixation L	1	3	7123411500	7123769607	358107	555.12	292.36	27	61	-1	12.58	12.58
Fixation R	1	3	7123411500	7123769607	358107	555.12	292.36	27	61	-1	14.26	14.26
Saccade L	1	3	7123769607	7123789478	19871	567.37	306.42	570.02	332.64	0.23	26.67	1.00	11.42	545.58	-422.55	374.11
Saccade R	1	3	7123769607	7123789478	19871	567.37	306.42	570.02	332.64	0.23	26.67	1.00	11.42	545.58	-422.55	374.11
Fixation L	1	4	7123789478	7124207219	417741	568.69	315.89	11	46	-1	13.21	13.21
Fixation R	1	4	7123789478	7124207219	417741	568.69	315.89	11	46	-1	15.19	15.19
Saccade L	1	4	7124207219	7124326462	119243	567.91	309.99	792.84	488.51	4.74	185.17	0.17	39.77	4445.26	-4266.59	1764.61
Saccade R	1	4	7124207219	7124326462	119243	567.91	309.99	792.84	488.51	4.74	185.17	0.17	39.77	4445.26	-4266.59	1764.61
