[BeGaze]
Converted from:	C:\Documents and Settings\iViewX\Desktop\EXPERIMENTATIONS\Experiments\results\finaleart\S19F21442-finaleart-1.idf
Date:	27.03.2019 15:51:57
Version:	BeGaze 2.5.77
Sample Rate:	50
Subject:	S19F21442
Description:	Juliette Veuillez

Table Header for Fixations:
Event Type	Trial	Number	Start	End	Duration	Location X	Location Y	Dispersion X	Dispersion Y	Plane	Avg. Pupil Size X	Avg. Pupil Size Y

Table Header for Saccades:
Event Type	Trial	Number	Start	End	Duration	Start Loc.X	Start Loc.Y	End Loc.X	End Loc.Y	Amplitude	Peak Speed	Peak Speed At	Average Speed	Peak Accel.	Peak Decel.	Average Accel.

Table Header for Blinks:
Event Type	Trial	Number	Start	End	Duration

Table Header for User Events:
Event Type	Trial	Number	Start	Description

UserEvent	1	1	8313030009	# Message: the-tea-set_monet_1871.jpg
Fixation L	1	1	8313039411	8313477056	437645	702.52	543.36	32	27	-1	10.18	10.18
Fixation R	1	1	8313039411	8313477056	437645	702.52	543.36	32	27	-1	11.90	11.90
Saccade L	1	1	8313477056	8313496974	19918	725.01	552.87	962.06	652.21	1.54	259.84	1.00	77.38	6472.61	-6197.83	4243.84
Saccade R	1	1	8313477056	8313496974	19918	725.01	552.87	962.06	652.21	1.54	259.84	1.00	77.38	6472.61	-6197.83	4243.84
Fixation L	1	2	8313496974	8313596394	99420	987.88	645.69	36	26	-1	10.17	10.17
Fixation R	1	2	8313496974	8313596394	99420	987.88	645.69	36	26	-1	11.80	11.80
Saccade L	1	2	8313596394	8313695736	99342	991.99	637.61	1025.28	560.53	3.66	78.84	1.00	36.80	1281.78	-1619.23	896.37
Saccade R	1	2	8313596394	8313695736	99342	991.99	637.61	1025.28	560.53	3.66	78.84	1.00	36.80	1281.78	-1619.23	896.37
Fixation L	1	3	8313695736	8313934476	238740	1055.21	542.82	47	25	-1	8.66	8.66
Fixation R	1	3	8313695736	8313934476	238740	1055.21	542.82	47	25	-1	9.52	9.52
Saccade L	1	3	8313934476	8313954355	19879	1018.61	542.50	918.47	585.56	0.88	110.25	1.00	44.47	2715.33	-1987.31	1746.40
Saccade R	1	3	8313934476	8313954355	19879	1018.61	542.50	918.47	585.56	0.88	110.25	1.00	44.47	2715.33	-1987.31	1746.40
Fixation L	1	4	8313954355	8314113491	159136	905.67	619.16	26	67	-1	8.47	8.47
Fixation R	1	4	8313954355	8314113491	159136	905.67	619.16	26	67	-1	9.83	9.83
Saccade L	1	4	8314113491	8314133345	19854	910.90	650.20	914.09	663.21	0.40	29.34	1.00	19.90	483.19	-328.64	412.16
Saccade R	1	4	8314113491	8314133345	19854	910.90	650.20	914.09	663.21	0.40	29.34	1.00	19.90	483.19	-328.64	412.16
Fixation L	1	5	8314133345	8314372077	238732	920.48	663.49	14	45	-1	9.26	9.26
Fixation R	1	5	8314133345	8314372077	238732	920.48	663.49	14	45	-1	10.47	10.47
Saccade L	1	5	8314372077	8314391955	19878	927.34	659.04	1094.74	621.98	1.12	173.39	1.00	56.30	4025.72	-3892.21	2698.09
Saccade R	1	5	8314372077	8314391955	19878	927.34	659.04	1094.74	621.98	1.12	173.39	1.00	56.30	4025.72	-3892.21	2698.09
Fixation L	1	6	8314391955	8314630568	238613	1130.11	598.00	46	47	-1	9.83	9.83
Fixation R	1	6	8314391955	8314630568	238613	1130.11	598.00	46	47	-1	10.55	10.55
Saccade L	1	6	8314630568	8314650582	20014	1128.29	574.13	1117.84	561.25	0.35	23.20	1.00	17.33	232.69	32.74	121.68
Saccade R	1	6	8314630568	8314650582	20014	1128.29	574.13	1117.84	561.25	0.35	23.20	1.00	17.33	232.69	32.74	121.68
Fixation L	1	7	8314650582	8314869324	218742	1098.93	534.80	25	46	-1	9.75	9.75
Fixation R	1	7	8314650582	8314869324	218742	1098.93	534.80	25	46	-1	10.97	10.97
Saccade L	1	7	8314869324	8314948803	79479	1092.83	527.54	519.37	306.03	7.45	259.43	0.75	93.73	5095.39	-6153.97	3617.06
Saccade R	1	7	8314869324	8314948803	79479	1092.83	527.54	519.37	306.03	7.45	259.43	0.75	93.73	5095.39	-6153.97	3617.06
Fixation L	1	8	8314948803	8315207419	258616	514.78	283.34	41	54	-1	8.95	8.95
Fixation R	1	8	8314948803	8315207419	258616	514.78	283.34	41	54	-1	10.55	10.55
Saccade L	1	8	8315207419	8315267167	59748	504.43	281.84	391.01	484.66	3.35	186.23	0.67	56.13	3899.58	-3962.89	1872.44
Saccade R	1	8	8315207419	8315267167	59748	504.43	281.84	391.01	484.66	3.35	186.23	0.67	56.13	3899.58	-3962.89	1872.44
Fixation L	1	9	8315267167	8315386413	119246	411.89	524.28	30	67	-1	8.44	8.44
Fixation R	1	9	8315267167	8315386413	119246	411.89	524.28	30	67	-1	10.54	10.54
Saccade L	1	9	8315386413	8315406288	19875	421.12	531.87	424.32	549.40	0.31	23.85	1.00	15.84	270.65	-243.66	219.90
Saccade R	1	9	8315386413	8315406288	19875	421.12	531.87	424.32	549.40	0.31	23.85	1.00	15.84	270.65	-243.66	219.90
Fixation L	1	10	8315406288	8315505777	99489	419.24	545.17	8	13	-1	8.67	8.67
Fixation R	1	10	8315406288	8315505777	99489	419.24	545.17	8	13	-1	10.68	10.68
Saccade L	1	10	8315505777	8315525656	19879	422.74	549.59	421.22	384.67	0.96	166.80	1.00	48.10	4068.87	-3819.56	2673.12
Saccade R	1	10	8315505777	8315525656	19879	422.74	549.59	421.22	384.67	0.96	166.80	1.00	48.10	4068.87	-3819.56	2673.12
Fixation L	1	11	8315525656	8315804136	278480	414.40	348.19	31	52	-1	8.51	8.51
Fixation R	1	11	8315525656	8315804136	278480	414.40	348.19	31	52	-1	10.77	10.77
Saccade L	1	11	8315804136	8315863766	59630	417.42	346.38	480.31	270.66	2.37	73.18	0.33	39.73	1361.96	-1040.55	886.65
Saccade R	1	11	8315804136	8315863766	59630	417.42	346.38	480.31	270.66	2.37	73.18	0.33	39.73	1361.96	-1040.55	886.65
Fixation L	1	12	8315863766	8315963266	99500	499.69	265.87	30	68	-1	8.44	8.44
Fixation R	1	12	8315863766	8315963266	99500	499.69	265.87	30	68	-1	10.88	10.88
Saccade L	1	12	8315963266	8315983134	19868	506.42	246.29	513.17	246.64	0.32	33.54	1.00	16.05	689.18	-275.22	466.01
Saccade R	1	12	8315963266	8315983134	19868	506.42	246.29	513.17	246.64	0.32	33.54	1.00	16.05	689.18	-275.22	466.01
Fixation L	1	13	8315983134	8316301368	318234	509.42	268.56	23	59	-1	8.92	8.92
Fixation R	1	13	8315983134	8316301368	318234	509.42	268.56	23	59	-1	10.82	10.82
Saccade L	1	13	8316301368	8316361111	59743	493.46	232.39	1023.90	495.08	7.04	233.29	0.67	117.85	4966.72	-4898.45	3997.51
Saccade R	1	13	8316301368	8316361111	59743	493.46	232.39	1023.90	495.08	7.04	233.29	0.67	117.85	4966.72	-4898.45	3997.51
Fixation L	1	14	8316361111	8316559990	198879	1029.02	523.05	20	51	-1	9.97	9.97
Fixation R	1	14	8316361111	8316559990	198879	1029.02	523.05	20	51	-1	10.73	10.73
Saccade L	1	14	8316559990	8316619602	59612	1043.52	517.00	1414.25	722.24	6.45	299.44	0.33	108.21	7348.27	-4153.06	4083.34
Saccade R	1	14	8316559990	8316619602	59612	1043.52	517.00	1414.25	722.24	6.45	299.44	0.33	108.21	7348.27	-4153.06	4083.34
Fixation L	1	15	8316619602	8317017472	397870	1425.84	730.04	50	23	-1	10.07	10.07
Fixation R	1	15	8316619602	8317017472	397870	1425.84	730.04	50	23	-1	12.09	12.09
