[BeGaze]
Converted from:	C:\Documents and Settings\iViewX\Desktop\EXPERIMENTATIONS\Experiments\results\finaleart\S19F21442-finaleart-1.idf
Date:	27.03.2019 15:50:32
Version:	BeGaze 2.5.77
Sample Rate:	50
Subject:	S19F21442
Description:	Juliette Veuillez

Table Header for Fixations:
Event Type	Trial	Number	Start	End	Duration	Location X	Location Y	Dispersion X	Dispersion Y	Plane	Avg. Pupil Size X	Avg. Pupil Size Y

Table Header for Saccades:
Event Type	Trial	Number	Start	End	Duration	Start Loc.X	Start Loc.Y	End Loc.X	End Loc.Y	Amplitude	Peak Speed	Peak Speed At	Average Speed	Peak Accel.	Peak Decel.	Average Accel.

Table Header for Blinks:
Event Type	Trial	Number	Start	End	Duration

Table Header for User Events:
Event Type	Trial	Number	Start	Description

UserEvent	1	1	6275189314	# Message: void.jpg
Saccade L	1	1	6275193647	6275253279	59632	643.06	373.22	903.47	356.30	3.78	229.27	1.00	63.46	5669.22	-5223.82	2408.82
Saccade R	1	1	6275193647	6275253279	59632	643.06	373.22	903.47	356.30	3.78	229.27	1.00	63.46	5669.22	-5223.82	2408.82
Fixation L	1	1	6275253279	6275651117	397838	961.45	352.13	65	30	-1	12.79	12.79
Fixation R	1	1	6275253279	6275651117	397838	961.45	352.13	65	30	-1	14.66	14.66
Saccade L	1	2	6275651117	6275670994	19877	968.55	335.89	966.87	326.65	0.18	15.27	1.00	9.05	226.02	21.88	118.37
Saccade R	1	2	6275651117	6275670994	19877	968.55	335.89	966.87	326.65	0.18	15.27	1.00	9.05	226.02	21.88	118.37
Fixation L	1	2	6275670994	6276526211	855217	966.81	354.66	15	80	-1	13.73	13.73
Fixation R	1	2	6275670994	6276526211	855217	966.81	354.66	15	80	-1	15.54	15.54
Saccade L	1	3	6276526211	6276546085	19874	973.20	392.10	904.32	410.01	0.65	71.99	1.00	32.47	1544.76	-1685.06	1345.99
Saccade R	1	3	6276526211	6276546085	19874	973.20	392.10	904.32	410.01	0.65	71.99	1.00	32.47	1544.76	-1685.06	1345.99
Fixation L	1	3	6276546085	6276725195	179110	870.23	404.15	42	45	-1	14.16	14.16
Fixation R	1	3	6276546085	6276725195	179110	870.23	404.15	42	45	-1	16.22	16.22
Saccade L	1	4	6276725195	6276745070	19875	866.87	433.10	866.52	449.55	0.29	17.25	1.00	14.62	570.20	19.75	267.74
Saccade R	1	4	6276725195	6276745070	19875	866.87	433.10	866.52	449.55	0.29	17.25	1.00	14.62	570.20	19.75	267.74
Fixation L	1	4	6276745070	6277182557	437487	897.43	471.92	55	34	-1	14.20	14.20
Fixation R	1	4	6276745070	6277182557	437487	897.43	471.92	55	34	-1	16.35	16.35
