[BeGaze]
Converted from:	C:\Documents and Settings\iViewX\Desktop\EXPERIMENTATIONS\Experiments\results\finaleart\S19F21442-finaleart-1.idf
Date:	27.03.2019 15:50:17
Version:	BeGaze 2.5.77
Sample Rate:	50
Subject:	S19F21442
Description:	Juliette Veuillez

Table Header for Fixations:
Event Type	Trial	Number	Start	End	Duration	Location X	Location Y	Dispersion X	Dispersion Y	Plane	Avg. Pupil Size X	Avg. Pupil Size Y

Table Header for Saccades:
Event Type	Trial	Number	Start	End	Duration	Start Loc.X	Start Loc.Y	End Loc.X	End Loc.Y	Amplitude	Peak Speed	Peak Speed At	Average Speed	Peak Accel.	Peak Decel.	Average Accel.

Table Header for Blinks:
Event Type	Trial	Number	Start	End	Duration

Table Header for User Events:
Event Type	Trial	Number	Start	Description

UserEvent	1	1	5594347425	# Message: study_of_a_reclining_nude_Delacroix_1824.jpg
Saccade L	1	1	5594358777	5594458142	99365	988.84	372.29	834.76	484.28	4.03	159.75	0.80	40.58	3807.21	-3696.56	1606.87
Saccade R	1	1	5594358777	5594458142	99365	988.84	372.29	834.76	484.28	4.03	159.75	0.80	40.58	3807.21	-3696.56	1606.87
Fixation L	1	1	5594458142	5594836105	377963	825.34	500.92	15	32	-1	14.42	14.42
Fixation R	1	1	5594458142	5594836105	377963	825.34	500.92	15	32	-1	17.03	17.03
Saccade L	1	2	5594836105	5594875866	39761	826.20	514.64	1274.02	366.59	4.32	255.62	1.00	108.73	6285.05	-6002.32	5777.47
Saccade R	1	2	5594836105	5594875866	39761	826.20	514.64	1274.02	366.59	4.32	255.62	1.00	108.73	6285.05	-6002.32	5777.47
Fixation L	1	2	5594875866	5595154367	278501	1281.75	372.20	35	54	-1	14.07	14.07
Fixation R	1	2	5594875866	5595154367	278501	1281.75	372.20	35	54	-1	16.36	16.36
Saccade L	1	3	5595154367	5595174216	19849	1302.91	342.54	1309.12	337.80	0.13	11.56	1.00	6.45	39.54	-188.20	106.42
Saccade R	1	3	5595154367	5595174216	19849	1302.91	342.54	1309.12	337.80	0.13	11.56	1.00	6.45	39.54	-188.20	106.42
Fixation L	1	3	5595174216	5595591844	417628	1333.65	316.07	37	36	-1	14.22	14.22
Fixation R	1	3	5595174216	5595591844	417628	1333.65	316.07	37	36	-1	16.65	16.65
Saccade L	1	4	5595591844	5595631701	39857	1346.87	308.86	1553.79	149.83	2.31	206.36	1.00	58.08	5054.74	-5135.62	3305.64
Saccade R	1	4	5595591844	5595631701	39857	1346.87	308.86	1553.79	149.83	2.31	206.36	1.00	58.08	5054.74	-5135.62	3305.64
Fixation L	1	4	5595631701	5595870313	238612	1544.64	185.09	24	68	-1	14.79	14.79
Fixation R	1	4	5595631701	5595870313	238612	1544.64	185.09	24	68	-1	16.60	16.60
Saccade L	1	5	5595870313	5595890185	19872	1529.40	218.62	1523.76	225.03	0.17	13.03	1.00	8.73	31.69	-109.72	54.54
Saccade R	1	5	5595870313	5595890185	19872	1529.40	218.62	1523.76	225.03	0.17	13.03	1.00	8.73	31.69	-109.72	54.54
Fixation L	1	5	5595890185	5596049306	159121	1529.10	211.99	15	23	-1	15.10	15.10
Fixation R	1	5	5595890185	5596049306	159121	1529.10	211.99	15	23	-1	16.93	16.93
Saccade L	1	6	5596049306	5596089178	39872	1538.85	201.64	1158.08	536.57	4.23	310.51	0.50	106.19	7704.26	-7678.41	6261.99
Saccade R	1	6	5596049306	5596089178	39872	1538.85	201.64	1158.08	536.57	4.23	310.51	0.50	106.19	7704.26	-7678.41	6261.99
Fixation L	1	6	5596089178	5596307919	218741	1152.50	529.91	8	22	-1	15.46	15.46
Fixation R	1	6	5596089178	5596307919	218741	1152.50	529.91	8	22	-1	17.17	17.17
Saccade L	1	7	5596307919	5596347671	39752	1149.64	521.09	816.04	678.16	3.17	219.94	0.50	79.71	5429.31	-5065.62	4375.54
Saccade R	1	7	5596307919	5596347671	39752	1149.64	521.09	816.04	678.16	3.17	219.94	0.50	79.71	5429.31	-5065.62	4375.54
Fixation L	1	7	5596347671	5596626157	278486	797.73	694.15	28	40	-1	14.98	14.98
Fixation R	1	7	5596347671	5596626157	278486	797.73	694.15	28	40	-1	17.59	17.59
Saccade L	1	8	5596626157	5596665908	39751	788.77	688.41	1130.15	733.47	2.95	245.23	0.50	74.14	5853.66	-6013.88	4170.48
Saccade R	1	8	5596626157	5596665908	39751	788.77	688.41	1130.15	733.47	2.95	245.23	0.50	74.14	5853.66	-6013.88	4170.48
Fixation L	1	8	5596665908	5596924514	258606	1137.39	746.52	9	21	-1	15.01	15.01
Fixation R	1	8	5596665908	5596924514	258606	1137.39	746.52	9	21	-1	17.00	17.00
Saccade L	1	9	5596924514	5596984141	59627	1140.02	753.07	556.21	819.47	6.19	269.34	0.33	103.84	6685.86	-5302.23	4818.02
Saccade R	1	9	5596924514	5596984141	59627	1140.02	753.07	556.21	819.47	6.19	269.34	0.33	103.84	6685.86	-5302.23	4818.02
Fixation L	1	9	5596984141	5597163256	179115	560.30	831.24	33	17	-1	14.31	14.31
Fixation R	1	9	5596984141	5597163256	179115	560.30	831.24	33	17	-1	17.48	17.48
Saccade L	1	10	5597163256	5597222879	59623	580.79	831.31	341.68	772.22	6.10	296.14	0.67	102.26	7225.30	-7319.74	4405.29
Saccade R	1	10	5597163256	5597222879	59623	580.79	831.31	341.68	772.22	6.10	296.14	0.67	102.26	7225.30	-7319.74	4405.29
Fixation L	1	10	5597222879	5597859357	636478	332.63	784.74	58	40	-1	14.24	14.24
Fixation R	1	10	5597222879	5597859357	636478	332.63	784.74	58	40	-1	17.76	17.76
Saccade L	1	11	5597859357	5597879227	19870	313.13	788.20	289.07	773.05	0.33	28.76	1.00	16.57	597.41	-420.03	375.07
Saccade R	1	11	5597859357	5597879227	19870	313.13	788.20	289.07	773.05	0.33	28.76	1.00	16.57	597.41	-420.03	375.07
Fixation L	1	11	5597879227	5597998590	119363	305.72	773.23	29	16	-1	14.10	14.10
Fixation R	1	11	5597879227	5597998590	119363	305.72	773.23	29	16	-1	18.01	18.01
Saccade L	1	12	5597998590	5598038360	39770	318.83	780.53	537.10	976.92	2.74	237.69	1.00	68.94	5866.15	-5722.91	3364.35
Saccade R	1	12	5597998590	5598038360	39770	318.83	780.53	537.10	976.92	2.74	237.69	1.00	68.94	5866.15	-5722.91	3364.35
Fixation L	1	12	5598038360	5598237225	198865	543.62	985.98	78	19	-1	14.61	14.61
Fixation R	1	12	5598038360	5598237225	198865	543.62	985.98	78	19	-1	18.15	18.15
Saccade L	1	13	5598237225	5598336709	99484	554.74	994.51	554.88	986.54	2.26	63.13	0.60	22.68	958.10	-1195.98	530.65
Saccade R	1	13	5598237225	5598336709	99484	554.74	994.51	554.88	986.54	2.26	63.13	0.60	22.68	958.10	-1195.98	530.65
