[BeGaze]
Converted from:	C:\Documents and Settings\iViewX\Desktop\EXPERIMENTATIONS\Experiments\results\finaleart\S19F21442-finaleart-1.idf
Date:	27.03.2019 15:51:24
Version:	BeGaze 2.5.77
Sample Rate:	50
Subject:	S19F21442
Description:	Juliette Veuillez

Table Header for Fixations:
Event Type	Trial	Number	Start	End	Duration	Location X	Location Y	Dispersion X	Dispersion Y	Plane	Avg. Pupil Size X	Avg. Pupil Size Y

Table Header for Saccades:
Event Type	Trial	Number	Start	End	Duration	Start Loc.X	Start Loc.Y	End Loc.X	End Loc.Y	Amplitude	Peak Speed	Peak Speed At	Average Speed	Peak Accel.	Peak Decel.	Average Accel.

Table Header for Blinks:
Event Type	Trial	Number	Start	End	Duration

Table Header for User Events:
Event Type	Trial	Number	Start	Description

UserEvent	1	1	7630373224	# Message: Rapids_on_the_Petite_Creuse_at_Fresselines_Monet_1889.jpg
Fixation L	1	1	7630377155	7630854496	477341	847.63	501.92	21	46	-1	11.93	11.93
Fixation R	1	1	7630377155	7630854496	477341	847.63	501.92	21	46	-1	14.48	14.48
Saccade L	1	1	7630854496	7630894271	39775	852.13	476.24	618.70	330.54	2.37	155.98	1.00	59.54	3790.80	-3291.44	3205.79
Saccade R	1	1	7630854496	7630894271	39775	852.13	476.24	618.70	330.54	2.37	155.98	1.00	59.54	3790.80	-3291.44	3205.79
Fixation L	1	2	7630894271	7631212484	318213	607.58	337.48	20	40	-1	9.74	9.74
Fixation R	1	2	7630894271	7631212484	318213	607.58	337.48	20	40	-1	12.36	12.36
Saccade L	1	2	7631212484	7631252356	39872	598.25	311.86	355.67	285.26	2.39	135.24	0.50	60.01	3027.64	-2638.12	2730.85
Saccade R	1	2	7631212484	7631252356	39872	598.25	311.86	355.67	285.26	2.39	135.24	0.50	60.01	3027.64	-2638.12	2730.85
Fixation L	1	3	7631252356	7631471102	218746	379.76	283.93	37	24	-1	8.97	8.97
Fixation R	1	3	7631252356	7631471102	218746	379.76	283.93	37	24	-1	11.39	11.39
Saccade L	1	3	7631471102	7631530725	59623	392.23	284.91	1118.48	279.39	7.66	315.87	0.67	128.44	7615.97	-7339.18	5375.21
Saccade R	1	3	7631471102	7631530725	59623	392.23	284.91	1118.48	279.39	7.66	315.87	0.67	128.44	7615.97	-7339.18	5375.21
Fixation L	1	4	7631530725	7631809213	278488	1144.00	265.50	31	29	-1	9.89	9.89
Fixation R	1	4	7631530725	7631809213	278488	1144.00	265.50	31	29	-1	11.84	11.84
Saccade L	1	4	7631809213	7631848962	39749	1150.39	256.86	1343.44	229.09	1.93	165.91	0.50	48.47	3927.17	-3687.24	2238.10
Saccade R	1	4	7631809213	7631848962	39749	1150.39	256.86	1343.44	229.09	1.93	165.91	0.50	48.47	3927.17	-3687.24	2238.10
Fixation L	1	5	7631848962	7632425808	576846	1353.09	228.17	18	77	-1	10.58	10.58
Fixation R	1	5	7631848962	7632425808	576846	1353.09	228.17	18	77	-1	12.36	12.36
Saccade L	1	5	7632425808	7632445683	19875	1356.10	275.68	1364.40	394.17	0.86	120.14	1.00	43.05	2861.31	-2884.88	1984.35
Saccade R	1	5	7632425808	7632445683	19875	1356.10	275.68	1364.40	394.17	0.86	120.14	1.00	43.05	2861.31	-2884.88	1984.35
Fixation L	1	6	7632445683	7632624674	178991	1382.40	399.34	28	18	-1	11.17	11.17
Fixation R	1	6	7632445683	7632624674	178991	1382.40	399.34	28	18	-1	12.81	12.81
Saccade L	1	6	7632624674	7632664553	39879	1381.64	410.53	1038.61	713.58	3.94	297.62	0.50	98.91	7337.17	-7175.61	5605.80
Saccade R	1	6	7632624674	7632664553	39879	1381.64	410.53	1038.61	713.58	3.94	297.62	0.50	98.91	7337.17	-7175.61	5605.80
Fixation L	1	7	7632664553	7633082157	417604	1036.44	703.27	11	36	-1	11.40	11.40
Fixation R	1	7	7632664553	7633082157	417604	1036.44	703.27	11	36	-1	13.04	13.04
Saccade L	1	7	7633082157	7633122034	39877	1038.42	706.50	796.37	681.11	2.45	146.93	0.50	61.48	3371.51	-2888.77	2497.66
Saccade R	1	7	7633082157	7633122034	39877	1038.42	706.50	796.37	681.11	2.45	146.93	0.50	61.48	3371.51	-2888.77	2497.66
Fixation L	1	8	7633122034	7633261150	139116	814.95	667.35	30	68	-1	10.26	10.26
Fixation R	1	8	7633122034	7633261150	139116	814.95	667.35	30	68	-1	13.08	13.08
Saccade L	1	8	7633261150	7633281145	19995	805.74	642.45	813.48	633.90	0.21	16.23	0.00	10.68	114.38	-212.24	153.93
Saccade R	1	8	7633261150	7633281145	19995	805.74	642.45	813.48	633.90	0.21	16.23	0.00	10.68	114.38	-212.24	153.93
Fixation L	1	9	7633281145	7633420269	139124	816.17	646.96	18	34	-1	10.32	10.32
Fixation R	1	9	7633281145	7633420269	139124	816.17	646.96	18	34	-1	12.79	12.79
Saccade L	1	9	7633420269	7633460157	39888	828.95	668.07	1318.21	842.31	4.84	293.29	0.50	121.38	6960.07	-6509.87	6304.42
Saccade R	1	9	7633420269	7633460157	39888	828.95	668.07	1318.21	842.31	4.84	293.29	0.50	121.38	6960.07	-6509.87	6304.42
Fixation L	1	10	7633460157	7633818119	357962	1340.33	879.95	31	46	-1	10.91	10.91
Fixation R	1	10	7633460157	7633818119	357962	1340.33	879.95	31	46	-1	12.47	12.47
Saccade L	1	10	7633818119	7633877748	59629	1342.29	882.76	782.44	915.25	6.15	284.67	0.67	103.13	6956.85	-6119.70	4536.48
Saccade R	1	10	7633818119	7633877748	59629	1342.29	882.76	782.44	915.25	6.15	284.67	0.67	103.13	6956.85	-6119.70	4536.48
Fixation L	1	11	7633877748	7634215984	338236	732.00	933.46	58	40	-1	10.23	10.23
Fixation R	1	11	7633877748	7634215984	338236	732.00	933.46	58	40	-1	12.72	12.72
Saccade L	1	11	7634215984	7634255722	39738	724.40	935.54	446.48	971.62	2.69	262.12	1.00	67.70	6048.69	-6333.22	3331.36
Saccade R	1	11	7634215984	7634255722	39738	724.40	935.54	446.48	971.62	2.69	262.12	1.00	67.70	6048.69	-6333.22	3331.36
Fixation L	1	12	7634255722	7634355102	99380	433.13	978.65	23	32	-1	9.87	9.87
Fixation R	1	12	7634255722	7634355102	99380	433.13	978.65	23	32	-1	12.40	12.40
