[BeGaze]
Converted from:	C:\Documents and Settings\iViewX\Desktop\EXPERIMENTATIONS\Experiments\results\finaleart\S19F21442-finaleart-1.idf
Date:	27.03.2019 15:50:42
Version:	BeGaze 2.5.77
Sample Rate:	50
Subject:	S19F21442
Description:	Juliette Veuillez

Table Header for Fixations:
Event Type	Trial	Number	Start	End	Duration	Location X	Location Y	Dispersion X	Dispersion Y	Plane	Avg. Pupil Size X	Avg. Pupil Size Y

Table Header for Saccades:
Event Type	Trial	Number	Start	End	Duration	Start Loc.X	Start Loc.Y	End Loc.X	End Loc.Y	Amplitude	Peak Speed	Peak Speed At	Average Speed	Peak Accel.	Peak Decel.	Average Accel.

Table Header for Blinks:
Event Type	Trial	Number	Start	End	Duration

Table Header for User Events:
Event Type	Trial	Number	Start	Description

UserEvent	1	1	6627369846	# Message: void.jpg
Saccade L	1	1	6627373779	6627413633	39854	1656.31	724.34	1654.95	718.96	0.80	72.37	1.00	20.07	1642.70	0.00	588.13
Saccade R	1	1	6627373779	6627493148	119369	1656.31	724.34	1660.59	635.31	7.27	163.39	1.00	60.89	3374.95	-3612.55	1638.83
Blink L	1	1	6627413633	6627532904	119271
Fixation R	1	1	6627493148	6627592627	99479	1647.32	690.49	22	76	-1	11.91	11.91
Fixation L	1	1	6627532904	6627950613	417709	1631.45	702.33	41	25	-1	11.80	11.80
Saccade R	1	2	6627592627	6627612508	19881	1637.79	689.81	1628.77	699.33	0.17	13.74	0.00	8.64	303.03	-183.52	220.35
Fixation R	1	2	6627612508	6627950613	338105	1629.17	702.62	32	21	-1	12.68	12.68
Saccade L	1	2	6627950613	6628070020	119407	1603.23	703.30	470.36	463.57	16.83	313.85	0.17	140.95	7726.86	-2882.44	3428.49
Saccade R	1	3	6627950613	6628070020	119407	1603.23	703.30	470.36	463.57	16.83	313.85	0.17	140.95	7726.86	-2882.44	3428.49
Fixation L	1	2	6628070020	6629223561	1153541	496.91	462.36	49	49	-1	11.27	11.27
Fixation R	1	3	6628070020	6629223561	1153541	496.91	462.36	49	49	-1	13.68	13.68
Saccade L	1	3	6629223561	6629243438	19877	516.21	484.97	517.13	491.27	0.11	8.78	1.00	5.56	163.86	40.72	116.04
Saccade R	1	4	6629223561	6629243438	19877	516.21	484.97	517.13	491.27	0.11	8.78	1.00	5.56	163.86	40.72	116.04
Fixation L	1	3	6629243438	6629362820	119382	521.18	491.31	7	12	-1	11.78	11.78
Fixation R	1	4	6629243438	6629362820	119382	521.18	491.31	7	12	-1	13.98	13.98
