[BeGaze]
Converted from:	C:\Documents and Settings\iViewX\Desktop\EXPERIMENTATIONS\Experiments\results\finaleart\S19F21442-finaleart-1.idf
Date:	27.03.2019 15:50:18
Version:	BeGaze 2.5.77
Sample Rate:	50
Subject:	S19F21442
Description:	Juliette Veuillez

Table Header for Fixations:
Event Type	Trial	Number	Start	End	Duration	Location X	Location Y	Dispersion X	Dispersion Y	Plane	Avg. Pupil Size X	Avg. Pupil Size Y

Table Header for Saccades:
Event Type	Trial	Number	Start	End	Duration	Start Loc.X	Start Loc.Y	End Loc.X	End Loc.Y	Amplitude	Peak Speed	Peak Speed At	Average Speed	Peak Accel.	Peak Decel.	Average Accel.

Table Header for Blinks:
Event Type	Trial	Number	Start	End	Duration

Table Header for User Events:
Event Type	Trial	Number	Start	Description

UserEvent	1	1	5600457954	# Message: plage-de-la-vignassa_cross_1892.jpg
Fixation L	1	1	5600464994	5600882616	417622	1060.06	553.76	49	28	-1	15.55	15.55
Fixation R	1	1	5600464994	5600882616	417622	1060.06	553.76	49	28	-1	17.81	17.81
Saccade L	1	1	5600882616	5600902607	19991	1020.77	559.19	832.14	722.68	1.59	252.36	1.00	79.29	5719.57	-6150.29	4007.37
Saccade R	1	1	5600882616	5600902607	19991	1020.77	559.19	832.14	722.68	1.59	252.36	1.00	79.29	5719.57	-6150.29	4007.37
Fixation L	1	2	5600902607	5601101460	198853	836.78	713.53	26	19	-1	15.03	15.03
Fixation R	1	2	5600902607	5601101460	198853	836.78	713.53	26	19	-1	17.79	17.79
Saccade L	1	2	5601101460	5601141221	39761	817.01	713.87	683.91	384.69	3.89	327.92	0.50	97.75	7974.60	-7782.76	5139.94
Saccade R	1	2	5601101460	5601141221	39761	817.01	713.87	683.91	384.69	3.89	327.92	0.50	97.75	7974.60	-7782.76	5139.94
Fixation L	1	3	5601141221	5601419696	278475	695.87	400.58	21	66	-1	12.77	12.77
Fixation R	1	3	5601141221	5601419696	278475	695.87	400.58	21	66	-1	15.39	15.39
Saccade L	1	3	5601419696	5601459450	39754	692.53	435.90	1106.23	597.32	3.98	244.16	1.00	100.04	5505.05	-5469.78	5257.20
Saccade R	1	3	5601419696	5601459450	39754	692.53	435.90	1106.23	597.32	3.98	244.16	1.00	100.04	5505.05	-5469.78	5257.20
Fixation L	1	4	5601459450	5601658310	198860	1128.47	594.09	45	54	-1	12.88	12.88
Fixation R	1	4	5601459450	5601658310	198860	1128.47	594.09	45	54	-1	14.72	14.72
Saccade L	1	4	5601658310	5601777674	119364	1135.26	611.11	908.09	905.13	5.83	201.70	1.00	48.86	4856.10	-4886.54	2299.61
Saccade R	1	4	5601658310	5601777674	119364	1135.26	611.11	908.09	905.13	5.83	201.70	1.00	48.86	4856.10	-4886.54	2299.61
Fixation L	1	5	5601777674	5602036291	258617	920.80	904.43	54	32	-1	14.18	14.18
Fixation R	1	5	5601777674	5602036291	258617	920.80	904.43	54	32	-1	16.51	16.51
Saccade L	1	5	5602036291	5602115791	79500	916.24	890.74	518.05	889.32	5.45	299.26	0.75	68.54	6517.97	-6685.29	2834.49
Saccade R	1	5	5602036291	5602115791	79500	916.24	890.74	518.05	889.32	5.45	299.26	0.75	68.54	6517.97	-6685.29	2834.49
Fixation L	1	6	5602115791	5602314777	198986	538.22	923.36	29	59	-1	14.50	14.50
Fixation R	1	6	5602115791	5602314777	198986	538.22	923.36	29	59	-1	17.26	17.26
Saccade L	1	6	5602314777	5602334658	19881	519.69	920.55	548.76	974.13	0.70	61.67	1.00	35.03	1239.47	-1432.98	924.71
Saccade R	1	6	5602314777	5602334658	19881	519.69	920.55	548.76	974.13	0.70	61.67	1.00	35.03	1239.47	-1432.98	924.71
Fixation L	1	7	5602334658	5602454030	119372	537.47	946.36	50	35	-1	13.96	13.96
Fixation R	1	7	5602334658	5602454030	119372	537.47	946.36	50	35	-1	17.16	17.16
Saccade L	1	7	5602454030	5602473902	19872	538.07	942.06	537.09	764.81	1.57	179.26	1.00	79.21	3514.53	-4283.08	2771.73
Saccade R	1	7	5602454030	5602473902	19872	538.07	942.06	537.09	764.81	1.57	179.26	1.00	79.21	3514.53	-4283.08	2771.73
Fixation L	1	8	5602473902	5602732387	258485	522.97	719.33	31	66	-1	13.55	13.55
Fixation R	1	8	5602473902	5602732387	258485	522.97	719.33	31	66	-1	16.40	16.40
Saccade L	1	8	5602732387	5602871651	139264	528.76	721.16	631.33	434.45	7.75	201.62	0.14	55.62	4872.47	-4646.97	2561.11
Saccade R	1	8	5602732387	5602871651	139264	528.76	721.16	631.33	434.45	7.75	201.62	0.14	55.62	4872.47	-4646.97	2561.11
Fixation L	1	9	5602871651	5602991006	119355	624.42	433.49	52	24	-1	13.77	13.77
Fixation R	1	9	5602871651	5602991006	119355	624.42	433.49	52	24	-1	15.98	15.98
Saccade L	1	9	5602991006	5603030757	39751	640.27	431.72	495.95	162.29	2.93	188.35	0.50	73.75	3631.74	-4480.93	3570.28
Saccade R	1	9	5602991006	5603030757	39751	640.27	431.72	495.95	162.29	2.93	188.35	0.50	73.75	3631.74	-4480.93	3570.28
Fixation L	1	10	5603030757	5603348988	318231	507.75	176.03	22	72	-1	12.48	12.48
Fixation R	1	10	5603030757	5603348988	318231	507.75	176.03	22	72	-1	15.17	15.17
Saccade L	1	10	5603348988	5603428607	79619	499.41	148.36	1209.68	121.40	8.81	314.90	0.75	110.69	7484.36	-7732.95	4435.17
Saccade R	1	10	5603348988	5603428607	79619	499.41	148.36	1209.68	121.40	8.81	314.90	0.75	110.69	7484.36	-7732.95	4435.17
Fixation L	1	11	5603428607	5603607597	178990	1224.54	139.95	50	42	-1	12.08	12.08
Fixation R	1	11	5603428607	5603607597	178990	1224.54	139.95	50	42	-1	14.07	14.07
Saccade L	1	11	5603607597	5603627494	19897	1259.65	145.83	1269.61	130.17	0.31	21.98	0.00	15.74	186.44	-277.30	240.23
Saccade R	1	11	5603607597	5603627494	19897	1259.65	145.83	1269.61	130.17	0.31	21.98	0.00	15.74	186.44	-277.30	240.23
Fixation L	1	12	5603627494	5603766718	139224	1265.68	130.68	48	20	-1	12.00	12.00
Fixation R	1	12	5603627494	5603766718	139224	1265.68	130.68	48	20	-1	13.78	13.78
Saccade L	1	12	5603766718	5603826335	59617	1232.07	126.72	1109.98	34.47	2.93	94.85	1.00	49.09	1592.85	-2132.68	1295.63
Saccade R	1	12	5603766718	5603826335	59617	1232.07	126.72	1109.98	34.47	2.93	94.85	1.00	49.09	1592.85	-2132.68	1295.63
Fixation L	1	13	5603826335	5604244072	417737	1085.90	62.34	33	47	-1	11.79	11.79
Fixation R	1	13	5603826335	5604244072	417737	1085.90	62.34	33	47	-1	13.33	13.33
Saccade L	1	13	5604244072	5604283823	39751	1075.99	78.21	1364.74	73.31	2.44	175.67	1.00	61.48	4343.33	-4175.25	3504.67
Saccade R	1	13	5604244072	5604283823	39751	1075.99	78.21	1364.74	73.31	2.44	175.67	1.00	61.48	4343.33	-4175.25	3504.67
Fixation L	1	14	5604283823	5604383320	99497	1373.70	81.67	78	15	-1	12.08	12.08
Fixation R	1	14	5604283823	5604383320	99497	1373.70	81.67	78	15	-1	13.56	13.56
Saccade L	1	14	5604383320	5604462821	79501	1430.63	89.13	1500.50	104.81	3.09	79.93	0.00	38.89	652.19	-603.46	420.19
Saccade R	1	14	5604383320	5604462821	79501	1430.63	89.13	1500.50	104.81	3.09	79.93	0.00	38.89	652.19	-603.46	420.19
