[BeGaze]
Converted from:	C:\Documents and Settings\iViewX\Desktop\EXPERIMENTATIONS\Experiments\results\finaleart\S19F21442-finaleart-1.idf
Date:	27.03.2019 15:51:26
Version:	BeGaze 2.5.77
Sample Rate:	50
Subject:	S19F21442
Description:	Juliette Veuillez

Table Header for Fixations:
Event Type	Trial	Number	Start	End	Duration	Location X	Location Y	Dispersion X	Dispersion Y	Plane	Avg. Pupil Size X	Avg. Pupil Size Y

Table Header for Saccades:
Event Type	Trial	Number	Start	End	Duration	Start Loc.X	Start Loc.Y	End Loc.X	End Loc.Y	Amplitude	Peak Speed	Peak Speed At	Average Speed	Peak Accel.	Peak Decel.	Average Accel.

Table Header for Blinks:
Event Type	Trial	Number	Start	End	Duration

Table Header for User Events:
Event Type	Trial	Number	Start	Description

UserEvent	1	1	7646658291	# Message: void.jpg
Fixation L	1	1	7646667199	7646806440	139241	1409.16	781.80	4	2	-1	11.15	11.15
Fixation R	1	1	7646667199	7646806440	139241	1409.16	781.80	4	2	-1	11.97	11.97
Saccade L	1	1	7646806440	7646846181	39741	1408.25	780.44	1044.32	664.57	3.34	212.28	0.50	84.03	5242.33	-4920.40	4656.57
Saccade R	1	1	7646806440	7646846181	39741	1408.25	780.44	1044.32	664.57	3.34	212.28	0.50	84.03	5242.33	-4920.40	4656.57
Fixation L	1	2	7646846181	7647303661	457480	1054.54	683.26	20	49	-1	10.29	10.29
Fixation R	1	2	7646846181	7647303661	457480	1054.54	683.26	20	49	-1	11.56	11.56
Saccade L	1	2	7647303661	7647323537	19876	1042.03	680.95	998.00	563.88	0.91	126.51	1.00	45.56	2844.39	-2765.50	1913.98
Saccade R	1	2	7647303661	7647323537	19876	1042.03	680.95	998.00	563.88	0.91	126.51	1.00	45.56	2844.39	-2765.50	1913.98
Fixation L	1	3	7647323537	7647900257	576720	970.48	580.47	32	56	-1	9.73	9.73
Fixation R	1	3	7647323537	7647900257	576720	970.48	580.47	32	56	-1	10.76	10.76
Saccade L	1	3	7647900257	7647940133	39876	968.96	588.97	821.27	467.99	1.85	101.50	0.50	46.31	2401.79	-2054.85	2124.15
Saccade R	1	3	7647900257	7647940133	39876	968.96	588.97	821.27	467.99	1.85	101.50	0.50	46.31	2401.79	-2054.85	2124.15
Fixation L	1	4	7647940133	7648656104	715971	812.00	496.24	15	56	-1	10.33	10.33
Fixation R	1	4	7647940133	7648656104	715971	812.00	496.24	15	56	-1	12.36	12.36
