[BeGaze]
Converted from:	C:\Documents and Settings\iViewX\Desktop\EXPERIMENTATIONS\Experiments\results\finaleart\S19F21442-finaleart-1.idf
Date:	27.03.2019 15:52:00
Version:	BeGaze 2.5.77
Sample Rate:	50
Subject:	S19F21442
Description:	Juliette Veuillez

Table Header for Fixations:
Event Type	Trial	Number	Start	End	Duration	Location X	Location Y	Dispersion X	Dispersion Y	Plane	Avg. Pupil Size X	Avg. Pupil Size Y

Table Header for Saccades:
Event Type	Trial	Number	Start	End	Duration	Start Loc.X	Start Loc.Y	End Loc.X	End Loc.Y	Amplitude	Peak Speed	Peak Speed At	Average Speed	Peak Accel.	Peak Decel.	Average Accel.

Table Header for Blinks:
Event Type	Trial	Number	Start	End	Duration

Table Header for User Events:
Event Type	Trial	Number	Start	Description

UserEvent	1	1	8335371142	# Message: void.jpg
Fixation L	1	1	8335376045	8335475418	99373	1715.11	638.17	10	14	-1	12.05	12.05
Fixation R	1	1	8335376045	8335475418	99373	1715.11	638.17	10	14	-1	13.21	13.21
Saccade L	1	1	8335475418	8335495326	19908	1713.37	628.57	1685.90	510.18	0.87	122.94	1.00	43.51	3049.62	-2399.64	2036.51
Saccade R	1	1	8335475418	8335495326	19908	1713.37	628.57	1685.90	510.18	0.87	122.94	1.00	43.51	3049.62	-2399.64	2036.51
Fixation L	1	2	8335495326	8335913015	417689	1620.34	506.24	76	19	-1	12.09	12.09
Fixation R	1	2	8335495326	8335913015	417689	1620.34	506.24	76	19	-1	13.08	13.08
Saccade L	1	2	8335913015	8336032382	119367	1612.79	498.32	550.31	503.53	15.46	315.94	0.33	129.52	7619.50	-3024.70	3368.98
Saccade R	1	2	8335913015	8336032382	119367	1612.79	498.32	550.31	503.53	15.46	315.94	0.33	129.52	7619.50	-3024.70	3368.98
Fixation L	1	3	8336032382	8336370491	338109	489.59	523.19	70	24	-1	10.01	10.01
Fixation R	1	3	8336032382	8336370491	338109	489.59	523.19	70	24	-1	11.71	11.71
Saccade L	1	3	8336370491	8336390392	19901	489.65	527.33	492.76	534.75	0.08	8.14	1.00	3.83	168.21	-145.19	138.24
Saccade R	1	3	8336370491	8336390392	19901	489.65	527.33	492.76	534.75	0.08	8.14	1.00	3.83	168.21	-145.19	138.24
Fixation L	1	4	8336390392	8337345082	954690	507.31	559.78	36	54	-1	11.08	11.08
Fixation R	1	4	8336390392	8337345082	954690	507.31	559.78	36	54	-1	13.16	13.16
Saccade L	1	4	8337345082	8337364975	19893	524.99	580.41	529.06	595.55	0.18	15.87	1.00	9.05	337.72	0.00	168.86
Saccade R	1	4	8337345082	8337364975	19893	524.99	580.41	529.06	595.55	0.18	15.87	1.00	9.05	337.72	0.00	168.86
