[BeGaze]
Converted from:	C:\Documents and Settings\iViewX\Desktop\EXPERIMENTATIONS\Experiments\results\finaleart\S19F21442-finaleart-1.idf
Date:	27.03.2019 15:50:25
Version:	BeGaze 2.5.77
Sample Rate:	50
Subject:	S19F21442
Description:	Juliette Veuillez

Table Header for Fixations:
Event Type	Trial	Number	Start	End	Duration	Location X	Location Y	Dispersion X	Dispersion Y	Plane	Avg. Pupil Size X	Avg. Pupil Size Y

Table Header for Saccades:
Event Type	Trial	Number	Start	End	Duration	Start Loc.X	Start Loc.Y	End Loc.X	End Loc.Y	Amplitude	Peak Speed	Peak Speed At	Average Speed	Peak Accel.	Peak Decel.	Average Accel.

Table Header for Blinks:
Event Type	Trial	Number	Start	End	Duration

Table Header for User Events:
Event Type	Trial	Number	Start	Description

UserEvent	1	1	6222260168	# Message: Nature-morte-Maurice-de-Vlaminck.jpg
Fixation L	1	1	6222265960	6222763311	497351	849.32	623.07	19	35	-1	13.07	13.07
Fixation R	1	1	6222265960	6222763311	497351	849.32	623.07	19	35	-1	15.11	15.11
Saccade L	1	1	6222763311	6222783206	19895	862.24	645.68	705.59	696.92	1.21	166.69	1.00	60.78	4076.38	-3677.63	2988.08
Saccade R	1	1	6222763311	6222783206	19895	862.24	645.68	705.59	696.92	1.21	166.69	1.00	60.78	4076.38	-3677.63	2988.08
Fixation L	1	2	6222783206	6223021797	238591	714.92	742.30	17	62	-1	13.17	13.17
Fixation R	1	2	6222783206	6223021797	238591	714.92	742.30	17	62	-1	15.59	15.59
Saccade L	1	2	6223021797	6223061671	39874	719.00	744.63	1112.37	731.09	3.45	200.96	1.00	86.63	4863.39	-4811.63	4721.11
Saccade R	1	2	6223021797	6223061671	39874	719.00	744.63	1112.37	731.09	3.45	200.96	1.00	86.63	4863.39	-4811.63	4721.11
Fixation L	1	3	6223061671	6223280398	218727	1120.79	708.62	17	35	-1	13.14	13.14
Fixation R	1	3	6223061671	6223280398	218727	1120.79	708.62	17	35	-1	14.54	14.54
Saccade L	1	3	6223280398	6223300289	19891	1129.62	697.76	1144.48	642.72	0.43	57.67	1.00	21.72	1266.34	-1292.72	962.18
Saccade R	1	3	6223280398	6223300289	19891	1129.62	697.76	1144.48	642.72	0.43	57.67	1.00	21.72	1266.34	-1292.72	962.18
Fixation L	1	4	6223300289	6223618532	318243	1164.21	632.10	57	42	-1	13.97	13.97
Fixation R	1	4	6223300289	6223618532	318243	1164.21	632.10	57	42	-1	15.43	15.43
Saccade L	1	4	6223618532	6223638396	19864	1201.81	633.70	1342.27	747.24	1.34	182.64	1.00	67.48	4474.59	-4250.65	3008.62
Saccade R	1	4	6223618532	6223638396	19864	1201.81	633.70	1342.27	747.24	1.34	182.64	1.00	67.48	4474.59	-4250.65	3008.62
Fixation L	1	5	6223638396	6223777640	139244	1366.25	783.00	33	57	-1	14.44	14.44
Fixation R	1	5	6223638396	6223777640	139244	1366.25	783.00	33	57	-1	13.07	13.07
Saccade L	1	5	6223777640	6223857260	79620	1375.93	746.72	740.71	807.99	9.58	274.58	0.75	120.29	4885.51	-6710.14	4094.19
Saccade R	1	5	6223777640	6223857260	79620	1375.93	746.72	740.71	807.99	9.58	274.58	0.75	120.29	4885.51	-6710.14	4094.19
Fixation L	1	6	6223857260	6224056129	198869	734.86	812.65	14	10	-1	13.79	13.79
Fixation R	1	6	6223857260	6224056129	198869	734.86	812.65	14	10	-1	16.17	16.17
Saccade L	1	6	6224056129	6224075994	19865	728.98	812.58	609.04	810.59	0.75	121.33	1.00	37.69	2857.16	-2937.36	2042.69
Saccade R	1	6	6224056129	6224075994	19865	728.98	812.58	609.04	810.59	0.75	121.33	1.00	37.69	2857.16	-2937.36	2042.69
Fixation L	1	7	6224075994	6224394233	318239	590.78	828.77	26	34	-1	12.80	12.80
Fixation R	1	7	6224075994	6224394233	318239	590.78	828.77	26	34	-1	15.42	15.42
Saccade L	1	7	6224394233	6224433985	39752	594.18	845.52	745.36	464.03	3.51	233.54	0.50	88.27	5763.52	-5527.22	5186.76
Saccade R	1	7	6224394233	6224433985	39752	594.18	845.52	745.36	464.03	3.51	233.54	0.50	88.27	5763.52	-5527.22	5186.76
Fixation L	1	8	6224433985	6224612978	178993	742.86	441.09	7	39	-1	12.55	12.55
Fixation R	1	8	6224433985	6224612978	178993	742.86	441.09	7	39	-1	14.79	14.79
Saccade L	1	8	6224612978	6224652853	39875	739.46	424.55	1016.27	308.41	2.55	221.97	1.00	63.93	5477.71	-5135.93	3591.00
Saccade R	1	8	6224612978	6224652853	39875	739.46	424.55	1016.27	308.41	2.55	221.97	1.00	63.93	5477.71	-5135.93	3591.00
Fixation L	1	9	6224652853	6224752227	99374	1026.94	296.67	17	22	-1	12.42	12.42
Fixation R	1	9	6224652853	6224752227	99374	1026.94	296.67	17	22	-1	14.67	14.67
Saccade L	1	9	6224752227	6224772093	19866	1028.59	286.22	1016.23	127.39	0.97	161.12	1.00	48.89	3894.35	-3521.88	2473.16
Saccade R	1	9	6224752227	6224772093	19866	1028.59	286.22	1016.23	127.39	0.97	161.12	1.00	48.89	3894.35	-3521.88	2473.16
Fixation L	1	10	6224772093	6225209702	437609	993.97	164.27	30	56	-1	12.70	12.70
Fixation R	1	10	6224772093	6225209702	437609	993.97	164.27	30	56	-1	14.48	14.48
Saccade L	1	10	6225209702	6225229575	19873	1010.41	184.34	1239.22	395.70	1.78	314.79	1.00	89.67	7840.41	-7692.18	5280.31
Saccade R	1	10	6225209702	6225229575	19873	1010.41	184.34	1239.22	395.70	1.78	314.79	1.00	89.67	7840.41	-7692.18	5280.31
Fixation L	1	11	6225229575	6225448443	218868	1217.94	390.07	30	21	-1	13.82	13.82
Fixation R	1	11	6225229575	6225448443	218868	1217.94	390.07	30	21	-1	15.29	15.29
Saccade L	1	11	6225448443	6225468316	19873	1210.64	395.05	1193.55	613.66	1.22	221.72	1.00	61.30	5442.26	-4505.47	3424.53
Saccade R	1	11	6225448443	6225468316	19873	1210.64	395.05	1193.55	613.66	1.22	221.72	1.00	61.30	5442.26	-4505.47	3424.53
Fixation L	1	12	6225468316	6225667181	198865	1177.29	648.89	34	55	-1	14.38	14.38
Fixation R	1	12	6225468316	6225667181	198865	1177.29	648.89	34	55	-1	15.11	15.11
Saccade L	1	12	6225667181	6225866168	198987	1176.55	659.85	1429.11	849.80	13.77	283.47	0.10	69.22	7003.99	-5776.52	2442.09
Saccade R	1	12	6225667181	6225866168	198987	1176.55	659.85	1429.11	849.80	13.77	283.47	0.10	69.22	7003.99	-5776.52	2442.09
Fixation L	1	13	6225866168	6226124660	258492	1438.37	841.33	42	47	-1	13.60	13.60
Fixation R	1	13	6225866168	6226124660	258492	1438.37	841.33	42	47	-1	10.08	10.08
Saccade L	1	13	6226124660	6226144537	19877	1419.89	859.81	1425.39	900.46	0.43	41.50	1.00	21.65	901.37	-999.20	732.51
Saccade R	1	13	6226124660	6226144537	19877	1419.89	859.81	1425.39	900.46	0.43	41.50	1.00	21.65	901.37	-999.20	732.51
Fixation L	1	14	6226144537	6226244028	99491	1422.58	929.19	6	43	-1	13.52	13.52
Fixation R	1	14	6226144537	6226244028	99491	1422.58	929.19	6	43	-1	11.28	11.28
