[BeGaze]
Converted from:	C:\Documents and Settings\iViewX\Desktop\EXPERIMENTATIONS\Experiments\results\finaleart\S19F21442-finaleart-1.idf
Date:	27.03.2019 15:50:16
Version:	BeGaze 2.5.77
Sample Rate:	50
Subject:	S19F21442
Description:	Juliette Veuillez

Table Header for Fixations:
Event Type	Trial	Number	Start	End	Duration	Location X	Location Y	Dispersion X	Dispersion Y	Plane	Avg. Pupil Size X	Avg. Pupil Size Y

Table Header for Saccades:
Event Type	Trial	Number	Start	End	Duration	Start Loc.X	Start Loc.Y	End Loc.X	End Loc.Y	Amplitude	Peak Speed	Peak Speed At	Average Speed	Peak Accel.	Peak Decel.	Average Accel.

Table Header for Blinks:
Event Type	Trial	Number	Start	End	Duration

Table Header for User Events:
Event Type	Trial	Number	Start	Description

UserEvent	1	1	5582142499	# Message: Courbet-Femme-nue-couchee-1862.jpg
Fixation L	1	1	5582146203	5582583765	437562	897.15	397.39	32	57	-1	13.57	13.57
Fixation R	1	1	5582146203	5582583765	437562	897.15	397.39	32	57	-1	15.11	15.11
Saccade L	1	1	5582583765	5582623515	39750	907.39	421.03	1262.00	629.60	3.62	270.26	0.50	91.06	6598.80	-6435.83	5108.07
Saccade R	1	1	5582583765	5582623515	39750	907.39	421.03	1262.00	629.60	3.62	270.26	0.50	91.06	6598.80	-6435.83	5108.07
Fixation L	1	2	5582623515	5582802508	178993	1252.62	634.61	13	16	-1	14.20	14.20
Fixation R	1	2	5582623515	5582802508	178993	1252.62	634.61	13	16	-1	15.80	15.80
Saccade L	1	2	5582802508	5582822398	19890	1248.79	629.95	1275.54	514.98	0.73	119.39	1.00	36.77	2787.25	-2189.19	1722.72
Saccade R	1	2	5582802508	5582822398	19890	1248.79	629.95	1275.54	514.98	0.73	119.39	1.00	36.77	2787.25	-2189.19	1722.72
Fixation L	1	3	5582822398	5583180497	358099	1299.48	534.23	34	35	-1	14.44	14.44
Fixation R	1	3	5582822398	5583180497	358099	1299.48	534.23	34	35	-1	15.90	15.90
Saccade L	1	3	5583180497	5583240131	59634	1295.66	549.30	767.44	910.61	6.62	237.36	0.33	110.95	5847.74	-5723.22	4626.21
Saccade R	1	3	5583180497	5583240131	59634	1295.66	549.30	767.44	910.61	6.62	237.36	0.33	110.95	5847.74	-5723.22	4626.21
Fixation L	1	4	5583240131	5583438977	198846	761.20	898.41	37	43	-1	14.24	14.24
Fixation R	1	4	5583240131	5583438977	198846	761.20	898.41	37	43	-1	16.52	16.52
Saccade L	1	4	5583438977	5583478857	39880	729.77	904.76	384.63	960.18	3.72	312.58	0.50	93.37	7468.55	-7429.92	4246.62
Saccade R	1	4	5583438977	5583478857	39880	729.77	904.76	384.63	960.18	3.72	312.58	0.50	93.37	7468.55	-7429.92	4246.62
Fixation L	1	5	5583478857	5583697597	218740	382.19	955.58	17	44	-1	13.70	13.70
Fixation R	1	5	5583478857	5583697597	218740	382.19	955.58	17	44	-1	16.60	16.60
Saccade L	1	5	5583697597	5583717475	19878	381.75	955.98	369.65	1036.69	0.95	82.56	1.00	47.89	1680.97	-1270.26	1410.38
Saccade R	1	5	5583697597	5583717475	19878	381.75	955.98	369.65	1036.69	0.95	82.56	1.00	47.89	1680.97	-1270.26	1410.38
Fixation L	1	6	5583717475	5583936353	218878	364.99	984.53	14	76	-1	13.35	13.35
Fixation R	1	6	5583717475	5583936353	218878	364.99	984.53	14	76	-1	16.82	16.82
Saccade L	1	6	5583936353	5584075450	139097	361.94	990.29	441.60	904.43	5.26	105.60	0.14	37.80	2470.04	-1811.19	1211.54
Saccade R	1	6	5583936353	5584075450	139097	361.94	990.29	441.60	904.43	5.26	105.60	0.14	37.80	2470.04	-1811.19	1211.54
Fixation L	1	7	5584075450	5584234574	159124	454.87	930.26	24	39	-1	14.20	14.20
Fixation R	1	7	5584075450	5584234574	159124	454.87	930.26	24	39	-1	17.47	17.47
Saccade L	1	7	5584234574	5584274447	39873	462.61	929.53	575.39	515.42	3.63	295.57	0.50	90.94	7191.46	-7265.74	5275.08
Saccade R	1	7	5584234574	5584274447	39873	462.61	929.53	575.39	515.42	3.63	295.57	0.50	90.94	7191.46	-7265.74	5275.08
Fixation L	1	8	5584274447	5584473330	198883	574.99	501.21	7	23	-1	14.93	14.93
Fixation R	1	8	5584274447	5584473330	198883	574.99	501.21	7	23	-1	17.54	17.54
Saccade L	1	8	5584473330	5584493190	19860	578.74	493.69	568.44	267.45	1.58	228.98	1.00	79.53	5575.18	-4777.60	4082.50
Saccade R	1	8	5584473330	5584493190	19860	578.74	493.69	568.44	267.45	1.58	228.98	1.00	79.53	5575.18	-4777.60	4082.50
Fixation L	1	9	5584493190	5584712053	218863	512.43	266.09	77	18	-1	14.94	14.94
Fixation R	1	9	5584493190	5584712053	218863	512.43	266.09	77	18	-1	17.27	17.27
Saccade L	1	9	5584712053	5584791552	79499	507.15	269.33	1399.54	558.67	11.04	343.90	0.75	138.85	8355.18	-8302.54	5588.68
Saccade R	1	9	5584712053	5584791552	79499	507.15	269.33	1399.54	558.67	11.04	343.90	0.75	138.85	8355.18	-8302.54	5588.68
Fixation L	1	10	5584791552	5584970540	178988	1398.82	587.32	8	43	-1	16.30	16.30
Fixation R	1	10	5584791552	5584970540	178988	1398.82	587.32	8	43	-1	17.63	17.63
Saccade L	1	10	5584970540	5584990413	19873	1394.53	599.70	1319.97	583.23	0.56	77.24	1.00	27.95	1818.34	-1511.54	1300.37
Saccade R	1	10	5584970540	5584990413	19873	1394.53	599.70	1319.97	583.23	0.56	77.24	1.00	27.95	1818.34	-1511.54	1300.37
Fixation L	1	11	5584990413	5585447896	457483	1329.93	537.75	25	69	-1	16.36	16.36
Fixation R	1	11	5584990413	5585447896	457483	1329.93	537.75	25	69	-1	17.52	17.52
Saccade L	1	11	5585447896	5585467767	19871	1332.84	524.78	1411.13	592.93	0.83	104.99	1.00	41.91	2523.56	-2055.58	1902.13
Saccade R	1	11	5585447896	5585467767	19871	1332.84	524.78	1411.13	592.93	0.83	104.99	1.00	41.91	2523.56	-2055.58	1902.13
Fixation L	1	12	5585467767	5585746247	278480	1385.01	612.33	47	25	-1	16.14	16.14
Fixation R	1	12	5585467767	5585746247	278480	1385.01	612.33	47	25	-1	17.03	17.03
Saccade L	1	12	5585746247	5585766133	19886	1395.40	611.33	1384.71	456.63	0.83	156.83	1.00	41.57	3912.19	-3755.04	2586.90
Saccade R	1	12	5585746247	5585766133	19886	1395.40	611.33	1384.71	456.63	0.83	156.83	1.00	41.57	3912.19	-3755.04	2586.90
Fixation L	1	13	5585766133	5585984999	218866	1367.18	467.20	31	21	-1	15.76	15.76
Fixation R	1	13	5585766133	5585984999	218866	1367.18	467.20	31	21	-1	16.75	16.75
Saccade L	1	13	5585984999	5586024744	39745	1358.01	466.72	1218.53	641.24	2.02	173.23	1.00	50.93	4172.84	-4234.88	2680.99
Saccade R	1	13	5585984999	5586024744	39745	1358.01	466.72	1218.53	641.24	2.02	173.23	1.00	50.93	4172.84	-4234.88	2680.99
Fixation L	1	14	5586024744	5586144110	119366	1232.27	640.94	17	14	-1	15.87	15.87
Fixation R	1	14	5586024744	5586144110	119366	1232.27	640.94	17	14	-1	17.08	17.08
