[BeGaze]
Converted from:	C:\Documents and Settings\iViewX\Desktop\EXPERIMENTATIONS\Experiments\results\finaleart\S19F21442-finaleart-1.idf
Date:	27.03.2019 15:51:23
Version:	BeGaze 2.5.77
Sample Rate:	50
Subject:	S19F21442
Description:	Juliette Veuillez

Table Header for Fixations:
Event Type	Trial	Number	Start	End	Duration	Location X	Location Y	Dispersion X	Dispersion Y	Plane	Avg. Pupil Size X	Avg. Pupil Size Y

Table Header for Saccades:
Event Type	Trial	Number	Start	End	Duration	Start Loc.X	Start Loc.Y	End Loc.X	End Loc.Y	Amplitude	Peak Speed	Peak Speed At	Average Speed	Peak Accel.	Peak Decel.	Average Accel.

Table Header for Blinks:
Event Type	Trial	Number	Start	End	Duration

Table Header for User Events:
Event Type	Trial	Number	Start	Description

UserEvent	1	1	7250796258	# Message: void.jpg
Fixation L	1	1	7250807715	7251742545	934830	486.51	545.11	29	42	-1	10.14	10.14
Fixation R	1	1	7250807715	7251742545	934830	486.51	545.11	29	42	-1	11.73	11.73
Saccade L	1	1	7251742545	7251881773	139228	502.35	568.46	1301.38	1171.63	16.05	336.07	0.43	115.27	7807.76	-6410.48	3437.92
Saccade R	1	1	7251742545	7251881773	139228	502.35	568.46	1301.38	1171.63	16.05	336.07	0.43	115.27	7807.76	-6410.48	3437.92
Fixation L	1	2	7251881773	7252160260	278487	1278.24	1172.84	55	9	-1	11.42	11.42
Fixation R	1	2	7251881773	7252160260	278487	1278.24	1172.84	55	9	-1	12.04	12.04
Saccade L	1	2	7252160260	7252219889	59629	1289.70	1176.51	1174.74	634.09	5.77	248.68	0.33	96.75	6137.25	-4000.34	4034.74
Saccade R	1	2	7252160260	7252219889	59629	1289.70	1176.51	1174.74	634.09	5.77	248.68	0.33	96.75	6137.25	-4000.34	4034.74
Fixation L	1	3	7252219889	7252379002	159113	1170.13	644.11	15	18	-1	11.20	11.20
Fixation R	1	3	7252219889	7252379002	159113	1170.13	644.11	15	18	-1	11.63	11.63
Saccade L	1	3	7252379002	7252418756	39754	1168.56	652.92	937.79	615.28	2.16	130.55	1.00	54.37	3163.40	-3052.26	2689.70
Saccade R	1	3	7252379002	7252418756	39754	1168.56	652.92	937.79	615.28	2.16	130.55	1.00	54.37	3163.40	-3052.26	2689.70
Fixation L	1	4	7252418756	7252776868	358112	923.16	578.74	26	62	-1	11.44	11.44
Fixation R	1	4	7252418756	7252776868	358112	923.16	578.74	26	62	-1	12.47	12.47
