[BeGaze]
Converted from:	C:\Documents and Settings\iViewX\Desktop\EXPERIMENTATIONS\Experiments\results\finaleart\S19F21442-finaleart-1.idf
Date:	27.03.2019 15:50:03
Version:	BeGaze 2.5.77
Sample Rate:	50
Subject:	S19F21442
Description:	Juliette Veuillez

Table Header for Fixations:
Event Type	Trial	Number	Start	End	Duration	Location X	Location Y	Dispersion X	Dispersion Y	Plane	Avg. Pupil Size X	Avg. Pupil Size Y

Table Header for Saccades:
Event Type	Trial	Number	Start	End	Duration	Start Loc.X	Start Loc.Y	End Loc.X	End Loc.Y	Amplitude	Peak Speed	Peak Speed At	Average Speed	Peak Accel.	Peak Decel.	Average Accel.

Table Header for Blinks:
Event Type	Trial	Number	Start	End	Duration

Table Header for User Events:
Event Type	Trial	Number	Start	Description

UserEvent	1	1	5490408288	# Message: morning_in_a_pine_forest_Ivan_Shishkin_1889.jpg
Fixation L	1	1	5490417050	5490715401	298351	707.62	438.24	9	24	-1	16.90	16.90
Fixation R	1	1	5490417050	5490715401	298351	707.62	438.24	9	24	-1	18.83	18.83
Blink L	1	1	5490715401	5490814912	99511
Blink R	1	1	5490715401	5490814912	99511
Fixation L	1	2	5490814912	5491013782	198870	947.83	401.10	45	49	-1	17.19	17.19
Fixation R	1	2	5490814912	5491013782	198870	947.83	401.10	45	49	-1	19.11	19.11
Saccade L	1	1	5491013782	5491053513	39731	960.35	415.71	1267.52	728.56	3.92	268.74	0.50	98.70	6412.08	-6127.41	5216.01
Saccade R	1	1	5491013782	5491053513	39731	960.35	415.71	1267.52	728.56	3.92	268.74	0.50	98.70	6412.08	-6127.41	5216.01
Fixation L	1	3	5491053513	5491709994	656481	1225.35	721.87	67	30	-1	15.21	15.21
Fixation R	1	3	5491053513	5491709994	656481	1225.35	721.87	67	30	-1	16.52	16.52
Saccade L	1	2	5491709994	5491749737	39743	1204.16	728.65	874.02	765.22	2.85	176.99	0.50	71.75	4388.87	-3982.45	4011.88
Saccade R	1	2	5491709994	5491749737	39743	1204.16	728.65	874.02	765.22	2.85	176.99	0.50	71.75	4388.87	-3982.45	4011.88
Fixation L	1	4	5491749737	5491928730	178993	862.96	770.46	14	24	-1	14.96	14.96
Fixation R	1	4	5491749737	5491928730	178993	862.96	770.46	14	24	-1	16.96	16.96
Saccade L	1	3	5491928730	5491968472	39742	860.58	777.00	695.89	546.29	2.80	194.22	0.50	70.46	4706.38	-3489.05	3184.62
Saccade R	1	3	5491928730	5491968472	39742	860.58	777.00	695.89	546.29	2.80	194.22	0.50	70.46	4706.38	-3489.05	3184.62
Fixation L	1	5	5491968472	5492167470	198998	696.35	591.30	15	57	-1	15.22	15.22
Fixation R	1	5	5491968472	5492167470	198998	696.35	591.30	15	57	-1	17.15	17.15
Saccade L	1	4	5492167470	5492207219	39749	694.37	595.73	523.93	311.96	2.90	263.87	1.00	72.96	6473.06	-6186.17	3982.84
Saccade R	1	4	5492167470	5492207219	39749	694.37	595.73	523.93	311.96	2.90	263.87	1.00	72.96	6473.06	-6186.17	3982.84
Fixation L	1	6	5492207219	5492624825	417606	510.54	317.72	19	19	-1	15.24	15.24
Fixation R	1	6	5492207219	5492624825	417606	510.54	317.72	19	19	-1	17.42	17.42
Saccade L	1	5	5492624825	5492664692	39867	508.07	316.90	837.77	490.38	3.25	224.67	0.50	81.62	5506.22	-4952.87	4497.10
Saccade R	1	5	5492624825	5492664692	39867	508.07	316.90	837.77	490.38	3.25	224.67	0.50	81.62	5506.22	-4952.87	4497.10
Fixation L	1	7	5492664692	5492903310	238618	843.12	456.35	11	57	-1	16.06	16.06
Fixation R	1	7	5492664692	5492903310	238618	843.12	456.35	11	57	-1	18.49	18.49
Saccade L	1	6	5492903310	5492923187	19877	848.99	432.64	939.17	224.23	1.54	229.60	1.00	77.36	5707.49	-5244.36	3916.83
Saccade R	1	6	5492903310	5492923187	19877	848.99	432.64	939.17	224.23	1.54	229.60	1.00	77.36	5707.49	-5244.36	3916.83
Fixation L	1	8	5492923187	5493122178	198991	961.71	172.66	29	68	-1	15.79	15.79
Fixation R	1	8	5492923187	5493122178	198991	961.71	172.66	29	68	-1	17.46	17.46
Saccade L	1	7	5493122178	5493241418	119240	969.07	180.83	1143.91	230.49	3.20	161.77	1.00	26.80	3771.31	-3404.84	1034.67
Saccade R	1	7	5493122178	5493241418	119240	969.07	180.83	1143.91	230.49	3.20	161.77	1.00	26.80	3771.31	-3404.84	1034.67
Fixation L	1	9	5493241418	5493738768	497350	1163.58	264.58	26	71	-1	15.57	15.57
Fixation R	1	9	5493241418	5493738768	497350	1163.58	264.58	26	71	-1	16.78	16.78
Saccade L	1	8	5493738768	5493758649	19881	1162.61	256.58	1063.43	123.89	1.04	167.54	1.00	52.34	4049.63	-3925.01	2711.50
Saccade R	1	8	5493738768	5493758649	19881	1162.61	256.58	1063.43	123.89	1.04	167.54	1.00	52.34	4049.63	-3925.01	2711.50
Fixation L	1	10	5493758649	5494096752	338103	1049.62	139.38	21	31	-1	14.28	14.28
Fixation R	1	10	5493758649	5494096752	338103	1049.62	139.38	21	31	-1	15.23	15.23
Saccade L	1	9	5494096752	5494136528	39776	1056.47	129.15	1198.35	347.57	2.44	162.61	0.50	61.23	3693.29	-3481.09	3020.78
Saccade R	1	9	5494096752	5494136528	39776	1056.47	129.15	1198.35	347.57	2.44	162.61	0.50	61.23	3693.29	-3481.09	3020.78
Fixation L	1	11	5494136528	5494395121	258593	1212.43	346.00	22	11	-1	14.40	14.40
Fixation R	1	11	5494136528	5494395121	258593	1212.43	346.00	22	11	-1	15.26	15.26
