[BeGaze]
Converted from:	C:\Documents and Settings\iViewX\Desktop\EXPERIMENTATIONS\Experiments\results\finaleart\S19F21442-finaleart-1.idf
Date:	27.03.2019 15:51:47
Version:	BeGaze 2.5.77
Sample Rate:	50
Subject:	S19F21442
Description:	Juliette Veuillez

Table Header for Fixations:
Event Type	Trial	Number	Start	End	Duration	Location X	Location Y	Dispersion X	Dispersion Y	Plane	Avg. Pupil Size X	Avg. Pupil Size Y

Table Header for Saccades:
Event Type	Trial	Number	Start	End	Duration	Start Loc.X	Start Loc.Y	End Loc.X	End Loc.Y	Amplitude	Peak Speed	Peak Speed At	Average Speed	Peak Accel.	Peak Decel.	Average Accel.

Table Header for Blinks:
Event Type	Trial	Number	Start	End	Duration

Table Header for User Events:
Event Type	Trial	Number	Start	Description

UserEvent	1	1	8233665309	# Message: still-life-fruits-on-a-table_manet_1864.jpg
Fixation L	1	1	8233677858	8234135341	457483	767.24	586.44	25	20	-1	12.36	12.36
Fixation R	1	1	8233677858	8234135341	457483	767.24	586.44	25	20	-1	15.24	15.24
Saccade L	1	1	8234135341	8234155204	19863	775.56	594.84	615.39	438.52	1.24	226.29	1.00	62.26	5496.96	-4952.64	3517.57
Saccade R	1	1	8234135341	8234155204	19863	775.56	594.84	615.39	438.52	1.24	226.29	1.00	62.26	5496.96	-4952.64	3517.57
Fixation L	1	2	8234155204	8234493316	338112	612.33	414.49	31	64	-1	10.13	10.13
Fixation R	1	2	8234155204	8234493316	338112	612.33	414.49	31	64	-1	13.08	13.08
Saccade L	1	2	8234493316	8234513201	19885	638.50	374.49	636.11	342.93	0.67	60.39	0.00	33.66	594.57	-659.59	581.93
Saccade R	1	2	8234493316	8234513201	19885	638.50	374.49	636.11	342.93	0.67	60.39	0.00	33.66	594.57	-659.59	581.93
Fixation L	1	3	8234513201	8234950796	437595	646.00	297.22	20	73	-1	9.13	9.13
Fixation R	1	3	8234513201	8234950796	437595	646.00	297.22	20	73	-1	11.63	11.63
Saccade L	1	3	8234950796	8235010540	59744	645.23	306.44	1369.45	316.27	7.80	330.43	0.67	130.51	8253.37	-7072.75	5705.29
Saccade R	1	3	8234950796	8235010540	59744	645.23	306.44	1369.45	316.27	7.80	330.43	0.67	130.51	8253.37	-7072.75	5705.29
Fixation L	1	4	8235010540	8235209409	198869	1424.03	333.75	67	31	-1	10.16	10.16
Fixation R	1	4	8235010540	8235209409	198869	1424.03	333.75	67	31	-1	12.09	12.09
Saccade L	1	4	8235209409	8235229283	19874	1431.38	347.55	1428.78	349.15	0.05	3.09	1.00	2.70	20.47	-54.23	27.39
Saccade R	1	4	8235209409	8235229283	19874	1431.38	347.55	1428.78	349.15	0.05	3.09	1.00	2.70	20.47	-54.23	27.39
Fixation L	1	5	8235229283	8235766256	536973	1434.20	348.39	19	13	-1	9.97	9.97
Fixation R	1	5	8235229283	8235766256	536973	1434.20	348.39	19	13	-1	11.64	11.64
Saccade L	1	5	8235766256	8235826005	59749	1423.49	347.83	1310.43	865.01	5.58	305.98	0.67	93.33	7594.88	-7326.52	4309.04
Saccade R	1	5	8235766256	8235826005	59749	1423.49	347.83	1310.43	865.01	5.58	305.98	0.67	93.33	7594.88	-7326.52	4309.04
Fixation L	1	6	8235826005	8236422728	596723	1295.75	898.39	41	57	-1	9.96	9.96
Fixation R	1	6	8235826005	8236422728	596723	1295.75	898.39	41	57	-1	11.03	11.03
Saccade L	1	6	8236422728	8236541976	119248	1281.56	918.28	1354.53	847.86	2.53	72.27	1.00	21.19	1620.85	-1228.78	573.19
Saccade R	1	6	8236422728	8236541976	119248	1281.56	918.28	1354.53	847.86	2.53	72.27	1.00	21.19	1620.85	-1228.78	573.19
Fixation L	1	7	8236541976	8236780716	238740	1380.74	839.28	35	28	-1	9.25	9.25
Fixation R	1	7	8236541976	8236780716	238740	1380.74	839.28	35	28	-1	10.16	10.16
Saccade L	1	7	8236780716	8236840336	59620	1387.00	830.24	1007.41	690.94	4.19	250.57	0.67	70.24	6226.85	-6054.97	3238.27
Saccade R	1	7	8236780716	8236840336	59620	1387.00	830.24	1007.41	690.94	4.19	250.57	0.67	70.24	6226.85	-6054.97	3238.27
Fixation L	1	8	8236840336	8237039340	199004	999.70	669.07	11	42	-1	8.73	8.73
Fixation R	1	8	8236840336	8237039340	199004	999.70	669.07	11	42	-1	10.49	10.49
Saccade L	1	8	8237039340	8237079072	39732	996.16	669.48	687.39	686.35	3.22	201.43	1.00	81.03	4704.80	-4853.38	3297.91
Saccade R	1	8	8237039340	8237079072	39732	996.16	669.48	687.39	686.35	3.22	201.43	1.00	81.03	4704.80	-4853.38	3297.91
Fixation L	1	9	8237079072	8237317711	238639	622.69	685.25	74	17	-1	9.25	9.25
Fixation R	1	9	8237079072	8237317711	238639	622.69	685.25	74	17	-1	11.28	11.28
Saccade L	1	9	8237317711	8237357573	39862	619.28	682.38	264.75	780.94	3.51	215.47	1.00	88.00	5233.59	-5290.07	4203.79
Saccade R	1	9	8237317711	8237357573	39862	619.28	682.38	264.75	780.94	3.51	215.47	1.00	88.00	5233.59	-5290.07	4203.79
Fixation L	1	10	8237357573	8237655931	298358	222.17	788.16	61	28	-1	8.92	8.92
Fixation R	1	10	8237357573	8237655931	298358	222.17	788.16	61	28	-1	11.95	11.95
