[BeGaze]
Converted from:	C:\Documents and Settings\iViewX\Desktop\EXPERIMENTATIONS\Experiments\results\finaleart\S19F21442-finaleart-1.idf
Date:	27.03.2019 15:51:14
Version:	BeGaze 2.5.77
Sample Rate:	50
Subject:	S19F21442
Description:	Juliette Veuillez

Table Header for Fixations:
Event Type	Trial	Number	Start	End	Duration	Location X	Location Y	Dispersion X	Dispersion Y	Plane	Avg. Pupil Size X	Avg. Pupil Size Y

Table Header for Saccades:
Event Type	Trial	Number	Start	End	Duration	Start Loc.X	Start Loc.Y	End Loc.X	End Loc.Y	Amplitude	Peak Speed	Peak Speed At	Average Speed	Peak Accel.	Peak Decel.	Average Accel.

Table Header for Blinks:
Event Type	Trial	Number	Start	End	Duration

Table Header for User Events:
Event Type	Trial	Number	Start	Description

UserEvent	1	1	7179486053	# Message: Les_Bords_De_Seine_A_Neuilly_Dubois_Pillet_1886.jpg
Saccade L	1	1	7179501688	7179581186	79498	755.63	692.01	832.70	572.39	2.45	97.63	1.00	30.77	2359.59	-2146.31	1040.08
Saccade R	1	1	7179501688	7179581186	79498	755.63	692.01	832.70	572.39	2.45	97.63	1.00	30.77	2359.59	-2146.31	1040.08
Fixation L	1	1	7179581186	7179800052	218866	857.06	596.09	30	32	-1	11.97	11.97
Fixation R	1	1	7179581186	7179800052	218866	857.06	596.09	30	32	-1	13.37	13.37
Saccade L	1	2	7179800052	7179859693	59641	862.22	592.26	1261.04	600.32	4.17	246.86	0.67	69.98	6090.12	-5899.22	3159.35
Saccade R	1	2	7179800052	7179859693	59641	862.22	592.26	1261.04	600.32	4.17	246.86	0.67	69.98	6090.12	-5899.22	3159.35
Fixation L	1	2	7179859693	7180018787	159094	1261.47	603.33	20	13	-1	10.97	10.97
Fixation R	1	2	7179859693	7180018787	159094	1261.47	603.33	20	13	-1	11.79	11.79
Saccade L	1	3	7180018787	7180058538	39751	1261.44	598.57	1309.76	373.91	2.15	143.87	0.50	54.10	3520.27	-2980.27	2637.85
Saccade R	1	3	7180018787	7180058538	39751	1261.44	598.57	1309.76	373.91	2.15	143.87	0.50	54.10	3520.27	-2980.27	2637.85
Fixation L	1	3	7180058538	7180277401	218863	1330.54	378.73	30	12	-1	8.81	8.81
Fixation R	1	3	7180058538	7180277401	218863	1330.54	378.73	30	12	-1	9.30	9.30
Saccade L	1	4	7180277401	7180317139	39738	1333.52	378.42	1496.01	182.08	2.36	138.89	1.00	59.50	3386.60	-3290.90	3291.69
Saccade R	1	4	7180277401	7180317139	39738	1333.52	378.42	1496.01	182.08	2.36	138.89	1.00	59.50	3386.60	-3290.90	3291.69
Fixation L	1	4	7180317139	7180575762	258623	1495.46	196.20	9	19	-1	8.58	8.58
Fixation R	1	4	7180317139	7180575762	258623	1495.46	196.20	9	19	-1	8.77	8.77
Saccade L	1	5	7180575762	7180595636	19874	1499.74	195.82	1385.22	224.56	0.77	119.43	1.00	38.50	2890.38	-2607.75	2027.84
Saccade R	1	5	7180575762	7180595636	19874	1499.74	195.82	1385.22	224.56	0.77	119.43	1.00	38.50	2890.38	-2607.75	2027.84
Fixation L	1	5	7180595636	7180953613	357977	1354.20	255.93	45	50	-1	9.53	9.53
Fixation R	1	5	7180595636	7180953613	357977	1354.20	255.93	45	50	-1	9.56	9.56
Saccade L	1	6	7180953613	7181033251	79638	1341.22	274.97	1337.58	676.76	4.93	192.03	0.75	61.95	4664.52	-4285.59	2615.44
Saccade R	1	6	7180953613	7181033251	79638	1341.22	274.97	1337.58	676.76	4.93	192.03	0.75	61.95	4664.52	-4285.59	2615.44
Fixation L	1	6	7181033251	7181252000	218749	1334.55	707.93	19	44	-1	10.50	10.50
Fixation R	1	6	7181033251	7181252000	218749	1334.55	707.93	19	44	-1	10.42	10.42
Saccade L	1	7	7181252000	7181311608	59608	1329.51	718.36	1361.12	275.38	4.64	261.35	0.67	77.81	6512.36	-6210.96	3402.99
Saccade R	1	7	7181252000	7181311608	59608	1329.51	718.36	1361.12	275.38	4.64	261.35	0.67	77.81	6512.36	-6210.96	3402.99
Fixation L	1	7	7181311608	7181411100	99492	1364.89	290.86	15	29	-1	10.09	10.09
Fixation R	1	7	7181311608	7181411100	99492	1364.89	290.86	15	29	-1	10.27	10.27
Blink L	1	1	7181411100	7181629967	218867
Blink R	1	1	7181411100	7181629967	218867
Fixation L	1	8	7181629967	7181888457	258490	616.02	987.37	9	15	-1	10.22	10.22
Fixation R	1	8	7181629967	7181888457	258490	616.02	987.37	9	15	-1	10.43	10.43
Saccade L	1	8	7181888457	7181908321	19864	620.02	986.43	602.54	853.25	0.76	135.86	1.00	38.46	3276.18	-3300.70	2208.21
Saccade R	1	8	7181888457	7181908321	19864	620.02	986.43	602.54	853.25	0.76	135.86	1.00	38.46	3276.18	-3300.70	2208.21
Fixation L	1	9	7181908321	7182166954	258633	586.72	849.59	36	8	-1	9.17	9.17
Fixation R	1	9	7181908321	7182166954	258633	586.72	849.59	36	8	-1	9.39	9.39
Saccade L	1	9	7182166954	7182206686	39732	571.52	849.19	304.05	860.64	2.45	150.24	0.50	61.72	3682.30	-2954.24	3035.20
Saccade R	1	9	7182166954	7182206686	39732	571.52	849.19	304.05	860.64	2.45	150.24	0.50	61.72	3682.30	-2954.24	3035.20
Fixation L	1	10	7182206686	7182743790	537104	329.63	906.80	30	64	-1	8.70	8.70
Fixation R	1	10	7182206686	7182743790	537104	329.63	906.80	30	64	-1	9.32	9.32
Saccade L	1	10	7182743790	7182843160	99370	334.94	923.49	566.55	598.99	6.01	245.95	0.80	60.46	6122.65	-5415.46	2553.44
Saccade R	1	10	7182743790	7182843160	99370	334.94	923.49	566.55	598.99	6.01	245.95	0.80	60.46	6122.65	-5415.46	2553.44
Fixation L	1	11	7182843160	7183022155	178995	587.40	600.70	27	27	-1	9.26	9.26
Fixation R	1	11	7182843160	7183022155	178995	587.40	600.70	27	27	-1	10.05	10.05
Saccade L	1	11	7183022155	7183081905	59750	590.64	607.92	1005.97	683.61	4.88	285.73	0.67	81.61	7021.99	-5815.48	3321.08
Saccade R	1	11	7183022155	7183081905	59750	590.64	607.92	1005.97	683.61	4.88	285.73	0.67	81.61	7021.99	-5815.48	3321.08
Fixation L	1	12	7183081905	7183320514	238609	1040.64	695.34	57	23	-1	9.84	9.84
Fixation R	1	12	7183081905	7183320514	238609	1040.64	695.34	57	23	-1	9.17	9.17
Saccade L	1	12	7183320514	7183360389	39875	1058.60	685.16	1373.43	808.29	3.23	243.53	0.50	80.91	5930.88	-5468.29	3760.68
Saccade R	1	12	7183320514	7183360389	39875	1058.60	685.16	1373.43	808.29	3.23	243.53	0.50	80.91	5930.88	-5468.29	3760.68
Fixation L	1	13	7183360389	7183479640	119251	1378.84	807.76	11	35	-1	9.39	9.39
Fixation R	1	13	7183360389	7183479640	119251	1378.84	807.76	11	35	-1	8.67	8.67
