[BeGaze]
Converted from:	C:\Documents and Settings\iViewX\Desktop\EXPERIMENTATIONS\Experiments\results\finaleart\S19F21442-finaleart-1.idf
Date:	27.03.2019 15:50:37
Version:	BeGaze 2.5.77
Sample Rate:	50
Subject:	S19F21442
Description:	Juliette Veuillez

Table Header for Fixations:
Event Type	Trial	Number	Start	End	Duration	Location X	Location Y	Dispersion X	Dispersion Y	Plane	Avg. Pupil Size X	Avg. Pupil Size Y

Table Header for Saccades:
Event Type	Trial	Number	Start	End	Duration	Start Loc.X	Start Loc.Y	End Loc.X	End Loc.Y	Amplitude	Peak Speed	Peak Speed At	Average Speed	Peak Accel.	Peak Decel.	Average Accel.

Table Header for Blinks:
Event Type	Trial	Number	Start	End	Duration

Table Header for User Events:
Event Type	Trial	Number	Start	Description

UserEvent	1	1	6311802843	# Message: void.jpg
Fixation L	1	1	6311811297	6312089795	278498	1051.19	329.69	64	34	-1	12.66	12.66
Fixation R	1	1	6311811297	6312089795	278498	1051.19	329.69	64	34	-1	14.97	14.97
Saccade L	1	1	6312089795	6312109652	19857	1062.40	351.54	1063.08	358.98	0.10	7.75	1.00	5.18	142.23	0.54	82.57
Saccade R	1	1	6312089795	6312109652	19857	1062.40	351.54	1063.08	358.98	0.10	7.75	1.00	5.18	142.23	0.54	82.57
Fixation L	1	2	6312109652	6312368265	258613	1061.57	363.89	6	21	-1	13.07	13.07
Fixation R	1	2	6312109652	6312368265	258613	1061.57	363.89	6	21	-1	15.18	15.18
Saccade L	1	2	6312368265	6312408066	39801	1059.74	368.26	787.86	593.48	3.18	190.67	0.50	79.88	4577.38	-4039.10	4110.50
Saccade R	1	2	6312368265	6312408066	39801	1059.74	368.26	787.86	593.48	3.18	190.67	0.50	79.88	4577.38	-4039.10	4110.50
Fixation L	1	3	6312408066	6313322976	914910	738.41	624.76	57	41	-1	13.39	13.39
Fixation R	1	3	6312408066	6313322976	914910	738.41	624.76	57	41	-1	16.38	16.38
Saccade L	1	3	6313322976	6313342851	19875	733.35	632.74	732.30	637.48	0.05	4.91	1.00	2.76	183.73	-12.15	74.83
Saccade R	1	3	6313322976	6313342851	19875	733.35	632.74	732.30	637.48	0.05	4.91	1.00	2.76	183.73	-12.15	74.83
Fixation L	1	4	6313342851	6313800335	457484	730.75	614.65	6	60	-1	13.10	13.10
Fixation R	1	4	6313342851	6313800335	457484	730.75	614.65	6	60	-1	15.86	15.86
