[BeGaze]
Converted from:	C:\Documents and Settings\iViewX\Desktop\EXPERIMENTATIONS\Experiments\results\finaleart\S19F21442-finaleart-1.idf
Date:	27.03.2019 15:50:28
Version:	BeGaze 2.5.77
Sample Rate:	50
Subject:	S19F21442
Description:	Juliette Veuillez

Table Header for Fixations:
Event Type	Trial	Number	Start	End	Duration	Location X	Location Y	Dispersion X	Dispersion Y	Plane	Avg. Pupil Size X	Avg. Pupil Size Y

Table Header for Saccades:
Event Type	Trial	Number	Start	End	Duration	Start Loc.X	Start Loc.Y	End Loc.X	End Loc.Y	Amplitude	Peak Speed	Peak Speed At	Average Speed	Peak Accel.	Peak Decel.	Average Accel.

Table Header for Blinks:
Event Type	Trial	Number	Start	End	Duration

Table Header for User Events:
Event Type	Trial	Number	Start	Description

UserEvent	1	1	6246681556	# Message: the-reclining-shepherdess_morisot_1891.jpg
Fixation L	1	1	6246691161	6247108770	417609	718.69	457.47	7	13	-1	13.44	13.44
Fixation R	1	1	6246691161	6247108770	417609	718.69	457.47	7	13	-1	16.20	16.20
Saccade L	1	1	6247108770	6247168494	59724	721.85	456.91	1153.20	552.23	4.51	248.63	0.67	75.51	6205.26	-6129.29	3509.48
Saccade R	1	1	6247108770	6247168494	59724	721.85	456.91	1153.20	552.23	4.51	248.63	0.67	75.51	6205.26	-6129.29	3509.48
Fixation L	1	2	6247168494	6247287738	119244	1156.55	558.70	7	55	-1	12.83	12.83
Fixation R	1	2	6247168494	6247287738	119244	1156.55	558.70	7	55	-1	14.35	14.35
Saccade L	1	2	6247287738	6247307611	19873	1160.56	561.21	1330.89	465.95	1.69	197.36	1.00	84.84	3858.00	-4682.59	3035.63
Saccade R	1	2	6247287738	6247307611	19873	1160.56	561.21	1330.89	465.95	1.69	197.36	1.00	84.84	3858.00	-4682.59	3035.63
Fixation L	1	3	6247307611	6247486732	179121	1383.27	468.52	60	14	-1	11.01	11.01
Fixation R	1	3	6247307611	6247486732	179121	1383.27	468.52	60	14	-1	12.31	12.31
Saccade L	1	3	6247486732	6247506607	19875	1387.37	461.63	1417.18	459.79	0.24	30.22	1.00	11.85	627.61	-535.76	446.81
Saccade R	1	3	6247486732	6247506607	19875	1387.37	461.63	1417.18	459.79	0.24	30.22	1.00	11.85	627.61	-535.76	446.81
Fixation L	1	4	6247506607	6247765086	258479	1435.78	457.26	29	12	-1	10.30	10.30
Fixation R	1	4	6247506607	6247765086	258479	1435.78	457.26	29	12	-1	11.19	11.19
Saccade L	1	4	6247765086	6247785092	20006	1442.06	462.51	1315.58	457.26	0.97	128.04	1.00	48.48	3128.68	-2840.73	2384.36
Saccade R	1	4	6247765086	6247785092	20006	1442.06	462.51	1315.58	457.26	0.97	128.04	1.00	48.48	3128.68	-2840.73	2384.36
Fixation L	1	5	6247785092	6248103330	318238	1259.90	447.48	63	19	-1	10.47	10.47
Fixation R	1	5	6247785092	6248103330	318238	1259.90	447.48	63	19	-1	11.41	11.41
Saccade L	1	5	6248103330	6248162947	59617	1256.89	438.53	845.29	672.96	5.18	230.59	0.67	86.94	5738.94	-4914.48	3907.71
Saccade R	1	5	6248103330	6248162947	59617	1256.89	438.53	845.29	672.96	5.18	230.59	0.67	86.94	5738.94	-4914.48	3907.71
Fixation L	1	6	6248162947	6248580679	417732	822.72	680.49	48	46	-1	10.33	10.33
Fixation R	1	6	6248162947	6248580679	417732	822.72	680.49	48	46	-1	12.30	12.30
Saccade L	1	6	6248580679	6248600553	19874	859.27	696.65	994.87	717.20	1.25	138.72	1.00	62.79	3430.31	-2717.06	2137.62
Saccade R	1	6	6248580679	6248600553	19874	859.27	696.65	994.87	717.20	1.25	138.72	1.00	62.79	3430.31	-2717.06	2137.62
Fixation L	1	7	6248600553	6248879037	278484	1020.43	765.00	32	63	-1	10.91	10.91
Fixation R	1	7	6248600553	6248879037	278484	1020.43	765.00	32	63	-1	12.07	12.07
Saccade L	1	7	6248879037	6248918862	39825	1027.24	772.45	1387.59	737.73	3.06	207.21	0.50	76.77	5149.09	-4842.24	4375.80
Saccade R	1	7	6248879037	6248918862	39825	1027.24	772.45	1387.59	737.73	3.06	207.21	0.50	76.77	5149.09	-4842.24	4375.80
Fixation L	1	8	6248918862	6249137536	218674	1378.58	736.95	15	57	-1	10.99	10.99
Fixation R	1	8	6248918862	6249137536	218674	1378.58	736.95	15	57	-1	11.94	11.94
Saccade L	1	8	6249137536	6249157400	19864	1389.35	693.68	1403.70	535.49	1.20	160.64	1.00	60.57	3875.98	-3738.76	2770.49
Saccade R	1	8	6249137536	6249157400	19864	1389.35	693.68	1403.70	535.49	1.20	160.64	1.00	60.57	3875.98	-3738.76	2770.49
Fixation L	1	9	6249157400	6249376269	218869	1429.67	515.19	37	35	-1	10.89	10.89
Fixation R	1	9	6249157400	6249376269	218869	1429.67	515.19	37	35	-1	12.20	12.20
Saccade L	1	9	6249376269	6249396160	19891	1440.92	500.29	1442.29	451.64	0.32	49.23	1.00	15.94	1173.55	-902.28	696.55
Saccade R	1	9	6249376269	6249396160	19891	1440.92	500.29	1442.29	451.64	0.32	49.23	1.00	15.94	1173.55	-902.28	696.55
Fixation L	1	10	6249396160	6249575139	178979	1443.91	464.34	8	32	-1	11.32	11.32
Fixation R	1	10	6249396160	6249575139	178979	1443.91	464.34	8	32	-1	12.05	12.05
Saccade L	1	10	6249575139	6249634758	59619	1439.10	475.28	1059.30	229.91	4.91	272.25	0.67	82.34	6675.37	-6382.29	3639.05
Saccade R	1	10	6249575139	6249634758	59619	1439.10	475.28	1059.30	229.91	4.91	272.25	0.67	82.34	6675.37	-6382.29	3639.05
Fixation L	1	11	6249634758	6250151999	517241	1036.42	227.19	29	45	-1	11.04	11.04
Fixation R	1	11	6249634758	6250151999	517241	1036.42	227.19	29	45	-1	12.54	12.54
Saccade L	1	11	6250151999	6250191733	39734	1030.12	257.14	740.55	397.17	2.80	186.61	0.50	70.59	4587.45	-4521.32	4128.95
Saccade R	1	11	6250151999	6250191733	39734	1030.12	257.14	740.55	397.17	2.80	186.61	0.50	70.59	4587.45	-4521.32	4128.95
Fixation L	1	12	6250191733	6250669085	477352	725.04	409.34	22	48	-1	11.49	11.49
Fixation R	1	12	6250191733	6250669085	477352	725.04	409.34	22	48	-1	13.46	13.46
