[BeGaze]
Converted from:	C:\Documents and Settings\iViewX\Desktop\EXPERIMENTATIONS\Experiments\results\finaleart\S19F21442-finaleart-1.idf
Date:	27.03.2019 15:50:20
Version:	BeGaze 2.5.77
Sample Rate:	50
Subject:	S19F21442
Description:	Juliette Veuillez

Table Header for Fixations:
Event Type	Trial	Number	Start	End	Duration	Location X	Location Y	Dispersion X	Dispersion Y	Plane	Avg. Pupil Size X	Avg. Pupil Size Y

Table Header for Saccades:
Event Type	Trial	Number	Start	End	Duration	Start Loc.X	Start Loc.Y	End Loc.X	End Loc.Y	Amplitude	Peak Speed	Peak Speed At	Average Speed	Peak Accel.	Peak Decel.	Average Accel.

Table Header for Blinks:
Event Type	Trial	Number	Start	End	Duration

Table Header for User Events:
Event Type	Trial	Number	Start	Description

UserEvent	1	1	5612687304	# Message: Nature_Morte_Au_Citron_Matisse_1917.jpg
Fixation L	1	1	5612697339	5613095199	397860	915.98	535.79	16	65	-1	14.28	14.28
Fixation R	1	1	5612697339	5613095199	397860	915.98	535.79	16	65	-1	16.84	16.84
Saccade L	1	1	5613095199	5613134946	39747	924.22	556.89	678.37	468.04	2.36	170.75	0.50	59.49	4144.57	-3922.32	3029.42
Saccade R	1	1	5613095199	5613134946	39747	924.22	556.89	678.37	468.04	2.36	170.75	0.50	59.49	4144.57	-3922.32	3029.42
Fixation L	1	2	5613134946	5613333821	198875	668.98	436.75	15	51	-1	14.09	14.09
Fixation R	1	2	5613134946	5613333821	198875	668.98	436.75	15	51	-1	16.76	16.76
Saccade L	1	2	5613333821	5613433299	99478	670.49	431.21	1163.65	578.44	9.35	257.96	0.20	93.98	5815.75	-6225.96	3927.42
Saccade R	1	2	5613333821	5613433299	99478	670.49	431.21	1163.65	578.44	9.35	257.96	0.20	93.98	5815.75	-6225.96	3927.42
Fixation L	1	3	5613433299	5613691911	258612	1172.92	573.16	52	21	-1	14.26	14.26
Fixation R	1	3	5613433299	5613691911	258612	1172.92	573.16	52	21	-1	16.24	16.24
Saccade L	1	3	5613691911	5613711805	19894	1212.06	559.27	1316.29	552.65	0.78	105.64	1.00	39.23	2519.04	-2520.78	1922.63
Saccade R	1	3	5613691911	5613711805	19894	1212.06	559.27	1316.29	552.65	0.78	105.64	1.00	39.23	2519.04	-2520.78	1922.63
Fixation L	1	4	5613711805	5613970395	258590	1310.11	553.52	49	26	-1	14.77	14.77
Fixation R	1	4	5613711805	5613970395	258590	1310.11	553.52	49	26	-1	16.43	16.43
Saccade L	1	4	5613970395	5614010135	39740	1266.50	571.91	789.01	797.44	4.83	340.16	0.50	121.59	8448.68	-8192.40	6348.21
Saccade R	1	4	5613970395	5614010135	39740	1266.50	571.91	789.01	797.44	4.83	340.16	0.50	121.59	8448.68	-8192.40	6348.21
Fixation L	1	5	5614010135	5614368129	357994	767.16	825.55	49	47	-1	13.78	13.78
Fixation R	1	5	5614010135	5614368129	357994	767.16	825.55	49	47	-1	16.16	16.16
Saccade L	1	5	5614368129	5614388000	19871	742.07	840.60	735.60	849.33	0.16	11.00	1.00	8.07	41.12	-151.46	66.37
Saccade R	1	5	5614368129	5614388000	19871	742.07	840.60	735.60	849.33	0.16	11.00	1.00	8.07	41.12	-151.46	66.37
Fixation L	1	6	5614388000	5614527249	139249	732.18	858.76	4	19	-1	13.77	13.77
Fixation R	1	6	5614388000	5614527249	139249	732.18	858.76	4	19	-1	15.83	15.83
Saccade L	1	6	5614527249	5614567001	39752	730.67	868.42	734.01	496.33	3.67	201.57	0.50	92.37	4822.67	-4115.41	4108.51
Saccade R	1	6	5614527249	5614567001	39752	730.67	868.42	734.01	496.33	3.67	201.57	0.50	92.37	4822.67	-4115.41	4108.51
Fixation L	1	7	5614567001	5614666492	99491	721.94	439.01	19	73	-1	13.92	13.92
Fixation R	1	7	5614567001	5614666492	99491	721.94	439.01	19	73	-1	15.94	15.94
Saccade L	1	7	5614666492	5614686367	19875	717.37	424.97	704.03	421.40	0.18	13.97	1.00	8.95	163.41	-213.10	176.93
Saccade R	1	7	5614666492	5614686367	19875	717.37	424.97	704.03	421.40	0.18	13.97	1.00	8.95	163.41	-213.10	176.93
Fixation L	1	8	5614686367	5615740571	1054204	703.18	436.86	41	47	-1	14.49	14.49
Fixation R	1	8	5614686367	5615740571	1054204	703.18	436.86	41	47	-1	16.91	16.91
Saccade L	1	8	5615740571	5615840063	99492	708.47	444.94	1270.82	704.06	9.69	239.06	0.40	97.41	5730.56	-5664.54	3240.72
Saccade R	1	8	5615740571	5615840063	99492	708.47	444.94	1270.82	704.06	9.69	239.06	0.40	97.41	5730.56	-5664.54	3240.72
Fixation L	1	9	5615840063	5616297566	457503	1249.53	643.91	29	69	-1	15.50	15.50
Fixation R	1	9	5615840063	5616297566	457503	1249.53	643.91	29	69	-1	17.93	17.93
Saccade L	1	9	5616297566	5616317426	19860	1250.27	634.28	1251.60	627.85	0.14	10.67	1.00	6.92	230.21	-61.59	116.20
Saccade R	1	9	5616297566	5616317426	19860	1250.27	634.28	1251.60	627.85	0.14	10.67	1.00	6.92	230.21	-61.59	116.20
Fixation L	1	10	5616317426	5616496412	178986	1251.41	639.64	16	47	-1	14.30	14.30
Fixation R	1	10	5616317426	5616496412	178986	1251.41	639.64	16	47	-1	16.47	16.47
Saccade L	1	10	5616496412	5616516308	19896	1246.07	652.89	1308.11	590.50	0.71	89.00	1.00	35.74	1938.57	-2163.37	1700.41
Saccade R	1	10	5616496412	5616516308	19896	1246.07	652.89	1308.11	590.50	0.71	89.00	1.00	35.74	1938.57	-2163.37	1700.41
Fixation L	1	11	5616516308	5616675410	159102	1351.04	573.88	53	24	-1	14.04	14.04
Fixation R	1	11	5616516308	5616675410	159102	1351.04	573.88	53	24	-1	16.17	16.17
