[BeGaze]
Converted from:	C:\Documents and Settings\iViewX\Desktop\EXPERIMENTATIONS\Experiments\results\finaleart\S19F21442-finaleart-1.idf
Date:	27.03.2019 15:50:04
Version:	BeGaze 2.5.77
Sample Rate:	50
Subject:	S19F21442
Description:	Juliette Veuillez

Table Header for Fixations:
Event Type	Trial	Number	Start	End	Duration	Location X	Location Y	Dispersion X	Dispersion Y	Plane	Avg. Pupil Size X	Avg. Pupil Size Y

Table Header for Saccades:
Event Type	Trial	Number	Start	End	Duration	Start Loc.X	Start Loc.Y	End Loc.X	End Loc.Y	Amplitude	Peak Speed	Peak Speed At	Average Speed	Peak Accel.	Peak Decel.	Average Accel.

Table Header for Blinks:
Event Type	Trial	Number	Start	End	Duration

Table Header for User Events:
Event Type	Trial	Number	Start	Description

UserEvent	1	1	5494473420	# Message: void.jpg
Saccade L	1	1	5494474629	5494514486	39857	1196.20	348.34	1503.00	504.28	3.72	197.90	0.50	93.42	3754.49	-4307.71	2857.03
Saccade R	1	1	5494474629	5494514486	39857	1196.20	348.34	1503.00	504.28	3.72	197.90	0.50	93.42	3754.49	-4307.71	2857.03
Fixation L	1	1	5494514486	5495131111	616625	1511.14	554.89	35	62	-1	15.21	15.21
Fixation R	1	1	5494514486	5495131111	616625	1511.14	554.89	35	62	-1	15.72	15.72
Saccade L	1	2	5495131111	5495150962	19851	1495.11	565.90	1491.80	569.89	0.08	5.24	1.00	3.88	93.29	-28.66	44.39
Saccade R	1	2	5495131111	5495150962	19851	1495.11	565.90	1491.80	569.89	0.08	5.24	1.00	3.88	93.29	-28.66	44.39
Fixation L	1	2	5495150962	5495270211	119249	1495.07	568.20	6	4	-1	15.18	15.18
Fixation R	1	2	5495150962	5495270211	119249	1495.07	568.20	6	4	-1	15.52	15.52
Saccade L	1	3	5495270211	5495310092	39881	1497.99	568.31	1169.29	574.86	2.80	175.94	1.00	70.18	4310.32	-4253.85	4006.08
Saccade R	1	3	5495270211	5495310092	39881	1497.99	568.31	1169.29	574.86	2.80	175.94	1.00	70.18	4310.32	-4253.85	4006.08
Fixation L	1	3	5495310092	5495767564	457472	1146.04	587.97	45	27	-1	15.51	15.51
Fixation R	1	3	5495310092	5495767564	457472	1146.04	587.97	45	27	-1	16.67	16.67
Saccade L	1	4	5495767564	5495787428	19864	1123.89	580.03	1023.60	578.52	0.64	101.46	1.00	31.98	2481.15	-2445.93	1697.18
Saccade R	1	4	5495767564	5495787428	19864	1123.89	580.03	1023.60	578.52	0.64	101.46	1.00	31.98	2481.15	-2445.93	1697.18
Fixation L	1	4	5495787428	5496463659	676231	1008.66	598.05	26	57	-1	16.29	16.29
Fixation R	1	4	5495787428	5496463659	676231	1008.66	598.05	26	57	-1	17.95	17.95
