[BeGaze]
Converted from:	C:\Documents and Settings\iViewX\Desktop\EXPERIMENTATIONS\Experiments\results\finaleart\S19F21442-finaleart-1.idf
Date:	27.03.2019 15:50:13
Version:	BeGaze 2.5.77
Sample Rate:	50
Subject:	S19F21442
Description:	Juliette Veuillez

Table Header for Fixations:
Event Type	Trial	Number	Start	End	Duration	Location X	Location Y	Dispersion X	Dispersion Y	Plane	Avg. Pupil Size X	Avg. Pupil Size Y

Table Header for Saccades:
Event Type	Trial	Number	Start	End	Duration	Start Loc.X	Start Loc.Y	End Loc.X	End Loc.Y	Amplitude	Peak Speed	Peak Speed At	Average Speed	Peak Accel.	Peak Decel.	Average Accel.

Table Header for Blinks:
Event Type	Trial	Number	Start	End	Duration

Table Header for User Events:
Event Type	Trial	Number	Start	Description

UserEvent	1	1	5563716721	# Message: Hayet-Nature-morte-1888.jpg
Fixation L	1	1	5563727975	5563946704	218729	929.30	329.73	77	17	-1	12.21	12.21
Fixation R	1	1	5563727975	5563946704	218729	929.30	329.73	77	17	-1	14.48	14.48
Saccade L	1	1	5563946704	5563966583	19879	911.04	322.41	908.45	316.74	0.08	6.43	1.00	3.95	51.21	-52.45	35.59
Saccade R	1	1	5563946704	5563966583	19879	911.04	322.41	908.45	316.74	0.08	6.43	1.00	3.95	51.21	-52.45	35.59
Fixation L	1	2	5563966583	5564185347	218764	903.15	309.20	11	12	-1	13.02	13.02
Fixation R	1	2	5563966583	5564185347	218764	903.15	309.20	11	12	-1	15.15	15.15
Saccade L	1	2	5564185347	5564205330	19983	897.20	309.86	1075.51	410.18	1.20	206.89	1.00	59.91	5156.17	-4879.16	3510.25
Saccade R	1	2	5564185347	5564205330	19983	897.20	309.86	1075.51	410.18	1.20	206.89	1.00	59.91	5156.17	-4879.16	3510.25
Fixation L	1	3	5564205330	5564523583	318253	1109.08	431.42	42	43	-1	13.14	13.14
Fixation R	1	3	5564205330	5564523583	318253	1109.08	431.42	42	43	-1	15.31	15.31
Saccade L	1	3	5564523583	5564563304	39721	1087.20	453.69	847.06	563.56	3.13	236.48	0.50	78.90	5519.05	-5435.25	3596.24
Saccade R	1	3	5564523583	5564563304	39721	1087.20	453.69	847.06	563.56	3.13	236.48	0.50	78.90	5519.05	-5435.25	3596.24
Fixation L	1	4	5564563304	5564901424	338120	826.01	569.59	29	33	-1	12.73	12.73
Fixation R	1	4	5564563304	5564901424	338120	826.01	569.59	29	33	-1	15.09	15.09
Saccade L	1	4	5564901424	5564941163	39739	819.63	569.59	542.55	524.55	2.59	164.97	0.50	65.14	3675.26	-3559.66	3145.84
Saccade R	1	4	5564901424	5564941163	39739	819.63	569.59	542.55	524.55	2.59	164.97	0.50	65.14	3675.26	-3559.66	3145.84
Fixation L	1	5	5564941163	5565279277	338114	553.18	497.62	22	44	-1	12.95	12.95
Fixation R	1	5	5564941163	5565279277	338114	553.18	497.62	22	44	-1	15.73	15.73
Saccade L	1	5	5565279277	5565339025	59748	564.91	528.43	414.82	504.61	2.70	154.40	1.00	45.14	3113.84	-3743.89	1574.33
Saccade R	1	5	5565279277	5565339025	59748	564.91	528.43	414.82	504.61	2.70	154.40	1.00	45.14	3113.84	-3743.89	1574.33
Fixation L	1	6	5565339025	5565657282	318257	376.29	513.71	62	32	-1	13.01	13.01
Fixation R	1	6	5565339025	5565657282	318257	376.29	513.71	62	32	-1	16.12	16.12
Saccade L	1	6	5565657282	5565697003	39721	376.92	502.29	768.38	517.81	3.70	238.92	0.50	93.20	5291.54	-5596.99	4497.16
Saccade R	1	6	5565657282	5565697003	39721	376.92	502.29	768.38	517.81	3.70	238.92	0.50	93.20	5291.54	-5596.99	4497.16
Fixation L	1	7	5565697003	5566015241	318238	760.40	531.25	14	26	-1	13.32	13.32
Fixation R	1	7	5565697003	5566015241	318238	760.40	531.25	14	26	-1	15.91	15.91
Saccade L	1	7	5566015241	5566054997	39756	753.69	530.86	1131.50	499.06	3.19	230.98	0.50	80.14	5494.29	-5744.64	4693.59
Saccade R	1	7	5566015241	5566054997	39756	753.69	530.86	1131.50	499.06	3.19	230.98	0.50	80.14	5494.29	-5744.64	4693.59
Fixation L	1	8	5566054997	5566432977	377980	1141.24	492.82	25	22	-1	13.41	13.41
Fixation R	1	8	5566054997	5566432977	377980	1141.24	492.82	25	22	-1	15.15	15.15
Saccade L	1	8	5566432977	5566452847	19870	1156.06	490.71	1163.79	396.08	0.59	96.03	1.00	29.65	2289.22	-1692.04	1457.26
Saccade R	1	8	5566432977	5566452847	19870	1156.06	490.71	1163.79	396.08	0.59	96.03	1.00	29.65	2289.22	-1692.04	1457.26
Fixation L	1	9	5566452847	5566731339	278492	1210.36	401.55	60	24	-1	12.35	12.35
Fixation R	1	9	5566452847	5566731339	278492	1210.36	401.55	60	24	-1	13.88	13.88
Saccade L	1	9	5566731339	5566771083	39744	1224.34	399.63	1248.10	263.24	1.32	103.73	0.50	33.23	2579.79	-2134.50	1560.89
Saccade R	1	9	5566731339	5566771083	39744	1224.34	399.63	1248.10	263.24	1.32	103.73	0.50	33.23	2579.79	-2134.50	1560.89
Fixation L	1	10	5566771083	5566930203	159120	1274.51	234.16	42	48	-1	11.82	11.82
Fixation R	1	10	5566771083	5566930203	159120	1274.51	234.16	42	48	-1	13.32	13.32
Saccade L	1	10	5566930203	5566950078	19875	1291.08	215.05	1291.80	201.26	0.18	14.23	1.00	9.08	20.83	-72.09	33.21
Saccade R	1	10	5566930203	5566950078	19875	1291.08	215.05	1291.80	201.26	0.18	14.23	1.00	9.08	20.83	-72.09	33.21
Fixation L	1	11	5566950078	5567109194	159116	1295.29	195.62	8	18	-1	11.95	11.95
Fixation R	1	11	5566950078	5567109194	159116	1295.29	195.62	8	18	-1	13.35	13.35
Saccade L	1	11	5567109194	5567148940	39746	1293.37	190.98	752.01	194.39	4.60	275.88	0.50	115.72	6665.49	-6543.63	6576.31
Saccade R	1	11	5567109194	5567148940	39746	1293.37	190.98	752.01	194.39	4.60	275.88	0.50	115.72	6665.49	-6543.63	6576.31
Fixation L	1	12	5567148940	5567288194	139254	734.00	221.46	25	72	-1	11.83	11.83
Fixation R	1	12	5567148940	5567288194	139254	734.00	221.46	25	72	-1	14.07	14.07
Saccade L	1	12	5567288194	5567308177	19983	727.68	252.71	723.87	265.48	0.37	33.78	1.00	18.28	-71.32	-507.59	274.91
Saccade R	1	12	5567288194	5567308177	19983	727.68	252.71	723.87	265.48	0.37	33.78	1.00	18.28	-71.32	-507.59	274.91
Fixation L	1	13	5567308177	5567705930	397753	718.22	294.26	11	53	-1	12.65	12.65
Fixation R	1	13	5567308177	5567705930	397753	718.22	294.26	11	53	-1	15.08	15.08
