[BeGaze]
Converted from:	C:\Documents and Settings\iViewX\Desktop\EXPERIMENTATIONS\Experiments\results\finaleart\S19F21442-finaleart-1.idf
Date:	27.03.2019 15:51:52
Version:	BeGaze 2.5.77
Sample Rate:	50
Subject:	S19F21442
Description:	Juliette Veuillez

Table Header for Fixations:
Event Type	Trial	Number	Start	End	Duration	Location X	Location Y	Dispersion X	Dispersion Y	Plane	Avg. Pupil Size X	Avg. Pupil Size Y

Table Header for Saccades:
Event Type	Trial	Number	Start	End	Duration	Start Loc.X	Start Loc.Y	End Loc.X	End Loc.Y	Amplitude	Peak Speed	Peak Speed At	Average Speed	Peak Accel.	Peak Decel.	Average Accel.

Table Header for Blinks:
Event Type	Trial	Number	Start	End	Duration

Table Header for User Events:
Event Type	Trial	Number	Start	Description

UserEvent	1	1	8274395435	# Message: void.jpg
Fixation L	1	1	8274412830	8274532204	119374	949.42	950.48	9	58	-1	10.40	10.40
Fixation R	1	1	8274412830	8274532204	119374	949.42	950.48	9	58	-1	11.15	11.15
Blink L	1	1	8274532204	8274731050	198846
Blink R	1	1	8274532204	8274731050	198846
Fixation L	1	2	8274731050	8275546524	815474	393.65	1096.51	55	41	-1	10.79	10.79
Fixation R	1	2	8274731050	8275546524	815474	393.65	1096.51	55	41	-1	11.78	11.78
Saccade L	1	1	8275546524	8275586264	39740	435.96	1083.80	651.18	944.69	2.60	189.15	0.50	65.54	4607.26	-4495.76	2844.77
Saccade R	1	1	8275546524	8275586264	39740	435.96	1083.80	651.18	944.69	2.60	189.15	0.50	65.54	4607.26	-4495.76	2844.77
Fixation L	1	3	8275586264	8276103504	517240	676.02	943.78	40	18	-1	11.08	11.08
Fixation R	1	3	8275586264	8276103504	517240	676.02	943.78	40	18	-1	11.92	11.92
Saccade L	1	2	8276103504	8276143263	39759	690.90	953.61	683.30	710.49	2.06	125.39	0.50	51.72	3089.44	-2923.93	2973.85
Saccade R	1	2	8276103504	8276143263	39759	690.90	953.61	683.30	710.49	2.06	125.39	0.50	51.72	3089.44	-2923.93	2973.85
Fixation L	1	4	8276143263	8276342115	198852	677.49	719.81	13	38	-1	11.75	11.75
Fixation R	1	4	8276143263	8276342115	198852	677.49	719.81	13	38	-1	12.69	12.69
Saccade L	1	3	8276342115	8276381990	39875	679.70	736.26	725.67	575.38	1.86	128.13	0.50	46.54	3142.57	0.00	1348.97
Saccade R	1	3	8276342115	8276381990	39875	679.70	736.26	725.67	575.38	1.86	128.13	0.50	46.54	3142.57	0.00	1348.97
