[BeGaze]
Converted from:	C:\Documents and Settings\iViewX\Desktop\EXPERIMENTATIONS\Experiments\results\finaleart\S19F21442-finaleart-1.idf
Date:	27.03.2019 15:51:57
Version:	BeGaze 2.5.77
Sample Rate:	50
Subject:	S19F21442
Description:	Juliette Veuillez

Table Header for Fixations:
Event Type	Trial	Number	Start	End	Duration	Location X	Location Y	Dispersion X	Dispersion Y	Plane	Avg. Pupil Size X	Avg. Pupil Size Y

Table Header for Saccades:
Event Type	Trial	Number	Start	End	Duration	Start Loc.X	Start Loc.Y	End Loc.X	End Loc.Y	Amplitude	Peak Speed	Peak Speed At	Average Speed	Peak Accel.	Peak Decel.	Average Accel.

Table Header for Blinks:
Event Type	Trial	Number	Start	End	Duration

Table Header for User Events:
Event Type	Trial	Number	Start	Description

UserEvent	1	1	8310985887	# Message: void.jpg
Saccade L	1	1	8310990739	8311010608	19869	1578.15	661.76	1533.46	940.81	2.05	285.65	1.00	103.09	590.32	-6325.73	2305.35
Saccade R	1	1	8310990739	8311010608	19869	1578.15	661.76	1533.46	940.81	2.05	285.65	1.00	103.09	590.32	-6325.73	2305.35
Fixation L	1	1	8311010608	8311269209	258601	1555.12	966.82	31	42	-1	11.49	11.49
Fixation R	1	1	8311010608	8311269209	258601	1555.12	966.82	31	42	-1	11.47	11.47
Saccade L	1	2	8311269209	8311308967	39758	1551.99	971.10	1391.85	859.24	1.85	102.45	0.50	46.59	2493.03	-2193.70	2260.44
Saccade R	1	2	8311269209	8311308967	39758	1551.99	971.10	1391.85	859.24	1.85	102.45	0.50	46.59	2493.03	-2193.70	2260.44
Fixation L	1	2	8311308967	8311507819	198852	1387.94	838.35	11	29	-1	10.96	10.96
Fixation R	1	2	8311308967	8311507819	198852	1387.94	838.35	11	29	-1	11.28	11.28
Blink L	1	1	8311507819	8311786315	278496
Blink R	1	1	8311507819	8311786315	278496
Fixation L	1	3	8311786315	8311885825	99510	939.54	999.20	11	11	-1	10.72	10.72
Fixation R	1	3	8311786315	8311885825	99510	939.54	999.20	11	11	-1	13.18	13.18
Blink L	1	2	8311885825	8312462659	576834
Blink R	1	2	8311885825	8312462659	576834
Fixation L	1	4	8312462659	8312979784	517125	699.10	530.90	30	29	-1	10.02	10.02
Fixation R	1	4	8312462659	8312979784	517125	699.10	530.90	30	29	-1	11.81	11.81
