[BeGaze]
Converted from:	C:\Documents and Settings\iViewX\Desktop\EXPERIMENTATIONS\Experiments\results\finaleart\S19F21442-finaleart-1.idf
Date:	27.03.2019 15:52:05
Version:	BeGaze 2.5.77
Sample Rate:	50
Subject:	S19F21442
Description:	Juliette Veuillez

Table Header for Fixations:
Event Type	Trial	Number	Start	End	Duration	Location X	Location Y	Dispersion X	Dispersion Y	Plane	Avg. Pupil Size X	Avg. Pupil Size Y

Table Header for Saccades:
Event Type	Trial	Number	Start	End	Duration	Start Loc.X	Start Loc.Y	End Loc.X	End Loc.Y	Amplitude	Peak Speed	Peak Speed At	Average Speed	Peak Accel.	Peak Decel.	Average Accel.

Table Header for Blinks:
Event Type	Trial	Number	Start	End	Duration

Table Header for User Events:
Event Type	Trial	Number	Start	Description

UserEvent	1	1	8371995461	# Message: void.jpg
Fixation L	1	1	8372013581	8372212433	198852	628.17	288.49	32	11	-1	10.46	10.46
Fixation R	1	1	8372013581	8372212433	198852	628.17	288.49	32	11	-1	12.94	12.94
Saccade L	1	1	8372212433	8372232303	19870	627.22	294.13	428.96	350.83	1.29	208.52	1.00	64.74	5088.15	-4871.54	3609.18
Saccade R	1	1	8372212433	8372232303	19870	627.22	294.13	428.96	350.83	1.29	208.52	1.00	64.74	5088.15	-4871.54	3609.18
Fixation L	1	2	8372232303	8372630168	397865	408.37	402.43	28	68	-1	10.58	10.58
Fixation R	1	2	8372232303	8372630168	397865	408.37	402.43	28	68	-1	13.26	13.26
Saccade L	1	2	8372630168	8372650038	19870	411.53	408.95	411.66	426.63	0.24	17.88	1.00	12.10	61.39	-276.56	166.83
Saccade R	1	2	8372630168	8372650038	19870	411.53	408.95	411.66	426.63	0.24	17.88	1.00	12.10	61.39	-276.56	166.83
Fixation L	1	3	8372650038	8373525245	875207	418.84	443.19	31	68	-1	11.00	11.00
Fixation R	1	3	8372650038	8373525245	875207	418.84	443.19	31	68	-1	13.70	13.70
Saccade L	1	3	8373525245	8373545124	19879	436.09	483.45	440.70	479.74	0.10	6.38	1.00	4.84	91.04	-66.66	55.88
Saccade R	1	3	8373525245	8373545124	19879	436.09	483.45	440.70	479.74	0.10	6.38	1.00	4.84	91.04	-66.66	55.88
Fixation L	1	4	8373545124	8373823619	278495	449.35	481.72	33	14	-1	11.47	11.47
Fixation R	1	4	8373545124	8373823619	278495	449.35	481.72	33	14	-1	14.43	14.43
Saccade L	1	4	8373823619	8373843489	19870	474.69	485.87	574.36	435.00	0.79	113.18	1.00	39.78	2747.86	-2681.97	1814.33
Saccade R	1	4	8373823619	8373843489	19870	474.69	485.87	574.36	435.00	0.79	113.18	1.00	39.78	2747.86	-2681.97	1814.33
Fixation L	1	5	8373843489	8373982736	139247	585.07	426.29	15	25	-1	11.47	11.47
Fixation R	1	5	8373843489	8373982736	139247	585.07	426.29	15	25	-1	14.46	14.46
