[BeGaze]
Converted from:	C:\Documents and Settings\iViewX\Desktop\EXPERIMENTATIONS\Experiments\results\finaleart\S19F21442-finaleart-1.idf
Date:	27.03.2019 15:50:46
Version:	BeGaze 2.5.77
Sample Rate:	50
Subject:	S19F21442
Description:	Juliette Veuillez

Table Header for Fixations:
Event Type	Trial	Number	Start	End	Duration	Location X	Location Y	Dispersion X	Dispersion Y	Plane	Avg. Pupil Size X	Avg. Pupil Size Y

Table Header for Saccades:
Event Type	Trial	Number	Start	End	Duration	Start Loc.X	Start Loc.Y	End Loc.X	End Loc.Y	Amplitude	Peak Speed	Peak Speed At	Average Speed	Peak Accel.	Peak Decel.	Average Accel.

Table Header for Blinks:
Event Type	Trial	Number	Start	End	Duration

Table Header for User Events:
Event Type	Trial	Number	Start	Description

UserEvent	1	1	6659953802	# Message: Un_Jardin_Maison_Baptiste_Butler_1895.jpg
Fixation L	1	1	6659953871	6660331716	377845	610.23	516.37	13	26	-1	11.45	11.45
Fixation R	1	1	6659953871	6660331716	377845	610.23	516.37	13	26	-1	15.70	15.70
Saccade L	1	1	6660331716	6660391349	59633	612.58	524.94	1008.17	596.32	4.87	229.75	0.67	81.69	5663.40	-4410.29	3001.05
Saccade R	1	1	6660331716	6660391349	59633	612.58	524.94	1008.17	596.32	4.87	229.75	0.67	81.69	5663.40	-4410.29	3001.05
Fixation L	1	2	6660391349	6660530577	139228	1011.82	644.51	13	62	-1	10.65	10.65
Fixation R	1	2	6660391349	6660530577	139228	1011.82	644.51	13	62	-1	14.63	14.63
Saccade L	1	2	6660530577	6660570448	39871	1016.14	658.07	1077.58	298.55	3.15	209.53	0.50	79.06	5117.12	-4804.43	4483.04
Saccade R	1	2	6660530577	6660570448	39871	1016.14	658.07	1077.58	298.55	3.15	209.53	0.50	79.06	5117.12	-4804.43	4483.04
Fixation L	1	3	6660570448	6660789182	218734	1091.73	278.81	39	36	-1	8.37	8.37
Fixation R	1	3	6660570448	6660789182	218734	1091.73	278.81	39	36	-1	11.60	11.60
Saccade L	1	3	6660789182	6660828940	39758	1095.79	262.50	1017.73	161.94	1.27	67.37	0.50	31.84	1635.99	-1349.81	1378.64
Saccade R	1	3	6660789182	6660828940	39758	1095.79	262.50	1017.73	161.94	1.27	67.37	0.50	31.84	1635.99	-1349.81	1378.64
Fixation L	1	4	6660828940	6661067678	238738	1014.15	144.88	13	39	-1	7.98	7.98
Fixation R	1	4	6660828940	6661067678	238738	1014.15	144.88	13	39	-1	10.86	10.86
Saccade L	1	4	6661067678	6661107427	39749	1015.29	163.92	1404.45	179.06	3.36	234.78	0.50	84.61	5782.99	-5571.23	4711.34
Saccade R	1	4	6661067678	6661107427	39749	1015.29	163.92	1404.45	179.06	3.36	234.78	0.50	84.61	5782.99	-5571.23	4711.34
Fixation L	1	5	6661107427	6661525153	417726	1400.73	216.72	26	66	-1	8.83	8.83
Fixation R	1	5	6661107427	6661525153	417726	1400.73	216.72	26	66	-1	11.39	11.39
Saccade L	1	5	6661525153	6661545024	19871	1382.75	245.63	1379.75	251.92	0.09	7.06	1.00	4.63	156.56	-114.72	111.09
Saccade R	1	5	6661525153	6661545024	19871	1382.75	245.63	1379.75	251.92	0.09	7.06	1.00	4.63	156.56	-114.72	111.09
Fixation L	1	6	6661545024	6661922889	377865	1366.79	219.21	30	68	-1	9.01	9.01
Fixation R	1	6	6661545024	6661922889	377865	1366.79	219.21	30	68	-1	11.52	11.52
Saccade L	1	6	6661922889	6661942786	19897	1352.65	201.90	1350.18	206.16	0.05	4.99	1.00	2.60	59.31	-79.38	54.94
Saccade R	1	6	6661922889	6661942786	19897	1352.65	201.90	1350.18	206.16	0.05	4.99	1.00	2.60	59.31	-79.38	54.94
Fixation L	1	7	6661942786	6662300877	358091	1364.06	214.87	56	42	-1	9.26	9.26
Fixation R	1	7	6661942786	6662300877	358091	1364.06	214.87	56	42	-1	11.66	11.66
Saccade L	1	7	6662300877	6662400245	99368	1402.34	242.42	930.06	242.45	7.06	281.12	1.00	71.06	6936.74	-6800.28	3168.01
Saccade R	1	7	6662300877	6662400245	99368	1402.34	242.42	930.06	242.45	7.06	281.12	1.00	71.06	6936.74	-6800.28	3168.01
Fixation L	1	8	6662400245	6662559356	159111	863.86	231.53	77	21	-1	9.24	9.24
Fixation R	1	8	6662400245	6662559356	159111	863.86	231.53	77	21	-1	12.20	12.20
Saccade L	1	8	6662559356	6662658868	99512	853.79	221.77	442.38	280.13	5.96	250.93	0.80	59.94	5974.31	-5546.82	2628.24
Saccade R	1	8	6662559356	6662658868	99512	853.79	221.77	442.38	280.13	5.96	250.93	0.80	59.94	5974.31	-5546.82	2628.24
Fixation L	1	9	6662658868	6662857745	198877	455.48	291.36	21	55	-1	9.62	9.62
Fixation R	1	9	6662658868	6662857745	198877	455.48	291.36	21	55	-1	12.66	12.66
Saccade L	1	9	6662857745	6662917476	59731	464.13	308.92	425.13	767.82	5.00	269.39	0.67	83.75	6689.39	-6302.42	3515.23
Saccade R	1	9	6662857745	6662917476	59731	464.13	308.92	425.13	767.82	5.00	269.39	0.67	83.75	6689.39	-6302.42	3515.23
Fixation L	1	10	6662917476	6663096462	178986	421.21	774.58	29	15	-1	9.11	9.11
Fixation R	1	10	6662917476	6663096462	178986	421.21	774.58	29	15	-1	13.52	13.52
Saccade L	1	10	6663096462	6663175964	79502	408.67	774.90	1380.05	440.10	12.37	384.57	0.50	155.56	9312.20	-8134.37	5889.26
Saccade R	1	10	6663096462	6663175964	79502	408.67	774.90	1380.05	440.10	12.37	384.57	0.50	155.56	9312.20	-8134.37	5889.26
Fixation L	1	11	6663175964	6663355072	179108	1386.96	436.23	12	11	-1	9.48	9.48
Fixation R	1	11	6663175964	6663355072	179108	1386.96	436.23	12	11	-1	11.81	11.81
Saccade L	1	11	6663355072	6663374942	19870	1392.06	440.97	1472.55	433.02	0.50	81.81	1.00	25.11	1943.23	-1839.72	1286.47
Saccade R	1	11	6663355072	6663374942	19870	1392.06	440.97	1472.55	433.02	0.50	81.81	1.00	25.11	1943.23	-1839.72	1286.47
Fixation L	1	12	6663374942	6663872174	497232	1477.00	456.86	16	37	-1	9.28	9.28
Fixation R	1	12	6663374942	6663872174	497232	1477.00	456.86	16	37	-1	11.44	11.44
Saccade L	1	12	6663872174	6663951680	79506	1472.20	456.88	1227.53	750.01	5.45	239.14	0.50	68.55	5919.56	-5863.09	3810.06
Saccade R	1	12	6663872174	6663951680	79506	1472.20	456.88	1227.53	750.01	5.45	239.14	0.50	68.55	5919.56	-5863.09	3810.06
