[BeGaze]
Converted from:	C:\Documents and Settings\iViewX\Desktop\EXPERIMENTATIONS\Experiments\results\finaleart\S19F21442-finaleart-1.idf
Date:	27.03.2019 15:51:50
Version:	BeGaze 2.5.77
Sample Rate:	50
Subject:	S19F21442
Description:	Juliette Veuillez

Table Header for Fixations:
Event Type	Trial	Number	Start	End	Duration	Location X	Location Y	Dispersion X	Dispersion Y	Plane	Avg. Pupil Size X	Avg. Pupil Size Y

Table Header for Saccades:
Event Type	Trial	Number	Start	End	Duration	Start Loc.X	Start Loc.Y	End Loc.X	End Loc.Y	Amplitude	Peak Speed	Peak Speed At	Average Speed	Peak Accel.	Peak Decel.	Average Accel.

Table Header for Blinks:
Event Type	Trial	Number	Start	End	Duration

Table Header for User Events:
Event Type	Trial	Number	Start	Description

UserEvent	1	1	8256082297	# Message: void.jpg
Fixation L	1	1	8256094001	8256253117	159116	664.64	299.52	5	24	-1	10.99	10.99
Fixation R	1	1	8256094001	8256253117	159116	664.64	299.52	5	24	-1	12.42	12.42
Saccade L	1	1	8256253117	8256312744	59627	665.42	310.01	1146.92	588.93	6.42	281.55	0.67	107.73	6767.85	-5955.26	4952.87
Saccade R	1	1	8256253117	8256312744	59627	665.42	310.01	1146.92	588.93	6.42	281.55	0.67	107.73	6767.85	-5955.26	4952.87
Fixation L	1	2	8256312744	8256491856	179112	1171.33	629.12	35	61	-1	11.32	11.32
Fixation R	1	2	8256312744	8256491856	179112	1171.33	629.12	35	61	-1	12.02	12.02
Saccade L	1	2	8256491856	8256511720	19864	1173.78	638.17	1177.60	654.64	0.17	17.11	1.00	8.60	323.52	-237.76	220.47
Saccade R	1	2	8256491856	8256511720	19864	1173.78	638.17	1177.60	654.64	0.17	17.11	1.00	8.60	323.52	-237.76	220.47
Fixation L	1	3	8256511720	8257028825	517105	1166.68	629.19	19	76	-1	11.00	11.00
Fixation R	1	3	8256511720	8257028825	517105	1166.68	629.19	19	76	-1	11.14	11.14
Saccade L	1	3	8257028825	8257048707	19882	1160.53	657.55	1160.57	663.68	0.21	25.33	0.00	10.61	20.11	-527.54	186.61
Saccade R	1	3	8257028825	8257048707	19882	1160.53	657.55	1160.57	663.68	0.21	25.33	0.00	10.61	20.11	-527.54	186.61
Fixation L	1	4	8257048707	8257446565	397858	1164.59	643.77	14	63	-1	11.37	11.37
Fixation R	1	4	8257048707	8257446565	397858	1164.59	643.77	14	63	-1	11.60	11.60
Blink L	1	1	8257446565	8257744926	298361
Blink R	1	1	8257446565	8257744926	298361
Fixation L	1	5	8257744926	8258063166	318240	939.05	545.80	5	49	-1	11.08	11.08
Fixation R	1	5	8257744926	8258063166	318240	939.05	545.80	5	49	-1	12.43	12.43
