[BeGaze]
Converted from:	C:\Documents and Settings\iViewX\Desktop\EXPERIMENTATIONS\Experiments\results\finaleart\S19F21442-finaleart-1.idf
Date:	27.03.2019 15:50:54
Version:	BeGaze 2.5.77
Sample Rate:	50
Subject:	S19F21442
Description:	Juliette Veuillez

Table Header for Fixations:
Event Type	Trial	Number	Start	End	Duration	Location X	Location Y	Dispersion X	Dispersion Y	Plane	Avg. Pupil Size X	Avg. Pupil Size Y

Table Header for Saccades:
Event Type	Trial	Number	Start	End	Duration	Start Loc.X	Start Loc.Y	End Loc.X	End Loc.Y	Amplitude	Peak Speed	Peak Speed At	Average Speed	Peak Accel.	Peak Decel.	Average Accel.

Table Header for Blinks:
Event Type	Trial	Number	Start	End	Duration

Table Header for User Events:
Event Type	Trial	Number	Start	Description

UserEvent	1	1	6719089850	# Message: void.jpg
Fixation L	1	1	6719107036	6719325775	218739	1209.61	596.68	11	29	-1	12.24	12.24
Fixation R	1	1	6719107036	6719325775	218739	1209.61	596.68	11	29	-1	12.53	12.53
Saccade L	1	1	6719325775	6719365506	39731	1208.76	614.55	1432.17	453.37	2.54	202.28	0.50	63.88	4975.19	-4473.84	3182.40
Saccade R	1	1	6719325775	6719365506	39731	1208.76	614.55	1432.17	453.37	2.54	202.28	0.50	63.88	4975.19	-4473.84	3182.40
Fixation L	1	2	6719365506	6719842866	477360	1424.58	503.55	15	77	-1	12.42	12.42
Fixation R	1	2	6719365506	6719842866	477360	1424.58	503.55	15	77	-1	12.38	12.38
Saccade L	1	2	6719842866	6719862870	20004	1417.11	530.70	1411.91	534.78	0.11	6.68	1.00	5.74	91.26	26.05	49.82
Saccade R	1	2	6719842866	6719862870	20004	1417.11	530.70	1411.91	534.78	0.11	6.68	1.00	5.74	91.26	26.05	49.82
Fixation L	1	3	6719862870	6720320340	457470	1401.47	548.56	33	31	-1	12.29	12.29
Fixation R	1	3	6719862870	6720320340	457470	1401.47	548.56	33	31	-1	11.89	11.89
Saccade L	1	3	6720320340	6720340212	19872	1380.47	549.20	1187.65	550.11	1.16	194.99	1.00	58.58	4837.63	-4785.28	3234.09
Saccade R	1	3	6720320340	6720340212	19872	1380.47	549.20	1187.65	550.11	1.16	194.99	1.00	58.58	4837.63	-4785.28	3234.09
Fixation L	1	4	6720340212	6720578834	238622	1160.67	550.44	46	14	-1	12.19	12.19
Fixation R	1	4	6720340212	6720578834	238622	1160.67	550.44	46	14	-1	12.66	12.66
Saccade L	1	4	6720578834	6720598697	19863	1140.68	546.80	1015.74	543.26	0.91	126.43	1.00	46.02	3050.60	-2880.20	2237.69
Saccade R	1	4	6720578834	6720598697	19863	1140.68	546.80	1015.74	543.26	0.91	126.43	1.00	46.02	3050.60	-2880.20	2237.69
Fixation L	1	5	6720598697	6721076050	477353	981.31	556.78	45	46	-1	12.55	12.55
Fixation R	1	5	6720598697	6721076050	477353	981.31	556.78	45	46	-1	13.40	13.40
