[BeGaze]
Converted from:	C:\Documents and Settings\iViewX\Desktop\EXPERIMENTATIONS\Experiments\results\finaleart\S19F21442-finaleart-1.idf
Date:	27.03.2019 15:51:50
Version:	BeGaze 2.5.77
Sample Rate:	50
Subject:	S19F21442
Description:	Juliette Veuillez

Table Header for Fixations:
Event Type	Trial	Number	Start	End	Duration	Location X	Location Y	Dispersion X	Dispersion Y	Plane	Avg. Pupil Size X	Avg. Pupil Size Y

Table Header for Saccades:
Event Type	Trial	Number	Start	End	Duration	Start Loc.X	Start Loc.Y	End Loc.X	End Loc.Y	Amplitude	Peak Speed	Peak Speed At	Average Speed	Peak Accel.	Peak Decel.	Average Accel.

Table Header for Blinks:
Event Type	Trial	Number	Start	End	Duration

Table Header for User Events:
Event Type	Trial	Number	Start	Description

UserEvent	1	1	8258121917	# Message: The_Blue_Nude_Souvenir_of_Biskra_Matisse_1907.jpg
Fixation L	1	1	8258122789	8258301768	178979	933.42	529.54	8	88	-1	10.05	10.05
Fixation R	1	1	8258122789	8258301768	178979	933.42	529.54	8	88	-1	11.58	11.58
Saccade L	1	1	8258301768	8258341652	39884	934.53	551.55	844.71	500.24	1.19	75.09	1.00	29.85	1740.06	-1742.77	1243.97
Saccade R	1	1	8258301768	8258341652	39884	934.53	551.55	844.71	500.24	1.19	75.09	1.00	29.85	1740.06	-1742.77	1243.97
Fixation L	1	2	8258341652	8258560397	218745	820.36	496.70	36	26	-1	10.09	10.09
Fixation R	1	2	8258341652	8258560397	218745	820.36	496.70	36	26	-1	12.27	12.27
Saccade L	1	2	8258560397	8258600146	39749	808.64	487.95	417.08	398.23	3.37	221.50	1.00	84.72	5369.21	-4478.16	4708.99
Saccade R	1	2	8258560397	8258600146	39749	808.64	487.95	417.08	398.23	3.37	221.50	1.00	84.72	5369.21	-4478.16	4708.99
Fixation L	1	3	8258600146	8258858749	258603	416.28	407.43	36	45	-1	9.54	9.54
Fixation R	1	3	8258600146	8258858749	258603	416.28	407.43	36	45	-1	11.79	11.79
Saccade L	1	3	8258858749	8258878620	19871	388.23	395.76	364.87	383.03	0.52	26.91	1.00	26.20	14.76	-121.72	45.93
Saccade R	1	3	8258858749	8258878620	19871	388.23	395.76	364.87	383.03	0.52	26.91	1.00	26.20	14.76	-121.72	45.93
Fixation L	1	4	8258878620	8259117371	238751	372.06	392.64	41	54	-1	8.87	8.87
Fixation R	1	4	8258878620	8259117371	238751	372.06	392.64	41	54	-1	10.96	10.96
Saccade L	1	4	8259117371	8259137248	19877	401.58	396.18	405.30	384.72	0.30	22.30	1.00	15.01	-79.19	-252.77	181.89
Saccade R	1	4	8259117371	8259137248	19877	401.58	396.18	405.30	384.72	0.30	22.30	1.00	15.01	-79.19	-252.77	181.89
Fixation L	1	5	8259137248	8259515090	377842	414.46	384.73	19	43	-1	10.11	10.11
Fixation R	1	5	8259137248	8259515090	377842	414.46	384.73	19	43	-1	12.56	12.56
Saccade L	1	5	8259515090	8259534985	19895	411.20	412.53	547.59	579.70	1.19	218.15	1.00	59.58	5317.20	-4966.91	3480.89
Saccade R	1	5	8259515090	8259534985	19895	411.20	412.53	547.59	579.70	1.19	218.15	1.00	59.58	5317.20	-4966.91	3480.89
Fixation L	1	6	8259534985	8259813458	278473	557.46	617.08	42	57	-1	10.94	10.94
Fixation R	1	6	8259534985	8259813458	278473	557.46	617.08	42	57	-1	13.49	13.49
Saccade L	1	6	8259813458	8259833325	19867	533.02	636.91	491.47	749.81	0.86	121.69	1.00	43.06	2906.05	-2915.85	1954.32
Saccade R	1	6	8259813458	8259833325	19867	533.02	636.91	491.47	749.81	0.86	121.69	1.00	43.06	2906.05	-2915.85	1954.32
Fixation L	1	7	8259833325	8259992449	159124	467.51	738.08	40	23	-1	10.71	10.71
Fixation R	1	7	8259833325	8259992449	159124	467.51	738.08	40	23	-1	13.33	13.33
Saccade L	1	7	8259992449	8260032197	39748	466.62	732.26	881.29	777.90	3.85	338.65	0.50	96.98	8009.71	-8128.76	4948.39
Saccade R	1	7	8259992449	8260032197	39748	466.62	732.26	881.29	777.90	3.85	338.65	0.50	96.98	8009.71	-8128.76	4948.39
Fixation L	1	8	8260032197	8260430063	397866	874.44	787.58	15	47	-1	10.11	10.11
Fixation R	1	8	8260032197	8260430063	397866	874.44	787.58	15	47	-1	11.67	11.67
Saccade L	1	8	8260430063	8260449957	19894	868.35	796.47	819.62	811.07	0.40	51.46	1.00	19.86	1018.06	-155.86	442.12
Saccade R	1	8	8260430063	8260449957	19894	868.35	796.47	819.62	811.07	0.40	51.46	1.00	19.86	1018.06	-155.86	442.12
Fixation L	1	9	8260449957	8260569307	119350	810.78	799.63	15	72	-1	9.93	9.93
Fixation R	1	9	8260449957	8260569307	119350	810.78	799.63	15	72	-1	11.13	11.13
Saccade L	1	9	8260569307	8260668801	99494	808.34	797.40	1251.09	713.84	7.38	280.94	0.80	74.17	6326.67	-6790.36	3296.13
Saccade R	1	9	8260569307	8260668801	99494	808.34	797.40	1251.09	713.84	7.38	280.94	0.80	74.17	6326.67	-6790.36	3296.13
Fixation L	1	10	8260668801	8260847792	178991	1237.54	703.33	18	57	-1	9.80	9.80
Fixation R	1	10	8260668801	8260847792	178991	1237.54	703.33	18	57	-1	9.54	9.54
Saccade L	1	10	8260847792	8260887537	39745	1234.92	715.33	1584.94	675.17	3.39	209.84	0.50	85.24	5028.38	-4050.48	3905.54
Blink R	1	1	8260847792	8260927285	79493
Fixation L	1	11	8260887537	8261424532	536995	1595.28	691.92	61	35	-1	9.68	9.68
Fixation R	1	11	8260927285	8261524012	596727	1589.65	695.86	51	40	-1	10.71	10.71
Saccade L	1	11	8261424532	8261603635	179103	1572.66	704.17	687.22	267.56	15.86	317.21	0.78	88.54	7877.47	-6141.90	2584.47
Saccade R	1	10	8261524012	8261603635	79623	1563.42	715.09	687.22	267.56	11.82	317.21	0.50	148.48	7877.47	-6141.90	4643.01
Fixation L	1	12	8261603635	8261742751	139116	688.71	272.22	6	34	-1	8.82	8.82
Fixation R	1	12	8261603635	8261742751	139116	688.71	272.22	6	34	-1	11.18	11.18
Saccade L	1	12	8261742751	8261782617	39866	685.58	284.92	386.24	348.50	2.60	188.62	0.50	65.23	4571.21	-4555.52	3696.74
Saccade R	1	11	8261742751	8261782617	39866	685.58	284.92	386.24	348.50	2.60	188.62	0.50	65.23	4571.21	-4555.52	3696.74
Fixation L	1	13	8261782617	8262120753	338136	392.16	376.14	20	43	-1	8.99	8.99
Fixation R	1	13	8261782617	8262120753	338136	392.16	376.14	20	43	-1	11.50	11.50
