[BeGaze]
Converted from:	C:\Documents and Settings\iViewX\Desktop\EXPERIMENTATIONS\Experiments\results\finaleart\S19F21442-finaleart-1.idf
Date:	27.03.2019 15:51:13
Version:	BeGaze 2.5.77
Sample Rate:	50
Subject:	S19F21442
Description:	Juliette Veuillez

Table Header for Fixations:
Event Type	Trial	Number	Start	End	Duration	Location X	Location Y	Dispersion X	Dispersion Y	Plane	Avg. Pupil Size X	Avg. Pupil Size Y

Table Header for Saccades:
Event Type	Trial	Number	Start	End	Duration	Start Loc.X	Start Loc.Y	End Loc.X	End Loc.Y	Amplitude	Peak Speed	Peak Speed At	Average Speed	Peak Accel.	Peak Decel.	Average Accel.

Table Header for Blinks:
Event Type	Trial	Number	Start	End	Duration

Table Header for User Events:
Event Type	Trial	Number	Start	Description

UserEvent	1	1	7173282994	# Message: Houses_at_Chatou_Vlaminck_1905.jpg
Blink L	1	1	7173295957	7173435213	139256
Blink R	1	1	7173295957	7173435213	139256
Fixation L	1	1	7173435213	7173733561	298348	861.48	573.96	32	35	-1	11.29	11.29
Fixation R	1	1	7173435213	7173733561	298348	861.48	573.96	32	35	-1	12.27	12.27
Saccade L	1	1	7173733561	7173852929	119368	871.69	597.64	1016.52	505.12	4.11	163.62	1.00	34.42	2835.22	-3924.02	1245.79
Saccade R	1	1	7173733561	7173852929	119368	871.69	597.64	1016.52	505.12	4.11	163.62	1.00	34.42	2835.22	-3924.02	1245.79
Fixation L	1	2	7173852929	7174051838	198909	1023.33	476.41	11	51	-1	10.12	10.12
Fixation R	1	2	7173852929	7174051838	198909	1023.33	476.41	11	51	-1	10.83	10.83
Saccade L	1	2	7174051838	7174091541	39703	1024.09	456.97	844.02	336.63	2.39	156.00	0.50	60.16	3749.65	-2691.72	2186.72
Saccade R	1	2	7174051838	7174091541	39703	1024.09	456.97	844.02	336.63	2.39	156.00	0.50	60.16	3749.65	-2691.72	2186.72
Fixation L	1	3	7174091541	7174668395	576854	841.68	341.21	17	57	-1	9.41	9.41
Fixation R	1	3	7174091541	7174668395	576854	841.68	341.21	17	57	-1	10.24	10.24
Saccade L	1	3	7174668395	7174688263	19868	838.96	332.95	980.78	340.58	0.86	143.65	1.00	43.32	3380.22	-3320.56	2369.65
Saccade R	1	3	7174668395	7174688263	19868	838.96	332.95	980.78	340.58	0.86	143.65	1.00	43.32	3380.22	-3320.56	2369.65
Fixation L	1	4	7174688263	7174887146	198883	1003.20	355.92	30	28	-1	10.10	10.10
Fixation R	1	4	7174688263	7174887146	198883	1003.20	355.92	30	28	-1	10.90	10.90
Saccade L	1	4	7174887146	7174946887	59741	1010.97	368.86	1561.82	354.83	6.12	264.33	0.67	102.42	6291.53	-5872.48	4273.64
Saccade R	1	4	7174887146	7174946887	59741	1010.97	368.86	1561.82	354.83	6.12	264.33	0.67	102.42	6291.53	-5872.48	4273.64
Fixation L	1	5	7174946887	7175384358	437471	1531.77	370.79	38	57	-1	10.34	10.34
Fixation R	1	5	7174946887	7175384358	437471	1531.77	370.79	38	57	-1	10.84	10.84
Saccade L	1	5	7175384358	7175424255	39897	1530.05	388.84	1472.56	836.94	3.80	230.93	1.00	95.23	5630.72	-5537.51	5536.03
Saccade R	1	5	7175384358	7175424255	39897	1530.05	388.84	1472.56	836.94	3.80	230.93	1.00	95.23	5630.72	-5537.51	5536.03
Fixation L	1	6	7175424255	7175702604	278349	1458.32	852.70	30	25	-1	11.00	11.00
Fixation R	1	6	7175424255	7175702604	278349	1458.32	852.70	30	25	-1	11.15	11.15
Saccade L	1	6	7175702604	7175782221	79617	1452.19	856.68	592.55	837.94	10.22	299.57	0.50	128.36	7426.68	-6447.50	4619.69
Saccade R	1	6	7175702604	7175782221	79617	1452.19	856.68	592.55	837.94	10.22	299.57	0.50	128.36	7426.68	-6447.50	4619.69
Fixation L	1	7	7175782221	7175961216	178995	598.44	836.66	13	11	-1	10.26	10.26
Fixation R	1	7	7175782221	7175961216	178995	598.44	836.66	13	11	-1	11.34	11.34
Saccade L	1	7	7175961216	7176020840	59624	603.19	836.48	514.65	292.37	5.73	213.19	0.33	96.08	5319.94	-4831.09	4030.70
Saccade R	1	7	7175961216	7176020840	59624	603.19	836.48	514.65	292.37	5.73	213.19	0.33	96.08	5319.94	-4831.09	4030.70
Fixation L	1	8	7176020840	7176299317	278477	516.18	324.96	22	53	-1	9.78	9.78
Fixation R	1	8	7176020840	7176299317	278477	516.18	324.96	22	53	-1	10.87	10.87
Saccade L	1	8	7176299317	7176319196	19879	509.77	321.75	452.88	241.90	0.77	99.17	1.00	38.50	2358.00	-2338.07	1786.16
Saccade R	1	8	7176299317	7176319196	19879	509.77	321.75	452.88	241.90	0.77	99.17	1.00	38.50	2358.00	-2338.07	1786.16
Fixation L	1	9	7176319196	7176637439	318243	447.93	268.29	27	40	-1	9.84	9.84
Fixation R	1	9	7176319196	7176637439	318243	447.93	268.29	27	40	-1	11.19	11.19
Saccade L	1	9	7176637439	7176677304	39865	440.66	268.90	793.80	353.56	3.19	203.47	0.50	79.95	4965.29	-4640.08	4471.43
Saccade R	1	9	7176637439	7176677304	39865	440.66	268.90	793.80	353.56	3.19	203.47	0.50	79.95	4965.29	-4640.08	4471.43
Fixation L	1	10	7176677304	7177214282	536978	807.67	322.21	16	72	-1	10.87	10.87
Fixation R	1	10	7176677304	7177214282	536978	807.67	322.21	16	72	-1	12.02	12.02
Saccade L	1	10	7177214282	7177274035	59753	807.09	302.69	1203.12	502.88	5.70	233.53	0.67	95.43	5750.32	-3496.46	3453.08
Saccade R	1	10	7177214282	7177274035	59753	807.09	302.69	1203.12	502.88	5.70	233.53	0.67	95.43	5750.32	-3496.46	3453.08
