[BeGaze]
Converted from:	C:\Documents and Settings\iViewX\Desktop\EXPERIMENTATIONS\Experiments\results\finaleart\S19F21442-finaleart-1.idf
Date:	27.03.2019 15:50:26
Version:	BeGaze 2.5.77
Sample Rate:	50
Subject:	S19F21442
Description:	Juliette Veuillez

Table Header for Fixations:
Event Type	Trial	Number	Start	End	Duration	Location X	Location Y	Dispersion X	Dispersion Y	Plane	Avg. Pupil Size X	Avg. Pupil Size Y

Table Header for Saccades:
Event Type	Trial	Number	Start	End	Duration	Start Loc.X	Start Loc.Y	End Loc.X	End Loc.Y	Amplitude	Peak Speed	Peak Speed At	Average Speed	Peak Accel.	Peak Decel.	Average Accel.

Table Header for Blinks:
Event Type	Trial	Number	Start	End	Duration

Table Header for User Events:
Event Type	Trial	Number	Start	Description

UserEvent	1	1	6226314767	# Message: void.jpg
Saccade L	1	1	6226323532	6226403163	79631	1418.75	872.52	671.11	815.26	11.10	287.58	0.50	139.39	7189.56	-5810.53	3972.78
Saccade R	1	1	6226323532	6226403163	79631	1418.75	872.52	671.11	815.26	11.10	287.58	0.50	139.39	7189.56	-5810.53	3972.78
Fixation L	1	1	6226403163	6226701508	298345	682.56	812.71	21	24	-1	13.14	13.14
Fixation R	1	1	6226403163	6226701508	298345	682.56	812.71	21	24	-1	15.59	15.59
Saccade L	1	2	6226701508	6226721381	19873	692.60	815.32	704.83	564.37	1.57	254.00	1.00	79.09	6180.94	-5915.81	4446.10
Saccade R	1	2	6226701508	6226721381	19873	692.60	815.32	704.83	564.37	1.57	254.00	1.00	79.09	6180.94	-5915.81	4446.10
Fixation L	1	2	6226721381	6226820876	99495	714.34	507.34	14	81	-1	13.00	13.00
Fixation R	1	2	6226721381	6226820876	99495	714.34	507.34	14	81	-1	15.19	15.19
Saccade L	1	3	6226820876	6226840750	19874	718.91	482.73	722.81	480.86	0.15	10.69	1.00	7.57	67.01	-17.04	32.35
Saccade R	1	3	6226820876	6226840750	19874	718.91	482.73	722.81	480.86	0.15	10.69	1.00	7.57	67.01	-17.04	32.35
Fixation L	1	3	6226840750	6227417478	576728	735.76	489.88	31	59	-1	12.82	12.82
Fixation R	1	3	6226840750	6227417478	576728	735.76	489.88	31	59	-1	15.45	15.45
Saccade L	1	4	6227417478	6227437475	19997	754.18	529.93	762.19	539.82	0.28	22.71	0.00	14.11	173.25	-194.62	167.24
Saccade R	1	4	6227417478	6227437475	19997	754.18	529.93	762.19	539.82	0.28	22.71	0.00	14.11	173.25	-194.62	167.24
Fixation L	1	4	6227437475	6228312585	875110	771.99	559.85	26	50	-1	13.93	13.93
Fixation R	1	4	6227437475	6228312585	875110	771.99	559.85	26	50	-1	16.59	16.59
