[BeGaze]
Converted from:	C:\Documents and Settings\iViewX\Desktop\EXPERIMENTATIONS\Experiments\results\finaleart\S19F21442-finaleart-1.idf
Date:	27.03.2019 15:51:20
Version:	BeGaze 2.5.77
Sample Rate:	50
Subject:	S19F21442
Description:	Juliette Veuillez

Table Header for Fixations:
Event Type	Trial	Number	Start	End	Duration	Location X	Location Y	Dispersion X	Dispersion Y	Plane	Avg. Pupil Size X	Avg. Pupil Size Y

Table Header for Saccades:
Event Type	Trial	Number	Start	End	Duration	Start Loc.X	Start Loc.Y	End Loc.X	End Loc.Y	Amplitude	Peak Speed	Peak Speed At	Average Speed	Peak Accel.	Peak Decel.	Average Accel.

Table Header for Blinks:
Event Type	Trial	Number	Start	End	Duration

Table Header for User Events:
Event Type	Trial	Number	Start	Description

UserEvent	1	1	7228410307	# Message: La_Danse_Matisse_1909.jpg
Fixation L	1	1	7228411439	7228789435	377996	725.58	648.91	9	8	-1	12.15	12.15
Fixation R	1	1	7228411439	7228789435	377996	725.58	648.91	9	8	-1	14.19	14.19
Saccade L	1	1	7228789435	7228829174	39739	727.10	653.27	832.47	364.30	2.70	195.29	1.00	67.92	4717.99	-4506.91	3686.24
Saccade R	1	1	7228789435	7228829174	39739	727.10	653.27	832.47	364.30	2.70	195.29	1.00	67.92	4717.99	-4506.91	3686.24
Fixation L	1	2	7228829174	7229028033	198859	853.08	328.14	28	57	-1	11.70	11.70
Fixation R	1	2	7228829174	7229028033	198859	853.08	328.14	28	57	-1	13.72	13.72
Saccade L	1	2	7229028033	7229047891	19858	854.39	307.18	858.20	135.14	1.09	174.02	1.00	54.80	4063.74	-3977.79	2737.16
Saccade R	1	2	7229028033	7229047891	19858	854.39	307.18	858.20	135.14	1.09	174.02	1.00	54.80	4063.74	-3977.79	2737.16
Fixation L	1	3	7229047891	7229286634	238743	839.46	148.81	28	35	-1	9.82	9.82
Fixation R	1	3	7229047891	7229286634	238743	839.46	148.81	28	35	-1	11.33	11.33
Saccade L	1	3	7229286634	7229306524	19890	844.36	158.44	896.96	206.78	0.54	72.26	1.00	27.32	1714.46	-1040.36	944.45
Saccade R	1	3	7229286634	7229306524	19890	844.36	158.44	896.96	206.78	0.54	72.26	1.00	27.32	1714.46	-1040.36	944.45
Fixation L	1	4	7229306524	7229505374	198850	906.44	241.83	15	49	-1	9.44	9.44
Fixation R	1	4	7229306524	7229505374	198850	906.44	241.83	15	49	-1	10.54	10.54
Saccade L	1	4	7229505374	7229525264	19890	909.06	242.33	907.90	142.45	0.57	101.04	1.00	28.52	2446.35	-2022.46	1555.65
Saccade R	1	4	7229505374	7229525264	19890	909.06	242.33	907.90	142.45	0.57	101.04	1.00	28.52	2446.35	-2022.46	1555.65
Fixation L	1	5	7229525264	7229664498	139234	904.57	154.13	7	28	-1	9.40	9.40
Fixation R	1	5	7229525264	7229664498	139234	904.57	154.13	7	28	-1	10.51	10.51
Saccade L	1	5	7229664498	7229744117	79619	905.18	150.25	1698.23	515.14	10.84	280.08	0.75	136.11	6575.43	-6794.99	4490.26
Saccade R	1	5	7229664498	7229744117	79619	905.18	150.25	1698.23	515.14	10.84	280.08	0.75	136.11	6575.43	-6794.99	4490.26
Fixation L	1	6	7229744117	7230082223	338106	1683.33	520.95	26	23	-1	9.93	9.93
Fixation R	1	6	7229744117	7230082223	338106	1683.33	520.95	26	23	-1	10.54	10.54
Saccade L	1	6	7230082223	7230141848	59625	1678.55	524.81	1392.64	56.04	6.05	288.60	0.67	101.42	7067.07	-6653.53	4769.78
Saccade R	1	6	7230082223	7230141848	59625	1678.55	524.81	1392.64	56.04	6.05	288.60	0.67	101.42	7067.07	-6653.53	4769.78
Fixation L	1	7	7230141848	7230480079	338231	1372.15	65.04	30	36	-1	9.56	9.56
Fixation R	1	7	7230141848	7230480079	338231	1372.15	65.04	30	36	-1	10.22	10.22
Saccade L	1	7	7230480079	7230559584	79505	1363.94	71.22	1549.10	980.59	12.14	413.47	0.50	152.67	10244.91	-9010.48	5419.43
Saccade R	1	7	7230480079	7230559584	79505	1363.94	71.22	1549.10	980.59	12.14	413.47	0.50	152.67	10244.91	-9010.48	5419.43
Fixation L	1	8	7230559584	7230798317	238733	1573.93	1022.62	44	55	-1	10.56	10.56
Fixation R	1	8	7230559584	7230798317	238733	1573.93	1022.62	44	55	-1	10.76	10.76
Saccade L	1	8	7230798317	7230818197	19880	1581.41	1025.28	1602.86	1036.04	0.25	24.27	1.00	12.49	537.11	-335.37	331.90
Saccade R	1	8	7230798317	7230818197	19880	1581.41	1025.28	1602.86	1036.04	0.25	24.27	1.00	12.49	537.11	-335.37	331.90
Fixation L	1	9	7230818197	7231474540	656343	1618.48	1058.47	60	30	-1	9.68	9.68
Fixation R	1	9	7230818197	7231474540	656343	1618.48	1058.47	60	30	-1	9.72	9.72
Saccade L	1	9	7231474540	7231593912	119372	1641.91	1057.36	434.85	480.53	19.31	335.58	0.33	161.74	8263.47	-5272.23	3512.22
Blink R	1	1	7231474540	7231633658	159118
Fixation L	1	10	7231593912	7231812653	218741	442.29	476.14	46	32	-1	9.20	9.20
Fixation R	1	10	7231633658	7231812653	178995	446.01	477.70	40	32	-1	10.54	10.54
Saccade L	1	10	7231812653	7231832526	19873	456.36	479.67	470.56	358.71	1.10	123.20	1.00	55.27	2737.96	-2832.73	2271.05
Saccade R	1	9	7231812653	7231832526	19873	456.36	479.67	470.56	358.71	1.10	123.20	1.00	55.27	2737.96	-2832.73	2271.05
Fixation L	1	11	7231832526	7231971771	139245	493.67	314.21	35	63	-1	9.03	9.03
Fixation R	1	11	7231832526	7231971771	139245	493.67	314.21	35	63	-1	10.50	10.50
Saccade L	1	11	7231971771	7232071266	99495	506.47	312.35	846.66	172.48	5.32	269.13	0.80	53.44	6405.16	-6352.15	2475.72
Saccade R	1	10	7231971771	7232071266	99495	506.47	312.35	846.66	172.48	5.32	269.13	0.80	53.44	6405.16	-6352.15	2475.72
Fixation L	1	12	7232071266	7232409374	338108	849.30	138.71	12	52	-1	9.39	9.39
Fixation R	1	12	7232071266	7232409374	338108	849.30	138.71	12	52	-1	10.85	10.85
