[BeGaze]
Converted from:	C:\Documents and Settings\iViewX\Desktop\EXPERIMENTATIONS\Experiments\results\finaleart\S19F21442-finaleart-1.idf
Date:	27.03.2019 15:51:01
Version:	BeGaze 2.5.77
Sample Rate:	50
Subject:	S19F21442
Description:	Juliette Veuillez

Table Header for Fixations:
Event Type	Trial	Number	Start	End	Duration	Location X	Location Y	Dispersion X	Dispersion Y	Plane	Avg. Pupil Size X	Avg. Pupil Size Y

Table Header for Saccades:
Event Type	Trial	Number	Start	End	Duration	Start Loc.X	Start Loc.Y	End Loc.X	End Loc.Y	Amplitude	Peak Speed	Peak Speed At	Average Speed	Peak Accel.	Peak Decel.	Average Accel.

Table Header for Blinks:
Event Type	Trial	Number	Start	End	Duration

Table Header for User Events:
Event Type	Trial	Number	Start	Description

UserEvent	1	1	6770022822	# Message: kneeling-nude_degas_1888.jpg
Fixation L	1	1	6770025676	6770463308	437632	1003.42	637.79	4	23	-1	11.24	11.24
Fixation R	1	1	6770025676	6770463308	437632	1003.42	637.79	4	23	-1	12.38	12.38
Saccade L	1	1	6770463308	6770503036	39728	1004.66	641.00	696.97	393.33	3.27	259.68	0.50	82.24	6309.64	-6443.13	4885.49
Saccade R	1	1	6770463308	6770503036	39728	1004.66	641.00	696.97	393.33	3.27	259.68	0.50	82.24	6309.64	-6443.13	4885.49
Fixation L	1	2	6770503036	6770821268	318232	704.32	398.84	18	67	-1	9.31	9.31
Fixation R	1	2	6770503036	6770821268	318232	704.32	398.84	18	67	-1	10.43	10.43
Saccade L	1	2	6770821268	6770841134	19866	693.43	346.34	686.27	205.33	1.03	142.80	1.00	51.66	3478.21	-3412.52	2627.48
Saccade R	1	2	6770821268	6770841134	19866	693.43	346.34	686.27	205.33	1.03	142.80	1.00	51.66	3478.21	-3412.52	2627.48
Fixation L	1	3	6770841134	6771020128	178994	668.25	214.38	30	30	-1	7.58	7.58
Fixation R	1	3	6770841134	6771020128	178994	668.25	214.38	30	30	-1	8.51	8.51
Saccade L	1	3	6771020128	6771060006	39878	656.18	230.15	964.14	679.69	4.64	283.34	0.50	116.28	6926.84	-6862.58	6732.52
Saccade R	1	3	6771020128	6771060006	39878	656.18	230.15	964.14	679.69	4.64	283.34	0.50	116.28	6926.84	-6862.58	6732.52
Fixation L	1	4	6771060006	6771278736	218730	964.61	700.58	16	60	-1	8.09	8.09
Fixation R	1	4	6771060006	6771278736	218730	964.61	700.58	16	60	-1	8.43	8.43
Saccade L	1	4	6771278736	6771298614	19878	967.12	711.20	929.13	734.90	0.48	45.29	1.00	24.06	289.58	-1068.64	505.49
Saccade R	1	4	6771278736	6771298614	19878	967.12	711.20	929.13	734.90	0.48	45.29	1.00	24.06	289.58	-1068.64	505.49
Fixation L	1	5	6771298614	6771437864	139250	932.39	750.13	31	27	-1	9.13	9.13
Fixation R	1	5	6771298614	6771437864	139250	932.39	750.13	31	27	-1	9.63	9.63
Saccade L	1	5	6771437864	6771457731	19867	950.74	762.21	1194.49	785.80	1.57	247.58	1.00	78.93	5759.42	-5874.72	4056.25
Saccade R	1	5	6771437864	6771457731	19867	950.74	762.21	1194.49	785.80	1.57	247.58	1.00	78.93	5759.42	-5874.72	4056.25
Fixation L	1	6	6771457731	6771756101	298370	1205.11	811.99	31	64	-1	9.39	9.39
Fixation R	1	6	6771457731	6771756101	298370	1205.11	811.99	31	64	-1	9.07	9.07
Saccade L	1	6	6771756101	6771775972	19871	1182.90	834.56	1203.41	841.88	0.39	32.17	0.00	19.46	526.54	-237.21	255.37
Saccade R	1	6	6771756101	6771775972	19871	1182.90	834.56	1203.41	841.88	0.39	32.17	0.00	19.46	526.54	-237.21	255.37
Fixation L	1	7	6771775972	6772074365	298393	1175.27	830.92	41	36	-1	9.19	9.19
Fixation R	1	7	6771775972	6772074365	298393	1175.27	830.92	41	36	-1	8.94	8.94
Saccade L	1	7	6772074365	6772094217	19852	1171.29	821.07	1352.06	946.49	1.37	222.46	1.00	68.98	5457.63	-5412.51	3856.65
Saccade R	1	7	6772074365	6772094217	19852	1171.29	821.07	1352.06	946.49	1.37	222.46	1.00	68.98	5457.63	-5412.51	3856.65
Fixation L	1	8	6772094217	6772352830	258613	1387.75	954.07	44	32	-1	9.65	9.65
Fixation R	1	8	6772094217	6772352830	258613	1387.75	954.07	44	32	-1	9.37	9.37
Saccade L	1	8	6772352830	6772372689	19859	1397.00	965.45	1513.98	974.15	0.66	118.65	1.00	32.99	2867.91	-2818.29	1933.43
Saccade R	1	8	6772352830	6772372689	19859	1397.00	965.45	1513.98	974.15	0.66	118.65	1.00	32.99	2867.91	-2818.29	1933.43
Fixation L	1	9	6772372689	6772472196	99507	1517.27	975.28	6	5	-1	9.68	9.68
Fixation R	1	9	6772372689	6772472196	99507	1517.27	975.28	6	5	-1	9.33	9.33
Saccade L	1	9	6772472196	6772511939	39743	1520.20	977.22	1434.19	548.95	3.83	233.84	1.00	96.26	5813.78	-5469.63	5188.24
Saccade R	1	9	6772472196	6772511939	39743	1520.20	977.22	1434.19	548.95	3.83	233.84	1.00	96.26	5813.78	-5469.63	5188.24
Fixation L	1	10	6772511939	6772651181	139242	1422.81	505.90	23	76	-1	9.56	9.56
Fixation R	1	10	6772511939	6772651181	139242	1422.81	505.90	23	76	-1	9.53	9.53
Saccade L	1	10	6772651181	6772671063	19882	1412.07	498.26	1427.73	227.27	1.84	274.39	1.00	92.47	6526.65	-6664.02	5054.62
Saccade R	1	10	6772651181	6772671063	19882	1412.07	498.26	1427.73	227.27	1.84	274.39	1.00	92.47	6526.65	-6664.02	5054.62
Fixation L	1	11	6772671063	6772949542	278479	1425.82	153.38	12	87	-1	8.50	8.50
Fixation R	1	11	6772671063	6772949542	278479	1425.82	153.38	12	87	-1	8.77	8.77
Saccade L	1	11	6772949542	6772969414	19872	1421.15	148.31	1409.83	154.19	0.19	12.91	1.00	9.34	183.66	-85.03	139.42
Saccade R	1	11	6772949542	6772969414	19872	1421.15	148.31	1409.83	154.19	0.19	12.91	1.00	9.34	183.66	-85.03	139.42
Fixation L	1	12	6772969414	6773148414	179000	1408.23	173.26	16	34	-1	8.29	8.29
Fixation R	1	12	6772969414	6773148414	179000	1408.23	173.26	16	34	-1	8.39	8.39
Saccade L	1	12	6773148414	6773287652	139238	1404.83	187.23	655.34	836.01	18.24	314.81	0.29	131.03	7837.58	-3979.57	3066.37
Saccade R	1	12	6773148414	6773287652	139238	1404.83	187.23	655.34	836.01	18.24	314.81	0.29	131.03	7837.58	-3979.57	3066.37
Fixation L	1	13	6773287652	6773486523	198871	659.09	879.67	17	77	-1	9.01	9.01
Fixation R	1	13	6773287652	6773486523	198871	659.09	879.67	17	77	-1	10.64	10.64
Saccade L	1	13	6773486523	6773546273	59750	665.95	898.00	607.13	737.79	4.03	167.37	0.33	67.49	4143.26	-2364.77	2590.20
Saccade R	1	13	6773486523	6773546273	59750	665.95	898.00	607.13	737.79	4.03	167.37	0.33	67.49	4143.26	-2364.77	2590.20
Fixation L	1	14	6773546273	6773705394	159121	599.46	711.72	12	35	-1	8.93	8.93
Fixation R	1	14	6773546273	6773705394	159121	599.46	711.72	12	35	-1	10.31	10.31
Saccade L	1	14	6773705394	6773745157	39763	597.20	702.80	359.74	633.67	2.11	173.80	0.50	52.96	4159.71	-4197.95	2921.35
Saccade R	1	14	6773705394	6773745157	39763	597.20	702.80	359.74	633.67	2.11	173.80	0.50	52.96	4159.71	-4197.95	2921.35
Fixation L	1	15	6773745157	6773904264	159107	338.11	617.21	40	33	-1	8.90	8.90
Fixation R	1	15	6773745157	6773904264	159107	338.11	617.21	40	33	-1	9.80	9.80
Saccade L	1	15	6773904264	6774003627	99363	339.94	604.42	842.98	726.90	8.45	316.84	0.20	85.02	7880.42	-7210.47	4139.40
Saccade R	1	15	6773904264	6774003627	99363	339.94	604.42	842.98	726.90	8.45	316.84	0.20	85.02	7880.42	-7210.47	4139.40
