[BeGaze]
Converted from:	C:\Documents and Settings\iViewX\Desktop\EXPERIMENTATIONS\Experiments\results\finaleart\S19F21442-finaleart-1.idf
Date:	27.03.2019 15:51:11
Version:	BeGaze 2.5.77
Sample Rate:	50
Subject:	S19F21442
Description:	Juliette Veuillez

Table Header for Fixations:
Event Type	Trial	Number	Start	End	Duration	Location X	Location Y	Dispersion X	Dispersion Y	Plane	Avg. Pupil Size X	Avg. Pupil Size Y

Table Header for Saccades:
Event Type	Trial	Number	Start	End	Duration	Start Loc.X	Start Loc.Y	End Loc.X	End Loc.Y	Amplitude	Peak Speed	Peak Speed At	Average Speed	Peak Accel.	Peak Decel.	Average Accel.

Table Header for Blinks:
Event Type	Trial	Number	Start	End	Duration

Table Header for User Events:
Event Type	Trial	Number	Start	Description

UserEvent	1	1	7161063828	# Message: cross-La-fuite-des-nymphes-1906.jpg
Fixation L	1	1	7161083367	7161481224	397857	900.77	595.20	23	20	-1	12.55	12.55
Fixation R	1	1	7161083367	7161481224	397857	900.77	595.20	23	20	-1	14.46	14.46
Saccade L	1	1	7161481224	7161520985	39761	894.24	591.58	1259.10	586.93	3.07	252.96	0.50	77.18	6263.90	-6050.23	4459.78
Saccade R	1	1	7161481224	7161520985	39761	894.24	591.58	1259.10	586.93	3.07	252.96	0.50	77.18	6263.90	-6050.23	4459.78
Fixation L	1	2	7161520985	7161680107	159122	1250.78	590.13	17	5	-1	11.43	11.43
Fixation R	1	2	7161520985	7161680107	159122	1250.78	590.13	17	5	-1	13.08	13.08
Saccade L	1	2	7161680107	7161699959	19852	1244.59	591.73	1112.24	470.72	1.32	181.35	1.00	66.37	4489.42	-3716.99	3225.16
Saccade R	1	2	7161680107	7161699959	19852	1244.59	591.73	1112.24	470.72	1.32	181.35	1.00	66.37	4489.42	-3716.99	3225.16
Fixation L	1	3	7161699959	7161799453	99494	1092.69	429.51	26	66	-1	9.61	9.61
Fixation R	1	3	7161699959	7161799453	99494	1092.69	429.51	26	66	-1	11.05	11.05
Saccade L	1	3	7161799453	7161819322	19869	1090.26	405.75	1092.52	393.53	0.24	17.64	0.00	12.02	-66.39	-375.24	215.08
Saccade R	1	3	7161799453	7161819322	19869	1090.26	405.75	1092.52	393.53	0.24	17.64	0.00	12.02	-66.39	-375.24	215.08
Fixation L	1	4	7161819322	7161918822	99500	1093.93	397.58	7	21	-1	9.30	9.30
Fixation R	1	4	7161819322	7161918822	99500	1093.93	397.58	7	21	-1	10.42	10.42
Saccade L	1	4	7161918822	7161938701	19879	1098.67	412.79	1277.80	545.67	1.52	225.51	1.00	76.41	5593.87	-5406.83	3949.49
Saccade R	1	4	7161918822	7161938701	19879	1098.67	412.79	1277.80	545.67	1.52	225.51	1.00	76.41	5593.87	-5406.83	3949.49
Fixation L	1	5	7161938701	7162197310	258609	1310.96	593.20	39	60	-1	9.82	9.82
Fixation R	1	5	7161938701	7162197310	258609	1310.96	593.20	39	60	-1	10.77	10.77
Saccade L	1	5	7162197310	7162217190	19880	1308.59	603.97	1307.04	610.37	0.07	6.66	1.00	3.37	89.77	-60.70	58.49
Saccade R	1	5	7162197310	7162217190	19880	1308.59	603.97	1307.04	610.37	0.07	6.66	1.00	3.37	89.77	-60.70	58.49
Fixation L	1	6	7162217190	7162376310	159120	1297.77	617.23	19	14	-1	10.52	10.52
Fixation R	1	6	7162217190	7162376310	159120	1297.77	617.23	19	14	-1	11.56	11.56
Saccade L	1	6	7162376310	7162416049	39739	1287.54	619.50	1315.08	309.54	2.76	233.68	1.00	69.48	5726.52	-5610.65	3671.44
Saccade R	1	6	7162376310	7162416049	39739	1287.54	619.50	1315.08	309.54	2.76	233.68	1.00	69.48	5726.52	-5610.65	3671.44
Fixation L	1	7	7162416049	7162953157	537108	1344.79	326.12	35	44	-1	10.58	10.58
Fixation R	1	7	7162416049	7162953157	537108	1344.79	326.12	35	44	-1	11.67	11.67
Saccade L	1	7	7162953157	7162992899	39742	1345.67	342.96	1034.87	422.92	2.69	197.37	1.00	67.70	4911.73	-4327.31	3882.79
Saccade R	1	7	7162953157	7162992899	39742	1345.67	342.96	1034.87	422.92	2.69	197.37	1.00	67.70	4911.73	-4327.31	3882.79
Fixation L	1	8	7162992899	7163410502	417603	1028.49	448.60	14	58	-1	11.28	11.28
Fixation R	1	8	7162992899	7163410502	417603	1028.49	448.60	14	58	-1	12.53	12.53
Saccade L	1	8	7163410502	7163450406	39904	1034.85	458.58	885.27	874.83	4.04	329.45	0.50	101.26	8089.15	-7370.11	5317.41
Saccade R	1	8	7163410502	7163450406	39904	1034.85	458.58	885.27	874.83	4.04	329.45	0.50	101.26	8089.15	-7370.11	5317.41
Fixation L	1	9	7163450406	7163967486	517080	857.02	875.55	42	56	-1	10.98	10.98
Fixation R	1	9	7163450406	7163967486	517080	857.02	875.55	42	56	-1	12.43	12.43
Saccade L	1	9	7163967486	7164007226	39740	883.61	846.45	1276.71	863.00	3.43	266.93	0.50	86.24	6469.26	-6628.57	4590.80
Saccade R	1	9	7163967486	7164007226	39740	883.61	846.45	1276.71	863.00	3.43	266.93	0.50	86.24	6469.26	-6628.57	4590.80
Fixation L	1	10	7164007226	7164265851	258625	1264.74	894.58	21	44	-1	10.39	10.39
Fixation R	1	10	7164007226	7164265851	258625	1264.74	894.58	21	44	-1	11.00	11.00
Saccade L	1	10	7164265851	7164285721	19870	1274.40	893.50	1292.14	671.81	1.26	224.86	1.00	63.56	5565.50	-5439.85	3737.43
Saccade R	1	10	7164265851	7164285721	19870	1274.40	893.50	1292.14	671.81	1.26	224.86	1.00	63.56	5565.50	-5439.85	3737.43
Fixation L	1	11	7164285721	7164484591	198870	1296.45	689.09	16	27	-1	10.31	10.31
Fixation R	1	11	7164285721	7164484591	198870	1296.45	689.09	16	27	-1	11.02	11.02
Saccade L	1	11	7164484591	7164544339	59748	1297.73	699.45	557.13	760.54	7.74	311.32	0.67	129.49	7715.21	-7440.29	5414.17
Saccade R	1	11	7164484591	7164544339	59748	1297.73	699.45	557.13	760.54	7.74	311.32	0.67	129.49	7715.21	-7440.29	5414.17
Fixation L	1	12	7164544339	7164842696	298357	558.74	769.68	11	38	-1	10.04	10.04
Fixation R	1	12	7164544339	7164842696	298357	558.74	769.68	11	38	-1	11.87	11.87
Saccade L	1	12	7164842696	7164862573	19877	560.71	743.05	685.20	543.98	1.42	237.39	1.00	71.45	5904.07	-5895.68	4118.56
Saccade R	1	12	7164842696	7164862573	19877	560.71	743.05	685.20	543.98	1.42	237.39	1.00	71.45	5904.07	-5895.68	4118.56
Fixation L	1	13	7164862573	7165061440	198867	695.69	528.41	14	25	-1	9.70	9.70
Fixation R	1	13	7164862573	7165061440	198867	695.69	528.41	14	25	-1	11.80	11.80
