[BeGaze]
Converted from:	C:\Documents and Settings\iViewX\Desktop\EXPERIMENTATIONS\Experiments\results\finaleart\S19F21442-finaleart-1.idf
Date:	27.03.2019 15:51:05
Version:	BeGaze 2.5.77
Sample Rate:	50
Subject:	S19F21442
Description:	Juliette Veuillez

Table Header for Fixations:
Event Type	Trial	Number	Start	End	Duration	Location X	Location Y	Dispersion X	Dispersion Y	Plane	Avg. Pupil Size X	Avg. Pupil Size Y

Table Header for Saccades:
Event Type	Trial	Number	Start	End	Duration	Start Loc.X	Start Loc.Y	End Loc.X	End Loc.Y	Amplitude	Peak Speed	Peak Speed At	Average Speed	Peak Accel.	Peak Decel.	Average Accel.

Table Header for Blinks:
Event Type	Trial	Number	Start	End	Duration

Table Header for User Events:
Event Type	Trial	Number	Start	Description

UserEvent	1	1	7110123863	# Message: void.jpg
Fixation L	1	1	7110124967	7110323842	198875	267.16	746.06	14	22	-1	10.22	10.22
Fixation R	1	1	7110124967	7110323842	198875	267.16	746.06	14	22	-1	11.81	11.81
Saccade L	1	1	7110323842	7110403442	79600	264.42	737.97	1066.38	914.80	10.17	297.46	0.50	127.77	7287.29	-5998.41	4283.54
Saccade R	1	1	7110323842	7110403442	79600	264.42	737.97	1066.38	914.80	10.17	297.46	0.50	127.77	7287.29	-5998.41	4283.54
Fixation L	1	2	7110403442	7111199032	795590	1069.42	916.70	32	54	-1	10.37	10.37
Fixation R	1	2	7110403442	7111199032	795590	1069.42	916.70	32	54	-1	10.59	10.59
Saccade L	1	2	7111199032	7111218914	19882	1067.04	932.63	1085.64	803.59	0.86	131.87	1.00	43.42	2977.60	-2875.31	2044.05
Saccade R	1	2	7111199032	7111218914	19882	1067.04	932.63	1085.64	803.59	0.86	131.87	1.00	43.42	2977.60	-2875.31	2044.05
Fixation L	1	3	7111218914	7111716135	497221	1114.96	811.31	42	49	-1	10.84	10.84
Fixation R	1	3	7111218914	7111716135	497221	1114.96	811.31	42	49	-1	10.81	10.81
Saccade L	1	3	7111716135	7111736014	19879	1081.78	778.05	1087.47	680.69	1.03	98.65	1.00	51.62	2354.77	-1252.49	1343.04
Saccade R	1	3	7111716135	7111736014	19879	1081.78	778.05	1087.47	680.69	1.03	98.65	1.00	51.62	2354.77	-1252.49	1343.04
Fixation L	1	4	7111736014	7112014504	278490	1051.81	656.84	49	42	-1	11.12	11.12
Fixation R	1	4	7111736014	7112014504	278490	1051.81	656.84	49	42	-1	11.36	11.36
Saccade L	1	4	7112014504	7112113996	99492	1038.40	655.91	948.70	596.68	2.25	70.76	0.20	22.58	1751.98	-1529.27	793.16
Saccade R	1	4	7112014504	7112113996	99492	1038.40	655.91	948.70	596.68	2.25	70.76	0.20	22.58	1751.98	-1529.27	793.16
