[BeGaze]
Converted from:	C:\Documents and Settings\iViewX\Desktop\EXPERIMENTATIONS\Experiments\results\finaleart\S19F21442-finaleart-1.idf
Date:	27.03.2019 15:51:36
Version:	BeGaze 2.5.77
Sample Rate:	50
Subject:	S19F21442
Description:	Juliette Veuillez

Table Header for Fixations:
Event Type	Trial	Number	Start	End	Duration	Location X	Location Y	Dispersion X	Dispersion Y	Plane	Avg. Pupil Size X	Avg. Pupil Size Y

Table Header for Saccades:
Event Type	Trial	Number	Start	End	Duration	Start Loc.X	Start Loc.Y	End Loc.X	End Loc.Y	Amplitude	Peak Speed	Peak Speed At	Average Speed	Peak Accel.	Peak Decel.	Average Accel.

Table Header for Blinks:
Event Type	Trial	Number	Start	End	Duration

Table Header for User Events:
Event Type	Trial	Number	Start	Description

UserEvent	1	1	7722015262	# Message: Kiprensky-two-sitters-1800.jpg
Fixation L	1	1	7722030785	7722130156	99371	763.61	576.38	45	48	-1	11.38	11.38
Fixation R	1	1	7722030785	7722130156	99371	763.61	576.38	45	48	-1	12.77	12.77
Saccade L	1	1	7722130156	7722150105	19949	793.82	545.27	793.77	529.75	0.43	54.00	1.00	21.63	-15.05	-957.57	450.11
Saccade R	1	1	7722130156	7722150105	19949	793.82	545.27	793.77	529.75	0.43	54.00	1.00	21.63	-15.05	-957.57	450.11
Fixation L	1	2	7722150105	7722468408	318303	807.41	562.01	26	49	-1	11.43	11.43
Fixation R	1	2	7722150105	7722468408	318303	807.41	562.01	26	49	-1	12.60	12.60
Saccade L	1	2	7722468408	7722508143	39735	819.88	568.93	1123.27	221.57	3.96	346.32	0.50	99.59	8639.53	-8358.41	5723.34
Saccade R	1	2	7722468408	7722508143	39735	819.88	568.93	1123.27	221.57	3.96	346.32	0.50	99.59	8639.53	-8358.41	5723.34
Fixation L	1	3	7722508143	7722667245	159102	1132.90	193.56	15	70	-1	10.65	10.65
Fixation R	1	3	7722508143	7722667245	159102	1132.90	193.56	15	70	-1	11.22	11.22
Saccade L	1	3	7722667245	7722706998	39753	1136.61	150.84	1061.25	58.17	1.33	101.76	1.00	33.35	2254.75	-1655.46	1062.31
Saccade R	1	3	7722667245	7722706998	39753	1136.61	150.84	1061.25	58.17	1.33	101.76	1.00	33.35	2254.75	-1655.46	1062.31
Fixation L	1	4	7722706998	7722846238	139240	1057.08	79.95	21	51	-1	9.21	9.21
Fixation R	1	4	7722706998	7722846238	139240	1057.08	79.95	21	51	-1	9.66	9.66
Saccade L	1	4	7722846238	7722905866	59628	1045.27	82.58	584.04	531.98	7.18	374.44	0.67	120.34	8962.43	-8830.15	4700.39
Saccade R	1	4	7722846238	7722905866	59628	1045.27	82.58	584.04	531.98	7.18	374.44	0.67	120.34	8962.43	-8830.15	4700.39
Fixation L	1	5	7722905866	7723124743	218877	589.50	539.32	28	29	-1	9.67	9.67
Fixation R	1	5	7722905866	7723124743	218877	589.50	539.32	28	29	-1	10.09	10.09
Saccade L	1	5	7723124743	7723164481	39738	608.53	544.42	875.01	550.46	2.36	216.32	0.50	59.45	5334.37	-5060.35	3063.67
Saccade R	1	5	7723124743	7723164481	39738	608.53	544.42	875.01	550.46	2.36	216.32	0.50	59.45	5334.37	-5060.35	3063.67
Fixation L	1	6	7723164481	7723502586	338105	905.07	562.88	43	38	-1	10.60	10.60
Fixation R	1	6	7723164481	7723502586	338105	905.07	562.88	43	38	-1	11.23	11.23
Saccade L	1	6	7723502586	7723562336	59750	898.48	562.26	408.63	550.99	5.21	222.53	0.67	87.19	5540.83	-4979.60	3808.30
Saccade R	1	6	7723502586	7723562336	59750	898.48	562.26	408.63	550.99	5.21	222.53	0.67	87.19	5540.83	-4979.60	3808.30
Fixation L	1	7	7723562336	7723979942	417606	444.65	559.13	44	40	-1	11.22	11.22
Fixation R	1	7	7723562336	7723979942	417606	444.65	559.13	44	40	-1	12.37	12.37
Saccade L	1	7	7723979942	7723999818	19876	435.54	585.41	449.38	618.28	0.44	36.08	1.00	22.18	857.64	-402.39	461.39
Saccade R	1	7	7723979942	7723999818	19876	435.54	585.41	449.38	618.28	0.44	36.08	1.00	22.18	857.64	-402.39	461.39
Fixation L	1	8	7723999818	7724139067	139249	433.79	622.81	28	42	-1	11.28	11.28
Fixation R	1	8	7723999818	7724139067	139249	433.79	622.81	28	42	-1	12.54	12.54
Saccade L	1	8	7724139067	7724178940	39873	427.18	615.18	929.23	575.13	4.62	266.74	0.50	115.79	6275.62	-5708.48	5840.30
Saccade R	1	8	7724139067	7724178940	39873	427.18	615.18	929.23	575.13	4.62	266.74	0.50	115.79	6275.62	-5708.48	5840.30
Fixation L	1	9	7724178940	7724497182	318242	970.81	549.44	49	42	-1	11.66	11.66
Fixation R	1	9	7724178940	7724497182	318242	970.81	549.44	49	42	-1	12.38	12.38
Saccade L	1	9	7724497182	7724517046	19864	971.94	532.86	974.75	519.07	0.13	14.24	1.00	6.63	313.81	-40.93	121.66
Saccade R	1	9	7724497182	7724517046	19864	971.94	532.86	974.75	519.07	0.13	14.24	1.00	6.63	313.81	-40.93	121.66
Fixation L	1	10	7724517046	7724795408	278362	975.92	512.47	7	40	-1	11.78	11.78
Fixation R	1	10	7724517046	7724795408	278362	975.92	512.47	7	40	-1	12.33	12.33
Saccade L	1	10	7724795408	7724815407	19999	980.69	483.28	995.80	174.58	1.92	312.35	1.00	95.82	7745.56	-7378.28	5156.82
Saccade R	1	10	7724795408	7724815407	19999	980.69	483.28	995.80	174.58	1.92	312.35	1.00	95.82	7745.56	-7378.28	5156.82
Fixation L	1	11	7724815407	7725014273	198866	1020.65	130.05	37	60	-1	11.45	11.45
Fixation R	1	11	7724815407	7725014273	198866	1020.65	130.05	37	60	-1	12.27	12.27
Saccade L	1	11	7725014273	7725034149	19876	1032.97	114.18	1037.30	110.72	0.11	6.92	0.00	5.36	43.31	-108.54	56.93
Saccade R	1	11	7725014273	7725034149	19876	1032.97	114.18	1037.30	110.72	0.11	6.92	0.00	5.36	43.31	-108.54	56.93
Fixation L	1	12	7725034149	7725272886	238737	1040.80	117.33	12	16	-1	11.59	11.59
Fixation R	1	12	7725034149	7725272886	238737	1040.80	117.33	12	16	-1	12.19	12.19
Saccade L	1	12	7725272886	7725332509	59623	1032.87	113.13	1322.35	640.43	6.69	310.47	0.67	112.29	7442.54	-7134.29	4405.16
Saccade R	1	12	7725272886	7725332509	59623	1032.87	113.13	1322.35	640.43	6.69	310.47	0.67	112.29	7442.54	-7134.29	4405.16
Fixation L	1	13	7725332509	7725750246	417737	1302.79	634.77	24	62	-1	12.17	12.17
Fixation R	1	13	7725332509	7725750246	417737	1302.79	634.77	24	62	-1	12.34	12.34
Saccade L	1	13	7725750246	7725789984	39738	1302.06	630.82	1368.46	969.84	3.02	218.75	0.50	75.91	5429.56	-4918.20	4114.02
Saccade R	1	13	7725750246	7725789984	39738	1302.06	630.82	1368.46	969.84	3.02	218.75	0.50	75.91	5429.56	-4918.20	4114.02
Fixation L	1	14	7725789984	7726008732	218748	1396.42	965.39	38	14	-1	11.89	11.89
Fixation R	1	14	7725789984	7726008732	218748	1396.42	965.39	38	14	-1	11.61	11.61
