[BeGaze]
Converted from:	C:\Documents and Settings\iViewX\Desktop\EXPERIMENTATIONS\Experiments\results\finaleart\S19F21442-finaleart-1.idf
Date:	27.03.2019 15:52:05
Version:	BeGaze 2.5.77
Sample Rate:	50
Subject:	S19F21442
Description:	Juliette Veuillez

Table Header for Fixations:
Event Type	Trial	Number	Start	End	Duration	Location X	Location Y	Dispersion X	Dispersion Y	Plane	Avg. Pupil Size X	Avg. Pupil Size Y

Table Header for Saccades:
Event Type	Trial	Number	Start	End	Duration	Start Loc.X	Start Loc.Y	End Loc.X	End Loc.Y	Amplitude	Peak Speed	Peak Speed At	Average Speed	Peak Accel.	Peak Decel.	Average Accel.

Table Header for Blinks:
Event Type	Trial	Number	Start	End	Duration

Table Header for User Events:
Event Type	Trial	Number	Start	Description

UserEvent	1	1	8367944207	# Message: les_poseuses_seurat_1888.jpg
Fixation L	1	1	8367956016	8368373721	417705	897.96	538.90	9	29	-1	9.86	9.86
Fixation R	1	1	8367956016	8368373721	417705	897.96	538.90	9	29	-1	11.78	11.78
Saccade L	1	1	8368373721	8368413467	39746	902.63	526.61	594.59	541.90	2.64	166.44	0.50	66.31	4023.44	-3917.81	3746.83
Saccade R	1	1	8368373721	8368413467	39746	902.63	526.61	594.59	541.90	2.64	166.44	0.50	66.31	4023.44	-3917.81	3746.83
Fixation L	1	2	8368413467	8368532873	119406	596.92	540.54	4	13	-1	10.11	10.11
Fixation R	1	2	8368413467	8368532873	119406	596.92	540.54	4	13	-1	12.34	12.34
Saccade L	1	2	8368532873	8368572593	39720	597.02	546.04	911.94	178.61	4.30	267.12	0.50	108.15	6518.15	-5819.14	5879.45
Saccade R	1	2	8368532873	8368572593	39720	597.02	546.04	911.94	178.61	4.30	267.12	0.50	108.15	6518.15	-5819.14	5879.45
Fixation L	1	3	8368572593	8368870960	298367	939.99	195.30	34	59	-1	8.91	8.91
Fixation R	1	3	8368572593	8368870960	298367	939.99	195.30	34	59	-1	10.65	10.65
Saccade L	1	3	8368870960	8368890842	19882	944.49	224.14	942.52	238.68	0.35	28.29	1.00	17.37	370.52	-336.06	292.21
Saccade R	1	3	8368870960	8368890842	19882	944.49	224.14	942.52	238.68	0.35	28.29	1.00	17.37	370.52	-336.06	292.21
Fixation L	1	4	8368890842	8369308566	417724	953.15	236.74	16	37	-1	9.93	9.93
Fixation R	1	4	8368890842	8369308566	417724	953.15	236.74	16	37	-1	11.94	11.94
Saccade L	1	4	8369308566	8369328435	19869	959.10	252.91	958.12	371.60	0.96	120.05	1.00	48.16	2932.76	-1572.43	1926.28
Saccade R	1	4	8369308566	8369328435	19869	959.10	252.91	958.12	371.60	0.96	120.05	1.00	48.16	2932.76	-1572.43	1926.28
Fixation L	1	5	8369328435	8369567061	238626	952.78	367.79	8	76	-1	10.59	10.59
Fixation R	1	5	8369328435	8369567061	238626	952.78	367.79	8	76	-1	12.40	12.40
Saccade L	1	5	8369567061	8369606796	39735	949.51	372.07	1322.83	445.04	3.53	217.52	1.00	88.91	5328.67	-5046.78	4350.36
Saccade R	1	5	8369567061	8369606796	39735	949.51	372.07	1322.83	445.04	3.53	217.52	1.00	88.91	5328.67	-5046.78	4350.36
Fixation L	1	6	8369606796	8369726179	119383	1371.87	473.51	60	38	-1	10.86	10.86
Fixation R	1	6	8369606796	8369726179	119383	1371.87	473.51	60	38	-1	12.12	12.12
Saccade L	1	6	8369726179	8369746039	19860	1383.40	477.63	1383.97	483.80	0.12	6.47	0.00	6.06	12.26	-34.85	22.02
Saccade R	1	6	8369726179	8369746039	19860	1383.40	477.63	1383.97	483.80	0.12	6.47	0.00	6.06	12.26	-34.85	22.02
Fixation L	1	7	8369746039	8369905161	159122	1382.21	491.78	9	28	-1	10.65	10.65
Fixation R	1	7	8369746039	8369905161	159122	1382.21	491.78	9	28	-1	11.79	11.79
Saccade L	1	7	8369905161	8369945038	39877	1378.42	507.86	1421.10	807.57	2.63	244.54	0.50	65.93	6097.25	-5750.84	3616.22
Saccade R	1	7	8369905161	8369945038	39877	1378.42	507.86	1421.10	807.57	2.63	244.54	0.50	65.93	6097.25	-5750.84	3616.22
Fixation L	1	8	8369945038	8370263273	318235	1456.28	820.99	58	22	-1	10.64	10.64
Fixation R	1	8	8369945038	8370263273	318235	1456.28	820.99	58	22	-1	11.36	11.36
Saccade L	1	8	8370263273	8370283145	19872	1479.19	808.27	1514.84	833.58	0.54	48.67	1.00	27.09	1040.56	-663.40	866.54
Saccade R	1	8	8370263273	8370283145	19872	1479.19	808.27	1514.84	833.58	0.54	48.67	1.00	27.09	1040.56	-663.40	866.54
Fixation L	1	9	8370283145	8370442261	159116	1509.55	888.35	23	72	-1	10.64	10.64
Fixation R	1	9	8370283145	8370442261	159116	1509.55	888.35	23	72	-1	11.63	11.63
Saccade L	1	9	8370442261	8370581500	139239	1513.61	904.59	710.09	767.54	12.50	307.91	0.86	89.75	7649.24	-6628.99	3045.89
Saccade R	1	9	8370442261	8370581500	139239	1513.61	904.59	710.09	767.54	12.50	307.91	0.86	89.75	7649.24	-6628.99	3045.89
Fixation L	1	10	8370581500	8370800255	218755	663.97	757.56	56	17	-1	9.57	9.57
Fixation R	1	10	8370581500	8370800255	218755	663.97	757.56	56	17	-1	11.74	11.74
Saccade L	1	10	8370800255	8370820121	19866	659.08	761.58	608.50	573.41	1.21	197.04	1.00	60.75	4776.00	-4558.21	3386.69
Saccade R	1	10	8370800255	8370820121	19866	659.08	761.58	608.50	573.41	1.21	197.04	1.00	60.75	4776.00	-4558.21	3386.69
Fixation L	1	11	8370820121	8371217981	397860	593.92	587.52	35	56	-1	9.55	9.55
Fixation R	1	11	8370820121	8371217981	397860	593.92	587.52	35	56	-1	11.88	11.88
Saccade L	1	11	8371217981	8371257726	39745	593.49	606.43	596.19	276.45	2.82	186.85	1.00	71.04	4660.76	-4298.71	3944.43
Saccade R	1	11	8371217981	8371257726	39745	593.49	606.43	596.19	276.45	2.82	186.85	1.00	71.04	4660.76	-4298.71	3944.43
Fixation L	1	12	8371257726	8371516337	258611	597.73	248.60	7	37	-1	10.01	10.01
Fixation R	1	12	8371257726	8371516337	258611	597.73	248.60	7	37	-1	12.46	12.46
Saccade L	1	12	8371516337	8371536204	19867	601.35	248.89	597.84	167.09	0.53	82.82	1.00	26.85	1946.19	-2040.49	1438.46
Saccade R	1	12	8371516337	8371536204	19867	601.35	248.89	597.84	167.09	0.53	82.82	1.00	26.85	1946.19	-2040.49	1438.46
Fixation L	1	13	8371536204	8371933944	397740	594.88	147.74	10	29	-1	9.94	9.94
Fixation R	1	13	8371536204	8371933944	397740	594.88	147.74	10	29	-1	12.47	12.47
