[BeGaze]
Converted from:	C:\Documents and Settings\iViewX\Desktop\EXPERIMENTATIONS\Experiments\results\finaleart\S19F21442-finaleart-1.idf
Date:	27.03.2019 15:51:18
Version:	BeGaze 2.5.77
Sample Rate:	50
Subject:	S19F21442
Description:	Juliette Veuillez

Table Header for Fixations:
Event Type	Trial	Number	Start	End	Duration	Location X	Location Y	Dispersion X	Dispersion Y	Plane	Avg. Pupil Size X	Avg. Pupil Size Y

Table Header for Saccades:
Event Type	Trial	Number	Start	End	Duration	Start Loc.X	Start Loc.Y	End Loc.X	End Loc.Y	Amplitude	Peak Speed	Peak Speed At	Average Speed	Peak Accel.	Peak Decel.	Average Accel.

Table Header for Blinks:
Event Type	Trial	Number	Start	End	Duration

Table Header for User Events:
Event Type	Trial	Number	Start	Description

UserEvent	1	1	7208026917	# Message: void.jpg
Saccade L	1	1	7208043948	7208063811	19863	1028.63	541.34	1271.02	568.66	1.71	246.60	1.00	86.29	306.47	-6124.97	2143.81
Saccade R	1	1	7208043948	7208063811	19863	1028.63	541.34	1271.02	568.66	1.71	246.60	1.00	86.29	306.47	-6124.97	2143.81
Fixation L	1	1	7208063811	7208302543	238732	1274.85	587.99	56	35	-1	10.65	10.65
Fixation R	1	1	7208063811	7208302543	238732	1274.85	587.99	56	35	-1	11.37	11.37
Saccade L	1	2	7208302543	7208322424	19881	1324.65	604.21	1369.71	608.33	0.52	53.17	0.00	26.05	1110.21	-1232.87	1133.51
Saccade R	1	2	7208302543	7208322424	19881	1324.65	604.21	1369.71	608.33	0.52	53.17	0.00	26.05	1110.21	-1232.87	1133.51
Fixation L	1	2	7208322424	7208819655	497231	1377.97	631.12	23	76	-1	10.82	10.82
Fixation R	1	2	7208322424	7208819655	497231	1377.97	631.12	23	76	-1	11.42	11.42
Saccade L	1	3	7208819655	7208839537	19882	1365.92	680.76	1363.92	682.79	0.09	9.38	1.00	4.55	2.35	-162.53	101.49
Saccade R	1	3	7208819655	7208839537	19882	1365.92	680.76	1363.92	682.79	0.09	9.38	1.00	4.55	2.35	-162.53	101.49
Fixation L	1	3	7208839537	7209953359	1113822	1349.16	688.43	32	41	-1	11.81	11.81
Fixation R	1	3	7208839537	7209953359	1113822	1349.16	688.43	32	41	-1	12.69	12.69
Saccade L	1	4	7209953359	7210013100	59741	1353.15	684.56	971.66	560.39	5.05	171.31	0.33	84.55	4138.74	-2007.46	2479.83
Saccade R	1	4	7209953359	7210013100	59741	1353.15	684.56	971.66	560.39	5.05	171.31	0.33	84.55	4138.74	-2007.46	2479.83
