[BeGaze]
Converted from:	C:\Documents and Settings\iViewX\Desktop\EXPERIMENTATIONS\Experiments\results\finaleart\S19F21442-finaleart-1.idf
Date:	27.03.2019 15:51:44
Version:	BeGaze 2.5.77
Sample Rate:	50
Subject:	S19F21442
Description:	Juliette Veuillez

Table Header for Fixations:
Event Type	Trial	Number	Start	End	Duration	Location X	Location Y	Dispersion X	Dispersion Y	Plane	Avg. Pupil Size X	Avg. Pupil Size Y

Table Header for Saccades:
Event Type	Trial	Number	Start	End	Duration	Start Loc.X	Start Loc.Y	End Loc.X	End Loc.Y	Amplitude	Peak Speed	Peak Speed At	Average Speed	Peak Accel.	Peak Decel.	Average Accel.

Table Header for Blinks:
Event Type	Trial	Number	Start	End	Duration

Table Header for User Events:
Event Type	Trial	Number	Start	Description

UserEvent	1	1	7781139797	# Message: void.jpg
Fixation L	1	1	7781144109	7781303464	159355	540.28	378.21	14	74	-1	11.39	11.39
Fixation R	1	1	7781144109	7781303464	159355	540.28	378.21	14	74	-1	13.34	13.34
Saccade L	1	1	7781303464	7781422563	119099	546.95	406.96	470.85	944.22	8.50	337.92	0.83	71.35	8357.72	-7732.85	3258.02
Saccade R	1	1	7781303464	7781422563	119099	546.95	406.96	470.85	944.22	8.50	337.92	0.83	71.35	8357.72	-7732.85	3258.02
Fixation L	1	2	7781422563	7781919793	497230	459.70	954.97	48	33	-1	11.27	11.27
Fixation R	1	2	7781422563	7781919793	497230	459.70	954.97	48	33	-1	13.46	13.46
Saccade L	1	2	7781919793	7781959663	39870	495.02	947.37	916.58	897.13	3.68	225.64	0.50	92.23	5585.95	-5439.52	5127.04
Saccade R	1	2	7781919793	7781959663	39870	495.02	947.37	916.58	897.13	3.68	225.64	0.50	92.23	5585.95	-5439.52	5127.04
Fixation L	1	3	7781959663	7782357398	397735	920.87	873.61	9	31	-1	11.51	11.51
Fixation R	1	3	7781959663	7782357398	397735	920.87	873.61	9	31	-1	13.19	13.19
Saccade L	1	3	7782357398	7782397269	39871	919.10	870.22	821.88	486.40	3.45	265.48	0.50	86.65	6368.15	-6381.63	4872.27
Saccade R	1	3	7782357398	7782397269	39871	919.10	870.22	821.88	486.40	3.45	265.48	0.50	86.65	6368.15	-6381.63	4872.27
Fixation L	1	4	7782397269	7783133134	735865	824.44	498.11	20	61	-1	12.23	12.23
Fixation R	1	4	7782397269	7783133134	735865	824.44	498.11	20	61	-1	14.16	14.16
