[BeGaze]
Converted from:	C:\Documents and Settings\iViewX\Desktop\EXPERIMENTATIONS\Experiments\results\finaleart\S19F21442-finaleart-1.idf
Date:	27.03.2019 15:50:51
Version:	BeGaze 2.5.77
Sample Rate:	50
Subject:	S19F21442
Description:	Juliette Veuillez

Table Header for Fixations:
Event Type	Trial	Number	Start	End	Duration	Location X	Location Y	Dispersion X	Dispersion Y	Plane	Avg. Pupil Size X	Avg. Pupil Size Y

Table Header for Saccades:
Event Type	Trial	Number	Start	End	Duration	Start Loc.X	Start Loc.Y	End Loc.X	End Loc.Y	Amplitude	Peak Speed	Peak Speed At	Average Speed	Peak Accel.	Peak Decel.	Average Accel.

Table Header for Blinks:
Event Type	Trial	Number	Start	End	Duration

Table Header for User Events:
Event Type	Trial	Number	Start	Description

UserEvent	1	1	6694610721	# Message: void.jpg
Fixation L	1	1	6694622234	6694781337	159103	362.55	977.52	44	31	-1	8.79	8.79
Fixation R	1	1	6694622234	6694781337	159103	362.55	977.52	44	31	-1	11.24	11.24
Saccade L	1	1	6694781337	6694980317	198980	380.95	985.75	1154.32	967.59	16.36	356.14	0.90	82.21	8049.00	-8071.83	2888.05
Saccade R	1	1	6694781337	6694980317	198980	380.95	985.75	1154.32	967.59	16.36	356.14	0.90	82.21	8049.00	-8071.83	2888.05
Fixation L	1	2	6694980317	6695477556	497239	1179.13	960.39	38	55	-1	9.89	9.89
Fixation R	1	2	6694980317	6695477556	497239	1179.13	960.39	38	55	-1	10.15	10.15
Saccade L	1	2	6695477556	6695497431	19875	1172.32	994.18	1170.83	1000.62	0.11	7.56	1.00	5.56	70.73	-28.04	40.30
Saccade R	1	2	6695477556	6695497431	19875	1172.32	994.18	1170.83	1000.62	0.11	7.56	1.00	5.56	70.73	-28.04	40.30
Fixation L	1	3	6695497431	6695716164	218733	1172.63	1020.16	55	43	-1	11.53	11.53
Fixation R	1	3	6695497431	6695716164	218733	1172.63	1020.16	55	43	-1	12.09	12.09
Saccade L	1	3	6695716164	6695736161	19997	1195.74	1043.53	1202.17	1054.78	0.23	13.11	1.00	11.46	46.60	-199.85	84.07
Saccade R	1	3	6695716164	6695736161	19997	1195.74	1043.53	1202.17	1054.78	0.23	13.11	1.00	11.46	46.60	-199.85	84.07
Fixation L	1	4	6695736161	6696412391	676230	1213.55	1068.06	16	54	-1	12.24	12.24
Fixation R	1	4	6695736161	6696412391	676230	1213.55	1068.06	16	54	-1	12.72	12.72
Saccade L	1	4	6696412391	6696472009	59618	1200.09	1026.43	823.92	612.23	6.23	240.49	0.33	104.45	5566.04	-5327.41	4372.74
Saccade R	1	4	6696412391	6696472009	59618	1200.09	1026.43	823.92	612.23	6.23	240.49	0.33	104.45	5566.04	-5327.41	4372.74
Fixation L	1	5	6696472009	6696591371	119362	820.44	598.57	10	19	-1	13.05	13.05
Fixation R	1	5	6696472009	6696591371	119362	820.44	598.57	10	19	-1	13.82	13.82
