Title,Artist,Date,Genre,Link,Sub-section,Is downloaded?,Height,Width
À la campagne,Armand Guillaumin,1895,Fauvism,https://www.wikiart.org/fr/armand-guillaumin/la-campagne-1895,landscape,yes,,
The Luxembourg Gardens,Henri Matisse,1901,Fauvism,https://www.wikiart.org/fr/henri-matisse/the-luxembourg-gardens-1901,landscape,yes,595,815
Automne en France,Emily Carr,1911,Fauvism,https://www.wikiart.org/fr/emily-carr/automne-en-france-1911,landscape,yes,490,659
Rochers sur la Côte à Agay,Armand Guillaumin,1907,Fauvism,https://www.wikiart.org/fr/armand-guillaumin/rochers-sur-la-c-te-agay-1907,landscape,yes,,
Trees by the Gein at Moonrise,Piet Mondrain,1907-1908,Fauvism,https://www.wikiart.org/en/piet-mondrian/trees-by-the-gein-at-moonrise-1908,landscape,,,
Urban Landscape,Ilya Mashkov,1909,Fauvism,https://www.wikiart.org/en/ilya-mashkov/urban-landscape-1909,landscape,,,
Dance,Henri Matisse,1909,Fauvism,https://www.wikiart.org/en/henri-matisse/dance-i-1909,nu,,,
The Blue Nude (Souvenir of Biskra),Henri Matisse,1907,Fauvism,https://www.wikiart.org/en/henri-matisse/the-blue-nude-souvenir-of-biskra-1907,nu,,,
The manet family picnicking,Boudin,1866,Impressionism,https://www.wikiart.org/en/eugene-boudin/the-manet-family-picnicking-1866,scene,,,
"Trouville, black rocks",Boudin,1863,Impressionism,https://www.wikiart.org/en/eugene-boudin/trouville-black-rocks,landscape,,,
Caillebotte,The nap,1877,Impressionism,https://www.wikiart.org/en/gustave-caillebotte/the-nap,scene,,,
In the fontainebleau forest,Diaz,1860,Impressionism,https://www.wikiart.org/en/narcisse-virgilio-diaz/in-the-fontainebleau-forest-1860,scene,,,
The Storm,Diaz,1872,Impressionism,https://www.wikiart.org/en/narcisse-virgilio-diaz/the-storm-1872,landscape,,,
A bright day,Dupre,1840,Impressionism,https://www.wikiart.org/fr/jules-dupre/a-bright-day-1840,landscape,,,
Upper mississipi,Kensett,1855,Impressionism,https://www.wikiart.org/en/john-frederick-kensett/upper-mississippi-1855,landscape,,,
Croquet,Manet,1873,Impressionism,https://www.wikiart.org/en/edouard-manet/croquet-1873,scene,,,
Chestnut orchard in winter,Pissarro,1872,Impressionism,https://www.wikiart.org/en/camille-pissarro/chestnut-orchard-in-winter-1872,landscape,,,
Sunrise,George Inness,1887,Impressionism,https://www.metmuseum.org/art/collection/search/11235,landscape,,,
"Un Jardin, Maison Baptiste",Theodore Earl Butler,1895,Impressionism,https://www.metmuseum.org/art/collection/search/10352,landscape,,,
"The Farm at Les Collettes, Cagnes",Auguste Renoir,1908,Impressionism,https://www.metmuseum.org/art/collection/search/437433,landscape,,,
Rapids on the Petite Creuse at Fresselines,Claude Monet,1889,Impressionism,https://www.metmuseum.org/art/collection/search/437120,landscape,,,
Poppy Fields near Argenteuil,Claude Monet,1875,Impressionism,https://www.metmuseum.org/art/collection/search/438004,landscape,,,
"Morning, An Overcast Day, Rouen",Camille Pissaro,1896,Impressionism,https://www.metmuseum.org/art/collection/search/437308,landscape,,,
Still Life with Peaches and Grapes,Auguste Renoir,1881,Impressionism,https://www.metmuseum.org/art/collection/search/437428,still life,,,
Niagara Falls,Philip L. Hale,1902,Impressionism,https://www.metmuseum.org/art/collection/search/10980,landscape,,,
Study for A Sunday on La Grande Jatte,Georges Seurat,1884,Pointillism,https://www.wikiart.org/fr/georges-seurat/sketch-with-many-figures-for-sunday-afternoon-on-grande-jatte-1884,scene,,,
La Grande Jatte,Georges Seurat,1884,Pointillism,https://www.wikiart.org/fr/georges-seurat/la-grande-jatte-1884,landscape,,,
The Banks of the Seine at Neuilly,Albert Dubois-Pillet,1886,Pointillism,https://www.wikiart.org/fr/albert-dubois-pillet/the-banks-of-the-seine-at-neuilly-1886,landscape,,,
View of the Thames,Georges Lemmen,1892,Pointillism,https://www.wikiart.org/fr/georges-lemmen/view-of-the-thames-1892,landscape,,,
The Pine Tree at St. Tropez,Paul Signac,1909,Pointillism,https://www.wikiart.org/fr/paul-signac/the-pine-tree-at-st-tropez-1909,landscape,,,
Beach at Heist,Georges Lemmen,1891,Pointillism,https://www.wikiart.org/fr/georges-lemmen/beach-at-heist-1891,landscape,,,
My House,Henri Martin,,Pointillism,https://www.wikiart.org/fr/henri-martin/my-house,landscape,,,
"Alfalfa, St. Denis",Georges Seurat,1885,Pointillism,https://www.wikiart.org/fr/georges-seurat/alfalfa-st-denis-1886,landscape,,,
Le Puy in the Snow,Albert Dubois-Pillet,1889,Pointillism,https://www.wikiart.org/fr/albert-dubois-pillet/le-puy-in-the-snow-1889,landscape,,,
Sailboats on the River Scheldt,Théo van Rysselberghe,1892,Pointillism,https://www.wikiart.org/fr/theo-van-rysselberghe/sailboats-on-the-river-scheldt-1892,landscape,,,
The Augustan Bridge at Narni,Camille Corot,1826,Realism,https://www.wikiart.org/en/camille-corot/the-augustan-bridge-at-narni-1826,landscape,,,
The Berlin-Potsdam Railway,Adolph Menzel,1847,Realism,https://www.wikiart.org/en/adolph-menzel/the-berlin-potsdam-railway-1847,landscape,,,
Death and the woodcutter,Jean-Francois Millet,1859,Realism,https://www.wikiart.org/en/jean-francois-millet/death-and-the-woodcutter,scene,,,
A Walk in the Forest,Ivan Shishkin,1869,Realism,https://www.wikiart.org/en/ivan-shishkin/a-walk-in-the-forest-1869,scene,,,
Men Must Work and Women Must Weep,James Webb,1878,Realism,https://www.wikiart.org/en/james-webb/men-must-work-and-women-must-weep-1878,landscape,,,
Volga Lagoon,Fyodor Vasilyev,1870,Realism,https://www.wikiart.org/en/fyodor-vasilyev/volga-lagoon,landscape,,,
View of the Anichkov Palace from the Fontanka River,Vasily Sadovnikov,1838,Realism,https://www.wikiart.org/en/vasily-sadovnikov/view-of-the-anichkov-palace-from-the-fontanka-river-1838,scene,yes,232,382
Landscape with Cattle at Limousin,Jules Dupre,1837,Realism,https://www.wikiart.org/en/jules-dupre/landscape-with-cattle-at-limousin-1837,landscape,yes,787,1300
Souvenir of Mortefontaine, Camille Corot,1864,Realism,https://www.wikiart.org/en/camille-corot/souvenir-of-mortefontaine-1864,landscape,yes,650,890
The rainbow,Henry Moore,1865,Realism,https://www.wikiart.org/en/henry-moore-ra/the-rainbow-1865,landscape,yes,,
Morning in a pine forest,Ivan Shishkin,1889,Realism,https://www.wikiart.org/en/ivan-shishkin/morning-in-a-pine-forest-1889,landscape,yes,1390,2130
Morning,Charles-Francois Daubigny,1858,Realism,https://www.wikiart.org/en/charles-francois-daubigny/morning-1858,landscape,yes,300,480
After a Rain. Country Road,Fyodor Vasilyev,1867,Realism,https://www.wikiart.org/en/fyodor-vasilyev/after-a-rain-country-road-1869,landscape,yes,,
Cows Crossing a Ford,Jules Dupré,1836,Realism,https://www.metmuseum.org/art/collection/search/436241,,yes,362,625
Roses in a Bowl,Henri Fanti-Latour,1883,Realism,https://www.metmuseum.org/art/collection/search/437995,still life,yes,,
Huisje aan een sloot,Anton Mauve,1888,Realism,https://www.rijksmuseum.nl/nl/collectie/SK-A-2432,landscape,yes,360,490
The Sand Bargeman,Jozef Israëls,1887,Realism,https://www.rijksmuseum.nl/nl/collectie/SK-A-2984,scene,yes,620,900
Cows at a Pond,Gerard Bilders,1856,Realism,https://www.rijksmuseum.nl/nl/collectie/SK-A-3073,landscape,yes,275,459
Lair of the sea Serpent,Elihu Vedder,1899,Realism,https://www.metmuseum.org/art/collection/search/13065,landscape,yes,305,702
"Eagle Head, Manchester, Massachussets (High Tide)",Winslow Homer,1870,Realism,https://www.metmuseum.org/art/collection/search/11117,scene,yes,,
"Venice, from the Porch of Madonna della Salute",Joseph Mallord William Turner ,1835,Romantism,https://www.metmuseum.org/art/collection/search/437853,landscape,yes,914,1222
Mother and Child by the Sea,Johan Chirstian Dahl,1830,Romantism,https://www.metmuseum.org/art/collection/search/438954,scene,yes,159,206
A Storm off the Normandy Coast,Eugène Isabey,1850,Romantism,https://www.metmuseum.org/art/collection/search/438950,landscape,yes,330,508
Houses at Chatou,Maurice de Vlaminck,1905,Fauvism,http://www.artic.edu/aic/collections/artwork/74699,landscape,yes,813,1016
The Gardener,Maurice de Vlaminck,1904, Fauvism,https://www.wikiart.org/en/maurice-de-vlaminck/the-gardener,landscape,yes,690,960
Femme nue couchée et son valet,Eugène Delacroix,1826-1829,Romantism,"https://commons.wikimedia.org/wiki/File:Femme_nue_couch%C3%A9e_et_son_valet,_dit_aussi_odalistique,_Eug%C3%A8ne_Delacroix_(2).jpg",nu,yes,,
Naked man reversed on the ground,Theodore Gericault,1817, Romanticism ,https://commons.wikimedia.org/wiki/File:Theodore_Gericault_097_(24865820417).jpg,nu,yes,,
Olympia,Edouard Manet,1863,Realism,https://beauxarts.tw/p/66,nu,yes,1305,1910
Study of a Reclining Nude,Eugene Delacroix,1824,Romantism,https://cdn.bestofpainting.com/images/eugene_delacroix/1824_study_of_a_reclining_nude_2k.jpg,nu,yes,330,495
The Roman Odalisque (Marietta),Camille Corot,1843,Romantism,https://www.wikiart.org/en/camille-corot/the-roman-odalisque-marietta-1843,nu,yes,293,442
The Forest,Henri-Edmond Cross,1906 – 1907,Pointillism,https://www.wikiart.org/en/henri-edmond-cross/the-forest-1907,nu,yes,,
Les poseuses,Georges Pierre Seurat,1886,Pointillism,http://wikioo.org/paintings.php?refarticle=8XXLML&titlepainting=Les%20poseuses&artistname=Georges%20Pierre%20Seurat,nu,yes,2076,3080
Odalisque,Henri Matisse,,Fauvism,https://eenvandaag.avrotros.nl/item/zeker-170-geroofde-kunstwerken-in-nederlandse-musea/,nu,yes,,
The Lying Nude,Henri Matisse,1906,Fauvism,https://wanford.com/media/catalog/product/cache/1/image/850x/17f82f742ffe127f42dca9de82fb58b1/t/h/the-lying-nude-1906_painter-henri-matisse.jpg,nu,yes,,
The two models,Raoul Dufy,1930,Fauvism,wikioo.org/paintings.php?refarticle=8LT5TH&titlepainting=The Two Models&artistname=Raoul Dufy,nu,yes,810,1000
Landschaft mit dem mondregenbogen,Caspar David Friedrich,,Romanticism,https://andrzejosinski.wordpress.com/2009/04/17/samotnosc-wedrowca-%E2%80%9Epiekna-mlynarka-franciszka-schuberta/caspar_david_friedrich_landschaft-mit-dem-mondregenbogen/,landscape,yes,700,1020
A Highland Lanscape,Sir Edwin Henry Landseer,,Romanticism,https://upload.wikimedia.org/wikipedia/commons/9/96/Sir_Edwin_Henry_Landseer_-_A_Highland_Landscape_-_Google_Art_Project.jpg,landscape,yes,,
Hawking,Sir Edwin Henry Landseer,,Romanticism,https://upload.wikimedia.org/wikipedia/commons/f/f5/Edwin_Landseer._Hawking.JPG,landscape,yes,,
A scene from a midsummer night dream,Sir Edwin Henry Landseer,,Romanticism,https://upload.wikimedia.org/wikipedia/commons/d/d7/Edwin_Landseer_-_Scene_from_A_Midsummer_Night%27s_Dream._Titania_and_Bottom_-_Google_Art_Project.jpg,scene,yes,,
A young Tiger playing with its mother,Eugène Delacroix,,Romanticism,https://upload.wikimedia.org/wikipedia/commons/0/09/A_Young_Tiger_Playing_with_its_Mother.jpg,landscape,yes,,
Nature morte à la cafetière rouge,Maurice de Vlaminck,,Fauvism,http://astilllifecollection.blogspot.com/2017/12/maurice-de-vlaminck-1876-1958.html,Still life,no,,
Nature morte aux oranges,Maurice de Vlaminck,1909,Fauvism,http://astilllifecollection.blogspot.com/2017/05/maurice-de-vlaminck-1876-1958.html,Still life,no,,
"Nature morte aux fruits rouges et nappe bleue

",Maurice de Vlaminck,,Fauvism,http://astilllifecollection.blogspot.com/2015/09/maurice-de-vlaminck-1876-1958.html,Still life,no,,
Nature morte aux raisins sur un plat,André Derain,1944,Fauvism,http://astilllifecollection.blogspot.com/2015/06/andre-derain-1880-1954.html,Still life,no,,
Nature morte au panier,André Derain,,Fauvism,http://astilllifecollection.blogspot.com/2016/01/andre-derain-1880-1954.html,Still life,no,,
Nature morte aux citrons,Maurice de Vlaminck,1909,Fauvism,"http://astilllifecollection.blogspot.com/2017/02/maurice-de-vlaminck-1876-1958.html
",Still life,no,,
Pommes sur la table,Henri Matisse,1916,Fauvism,http://astilllifecollection.blogspot.com/2018/07/henri-matisse-1869-1954-pommes-sur-la.html,Still life,no,,
Fleurs et fruits,Charles Camoin,1942,Fauvism,http://plaisir-de-peindre.kazeo.com/le-fauvisme-a122391212,Still life,no,,
Pots et fruits,Henri Matisse,1901,Fauvism,http://astilllifecollection.blogspot.com/2018/10/henri-matisse-1869-1954-pots-et-fruits.html,Still life,no,,
Nature morte au citron,Henri Matisse,1917,Fauvism,http://astilllifecollection.blogspot.com/2018/08/henri-matisse-1869-1954-nature-morte-au.html,Still life,no,,
Nu couché,Maurice de Vlaminck,1905,Fauvism,http://www.sothebys.com/en/auctions/ecatalogue/2018/impressionist-modern-art-evening-sale-n09930/lot.11.html,nu,no,280,420
The joy of life,Henri Matisse,1905,Fauvism,https://www.wikiart.org/en/henri-matisse/the-joy-of-life-1906,nu,no,1750,2410
The Girl from Rat Mort,Maurice de Vlaminck,1905,Fauvism,https://www.wikiart.org/en/maurice-de-vlaminck/the-girl-from-rat-mort-1906,nu,no,327,467
Young Girls Playing with a Lion Cub,Louis Valtat,1905,Fauvism,https://www.wikiart.org/en/louis-valtat/young-girls-playing-with-a-lion-cub,nu,no,815,1005
Bank of a Lake,Max Pechstein,1910,Fauvism,https://www.wikiart.org/en/max-pechstein/bank-of-a-lake-1910,nu,no,,
The Orchard,Maurice de Vlaminck,1905,Fauvism,https://www.wikiart.org/en/maurice-de-vlaminck/the-orchard-1905,landscape,no,600,733
In the countryside,Armand Guillaumin,1895,Fauvism,https://www.wikiart.org/en/armand-guillaumin/la-campagne-1895,landscape,no,,
Landscape of Estaque,Georges Braque,1907,Fauvism,https://www.wikiart.org/en/georges-braque/landscape-of-estaque-1907,landscape,no,370,460
"Kirkstall Abbey, Yorkshire",Thomas Girtin,1801,Romanticism,https://www.wikiart.org/en/thomas-girtin/kirkstall-abbey-yorkshire-1801,landscape,no,318,520
 Vesuvius from Posillipo,Joseph Wright of Derby,1788,Romanticism,https://fr.wikipedia.org/wiki/Fichier:Joseph_Wright_of_Derby_-_Vesuvius_from_Posillipo_-_Google_Art_Project.jpg,landscape,no,635,838
Chichester Canal,Joseph Mallord William Turner,1828,Romanticism,https://www.tate.org.uk/art/artworks/turner-chichester-canal-n00560,landscape,no,654,1346
Snow Storm - Steam-Boat off a Harbour’s Mouth,Joseph Mallord William Turner,1842,Romanticism,https://www.tate.org.uk/art/artworks/turner-snow-storm-steam-boat-off-a-harbours-mouth-n00530,landscape,no,914,1219
Waves Breaking against the Wind,Joseph Mallord William Turner,1840,Romanticism,https://www.tate.org.uk/art/artworks/turner-waves-breaking-against-the-wind-n02881,landscape,no,604,950
Akt meski,Jan Matejko,,Romanticism,https://www.wikiart.org/en/jan-matejko/akt-meski,nu,no,410,470
Man Holding a Dagger,Luis de Madrazo y Kuntz,1850,Romanticism,https://www.wikiart.org/en/luis-de-madrazo-y-kuntz/man-holding-a-dagger-1850,nu,no,,
"Reclining Odalisque or, Woman with a Parakeet",Eugene Delacroix,1827,Romanticism,https://www.wikiart.org/en/eugene-delacroix/reclining-odalisque-or-woman-with-a-parakeet-1827,nu,no,245,325
Two sitters,Orest Kiprensky,1800,Romanticism,https://www.wikiart.org/en/orest-kiprensky/two-sitters-1800,nu,no,,
Standing sitter with a stick. Sitter on a rock,Orest Kiprensky,1801,Romanticism,https://www.wikiart.org/en/orest-kiprensky/standing-sitter-with-a-stick-sitter-on-a-rock-1801,nu,no,,
Repose,Camille Corot,1860,Romanticism,https://www.wikiart.org/en/camille-corot/repose-1860,nu,no,840,1270
Odalisque,Eugene Delacroix,1825,Romanticism,https://www.wikiart.org/en/eugene-delacroix/odalisque-1825-1,nu,no,380,467
Nature morte avec Bouteilles et Pains,Francisco de Goya,1826,Romanticism,http://astilllifecollection.blogspot.com/2015/01/francisco-de-goya-1746-1828.html,Still life,no,450,620
Bodegones con pargos dorados,Francisco de Goya,1812,Romanticism,http://astilllifecollection.blogspot.com/2017/09/francisco-de-goya-1746-1828.html,Still life,no,450,620
Bodegón con salmón,Francisco de Goya,1812,Romanticism,http://astilllifecollection.blogspot.com/2014/02/francisco-de-goya-1746-1828.html,Still life,no,450,620
Los pájaros muertos,Francisco de Goya,1812,Romanticism,https://www.wikiart.org/en/francisco-goya/dead-birds-1812,Still life,no,450,620
Pavo muerto,Francisco de Goya,1812,Romanticism,https://www.wikiart.org/en/francisco-goya/dead-turkey-1812,Still life,no,450,630
Still life of Sheep's Ribs and Head - The Butcher's conter,Francisco de Goya,1812,Romanticism,https://www.wikiart.org/en/francisco-goya/still-life-of-sheep-s-ribs-and-head-the-butcher-s-conter-1812,Still life,no,450,620
Still Life with Green Pot and Pewter Jug,Paul Cezanne,1870,Romanticism,https://www.wikiart.org/en/paul-cezanne/still-life-with-green-pot-and-pewter-jug,Still life,no,645,810
Still Life with Lobsters,Eugene Delacroix,1826,Romanticism,https://www.wikiart.org/en/eugene-delacroix/still-life-with-lobsters-1827,Still life,no,805,1065
"Still life, plucked turkey and pan with fish",Francisco de Goya,1812,Romanticism,https://www.wikiart.org/en/francisco-goya/still-life-plucked-turkey-and-pan-with-fish-1812,Still life,no,450,625
Still Life with Bread and Eggs,Paul Cezanne,1865,Romanticism,https://www.wikiart.org/en/paul-cezanne/still-life-with-bread-and-eggs-1865,Still life,no,590,760
Still Life with White Pitcher,Adolphe Joseph Thomas Monticelli,1822,Romanticism,https://www.wikiart.org/en/adolphe-joseph-thomas-monticelli/still-life-with-white-pitcher,Still life,no,490,630
The Bathers,Gustave Courbet,1858,Realism,https://www.wikiart.org/en/gustave-courbet/the-bathers-1858,nu,no,1150,1550
The Bather,Jean-Francois Millet,1848,Realism,https://www.wikiart.org/en/jean-francois-millet/the-bather-1848,nu,no,190,241
The Sleepers,Gustave Courbet,1866,Realism,https://www.wikiart.org/en/gustave-courbet/the-sleepers-1866,nu,no,1350,2000
Woman with a Parrot,Gustave Courbet,1866,Realism,https://www.wikiart.org/en/gustave-courbet/woman-with-a-parrot-1866,nu,no,1295,1956
Reclining Nude,John Singer Sargent,1862,Realism,https://www.wikiart.org/en/john-singer-sargent/reclining-nude,nu,no,476,622
Male Model Resting,John Singer Sargent,1895,Realism,https://www.wikiart.org/en/john-singer-sargent/male-model-resting,nu,no, 558.8,711.2
A Study in Curves,William Merritt Chase,1890,Realism,https://www.wikiart.org/en/william-merritt-chase/a-study-in-curves,nu,no,559,1016
Sleeping Nude Woman,Gustave Courbet,1865,Realism,https://www.wikiart.org/en/gustave-courbet/sleeping-nude-woman-1862,nu,no,750,970
Female Nude with a Dog (Portrait of Leotine Renaude),Gustave Courbet,1866,Realism,https://www.wikiart.org/en/gustave-courbet/female-nude-with-a-dog-portrait-of-leotine-renaude,nu,no,650,810
Basket of Fruits,Edouard Manet,1864,Realism,https://www.wikiart.org/en/edouard-manet/basket-of-fruits,Still life,no,378,444
Still Life: Heron with Spread Wings,Alfred Sisley,1867,Realism,https://www.wikiart.org/en/alfred-sisley/still-life-heron-with-spread-wings-1867,Still life,no,970,790
The salmon,Edouard Manet,1868,Realism,https://www.wikiart.org/en/edouard-manet/the-salmon,Still life,no,720,920
Still Life with Skate,Eugene Boudin,1861,Realism,https://www.wikiart.org/en/eugene-boudin/still-life-with-skate-1861,Still life,no,457,686
Bowl of Fruit,Henri Fantin-Latour,1857,Realism,https://www.wikiart.org/en/henri-fantin-latour/bowl-of-fruit-1857,Still life,no, ,
"Still Life with Pumpkin, Plums, Cherries, Figs and Jug",Theodule Ribot,1860,Realism,https://www.wikiart.org/en/theodule-ribot/still-life-with-pumpkin-plums-cherries-figs-and-jug-1860,Still life,no,604,735
Oysters,Edouard Manet,1862,Realism,https://www.wikiart.org/en/edouard-manet/oysters-1862,Still life,no,392,468
Plate of Peaches,Henri Fantin-Latour,1862,Realism,https://www.wikiart.org/en/henri-fantin-latour/plate-of-peaches-1862,Still life,no,181,320
Still Life: Fruits on a Table,Edouard Manet,1864,Realism,https://www.wikiart.org/en/edouard-manet/still-life-fruits-on-a-table-1864,Still life,no,450,280
"Flowers and Fruit, a Melon",Henri Fantin-Latour,1865,Realism,https://www.wikiart.org/en/henri-fantin-latour/flowers-and-fruit-a-melon-1865,Still life,no,,
Nasturtiums & dahlias in a basket, Paul Gauguin,1884,Impressionism ,https://www.wikiart.org/en/paul-gauguin/nasturtiums-dahlias-in-a-basket-1884,Still life,no,460,650
Still life with red mullet and jug, Paul Gauguin,1876,Impressionism ,https://www.wikiart.org/en/paul-gauguin/still-life-with-red-mullet-and-jug-1876,Still life,no,460,560
Garlic Cloves and Knife on the Corner of a Table, Gustave Caillebotte ,1871,Impressionism ,https://www.google.com/url?sa=i&rct=j&q=&esrc=s&source=images&cd=&ved=2ahUKEwjKvdeThYTgAhXSy4UKHZIXBqYQjRx6BAgBEAU&url=https%3A%2F%2Fwww.amazon.com%2FGarlic-Cloves-Corner-Gustave-Caillebotte%2Fdp%2FB07C5WZC41&psig=AOvVaw1gax6LCqs5acSKVf4h2Tt4&ust=1548337589867880,Still life,no,260,350
Still Life with Fish,Frederic Bazille,1866,Impressionism ,https://www.google.com/url?sa=i&rct=j&q=&esrc=s&source=images&cd=&ved=2ahUKEwjyyojNhYTgAhWS4IUKHbsXAYwQjRx6BAgBEAU&url=https%3A%2F%2Foudemeesterschilderijen.wordpress.com%2F2013%2F06%2F01%2Ffrederic-bazille%2F&psig=AOvVaw1d9tlYYBvYm_xsG_9FvT_4&ust=1548337711028886,Still life,no,635,819
Still Life, Camille Pissarro,1867,Impressionism ,https://www.google.com/url?sa=i&rct=j&q=&esrc=s&source=images&cd=&cad=rja&uact=8&ved=2ahUKEwibl5DyhYTgAhWyy4UKHQB4APwQjRx6BAgBEAU&url=http%3A%2F%2Fwikioo.org%2Fpaintings.php%3Frefarticle%3D8EWDHQ%26titlepainting%3D%25E9%259D%2599%25E7%2589%25A9%25E7%2594%25BB%26artistname%3DCamille%2520Pissarro&psig=AOvVaw23VAi3LL8lmNe9lYdgOcIz&ust=1548337790995861,Still life,no,810,997
Still Life with Pears and Grapes,Claude Monet,1867,Impressionism ,https://ru.artsdot.com/ADC/Art-ImgScreen-1.nsf/O/A-8EWECD/$FILE/Claude-monet-still-life-with-pears-and-grapes-1.Jpg,Still life,no,665,825
Red Mullets,Claude Monet,1869,Impressionism ,http://imglf0.ph.126.net/l83jMOSYEDzwbvNaRHeftw==/6619564675049937300.jpg,Still life,no,311,460
"Still Life Post, Bottle, Cup and Fruit", Paul Cezanne,1871,Impressionism ,http://www.eurocles.com/data/peinture/c/cezanne/cezanne%20(paul)%20-%20.jpg,Still life,no,688,927
The Tea Set, Claude Monet ,1872,Impressionism ,http://imglf2.nosdn.127.net/img/eEJVTXBJL3k0TWJjcHZMdFBoZ1FINE1zNlZLa08ydUt6REZ0ZzMrWE0rdz0.jpg?imageView&thumbnail=1680x0&quality=96&stripmeta=0&type=jpg%7Cwatermark&type=2&text=wqkg5oiR55qE6Im65pyv5LmL5peFIC8gaS5sZXJpby5jbg==&font=bXN5aA==&gravity=southwest&dissolve=30&fontsize=680&dx=32&dy=36&stripmeta=0,Still life,no,500,710
Pears and grapes, Paul Gauguin,1875,Impressionism ,https://www.wikiart.org/en/paul-gauguin/pears-and-grapes-1875,Still life,no,340,420
The Reclining Shepherdess, Berthe Morisot,1891,Impressionism ,https://www.museothyssen.org/en/collection/artists/morisot-berthe/reclining-nude-shepherdess,nu,no,575,864
Reclining Nude, Pierre-Auguste Renoir,1883,Impressionism ,"https://fr.wikipedia.org/wiki/Fichier:Pierre-Auguste_Renoir,_1883_-_Reclining_nude.jpg",nu,no,651,813
Bacchante, Joaquín Sorolla ,1886,Impressionism ,http://m.yukle.mobi/sekil-yukle/?q=натура&page=4,nu,no,600,750
The Large Bathers, Pierre-Auguste Renoir ,1887,Impressionism ,https://www.wikiart.org/en/pierre-auguste-renoir/the-large-bathers-1887,nu,no,1150,1700
Reclining Nude, Frederic Bazille ,1860,Impressionism ,https://www.wikiart.org/en/frederic-bazille/reclining-nude,nu,no,700,1800
Naked Woman Lying on a Couch, Gustave Caillebotte ,1873,Impressionism ,https://www.wikiart.org/en/gustave-caillebotte/naked-woman-lying-on-a-couch,nu,no,889,1162
Woman at Her Toilette, Edgar Degas,1876,Impressionism ,https://www.wikiart.org/en/edgar-degas/woman-at-her-toilette-1877,nu,no,430,580
Resting Bacchante, Joaquín Sorolla ,1887,Impressionism ,https://www.wikiart.org/en/joaqu-n-sorolla/resting-bacchante-1887,nu,no,290,670
After the Bath, Edgar Degas ,1885,Impressionism ,https://erovvheel.com/erotic-paintings-edgar-degas/,nu,no,,
Kneeling Nude, Edgar Degas ,1888,Impressionism ,https://www.wikiart.org/en/edgar-degas/kneeling-nude,nu,no,,
Lying Nude, Lesser Ury,1889,Impressionism ,https://www.wikiart.org/en/lesser-ury/lying-nude-1889,nu,no,940,1760
"Luxe, calme et volupté",Matisse,1905,Pointillism,https://img.nzz.ch/S=W1000/O=75/https://nzz-img.s3.amazonaws.com/2018/11/15/f4701a7c-e077-4abe-b417-81641715cd43.jpeg,nu,no,985,1185
Ronde,Henri-Edmond Cross ,1905,Pointillism,https://i.pinimg.com/originals/c3/de/fa/c3defa5ff7f13a7f4b8da53d312bdcd5.jpg,nu,no,,
The Wood,Henri-Edmond Cross,1905,Pointillism,https://www.wikiart.org/en/henri-edmond-cross/the-wood-1907,nu,no,,
Les Deux Amies, Marevna (Marie Vorobieff) ,,Pointillism,https://www.wikiart.org/en/marevna-marie-vorobieff/not-identified-4,nu,no,810,655
Bathers,Henri-Edmond Cross,1899,Pointillism,https://www.wikiart.org/en/henri-edmond-cross/bathers-1902,nu,no,,
Still Life of Fish, Marevna (Marie Vorobieff) ,,Pointillism,https://www.wikiart.org/en/marevna-marie-vorobieff/still-life-of-fish,nu,no,600,1000
Stilleven Met Vis, Albert Dubois-Pillet ,1885,Pointillism,http://postergrad.ru/izobrazhenie/53559/albert/stilleven_met_vis.jpg,Still life,no,590,725
Still Life With A Purro (II), Henri Matisse ,1904,Pointillism,https://arthive.com/henrimatisse/works/217666,Still life,no,273,356
Still Life with Bottle of Wind, Henri-Edmond Cross,1904,Pointillism,http://wikioo.org/es/paintings.php?refarticle=8LJ38R&titlepainting=Still%20Life%20with%20Bottle%20of%20Wind&artistname=Henri%20Edmond%20Cross,Still life,no,,
Parrot Tulips (II), Henri Matisse,1905,Pointillism,https://i.pinimg.com/originals/b8/81/e9/b881e9a95d269262646400d3942005ef.jpg,Still life,no,460,550
Still Life, Henri Matisse ,,Pointillism,https://www.wikiart.org/en/henri-matisse/still-life,Still life,no,,
Cadet From Saint-Cyr, Georges Seurat ,1884,Pointillism,https://www.wikiart.org/en/georges-seurat/cadet-from-saint-cyr-1884,landscape,no,159,248
Landscape, Henri-Edmond Cross ,,Pointillism,https://www.wikiart.org/en/henri-edmond-cross/landscape,landscape,no,,
The Pointe de per Kiridec at Roscoff, Theo van Rysselberghe ,,Pointillism,https://www.wikiart.org/en/theo-van-rysselberghe/the-pointe-de-per-kiridec-at-roscoff,landscape,no,680,1060
Plage de la Vignassa, Henri-Edmond Cross ,1891,Pointillism,https://www.wikiart.org/en/henri-edmond-cross/plage-de-la-vignassa-1892,landscape,no,,
The Banks of the Marne at Dawn, Albert Dubois-Pillet ,1888,Pointillism,https://en.wikipedia.org/wiki/File:Albert_Dubois-Pillet_The_Banks_on_the_Marne_at_Dawn.jpg,landscape,no,158,220
Hudson river,Kensett,,Luminism,http://paintingdb.com/art/xl/11/,,yes,813,1219
Sunset on the Sea,John Frederick Kensett,1872,Luminism,https://www.metmuseum.org/art/collection/search/11325,,yes,711,1045
A Foggy Sky,John Frederick Kensett,1872,Luminism,https://www.metmuseum.org/art/collection/search/11308,,yes,775,1162
Newburyport Meadows,Martin Johnson Heade,1881,Luminism,https://www.metmuseum.org/art/collection/search/11053,,yes,267,559
The Building of Westminster Bridge,Samuel Scott,1742,Classical,https://www.metmuseum.org/art/collection/search/437643,landscape,yes,610,1127
"High Bride, New York",Henry Ward Ranger,1905,Tonalisme,https://www.metmuseum.org/art/collection/search/11851,,yes,1022,1273
Wooded Upland Landscape,Thomas Gainsborough,1783,Undefined,https://www.metmuseum.org/art/collection/search/436441,,yes,1203,1476
"The Bacino, Venice, with the Dogana and a Distant View of the Isola di San Giorgio",Luca Carlevaris,1709,Undefined,https://www.metmuseum.org/art/collection/search/459030,,yes,508,1197
Still Life with a gilded Beer Tankard,Willem Claesz,1634,Undefined,https://www.rijksmuseum.nl/nl/collectie/SK-A-137,Still life,yes,445,620
"Vanitas, still life",N.L. Peschier,1660,Undefined,https://www.rijksmuseum.nl/nl/collectie/SK-A-1686,Still life,yes,570,700
Four nude boys,Alexander Ivanov ,1824, Academicism ,https://img-fotki.yandex.ru/get/4811/veniamin-veniamin1.b/0_7c2e7_c671f769_XXL.jpg,nu,yes,,
Three nude boys,Alexander Ivanov,1824, Academicism ,https://www.wikiart.org/en/alexander-ivanov/three-nude-boys,nu,yes,,
Still Life with Jugs and Pipe,Georges Braque,1906,Fauvism,http://wikioo.org/paintings.php?refarticle=8XY43Z&titlepainting=Still%20Life%20with%20Jugs%20and%20Pipe&artistname=Georges%20Braque,Still life,,520,650
Nature morte à la cruche bleue Huile sur Toile Collection,Henri Matisse,,Fauvism,http://wikioo.org/paintings.php?refarticle=9GF75D&titlepainting=Nature%20morte%20%C3%A0%20la%20cruche%20bleue%20Huile%20sur%20Toile%20Collection%20Wilbur%20Brayton%20Jr&artistname=Henri%20Matisse,Still life,,600,650
Nature morte,Louis Hayet,1888,Pointillism,https://fr.wikipedia.org/wiki/Fichier:Louis_Hayet_-_Nature_morte.jpg,Still life,,250,380
Nature Morte,Jean Metzinger ,1905,Pointillism,https://www.wikiart.org/en/jean-metzinger/nature-morte-1905,Still life,,,
Vase of Flowers,Theo Van Rysselberghe,1907,Pointillism,http://wikioo.org/paintings.php?refarticle=8XZ2M2&titlepainting=Vase%20of%20Flowers&artistname=Theo%20Van%20Rysselberghe,Still life,,,
"Fruit, Knife and Napkin", Albert Marquet ,1898,Pointillism,https://www.wikiart.org/en/albert-marquet/fruit-knife-and-napkin-1898,Still life,,,
Vase of Flowers in a Window, Henri Martin ,,Pointillism,https://www.wikiart.org/en/henri-martin/vase-of-flowers-in-a-window,Still life,,,
The Model's Siesta ,Theo Van Rysselberghe,,Pointillism,,nu,,660,750
La fuite des nymphes,Henri-Edmond Cross,1906,Pointillism,,nu,,,