[BeGaze]
Converted from:	C:\Documents and Settings\iViewX\Desktop\EXPERIMENTATIONS\Experiments\results\finaleart\S7121223-finaleart-1.idf
Date:	27.03.2019 15:37:02
Version:	BeGaze 2.5.77
Sample Rate:	50
Subject:	S7121223
Description:	Gregoire pacreau

Table Header for Fixations:
Event Type	Trial	Number	Start	End	Duration	Location X	Location Y	Dispersion X	Dispersion Y	Plane	Avg. Pupil Size X	Avg. Pupil Size Y

Table Header for Saccades:
Event Type	Trial	Number	Start	End	Duration	Start Loc.X	Start Loc.Y	End Loc.X	End Loc.Y	Amplitude	Peak Speed	Peak Speed At	Average Speed	Peak Accel.	Peak Decel.	Average Accel.

Table Header for Blinks:
Event Type	Trial	Number	Start	End	Duration

Table Header for User Events:
Event Type	Trial	Number	Start	Description

UserEvent	1	1	4797851184	# Message: monticelli-still-life-with-white-pitcher-1822.jpg
Fixation L	1	1	4797870826	4798229353	358527	840.27	636.48	3	9	-1	16.31	16.31
Fixation R	1	1	4797870826	4798229353	358527	840.27	636.48	3	9	-1	15.46	15.46
Saccade L	1	1	4798229353	4798249190	19837	840.51	640.53	919.30	610.59	0.73	85.26	1.00	36.58	2088.48	-2066.36	1841.31
Saccade R	1	1	4798229353	4798249190	19837	840.51	640.53	919.30	610.59	0.73	85.26	1.00	36.58	2088.48	-2066.36	1841.31
Fixation L	1	2	4798249190	4798448300	199110	952.63	561.95	39	57	-1	15.48	15.48
Fixation R	1	2	4798249190	4798448300	199110	952.63	561.95	39	57	-1	14.33	14.33
Saccade L	1	2	4798448300	4798468178	19878	958.60	553.27	960.28	548.18	0.04	5.43	1.00	2.20	102.66	-20.74	43.98
Saccade R	1	2	4798448300	4798468178	19878	958.60	553.27	960.28	548.18	0.04	5.43	1.00	2.20	102.66	-20.74	43.98
Fixation L	1	3	4798468178	4798647405	179227	926.74	535.89	71	24	-1	13.40	13.40
Fixation R	1	3	4798468178	4798647405	179227	926.74	535.89	71	24	-1	12.08	12.08
Saccade L	1	3	4798647405	4798667272	19867	893.99	523.25	892.95	516.76	0.13	9.35	1.00	6.72	47.85	-67.52	51.38
Saccade R	1	3	4798647405	4798667272	19867	893.99	523.25	892.95	516.76	0.13	9.35	1.00	6.72	47.85	-67.52	51.38
Fixation L	1	4	4798667272	4798966008	298736	888.62	509.34	11	18	-1	13.12	13.12
Fixation R	1	4	4798667272	4798966008	298736	888.62	509.34	11	18	-1	11.79	11.79
Saccade L	1	4	4798966008	4798985882	19874	881.41	509.09	736.15	523.53	0.86	147.64	1.00	43.27	3557.96	-3449.12	2392.51
Saccade R	1	4	4798966008	4798985882	19874	881.41	509.09	736.15	523.53	0.86	147.64	1.00	43.27	3557.96	-3449.12	2392.51
Fixation L	1	5	4798985882	4799244757	258875	724.20	560.40	25	66	-1	13.92	13.92
Fixation R	1	5	4798985882	4799244757	258875	724.20	560.40	25	66	-1	12.88	12.88
Saccade L	1	5	4799244757	4799264747	19990	710.76	590.36	697.92	590.56	0.23	21.34	0.00	11.63	47.78	-505.33	255.76
Saccade R	1	5	4799244757	4799264747	19990	710.76	590.36	697.92	590.56	0.23	21.34	0.00	11.63	47.78	-505.33	255.76
Fixation L	1	6	4799264747	4799603236	338489	677.23	592.25	31	9	-1	14.56	14.56
Fixation R	1	6	4799264747	4799603236	338489	677.23	592.25	31	9	-1	13.71	13.71
Saccade L	1	6	4799603236	4799643099	39863	666.92	587.67	1011.22	602.14	2.87	198.65	0.50	72.02	4911.27	-4871.35	4241.09
Saccade R	1	6	4799603236	4799643099	39863	666.92	587.67	1011.22	602.14	2.87	198.65	0.50	72.02	4911.27	-4871.35	4241.09
Fixation L	1	7	4799643099	4799941709	298610	1020.57	610.91	63	26	-1	15.71	15.71
Fixation R	1	7	4799643099	4799941709	298610	1020.57	610.91	63	26	-1	14.74	14.74
Saccade L	1	7	4799941709	4799961720	20011	1072.92	610.30	1091.89	605.95	0.50	59.63	0.00	24.82	201.12	-1282.65	595.21
Saccade R	1	7	4799941709	4799961720	20011	1072.92	610.30	1091.89	605.95	0.50	59.63	0.00	24.82	201.12	-1282.65	595.21
Fixation L	1	8	4799961720	4800479433	517713	1091.53	578.46	21	46	-1	14.61	14.61
Fixation R	1	8	4799961720	4800479433	517713	1091.53	578.46	21	46	-1	13.06	13.06
Saccade L	1	8	4800479433	4800499301	19868	1087.65	562.05	1122.55	530.37	0.35	47.68	1.00	17.62	1164.55	-1100.79	804.80
Saccade R	1	8	4800479433	4800499301	19868	1087.65	562.05	1122.55	530.37	0.35	47.68	1.00	17.62	1164.55	-1100.79	804.80
Fixation L	1	9	4800499301	4800658545	159244	1121.97	532.29	13	14	-1	13.52	13.52
Fixation R	1	9	4800499301	4800658545	159244	1121.97	532.29	13	14	-1	12.12	12.12
Saccade L	1	9	4800658545	4800678549	20004	1129.38	528.15	1138.92	415.16	0.67	114.70	1.00	33.57	2805.09	-2708.63	1933.07
Saccade R	1	9	4800658545	4800678549	20004	1129.38	528.15	1138.92	415.16	0.67	114.70	1.00	33.57	2805.09	-2708.63	1933.07
Fixation L	1	10	4800678549	4800917410	238861	1163.74	432.21	36	30	-1	13.41	13.41
Fixation R	1	10	4800678549	4800917410	238861	1163.74	432.21	36	30	-1	12.06	12.06
Saccade L	1	10	4800917410	4800957276	39866	1175.30	443.72	1308.42	336.44	1.78	103.18	1.00	44.60	2540.69	-1536.92	1820.85
Saccade R	1	10	4800917410	4800957276	39866	1175.30	443.72	1308.42	336.44	1.78	103.18	1.00	44.60	2540.69	-1536.92	1820.85
Fixation L	1	11	4800957276	4801216145	258869	1324.84	390.29	25	73	-1	13.89	13.89
Fixation R	1	11	4800957276	4801216145	258869	1324.84	390.29	25	73	-1	12.73	12.73
Saccade L	1	11	4801216145	4801236034	19889	1333.45	399.36	1369.47	401.39	0.23	36.49	1.00	11.55	891.98	-796.93	577.23
Saccade R	1	11	4801216145	4801236034	19889	1333.45	399.36	1369.47	401.39	0.23	36.49	1.00	11.55	891.98	-796.93	577.23
Fixation L	1	12	4801236034	4801435134	199100	1381.42	395.88	22	66	-1	14.30	14.30
Fixation R	1	12	4801236034	4801435134	199100	1381.42	395.88	22	66	-1	13.31	13.31
Saccade L	1	12	4801435134	4801455125	19991	1391.56	338.33	1401.46	304.45	0.50	60.61	0.00	25.10	873.16	-1433.26	1022.30
Saccade R	1	12	4801435134	4801455125	19991	1391.56	338.33	1401.46	304.45	0.50	60.61	0.00	25.10	873.16	-1433.26	1022.30
Fixation L	1	13	4801455125	4801733865	278740	1397.92	299.82	79	9	-1	14.38	14.38
Fixation R	1	13	4801455125	4801733865	278740	1397.92	299.82	79	9	-1	13.50	13.50
Saccade L	1	13	4801733865	4801753741	19876	1337.47	305.46	1325.22	307.79	0.29	38.07	1.00	14.74	-93.78	-636.32	329.10
Saccade R	1	13	4801733865	4801753741	19876	1337.47	305.46	1325.22	307.79	0.29	38.07	1.00	14.74	-93.78	-636.32	329.10
Fixation L	1	14	4801753741	4801853379	99638	1324.12	305.88	8	9	-1	14.17	14.17
Fixation R	1	14	4801753741	4801853379	99638	1324.12	305.88	8	9	-1	13.38	13.38
