[BeGaze]
Converted from:	C:\Documents and Settings\iViewX\Desktop\EXPERIMENTATIONS\Experiments\results\finaleart\S7121223-finaleart-1.idf
Date:	27.03.2019 15:36:55
Version:	BeGaze 2.5.77
Sample Rate:	50
Subject:	S7121223
Description:	Gregoire pacreau

Table Header for Fixations:
Event Type	Trial	Number	Start	End	Duration	Location X	Location Y	Dispersion X	Dispersion Y	Plane	Avg. Pupil Size X	Avg. Pupil Size Y

Table Header for Saccades:
Event Type	Trial	Number	Start	End	Duration	Start Loc.X	Start Loc.Y	End Loc.X	End Loc.Y	Amplitude	Peak Speed	Peak Speed At	Average Speed	Peak Accel.	Peak Decel.	Average Accel.

Table Header for Blinks:
Event Type	Trial	Number	Start	End	Duration

Table Header for User Events:
Event Type	Trial	Number	Start	Description

UserEvent	1	1	4383055996	# Message: void.jpg
Fixation L	1	1	4383068372	4383267488	199116	1338.88	916.03	6	17	-1	16.01	16.01
Fixation R	1	1	4383068372	4383267488	199116	1338.88	916.03	6	17	-1	15.53	15.53
Saccade L	1	1	4383267488	4383307363	39875	1343.56	904.44	1062.44	883.09	2.54	173.08	0.50	63.72	4218.12	-3888.95	3291.37
Saccade R	1	1	4383267488	4383307363	39875	1343.56	904.44	1062.44	883.09	2.54	173.08	0.50	63.72	4218.12	-3888.95	3291.37
Fixation L	1	2	4383307363	4383606094	298731	1058.91	857.64	48	34	-1	15.86	15.86
Fixation R	1	2	4383307363	4383606094	298731	1058.91	857.64	48	34	-1	15.69	15.69
Saccade L	1	2	4383606094	4383725470	119376	1020.59	851.44	994.11	543.80	5.88	118.64	0.50	49.23	1445.72	-1186.19	931.36
Saccade R	1	2	4383606094	4383725470	119376	1020.59	851.44	994.11	543.80	5.88	118.64	0.50	49.23	1445.72	-1186.19	931.36
Fixation L	1	3	4383725470	4384004317	278847	996.27	497.56	17	62	-1	14.02	14.02
Fixation R	1	3	4383725470	4384004317	278847	996.27	497.56	17	62	-1	13.69	13.69
Saccade L	1	3	4384004317	4384064063	59746	999.49	491.96	989.97	493.66	3.86	188.14	1.00	64.62	4317.60	-4644.95	1983.35
Saccade R	1	3	4384004317	4384064063	59746	999.49	491.96	989.97	493.66	3.86	188.14	1.00	64.62	4317.60	-4644.95	1983.35
Fixation L	1	4	4384064063	4384502048	437985	986.88	510.38	14	35	-1	14.64	14.64
Fixation R	1	4	4384064063	4384502048	437985	986.88	510.38	14	35	-1	14.64	14.64
Saccade L	1	4	4384502048	4384522047	19999	976.64	529.11	895.11	527.31	0.52	82.49	1.00	26.05	2031.84	-1863.41	1358.12
Saccade R	1	4	4384502048	4384522047	19999	976.64	529.11	895.11	527.31	0.52	82.49	1.00	26.05	2031.84	-1863.41	1358.12
Fixation L	1	5	4384522047	4385039770	517723	897.82	525.48	11	28	-1	14.49	14.49
Fixation R	1	5	4384522047	4385039770	517723	897.82	525.48	11	28	-1	14.82	14.82
