[BeGaze]
Converted from:	C:\Documents and Settings\iViewX\Desktop\EXPERIMENTATIONS\Experiments\results\finaleart\S7121223-finaleart-1.idf
Date:	27.03.2019 15:37:22
Version:	BeGaze 2.5.77
Sample Rate:	50
Subject:	S7121223
Description:	Gregoire pacreau

Table Header for Fixations:
Event Type	Trial	Number	Start	End	Duration	Location X	Location Y	Dispersion X	Dispersion Y	Plane	Avg. Pupil Size X	Avg. Pupil Size Y

Table Header for Saccades:
Event Type	Trial	Number	Start	End	Duration	Start Loc.X	Start Loc.Y	End Loc.X	End Loc.Y	Amplitude	Peak Speed	Peak Speed At	Average Speed	Peak Accel.	Peak Decel.	Average Accel.

Table Header for Blinks:
Event Type	Trial	Number	Start	End	Duration

Table Header for User Events:
Event Type	Trial	Number	Start	Description

UserEvent	1	1	5487567146	# Message: The_Joy_Of_Life_Matisse_1906.jpg
Fixation L	1	1	5487579346	5488215804	636458	904.34	592.02	30	46	-1	14.16	14.16
Fixation R	1	1	5487579346	5488215804	636458	904.34	592.02	30	46	-1	14.70	14.70
Saccade L	1	1	5488215804	5488235691	19887	920.52	569.13	966.65	568.37	0.59	65.48	1.00	29.81	1520.25	-1054.22	1226.69
Saccade R	1	1	5488215804	5488235691	19887	920.52	569.13	966.65	568.37	0.59	65.48	1.00	29.81	1520.25	-1054.22	1226.69
Fixation L	1	2	5488235691	5488454411	218720	1022.71	566.42	64	3	-1	11.34	11.34
Fixation R	1	2	5488235691	5488454411	218720	1022.71	566.42	64	3	-1	11.36	11.36
Saccade L	1	2	5488454411	5488494159	39748	1030.98	566.92	1249.64	625.57	1.89	126.37	0.50	47.50	3117.74	-3030.00	2778.09
Saccade R	1	2	5488454411	5488494159	39748	1030.98	566.92	1249.64	625.57	1.89	126.37	0.50	47.50	3117.74	-3030.00	2778.09
Fixation L	1	3	5488494159	5488732894	238735	1239.95	636.91	48	30	-1	10.64	10.64
Fixation R	1	3	5488494159	5488732894	238735	1239.95	636.91	48	30	-1	10.62	10.62
Saccade L	1	3	5488732894	5488752772	19878	1201.52	655.96	1176.97	682.16	0.50	44.85	0.00	24.98	865.88	-849.10	803.31
Saccade R	1	3	5488732894	5488752772	19878	1201.52	655.96	1176.97	682.16	0.50	44.85	0.00	24.98	865.88	-849.10	803.31
Fixation L	1	4	5488752772	5489329496	576724	1202.46	688.50	61	36	-1	11.03	11.03
Fixation R	1	4	5488752772	5489329496	576724	1202.46	688.50	61	36	-1	11.07	11.07
Saccade L	1	4	5489329496	5489349497	20001	1220.60	677.36	1221.10	722.63	0.30	45.80	1.00	15.07	1121.17	-1062.81	803.64
Saccade R	1	4	5489329496	5489349497	20001	1220.60	677.36	1221.10	722.63	0.30	45.80	1.00	15.07	1121.17	-1062.81	803.64
Fixation L	1	5	5489349497	5489508616	159119	1229.81	738.58	17	24	-1	11.55	11.55
Fixation R	1	5	5489349497	5489508616	159119	1229.81	738.58	17	24	-1	11.35	11.35
Saccade L	1	5	5489508616	5489548362	39746	1238.24	743.34	1507.63	850.57	2.64	187.50	1.00	66.48	4528.70	-4573.97	3494.61
Saccade R	1	5	5489508616	5489548362	39746	1238.24	743.34	1507.63	850.57	2.64	187.50	1.00	66.48	4528.70	-4573.97	3494.61
Fixation L	1	6	5489548362	5489826851	278489	1525.53	854.43	25	23	-1	12.19	12.19
Fixation R	1	6	5489548362	5489826851	278489	1525.53	854.43	25	23	-1	11.67	11.67
Saccade L	1	6	5489826851	5489846720	19869	1523.65	868.93	1519.24	925.01	0.38	56.90	1.00	19.07	1388.93	-1140.45	908.91
Saccade R	1	6	5489826851	5489846720	19869	1523.65	868.93	1519.24	925.01	0.38	56.90	1.00	19.07	1388.93	-1140.45	908.91
Fixation L	1	7	5489846720	5490244451	397731	1505.97	925.26	27	49	-1	12.17	12.17
Fixation R	1	7	5489846720	5490244451	397731	1505.97	925.26	27	49	-1	11.40	11.40
Saccade L	1	7	5490244451	5490284198	39747	1491.41	900.07	1038.34	950.07	3.88	265.54	0.50	97.71	6448.47	-6404.11	5460.72
Saccade R	1	7	5490244451	5490284198	39747	1491.41	900.07	1038.34	950.07	3.88	265.54	0.50	97.71	6448.47	-6404.11	5460.72
Fixation L	1	8	5490284198	5490821291	537093	1009.58	947.44	53	46	-1	11.99	11.99
Fixation R	1	8	5490284198	5490821291	537093	1009.58	947.44	53	46	-1	11.82	11.82
Saccade L	1	8	5490821291	5490841168	19877	984.75	925.15	964.68	829.85	0.68	98.51	1.00	34.15	2403.75	-2226.72	1829.17
Saccade R	1	8	5490821291	5490841168	19877	984.75	925.15	964.68	829.85	0.68	98.51	1.00	34.15	2403.75	-2226.72	1829.17
Fixation L	1	9	5490841168	5491000292	159124	936.27	799.62	43	41	-1	11.70	11.70
Fixation R	1	9	5490841168	5491000292	159124	936.27	799.62	43	41	-1	11.66	11.66
Saccade L	1	9	5491000292	5491020162	19870	921.34	788.25	895.46	805.45	0.27	31.43	1.00	13.69	618.46	-604.77	417.72
Saccade R	1	9	5491000292	5491020162	19870	921.34	788.25	895.46	805.45	0.27	31.43	1.00	13.69	618.46	-604.77	417.72
Fixation L	1	10	5491020162	5491119534	99372	880.66	803.37	26	4	-1	11.74	11.74
Fixation R	1	10	5491020162	5491119534	99372	880.66	803.37	26	4	-1	12.29	12.29
Saccade L	1	10	5491119534	5491159397	39863	870.70	802.98	566.99	661.87	3.26	205.20	1.00	81.72	5075.74	-4433.90	3804.11
Saccade R	1	10	5491119534	5491159397	39863	870.70	802.98	566.99	661.87	3.26	205.20	1.00	81.72	5075.74	-4433.90	3804.11
Fixation L	1	11	5491159397	5491358261	198864	532.29	627.20	47	44	-1	11.82	11.82
Fixation R	1	11	5491159397	5491358261	198864	532.29	627.20	47	44	-1	12.18	12.18
Saccade L	1	11	5491358261	5491378145	19884	549.78	617.74	546.66	606.92	0.27	19.30	0.00	13.36	43.84	-154.90	99.92
Saccade R	1	11	5491358261	5491378145	19884	549.78	617.74	546.66	606.92	0.27	19.30	0.00	13.36	43.84	-154.90	99.92
Fixation L	1	12	5491378145	5491537255	159110	562.29	596.38	24	18	-1	11.88	11.88
Fixation R	1	12	5491378145	5491537255	159110	562.29	596.38	24	18	-1	12.30	12.30
Saccade L	1	12	5491537255	5491557130	19875	571.14	588.00	405.03	584.59	1.18	168.03	1.00	59.36	4064.92	0.00	2032.46
Saccade R	1	12	5491537255	5491557130	19875	571.14	588.00	405.03	584.59	1.18	168.03	1.00	59.36	4064.92	0.00	2032.46
