[BeGaze]
Converted from:	C:\Documents and Settings\iViewX\Desktop\EXPERIMENTATIONS\Experiments\results\finaleart\S7121223-finaleart-1.idf
Date:	27.03.2019 15:37:27
Version:	BeGaze 2.5.77
Sample Rate:	50
Subject:	S7121223
Description:	Gregoire pacreau

Table Header for Fixations:
Event Type	Trial	Number	Start	End	Duration	Location X	Location Y	Dispersion X	Dispersion Y	Plane	Avg. Pupil Size X	Avg. Pupil Size Y

Table Header for Saccades:
Event Type	Trial	Number	Start	End	Duration	Start Loc.X	Start Loc.Y	End Loc.X	End Loc.Y	Amplitude	Peak Speed	Peak Speed At	Average Speed	Peak Accel.	Peak Decel.	Average Accel.

Table Header for Blinks:
Event Type	Trial	Number	Start	End	Duration

Table Header for User Events:
Event Type	Trial	Number	Start	Description

UserEvent	1	1	5571009222	# Message: void.jpg
Saccade L	1	1	5571015382	5571075005	59623	573.36	1007.73	692.49	1009.04	1.66	117.81	1.00	27.82	2893.14	-2765.34	1211.99
Saccade R	1	1	5571015382	5571075005	59623	573.36	1007.73	692.49	1009.04	1.66	117.81	1.00	27.82	2893.14	-2765.34	1211.99
Fixation L	1	1	5571075005	5571512973	437968	727.48	1002.53	46	19	-1	14.19	14.19
Fixation R	1	1	5571075005	5571512973	437968	727.48	1002.53	46	19	-1	13.51	13.51
Saccade L	1	2	5571512973	5571592591	79618	739.20	989.63	1036.55	600.62	6.22	179.89	0.75	78.07	4322.84	-4035.90	2820.06
Saccade R	1	2	5571512973	5571592591	79618	739.20	989.63	1036.55	600.62	6.22	179.89	0.75	78.07	4322.84	-4035.90	2820.06
Fixation L	1	2	5571592591	5572030443	437852	1040.50	574.26	14	33	-1	14.24	14.24
Fixation R	1	2	5571592591	5572030443	437852	1040.50	574.26	14	33	-1	13.42	13.42
Blink L	1	1	5572030443	5572209568	179125
Blink R	1	1	5572030443	5572209568	179125
Fixation L	1	3	5572209568	5572468313	258745	924.41	426.83	56	30	-1	15.08	15.08
Fixation R	1	3	5572209568	5572468313	258745	924.41	426.83	56	30	-1	14.81	14.81
Saccade L	1	3	5572468313	5572488165	19852	880.75	449.34	859.03	448.80	0.47	50.78	0.00	23.63	413.59	-861.58	518.01
Saccade R	1	3	5572468313	5572488165	19852	880.75	449.34	859.03	448.80	0.47	50.78	0.00	23.63	413.59	-861.58	518.01
Fixation L	1	4	5572488165	5573005774	517609	839.73	474.47	26	36	-1	15.50	15.50
Fixation R	1	4	5572488165	5573005774	517609	839.73	474.47	26	36	-1	14.89	14.89
