[BeGaze]
Converted from:	C:\Documents and Settings\iViewX\Desktop\EXPERIMENTATIONS\Experiments\results\finaleart\S7121223-finaleart-1.idf
Date:	27.03.2019 15:36:35
Version:	BeGaze 2.5.77
Sample Rate:	50
Subject:	S7121223
Description:	Gregoire pacreau

Table Header for Fixations:
Event Type	Trial	Number	Start	End	Duration	Location X	Location Y	Dispersion X	Dispersion Y	Plane	Avg. Pupil Size X	Avg. Pupil Size Y

Table Header for Saccades:
Event Type	Trial	Number	Start	End	Duration	Start Loc.X	Start Loc.Y	End Loc.X	End Loc.Y	Amplitude	Peak Speed	Peak Speed At	Average Speed	Peak Accel.	Peak Decel.	Average Accel.

Table Header for Blinks:
Event Type	Trial	Number	Start	End	Duration

Table Header for User Events:
Event Type	Trial	Number	Start	Description

UserEvent	1	1	3746777651	# Message: morning_in_a_pine_forest_Ivan_Shishkin_1889.jpg
Fixation L	1	1	3746787114	3747105742	318628	822.82	514.91	11	7	-1	15.90	15.90
Fixation R	1	1	3746787114	3747105742	318628	822.82	514.91	11	7	-1	17.82	17.82
Saccade L	1	1	3747105742	3747125561	19819	828.38	515.08	947.22	550.36	0.70	125.39	1.00	35.07	3115.99	-2773.13	2042.02
Saccade R	1	1	3747105742	3747125561	19819	828.38	515.08	947.22	550.36	0.70	125.39	1.00	35.07	3115.99	-2773.13	2042.02
Fixation L	1	2	3747125561	3747264929	139368	940.43	568.09	10	28	-1	16.17	16.17
Fixation R	1	2	3747125561	3747264929	139368	940.43	568.09	10	28	-1	18.23	18.23
Saccade L	1	2	3747264929	3747304792	39863	942.11	577.35	1229.44	718.14	2.83	270.55	0.50	71.06	6672.96	-6141.81	3766.36
Saccade R	1	2	3747264929	3747304792	39863	942.11	577.35	1229.44	718.14	2.83	270.55	0.50	71.06	6672.96	-6141.81	3766.36
Fixation L	1	3	3747304792	3747922024	617232	1229.11	709.35	34	49	-1	13.72	13.72
Fixation R	1	3	3747304792	3747922024	617232	1229.11	709.35	34	49	-1	14.41	14.41
Saccade L	1	3	3747922024	3747961888	39864	1216.37	712.07	878.99	736.45	2.79	205.55	0.50	70.02	5078.72	-5044.98	4151.72
Saccade R	1	3	3747922024	3747961888	39864	1216.37	712.07	878.99	736.45	2.79	205.55	0.50	70.02	5078.72	-5044.98	4151.72
Fixation L	1	4	3747961888	3748160997	199109	881.04	755.67	21	30	-1	13.50	13.50
Fixation R	1	4	3747961888	3748160997	199109	881.04	755.67	21	30	-1	14.18	14.18
Saccade L	1	4	3748160997	3748180886	19889	862.92	764.98	799.73	755.55	0.58	64.63	1.00	29.18	1543.26	-1122.91	940.82
Saccade R	1	4	3748160997	3748180886	19889	862.92	764.98	799.73	755.55	0.58	64.63	1.00	29.18	1543.26	-1122.91	940.82
Fixation L	1	5	3748180886	3748439762	258876	790.13	732.03	15	41	-1	13.54	13.54
Fixation R	1	5	3748180886	3748439762	258876	790.13	732.03	15	41	-1	14.40	14.40
Saccade L	1	5	3748439762	3748459744	19982	785.01	739.12	758.44	655.35	0.79	88.90	1.00	39.60	1841.50	-1932.19	1685.96
Saccade R	1	5	3748439762	3748459744	19982	785.01	739.12	758.44	655.35	0.79	88.90	1.00	39.60	1841.50	-1932.19	1685.96
Fixation L	1	6	3748459744	3748718600	258856	725.67	610.31	43	50	-1	14.59	14.59
Fixation R	1	6	3748459744	3748718600	258856	725.67	610.31	43	50	-1	15.63	15.63
Saccade L	1	6	3748718600	3748758347	39747	716.43	607.45	864.67	490.91	1.94	125.26	1.00	48.87	3046.15	-2939.45	2708.48
Saccade R	1	6	3748718600	3748758347	39747	716.43	607.45	864.67	490.91	1.94	125.26	1.00	48.87	3046.15	-2939.45	2708.48
Fixation L	1	7	3748758347	3749355820	597473	872.92	474.84	14	49	-1	14.60	14.60
Fixation R	1	7	3748758347	3749355820	597473	872.92	474.84	14	49	-1	16.35	16.35
Saccade L	1	7	3749355820	3749375692	19872	864.64	458.75	734.74	533.26	0.90	151.45	1.00	45.07	3531.24	-3438.02	2366.02
Saccade R	1	7	3749355820	3749375692	19872	864.64	458.75	734.74	533.26	0.90	151.45	1.00	45.07	3531.24	-3438.02	2366.02
Fixation L	1	8	3749375692	3749554956	179264	731.97	535.55	31	17	-1	14.28	14.28
Fixation R	1	8	3749375692	3749554956	179264	731.97	535.55	31	17	-1	15.90	15.90
Saccade L	1	8	3749554956	3749594673	39717	707.65	545.58	331.80	586.03	3.56	345.83	0.50	89.55	8607.12	-7895.72	4417.52
Saccade R	1	8	3749554956	3749594673	39717	707.65	545.58	331.80	586.03	3.56	345.83	0.50	89.55	8607.12	-7895.72	4417.52
Fixation L	1	9	3749594673	3749873548	278875	287.09	595.30	56	42	-1	14.33	14.33
Fixation R	1	9	3749594673	3749873548	278875	287.09	595.30	56	42	-1	16.51	16.51
Saccade L	1	9	3749873548	3749893426	19878	288.55	623.68	315.33	643.08	0.45	33.45	1.00	22.46	648.46	-216.24	354.46
Saccade R	1	9	3749873548	3749893426	19878	288.55	623.68	315.33	643.08	0.45	33.45	1.00	22.46	648.46	-216.24	354.46
Fixation L	1	10	3749893426	3750112409	218983	347.35	670.02	48	40	-1	14.77	14.77
Fixation R	1	10	3749893426	3750112409	218983	347.35	670.02	48	40	-1	16.84	16.84
Saccade L	1	10	3750112409	3750152277	39868	363.68	683.97	759.75	741.09	3.53	245.55	1.00	88.60	6053.55	-5356.79	4664.48
Saccade R	1	10	3750112409	3750152277	39868	363.68	683.97	759.75	741.09	3.53	245.55	1.00	88.60	6053.55	-5356.79	4664.48
Fixation L	1	11	3750152277	3750431018	278741	779.57	732.21	47	27	-1	15.70	15.70
Fixation R	1	11	3750152277	3750431018	278741	779.57	732.21	47	27	-1	17.50	17.50
Saccade L	1	11	3750431018	3750470908	39890	804.93	734.28	1221.92	801.27	3.71	313.10	0.50	92.93	7779.39	-7512.30	5099.87
Saccade R	1	11	3750431018	3750470908	39890	804.93	734.28	1221.92	801.27	3.71	313.10	0.50	92.93	7779.39	-7512.30	5099.87
Fixation L	1	12	3750470908	3750670005	199097	1216.07	816.68	8	26	-1	15.65	15.65
Fixation R	1	12	3750470908	3750670005	199097	1216.07	816.68	8	26	-1	16.79	16.79
Saccade L	1	12	3750670005	3750769499	99494	1213.66	803.67	1217.10	751.50	2.40	67.64	0.20	24.13	1575.98	-1116.06	724.49
Saccade R	1	12	3750670005	3750769499	99494	1213.66	803.67	1217.10	751.50	2.40	67.64	0.20	24.13	1575.98	-1116.06	724.49
