[BeGaze]
Converted from:	C:\Documents and Settings\iViewX\Desktop\EXPERIMENTATIONS\Experiments\results\finaleart\S7121223-finaleart-1.idf
Date:	27.03.2019 15:37:01
Version:	BeGaze 2.5.77
Sample Rate:	50
Subject:	S7121223
Description:	Gregoire pacreau

Table Header for Fixations:
Event Type	Trial	Number	Start	End	Duration	Location X	Location Y	Dispersion X	Dispersion Y	Plane	Avg. Pupil Size X	Avg. Pupil Size Y

Table Header for Saccades:
Event Type	Trial	Number	Start	End	Duration	Start Loc.X	Start Loc.Y	End Loc.X	End Loc.Y	Amplitude	Peak Speed	Peak Speed At	Average Speed	Peak Accel.	Peak Decel.	Average Accel.

Table Header for Blinks:
Event Type	Trial	Number	Start	End	Duration

Table Header for User Events:
Event Type	Trial	Number	Start	Description

UserEvent	1	1	4779478038	# Message: parrot-tulips-(II)_matisse_1905.jpg
Fixation L	1	1	4779491533	4779850011	358478	745.63	543.18	1	8	-1	16.18	16.18
Fixation R	1	1	4779491533	4779850011	358478	745.63	543.18	1	8	-1	15.42	15.42
Saccade L	1	1	4779850011	4779869890	19879	745.27	545.53	866.58	550.75	0.65	122.82	1.00	32.49	3056.42	-3010.98	2060.23
Saccade R	1	1	4779850011	4779869890	19879	745.27	545.53	866.58	550.75	0.65	122.82	1.00	32.49	3056.42	-3010.98	2060.23
Fixation L	1	2	4779869890	4780068993	199103	868.42	546.82	13	33	-1	15.75	15.75
Fixation R	1	2	4779869890	4780068993	199103	868.42	546.82	13	33	-1	15.06	15.06
Saccade L	1	2	4780068993	4780089012	20019	879.00	520.12	999.95	540.34	0.84	124.04	1.00	42.08	3084.47	-2697.61	1997.98
Saccade R	1	2	4780068993	4780089012	20019	879.00	520.12	999.95	540.34	0.84	124.04	1.00	42.08	3084.47	-2697.61	1997.98
Fixation L	1	3	4780089012	4780288115	199103	996.36	509.40	12	45	-1	13.05	13.05
Fixation R	1	3	4780089012	4780288115	199103	996.36	509.40	12	45	-1	11.91	11.91
Saccade L	1	3	4780288115	4780307985	19870	1000.48	497.65	1032.85	403.96	0.63	100.27	1.00	31.89	2363.58	-2398.79	1707.31
Saccade R	1	3	4780288115	4780307985	19870	1000.48	497.65	1032.85	403.96	0.63	100.27	1.00	31.89	2363.58	-2398.79	1707.31
Fixation L	1	4	4780307985	4780765958	457973	1054.31	397.95	25	20	-1	12.47	12.47
Fixation R	1	4	4780307985	4780765958	457973	1054.31	397.95	25	20	-1	11.22	11.22
Saccade L	1	4	4780765958	4780805842	39884	1055.66	387.08	902.56	257.71	1.67	148.80	1.00	41.86	3683.93	-3517.87	2455.07
Saccade R	1	4	4780765958	4780805842	39884	1055.66	387.08	902.56	257.71	1.67	148.80	1.00	41.86	3683.93	-3517.87	2455.07
Fixation L	1	5	4780805842	4781064687	258845	899.82	255.10	7	9	-1	13.45	13.45
Fixation R	1	5	4780805842	4781064687	258845	899.82	255.10	7	9	-1	12.10	12.10
Saccade L	1	5	4781064687	4781084560	19873	898.10	260.55	711.77	311.30	1.23	195.29	1.00	62.11	4848.76	-4463.67	3475.60
Saccade R	1	5	4781064687	4781084560	19873	898.10	260.55	711.77	311.30	1.23	195.29	1.00	62.11	4848.76	-4463.67	3475.60
Fixation L	1	6	4781084560	4781383296	298736	672.87	302.02	44	26	-1	13.99	13.99
Fixation R	1	6	4781084560	4781383296	298736	672.87	302.02	44	26	-1	12.84	12.84
Saccade L	1	6	4781383296	4781403173	19877	672.69	304.33	573.74	289.00	0.88	101.28	1.00	44.38	2476.68	-2362.22	2205.95
Saccade R	1	6	4781383296	4781403173	19877	672.69	304.33	573.74	289.00	0.88	101.28	1.00	44.38	2476.68	-2362.22	2205.95
Fixation L	1	7	4781403173	4781622171	218998	504.33	289.13	78	10	-1	14.68	14.68
Fixation R	1	7	4781403173	4781622171	218998	504.33	289.13	78	10	-1	13.55	13.55
Saccade L	1	7	4781622171	4781642161	19990	498.89	289.35	461.87	286.51	0.51	59.23	1.00	25.35	1428.05	-900.06	1068.17
Saccade R	1	7	4781622171	4781642161	19990	498.89	289.35	461.87	286.51	0.51	59.23	1.00	25.35	1428.05	-900.06	1068.17
Fixation L	1	8	4781642161	4781821271	179110	413.48	295.62	58	19	-1	14.40	14.40
Fixation R	1	8	4781642161	4781821271	179110	413.48	295.62	58	19	-1	13.51	13.51
Saccade L	1	8	4781821271	4781881024	59753	410.56	301.10	632.04	620.59	4.16	286.99	0.67	69.59	7158.09	-6857.77	3409.54
Saccade R	1	8	4781821271	4781881024	59753	410.56	301.10	632.04	620.59	4.16	286.99	0.67	69.59	7158.09	-6857.77	3409.54
Fixation L	1	9	4781881024	4782398742	517718	632.33	637.67	52	44	-1	14.70	14.70
Fixation R	1	9	4781881024	4782398742	517718	632.33	637.67	52	44	-1	13.92	13.92
Saccade L	1	9	4782398742	4782438626	39884	598.27	661.77	894.14	850.88	3.13	270.51	1.00	78.53	6707.62	-6641.34	4184.93
Saccade R	1	9	4782398742	4782438626	39884	598.27	661.77	894.14	850.88	3.13	270.51	1.00	78.53	6707.62	-6641.34	4184.93
Fixation L	1	10	4782438626	4782836854	398228	935.29	863.07	45	34	-1	15.22	15.22
Fixation R	1	10	4782438626	4782836854	398228	935.29	863.07	45	34	-1	14.21	14.21
Saccade L	1	10	4782836854	4782876718	39864	939.89	865.72	1119.65	779.55	1.83	151.40	1.00	45.94	3704.15	-3730.29	2499.91
Saccade R	1	10	4782836854	4782876718	39864	939.89	865.72	1119.65	779.55	1.83	151.40	1.00	45.94	3704.15	-3730.29	2499.91
Fixation L	1	11	4782876718	4783095727	219009	1114.01	776.07	26	6	-1	15.14	15.14
Fixation R	1	11	4782876718	4783095727	219009	1114.01	776.07	26	6	-1	13.81	13.81
Saccade L	1	11	4783095727	4783115585	19858	1132.34	773.81	1212.56	747.39	0.80	85.44	1.00	40.52	2069.41	-1818.69	1582.67
Saccade R	1	11	4783095727	4783115585	19858	1132.34	773.81	1212.56	747.39	0.80	85.44	1.00	40.52	2069.41	-1818.69	1582.67
Fixation L	1	12	4783115585	4783314819	199234	1253.57	712.02	53	45	-1	15.05	15.05
Fixation R	1	12	4783115585	4783314819	199234	1253.57	712.02	53	45	-1	13.74	13.74
Saccade L	1	12	4783314819	4783334691	19872	1266.06	702.19	1389.84	683.78	0.74	126.57	1.00	37.14	3137.07	-3105.62	2129.34
Saccade R	1	12	4783314819	4783334691	19872	1266.06	702.19	1389.84	683.78	0.74	126.57	1.00	37.14	3137.07	-3105.62	2129.34
Fixation L	1	13	4783334691	4783474067	139376	1382.41	693.55	13	13	-1	15.27	15.27
Fixation R	1	13	4783334691	4783474067	139376	1382.41	693.55	13	13	-1	13.49	13.49
