[BeGaze]
Converted from:	C:\Documents and Settings\iViewX\Desktop\EXPERIMENTATIONS\Experiments\results\finaleart\S7121223-finaleart-1.idf
Date:	27.03.2019 15:36:33
Version:	BeGaze 2.5.77
Sample Rate:	50
Subject:	S7121223
Description:	Gregoire pacreau

Table Header for Fixations:
Event Type	Trial	Number	Start	End	Duration	Location X	Location Y	Dispersion X	Dispersion Y	Plane	Avg. Pupil Size X	Avg. Pupil Size Y

Table Header for Saccades:
Event Type	Trial	Number	Start	End	Duration	Start Loc.X	Start Loc.Y	End Loc.X	End Loc.Y	Amplitude	Peak Speed	Peak Speed At	Average Speed	Peak Accel.	Peak Decel.	Average Accel.

Table Header for Blinks:
Event Type	Trial	Number	Start	End	Duration

Table Header for User Events:
Event Type	Trial	Number	Start	Description

UserEvent	1	1	3716159297	# Message: Un_Jardin_Maison_Baptiste_Butler_1895.jpg
Fixation L	1	1	3716161558	3716798760	637202	1001.18	480.57	59	38	-1	16.18	16.18
Fixation R	1	1	3716161558	3716798760	637202	1001.18	480.57	59	38	-1	15.48	15.48
Saccade L	1	1	3716798760	3716818637	19877	1041.95	479.92	1045.23	471.46	0.22	25.84	1.00	11.02	229.53	-416.40	243.91
Saccade R	1	1	3716798760	3716818637	19877	1041.95	479.92	1045.23	471.46	0.22	25.84	1.00	11.02	229.53	-416.40	243.91
Fixation L	1	2	3716818637	3716958005	139368	1050.18	463.50	55	24	-1	12.75	12.75
Fixation R	1	2	3716818637	3716958005	139368	1050.18	463.50	55	24	-1	11.64	11.64
Saccade L	1	2	3716958005	3716997875	39870	1085.59	457.19	1474.31	314.47	3.76	285.95	0.50	94.33	6941.61	-7093.46	4977.84
Saccade R	1	2	3716958005	3716997875	39870	1085.59	457.19	1474.31	314.47	3.76	285.95	0.50	94.33	6941.61	-7093.46	4977.84
Fixation L	1	3	3716997875	3717515602	517727	1483.73	319.48	43	19	-1	11.64	11.64
Fixation R	1	3	3716997875	3717515602	517727	1483.73	319.48	43	19	-1	10.65	10.65
Saccade L	1	3	3717515602	3717535470	19868	1455.56	319.13	1430.72	278.80	0.49	47.91	1.00	24.48	1131.79	-887.71	925.94
Saccade R	1	3	3717515602	3717535470	19868	1455.56	319.13	1430.72	278.80	0.49	47.91	1.00	24.48	1131.79	-887.71	925.94
Fixation L	1	4	3717535470	3717913823	378353	1432.29	261.01	16	38	-1	13.29	13.29
Fixation R	1	4	3717535470	3717913823	378353	1432.29	261.01	16	38	-1	12.10	12.10
Saccade L	1	4	3717913823	3717973573	59750	1423.62	265.78	832.74	398.41	6.30	273.95	0.67	105.43	6728.14	-6621.99	4850.32
Saccade R	1	4	3717913823	3717973573	59750	1423.62	265.78	832.74	398.41	6.30	273.95	0.67	105.43	6728.14	-6621.99	4850.32
Fixation L	1	5	3717973573	3718411672	438099	836.46	379.06	10	28	-1	14.83	14.83
Fixation R	1	5	3717973573	3718411672	438099	836.46	379.06	10	28	-1	14.02	14.02
Saccade L	1	5	3718411672	3718431543	19871	830.85	388.21	778.79	357.06	0.61	61.37	1.00	30.71	1507.23	-1395.62	1291.07
Saccade R	1	5	3718411672	3718431543	19871	830.85	388.21	778.79	357.06	0.61	61.37	1.00	30.71	1507.23	-1395.62	1291.07
Fixation L	1	6	3718431543	3718590910	159367	768.56	314.28	21	58	-1	15.24	15.24
Fixation R	1	6	3718431543	3718590910	159367	768.56	314.28	21	58	-1	14.48	14.48
Saccade L	1	6	3718590910	3718630667	39757	762.21	298.82	521.54	278.53	2.14	123.11	1.00	53.79	2881.43	-2788.52	2689.30
Saccade R	1	6	3718590910	3718630667	39757	762.21	298.82	521.54	278.53	2.14	123.11	1.00	53.79	2881.43	-2788.52	2689.30
Fixation L	1	7	3718630667	3718929403	298736	527.45	254.56	13	42	-1	15.00	15.00
Fixation R	1	7	3718630667	3718929403	298736	527.45	254.56	13	42	-1	15.01	15.01
Saccade L	1	7	3718929403	3718969275	39872	534.82	252.61	540.26	475.26	2.01	127.67	0.50	50.52	2951.62	-2910.91	2604.72
Saccade R	1	7	3718929403	3718969275	39872	534.82	252.61	540.26	475.26	2.01	127.67	0.50	50.52	2951.62	-2910.91	2604.72
Fixation L	1	8	3718969275	3719108632	139357	554.62	488.02	22	22	-1	15.52	15.52
Fixation R	1	8	3718969275	3719108632	139357	554.62	488.02	22	22	-1	15.48	15.48
Saccade L	1	8	3719108632	3719128515	19883	562.52	493.84	566.65	643.13	1.07	151.04	1.00	53.77	3527.24	-3561.45	2625.51
Saccade R	1	8	3719108632	3719128515	19883	562.52	493.84	566.65	643.13	1.07	151.04	1.00	53.77	3527.24	-3561.45	2625.51
Fixation L	1	9	3719128515	3719506876	378361	572.77	669.79	50	41	-1	16.07	16.07
Fixation R	1	9	3719128515	3719506876	378361	572.77	669.79	50	41	-1	16.30	16.30
Saccade L	1	9	3719506876	3719566613	59737	568.01	664.71	668.77	694.96	3.01	160.07	1.00	50.43	2745.28	-3872.96	1573.98
Saccade R	1	9	3719506876	3719566613	59737	568.01	664.71	668.77	694.96	3.01	160.07	1.00	50.43	2745.28	-3872.96	1573.98
Fixation L	1	10	3719566613	3719686113	119500	706.60	701.82	49	23	-1	15.97	15.97
Fixation R	1	10	3719566613	3719686113	119500	706.60	701.82	49	23	-1	16.11	16.11
Saccade L	1	10	3719686113	3719845354	159241	718.14	716.15	1389.23	254.00	14.77	322.01	0.25	92.78	7906.12	-6890.19	3190.25
Saccade R	1	10	3719686113	3719845354	159241	718.14	716.15	1389.23	254.00	14.77	322.01	0.25	92.78	7906.12	-6890.19	3190.25
Fixation L	1	11	3719845354	3720084347	238993	1367.00	270.95	31	36	-1	15.66	15.66
Fixation R	1	11	3719845354	3720084347	238993	1367.00	270.95	31	36	-1	15.59	15.59
Saccade L	1	11	3720084347	3720144088	59741	1357.92	280.17	1492.73	269.91	1.93	137.65	0.33	32.32	3374.47	-3132.22	1643.25
Saccade R	1	11	3720084347	3720144088	59741	1357.92	280.17	1492.73	269.91	1.93	137.65	0.33	32.32	3374.47	-3132.22	1643.25
