[BeGaze]
Converted from:	C:\Documents and Settings\iViewX\Desktop\EXPERIMENTATIONS\Experiments\results\finaleart\S7121223-finaleart-1.idf
Date:	27.03.2019 15:36:55
Version:	BeGaze 2.5.77
Sample Rate:	50
Subject:	S7121223
Description:	Gregoire pacreau

Table Header for Fixations:
Event Type	Trial	Number	Start	End	Duration	Location X	Location Y	Dispersion X	Dispersion Y	Plane	Avg. Pupil Size X	Avg. Pupil Size Y

Table Header for Saccades:
Event Type	Trial	Number	Start	End	Duration	Start Loc.X	Start Loc.Y	End Loc.X	End Loc.Y	Amplitude	Peak Speed	Peak Speed At	Average Speed	Peak Accel.	Peak Decel.	Average Accel.

Table Header for Blinks:
Event Type	Trial	Number	Start	End	Duration

Table Header for User Events:
Event Type	Trial	Number	Start	Description

UserEvent	1	1	4378998343	# Message: flowers-and-fruit-a-melon_fantin-latour_1865.jpg
Fixation L	1	1	4379009710	4379367851	358141	877.30	532.16	76	22	-1	13.81	13.81
Fixation R	1	1	4379009710	4379367851	358141	877.30	532.16	76	22	-1	13.93	13.93
Saccade L	1	1	4379367851	4379407579	39728	926.81	540.94	929.68	543.67	0.76	79.75	1.00	19.04	1898.75	-14.98	541.25
Saccade R	1	1	4379367851	4379407579	39728	926.81	540.94	929.68	543.67	0.76	79.75	1.00	19.04	1898.75	-14.98	541.25
Fixation L	1	2	4379407579	4379626307	218728	932.75	621.74	7	91	-1	13.98	13.98
Fixation R	1	2	4379407579	4379626307	218728	932.75	621.74	7	91	-1	14.03	14.03
Saccade L	1	2	4379626307	4379646178	19871	936.61	631.77	1098.26	490.37	1.23	217.16	1.00	62.11	5387.41	-5100.52	3641.97
Saccade R	1	2	4379626307	4379646178	19871	936.61	631.77	1098.26	490.37	1.23	217.16	1.00	62.11	5387.41	-5100.52	3641.97
Fixation L	1	3	4379646178	4379865034	218856	1130.33	480.40	41	50	-1	13.67	13.67
Fixation R	1	3	4379646178	4379865034	218856	1130.33	480.40	41	50	-1	13.55	13.55
Saccade L	1	3	4379865034	4379884912	19878	1140.10	446.16	1177.20	308.54	0.92	144.15	1.00	46.37	3522.46	-3437.99	2494.31
Saccade R	1	3	4379865034	4379884912	19878	1140.10	446.16	1177.20	308.54	0.92	144.15	1.00	46.37	3522.46	-3437.99	2494.31
Fixation L	1	4	4379884912	4380063919	179007	1195.39	320.26	27	22	-1	13.37	13.37
Fixation R	1	4	4379884912	4380063919	179007	1195.39	320.26	27	22	-1	13.49	13.49
Saccade L	1	4	4380063919	4380083769	19850	1194.93	325.58	1148.65	279.51	0.68	66.06	1.00	34.37	1503.51	-1512.08	1414.82
Saccade R	1	4	4380063919	4380083769	19850	1194.93	325.58	1148.65	279.51	0.68	66.06	1.00	34.37	1503.51	-1512.08	1414.82
Fixation L	1	5	4380083769	4380223019	139250	1128.04	223.84	28	70	-1	13.55	13.55
Fixation R	1	5	4380083769	4380223019	139250	1128.04	223.84	28	70	-1	13.37	13.37
Saccade L	1	5	4380223019	4380242890	19871	1128.29	208.61	1127.84	203.75	0.07	6.37	0.00	3.61	86.09	-118.36	90.41
Saccade R	1	5	4380223019	4380242890	19871	1128.29	208.61	1127.84	203.75	0.07	6.37	0.00	3.61	86.09	-118.36	90.41
Fixation L	1	6	4380242890	4380521376	278486	1104.60	177.21	42	45	-1	13.28	13.28
Fixation R	1	6	4380242890	4380521376	278486	1104.60	177.21	42	45	-1	13.07	13.07
Saccade L	1	6	4380521376	4380561123	39747	1085.27	161.77	1328.34	161.51	2.09	133.04	1.00	52.66	3248.59	-2726.86	2814.33
Saccade R	1	6	4380521376	4380561123	39747	1085.27	161.77	1328.34	161.51	2.09	133.04	1.00	52.66	3248.59	-2726.86	2814.33
Fixation L	1	7	4380561123	4380819740	258617	1347.17	185.12	33	39	-1	14.00	14.00
Fixation R	1	7	4380561123	4380819740	258617	1347.17	185.12	33	39	-1	13.60	13.60
Saccade L	1	7	4380819740	4380859490	39750	1357.56	195.14	1484.06	329.22	2.09	110.00	1.00	52.59	2498.45	-2325.30	2222.48
Saccade R	1	7	4380819740	4380859490	39750	1357.56	195.14	1484.06	329.22	2.09	110.00	1.00	52.59	2498.45	-2325.30	2222.48
Fixation L	1	8	4380859490	4381157844	298354	1497.02	331.06	22	47	-1	14.86	14.86
Fixation R	1	8	4380859490	4381157844	298354	1497.02	331.06	22	47	-1	14.79	14.79
Saccade L	1	8	4381157844	4381177719	19875	1487.16	337.44	1303.07	380.61	1.32	191.21	1.00	66.32	4485.35	-4368.97	3269.91
Saccade R	1	8	4381157844	4381177719	19875	1487.16	337.44	1303.07	380.61	1.32	191.21	1.00	66.32	4485.35	-4368.97	3269.91
Fixation L	1	9	4381177719	4381376580	198861	1252.44	402.56	58	36	-1	14.92	14.92
Fixation R	1	9	4381177719	4381376580	198861	1252.44	402.56	58	36	-1	14.92	14.92
Saccade L	1	9	4381376580	4381436205	59625	1248.71	398.30	1031.29	784.37	4.78	319.21	0.67	80.16	7760.25	-7819.56	4240.34
Saccade R	1	9	4381376580	4381436205	59625	1248.71	398.30	1031.29	784.37	4.78	319.21	0.67	80.16	7760.25	-7819.56	4240.34
Fixation L	1	10	4381436205	4381774439	338234	1006.12	790.29	61	32	-1	15.51	15.51
Fixation R	1	10	4381436205	4381774439	338234	1006.12	790.29	61	32	-1	15.58	15.58
Saccade L	1	10	4381774439	4381794313	19874	970.80	800.60	957.09	813.93	0.27	25.41	1.00	13.76	-105.12	-301.87	186.28
Saccade R	1	10	4381774439	4381794313	19874	970.80	800.60	957.09	813.93	0.27	25.41	1.00	13.76	-105.12	-301.87	186.28
Fixation L	1	11	4381794313	4381933547	139234	952.00	804.81	11	21	-1	14.86	14.86
Fixation R	1	11	4381794313	4381933547	139234	952.00	804.81	11	21	-1	14.98	14.98
Saccade L	1	11	4381933547	4381993173	59626	946.67	808.66	539.84	651.50	4.64	200.04	0.67	77.86	4895.08	-4705.40	3343.59
Saccade R	1	11	4381933547	4381993173	59626	946.67	808.66	539.84	651.50	4.64	200.04	0.67	77.86	4895.08	-4705.40	3343.59
Fixation L	1	12	4381993173	4382212163	218990	556.82	657.06	21	14	-1	14.53	14.53
Fixation R	1	12	4381993173	4382212163	218990	556.82	657.06	21	14	-1	15.29	15.29
Saccade L	1	12	4382212163	4382232033	19870	560.90	660.35	474.44	648.11	0.56	88.33	1.00	28.06	2150.61	-1918.77	1499.72
Saccade R	1	12	4382212163	4382232033	19870	560.90	660.35	474.44	648.11	0.56	88.33	1.00	28.06	2150.61	-1918.77	1499.72
Fixation L	1	13	4382232033	4382610402	378369	479.90	624.40	19	37	-1	14.40	14.40
Fixation R	1	13	4382232033	4382610402	378369	479.90	624.40	19	37	-1	15.14	15.14
Saccade L	1	13	4382610402	4382670146	59744	479.55	610.60	965.94	776.25	5.38	250.20	0.67	90.05	6224.29	-6011.02	3942.18
Saccade R	1	13	4382610402	4382670146	59744	479.55	610.60	965.94	776.25	5.38	250.20	0.67	90.05	6224.29	-6011.02	3942.18
Fixation L	1	14	4382670146	4382849379	179233	978.67	780.20	63	8	-1	15.06	15.06
Fixation R	1	14	4382670146	4382849379	179233	978.67	780.20	63	8	-1	15.78	15.78
Saccade L	1	14	4382849379	4382889138	39759	1029.61	781.56	1348.68	855.52	3.28	266.90	0.50	82.45	6619.09	-6095.14	3629.08
Saccade R	1	14	4382849379	4382889138	39759	1029.61	781.56	1348.68	855.52	3.28	266.90	0.50	82.45	6619.09	-6095.14	3629.08
Fixation L	1	15	4382889138	4382988756	99618	1346.96	882.24	4	37	-1	15.73	15.73
Fixation R	1	15	4382889138	4382988756	99618	1346.96	882.24	4	37	-1	15.44	15.44
