[BeGaze]
Converted from:	C:\Documents and Settings\iViewX\Desktop\EXPERIMENTATIONS\Experiments\results\finaleart\S7121223-finaleart-1.idf
Date:	27.03.2019 15:36:58
Version:	BeGaze 2.5.77
Sample Rate:	50
Subject:	S7121223
Description:	Gregoire pacreau

Table Header for Fixations:
Event Type	Trial	Number	Start	End	Duration	Location X	Location Y	Dispersion X	Dispersion Y	Plane	Avg. Pupil Size X	Avg. Pupil Size Y

Table Header for Saccades:
Event Type	Trial	Number	Start	End	Duration	Start Loc.X	Start Loc.Y	End Loc.X	End Loc.Y	Amplitude	Peak Speed	Peak Speed At	Average Speed	Peak Accel.	Peak Decel.	Average Accel.

Table Header for Blinks:
Event Type	Trial	Number	Start	End	Duration

Table Header for User Events:
Event Type	Trial	Number	Start	Description

UserEvent	1	1	4433947181	# Message: Niagara_Falls_Hale_1902.jpg
Fixation L	1	1	4433958358	4434435588	477230	809.73	613.66	29	13	-1	14.60	14.60
Fixation R	1	1	4433958358	4434435588	477230	809.73	613.66	29	13	-1	14.97	14.97
Saccade L	1	1	4434435588	4434455580	19992	830.11	606.55	950.60	580.94	0.78	124.59	1.00	39.16	3007.15	-2967.90	2067.15
Saccade R	1	1	4434435588	4434455580	19992	830.11	606.55	950.60	580.94	0.78	124.59	1.00	39.16	3007.15	-2967.90	2067.15
Fixation L	1	2	4434455580	4434654441	198861	961.91	563.44	16	31	-1	12.46	12.46
Fixation R	1	2	4434455580	4434654441	198861	961.91	563.44	16	31	-1	12.42	12.42
Saccade L	1	2	4434654441	4434694201	39760	966.91	550.69	1015.73	333.00	1.91	140.24	0.50	48.10	3449.37	-3287.48	2699.78
Saccade R	1	2	4434654441	4434694201	39760	966.91	550.69	1015.73	333.00	1.91	140.24	0.50	48.10	3449.37	-3287.48	2699.78
Fixation L	1	3	4434694201	4434853300	159099	1030.77	341.13	27	14	-1	10.73	10.73
Fixation R	1	3	4434694201	4434853300	159099	1030.77	341.13	27	14	-1	10.47	10.47
Saccade L	1	3	4434853300	4434873187	19887	1043.12	337.96	1044.06	254.56	0.57	84.37	1.00	28.62	2041.04	-1981.03	1357.29
Saccade R	1	3	4434853300	4434873187	19887	1043.12	337.96	1044.06	254.56	0.57	84.37	1.00	28.62	2041.04	-1981.03	1357.29
Fixation L	1	4	4434873187	4435111913	238726	1058.89	238.45	25	68	-1	10.19	10.19
Fixation R	1	4	4434873187	4435111913	238726	1058.89	238.45	25	68	-1	9.90	9.90
Saccade L	1	4	4435111913	4435131784	19871	1069.15	204.98	1073.07	183.41	0.32	23.00	1.00	16.29	16.64	-498.20	178.46
Saccade R	1	4	4435111913	4435131784	19871	1069.15	204.98	1073.07	183.41	0.32	23.00	1.00	16.29	16.64	-498.20	178.46
Fixation L	1	5	4435131784	4435529520	397736	1086.25	177.58	34	43	-1	10.39	10.39
Fixation R	1	5	4435131784	4435529520	397736	1086.25	177.58	34	43	-1	9.86	9.86
Saccade L	1	5	4435529520	4435549391	19871	1104.99	152.27	1157.67	141.49	0.35	54.40	1.00	17.40	1181.22	-1161.97	812.11
Saccade R	1	5	4435529520	4435549391	19871	1104.99	152.27	1157.67	141.49	0.35	54.40	1.00	17.40	1181.22	-1161.97	812.11
Fixation L	1	6	4435549391	4436006868	457477	1192.30	128.16	66	26	-1	11.07	11.07
Fixation R	1	6	4435549391	4436006868	457477	1192.30	128.16	66	26	-1	10.45	10.45
Saccade L	1	6	4436006868	4436026751	19883	1223.75	133.21	1102.83	219.37	1.04	150.17	1.00	52.13	3704.67	-3329.48	2796.40
Saccade R	1	6	4436006868	4436026751	19883	1223.75	133.21	1102.83	219.37	1.04	150.17	1.00	52.13	3704.67	-3329.48	2796.40
Fixation L	1	7	4436026751	4436285359	258608	1068.65	248.18	49	36	-1	12.29	12.29
Fixation R	1	7	4436026751	4436285359	258608	1068.65	248.18	49	36	-1	11.84	11.84
Saccade L	1	7	4436285359	4436305230	19871	1064.73	249.88	1053.30	280.33	0.27	32.91	1.00	13.44	737.94	-296.61	400.16
Saccade R	1	7	4436285359	4436305230	19871	1064.73	249.88	1053.30	280.33	0.27	32.91	1.00	13.44	737.94	-296.61	400.16
Fixation L	1	8	4436305230	4436504107	198877	1030.36	291.08	36	27	-1	12.82	12.82
Fixation R	1	8	4436305230	4436504107	198877	1030.36	291.08	36	27	-1	12.64	12.64
Saccade L	1	8	4436504107	4436543834	39727	1016.49	304.43	754.34	344.41	2.57	165.31	1.00	64.71	3966.39	-3807.59	2941.71
Saccade R	1	8	4436504107	4436543834	39727	1016.49	304.43	754.34	344.41	2.57	165.31	1.00	64.71	3966.39	-3807.59	2941.71
Fixation L	1	9	4436543834	4436722956	179122	735.10	386.57	26	49	-1	12.83	12.83
Fixation R	1	9	4436543834	4436722956	179122	735.10	386.57	26	49	-1	12.89	12.89
Saccade L	1	9	4436722956	4436762702	39746	727.55	392.78	554.19	276.76	2.07	141.39	0.50	52.16	3488.73	-3034.45	2796.94
Saccade R	1	9	4436722956	4436762702	39746	727.55	392.78	554.19	276.76	2.07	141.39	0.50	52.16	3488.73	-3034.45	2796.94
Fixation L	1	10	4436762702	4437080931	318229	548.31	250.54	31	65	-1	12.04	12.04
Fixation R	1	10	4436762702	4437080931	318229	548.31	250.54	31	65	-1	11.84	11.84
Saccade L	1	10	4437080931	4437100814	19883	560.98	213.00	564.33	201.24	0.28	30.04	1.00	14.28	538.69	-242.49	311.54
Saccade R	1	10	4437080931	4437100814	19883	560.98	213.00	564.33	201.24	0.28	30.04	1.00	14.28	538.69	-242.49	311.54
Fixation L	1	11	4437100814	4437319548	218734	572.43	168.90	39	42	-1	11.96	11.96
Fixation R	1	11	4437100814	4437319548	218734	572.43	168.90	39	42	-1	11.77	11.77
Saccade L	1	11	4437319548	4437339430	19882	604.04	158.68	750.83	155.78	0.97	148.50	1.00	48.93	3643.15	-3351.13	2518.57
Saccade R	1	11	4437319548	4437339430	19882	604.04	158.68	750.83	155.78	0.97	148.50	1.00	48.93	3643.15	-3351.13	2518.57
Fixation L	1	12	4437339430	4437538412	198982	775.87	154.37	32	10	-1	12.34	12.34
Fixation R	1	12	4437339430	4437538412	198982	775.87	154.37	32	10	-1	12.08	12.08
Saccade L	1	12	4437538412	4437578163	39751	780.58	146.09	1135.49	158.69	2.97	217.48	0.50	74.78	5410.95	-5275.65	4360.84
Saccade R	1	12	4437538412	4437578163	39751	780.58	146.09	1135.49	158.69	2.97	217.48	0.50	74.78	5410.95	-5275.65	4360.84
Fixation L	1	13	4437578163	4437936138	357975	1129.78	174.41	12	26	-1	12.39	12.39
Fixation R	1	13	4437578163	4437936138	357975	1129.78	174.41	12	26	-1	11.84	11.84
