[BeGaze]
Converted from:	C:\Documents and Settings\iViewX\Desktop\EXPERIMENTATIONS\Experiments\results\finaleart\S7121223-finaleart-1.idf
Date:	27.03.2019 15:37:12
Version:	BeGaze 2.5.77
Sample Rate:	50
Subject:	S7121223
Description:	Gregoire pacreau

Table Header for Fixations:
Event Type	Trial	Number	Start	End	Duration	Location X	Location Y	Dispersion X	Dispersion Y	Plane	Avg. Pupil Size X	Avg. Pupil Size Y

Table Header for Saccades:
Event Type	Trial	Number	Start	End	Duration	Start Loc.X	Start Loc.Y	End Loc.X	End Loc.Y	Amplitude	Peak Speed	Peak Speed At	Average Speed	Peak Accel.	Peak Decel.	Average Accel.

Table Header for Blinks:
Event Type	Trial	Number	Start	End	Duration

Table Header for User Events:
Event Type	Trial	Number	Start	Description

UserEvent	1	1	5093023863	# Message: void.jpg
Fixation L	1	1	5093042480	5093201601	159121	1422.12	137.66	5	74	-1	15.03	15.03
Fixation R	1	1	5093042480	5093201601	159121	1422.12	137.66	5	74	-1	15.60	15.60
Saccade L	1	1	5093201601	5093221484	19883	1425.10	198.57	1432.39	313.62	1.00	116.60	1.00	50.10	2724.06	-2725.82	2314.36
Saccade R	1	1	5093201601	5093221484	19883	1425.10	198.57	1432.39	313.62	1.00	116.60	1.00	50.10	2724.06	-2725.82	2314.36
Fixation L	1	2	5093221484	5093519836	298352	1441.66	315.57	16	26	-1	15.31	15.31
Fixation R	1	2	5093221484	5093519836	298352	1441.66	315.57	16	26	-1	16.00	16.00
Saccade L	1	2	5093519836	5093798314	278478	1441.64	331.08	903.71	556.60	11.33	91.23	0.14	40.68	2220.64	-1505.25	787.86
Saccade R	1	2	5093519836	5093798314	278478	1441.64	331.08	903.71	556.60	11.33	91.23	0.14	40.68	2220.64	-1505.25	787.86
Fixation L	1	3	5093798314	5094434783	636469	869.95	584.47	45	53	-1	13.73	13.73
Fixation R	1	3	5093798314	5094434783	636469	869.95	584.47	45	53	-1	15.03	15.03
Saccade L	1	3	5094434783	5094454652	19869	874.74	602.32	873.71	604.23	0.05	4.64	0.00	2.34	2.90	-104.91	38.95
Saccade R	1	3	5094434783	5094454652	19869	874.74	602.32	873.71	604.23	0.05	4.64	0.00	2.34	2.90	-104.91	38.95
Fixation L	1	4	5094454652	5095011492	556840	881.88	553.09	21	75	-1	13.68	13.68
Fixation R	1	4	5094454652	5095011492	556840	881.88	553.09	21	75	-1	14.98	14.98
