[BeGaze]
Converted from:	C:\Documents and Settings\iViewX\Desktop\EXPERIMENTATIONS\Experiments\results\finaleart\S7121223-finaleart-1.idf
Date:	27.03.2019 15:36:54
Version:	BeGaze 2.5.77
Sample Rate:	50
Subject:	S7121223
Description:	Gregoire pacreau

Table Header for Fixations:
Event Type	Trial	Number	Start	End	Duration	Location X	Location Y	Dispersion X	Dispersion Y	Plane	Avg. Pupil Size X	Avg. Pupil Size Y

Table Header for Saccades:
Event Type	Trial	Number	Start	End	Duration	Start Loc.X	Start Loc.Y	End Loc.X	End Loc.Y	Amplitude	Peak Speed	Peak Speed At	Average Speed	Peak Accel.	Peak Decel.	Average Accel.

Table Header for Blinks:
Event Type	Trial	Number	Start	End	Duration

Table Header for User Events:
Event Type	Trial	Number	Start	Description

UserEvent	1	1	4376951637	# Message: void.jpg
Fixation L	1	1	4376961214	4377458427	497213	1044.98	983.95	53	33	-1	17.70	17.70
Fixation R	1	1	4376961214	4377458427	497213	1044.98	983.95	53	33	-1	17.51	17.51
Saccade L	1	1	4377458427	4377518082	59655	1026.73	991.30	868.33	884.21	2.23	119.87	1.00	37.36	2029.05	-2803.29	1462.11
Saccade R	1	1	4377458427	4377518082	59655	1026.73	991.30	868.33	884.21	2.23	119.87	1.00	37.36	2029.05	-2803.29	1462.11
Fixation L	1	2	4377518082	4377697027	178945	844.83	856.45	33	63	-1	14.36	14.36
Fixation R	1	2	4377518082	4377697027	178945	844.83	856.45	33	63	-1	14.39	14.39
Saccade L	1	2	4377697027	4377717025	19998	834.65	826.68	835.67	822.91	0.18	18.16	0.00	9.08	406.82	-195.86	201.55
Saccade R	1	2	4377697027	4377717025	19998	834.65	826.68	835.67	822.91	0.18	18.16	0.00	9.08	406.82	-195.86	201.55
Fixation L	1	3	4377717025	4377816388	99363	834.91	820.70	3	24	-1	12.60	12.60
Fixation R	1	3	4377717025	4377816388	99363	834.91	820.70	3	24	-1	12.81	12.81
Saccade L	1	3	4377816388	4377876013	59625	834.09	819.63	1214.12	1031.73	4.92	268.85	0.67	82.50	6525.54	-6386.23	3634.38
Saccade R	1	3	4377816388	4377876013	59625	834.09	819.63	1214.12	1031.73	4.92	268.85	0.67	82.50	6525.54	-6386.23	3634.38
Fixation L	1	4	4377876013	4378075005	198992	1220.18	1047.77	9	21	-1	12.77	12.77
Fixation R	1	4	4377876013	4378075005	198992	1220.18	1047.77	9	21	-1	12.46	12.46
Saccade L	1	4	4378075005	4378134626	59621	1220.58	1051.82	825.04	710.81	6.21	244.82	0.67	104.11	6060.40	-4580.74	3985.70
Saccade R	1	4	4378075005	4378134626	59621	1220.58	1051.82	825.04	710.81	6.21	244.82	0.67	104.11	6060.40	-4580.74	3985.70
Fixation L	1	5	4378134626	4378234120	99494	808.22	659.49	25	65	-1	13.25	13.25
Fixation R	1	5	4378134626	4378234120	99494	808.22	659.49	25	65	-1	13.39	13.39
Saccade L	1	5	4378234120	4378273894	39774	799.70	645.29	773.94	517.50	1.21	115.14	1.00	30.45	2788.63	-2537.72	1458.83
Saccade R	1	5	4378234120	4378273894	39774	799.70	645.29	773.94	517.50	1.21	115.14	1.00	30.45	2788.63	-2537.72	1458.83
Fixation L	1	6	4378273894	4378671596	397702	763.79	513.22	14	25	-1	13.30	13.30
Fixation R	1	6	4378273894	4378671596	397702	763.79	513.22	14	25	-1	13.84	13.84
Saccade L	1	6	4378671596	4378691597	20001	761.95	510.15	893.53	509.31	0.82	133.08	1.00	40.84	3271.40	-2640.27	2134.85
Saccade R	1	6	4378671596	4378691597	20001	761.95	510.15	893.53	509.31	0.82	133.08	1.00	40.84	3271.40	-2640.27	2134.85
Fixation L	1	7	4378691597	4378950083	258486	869.64	533.21	48	50	-1	14.00	14.00
Fixation R	1	7	4378691597	4378950083	258486	869.64	533.21	48	50	-1	14.43	14.43
