[BeGaze]
Converted from:	C:\Documents and Settings\iViewX\Desktop\EXPERIMENTATIONS\Experiments\results\finaleart\S7121223-finaleart-1.idf
Date:	27.03.2019 15:36:44
Version:	BeGaze 2.5.77
Sample Rate:	50
Subject:	S7121223
Description:	Gregoire pacreau

Table Header for Fixations:
Event Type	Trial	Number	Start	End	Duration	Location X	Location Y	Dispersion X	Dispersion Y	Plane	Avg. Pupil Size X	Avg. Pupil Size Y

Table Header for Saccades:
Event Type	Trial	Number	Start	End	Duration	Start Loc.X	Start Loc.Y	End Loc.X	End Loc.Y	Amplitude	Peak Speed	Peak Speed At	Average Speed	Peak Accel.	Peak Decel.	Average Accel.

Table Header for Blinks:
Event Type	Trial	Number	Start	End	Duration

Table Header for User Events:
Event Type	Trial	Number	Start	Description

UserEvent	1	1	4057913301	# Message: the-wood_cross_907.jpg
Fixation L	1	1	4057924279	4058262379	338100	843.31	459.97	78	20	-1	15.58	15.58
Fixation R	1	1	4057924279	4058262379	338100	843.31	459.97	78	20	-1	16.06	16.06
Saccade L	1	1	4058262379	4058381773	119394	808.84	447.73	959.50	453.38	2.63	158.13	1.00	22.04	3928.51	-3889.76	1038.30
Saccade R	1	1	4058262379	4058381773	119394	808.84	447.73	959.50	453.38	2.63	158.13	1.00	22.04	3928.51	-3889.76	1038.30
Fixation L	1	2	4058381773	4058998345	616572	963.61	446.41	24	27	-1	13.22	13.22
Fixation R	1	2	4058381773	4058998345	616572	963.61	446.41	24	27	-1	13.34	13.34
Saccade L	1	2	4058998345	4059038091	39746	954.87	440.61	938.59	608.20	1.44	90.83	1.00	36.16	2211.71	-2087.04	2018.01
Saccade R	1	2	4058998345	4059038091	39746	954.87	440.61	938.59	608.20	1.44	90.83	1.00	36.16	2211.71	-2087.04	2018.01
Fixation L	1	3	4059038091	4059415943	377852	909.33	598.43	57	39	-1	12.45	12.45
Fixation R	1	3	4059038091	4059415943	377852	909.33	598.43	57	39	-1	12.45	12.45
Saccade L	1	3	4059415943	4059435938	19995	883.63	580.41	880.57	575.50	0.16	13.62	1.00	8.03	188.94	-194.20	138.43
Saccade R	1	3	4059415943	4059435938	19995	883.63	580.41	880.57	575.50	0.16	13.62	1.00	8.03	188.94	-194.20	138.43
Fixation L	1	4	4059435938	4059575071	139133	875.59	581.16	8	13	-1	12.50	12.50
Fixation R	1	4	4059435938	4059575071	139133	875.59	581.16	8	13	-1	12.58	12.58
Saccade L	1	4	4059575071	4059595058	19987	878.12	589.29	940.07	697.96	0.86	126.53	1.00	42.91	3063.79	-2533.03	1975.04
Saccade R	1	4	4059575071	4059595058	19987	878.12	589.29	940.07	697.96	0.86	126.53	1.00	42.91	3063.79	-2533.03	1975.04
Fixation L	1	5	4059595058	4059913171	318113	948.12	704.27	46	46	-1	12.60	12.60
Fixation R	1	5	4059595058	4059913171	318113	948.12	704.27	46	46	-1	12.44	12.44
Saccade L	1	5	4059913171	4059933178	20007	953.02	730.22	954.06	740.85	0.14	10.81	1.00	6.92	194.89	91.07	150.00
Saccade R	1	5	4059913171	4059933178	20007	953.02	730.22	954.06	740.85	0.14	10.81	1.00	6.92	194.89	91.07	150.00
Fixation L	1	6	4059933178	4060211536	278358	945.77	774.46	39	59	-1	12.85	12.85
Fixation R	1	6	4059933178	4060211536	278358	945.77	774.46	39	59	-1	12.97	12.97
Saccade L	1	6	4060211536	4060231407	19871	920.12	791.81	918.80	800.80	0.14	9.69	0.00	6.99	131.88	-113.21	93.40
Saccade R	1	6	4060211536	4060231407	19871	920.12	791.81	918.80	800.80	0.14	9.69	0.00	6.99	131.88	-113.21	93.40
Fixation L	1	7	4060231407	4060470156	238749	919.36	819.36	7	32	-1	12.76	12.76
Fixation R	1	7	4060231407	4060470156	238749	919.36	819.36	7	32	-1	12.52	12.52
Saccade L	1	7	4060470156	4060509883	39727	920.81	833.27	1060.14	838.61	1.28	75.38	1.00	32.18	1836.40	-1808.86	1620.24
Saccade R	1	7	4060470156	4060509883	39727	920.81	833.27	1060.14	838.61	1.28	75.38	1.00	32.18	1836.40	-1808.86	1620.24
Fixation L	1	8	4060509883	4061126496	616613	1072.90	848.37	24	18	-1	12.47	12.47
Fixation R	1	8	4060509883	4061126496	616613	1072.90	848.37	24	18	-1	12.43	12.43
Saccade L	1	8	4061126496	4061146359	19863	1085.10	847.41	1118.63	695.23	0.90	157.60	1.00	45.44	3905.25	-3753.37	2676.44
Saccade R	1	8	4061126496	4061146359	19863	1085.10	847.41	1118.63	695.23	0.90	157.60	1.00	45.44	3905.25	-3753.37	2676.44
Fixation L	1	9	4061146359	4061683327	536968	1129.84	690.15	28	25	-1	12.23	12.23
Fixation R	1	9	4061146359	4061683327	536968	1129.84	690.15	28	25	-1	11.96	11.96
Saccade L	1	9	4061683327	4061723211	39884	1122.06	686.30	1445.39	686.01	2.98	174.26	0.50	74.62	4270.90	-3624.39	3752.67
Saccade R	1	9	4061683327	4061723211	39884	1122.06	686.30	1445.39	686.01	2.98	174.26	0.50	74.62	4270.90	-3624.39	3752.67
Fixation L	1	10	4061723211	4061902191	178980	1473.61	677.14	35	12	-1	12.30	12.30
Fixation R	1	10	4061723211	4061902191	178980	1473.61	677.14	35	12	-1	11.63	11.63
