[BeGaze]
Converted from:	C:\Documents and Settings\iViewX\Desktop\EXPERIMENTATIONS\Experiments\results\finaleart\S7121223-finaleart-1.idf
Date:	27.03.2019 15:36:42
Version:	BeGaze 2.5.77
Sample Rate:	50
Subject:	S7121223
Description:	Gregoire pacreau

Table Header for Fixations:
Event Type	Trial	Number	Start	End	Duration	Location X	Location Y	Dispersion X	Dispersion Y	Plane	Avg. Pupil Size X	Avg. Pupil Size Y

Table Header for Saccades:
Event Type	Trial	Number	Start	End	Duration	Start Loc.X	Start Loc.Y	End Loc.X	End Loc.Y	Amplitude	Peak Speed	Peak Speed At	Average Speed	Peak Accel.	Peak Decel.	Average Accel.

Table Header for Blinks:
Event Type	Trial	Number	Start	End	Duration

Table Header for User Events:
Event Type	Trial	Number	Start	Description

UserEvent	1	1	4025388040	# Message: void.jpg
Fixation L	1	1	4025399350	4025558711	159361	864.89	334.61	5	39	-1	14.94	14.94
Fixation R	1	1	4025399350	4025558711	159361	864.89	334.61	5	39	-1	15.06	15.06
Saccade L	1	1	4025558711	4025598469	39758	862.88	337.36	662.50	243.40	2.41	146.69	1.00	60.64	3010.33	-3333.62	2478.58
Saccade R	1	1	4025558711	4025598469	39758	862.88	337.36	662.50	243.40	2.41	146.69	1.00	60.64	3010.33	-3333.62	2478.58
Fixation L	1	2	4025598469	4025897190	298721	644.41	224.20	45	47	-1	15.75	15.75
Fixation R	1	2	4025598469	4025897190	298721	644.41	224.20	45	47	-1	15.47	15.47
Saccade L	1	2	4025897190	4026016695	119505	666.87	199.32	1358.65	264.73	10.93	274.66	0.50	91.47	6549.71	-4136.48	2950.30
Saccade R	1	2	4025897190	4026016695	119505	666.87	199.32	1358.65	264.73	10.93	274.66	0.50	91.47	6549.71	-4136.48	2950.30
Fixation L	1	3	4026016695	4026116187	99492	1355.62	283.85	15	48	-1	15.10	15.10
Fixation R	1	3	4026016695	4026116187	99492	1355.62	283.85	15	48	-1	14.93	14.93
Saccade L	1	3	4026116187	4026235678	119491	1344.30	313.55	1074.50	394.45	6.07	150.73	0.83	50.78	3168.72	-3356.11	1745.20
Saccade R	1	3	4026116187	4026235678	119491	1344.30	313.55	1074.50	394.45	6.07	150.73	0.83	50.78	3168.72	-3356.11	1745.20
Fixation L	1	4	4026235678	4026693640	457962	1057.96	407.93	70	25	-1	16.92	16.92
Fixation R	1	4	4026235678	4026693640	457962	1057.96	407.93	70	25	-1	16.72	16.72
Saccade L	1	4	4026693640	4026713642	20002	1019.65	409.94	996.54	409.44	0.34	23.38	1.00	16.94	296.93	49.35	196.83
Saccade R	1	4	4026693640	4026713642	20002	1019.65	409.94	996.54	409.44	0.34	23.38	1.00	16.94	296.93	49.35	196.83
Fixation L	1	5	4026713642	4026853015	139373	982.73	385.94	39	35	-1	17.49	17.49
Fixation R	1	5	4026713642	4026853015	139373	982.73	385.94	39	35	-1	17.44	17.44
Blink L	1	1	4026853015	4027032133	179118
Blink R	1	1	4026853015	4027032133	179118
Fixation L	1	6	4027032133	4027370737	338604	1057.56	334.06	20	16	-1	17.89	17.89
Fixation R	1	6	4027032133	4027370737	338604	1057.56	334.06	20	16	-1	18.03	18.03
