[BeGaze]
Converted from:	C:\Documents and Settings\iViewX\Desktop\EXPERIMENTATIONS\Experiments\results\finaleart\S7121223-finaleart-1.idf
Date:	27.03.2019 15:37:11
Version:	BeGaze 2.5.77
Sample Rate:	50
Subject:	S7121223
Description:	Gregoire pacreau

Table Header for Fixations:
Event Type	Trial	Number	Start	End	Duration	Location X	Location Y	Dispersion X	Dispersion Y	Plane	Avg. Pupil Size X	Avg. Pupil Size Y

Table Header for Saccades:
Event Type	Trial	Number	Start	End	Duration	Start Loc.X	Start Loc.Y	End Loc.X	End Loc.Y	Amplitude	Peak Speed	Peak Speed At	Average Speed	Peak Accel.	Peak Decel.	Average Accel.

Table Header for Blinks:
Event Type	Trial	Number	Start	End	Duration

Table Header for User Events:
Event Type	Trial	Number	Start	Description

UserEvent	1	1	5076710342	# Message: Rysselberghe-Vase-of-flowers-1907.jpg
Fixation L	1	1	5076713326	5077091306	377980	789.63	406.58	8	24	-1	15.68	15.68
Fixation R	1	1	5076713326	5077091306	377980	789.63	406.58	8	24	-1	15.89	15.89
Saccade L	1	1	5077091306	5077111191	19885	793.17	394.11	875.09	404.25	0.50	83.50	1.00	25.13	2079.24	-1704.67	1387.06
Saccade R	1	1	5077091306	5077111191	19885	793.17	394.11	875.09	404.25	0.50	83.50	1.00	25.13	2079.24	-1704.67	1387.06
Fixation L	1	2	5077111191	5077290170	178979	884.12	432.62	42	48	-1	15.96	15.96
Fixation R	1	2	5077111191	5077290170	178979	884.12	432.62	42	48	-1	16.29	16.29
Saccade L	1	2	5077290170	5077310043	19873	917.45	453.22	936.14	455.62	0.46	39.58	0.00	23.36	124.20	-471.80	294.36
Saccade R	1	2	5077290170	5077310043	19873	917.45	453.22	936.14	455.62	0.46	39.58	0.00	23.36	124.20	-471.80	294.36
Fixation L	1	3	5077310043	5077727771	417728	979.50	458.88	76	17	-1	13.45	13.45
Fixation R	1	3	5077310043	5077727771	417728	979.50	458.88	76	17	-1	12.94	12.94
Saccade L	1	3	5077727771	5077747657	19886	1012.73	469.89	1024.42	473.07	0.17	15.49	1.00	8.56	364.57	222.13	298.67
Saccade R	1	3	5077727771	5077747657	19886	1012.73	469.89	1024.42	473.07	0.17	15.49	1.00	8.56	364.57	222.13	298.67
Fixation L	1	4	5077747657	5077847014	99357	1070.86	476.16	83	6	-1	12.67	12.67
Fixation R	1	4	5077747657	5077847014	99357	1070.86	476.16	83	6	-1	11.67	11.67
Saccade L	1	4	5077847014	5077867016	20002	1108.31	479.28	1119.01	477.33	0.19	18.17	1.00	9.74	-66.47	-197.34	147.64
Saccade R	1	4	5077847014	5077867016	20002	1108.31	479.28	1119.01	477.33	0.19	18.17	1.00	9.74	-66.47	-197.34	147.64
Fixation L	1	5	5077867016	5078065872	198856	1120.71	483.60	17	9	-1	12.72	12.72
Fixation R	1	5	5077867016	5078065872	198856	1120.71	483.60	17	9	-1	11.74	11.74
Saccade L	1	5	5078065872	5078085752	19880	1134.57	486.83	1316.10	487.60	1.02	183.58	1.00	51.52	4575.67	-4536.51	3098.13
Saccade R	1	5	5078065872	5078085752	19880	1134.57	486.83	1316.10	487.60	1.02	183.58	1.00	51.52	4575.67	-4536.51	3098.13
Fixation L	1	6	5078085752	5078324358	238606	1324.68	497.51	15	19	-1	13.21	13.21
Fixation R	1	6	5078085752	5078324358	238606	1324.68	497.51	15	19	-1	12.42	12.42
Saccade L	1	6	5078324358	5078344250	19892	1331.62	504.81	1350.64	411.69	0.64	96.14	1.00	32.20	2280.78	-2116.51	1603.92
Saccade R	1	6	5078324358	5078344250	19892	1331.62	504.81	1350.64	411.69	0.64	96.14	1.00	32.20	2280.78	-2116.51	1603.92
Fixation L	1	7	5078344250	5078662481	318231	1377.70	399.62	35	29	-1	14.07	14.07
Fixation R	1	7	5078344250	5078662481	318231	1377.70	399.62	35	29	-1	13.57	13.57
Saccade L	1	7	5078662481	5078682466	19985	1359.36	422.86	1266.48	535.91	1.00	147.98	1.00	50.26	3662.81	-3461.17	2457.14
Saccade R	1	7	5078662481	5078682466	19985	1359.36	422.86	1266.48	535.91	1.00	147.98	1.00	50.26	3662.81	-3461.17	2457.14
Fixation L	1	8	5078682466	5078901210	218744	1274.27	517.99	20	23	-1	14.04	14.04
Fixation R	1	8	5078682466	5078901210	218744	1274.27	517.99	20	23	-1	13.58	13.58
Saccade L	1	8	5078901210	5078921087	19877	1258.82	515.07	1191.39	523.81	0.50	68.78	1.00	25.28	1680.85	-1282.58	1062.46
Saccade R	1	8	5078901210	5078921087	19877	1258.82	515.07	1191.39	523.81	0.50	68.78	1.00	25.28	1680.85	-1282.58	1062.46
Fixation L	1	9	5078921087	5079199570	278483	1175.88	554.18	19	39	-1	14.67	14.67
Fixation R	1	9	5078921087	5079199570	278483	1175.88	554.18	19	39	-1	13.75	13.75
Saccade L	1	9	5079199570	5079239315	39745	1172.38	562.89	1029.35	763.04	2.23	154.90	1.00	56.14	3858.58	-3690.85	3001.60
Saccade R	1	9	5079199570	5079239315	39745	1172.38	562.89	1029.35	763.04	2.23	154.90	1.00	56.14	3858.58	-3690.85	3001.60
Fixation L	1	10	5079239315	5079657041	417726	1003.79	767.03	31	44	-1	13.75	13.75
Fixation R	1	10	5079239315	5079657041	417726	1003.79	767.03	31	44	-1	12.98	12.98
Saccade L	1	10	5079657041	5079676913	19872	1019.31	792.21	1051.29	806.41	0.41	35.40	1.00	20.43	816.48	-678.52	602.92
Saccade R	1	10	5079657041	5079676913	19872	1019.31	792.21	1051.29	806.41	0.41	35.40	1.00	20.43	816.48	-678.52	602.92
Fixation L	1	11	5079676913	5080054770	377857	1066.63	822.06	23	28	-1	14.19	14.19
Fixation R	1	11	5079676913	5080054770	377857	1066.63	822.06	23	28	-1	13.49	13.49
Saccade L	1	11	5080054770	5080074670	19900	1064.10	833.61	1102.48	857.79	0.61	72.46	1.00	30.88	1756.16	-890.40	1239.79
Saccade R	1	11	5080054770	5080074670	19900	1064.10	833.61	1102.48	857.79	0.61	72.46	1.00	30.88	1756.16	-890.40	1239.79
Fixation L	1	12	5080074670	5080273517	198847	1117.87	920.91	21	73	-1	14.86	14.86
Fixation R	1	12	5080074670	5080273517	198847	1117.87	920.91	21	73	-1	14.23	14.23
Saccade L	1	12	5080273517	5080313379	39862	1124.45	931.39	800.30	756.15	3.40	282.77	1.00	85.34	7036.65	-6620.39	4371.30
Saccade R	1	12	5080273517	5080313379	39862	1124.45	931.39	800.30	756.15	3.40	282.77	1.00	85.34	7036.65	-6620.39	4371.30
Fixation L	1	13	5080313379	5080711136	397757	753.79	720.14	55	43	-1	15.20	15.20
Fixation R	1	13	5080313379	5080711136	397757	753.79	720.14	55	43	-1	14.60	14.60
