[BeGaze]
Converted from:	C:\Documents and Settings\iViewX\Desktop\EXPERIMENTATIONS\Experiments\results\finaleart\S7121223-finaleart-1.idf
Date:	27.03.2019 15:37:18
Version:	BeGaze 2.5.77
Sample Rate:	50
Subject:	S7121223
Description:	Gregoire pacreau

Table Header for Fixations:
Event Type	Trial	Number	Start	End	Duration	Location X	Location Y	Dispersion X	Dispersion Y	Plane	Avg. Pupil Size X	Avg. Pupil Size Y

Table Header for Saccades:
Event Type	Trial	Number	Start	End	Duration	Start Loc.X	Start Loc.Y	End Loc.X	End Loc.Y	Amplitude	Peak Speed	Peak Speed At	Average Speed	Peak Accel.	Peak Decel.	Average Accel.

Table Header for Blinks:
Event Type	Trial	Number	Start	End	Duration

Table Header for User Events:
Event Type	Trial	Number	Start	Description

UserEvent	1	1	5190788816	# Message: void.jpg
Fixation L	1	1	5190790287	5190889786	99499	738.82	204.13	26	73	-1	13.03	13.03
Fixation R	1	1	5190790287	5190889786	99499	738.82	204.13	26	73	-1	13.70	13.70
Saccade L	1	1	5190889786	5190909798	20012	757.79	152.21	779.10	168.56	0.64	40.29	1.00	32.00	-190.47	-480.14	332.85
Saccade R	1	1	5190889786	5190909798	20012	757.79	152.21	779.10	168.56	0.64	40.29	1.00	32.00	-190.47	-480.14	332.85
Fixation L	1	2	5190909798	5191287864	378066	807.74	155.98	36	32	-1	13.08	13.08
Fixation R	1	2	5190909798	5191287864	378066	807.74	155.98	36	32	-1	13.25	13.25
Saccade L	1	2	5191287864	5191367482	79618	814.07	178.88	936.72	369.28	3.16	106.79	0.75	39.69	1917.09	-2505.30	1109.34
Saccade R	1	2	5191287864	5191367482	79618	814.07	178.88	936.72	369.28	3.16	106.79	0.75	39.69	1917.09	-2505.30	1109.34
Fixation L	1	3	5191367482	5191467009	99527	939.11	397.80	11	57	-1	13.97	13.97
Fixation R	1	3	5191367482	5191467009	99527	939.11	397.80	11	57	-1	14.44	14.44
Saccade L	1	3	5191467009	5191486874	19865	944.37	424.61	941.13	485.03	0.42	61.21	1.00	21.36	1235.67	-1271.31	897.18
Saccade R	1	3	5191467009	5191486874	19865	944.37	424.61	941.13	485.03	0.42	61.21	1.00	21.36	1235.67	-1271.31	897.18
Fixation L	1	4	5191486874	5192780668	1293794	955.26	508.30	24	32	-1	14.81	14.81
Fixation R	1	4	5191486874	5192780668	1293794	955.26	508.30	24	32	-1	15.11	15.11
