[BeGaze]
Converted from:	C:\Documents and Settings\iViewX\Desktop\EXPERIMENTATIONS\Experiments\results\finaleart\S7121223-finaleart-1.idf
Date:	27.03.2019 15:36:51
Version:	BeGaze 2.5.77
Sample Rate:	50
Subject:	S7121223
Description:	Gregoire pacreau

Table Header for Fixations:
Event Type	Trial	Number	Start	End	Duration	Location X	Location Y	Dispersion X	Dispersion Y	Plane	Avg. Pupil Size X	Avg. Pupil Size Y

Table Header for Saccades:
Event Type	Trial	Number	Start	End	Duration	Start Loc.X	Start Loc.Y	End Loc.X	End Loc.Y	Amplitude	Peak Speed	Peak Speed At	Average Speed	Peak Accel.	Peak Decel.	Average Accel.

Table Header for Blinks:
Event Type	Trial	Number	Start	End	Duration

Table Header for User Events:
Event Type	Trial	Number	Start	Description

UserEvent	1	1	4324056201	# Message: goya-still-life-plucked-turkey-and-pan-with-fish-1812.jpg
Fixation L	1	1	4324066950	4324444927	377977	803.95	553.21	13	30	-1	15.25	15.25
Fixation R	1	1	4324066950	4324444927	377977	803.95	553.21	13	30	-1	17.12	17.12
Saccade L	1	1	4324444927	4324464810	19883	806.17	559.75	897.72	559.69	0.86	92.61	1.00	43.04	2231.33	-2034.21	2011.55
Saccade R	1	1	4324444927	4324464810	19883	806.17	559.75	897.72	559.69	0.86	92.61	1.00	43.04	2231.33	-2034.21	2011.55
Fixation L	1	2	4324464810	4324663651	198841	970.22	567.68	85	10	-1	14.75	14.75
Fixation R	1	2	4324464810	4324663651	198841	970.22	567.68	85	10	-1	16.52	16.52
Saccade L	1	2	4324663651	4324703403	39752	977.08	569.89	1101.67	479.58	1.68	137.48	1.00	42.31	3422.62	-2961.89	1884.20
Saccade R	1	2	4324663651	4324703403	39752	977.08	569.89	1101.67	479.58	1.68	137.48	1.00	42.31	3422.62	-2961.89	1884.20
Fixation L	1	3	4324703403	4324882406	179003	1075.48	444.10	33	45	-1	14.83	14.83
Fixation R	1	3	4324703403	4324882406	179003	1075.48	444.10	33	45	-1	16.21	16.21
Saccade L	1	3	4324882406	4324962009	79603	1076.84	440.98	1456.44	284.69	5.61	208.68	0.50	70.51	5019.89	-3629.63	2600.06
Saccade R	1	3	4324882406	4324962009	79603	1076.84	440.98	1456.44	284.69	5.61	208.68	0.50	70.51	5019.89	-3629.63	2600.06
Fixation L	1	4	4324962009	4325121130	159121	1478.61	278.90	38	58	-1	14.41	14.41
Fixation R	1	4	4324962009	4325121130	159121	1478.61	278.90	38	58	-1	16.11	16.11
Saccade L	1	4	4325121130	4325160872	39742	1457.54	313.39	1596.33	236.02	1.83	97.02	0.50	46.08	1318.53	-2340.83	1488.19
Saccade R	1	4	4325121130	4325160872	39742	1457.54	313.39	1596.33	236.02	1.83	97.02	0.50	46.08	1318.53	-2340.83	1488.19
Fixation L	1	5	4325160872	4325339871	178999	1596.29	227.75	14	25	-1	14.58	14.58
Fixation R	1	5	4325160872	4325339871	178999	1596.29	227.75	14	25	-1	15.39	15.39
Saccade L	1	5	4325339871	4325359884	20013	1594.44	217.14	1683.91	210.09	0.87	90.79	1.00	43.69	1945.46	-2153.33	1897.71
Saccade R	1	5	4325339871	4325359884	20013	1594.44	217.14	1683.91	210.09	0.87	90.79	1.00	43.69	1945.46	-2153.33	1897.71
Fixation L	1	6	4325359884	4325499107	139223	1720.08	201.74	81	18	-1	14.90	14.90
Fixation R	1	6	4325359884	4325499107	139223	1720.08	201.74	81	18	-1	15.44	15.44
Saccade L	1	6	4325499107	4325598602	99495	1674.47	214.21	1222.37	337.31	7.63	250.46	1.00	76.71	5321.86	-6192.20	3002.12
Saccade R	1	6	4325499107	4325598602	99495	1674.47	214.21	1222.37	337.31	7.63	250.46	1.00	76.71	5321.86	-6192.20	3002.12
Fixation L	1	7	4325598602	4325797592	198990	1171.96	348.67	58	18	-1	16.48	16.48
Fixation R	1	7	4325598602	4325797592	198990	1171.96	348.67	58	18	-1	17.12	17.12
Saccade L	1	7	4325797592	4325817480	19888	1168.97	347.94	1082.58	340.31	0.62	87.72	1.00	31.28	2143.87	-1865.94	1596.39
Saccade R	1	7	4325797592	4325817480	19888	1168.97	347.94	1082.58	340.31	0.62	87.72	1.00	31.28	2143.87	-1865.94	1596.39
Fixation L	1	8	4325817480	4325996707	179227	1043.16	333.01	47	13	-1	16.87	16.87
Fixation R	1	8	4325817480	4325996707	179227	1043.16	333.01	47	13	-1	17.78	17.78
Saccade L	1	8	4325996707	4326056330	59623	1035.29	327.11	801.87	909.30	6.45	274.34	0.67	108.17	6836.95	-6609.37	4865.03
Saccade R	1	8	4325996707	4326056330	59623	1035.29	327.11	801.87	909.30	6.45	274.34	0.67	108.17	6836.95	-6609.37	4865.03
Fixation L	1	9	4326056330	4326335080	278750	815.72	900.81	17	16	-1	17.11	17.11
Fixation R	1	9	4326056330	4326335080	278750	815.72	900.81	17	16	-1	18.35	18.35
Saccade L	1	9	4326335080	4326354950	19870	819.62	893.23	962.76	896.04	0.80	144.81	1.00	40.21	3578.51	-3466.79	2441.83
Saccade R	1	9	4326335080	4326354950	19870	819.62	893.23	962.76	896.04	0.80	144.81	1.00	40.21	3578.51	-3466.79	2441.83
Fixation L	1	10	4326354950	4326633680	278730	972.58	914.25	17	30	-1	16.46	16.46
Fixation R	1	10	4326354950	4326633680	278730	972.58	914.25	17	30	-1	17.62	17.62
Saccade L	1	10	4326633680	4326673427	39747	958.73	924.33	594.91	941.78	3.14	260.70	0.50	79.04	6489.36	-6244.74	4365.68
Saccade R	1	10	4326633680	4326673427	39747	958.73	924.33	594.91	941.78	3.14	260.70	0.50	79.04	6489.36	-6244.74	4365.68
Fixation L	1	11	4326673427	4327270642	597215	593.04	964.83	26	52	-1	15.74	15.74
Fixation R	1	11	4326673427	4327270642	597215	593.04	964.83	26	52	-1	17.75	17.75
Saccade L	1	11	4327270642	4327290517	19875	574.16	935.45	546.09	912.27	0.38	36.83	1.00	19.20	751.49	-701.60	661.69
Saccade R	1	11	4327270642	4327290517	19875	574.16	935.45	546.09	912.27	0.38	36.83	1.00	19.20	751.49	-701.60	661.69
Fixation L	1	12	4327290517	4327469762	179245	537.45	904.35	39	45	-1	16.28	16.28
Fixation R	1	12	4327290517	4327469762	179245	537.45	904.35	39	45	-1	18.50	18.50
Saccade L	1	12	4327469762	4327489633	19871	512.24	874.18	514.45	859.07	0.36	26.63	0.00	18.20	267.15	-325.81	211.75
Saccade R	1	12	4327469762	4327489633	19871	512.24	874.18	514.45	859.07	0.36	26.63	0.00	18.20	267.15	-325.81	211.75
Fixation L	1	13	4327489633	4327807992	318359	499.41	852.85	29	24	-1	16.72	16.72
Fixation R	1	13	4327489633	4327807992	318359	499.41	852.85	29	24	-1	19.15	19.15
Saccade L	1	13	4327807992	4327827871	19879	520.39	851.29	651.90	851.35	0.87	133.01	1.00	43.92	3216.74	-3233.29	2283.44
Saccade R	1	13	4327807992	4327827871	19879	520.39	851.29	651.90	851.35	0.87	133.01	1.00	43.92	3216.74	-3233.29	2283.44
Fixation L	1	14	4327827871	4328046605	218734	661.35	842.09	15	19	-1	17.01	17.01
Fixation R	1	14	4327827871	4328046605	218734	661.35	842.09	15	19	-1	19.27	19.27
