[BeGaze]
Converted from:	C:\Documents and Settings\iViewX\Desktop\EXPERIMENTATIONS\Experiments\results\finaleart\S7121223-finaleart-1.idf
Date:	27.03.2019 15:37:10
Version:	BeGaze 2.5.77
Sample Rate:	50
Subject:	S7121223
Description:	Gregoire pacreau

Table Header for Fixations:
Event Type	Trial	Number	Start	End	Duration	Location X	Location Y	Dispersion X	Dispersion Y	Plane	Avg. Pupil Size X	Avg. Pupil Size Y

Table Header for Saccades:
Event Type	Trial	Number	Start	End	Duration	Start Loc.X	Start Loc.Y	End Loc.X	End Loc.Y	Amplitude	Peak Speed	Peak Speed At	Average Speed	Peak Accel.	Peak Decel.	Average Accel.

Table Header for Blinks:
Event Type	Trial	Number	Start	End	Duration

Table Header for User Events:
Event Type	Trial	Number	Start	Description

UserEvent	1	1	5046181533	# Message: REJECTED_landscape_cross_0.jpg
Fixation L	1	1	5046183286	5046720265	536979	944.10	546.96	73	22	-1	16.49	16.49
Fixation R	1	1	5046183286	5046720265	536979	944.10	546.96	73	22	-1	16.25	16.25
Saccade L	1	1	5046720265	5046740127	19862	997.57	549.03	1002.80	566.41	0.30	18.36	1.00	15.31	12.04	-289.07	144.33
Saccade R	1	1	5046720265	5046740127	19862	997.57	549.03	1002.80	566.41	0.30	18.36	1.00	15.31	12.04	-289.07	144.33
Fixation L	1	2	5046740127	5046839627	99500	1003.71	559.98	6	14	-1	14.16	14.16
Fixation R	1	2	5046740127	5046839627	99500	1003.71	559.98	6	14	-1	13.61	13.61
Saccade L	1	2	5046839627	5046879376	39749	1006.58	561.33	596.86	441.23	3.82	271.39	1.00	96.22	6721.99	-6388.65	5123.98
Saccade R	1	2	5046839627	5046879376	39749	1006.58	561.33	596.86	441.23	3.82	271.39	1.00	96.22	6721.99	-6388.65	5123.98
Fixation L	1	3	5046879376	5047038483	159107	580.29	454.22	22	23	-1	12.21	12.21
Fixation R	1	3	5046879376	5047038483	159107	580.29	454.22	22	23	-1	11.89	11.89
Saccade L	1	3	5047038483	5047078238	39755	577.67	459.06	912.77	437.56	2.93	189.05	0.50	73.61	4575.65	-4242.25	3996.03
Saccade R	1	3	5047038483	5047078238	39755	577.67	459.06	912.77	437.56	2.93	189.05	0.50	73.61	4575.65	-4242.25	3996.03
Fixation L	1	4	5047078238	5047316975	238737	904.93	406.78	13	41	-1	11.68	11.68
Fixation R	1	4	5047078238	5047316975	238737	904.93	406.78	13	41	-1	11.27	11.27
Saccade L	1	4	5047316975	5047336848	19873	899.13	409.59	1025.02	408.92	0.88	127.33	1.00	44.04	3129.43	-2808.68	2270.58
Saccade R	1	4	5047316975	5047336848	19873	899.13	409.59	1025.02	408.92	0.88	127.33	1.00	44.04	3129.43	-2808.68	2270.58
Fixation L	1	5	5047336848	5047674955	338107	1077.66	418.96	62	15	-1	12.53	12.53
Fixation R	1	5	5047336848	5047674955	338107	1077.66	418.96	62	15	-1	12.20	12.20
Saccade L	1	5	5047674955	5047714699	39744	1081.13	422.41	1275.82	560.55	2.04	206.36	1.00	51.42	5114.27	-5098.10	3006.93
Saccade R	1	5	5047674955	5047714699	39744	1081.13	422.41	1275.82	560.55	2.04	206.36	1.00	51.42	5114.27	-5098.10	3006.93
Fixation L	1	6	5047714699	5048291558	576859	1269.19	599.63	20	72	-1	13.35	13.35
Fixation R	1	6	5047714699	5048291558	576859	1269.19	599.63	20	72	-1	12.96	12.96
Saccade L	1	6	5048291558	5048331292	39734	1259.12	632.95	1101.24	468.47	2.42	164.35	1.00	60.95	3972.41	-3958.85	3387.80
Saccade R	1	6	5048291558	5048331292	39734	1259.12	632.95	1101.24	468.47	2.42	164.35	1.00	60.95	3972.41	-3958.85	3387.80
Fixation L	1	7	5048331292	5048669405	338113	1078.94	458.66	39	33	-1	13.46	13.46
Fixation R	1	7	5048331292	5048669405	338113	1078.94	458.66	39	33	-1	12.95	12.95
Saccade L	1	7	5048669405	5048709153	39748	1061.46	442.50	631.26	362.43	3.92	230.20	1.00	98.58	5679.16	-5286.41	5147.85
Saccade R	1	7	5048669405	5048709153	39748	1061.46	442.50	631.26	362.43	3.92	230.20	1.00	98.58	5679.16	-5286.41	5147.85
Fixation L	1	8	5048709153	5048908140	198987	602.69	323.58	37	55	-1	13.02	13.02
Fixation R	1	8	5048709153	5048908140	198987	602.69	323.58	37	55	-1	12.66	12.66
Saccade L	1	8	5048908140	5048928019	19879	594.15	306.55	561.86	269.52	0.44	49.69	1.00	22.24	1206.63	-1074.89	1008.12
Saccade R	1	8	5048908140	5048928019	19879	594.15	306.55	561.86	269.52	0.44	49.69	1.00	22.24	1206.63	-1074.89	1008.12
Fixation L	1	9	5048928019	5049146754	218735	533.99	256.43	38	61	-1	13.10	13.10
Fixation R	1	9	5048928019	5049146754	218735	533.99	256.43	38	61	-1	12.88	12.88
Saccade L	1	9	5049146754	5049166639	19885	523.71	227.10	521.21	196.15	0.43	31.42	1.00	21.82	776.18	-639.11	523.38
Saccade R	1	9	5049146754	5049166639	19885	523.71	227.10	521.21	196.15	0.43	31.42	1.00	21.82	776.18	-639.11	523.38
Fixation L	1	10	5049166639	5049405367	238728	498.07	168.26	36	39	-1	13.27	13.27
Fixation R	1	10	5049166639	5049405367	238728	498.07	168.26	36	39	-1	13.25	13.25
Saccade L	1	10	5049405367	5049425234	19867	485.04	158.33	621.51	145.99	0.76	138.59	1.00	38.19	3390.02	-3209.83	2255.81
Saccade R	1	10	5049405367	5049425234	19867	485.04	158.33	621.51	145.99	0.76	138.59	1.00	38.19	3390.02	-3209.83	2255.81
Fixation L	1	11	5049425234	5049723606	298372	629.33	119.43	21	38	-1	13.35	13.35
Fixation R	1	11	5049425234	5049723606	298372	629.33	119.43	21	38	-1	13.32	13.32
Saccade L	1	11	5049723606	5049763349	39743	635.87	115.06	428.87	422.05	3.23	216.58	1.00	81.34	5329.53	-5294.40	4645.66
Saccade R	1	11	5049723606	5049763349	39743	635.87	115.06	428.87	422.05	3.23	216.58	1.00	81.34	5329.53	-5294.40	4645.66
Fixation L	1	12	5049763349	5049982087	218738	422.05	441.49	19	32	-1	14.18	14.18
Fixation R	1	12	5049763349	5049982087	218738	422.05	441.49	19	32	-1	13.99	13.99
Saccade L	1	12	5049982087	5050001954	19867	421.69	442.08	479.29	500.48	0.52	82.97	1.00	26.15	1983.11	-1742.53	1363.22
Saccade R	1	12	5049982087	5050001954	19867	421.69	442.08	479.29	500.48	0.52	82.97	1.00	26.15	1983.11	-1742.53	1363.22
Fixation L	1	13	5050001954	5050181092	179138	486.64	525.72	34	33	-1	14.58	14.58
Fixation R	1	13	5050001954	5050181092	179138	486.64	525.72	34	33	-1	14.75	14.75
