[BeGaze]
Converted from:	C:\Documents and Settings\iViewX\Desktop\EXPERIMENTATIONS\Experiments\results\finaleart\S7121223-finaleart-1.idf
Date:	27.03.2019 15:37:17
Version:	BeGaze 2.5.77
Sample Rate:	50
Subject:	S7121223
Description:	Gregoire pacreau

Table Header for Fixations:
Event Type	Trial	Number	Start	End	Duration	Location X	Location Y	Dispersion X	Dispersion Y	Plane	Avg. Pupil Size X	Avg. Pupil Size Y

Table Header for Saccades:
Event Type	Trial	Number	Start	End	Duration	Start Loc.X	Start Loc.Y	End Loc.X	End Loc.Y	Amplitude	Peak Speed	Peak Speed At	Average Speed	Peak Accel.	Peak Decel.	Average Accel.

Table Header for Blinks:
Event Type	Trial	Number	Start	End	Duration

Table Header for User Events:
Event Type	Trial	Number	Start	Description

UserEvent	1	1	5168400394	# Message: pears-and-grapes_gauguin_1875.jpg
Fixation L	1	1	5168418186	5168816368	398182	978.50	459.29	14	38	-1	14.35	14.35
Fixation R	1	1	5168418186	5168816368	398182	978.50	459.29	14	38	-1	14.75	14.75
Saccade L	1	1	5168816368	5168836186	19818	974.33	491.60	982.24	622.22	0.92	132.36	1.00	46.21	3290.36	-3266.21	2407.18
Saccade R	1	1	5168816368	5168836186	19818	974.33	491.60	982.24	622.22	0.92	132.36	1.00	46.21	3290.36	-3266.21	2407.18
Fixation L	1	2	5168836186	5168975528	139342	996.69	625.59	25	11	-1	14.52	14.52
Fixation R	1	2	5168836186	5168975528	139342	996.69	625.59	25	11	-1	14.97	14.97
Saccade L	1	2	5168975528	5169015289	39761	999.47	626.99	591.76	677.19	3.55	262.66	0.50	89.25	6455.60	-6137.31	4902.22
Saccade R	1	2	5168975528	5169015289	39761	999.47	626.99	591.76	677.19	3.55	262.66	0.50	89.25	6455.60	-6137.31	4902.22
Fixation L	1	3	5169015289	5169393512	378223	577.09	690.84	18	24	-1	12.30	12.30
Fixation R	1	3	5169015289	5169393512	378223	577.09	690.84	18	24	-1	12.45	12.45
Saccade L	1	3	5169393512	5169413376	19864	578.77	693.73	479.26	765.11	0.97	123.86	1.00	48.75	3019.93	-2895.28	2520.25
Saccade R	1	3	5169393512	5169413376	19864	578.77	693.73	479.26	765.11	0.97	123.86	1.00	48.75	3019.93	-2895.28	2520.25
Fixation L	1	4	5169413376	5169632367	218991	429.86	784.96	63	25	-1	12.30	12.30
Fixation R	1	4	5169413376	5169632367	218991	429.86	784.96	63	25	-1	12.80	12.80
Saccade L	1	4	5169632367	5169652263	19896	425.48	790.18	532.15	798.10	0.84	108.19	1.00	42.06	2603.34	-2491.56	2107.43
Saccade R	1	4	5169632367	5169652263	19896	425.48	790.18	532.15	798.10	0.84	108.19	1.00	42.06	2603.34	-2491.56	2107.43
Fixation L	1	5	5169652263	5169811494	159231	575.88	824.88	56	41	-1	12.97	12.97
Fixation R	1	5	5169652263	5169811494	159231	575.88	824.88	56	41	-1	13.72	13.72
Saccade L	1	5	5169811494	5169950856	139362	587.57	835.07	936.29	849.97	5.64	195.97	1.00	40.49	4858.39	-4669.07	1800.86
Saccade R	1	5	5169811494	5169950856	139362	587.57	835.07	936.29	849.97	5.64	195.97	1.00	40.49	4858.39	-4669.07	1800.86
Fixation L	1	6	5169950856	5170229461	278605	990.58	846.72	68	8	-1	14.28	14.28
Fixation R	1	6	5169950856	5170229461	278605	990.58	846.72	68	8	-1	14.90	14.90
Saccade L	1	6	5170229461	5170249336	19875	1004.83	841.87	1098.24	836.74	0.55	94.63	1.00	27.88	2291.98	-1892.26	1479.71
Saccade R	1	6	5170229461	5170249336	19875	1004.83	841.87	1098.24	836.74	0.55	94.63	1.00	27.88	2291.98	-1892.26	1479.71
Fixation L	1	7	5170249336	5170488203	238867	1133.92	809.56	48	43	-1	13.74	13.74
Fixation R	1	7	5170249336	5170488203	238867	1133.92	809.56	48	43	-1	13.52	13.52
Saccade L	1	7	5170488203	5170508073	19870	1146.82	796.62	1157.18	795.99	0.16	17.37	1.00	8.23	353.49	-108.79	226.27
Saccade R	1	7	5170488203	5170508073	19870	1146.82	796.62	1157.18	795.99	0.16	17.37	1.00	8.23	353.49	-108.79	226.27
Fixation L	1	8	5170508073	5170766808	258735	1184.75	811.56	40	26	-1	13.56	13.56
Fixation R	1	8	5170508073	5170766808	258735	1184.75	811.56	40	26	-1	13.08	13.08
Saccade L	1	8	5170766808	5170786806	19998	1197.30	821.86	1347.80	830.33	0.83	152.46	1.00	41.52	3696.75	-3547.16	2427.33
Saccade R	1	8	5170766808	5170786806	19998	1197.30	821.86	1347.80	830.33	0.83	152.46	1.00	41.52	3696.75	-3547.16	2427.33
Fixation L	1	9	5170786806	5170985798	198992	1364.25	842.83	25	28	-1	13.44	13.44
Fixation R	1	9	5170786806	5170985798	198992	1364.25	842.83	25	28	-1	13.06	13.06
Saccade L	1	9	5170985798	5171025675	39877	1373.63	854.12	1091.86	776.34	2.53	154.32	1.00	63.49	3803.83	-3562.07	3603.38
Saccade R	1	9	5170985798	5171025675	39877	1373.63	854.12	1091.86	776.34	2.53	154.32	1.00	63.49	3803.83	-3562.07	3603.38
Fixation L	1	10	5171025675	5171662511	636836	1098.46	750.13	38	54	-1	13.88	13.88
Fixation R	1	10	5171025675	5171662511	636836	1098.46	750.13	38	54	-1	13.57	13.57
Saccade L	1	10	5171662511	5171682511	20000	1121.14	726.79	1130.78	727.39	0.16	9.77	1.00	7.87	104.36	-146.51	92.77
Saccade R	1	10	5171662511	5171682511	20000	1121.14	726.79	1130.78	727.39	0.16	9.77	1.00	7.87	104.36	-146.51	92.77
Fixation L	1	11	5171682511	5172398978	716467	1104.89	711.76	58	21	-1	14.36	14.36
Fixation R	1	11	5171682511	5172398978	716467	1104.89	711.76	58	21	-1	14.25	14.25
