[BeGaze]
Converted from:	C:\Documents and Settings\iViewX\Desktop\EXPERIMENTATIONS\Experiments\results\finaleart\S7121223-finaleart-1.idf
Date:	27.03.2019 15:36:52
Version:	BeGaze 2.5.77
Sample Rate:	50
Subject:	S7121223
Description:	Gregoire pacreau

Table Header for Fixations:
Event Type	Trial	Number	Start	End	Duration	Location X	Location Y	Dispersion X	Dispersion Y	Plane	Avg. Pupil Size X	Avg. Pupil Size Y

Table Header for Saccades:
Event Type	Trial	Number	Start	End	Duration	Start Loc.X	Start Loc.Y	End Loc.X	End Loc.Y	Amplitude	Peak Speed	Peak Speed At	Average Speed	Peak Accel.	Peak Decel.	Average Accel.

Table Header for Blinks:
Event Type	Trial	Number	Start	End	Duration

Table Header for User Events:
Event Type	Trial	Number	Start	Description

UserEvent	1	1	4334204985	# Message: void.jpg
Fixation L	1	1	4334212287	4334371408	159121	1383.90	670.70	13	71	-1	17.67	17.67
Fixation R	1	1	4334212287	4334371408	159121	1383.90	670.70	13	71	-1	15.11	15.11
Saccade L	1	1	4334371408	4334391274	19866	1383.49	680.75	1139.87	683.94	1.77	246.32	1.00	89.18	5699.78	-5885.95	4061.17
Saccade R	1	1	4334371408	4334391274	19866	1383.49	680.75	1139.87	683.94	1.77	246.32	1.00	89.18	5699.78	-5885.95	4061.17
Fixation L	1	2	4334391274	4334789143	397869	1084.39	679.00	68	31	-1	17.62	17.62
Fixation R	1	2	4334391274	4334789143	397869	1084.39	679.00	68	31	-1	15.49	15.49
Saccade L	1	2	4334789143	4334828927	39784	1088.34	666.81	767.56	556.45	2.97	272.25	1.00	74.68	6741.18	-6560.88	4127.74
Saccade R	1	2	4334789143	4334828927	39784	1088.34	666.81	767.56	556.45	2.97	272.25	1.00	74.68	6741.18	-6560.88	4127.74
Fixation L	1	3	4334828927	4335246608	417681	781.67	580.58	19	39	-1	15.21	15.21
Fixation R	1	3	4334828927	4335246608	417681	781.67	580.58	19	39	-1	13.42	13.42
Saccade L	1	3	4335246608	4335266491	19883	786.38	587.32	789.93	480.01	0.61	108.60	1.00	30.84	2653.37	-2586.34	1814.48
Saccade R	1	3	4335246608	4335266491	19883	786.38	587.32	789.93	480.01	0.61	108.60	1.00	30.84	2653.37	-2586.34	1814.48
Fixation L	1	4	4335266491	4336201185	934694	824.02	496.39	57	39	-1	17.29	17.29
Fixation R	1	4	4335266491	4336201185	934694	824.02	496.39	57	39	-1	15.47	15.47
