[BeGaze]
Converted from:	C:\Documents and Settings\iViewX\Desktop\EXPERIMENTATIONS\Experiments\results\finaleart\S7121223-finaleart-1.idf
Date:	27.03.2019 15:37:05
Version:	BeGaze 2.5.77
Sample Rate:	50
Subject:	S7121223
Description:	Gregoire pacreau

Table Header for Fixations:
Event Type	Trial	Number	Start	End	Duration	Location X	Location Y	Dispersion X	Dispersion Y	Plane	Avg. Pupil Size X	Avg. Pupil Size Y

Table Header for Saccades:
Event Type	Trial	Number	Start	End	Duration	Start Loc.X	Start Loc.Y	End Loc.X	End Loc.Y	Amplitude	Peak Speed	Peak Speed At	Average Speed	Peak Accel.	Peak Decel.	Average Accel.

Table Header for Blinks:
Event Type	Trial	Number	Start	End	Duration

Table Header for User Events:
Event Type	Trial	Number	Start	Description

UserEvent	1	1	4844574126	# Message: void.jpg
Fixation L	1	1	4844585665	4844764885	179220	1562.66	866.52	5	6	-1	15.35	15.35
Fixation R	1	1	4844585665	4844764885	179220	1562.66	866.52	5	6	-1	13.63	13.63
Saccade L	1	1	4844764885	4844784751	19866	1563.87	866.64	1565.55	987.95	0.66	122.71	1.00	33.30	3004.38	-3049.78	2018.77
Saccade R	1	1	4844764885	4844784751	19866	1563.87	866.64	1565.55	987.95	0.66	122.71	1.00	33.30	3004.38	-3049.78	2018.77
Fixation L	1	2	4844784751	4845262726	477975	1573.16	993.64	13	10	-1	14.30	14.30
Fixation R	1	2	4844784751	4845262726	477975	1573.16	993.64	13	10	-1	12.66	12.66
Saccade L	1	2	4845262726	4845481720	218994	1569.32	994.76	1185.15	736.77	8.86	93.85	0.09	40.46	2274.80	-1582.06	911.78
Saccade R	1	2	4845262726	4845481720	218994	1569.32	994.76	1185.15	736.77	8.86	93.85	0.09	40.46	2274.80	-1582.06	911.78
Fixation L	1	3	4845481720	4845680824	199104	1134.82	717.86	64	34	-1	13.91	13.91
Fixation R	1	3	4845481720	4845680824	199104	1134.82	717.86	64	34	-1	13.10	13.10
Saccade L	1	3	4845680824	4845700702	19878	1120.93	701.95	1119.51	700.58	0.05	3.94	1.00	2.41	42.16	13.59	24.57
Saccade R	1	3	4845680824	4845700702	19878	1120.93	701.95	1119.51	700.58	0.05	3.94	1.00	2.41	42.16	13.59	24.57
Fixation L	1	4	4845700702	4846059190	358488	1102.94	700.98	55	20	-1	14.07	14.07
Fixation R	1	4	4845700702	4846059190	358488	1102.94	700.98	55	20	-1	13.42	13.42
Saccade L	1	4	4846059190	4846079060	19870	1064.45	692.68	1043.34	623.16	0.61	73.49	1.00	30.92	1561.69	-1648.68	1270.18
Saccade R	1	4	4846059190	4846079060	19870	1064.45	692.68	1043.34	623.16	0.61	73.49	1.00	30.92	1561.69	-1648.68	1270.18
Fixation L	1	5	4846079060	4846557068	478008	1024.19	619.26	25	14	-1	14.51	14.51
Fixation R	1	5	4846079060	4846557068	478008	1024.19	619.26	25	14	-1	14.11	14.11
