[BeGaze]
Converted from:	C:\Documents and Settings\iViewX\Desktop\EXPERIMENTATIONS\Experiments\results\finaleart\S7121223-finaleart-1.idf
Date:	27.03.2019 15:36:55
Version:	BeGaze 2.5.77
Sample Rate:	50
Subject:	S7121223
Description:	Gregoire pacreau

Table Header for Fixations:
Event Type	Trial	Number	Start	End	Duration	Location X	Location Y	Dispersion X	Dispersion Y	Plane	Avg. Pupil Size X	Avg. Pupil Size Y

Table Header for Saccades:
Event Type	Trial	Number	Start	End	Duration	Start Loc.X	Start Loc.Y	End Loc.X	End Loc.Y	Amplitude	Peak Speed	Peak Speed At	Average Speed	Peak Accel.	Peak Decel.	Average Accel.

Table Header for Blinks:
Event Type	Trial	Number	Start	End	Duration

Table Header for User Events:
Event Type	Trial	Number	Start	Description

UserEvent	1	1	4389160435	# Message: void.jpg
Fixation L	1	1	4389161695	4390097502	935807	1174.85	666.09	64	33	-1	11.80	11.80
Fixation R	1	1	4389161695	4390097502	935807	1174.85	666.09	64	33	-1	11.67	11.67
Saccade L	1	1	4390097502	4390197121	99619	1182.63	680.86	926.52	604.65	4.69	165.12	0.20	47.12	4108.33	-3837.70	1801.83
Saccade R	1	1	4390097502	4390197121	99619	1182.63	680.86	926.52	604.65	4.69	165.12	0.20	47.12	4108.33	-3837.70	1801.83
Fixation L	1	2	4390197121	4390296619	99498	918.19	542.99	12	79	-1	13.68	13.68
Fixation R	1	2	4390197121	4390296619	99498	918.19	542.99	12	79	-1	13.46	13.46
Saccade L	1	2	4390296619	4390316618	19999	913.57	524.88	911.04	516.28	0.09	9.07	1.00	4.64	129.96	-42.37	61.32
Saccade R	1	2	4390296619	4390316618	19999	913.57	524.88	911.04	516.28	0.09	9.07	1.00	4.64	129.96	-42.37	61.32
Fixation L	1	3	4390316618	4390834340	517722	899.37	532.34	21	74	-1	14.08	14.08
Fixation R	1	3	4390316618	4390834340	517722	899.37	532.34	21	74	-1	13.89	13.89
Saccade L	1	3	4390834340	4390854209	19869	889.80	578.70	888.60	583.84	0.08	5.33	1.00	3.78	122.24	-72.18	75.59
Saccade R	1	3	4390834340	4390854209	19869	889.80	578.70	888.60	583.84	0.08	5.33	1.00	3.78	122.24	-72.18	75.59
Fixation L	1	4	4390854209	4391053336	199127	896.03	567.15	41	53	-1	14.56	14.56
Fixation R	1	4	4390854209	4391053336	199127	896.03	567.15	41	53	-1	14.44	14.44
Saccade L	1	4	4391053336	4391152947	99611	926.85	564.25	837.00	612.79	2.88	63.32	0.20	28.87	1375.31	-1063.30	573.97
Saccade R	1	4	4391053336	4391152947	99611	926.85	564.25	837.00	612.79	2.88	63.32	0.20	28.87	1375.31	-1063.30	573.97
