[BeGaze]
Converted from:	C:\Documents and Settings\iViewX\Desktop\EXPERIMENTATIONS\Experiments\results\finaleart\S7121223-finaleart-1.idf
Date:	27.03.2019 15:36:56
Version:	BeGaze 2.5.77
Sample Rate:	50
Subject:	S7121223
Description:	Gregoire pacreau

Table Header for Fixations:
Event Type	Trial	Number	Start	End	Duration	Location X	Location Y	Dispersion X	Dispersion Y	Plane	Avg. Pupil Size X	Avg. Pupil Size Y

Table Header for Saccades:
Event Type	Trial	Number	Start	End	Duration	Start Loc.X	Start Loc.Y	End Loc.X	End Loc.Y	Amplitude	Peak Speed	Peak Speed At	Average Speed	Peak Accel.	Peak Decel.	Average Accel.

Table Header for Blinks:
Event Type	Trial	Number	Start	End	Duration

Table Header for User Events:
Event Type	Trial	Number	Start	Description

UserEvent	1	1	4403416422	# Message: still-life_matisse_0.jpg
Saccade L	1	1	4403428194	4403448064	19870	731.03	481.69	782.93	492.86	0.62	53.70	1.00	31.16	994.69	-1088.53	694.40
Saccade R	1	1	4403428194	4403448064	19870	731.03	481.69	782.93	492.86	0.62	53.70	1.00	31.16	994.69	-1088.53	694.40
Fixation L	1	1	4403448064	4403865793	417729	826.00	506.51	53	45	-1	13.71	13.71
Fixation R	1	1	4403448064	4403865793	417729	826.00	506.51	53	45	-1	14.86	14.86
Saccade L	1	2	4403865793	4403885691	19898	836.54	537.15	882.88	595.84	0.71	75.64	1.00	35.73	1844.08	-1711.30	1355.24
Saccade R	1	2	4403865793	4403885691	19898	836.54	537.15	882.88	595.84	0.71	75.64	1.00	35.73	1844.08	-1711.30	1355.24
Fixation L	1	2	4403885691	4404064657	178966	911.69	565.52	38	50	-1	13.21	13.21
Fixation R	1	2	4403885691	4404064657	178966	911.69	565.52	38	50	-1	13.69	13.69
Saccade L	1	3	4404064657	4404084532	19875	915.36	564.77	933.86	567.80	0.31	37.93	1.00	15.57	900.73	-284.49	524.04
Saccade R	1	3	4404064657	4404084532	19875	915.36	564.77	933.86	567.80	0.31	37.93	1.00	15.57	900.73	-284.49	524.04
Fixation L	1	3	4404084532	4404462388	377856	976.96	574.51	53	27	-1	11.81	11.81
Fixation R	1	3	4404084532	4404462388	377856	976.96	574.51	53	27	-1	11.27	11.27
Saccade L	1	4	4404462388	4404482254	19866	967.69	580.66	760.60	570.54	1.28	209.65	1.00	64.66	5117.72	-4884.02	3372.18
Saccade R	1	4	4404462388	4404482254	19866	967.69	580.66	760.60	570.54	1.28	209.65	1.00	64.66	5117.72	-4884.02	3372.18
Fixation L	1	4	4404482254	4404780619	298365	734.56	530.93	32	50	-1	11.26	11.26
Fixation R	1	4	4404482254	4404780619	298365	734.56	530.93	32	50	-1	11.93	11.93
Saccade L	1	5	4404780619	4404800494	19875	728.55	531.96	656.23	520.91	0.47	74.00	1.00	23.53	1831.07	-1688.90	1277.41
Saccade R	1	5	4404780619	4404800494	19875	728.55	531.96	656.23	520.91	0.47	74.00	1.00	23.53	1831.07	-1688.90	1277.41
Fixation L	1	5	4404800494	4405039234	238740	636.57	509.20	26	26	-1	11.85	11.85
Fixation R	1	5	4404800494	4405039234	238740	636.57	509.20	26	26	-1	12.43	12.43
Saccade L	1	6	4405039234	4405078972	39738	636.31	494.25	514.21	721.65	2.32	170.64	0.50	58.33	4215.28	-3646.17	3044.60
Saccade R	1	6	4405039234	4405078972	39738	636.31	494.25	514.21	721.65	2.32	170.64	0.50	58.33	4215.28	-3646.17	3044.60
Fixation L	1	6	4405078972	4405297714	218742	505.75	727.92	38	31	-1	12.07	12.07
Fixation R	1	6	4405078972	4405297714	218742	505.75	727.92	38	31	-1	13.10	13.10
Saccade L	1	7	4405297714	4405317722	20008	530.36	733.95	738.78	726.80	1.37	210.87	1.00	68.47	5160.27	-5033.12	3443.58
Saccade R	1	7	4405297714	4405317722	20008	530.36	733.95	738.78	726.80	1.37	210.87	1.00	68.47	5160.27	-5033.12	3443.58
Fixation L	1	7	4405317722	4405456832	139110	774.23	734.43	46	15	-1	12.76	12.76
Fixation R	1	7	4405317722	4405456832	139110	774.23	734.43	46	15	-1	13.54	13.54
Blink L	1	1	4405456832	4405675695	218863
Blink R	1	1	4405456832	4405675695	218863
Fixation L	1	8	4405675695	4405934176	258481	1078.19	595.31	61	37	-1	14.69	14.69
Fixation R	1	8	4405675695	4405934176	258481	1078.19	595.31	61	37	-1	15.53	15.53
Saccade L	1	8	4405934176	4405954177	20001	1031.90	613.78	1026.16	618.78	0.19	15.14	0.00	9.57	-127.56	-321.75	195.05
Saccade R	1	8	4405934176	4405954177	20001	1031.90	613.78	1026.16	618.78	0.19	15.14	0.00	9.57	-127.56	-321.75	195.05
Fixation L	1	9	4405954177	4406212662	258485	1016.42	621.14	31	9	-1	13.84	13.84
Fixation R	1	9	4405954177	4406212662	258485	1016.42	621.14	31	9	-1	14.35	14.35
Saccade L	1	9	4406212662	4406252421	39759	997.59	620.64	1255.87	517.24	2.58	152.17	0.50	64.78	3699.40	-3347.87	3406.12
Saccade R	1	9	4406212662	4406252421	39759	997.59	620.64	1255.87	517.24	2.58	152.17	0.50	64.78	3699.40	-3347.87	3406.12
Fixation L	1	10	4406252421	4406650267	397846	1253.76	513.76	13	47	-1	12.66	12.66
Fixation R	1	10	4406252421	4406650267	397846	1253.76	513.76	13	47	-1	13.21	13.21
Saccade L	1	10	4406650267	4406670151	19884	1247.92	521.33	1181.18	545.62	0.48	71.85	1.00	24.35	1766.71	-1421.43	1159.94
Saccade R	1	10	4406650267	4406670151	19884	1247.92	521.33	1181.18	545.62	0.48	71.85	1.00	24.35	1766.71	-1421.43	1159.94
Fixation L	1	11	4406670151	4407087865	417714	1170.03	565.79	36	55	-1	12.76	12.76
Fixation R	1	11	4406670151	4407087865	417714	1170.03	565.79	36	55	-1	12.86	12.86
Saccade L	1	11	4407087865	4407127619	39754	1191.73	583.87	1432.39	575.46	2.22	160.63	1.00	55.72	3733.89	-3849.57	2799.93
Saccade R	1	11	4407087865	4407127619	39754	1191.73	583.87	1432.39	575.46	2.22	160.63	1.00	55.72	3733.89	-3849.57	2799.93
Fixation L	1	12	4407127619	4407405977	278358	1450.12	557.62	72	25	-1	13.40	13.40
Fixation R	1	12	4407127619	4407405977	278358	1450.12	557.62	72	25	-1	13.50	13.50
