[BeGaze]
Converted from:	C:\Documents and Settings\iViewX\Desktop\EXPERIMENTATIONS\Experiments\results\finaleart\S7121223-finaleart-1.idf
Date:	27.03.2019 15:37:04
Version:	BeGaze 2.5.77
Sample Rate:	50
Subject:	S7121223
Description:	Gregoire pacreau

Table Header for Fixations:
Event Type	Trial	Number	Start	End	Duration	Location X	Location Y	Dispersion X	Dispersion Y	Plane	Avg. Pupil Size X	Avg. Pupil Size Y

Table Header for Saccades:
Event Type	Trial	Number	Start	End	Duration	Start Loc.X	Start Loc.Y	End Loc.X	End Loc.Y	Amplitude	Peak Speed	Peak Speed At	Average Speed	Peak Accel.	Peak Decel.	Average Accel.

Table Header for Blinks:
Event Type	Trial	Number	Start	End	Duration

Table Header for User Events:
Event Type	Trial	Number	Start	Description

UserEvent	1	1	4834409979	# Message: Rapids_on_the_Petite_Creuse_at_Fresselines_Monet_1889.jpg
Fixation L	1	1	4834410308	4834709027	298719	891.03	709.27	10	6	-1	16.91	16.91
Fixation R	1	1	4834410308	4834709027	298719	891.03	709.27	10	6	-1	17.03	17.03
Saccade L	1	1	4834709027	4834748904	39877	883.11	706.05	848.34	529.37	1.65	93.66	1.00	41.45	2159.47	-2166.67	2079.35
Saccade R	1	1	4834709027	4834748904	39877	883.11	706.05	848.34	529.37	1.65	93.66	1.00	41.45	2159.47	-2166.67	2079.35
Fixation L	1	2	4834748904	4835306367	557463	823.85	545.59	32	27	-1	14.47	14.47
Fixation R	1	2	4834748904	4835306367	557463	823.85	545.59	32	27	-1	14.25	14.25
Saccade L	1	2	4835306367	4835346246	39879	820.25	543.73	1028.51	407.96	2.26	164.02	1.00	56.62	4064.79	-4024.84	3194.43
Saccade R	1	2	4835306367	4835346246	39879	820.25	543.73	1028.51	407.96	2.26	164.02	1.00	56.62	4064.79	-4024.84	3194.43
Fixation L	1	3	4835346246	4835903846	557600	1019.59	405.08	69	29	-1	12.77	12.77
Fixation R	1	3	4835346246	4835903846	557600	1019.59	405.08	69	29	-1	12.46	12.46
Saccade L	1	3	4835903846	4835923710	19864	972.26	394.35	971.09	392.09	0.09	6.51	0.00	4.34	57.07	-22.39	27.34
Saccade R	1	3	4835903846	4835923710	19864	972.26	394.35	971.09	392.09	0.09	6.51	0.00	4.34	57.07	-22.39	27.34
Fixation L	1	4	4835923710	4836043209	119499	969.32	390.68	3	5	-1	13.09	13.09
Fixation R	1	4	4835923710	4836043209	119499	969.32	390.68	3	5	-1	12.89	12.89
Saccade L	1	4	4836043209	4836082949	39740	970.25	392.36	1342.80	376.02	3.20	192.67	0.50	80.40	4723.67	-4488.40	4529.63
Saccade R	1	4	4836043209	4836082949	39740	970.25	392.36	1342.80	376.02	3.20	192.67	0.50	80.40	4723.67	-4488.40	4529.63
Fixation L	1	5	4836082949	4836540931	457982	1357.56	346.51	44	51	-1	12.61	12.61
Fixation R	1	5	4836082949	4836540931	457982	1357.56	346.51	44	51	-1	12.45	12.45
Saccade L	1	5	4836540931	4836660427	119496	1385.27	330.55	1555.68	392.37	3.68	89.78	1.00	30.77	2060.52	-2074.69	957.04
Saccade R	1	5	4836540931	4836660427	119496	1385.27	330.55	1555.68	392.37	3.68	89.78	1.00	30.77	2060.52	-2074.69	957.04
Fixation L	1	6	4836660427	4837018908	358481	1551.16	443.84	22	71	-1	13.61	13.61
Fixation R	1	6	4836660427	4837018908	358481	1551.16	443.84	22	71	-1	13.26	13.26
Saccade L	1	6	4837018908	4837038775	19867	1536.76	452.28	1462.70	415.18	0.58	83.79	1.00	29.42	2074.30	-1651.15	1278.43
Saccade R	1	6	4837018908	4837038775	19867	1536.76	452.28	1462.70	415.18	0.58	83.79	1.00	29.42	2074.30	-1651.15	1278.43
Fixation L	1	7	4837038775	4837337510	298735	1449.69	377.69	18	51	-1	14.43	14.43
Fixation R	1	7	4837038775	4837337510	298735	1449.69	377.69	18	51	-1	14.04	14.04
Saccade L	1	7	4837337510	4837377260	39750	1455.47	363.48	1041.72	396.12	3.60	226.10	1.00	90.56	5494.12	-5375.36	4969.81
Saccade R	1	7	4837337510	4837377260	39750	1455.47	363.48	1041.72	396.12	3.60	226.10	1.00	90.56	5494.12	-5375.36	4969.81
Fixation L	1	8	4837377260	4837715890	338630	1009.79	381.08	38	31	-1	14.63	14.63
Fixation R	1	8	4837377260	4837715890	338630	1009.79	381.08	38	31	-1	14.13	14.13
Saccade L	1	8	4837715890	4837755618	39728	1002.87	364.27	663.56	369.20	3.21	203.80	1.00	80.68	5034.92	-4912.76	3867.69
Saccade R	1	8	4837715890	4837755618	39728	1002.87	364.27	663.56	369.20	3.21	203.80	1.00	80.68	5034.92	-4912.76	3867.69
Fixation L	1	9	4837755618	4837974729	219111	605.60	368.66	67	6	-1	13.87	13.87
Fixation R	1	9	4837755618	4837974729	219111	605.60	368.66	67	6	-1	13.77	13.77
Saccade L	1	9	4837974729	4837994603	19874	596.53	370.96	522.55	395.57	0.63	78.87	1.00	31.62	1947.43	-1449.23	1511.39
Saccade R	1	9	4837974729	4837994603	19874	596.53	370.96	522.55	395.57	0.63	78.87	1.00	31.62	1947.43	-1449.23	1511.39
Fixation L	1	10	4837994603	4838094096	99493	501.81	445.31	29	68	-1	13.53	13.53
Fixation R	1	10	4837994603	4838094096	99493	501.81	445.31	29	68	-1	13.80	13.80
Saccade L	1	10	4838094096	4838193718	99622	494.73	464.25	668.45	537.88	3.14	176.66	1.00	31.48	4313.12	-4089.95	1361.96
Saccade R	1	10	4838094096	4838193718	99622	494.73	464.25	668.45	537.88	3.14	176.66	1.00	31.48	4313.12	-4089.95	1361.96
Fixation L	1	11	4838193718	4838412722	219004	707.51	563.34	44	35	-1	14.17	14.17
Fixation R	1	11	4838193718	4838412722	219004	707.51	563.34	44	35	-1	14.57	14.57
