[BeGaze]
Converted from:	C:\Documents and Settings\iViewX\Desktop\EXPERIMENTATIONS\Experiments\results\finaleart\S7121223-finaleart-1.idf
Date:	27.03.2019 15:37:22
Version:	BeGaze 2.5.77
Sample Rate:	50
Subject:	S7121223
Description:	Gregoire pacreau

Table Header for Fixations:
Event Type	Trial	Number	Start	End	Duration	Location X	Location Y	Dispersion X	Dispersion Y	Plane	Avg. Pupil Size X	Avg. Pupil Size Y

Table Header for Saccades:
Event Type	Trial	Number	Start	End	Duration	Start Loc.X	Start Loc.Y	End Loc.X	End Loc.Y	Amplitude	Peak Speed	Peak Speed At	Average Speed	Peak Accel.	Peak Decel.	Average Accel.

Table Header for Blinks:
Event Type	Trial	Number	Start	End	Duration

Table Header for User Events:
Event Type	Trial	Number	Start	Description

UserEvent	1	1	5481457260	# Message: La_Ferme_des_Collettes_Renoir_1908.jpg
Fixation L	1	1	5481473291	5481831276	357985	597.64	496.43	29	21	-1	16.49	16.49
Fixation R	1	1	5481473291	5481831276	357985	597.64	496.43	29	21	-1	17.72	17.72
Saccade L	1	1	5481831276	5481871081	39805	586.90	485.93	883.45	491.17	2.51	201.95	1.00	63.15	4964.82	-4922.30	3622.56
Saccade R	1	1	5481831276	5481871081	39805	586.90	485.93	883.45	491.17	2.51	201.95	1.00	63.15	4964.82	-4922.30	3622.56
Fixation L	1	2	5481871081	5482010263	139182	891.53	497.77	11	16	-1	16.91	16.91
Fixation R	1	2	5481871081	5482010263	139182	891.53	497.77	11	16	-1	17.91	17.91
Saccade L	1	2	5482010263	5482049999	39736	890.71	503.73	952.74	600.64	1.08	77.37	0.50	27.23	1855.61	-1662.32	1165.84
Saccade R	1	2	5482010263	5482049999	39736	890.71	503.73	952.74	600.64	1.08	77.37	0.50	27.23	1855.61	-1662.32	1165.84
Fixation L	1	3	5482049999	5482388231	338232	961.80	632.26	25	69	-1	14.66	14.66
Fixation R	1	3	5482049999	5482388231	338232	961.80	632.26	25	69	-1	15.19	15.19
Saccade L	1	3	5482388231	5482408109	19878	971.00	670.34	971.96	691.38	0.32	36.35	0.00	15.88	450.74	-844.49	483.12
Saccade R	1	3	5482388231	5482408109	19878	971.00	670.34	971.96	691.38	0.32	36.35	0.00	15.88	450.74	-844.49	483.12
Fixation L	1	4	5482408109	5482686464	278355	969.03	701.28	56	39	-1	14.05	14.05
Fixation R	1	4	5482408109	5482686464	278355	969.03	701.28	56	39	-1	14.49	14.49
Saccade L	1	4	5482686464	5482706459	19995	925.46	718.53	915.79	726.35	0.27	22.19	1.00	13.54	-80.29	-271.29	197.27
Saccade R	1	4	5482686464	5482706459	19995	925.46	718.53	915.79	726.35	0.27	22.19	1.00	13.54	-80.29	-271.29	197.27
Fixation L	1	5	5482706459	5482945082	238623	915.09	719.10	9	17	-1	14.23	14.23
Fixation R	1	5	5482706459	5482945082	238623	915.09	719.10	9	17	-1	14.71	14.71
Saccade L	1	5	5482945082	5482964953	19871	914.19	709.24	1015.23	715.93	0.65	102.43	1.00	32.58	2509.65	-2344.05	1775.26
Saccade R	1	5	5482945082	5482964953	19871	914.19	709.24	1015.23	715.93	0.65	102.43	1.00	32.58	2509.65	-2344.05	1775.26
Fixation L	1	6	5482964953	5483601422	636469	1024.61	743.43	41	52	-1	14.76	14.76
Fixation R	1	6	5482964953	5483601422	636469	1024.61	743.43	41	52	-1	14.89	14.89
Saccade L	1	6	5483601422	5483621294	19872	1013.77	727.12	1047.56	797.05	0.54	78.56	1.00	27.12	1956.42	-1782.91	1329.96
Saccade R	1	6	5483601422	5483621294	19872	1013.77	727.12	1047.56	797.05	0.54	78.56	1.00	27.12	1956.42	-1782.91	1329.96
Fixation L	1	7	5483621294	5483879907	258613	1068.69	818.80	27	33	-1	13.59	13.59
Fixation R	1	7	5483621294	5483879907	258613	1068.69	818.80	27	33	-1	14.14	14.14
Saccade L	1	7	5483879907	5483899793	19886	1074.75	812.00	1072.58	716.00	0.64	97.13	1.00	32.28	2411.68	-2121.69	1546.94
Saccade R	1	7	5483879907	5483899793	19886	1074.75	812.00	1072.58	716.00	0.64	97.13	1.00	32.28	2411.68	-2121.69	1546.94
Fixation L	1	8	5483899793	5484198136	298343	1061.22	729.40	19	36	-1	13.26	13.26
Fixation R	1	8	5483899793	5484198136	298343	1061.22	729.40	19	36	-1	13.18	13.18
Saccade L	1	8	5484198136	5484218013	19877	1053.11	731.34	1059.85	816.02	0.59	85.93	1.00	29.45	1913.87	-753.09	968.51
Saccade R	1	8	5484198136	5484218013	19877	1053.11	731.34	1059.85	816.02	0.59	85.93	1.00	29.45	1913.87	-753.09	968.51
Fixation L	1	9	5484218013	5484516382	298369	1078.31	818.55	29	59	-1	13.18	13.18
Fixation R	1	9	5484218013	5484516382	298369	1078.31	818.55	29	59	-1	13.39	13.39
Saccade L	1	9	5484516382	5484556119	39737	1080.74	836.78	720.06	835.00	3.09	189.38	1.00	77.65	4421.42	-4605.49	4385.17
Saccade R	1	9	5484516382	5484556119	39737	1080.74	836.78	720.06	835.00	3.09	189.38	1.00	77.65	4421.42	-4605.49	4385.17
Fixation L	1	10	5484556119	5485013614	457495	711.73	827.94	12	13	-1	13.40	13.40
Fixation R	1	10	5484556119	5485013614	457495	711.73	827.94	12	13	-1	13.61	13.61
Saccade L	1	10	5485013614	5485053335	39721	717.86	830.20	903.60	770.30	1.72	102.65	0.50	43.36	2542.09	-2370.62	2418.27
Saccade R	1	10	5485013614	5485053335	39721	717.86	830.20	903.60	770.30	1.72	102.65	0.50	43.36	2542.09	-2370.62	2418.27
Fixation L	1	11	5485053335	5485351707	298372	892.81	774.38	17	30	-1	14.27	14.27
Fixation R	1	11	5485053335	5485351707	298372	892.81	774.38	17	30	-1	14.39	14.39
Saccade L	1	11	5485351707	5485451080	99373	893.34	764.96	976.20	730.11	1.81	80.05	0.20	18.20	1953.77	-1940.88	741.19
Saccade R	1	11	5485351707	5485451080	99373	893.34	764.96	976.20	730.11	1.81	80.05	0.20	18.20	1953.77	-1940.88	741.19
