[BeGaze]
Converted from:	C:\Documents and Settings\iViewX\Desktop\EXPERIMENTATIONS\Experiments\results\finaleart\S7121223-finaleart-1.idf
Date:	27.03.2019 15:36:52
Version:	BeGaze 2.5.77
Sample Rate:	50
Subject:	S7121223
Description:	Gregoire pacreau

Table Header for Fixations:
Event Type	Trial	Number	Start	End	Duration	Location X	Location Y	Dispersion X	Dispersion Y	Plane	Avg. Pupil Size X	Avg. Pupil Size Y

Table Header for Saccades:
Event Type	Trial	Number	Start	End	Duration	Start Loc.X	Start Loc.Y	End Loc.X	End Loc.Y	Amplitude	Peak Speed	Peak Speed At	Average Speed	Peak Accel.	Peak Decel.	Average Accel.

Table Header for Blinks:
Event Type	Trial	Number	Start	End	Duration

Table Header for User Events:
Event Type	Trial	Number	Start	Description

UserEvent	1	1	4336245806	# Message: still-life-with-pumpkin-plums-cherries-figs-and-jug-Ribot-1860.jpg
Fixation L	1	1	4336260935	4336857646	596711	836.61	521.10	18	48	-1	17.64	17.64
Fixation R	1	1	4336260935	4336857646	596711	836.61	521.10	18	48	-1	15.85	15.85
Saccade L	1	1	4336857646	4336877524	19878	829.86	554.35	780.60	644.86	0.75	104.24	1.00	37.87	2274.80	-2166.77	1524.42
Saccade R	1	1	4336857646	4336877524	19878	829.86	554.35	780.60	644.86	0.75	104.24	1.00	37.87	2274.80	-2166.77	1524.42
Fixation L	1	2	4336877524	4337116128	238604	768.81	639.14	19	40	-1	18.28	18.28
Fixation R	1	2	4336877524	4337116128	238604	768.81	639.14	19	40	-1	16.42	16.42
Saccade L	1	2	4337116128	4337155883	39755	762.66	638.32	636.67	743.34	1.45	91.97	0.50	36.53	2136.93	-2181.98	1933.87
Saccade R	1	2	4337116128	4337155883	39755	762.66	638.32	636.67	743.34	1.45	91.97	0.50	36.53	2136.93	-2181.98	1933.87
Fixation L	1	3	4337155883	4337334867	178984	627.67	752.22	15	15	-1	18.09	18.09
Fixation R	1	3	4337155883	4337334867	178984	627.67	752.22	15	15	-1	16.39	16.39
Saccade L	1	3	4337334867	4337354871	20004	621.62	755.88	549.52	841.40	0.93	113.14	1.00	46.49	2733.50	-2570.84	2283.56
Saccade R	1	3	4337334867	4337354871	20004	621.62	755.88	549.52	841.40	0.93	113.14	1.00	46.49	2733.50	-2570.84	2283.56
Fixation L	1	4	4337354871	4337553730	198859	499.53	868.60	65	33	-1	17.45	17.45
Fixation R	1	4	4337354871	4337553730	198859	499.53	868.60	65	33	-1	15.85	15.85
Saccade L	1	4	4337553730	4337573617	19887	497.17	874.27	585.10	876.49	0.67	88.97	1.00	33.67	2152.65	-1890.19	1678.10
Saccade R	1	4	4337553730	4337573617	19887	497.17	874.27	585.10	876.49	0.67	88.97	1.00	33.67	2152.65	-1890.19	1678.10
Fixation L	1	5	4337573617	4337752600	178983	633.29	861.66	59	27	-1	17.62	17.62
Fixation R	1	5	4337573617	4337752600	178983	633.29	861.66	59	27	-1	16.24	16.24
Saccade L	1	5	4337752600	4337792346	39746	644.73	850.95	986.93	841.04	3.17	189.68	1.00	79.84	4674.31	-4716.01	3991.94
Saccade R	1	5	4337752600	4337792346	39746	644.73	850.95	986.93	841.04	3.17	189.68	1.00	79.84	4674.31	-4716.01	3991.94
Fixation L	1	6	4337792346	4337991333	198987	1017.32	813.45	38	41	-1	18.07	18.07
Fixation R	1	6	4337792346	4337991333	198987	1017.32	813.45	38	41	-1	17.20	17.20
Saccade L	1	6	4337991333	4338011220	19887	1019.32	799.34	1023.48	699.69	0.86	100.89	1.00	43.26	2474.99	-2463.55	2183.60
Saccade R	1	6	4337991333	4338011220	19887	1019.32	799.34	1023.48	699.69	0.86	100.89	1.00	43.26	2474.99	-2463.55	2183.60
Fixation L	1	7	4338011220	4338249838	238618	1083.95	692.82	79	15	-1	17.91	17.91
Fixation R	1	7	4338011220	4338249838	238618	1083.95	692.82	79	15	-1	16.37	16.37
Saccade L	1	7	4338249838	4338269697	19859	1093.09	684.50	1128.23	680.09	0.31	35.82	1.00	15.69	824.26	-671.96	617.27
Saccade R	1	7	4338249838	4338269697	19859	1093.09	684.50	1128.23	680.09	0.31	35.82	1.00	15.69	824.26	-671.96	617.27
Fixation L	1	8	4338269697	4338528304	258607	1159.52	669.71	40	18	-1	17.14	17.14
Fixation R	1	8	4338269697	4338528304	258607	1159.52	669.71	40	18	-1	14.74	14.74
Saccade L	1	8	4338528304	4338548206	19902	1168.58	661.79	1168.62	598.15	0.65	64.37	1.00	32.43	1524.70	-411.03	1149.68
Saccade R	1	8	4338528304	4338548206	19902	1168.58	661.79	1168.62	598.15	0.65	64.37	1.00	32.43	1524.70	-411.03	1149.68
Fixation L	1	9	4338548206	4338846541	298335	1152.77	624.39	29	67	-1	17.21	17.21
Fixation R	1	9	4338548206	4338846541	298335	1152.77	624.39	29	67	-1	14.45	14.45
Saccade L	1	9	4338846541	4338866421	19880	1140.86	665.30	1138.68	668.59	0.21	28.93	1.00	10.75	263.73	-623.42	352.90
Saccade R	1	9	4338846541	4338866421	19880	1140.86	665.30	1138.68	668.59	0.21	28.93	1.00	10.75	263.73	-623.42	352.90
Fixation L	1	10	4338866421	4338985789	119368	1133.46	682.06	10	23	-1	17.76	17.76
Fixation R	1	10	4338866421	4338985789	119368	1133.46	682.06	10	23	-1	15.14	15.14
Saccade L	1	10	4338985789	4339005659	19870	1129.62	691.99	1059.25	692.63	0.62	71.19	1.00	31.12	1610.89	-1586.51	1319.43
Saccade R	1	10	4338985789	4339005659	19870	1129.62	691.99	1059.25	692.63	0.62	71.19	1.00	31.12	1610.89	-1586.51	1319.43
Fixation L	1	11	4339005659	4339264147	258488	1017.81	708.91	66	25	-1	18.34	18.34
Fixation R	1	11	4339005659	4339264147	258488	1017.81	708.91	66	25	-1	16.04	16.04
Saccade L	1	11	4339264147	4339284148	20001	1071.07	691.16	1153.58	650.29	0.85	93.15	1.00	42.62	2289.43	-2239.55	2067.99
Saccade R	1	11	4339264147	4339284148	20001	1071.07	691.16	1153.58	650.29	0.85	93.15	1.00	42.62	2289.43	-2239.55	2067.99
Fixation L	1	12	4339284148	4339502879	218731	1153.68	640.07	8	20	-1	18.27	18.27
Fixation R	1	12	4339284148	4339502879	218731	1153.68	640.07	8	20	-1	15.99	15.99
Saccade L	1	12	4339502879	4339562507	59628	1158.96	630.06	714.76	581.85	4.66	233.20	0.67	78.10	5653.64	-5633.52	3439.62
Saccade R	1	12	4339502879	4339562507	59628	1158.96	630.06	714.76	581.85	4.66	233.20	0.67	78.10	5653.64	-5633.52	3439.62
Fixation L	1	13	4339562507	4340019988	457481	715.66	571.43	12	28	-1	18.29	18.29
Fixation R	1	13	4339562507	4340019988	457481	715.66	571.43	12	28	-1	16.16	16.16
Saccade L	1	13	4340019988	4340059743	39755	723.23	575.65	585.17	787.79	2.22	138.85	1.00	55.72	3421.36	-3186.16	3039.77
Saccade R	1	13	4340019988	4340059743	39755	723.23	575.65	585.17	787.79	2.22	138.85	1.00	55.72	3421.36	-3186.16	3039.77
Fixation L	1	14	4340059743	4340238722	178979	584.72	807.85	10	26	-1	18.20	18.20
Fixation R	1	14	4340059743	4340238722	178979	584.72	807.85	10	26	-1	16.69	16.69
