[BeGaze]
Converted from:	C:\Documents and Settings\iViewX\Desktop\EXPERIMENTATIONS\Experiments\results\finaleart\S7121223-finaleart-1.idf
Date:	27.03.2019 15:36:46
Version:	BeGaze 2.5.77
Sample Rate:	50
Subject:	S7121223
Description:	Gregoire pacreau

Table Header for Fixations:
Event Type	Trial	Number	Start	End	Duration	Location X	Location Y	Dispersion X	Dispersion Y	Plane	Avg. Pupil Size X	Avg. Pupil Size Y

Table Header for Saccades:
Event Type	Trial	Number	Start	End	Duration	Start Loc.X	Start Loc.Y	End Loc.X	End Loc.Y	Amplitude	Peak Speed	Peak Speed At	Average Speed	Peak Accel.	Peak Decel.	Average Accel.

Table Header for Blinks:
Event Type	Trial	Number	Start	End	Duration

Table Header for User Events:
Event Type	Trial	Number	Start	Description

UserEvent	1	1	4082325987	# Message: still-life-fruits-on-a-table_manet_1864.jpg
Fixation L	1	1	4082337510	4082894723	557213	851.53	519.94	51	21	-1	14.56	14.56
Fixation R	1	1	4082337510	4082894723	557213	851.53	519.94	51	21	-1	15.44	15.44
Saccade L	1	1	4082894723	4082914719	19996	808.22	513.33	751.32	510.86	0.55	57.61	1.00	27.55	1386.37	-1372.39	1237.11
Saccade R	1	1	4082894723	4082914719	19996	808.22	513.33	751.32	510.86	0.55	57.61	1.00	27.55	1386.37	-1372.39	1237.11
Fixation L	1	2	4082914719	4083133599	218880	752.85	500.82	10	28	-1	12.38	12.38
Fixation R	1	2	4082914719	4083133599	218880	752.85	500.82	10	28	-1	12.64	12.64
Saccade L	1	2	4083133599	4083153460	19861	749.84	482.31	746.76	357.74	0.74	126.04	1.00	37.29	3056.67	-2861.88	1991.15
Saccade R	1	2	4083133599	4083153460	19861	749.84	482.31	746.76	357.74	0.74	126.04	1.00	37.29	3056.67	-2861.88	1991.15
Fixation L	1	3	4083153460	4083352579	199119	742.33	382.34	8	41	-1	11.54	11.54
Fixation R	1	3	4083153460	4083352579	199119	742.33	382.34	8	41	-1	11.66	11.66
Saccade L	1	3	4083352579	4083412326	59747	738.95	396.43	284.92	704.14	5.81	304.89	0.67	97.20	7589.14	-7271.34	4719.25
Saccade R	1	3	4083352579	4083412326	59747	738.95	396.43	284.92	704.14	5.81	304.89	0.67	97.20	7589.14	-7271.34	4719.25
Fixation L	1	4	4083412326	4083651182	238856	285.23	719.06	4	20	-1	11.91	11.91
Fixation R	1	4	4083412326	4083651182	238856	285.23	719.06	4	20	-1	11.93	11.93
Saccade L	1	4	4083651182	4083691053	39871	285.38	718.40	516.81	718.46	2.01	123.15	1.00	50.31	3051.47	-3027.53	2804.12
Saccade R	1	4	4083651182	4083691053	39871	285.38	718.40	516.81	718.46	2.01	123.15	1.00	50.31	3051.47	-3027.53	2804.12
Fixation L	1	5	4083691053	4084069294	378241	495.36	693.51	29	47	-1	11.97	11.97
Fixation R	1	5	4083691053	4084069294	378241	495.36	693.51	29	47	-1	12.64	12.64
Saccade L	1	5	4084069294	4084129044	59750	507.30	694.65	1023.13	713.30	5.80	291.50	0.67	97.02	6873.13	-6374.02	4332.17
Saccade R	1	5	4084069294	4084129044	59750	507.30	694.65	1023.13	713.30	5.80	291.50	0.67	97.02	6873.13	-6374.02	4332.17
Fixation L	1	6	4084129044	4084348143	219099	1019.92	764.98	7	61	-1	12.77	12.77
Fixation R	1	6	4084129044	4084348143	219099	1019.92	764.98	7	61	-1	13.25	13.25
Saccade L	1	6	4084348143	4084387897	39754	1016.58	774.76	1378.75	836.83	3.11	211.33	0.50	78.31	5261.43	-4828.69	4509.44
Saccade R	1	6	4084348143	4084387897	39754	1016.58	774.76	1378.75	836.83	3.11	211.33	0.50	78.31	5261.43	-4828.69	4509.44
Fixation L	1	7	4084387897	4084786011	398114	1392.46	855.97	46	29	-1	12.85	12.85
Fixation R	1	7	4084387897	4084786011	398114	1392.46	855.97	46	29	-1	12.24	12.24
Saccade L	1	7	4084786011	4084805998	19987	1424.96	860.52	1517.51	794.26	0.93	115.13	1.00	46.54	2787.35	-2679.29	2047.56
Saccade R	1	7	4084786011	4084805998	19987	1424.96	860.52	1517.51	794.26	0.93	115.13	1.00	46.54	2787.35	-2679.29	2047.56
Fixation L	1	8	4084805998	4085144370	338372	1541.54	751.79	41	58	-1	11.99	11.99
Fixation R	1	8	4084805998	4085144370	338372	1541.54	751.79	41	58	-1	11.48	11.48
Saccade L	1	8	4085144370	4085164227	19857	1558.87	735.75	1560.97	731.93	0.11	6.19	1.00	5.37	-24.06	-44.63	33.53
Saccade R	1	8	4085144370	4085164227	19857	1558.87	735.75	1560.97	731.93	0.11	6.19	1.00	5.37	-24.06	-44.63	33.53
Fixation L	1	9	4085164227	4085542466	378239	1561.75	727.06	9	7	-1	11.69	11.69
Fixation R	1	9	4085164227	4085542466	378239	1561.75	727.06	9	7	-1	11.09	11.09
Saccade L	1	9	4085542466	4085582204	39738	1558.19	724.78	1558.61	439.01	2.34	180.58	0.50	58.96	4478.75	-4448.05	3552.39
Saccade R	1	9	4085542466	4085582204	39738	1558.19	724.78	1558.61	439.01	2.34	180.58	0.50	58.96	4478.75	-4448.05	3552.39
Fixation L	1	10	4085582204	4085801198	218994	1541.89	453.48	35	22	-1	12.22	12.22
Fixation R	1	10	4085582204	4085801198	218994	1541.89	453.48	35	22	-1	11.90	11.90
Saccade L	1	10	4085801198	4085821093	19895	1523.36	458.16	1471.98	410.46	0.48	70.92	1.00	24.11	1717.55	-1553.24	1176.20
Saccade R	1	10	4085801198	4085821093	19895	1523.36	458.16	1471.98	410.46	0.48	70.92	1.00	24.11	1717.55	-1553.24	1176.20
Fixation L	1	11	4085821093	4086079833	258740	1464.79	392.37	17	53	-1	12.82	12.82
Fixation R	1	11	4085821093	4086079833	258740	1464.79	392.37	17	53	-1	12.51	12.51
Saccade L	1	11	4086079833	4086139561	59728	1474.30	365.43	1474.94	791.62	4.50	184.89	0.67	75.38	4513.88	-4495.97	2977.80
Saccade R	1	11	4086079833	4086139561	59728	1474.30	365.43	1474.94	791.62	4.50	184.89	0.67	75.38	4513.88	-4495.97	2977.80
Fixation L	1	12	4086139561	4086318665	179104	1470.51	792.89	11	14	-1	13.73	13.73
Fixation R	1	12	4086139561	4086318665	179104	1470.51	792.89	11	14	-1	13.05	13.05
