[BeGaze]
Converted from:	C:\Documents and Settings\iViewX\Desktop\EXPERIMENTATIONS\Experiments\results\finaleart\S7121223-finaleart-1.idf
Date:	27.03.2019 15:36:49
Version:	BeGaze 2.5.77
Sample Rate:	50
Subject:	S7121223
Description:	Gregoire pacreau

Table Header for Fixations:
Event Type	Trial	Number	Start	End	Duration	Location X	Location Y	Dispersion X	Dispersion Y	Plane	Avg. Pupil Size X	Avg. Pupil Size Y

Table Header for Saccades:
Event Type	Trial	Number	Start	End	Duration	Start Loc.X	Start Loc.Y	End Loc.X	End Loc.Y	Amplitude	Peak Speed	Peak Speed At	Average Speed	Peak Accel.	Peak Decel.	Average Accel.

Table Header for Blinks:
Event Type	Trial	Number	Start	End	Duration

Table Header for User Events:
Event Type	Trial	Number	Start	Description

UserEvent	1	1	4141281941	# Message: void.jpg
Fixation L	1	1	4141284974	4141424323	139349	1051.14	457.90	14	10	-1	16.20	16.20
Fixation R	1	1	4141284974	4141424323	139349	1051.14	457.90	14	10	-1	16.90	16.90
Saccade L	1	1	4141424323	4141464187	39864	1059.55	451.21	1177.98	602.32	2.11	134.23	1.00	52.90	3226.54	-3300.01	2973.41
Saccade R	1	1	4141424323	4141464187	39864	1059.55	451.21	1177.98	602.32	2.11	134.23	1.00	52.90	3226.54	-3300.01	2973.41
Fixation L	1	2	4141464187	4141882312	418125	1185.00	607.75	24	44	-1	15.87	15.87
Fixation R	1	2	4141464187	4141882312	418125	1185.00	607.75	24	44	-1	16.30	16.30
Saccade L	1	2	4141882312	4141961930	79618	1200.41	590.59	774.82	590.69	5.59	150.24	0.50	70.26	3701.49	-2002.38	1944.85
Saccade R	1	2	4141882312	4141961930	79618	1200.41	590.59	774.82	590.69	5.59	150.24	0.50	70.26	3701.49	-2002.38	1944.85
Fixation L	1	3	4141961930	4142101281	139351	764.02	567.35	57	39	-1	15.17	15.17
Fixation R	1	3	4141961930	4142101281	139351	764.02	567.35	57	39	-1	15.47	15.47
Saccade L	1	3	4142101281	4142121280	19999	789.00	552.26	805.63	555.06	0.18	17.06	1.00	9.23	189.43	-319.28	230.36
Saccade R	1	3	4142101281	4142121280	19999	789.00	552.26	805.63	555.06	0.18	17.06	1.00	9.23	189.43	-319.28	230.36
Fixation L	1	4	4142121280	4143276212	1154932	805.68	545.16	32	56	-1	15.53	15.53
Fixation R	1	4	4142121280	4143276212	1154932	805.68	545.16	32	56	-1	16.52	16.52
