[BeGaze]
Converted from:	C:\Documents and Settings\iViewX\Desktop\EXPERIMENTATIONS\Experiments\results\finaleart\S7121223-finaleart-1.idf
Date:	27.03.2019 15:36:57
Version:	BeGaze 2.5.77
Sample Rate:	50
Subject:	S7121223
Description:	Gregoire pacreau

Table Header for Fixations:
Event Type	Trial	Number	Start	End	Duration	Location X	Location Y	Dispersion X	Dispersion Y	Plane	Avg. Pupil Size X	Avg. Pupil Size Y

Table Header for Saccades:
Event Type	Trial	Number	Start	End	Duration	Start Loc.X	Start Loc.Y	End Loc.X	End Loc.Y	Amplitude	Peak Speed	Peak Speed At	Average Speed	Peak Accel.	Peak Decel.	Average Accel.

Table Header for Blinks:
Event Type	Trial	Number	Start	End	Duration

Table Header for User Events:
Event Type	Trial	Number	Start	Description

UserEvent	1	1	4409530774	# Message: nasturtiums-dahlias-in-a-basket_gauguin_1884.jpg
Fixation L	1	1	4409534257	4409713288	179031	831.55	545.56	16	78	-1	14.02	14.02
Fixation R	1	1	4409534257	4409713288	179031	831.55	545.56	16	78	-1	14.37	14.37
Saccade L	1	1	4409713288	4409733107	19819	841.24	517.10	845.58	508.98	0.15	9.31	1.00	7.44	35.16	-187.29	91.85
Saccade R	1	1	4409713288	4409733107	19819	841.24	517.10	845.58	508.98	0.15	9.31	1.00	7.44	35.16	-187.29	91.85
Fixation L	1	2	4409733107	4410250205	517098	867.17	511.86	45	15	-1	13.89	13.89
Fixation R	1	2	4409733107	4410250205	517098	867.17	511.86	45	15	-1	14.61	14.61
Saccade L	1	2	4410250205	4410270082	19877	878.32	510.49	867.82	412.43	0.69	99.76	1.00	34.84	2459.52	-2121.82	1651.69
Saccade R	1	2	4410250205	4410270082	19877	878.32	510.49	867.82	412.43	0.69	99.76	1.00	34.84	2459.52	-2121.82	1651.69
Fixation L	1	3	4410270082	4410767306	497224	835.69	388.99	42	34	-1	13.75	13.75
Fixation R	1	3	4410270082	4410767306	497224	835.69	388.99	42	34	-1	14.14	14.14
Saccade L	1	3	4410767306	4410807048	39742	829.43	390.06	509.94	501.64	2.95	193.70	1.00	74.29	4812.32	-4654.35	4057.95
Saccade R	1	3	4410767306	4410807048	39742	829.43	390.06	509.94	501.64	2.95	193.70	1.00	74.29	4812.32	-4654.35	4057.95
Fixation L	1	4	4410807048	4411145285	338237	484.22	515.67	35	19	-1	14.09	14.09
Fixation R	1	4	4410807048	4411145285	338237	484.22	515.67	35	19	-1	14.58	14.58
Saccade L	1	4	4411145285	4411165158	19873	474.24	518.60	363.00	545.05	0.87	115.65	1.00	43.93	2838.88	-2493.75	2119.51
Saccade R	1	4	4411145285	4411165158	19873	474.24	518.60	363.00	545.05	0.87	115.65	1.00	43.93	2838.88	-2493.75	2119.51
Fixation L	1	5	4411165158	4411582769	417611	363.53	592.74	10	69	-1	13.67	13.67
Fixation R	1	5	4411165158	4411582769	417611	363.53	592.74	10	69	-1	14.67	14.67
Saccade L	1	5	4411582769	4411602639	19870	361.26	607.35	524.37	685.63	1.11	182.96	1.00	55.61	4567.92	-4471.06	3228.31
Saccade R	1	5	4411582769	4411602639	19870	361.26	607.35	524.37	685.63	1.11	182.96	1.00	55.61	4567.92	-4471.06	3228.31
Fixation L	1	6	4411602639	4412119854	517215	548.82	691.46	30	32	-1	14.03	14.03
Fixation R	1	6	4411602639	4412119854	517215	548.82	691.46	30	32	-1	15.18	15.18
Saccade L	1	6	4412119854	4412159609	39755	546.33	684.33	794.16	762.73	2.30	157.44	1.00	57.73	3913.43	-3572.10	3130.50
Saccade R	1	6	4412119854	4412159609	39755	546.33	684.33	794.16	762.73	2.30	157.44	1.00	57.73	3913.43	-3572.10	3130.50
Fixation L	1	7	4412159609	4412457972	298363	815.23	791.25	53	44	-1	14.84	14.84
Fixation R	1	7	4412159609	4412457972	298363	815.23	791.25	53	44	-1	16.08	16.08
Saccade L	1	7	4412457972	4412477846	19874	848.09	807.26	947.17	797.76	0.69	100.68	1.00	34.47	2502.75	-2479.14	1918.97
Saccade R	1	7	4412457972	4412477846	19874	848.09	807.26	947.17	797.76	0.69	100.68	1.00	34.47	2502.75	-2479.14	1918.97
Fixation L	1	8	4412477846	4412835823	357977	957.31	786.36	18	24	-1	14.99	14.99
Fixation R	1	8	4412477846	4412835823	357977	957.31	786.36	18	24	-1	15.47	15.47
Saccade L	1	8	4412835823	4412875570	39747	964.90	773.61	1257.59	773.20	2.47	152.66	0.50	62.09	3789.20	-3548.17	3557.93
Saccade R	1	8	4412835823	4412875570	39747	964.90	773.61	1257.59	773.20	2.47	152.66	0.50	62.09	3789.20	-3548.17	3557.93
Fixation L	1	9	4412875570	4413173935	298365	1285.68	770.24	46	17	-1	14.94	14.94
Fixation R	1	9	4412875570	4413173935	298365	1285.68	770.24	46	17	-1	14.82	14.82
Saccade L	1	9	4413173935	4413193803	19868	1303.82	756.25	1317.22	724.62	0.30	34.74	1.00	15.23	717.44	-684.37	469.05
Saccade R	1	9	4413173935	4413193803	19868	1303.82	756.25	1317.22	724.62	0.30	34.74	1.00	15.23	717.44	-684.37	469.05
Fixation L	1	10	4413193803	4413512036	318233	1326.07	723.92	26	16	-1	14.79	14.79
Fixation R	1	10	4413193803	4413512036	318233	1326.07	723.92	26	16	-1	14.30	14.30
