[BeGaze]
Converted from:	C:\Documents and Settings\iViewX\Desktop\EXPERIMENTATIONS\Experiments\results\finaleart\S7121223-finaleart-1.idf
Date:	27.03.2019 15:36:41
Version:	BeGaze 2.5.77
Sample Rate:	50
Subject:	S7121223
Description:	Gregoire pacreau

Table Header for Fixations:
Event Type	Trial	Number	Start	End	Duration	Location X	Location Y	Dispersion X	Dispersion Y	Plane	Avg. Pupil Size X	Avg. Pupil Size Y

Table Header for Saccades:
Event Type	Trial	Number	Start	End	Duration	Start Loc.X	Start Loc.Y	End Loc.X	End Loc.Y	Amplitude	Peak Speed	Peak Speed At	Average Speed	Peak Accel.	Peak Decel.	Average Accel.

Table Header for Blinks:
Event Type	Trial	Number	Start	End	Duration

Table Header for User Events:
Event Type	Trial	Number	Start	Description

UserEvent	1	1	4015215525	# Message: chase-a-study-in-curves-1890.jpg
Fixation L	1	1	4015223998	4015582493	358495	733.93	367.76	7	18	-1	16.30	16.30
Fixation R	1	1	4015223998	4015582493	358495	733.93	367.76	7	18	-1	16.79	16.79
Saccade L	1	1	4015582493	4015721883	139390	737.36	375.52	472.35	589.47	10.25	294.20	0.86	73.57	6987.83	-7242.95	3092.49
Saccade R	1	1	4015582493	4015721883	139390	737.36	375.52	472.35	589.47	10.25	294.20	0.86	73.57	6987.83	-7242.95	3092.49
Fixation L	1	2	4015721883	4015861215	139332	466.96	589.15	11	3	-1	15.92	15.92
Fixation R	1	2	4015721883	4015861215	139332	466.96	589.15	11	3	-1	16.65	16.65
Saccade L	1	2	4015861215	4015881211	19996	460.86	590.51	335.79	599.04	0.69	126.79	1.00	34.67	3143.36	-2848.50	1998.34
Saccade R	1	2	4015861215	4015881211	19996	460.86	590.51	335.79	599.04	0.69	126.79	1.00	34.67	3143.36	-2848.50	1998.34
Fixation L	1	3	4015881211	4016498429	617218	328.78	618.26	12	32	-1	14.47	14.47
Fixation R	1	3	4015881211	4016498429	617218	328.78	618.26	12	32	-1	14.99	14.99
Saccade L	1	3	4016498429	4016538300	39871	322.99	617.37	432.28	776.73	2.36	105.68	0.50	59.22	2524.79	-2154.29	1844.76
Saccade R	1	3	4016498429	4016538300	39871	322.99	617.37	432.28	776.73	2.36	105.68	0.50	59.22	2524.79	-2154.29	1844.76
Fixation L	1	4	4016538300	4016657787	119487	483.86	780.57	89	9	-1	14.35	14.35
Fixation R	1	4	4016538300	4016657787	119487	483.86	780.57	89	9	-1	15.02	15.02
Saccade L	1	4	4016657787	4016797161	139374	470.65	785.07	586.47	884.53	3.06	85.74	0.86	21.99	1979.63	-1757.80	852.72
Saccade R	1	4	4016657787	4016797161	139374	470.65	785.07	586.47	884.53	3.06	85.74	0.86	21.99	1979.63	-1757.80	852.72
Fixation L	1	5	4016797161	4017115768	318607	613.16	895.94	37	19	-1	15.66	15.66
Fixation R	1	5	4016797161	4017115768	318607	613.16	895.94	37	19	-1	15.87	15.87
Saccade L	1	5	4017115768	4017155510	39742	615.31	887.42	969.78	748.87	3.24	258.93	0.50	81.48	6328.77	-6334.76	4616.51
Saccade R	1	5	4017115768	4017155510	39742	615.31	887.42	969.78	748.87	3.24	258.93	0.50	81.48	6328.77	-6334.76	4616.51
Fixation L	1	6	4017155510	4017414382	258872	960.64	738.85	14	14	-1	16.29	16.29
Fixation R	1	6	4017155510	4017414382	258872	960.64	738.85	14	14	-1	16.41	16.41
Saccade L	1	6	4017414382	4017454253	39871	955.50	735.59	1245.18	719.09	2.40	180.24	1.00	60.28	4491.26	-4375.98	3591.98
Saccade R	1	6	4017414382	4017454253	39871	955.50	735.59	1245.18	719.09	2.40	180.24	1.00	60.28	4491.26	-4375.98	3591.98
Fixation L	1	7	4017454253	4017673255	219002	1246.88	708.91	12	24	-1	15.08	15.08
Fixation R	1	7	4017454253	4017673255	219002	1246.88	708.91	12	24	-1	14.67	14.67
Fixation L	1	8	4017732987	4017832602	99615	1274.46	713.56	25	26	-1	14.10	14.10
Fixation R	1	8	4017732987	4017832602	99615	1274.46	713.56	25	26	-1	13.64	13.64
Saccade L	1	7	4017832602	4017852478	19876	1288.08	695.67	1053.65	654.60	1.68	240.62	1.00	84.53	5808.66	-5793.71	4189.41
Saccade R	1	7	4017832602	4017852478	19876	1288.08	695.67	1053.65	654.60	1.68	240.62	1.00	84.53	5808.66	-5793.71	4189.41
Fixation L	1	9	4017852478	4018111337	258859	1001.24	627.64	64	34	-1	14.15	14.15
Fixation R	1	9	4017852478	4018111337	258859	1001.24	627.64	64	34	-1	14.13	14.13
Saccade L	1	8	4018111337	4018151218	39881	1002.56	628.90	991.64	569.81	0.79	49.91	1.00	19.92	1130.53	-455.46	576.48
Saccade R	1	8	4018111337	4018151218	39881	1002.56	628.90	991.64	569.81	0.79	49.91	1.00	19.92	1130.53	-455.46	576.48
Fixation L	1	10	4018151218	4018370205	218987	981.39	529.99	17	61	-1	14.09	14.09
Fixation R	1	10	4018151218	4018370205	218987	981.39	529.99	17	61	-1	13.58	13.58
Saccade L	1	9	4018370205	4018390202	19997	975.36	522.29	924.32	524.40	0.49	51.67	1.00	24.67	1262.77	-1024.64	1076.20
Saccade R	1	9	4018370205	4018390202	19997	975.36	522.29	924.32	524.40	0.49	51.67	1.00	24.67	1262.77	-1024.64	1076.20
Fixation L	1	11	4018390202	4018688815	298613	873.65	528.90	56	6	-1	13.86	13.86
Fixation R	1	11	4018390202	4018688815	298613	873.65	528.90	56	6	-1	13.82	13.82
Saccade L	1	10	4018688815	4018728688	39873	868.29	526.92	660.02	526.59	1.74	110.20	1.00	43.64	2672.04	-2722.00	2577.83
Saccade R	1	10	4018688815	4018728688	39873	868.29	526.92	660.02	526.59	1.74	110.20	1.00	43.64	2672.04	-2722.00	2577.83
Fixation L	1	12	4018728688	4019126912	398224	664.57	525.58	10	21	-1	14.19	14.19
Fixation R	1	12	4018728688	4019126912	398224	664.57	525.58	10	21	-1	14.21	14.21
Saccade L	1	11	4019126912	4019206531	79619	667.79	511.55	302.78	578.20	5.32	230.81	0.25	66.84	5694.09	-5486.91	3647.95
Saccade R	1	11	4019126912	4019206531	79619	667.79	511.55	302.78	578.20	5.32	230.81	0.25	66.84	5694.09	-5486.91	3647.95
