[BeGaze]
Converted from:	C:\Documents and Settings\iViewX\Desktop\EXPERIMENTATIONS\Experiments\results\finaleart\S7121223-finaleart-1.idf
Date:	27.03.2019 15:36:46
Version:	BeGaze 2.5.77
Sample Rate:	50
Subject:	S7121223
Description:	Gregoire pacreau

Table Header for Fixations:
Event Type	Trial	Number	Start	End	Duration	Location X	Location Y	Dispersion X	Dispersion Y	Plane	Avg. Pupil Size X	Avg. Pupil Size Y

Table Header for Saccades:
Event Type	Trial	Number	Start	End	Duration	Start Loc.X	Start Loc.Y	End Loc.X	End Loc.Y	Amplitude	Peak Speed	Peak Speed At	Average Speed	Peak Accel.	Peak Decel.	Average Accel.

Table Header for Blinks:
Event Type	Trial	Number	Start	End	Duration

Table Header for User Events:
Event Type	Trial	Number	Start	Description

UserEvent	1	1	4086371225	# Message: void.jpg
Saccade L	1	1	4086378427	4086398297	19870	1463.99	800.47	1425.26	864.94	0.64	76.07	1.00	32.19	512.67	-1366.89	626.52
Saccade R	1	1	4086378427	4086398297	19870	1463.99	800.47	1425.26	864.94	0.64	76.07	1.00	32.19	512.67	-1366.89	626.52
Fixation L	1	1	4086398297	4086637152	238855	1398.68	891.47	36	41	-1	13.88	13.88
Fixation R	1	1	4086398297	4086637152	238855	1398.68	891.47	36	41	-1	12.99	12.99
Saccade L	1	2	4086637152	4086676914	39762	1388.39	887.03	1229.55	776.15	1.95	125.41	0.50	49.03	2944.49	-2940.89	2518.07
Saccade R	1	2	4086637152	4086676914	39762	1388.39	887.03	1229.55	776.15	1.95	125.41	0.50	49.03	2944.49	-2940.89	2518.07
Fixation L	1	2	4086676914	4087035277	358363	1225.86	763.23	72	21	-1	13.50	13.50
Fixation R	1	2	4086676914	4087035277	358363	1225.86	763.23	72	21	-1	13.08	13.08
Saccade L	1	3	4087035277	4087094884	59607	1161.12	757.41	812.93	629.14	4.75	180.08	0.67	79.72	2946.87	-4177.08	2431.49
Saccade R	1	3	4087035277	4087094884	59607	1161.12	757.41	812.93	629.14	4.75	180.08	0.67	79.72	2946.87	-4177.08	2431.49
Fixation L	1	3	4087094884	4087353614	258730	820.43	582.16	19	71	-1	13.61	13.61
Fixation R	1	3	4087094884	4087353614	258730	820.43	582.16	19	71	-1	13.40	13.40
Blink L	1	1	4087353614	4087592479	238865
Blink R	1	1	4087353614	4087592479	238865
Fixation L	1	4	4087592479	4087851222	258743	947.76	374.67	15	24	-1	14.50	14.50
Fixation R	1	4	4087592479	4087851222	258743	947.76	374.67	15	24	-1	15.08	15.08
Saccade L	1	4	4087851222	4087891094	39872	952.29	379.19	815.40	445.47	1.55	86.95	0.50	38.76	2071.93	-1595.07	1666.51
Saccade R	1	4	4087851222	4087891094	39872	952.29	379.19	815.40	445.47	1.55	86.95	0.50	38.76	2071.93	-1595.07	1666.51
Fixation L	1	5	4087891094	4088368816	477722	798.85	469.68	24	50	-1	14.64	14.64
Fixation R	1	5	4087891094	4088368816	477722	798.85	469.68	24	50	-1	15.25	15.25
