[BeGaze]
Converted from:	C:\Documents and Settings\iViewX\Desktop\EXPERIMENTATIONS\Experiments\results\finaleart\S7121223-finaleart-1.idf
Date:	27.03.2019 15:36:40
Version:	BeGaze 2.5.77
Sample Rate:	50
Subject:	S7121223
Description:	Gregoire pacreau

Table Header for Fixations:
Event Type	Trial	Number	Start	End	Duration	Location X	Location Y	Dispersion X	Dispersion Y	Plane	Avg. Pupil Size X	Avg. Pupil Size Y

Table Header for Saccades:
Event Type	Trial	Number	Start	End	Duration	Start Loc.X	Start Loc.Y	End Loc.X	End Loc.Y	Amplitude	Peak Speed	Peak Speed At	Average Speed	Peak Accel.	Peak Decel.	Average Accel.

Table Header for Blinks:
Event Type	Trial	Number	Start	End	Duration

Table Header for User Events:
Event Type	Trial	Number	Start	Description

UserEvent	1	1	3818029364	# Message: void.jpg
Fixation L	1	1	3818038504	3818854579	816075	830.42	765.98	28	54	-1	16.23	16.23
Fixation R	1	1	3818038504	3818854579	816075	830.42	765.98	28	54	-1	17.06	17.06
Saccade L	1	1	3818854579	3818894325	39746	849.05	726.66	1085.02	689.35	2.55	139.35	0.50	64.04	3437.10	-2671.26	2563.30
Saccade R	1	1	3818854579	3818894325	39746	849.05	726.66	1085.02	689.35	2.55	139.35	0.50	64.04	3437.10	-2671.26	2563.30
Fixation L	1	2	3818894325	3818993815	99490	1101.89	648.15	22	60	-1	12.24	12.24
Fixation R	1	2	3818894325	3818993815	99490	1101.89	648.15	22	60	-1	12.71	12.71
Saccade L	1	2	3818993815	3819013701	19886	1107.11	628.80	1103.34	582.71	0.48	46.78	1.00	24.05	1032.41	-929.62	963.67
Saccade R	1	2	3818993815	3819013701	19886	1107.11	628.80	1103.34	582.71	0.48	46.78	1.00	24.05	1032.41	-929.62	963.67
Fixation L	1	3	3819013701	3819172942	159241	1108.74	607.80	7	39	-1	12.32	12.32
Fixation R	1	3	3819013701	3819172942	159241	1108.74	607.80	7	39	-1	12.44	12.44
Saccade L	1	3	3819172942	3819232691	59749	1109.40	597.44	876.34	500.08	3.64	135.61	0.67	60.89	3312.55	-3164.44	2346.94
Saccade R	1	3	3819172942	3819232691	59749	1109.40	597.44	876.34	500.08	3.64	135.61	0.67	60.89	3312.55	-3164.44	2346.94
Fixation L	1	4	3819232691	3820028894	796203	858.85	533.05	22	63	-1	13.51	13.51
Fixation R	1	4	3819232691	3820028894	796203	858.85	533.05	22	63	-1	14.31	14.31
