[BeGaze]
Converted from:	C:\Documents and Settings\iViewX\Desktop\EXPERIMENTATIONS\Experiments\results\finaleart\S7121223-finaleart-1.idf
Date:	27.03.2019 15:36:36
Version:	BeGaze 2.5.77
Sample Rate:	50
Subject:	S7121223
Description:	Gregoire pacreau

Table Header for Fixations:
Event Type	Trial	Number	Start	End	Duration	Location X	Location Y	Dispersion X	Dispersion Y	Plane	Avg. Pupil Size X	Avg. Pupil Size Y

Table Header for Saccades:
Event Type	Trial	Number	Start	End	Duration	Start Loc.X	Start Loc.Y	End Loc.X	End Loc.Y	Amplitude	Peak Speed	Peak Speed At	Average Speed	Peak Accel.	Peak Decel.	Average Accel.

Table Header for Blinks:
Event Type	Trial	Number	Start	End	Duration

Table Header for User Events:
Event Type	Trial	Number	Start	Description

UserEvent	1	1	3752891614	# Message: Morning,_An_Overcast_Day_Rouen_Pissaro_1896.jpg
Fixation L	1	1	3752900143	3753338248	438105	821.58	519.79	11	36	-1	15.90	15.90
Fixation R	1	1	3752900143	3753338248	438105	821.58	519.79	11	36	-1	17.35	17.35
Saccade L	1	1	3753338248	3753358237	19989	823.67	514.46	913.86	552.09	0.76	98.85	1.00	37.85	2293.35	-2052.69	1562.93
Saccade R	1	1	3753338248	3753358237	19989	823.67	514.46	913.86	552.09	0.76	98.85	1.00	37.85	2293.35	-2052.69	1562.93
Fixation L	1	2	3753358237	3753517487	159250	915.27	596.04	8	60	-1	14.42	14.42
Fixation R	1	2	3753358237	3753517487	159250	915.27	596.04	8	60	-1	16.03	16.03
Saccade L	1	2	3753517487	3753537352	19865	917.54	607.39	1026.32	610.04	0.70	110.06	1.00	35.40	2568.80	-2533.40	1887.78
Saccade R	1	2	3753517487	3753537352	19865	917.54	607.39	1026.32	610.04	0.70	110.06	1.00	35.40	2568.80	-2533.40	1887.78
Fixation L	1	3	3753537352	3753816214	278862	1053.30	618.36	59	25	-1	11.60	11.60
Fixation R	1	3	3753537352	3753816214	278862	1053.30	618.36	59	25	-1	12.51	12.51
Saccade L	1	3	3753816214	3753836085	19871	1005.90	635.62	927.57	650.58	0.77	80.67	1.00	38.56	1990.04	-1714.34	1672.12
Saccade R	1	3	3753816214	3753836085	19871	1005.90	635.62	927.57	650.58	0.77	80.67	1.00	38.56	1990.04	-1714.34	1672.12
Fixation L	1	4	3753836085	3753995320	159235	919.10	673.68	12	40	-1	10.94	10.94
Fixation R	1	4	3753836085	3753995320	159235	919.10	673.68	12	40	-1	12.01	12.01
Saccade L	1	4	3753995320	3754055067	59747	919.53	691.53	533.18	847.33	4.28	181.14	0.67	71.70	4457.00	-4516.62	3128.86
Saccade R	1	4	3753995320	3754055067	59747	919.53	691.53	533.18	847.33	4.28	181.14	0.67	71.70	4457.00	-4516.62	3128.86
Fixation L	1	5	3754055067	3754294062	238995	537.86	845.49	9	36	-1	11.17	11.17
Fixation R	1	5	3754055067	3754294062	238995	537.86	845.49	9	36	-1	12.21	12.21
Saccade L	1	5	3754294062	3754333931	39869	536.35	836.89	440.20	870.87	2.14	130.19	0.50	53.73	3104.76	-3132.92	2985.07
Saccade R	1	5	3754294062	3754333931	39869	536.35	836.89	440.20	870.87	2.14	130.19	0.50	53.73	3104.76	-3132.92	2985.07
Fixation L	1	6	3754333931	3754493187	159256	441.95	877.80	52	17	-1	11.06	11.06
Fixation R	1	6	3754333931	3754493187	159256	441.95	877.80	52	17	-1	12.62	12.62
Saccade L	1	6	3754493187	3754513050	19863	486.19	888.77	561.27	933.99	0.79	88.65	1.00	39.60	2173.36	-1635.68	1546.03
Saccade R	1	6	3754493187	3754513050	19863	486.19	888.77	561.27	933.99	0.79	88.65	1.00	39.60	2173.36	-1635.68	1546.03
Fixation L	1	7	3754513050	3754672413	159363	561.96	940.03	15	28	-1	11.58	11.58
Fixation R	1	7	3754513050	3754672413	159363	561.96	940.03	15	28	-1	13.34	13.34
Saccade L	1	7	3754672413	3754692289	19876	566.33	944.22	717.51	943.75	0.83	152.90	1.00	41.72	3793.17	-3726.23	2510.62
Saccade R	1	7	3754672413	3754692289	19876	566.33	944.22	717.51	943.75	0.83	152.90	1.00	41.72	3793.17	-3726.23	2510.62
Fixation L	1	8	3754692289	3755010892	318603	722.36	932.34	8	25	-1	12.73	12.73
Fixation R	1	8	3754692289	3755010892	318603	722.36	932.34	8	25	-1	14.25	14.25
Saccade L	1	8	3755010892	3755050771	39879	723.47	921.88	877.44	1026.46	1.76	110.31	1.00	44.09	2734.67	-2133.23	2090.72
Saccade R	1	8	3755010892	3755050771	39879	723.47	921.88	877.44	1026.46	1.76	110.31	1.00	44.09	2734.67	-2133.23	2090.72
Fixation L	1	9	3755050771	3755389249	338478	890.26	1041.56	22	54	-1	13.28	13.28
Fixation R	1	9	3755050771	3755389249	338478	890.26	1041.56	22	54	-1	14.74	14.74
Saccade L	1	9	3755389249	3755429123	39874	899.46	1055.95	568.54	1053.60	2.73	179.94	1.00	68.53	4425.46	-4477.74	4128.53
Saccade R	1	9	3755389249	3755429123	39874	899.46	1055.95	568.54	1053.60	2.73	179.94	1.00	68.53	4425.46	-4477.74	4128.53
Fixation L	1	10	3755429123	3755568494	139371	571.22	1046.71	4	18	-1	12.79	12.79
Fixation R	1	10	3755429123	3755568494	139371	571.22	1046.71	4	18	-1	14.68	14.68
Saccade L	1	10	3755568494	3755588362	19868	569.65	1035.48	478.46	971.37	0.95	112.75	1.00	47.87	2632.10	-2513.46	2142.80
Saccade R	1	10	3755568494	3755588362	19868	569.65	1035.48	478.46	971.37	0.95	112.75	1.00	47.87	2632.10	-2513.46	2142.80
Fixation L	1	11	3755588362	3755767610	179248	463.33	916.74	18	65	-1	12.94	12.94
Fixation R	1	11	3755588362	3755767610	179248	463.33	916.74	18	65	-1	14.75	14.75
Saccade L	1	11	3755767610	3755787484	19874	461.42	910.13	457.26	816.26	0.83	95.04	1.00	41.96	2322.33	-2280.00	2089.48
Saccade R	1	11	3755767610	3755787484	19874	461.42	910.13	457.26	816.26	0.83	95.04	1.00	41.96	2322.33	-2280.00	2089.48
Fixation L	1	12	3755787484	3756325198	537714	440.43	752.04	22	74	-1	13.42	13.42
Fixation R	1	12	3755787484	3756325198	537714	440.43	752.04	22	74	-1	15.54	15.54
Saccade L	1	12	3756325198	3756364963	39765	443.02	753.76	694.78	759.33	2.18	197.69	1.00	54.76	4702.85	-4756.34	3017.57
Saccade R	1	12	3756325198	3756364963	39765	443.02	753.76	694.78	759.33	2.18	197.69	1.00	54.76	4702.85	-4756.34	3017.57
Fixation L	1	13	3756364963	3756683554	318591	701.49	749.10	10	42	-1	14.83	14.83
Fixation R	1	13	3756364963	3756683554	318591	701.49	749.10	10	42	-1	16.89	16.89
Saccade L	1	13	3756683554	3756703428	19874	702.43	723.77	879.57	734.55	0.96	179.47	1.00	48.45	4466.30	-4368.19	2958.35
Saccade R	1	13	3756683554	3756703428	19874	702.43	723.77	879.57	734.55	0.96	179.47	1.00	48.45	4466.30	-4368.19	2958.35
Fixation L	1	14	3756703428	3756882677	179249	887.18	726.84	11	12	-1	14.08	14.08
Fixation R	1	14	3756703428	3756882677	179249	887.18	726.84	11	12	-1	15.64	15.64
