[BeGaze]
Converted from:	C:\Documents and Settings\iViewX\Desktop\EXPERIMENTATIONS\Experiments\results\finaleart\S7121223-finaleart-1.idf
Date:	27.03.2019 15:37:20
Version:	BeGaze 2.5.77
Sample Rate:	50
Subject:	S7121223
Description:	Gregoire pacreau

Table Header for Fixations:
Event Type	Trial	Number	Start	End	Duration	Location X	Location Y	Dispersion X	Dispersion Y	Plane	Avg. Pupil Size X	Avg. Pupil Size Y

Table Header for Saccades:
Event Type	Trial	Number	Start	End	Duration	Start Loc.X	Start Loc.Y	End Loc.X	End Loc.Y	Amplitude	Peak Speed	Peak Speed At	Average Speed	Peak Accel.	Peak Decel.	Average Accel.

Table Header for Blinks:
Event Type	Trial	Number	Start	End	Duration

Table Header for User Events:
Event Type	Trial	Number	Start	Description

UserEvent	1	1	5454891037	# Message: void.jpg
Fixation L	1	1	5454901164	5455139776	238612	1384.44	527.56	23	10	-1	14.73	14.73
Fixation R	1	1	5454901164	5455139776	238612	1384.44	527.56	23	10	-1	13.75	13.75
Saccade L	1	1	5455139776	5455159644	19868	1376.45	534.08	1379.06	665.37	1.02	132.83	1.00	51.41	3253.94	-3200.30	2712.49
Saccade R	1	1	5455139776	5455159644	19868	1376.45	534.08	1379.06	665.37	1.02	132.83	1.00	51.41	3253.94	-3200.30	2712.49
Fixation L	1	2	5455159644	5455378508	218864	1386.96	732.57	15	82	-1	15.06	15.06
Fixation R	1	2	5455159644	5455378508	218864	1386.96	732.57	15	82	-1	13.64	13.64
Saccade L	1	2	5455378508	5455458017	79509	1394.44	744.89	1147.94	702.85	3.34	100.74	0.50	42.04	2458.91	-1916.31	1332.41
Saccade R	1	2	5455378508	5455458017	79509	1394.44	744.89	1147.94	702.85	3.34	100.74	0.50	42.04	2458.91	-1916.31	1332.41
Fixation L	1	3	5455458017	5455557532	99515	1120.86	673.47	45	45	-1	13.51	13.51
Fixation R	1	3	5455458017	5455557532	99515	1120.86	673.47	45	45	-1	12.46	12.46
Saccade L	1	3	5455557532	5455577399	19867	1102.01	659.63	1104.27	641.96	0.15	18.02	1.00	7.61	325.32	-246.57	202.49
Saccade R	1	3	5455557532	5455577399	19867	1102.01	659.63	1104.27	641.96	0.15	18.02	1.00	7.61	325.32	-246.57	202.49
Fixation L	1	4	5455577399	5456154225	576826	1087.96	639.74	24	29	-1	12.67	12.67
Fixation R	1	4	5455577399	5456154225	576826	1087.96	639.74	24	29	-1	11.82	11.82
Saccade L	1	4	5456154225	5456193962	39737	1085.44	653.35	855.88	609.24	2.19	121.57	0.50	55.17	2973.52	-2525.53	2630.96
Saccade R	1	4	5456154225	5456193962	39737	1085.44	653.35	855.88	609.24	2.19	121.57	0.50	55.17	2973.52	-2525.53	2630.96
Fixation L	1	5	5456193962	5456890058	696096	852.48	591.93	16	36	-1	14.08	14.08
Fixation R	1	5	5456193962	5456890058	696096	852.48	591.93	16	36	-1	13.73	13.73
