[BeGaze]
Converted from:	C:\Documents and Settings\iViewX\Desktop\EXPERIMENTATIONS\Experiments\results\finaleart\S7121223-finaleart-1.idf
Date:	27.03.2019 15:36:34
Version:	BeGaze 2.5.77
Sample Rate:	50
Subject:	S7121223
Description:	Gregoire pacreau

Table Header for Fixations:
Event Type	Trial	Number	Start	End	Duration	Location X	Location Y	Dispersion X	Dispersion Y	Plane	Avg. Pupil Size X	Avg. Pupil Size Y

Table Header for Saccades:
Event Type	Trial	Number	Start	End	Duration	Start Loc.X	Start Loc.Y	End Loc.X	End Loc.Y	Amplitude	Peak Speed	Peak Speed At	Average Speed	Peak Accel.	Peak Decel.	Average Accel.

Table Header for Blinks:
Event Type	Trial	Number	Start	End	Duration

Table Header for User Events:
Event Type	Trial	Number	Start	Description

UserEvent	1	1	3726336946	# Message: void.jpg
Fixation L	1	1	3726356768	3726476266	119498	1511.54	597.68	39	25	-1	17.05	17.05
Fixation R	1	1	3726356768	3726476266	119498	1511.54	597.68	39	25	-1	14.34	14.34
Saccade L	1	1	3726476266	3726496243	19977	1525.23	595.84	1521.37	475.67	0.86	121.60	1.00	42.89	2853.04	-2402.73	1925.29
Saccade R	1	1	3726476266	3726496243	19977	1525.23	595.84	1521.37	475.67	0.86	121.60	1.00	42.89	2853.04	-2402.73	1925.29
Fixation L	1	2	3726496243	3726894375	398132	1531.74	435.51	26	57	-1	16.00	16.00
Fixation R	1	2	3726496243	3726894375	398132	1531.74	435.51	26	57	-1	14.46	14.46
Saccade L	1	2	3726894375	3726974102	79727	1547.49	435.52	858.27	448.64	8.53	229.62	0.75	107.05	5353.73	-4741.18	3447.72
Saccade R	1	2	3726894375	3726974102	79727	1547.49	435.52	858.27	448.64	8.53	229.62	0.75	107.05	5353.73	-4741.18	3447.72
Fixation L	1	3	3726974102	3727093601	119499	804.48	460.66	71	27	-1	15.43	15.43
Fixation R	1	3	3726974102	3727093601	119499	804.48	460.66	71	27	-1	14.55	14.55
Saccade L	1	3	3727093601	3727113476	19875	786.48	476.45	779.18	480.30	0.12	8.34	1.00	5.80	142.49	-91.33	95.20
Saccade R	1	3	3727093601	3727113476	19875	786.48	476.45	779.18	480.30	0.12	8.34	1.00	5.80	142.49	-91.33	95.20
Fixation L	1	4	3727113476	3728328160	1214684	778.72	488.96	12	21	-1	16.57	16.57
Fixation R	1	4	3727113476	3728328160	1214684	778.72	488.96	12	21	-1	16.14	16.14
