[BeGaze]
Converted from:	C:\Documents and Settings\iViewX\Desktop\EXPERIMENTATIONS\Experiments\results\finaleart\S7121223-finaleart-1.idf
Date:	27.03.2019 15:36:38
Version:	BeGaze 2.5.77
Sample Rate:	50
Subject:	S7121223
Description:	Gregoire pacreau

Table Header for Fixations:
Event Type	Trial	Number	Start	End	Duration	Location X	Location Y	Dispersion X	Dispersion Y	Plane	Avg. Pupil Size X	Avg. Pupil Size Y

Table Header for Saccades:
Event Type	Trial	Number	Start	End	Duration	Start Loc.X	Start Loc.Y	End Loc.X	End Loc.Y	Amplitude	Peak Speed	Peak Speed At	Average Speed	Peak Accel.	Peak Decel.	Average Accel.

Table Header for Blinks:
Event Type	Trial	Number	Start	End	Duration

Table Header for User Events:
Event Type	Trial	Number	Start	Description

UserEvent	1	1	3789575550	# Message: Hayet-Nature-morte-1888.jpg
Fixation L	1	1	3789575734	3790033604	457870	919.77	470.03	44	44	-1	14.33	14.33
Fixation R	1	1	3789575734	3790033604	457870	919.77	470.03	44	44	-1	15.60	15.60
Saccade L	1	1	3790033604	3790053460	19856	922.00	490.53	925.82	505.09	0.17	15.23	1.00	8.56	146.12	-144.72	116.39
Saccade R	1	1	3790033604	3790053460	19856	922.00	490.53	925.82	505.09	0.17	15.23	1.00	8.56	146.12	-144.72	116.39
Fixation L	1	2	3790053460	3790212699	159239	925.64	502.82	36	58	-1	13.63	13.63
Fixation R	1	2	3790053460	3790212699	159239	925.64	502.82	36	58	-1	14.47	14.47
Saccade L	1	2	3790212699	3790232563	19864	894.70	539.43	892.27	545.48	0.49	69.27	0.00	24.53	407.19	-1516.82	700.25
Saccade R	1	2	3790212699	3790232563	19864	894.70	539.43	892.27	545.48	0.49	69.27	0.00	24.53	407.19	-1516.82	700.25
Fixation L	1	3	3790232563	3790551055	318492	874.76	562.13	28	33	-1	11.72	11.72
Fixation R	1	3	3790232563	3790551055	318492	874.76	562.13	28	33	-1	12.40	12.40
Saccade L	1	3	3790551055	3790590791	39736	868.91	570.68	1201.25	561.91	2.75	181.41	0.50	69.17	4462.48	-4465.99	4110.84
Saccade R	1	3	3790551055	3790590791	39736	868.91	570.68	1201.25	561.91	2.75	181.41	0.50	69.17	4462.48	-4465.99	4110.84
Fixation L	1	4	3790590791	3791287512	696721	1212.03	545.38	43	24	-1	11.68	11.68
Fixation R	1	4	3790590791	3791287512	696721	1212.03	545.38	43	24	-1	12.09	12.09
Saccade L	1	4	3791287512	3791347260	59748	1237.52	544.47	851.99	334.51	4.76	192.38	0.67	79.64	4739.03	-4675.21	3239.21
Saccade R	1	4	3791287512	3791347260	59748	1237.52	544.47	851.99	334.51	4.76	192.38	0.67	79.64	4739.03	-4675.21	3239.21
Fixation L	1	5	3791347260	3791526382	179122	832.02	325.98	31	17	-1	11.65	11.65
Fixation R	1	5	3791347260	3791526382	179122	832.02	325.98	31	17	-1	11.92	11.92
Saccade L	1	5	3791526382	3791546254	19872	825.62	320.52	822.95	214.11	0.63	107.67	1.00	31.75	2652.29	-2537.21	1780.71
Saccade R	1	5	3791526382	3791546254	19872	825.62	320.52	822.95	214.11	0.63	107.67	1.00	31.75	2652.29	-2537.21	1780.71
Fixation L	1	6	3791546254	3791785112	238858	809.46	178.17	27	58	-1	11.58	11.58
Fixation R	1	6	3791546254	3791785112	238858	809.46	178.17	27	58	-1	12.22	12.22
Saccade L	1	6	3791785112	3791844864	59752	795.69	155.51	326.39	410.16	5.74	332.41	0.67	96.08	8181.33	-7689.30	4189.41
Saccade R	1	6	3791785112	3791844864	59752	795.69	155.51	326.39	410.16	5.74	332.41	0.67	96.08	8181.33	-7689.30	4189.41
Fixation L	1	7	3791844864	3792083591	238727	352.32	459.09	33	66	-1	12.72	12.72
Fixation R	1	7	3791844864	3792083591	238727	352.32	459.09	33	66	-1	13.53	13.53
Saccade L	1	7	3792083591	3792103592	20001	358.52	476.29	359.01	479.40	0.04	3.19	1.00	2.20	42.92	-21.00	26.00
Saccade R	1	7	3792083591	3792103592	20001	358.52	476.29	359.01	479.40	0.04	3.19	1.00	2.20	42.92	-21.00	26.00
Fixation L	1	8	3792103592	3792680817	577225	358.84	478.25	12	31	-1	13.07	13.07
Fixation R	1	8	3792103592	3792680817	577225	358.84	478.25	12	31	-1	14.26	14.26
Saccade L	1	8	3792680817	3792740437	59620	360.55	474.25	1065.23	289.25	7.66	372.20	0.33	128.46	9136.40	-7400.36	6546.36
Saccade R	1	8	3792680817	3792740437	59620	360.55	474.25	1065.23	289.25	7.66	372.20	0.33	128.46	9136.40	-7400.36	6546.36
Fixation L	1	9	3792740437	3792879807	139370	1081.77	285.99	24	7	-1	13.49	13.49
Fixation R	1	9	3792740437	3792879807	139370	1081.77	285.99	24	7	-1	14.65	14.65
Saccade L	1	9	3792879807	3792899679	19872	1089.37	284.15	1207.49	280.48	0.96	119.53	1.00	48.15	2915.21	-2775.19	2436.24
Saccade R	1	9	3792879807	3792899679	19872	1089.37	284.15	1207.49	280.48	0.96	119.53	1.00	48.15	2915.21	-2775.19	2436.24
Fixation L	1	10	3792899679	3793039049	139370	1272.63	269.00	77	19	-1	13.18	13.18
Fixation R	1	10	3792899679	3793039049	139370	1272.63	269.00	77	19	-1	14.57	14.57
Saccade L	1	10	3793039049	3793058918	19869	1283.81	263.03	1285.94	252.95	0.18	19.98	1.00	9.27	557.19	163.21	383.38
Saccade R	1	10	3793039049	3793058918	19869	1283.81	263.03	1285.94	252.95	0.18	19.98	1.00	9.27	557.19	163.21	383.38
Fixation L	1	11	3793058918	3793297785	238867	1273.29	265.21	43	52	-1	13.33	13.33
Fixation R	1	11	3793058918	3793297785	238867	1273.29	265.21	43	52	-1	13.98	13.98
Saccade L	1	11	3793297785	3793337647	39862	1288.34	261.11	1707.98	390.57	3.81	258.58	0.50	95.69	6240.60	-5971.05	5219.77
Saccade R	1	11	3793297785	3793337647	39862	1288.34	261.11	1707.98	390.57	3.81	258.58	0.50	95.69	6240.60	-5971.05	5219.77
Fixation L	1	12	3793337647	3793576517	238870	1691.46	415.43	24	42	-1	13.47	13.47
Fixation R	1	12	3793337647	3793576517	238870	1691.46	415.43	24	42	-1	14.41	14.41
