[BeGaze]
Converted from:	C:\Documents and Settings\iViewX\Desktop\EXPERIMENTATIONS\Experiments\results\finaleart\S7121223-finaleart-1.idf
Date:	27.03.2019 15:36:57
Version:	BeGaze 2.5.77
Sample Rate:	50
Subject:	S7121223
Description:	Gregoire pacreau

Table Header for Fixations:
Event Type	Trial	Number	Start	End	Duration	Location X	Location Y	Dispersion X	Dispersion Y	Plane	Avg. Pupil Size X	Avg. Pupil Size Y

Table Header for Saccades:
Event Type	Trial	Number	Start	End	Duration	Start Loc.X	Start Loc.Y	End Loc.X	End Loc.Y	Amplitude	Peak Speed	Peak Speed At	Average Speed	Peak Accel.	Peak Decel.	Average Accel.

Table Header for Blinks:
Event Type	Trial	Number	Start	End	Duration

Table Header for User Events:
Event Type	Trial	Number	Start	Description

UserEvent	1	1	4415615710	# Message: still-life-with-red-mullet-and-jug_gaugain_1876.jpg
Fixation L	1	1	4415620312	4415998361	378049	924.23	605.90	7	16	-1	14.36	14.36
Fixation R	1	1	4415620312	4415998361	378049	924.23	605.90	7	16	-1	14.61	14.61
Saccade L	1	1	4415998361	4416038056	39695	928.64	594.51	1108.45	596.64	1.55	102.94	1.00	39.16	2374.28	-2528.18	2175.70
Saccade R	1	1	4415998361	4416038056	39695	928.64	594.51	1108.45	596.64	1.55	102.94	1.00	39.16	2374.28	-2528.18	2175.70
Fixation L	1	2	4416038056	4416217039	178983	1110.11	590.82	4	14	-1	14.44	14.44
Fixation R	1	2	4416038056	4416217039	178983	1110.11	590.82	4	14	-1	14.79	14.79
Saccade L	1	2	4416217039	4416256767	39728	1111.70	582.56	845.54	846.33	3.16	226.75	1.00	79.63	5577.67	-5576.79	4722.98
Saccade R	1	2	4416217039	4416256767	39728	1111.70	582.56	845.54	846.33	3.16	226.75	1.00	79.63	5577.67	-5576.79	4722.98
Fixation L	1	3	4416256767	4416594874	338107	835.71	854.48	13	36	-1	14.61	14.61
Fixation R	1	3	4416256767	4416594874	338107	835.71	854.48	13	36	-1	14.84	14.84
Saccade L	1	3	4416594874	4416614762	19888	832.16	847.46	759.37	846.61	0.53	73.64	1.00	26.47	1818.21	-1727.43	1389.33
Saccade R	1	3	4416594874	4416614762	19888	832.16	847.46	759.37	846.61	0.53	73.64	1.00	26.47	1818.21	-1727.43	1389.33
Fixation L	1	4	4416614762	4416833615	218853	728.75	849.28	37	7	-1	14.62	14.62
Fixation R	1	4	4416614762	4416833615	218853	728.75	849.28	37	7	-1	15.03	15.03
Saccade L	1	4	4416833615	4416853491	19876	722.14	853.32	832.01	853.12	0.71	111.13	1.00	35.60	2764.15	-2702.33	2034.17
Saccade R	1	4	4416833615	4416853491	19876	722.14	853.32	832.01	853.12	0.71	111.13	1.00	35.60	2764.15	-2702.33	2034.17
Fixation L	1	5	4416853491	4417151853	298362	872.81	844.13	49	17	-1	15.34	15.34
Fixation R	1	5	4416853491	4417151853	298362	872.81	844.13	49	17	-1	16.02	16.02
Saccade L	1	5	4417151853	4417171728	19875	880.31	835.43	1031.97	851.47	1.08	154.24	1.00	54.35	3836.54	-3578.87	2952.18
Saccade R	1	5	4417151853	4417171728	19875	880.31	835.43	1031.97	851.47	1.08	154.24	1.00	54.35	3836.54	-3578.87	2952.18
Fixation L	1	6	4417171728	4417310965	139237	1092.00	866.98	73	25	-1	15.60	15.60
Fixation R	1	6	4417171728	4417310965	139237	1092.00	866.98	73	25	-1	15.83	15.83
Saccade L	1	6	4417310965	4417330836	19871	1104.31	874.91	1105.71	879.05	0.06	4.43	1.00	3.20	27.64	-64.88	38.00
Saccade R	1	6	4417310965	4417330836	19871	1104.31	874.91	1105.71	879.05	0.06	4.43	1.00	3.20	27.64	-64.88	38.00
Fixation L	1	7	4417330836	4417569460	238624	1074.57	881.30	62	7	-1	15.62	15.62
Fixation R	1	7	4417330836	4417569460	238624	1074.57	881.30	62	7	-1	15.73	15.73
Saccade L	1	7	4417569460	4417609332	39872	1044.44	885.57	758.84	841.55	2.47	204.04	0.50	61.83	4802.53	-5066.48	3541.68
Saccade R	1	7	4417569460	4417609332	39872	1044.44	885.57	758.84	841.55	2.47	204.04	0.50	61.83	4802.53	-5066.48	3541.68
Fixation L	1	8	4417609332	4418186041	576709	735.52	838.44	51	23	-1	14.89	14.89
Fixation R	1	8	4417609332	4418186041	576709	735.52	838.44	51	23	-1	15.55	15.55
Saccade L	1	8	4418186041	4418205921	19880	723.84	846.98	849.19	846.21	0.93	126.79	1.00	46.81	3093.81	-2650.82	2272.39
Saccade R	1	8	4418186041	4418205921	19880	723.84	846.98	849.19	846.21	0.93	126.79	1.00	46.81	3093.81	-2650.82	2272.39
Fixation L	1	9	4418205921	4418384903	178982	906.52	850.72	69	10	-1	15.56	15.56
Fixation R	1	9	4418205921	4418384903	178982	906.52	850.72	69	10	-1	15.94	15.94
Saccade L	1	9	4418384903	4418424778	39875	916.13	854.14	868.21	614.62	2.09	134.70	1.00	52.45	3311.15	-3175.60	2951.87
Saccade R	1	9	4418384903	4418424778	39875	916.13	854.14	868.21	614.62	2.09	134.70	1.00	52.45	3311.15	-3175.60	2951.87
Fixation L	1	10	4418424778	4418703141	278363	854.00	619.66	18	12	-1	15.54	15.54
Fixation R	1	10	4418424778	4418703141	278363	854.00	619.66	18	12	-1	16.45	16.45
Saccade L	1	10	4418703141	4418723021	19880	850.73	613.05	763.93	521.11	0.75	127.89	1.00	37.54	3111.59	-2779.96	2090.22
Saccade R	1	10	4418703141	4418723021	19880	850.73	613.05	763.93	521.11	0.75	127.89	1.00	37.54	3111.59	-2779.96	2090.22
Fixation L	1	11	4418723021	4418941886	218865	742.57	504.14	49	35	-1	15.68	15.68
Fixation R	1	11	4418723021	4418941886	218865	742.57	504.14	49	35	-1	16.34	16.34
Saccade L	1	11	4418941886	4418961756	19870	714.40	485.69	634.60	405.06	0.85	114.74	1.00	42.70	2696.98	-2822.10	2022.50
Saccade R	1	11	4418941886	4418961756	19870	714.40	485.69	634.60	405.06	0.85	114.74	1.00	42.70	2696.98	-2822.10	2022.50
Fixation L	1	12	4418961756	4419100997	139241	633.39	401.08	16	24	-1	15.72	15.72
Fixation R	1	12	4418961756	4419100997	139241	633.39	401.08	16	24	-1	16.51	16.51
Saccade L	1	12	4419100997	4419120873	19876	641.59	401.60	772.65	377.63	1.12	134.76	1.00	56.16	2941.70	-2837.98	2363.26
Saccade R	1	12	4419100997	4419120873	19876	641.59	401.60	772.65	377.63	1.12	134.76	1.00	56.16	2941.70	-2837.98	2363.26
Fixation L	1	13	4419120873	4419319735	198862	826.60	357.18	63	31	-1	15.63	15.63
Fixation R	1	13	4419120873	4419319735	198862	826.60	357.18	63	31	-1	16.77	16.77
Saccade L	1	13	4419319735	4419339614	19879	832.58	351.78	975.77	344.90	1.06	145.00	1.00	53.11	3582.98	-3453.69	2831.10
Saccade R	1	13	4419319735	4419339614	19879	832.58	351.78	975.77	344.90	1.06	145.00	1.00	53.11	3582.98	-3453.69	2831.10
Fixation L	1	14	4419339614	4419598224	258610	1037.86	335.40	70	20	-1	15.54	15.54
Fixation R	1	14	4419339614	4419598224	258610	1037.86	335.40	70	20	-1	15.73	15.73
