[BeGaze]
Converted from:	C:\Documents and Settings\iViewX\Desktop\EXPERIMENTATIONS\Experiments\results\finaleart\S7121223-finaleart-1.idf
Date:	27.03.2019 15:37:27
Version:	BeGaze 2.5.77
Sample Rate:	50
Subject:	S7121223
Description:	Gregoire pacreau

Table Header for Fixations:
Event Type	Trial	Number	Start	End	Duration	Location X	Location Y	Dispersion X	Dispersion Y	Plane	Avg. Pupil Size X	Avg. Pupil Size Y

Table Header for Saccades:
Event Type	Trial	Number	Start	End	Duration	Start Loc.X	Start Loc.Y	End Loc.X	End Loc.Y	Amplitude	Peak Speed	Peak Speed At	Average Speed	Peak Accel.	Peak Decel.	Average Accel.

Table Header for Blinks:
Event Type	Trial	Number	Start	End	Duration

Table Header for User Events:
Event Type	Trial	Number	Start	Description

UserEvent	1	1	5560859213	# Message: Nu_Couche_Vlaminck_1905.jpg
Fixation L	1	1	5560871414	5560990788	119374	805.21	369.27	5	8	-1	16.27	16.27
Fixation R	1	1	5560871414	5560990788	119374	805.21	369.27	5	8	-1	16.19	16.19
Saccade L	1	1	5560990788	5561030702	39914	807.91	373.17	1084.95	364.66	2.48	147.54	0.50	62.06	3613.02	-3221.54	3282.10
Saccade R	1	1	5560990788	5561030702	39914	807.91	373.17	1084.95	364.66	2.48	147.54	0.50	62.06	3613.02	-3221.54	3282.10
Fixation L	1	2	5561030702	5561269301	238599	1109.10	375.42	28	17	-1	16.32	16.32
Fixation R	1	2	5561030702	5561269301	238599	1109.10	375.42	28	17	-1	16.13	16.13
Saccade L	1	2	5561269301	5561289155	19854	1112.31	372.07	1099.49	463.05	0.55	92.94	1.00	27.45	2257.58	-1893.80	1439.29
Saccade R	1	2	5561269301	5561289155	19854	1112.31	372.07	1099.49	463.05	0.55	92.94	1.00	27.45	2257.58	-1893.80	1439.29
Fixation L	1	3	5561289155	5561408509	119354	1089.40	455.64	21	29	-1	15.97	15.97
Fixation R	1	3	5561289155	5561408509	119354	1089.40	455.64	21	29	-1	15.22	15.22
Saccade L	1	3	5561408509	5561448243	39734	1078.10	455.68	697.76	457.61	3.48	243.40	0.50	87.68	5515.13	-5890.51	4503.20
Saccade R	1	3	5561408509	5561448243	39734	1078.10	455.68	697.76	457.61	3.48	243.40	0.50	87.68	5515.13	-5890.51	4503.20
Fixation L	1	4	5561448243	5561686861	238618	692.16	422.40	22	57	-1	12.72	12.72
Fixation R	1	4	5561448243	5561686861	238618	692.16	422.40	22	57	-1	12.25	12.25
Saccade L	1	4	5561686861	5561706735	19874	675.38	399.64	655.43	402.76	0.27	20.44	1.00	13.46	378.25	-492.07	336.03
Saccade R	1	4	5561686861	5561706735	19874	675.38	399.64	655.43	402.76	0.27	20.44	1.00	13.46	378.25	-492.07	336.03
Fixation L	1	5	5561706735	5562363198	656463	632.44	393.64	39	59	-1	11.12	11.12
Fixation R	1	5	5561706735	5562363198	656463	632.44	393.64	39	59	-1	10.68	10.68
Saccade L	1	5	5562363198	5562383081	19883	654.55	434.15	656.92	438.31	0.10	7.36	1.00	5.19	4.95	-76.74	48.20
Saccade R	1	5	5562363198	5562383081	19883	654.55	434.15	656.92	438.31	0.10	7.36	1.00	5.19	4.95	-76.74	48.20
Fixation L	1	6	5562383081	5562721173	338092	651.82	401.41	16	78	-1	12.10	12.10
Fixation R	1	6	5562383081	5562721173	338092	651.82	401.41	16	78	-1	11.80	11.80
Saccade L	1	6	5562721173	5562741058	19885	643.01	371.62	638.68	363.35	0.14	10.97	1.00	7.07	13.02	-38.28	19.64
Saccade R	1	6	5562721173	5562741058	19885	643.01	371.62	638.68	363.35	0.14	10.97	1.00	7.07	13.02	-38.28	19.64
Fixation L	1	7	5562741058	5562900168	159110	632.61	363.50	10	18	-1	12.35	12.35
Fixation R	1	7	5562741058	5562900168	159110	632.61	363.50	10	18	-1	11.91	11.91
Saccade L	1	7	5562900168	5562920057	19889	627.76	377.74	634.12	489.28	0.74	113.01	1.00	37.01	2797.72	-2583.38	1808.72
Saccade R	1	7	5562900168	5562920057	19889	627.76	377.74	634.12	489.28	0.74	113.01	1.00	37.01	2797.72	-2583.38	1808.72
Fixation L	1	8	5562920057	5563118905	198848	640.07	467.88	11	30	-1	12.38	12.38
Fixation R	1	8	5562920057	5563118905	198848	640.07	467.88	11	30	-1	12.41	12.41
Saccade L	1	8	5563118905	5563138777	19872	638.61	471.48	411.18	522.94	1.33	235.76	1.00	66.81	5820.38	-5360.69	3840.50
Saccade R	1	8	5563118905	5563138777	19872	638.61	471.48	411.18	522.94	1.33	235.76	1.00	66.81	5820.38	-5360.69	3840.50
Fixation L	1	9	5563138777	5563397400	258623	391.21	538.19	26	38	-1	12.57	12.57
Fixation R	1	9	5563138777	5563397400	258623	391.21	538.19	26	38	-1	12.38	12.38
Saccade L	1	9	5563397400	5563437137	39737	392.28	548.82	811.00	662.93	3.64	231.68	0.50	91.54	5729.13	-5504.34	5406.59
Saccade R	1	9	5563397400	5563437137	39737	392.28	548.82	811.00	662.93	3.64	231.68	0.50	91.54	5729.13	-5504.34	5406.59
Fixation L	1	10	5563437137	5563815123	377986	826.87	676.66	66	18	-1	12.58	12.58
Fixation R	1	10	5563437137	5563815123	377986	826.87	676.66	66	18	-1	12.32	12.32
Saccade L	1	10	5563815123	5563834994	19871	877.42	672.69	993.12	633.43	0.98	123.59	1.00	49.34	3048.68	-2408.82	1987.78
Saccade R	1	10	5563815123	5563834994	19871	877.42	672.69	993.12	633.43	0.98	123.59	1.00	49.34	3048.68	-2408.82	1987.78
Fixation L	1	11	5563834994	5563994111	159117	1009.27	632.18	29	37	-1	12.59	12.59
Fixation R	1	11	5563834994	5563994111	159117	1009.27	632.18	29	37	-1	11.89	11.89
Saccade L	1	11	5563994111	5564013989	19878	1022.73	621.20	1130.37	550.68	0.92	130.16	1.00	46.49	3026.69	-3103.77	2133.94
Saccade R	1	11	5563994111	5564013989	19878	1022.73	621.20	1130.37	550.68	0.92	130.16	1.00	46.49	3026.69	-3103.77	2133.94
Fixation L	1	12	5564013989	5564252599	238610	1127.10	514.32	11	44	-1	12.05	12.05
Fixation R	1	12	5564013989	5564252599	238610	1127.10	514.32	11	44	-1	11.13	11.13
Saccade L	1	12	5564252599	5564292343	39744	1131.62	507.23	1304.53	680.06	2.08	136.99	0.50	52.40	3359.43	-3291.77	2990.09
Saccade R	1	12	5564252599	5564292343	39744	1131.62	507.23	1304.53	680.06	2.08	136.99	0.50	52.40	3359.43	-3291.77	2990.09
Fixation L	1	13	5564292343	5564749817	457474	1296.76	690.28	25	54	-1	12.23	12.23
Fixation R	1	13	5564292343	5564749817	457474	1296.76	690.28	25	54	-1	11.12	11.12
Saccade L	1	13	5564749817	5564849313	99496	1281.06	722.83	1297.55	589.95	2.36	100.43	0.20	23.76	2491.61	-2452.58	1197.00
Saccade R	1	13	5564749817	5564849313	99496	1281.06	722.83	1297.55	589.95	2.36	100.43	0.20	23.76	2491.61	-2452.58	1197.00
