[BeGaze]
Converted from:	C:\Documents and Settings\iViewX\Desktop\EXPERIMENTATIONS\Experiments\results\finaleart\S7121223-finaleart-1.idf
Date:	27.03.2019 15:36:39
Version:	BeGaze 2.5.77
Sample Rate:	50
Subject:	S7121223
Description:	Gregoire pacreau

Table Header for Fixations:
Event Type	Trial	Number	Start	End	Duration	Location X	Location Y	Dispersion X	Dispersion Y	Plane	Avg. Pupil Size X	Avg. Pupil Size Y

Table Header for Saccades:
Event Type	Trial	Number	Start	End	Duration	Start Loc.X	Start Loc.Y	End Loc.X	End Loc.Y	Amplitude	Peak Speed	Peak Speed At	Average Speed	Peak Accel.	Peak Decel.	Average Accel.

Table Header for Blinks:
Event Type	Trial	Number	Start	End	Duration

Table Header for User Events:
Event Type	Trial	Number	Start	Description

UserEvent	1	1	3801779580	# Message: Courbet-Femme-nue-couchee-1862.jpg
Fixation L	1	1	3801796866	3802155081	358215	514.00	508.01	9	44	-1	14.67	14.67
Fixation R	1	1	3801796866	3802155081	358215	514.00	508.01	9	44	-1	15.47	15.47
Saccade L	1	1	3802155081	3802175000	19919	516.54	519.32	797.70	517.88	1.53	284.19	1.00	76.94	7097.41	-6813.70	4721.43
Saccade R	1	1	3802155081	3802175000	19919	516.54	519.32	797.70	517.88	1.53	284.19	1.00	76.94	7097.41	-6813.70	4721.43
Fixation L	1	2	3802175000	3802294463	119463	827.79	522.49	45	10	-1	14.57	14.57
Fixation R	1	2	3802175000	3802294463	119463	827.79	522.49	45	10	-1	15.32	15.32
Saccade L	1	2	3802294463	3802334180	39717	843.56	522.36	1238.75	526.02	3.80	270.67	1.00	95.77	6712.63	-6487.21	4429.32
Saccade R	1	2	3802294463	3802334180	39717	843.56	522.36	1238.75	526.02	3.80	270.67	1.00	95.77	6712.63	-6487.21	4429.32
Fixation L	1	3	3802334180	3802772034	437854	1318.55	528.55	87	9	-1	14.25	14.25
Fixation R	1	3	3802334180	3802772034	437854	1318.55	528.55	87	9	-1	14.85	14.85
Saccade L	1	3	3802772034	3802792031	19997	1325.89	533.23	1328.82	536.32	0.07	4.31	1.00	3.44	25.45	-62.45	32.17
Saccade R	1	3	3802772034	3802792031	19997	1325.89	533.23	1328.82	536.32	0.07	4.31	1.00	3.44	25.45	-62.45	32.17
Fixation L	1	4	3802792031	3802931278	139247	1335.96	533.09	13	7	-1	14.45	14.45
Fixation R	1	4	3802792031	3802931278	139247	1335.96	533.09	13	7	-1	14.52	14.52
Saccade L	1	4	3802931278	3802951273	19995	1341.89	529.02	1311.77	615.04	0.73	92.20	1.00	36.58	2237.82	-2121.70	1785.66
Saccade R	1	4	3802931278	3802951273	19995	1341.89	529.02	1311.77	615.04	0.73	92.20	1.00	36.58	2237.82	-2121.70	1785.66
Fixation L	1	5	3802951273	3803110528	159255	1281.97	662.03	40	58	-1	14.35	14.35
Fixation R	1	5	3802951273	3803110528	159255	1281.97	662.03	40	58	-1	14.46	14.46
Saccade L	1	5	3803110528	3803130396	19868	1271.06	672.04	1269.32	673.84	0.06	5.00	1.00	2.86	80.52	10.26	52.88
Saccade R	1	5	3803110528	3803130396	19868	1271.06	672.04	1269.32	673.84	0.06	5.00	1.00	2.86	80.52	10.26	52.88
Fixation L	1	6	3803130396	3803229890	99494	1268.20	672.86	3	5	-1	14.53	14.53
Fixation R	1	6	3803130396	3803229890	99494	1268.20	672.86	3	5	-1	14.43	14.43
Saccade L	1	6	3803229890	3803269640	39750	1266.20	672.74	920.34	789.71	3.07	266.70	0.50	77.17	6644.53	-6533.16	4650.59
Saccade R	1	6	3803229890	3803269640	39750	1266.20	672.74	920.34	789.71	3.07	266.70	0.50	77.17	6644.53	-6533.16	4650.59
Fixation L	1	7	3803269640	3803548381	278741	915.98	804.84	13	24	-1	14.17	14.17
Fixation R	1	7	3803269640	3803548381	278741	915.98	804.84	13	24	-1	14.80	14.80
Saccade L	1	7	3803548381	3803568248	19867	911.98	809.15	738.53	878.34	1.12	188.84	1.00	56.28	4675.16	-4364.78	3283.46
Saccade R	1	7	3803548381	3803568248	19867	911.98	809.15	738.53	878.34	1.12	188.84	1.00	56.28	4675.16	-4364.78	3283.46
Fixation L	1	8	3803568248	3803846858	278610	695.21	899.96	53	28	-1	13.88	13.88
Fixation R	1	8	3803568248	3803846858	278610	695.21	899.96	53	28	-1	15.01	15.01
Saccade L	1	8	3803846858	3803866855	19997	685.36	903.14	827.58	868.07	0.98	148.15	1.00	49.00	3659.85	-3467.70	2716.10
Saccade R	1	8	3803846858	3803866855	19997	685.36	903.14	827.58	868.07	0.98	148.15	1.00	49.00	3659.85	-3467.70	2716.10
Fixation L	1	9	3803866855	3804065854	198999	868.62	851.60	51	33	-1	13.35	13.35
Fixation R	1	9	3803866855	3804065854	198999	868.62	851.60	51	33	-1	14.78	14.78
Saccade L	1	9	3804065854	3804085720	19866	875.47	844.21	980.02	842.71	0.61	105.76	1.00	30.48	2581.57	-2395.11	1746.84
Saccade R	1	9	3804065854	3804085720	19866	875.47	844.21	980.02	842.71	0.61	105.76	1.00	30.48	2581.57	-2395.11	1746.84
Fixation L	1	10	3804085720	3804264832	179112	978.40	819.75	6	43	-1	14.04	14.04
Fixation R	1	10	3804085720	3804264832	179112	978.40	819.75	6	43	-1	15.15	15.15
Saccade L	1	10	3804264832	3804304713	39881	978.67	799.35	1210.78	703.05	2.27	182.05	1.00	56.95	4381.19	-4456.60	3108.05
Saccade R	1	10	3804264832	3804304713	39881	978.67	799.35	1210.78	703.05	2.27	182.05	1.00	56.95	4381.19	-4456.60	3108.05
Fixation L	1	11	3804304713	3804583319	278606	1239.46	694.89	41	12	-1	13.92	13.92
Fixation R	1	11	3804304713	3804583319	278606	1239.46	694.89	41	12	-1	14.85	14.85
Saccade L	1	11	3804583319	3804623190	39871	1252.20	693.73	1316.51	605.19	1.09	61.13	0.50	27.28	1451.15	-1082.02	1186.80
Saccade R	1	11	3804583319	3804623190	39871	1252.20	693.73	1316.51	605.19	1.09	61.13	0.50	27.28	1451.15	-1082.02	1186.80
Fixation L	1	12	3804623190	3804822175	198985	1333.56	592.16	29	60	-1	14.09	14.09
Fixation R	1	12	3804623190	3804822175	198985	1333.56	592.16	29	60	-1	14.67	14.67
Saccade L	1	12	3804822175	3804842058	19883	1345.17	558.39	1348.55	545.80	0.20	13.19	1.00	9.92	54.01	-220.71	139.22
Saccade R	1	12	3804822175	3804842058	19883	1345.17	558.39	1348.55	545.80	0.20	13.19	1.00	9.92	54.01	-220.71	139.22
Fixation L	1	13	3804842058	3805618394	776336	1348.55	516.54	25	73	-1	14.68	14.68
Fixation R	1	13	3804842058	3805618394	776336	1348.55	516.54	25	73	-1	15.55	15.55
Saccade L	1	13	3805618394	3805638258	19864	1361.53	508.45	1363.03	503.38	0.09	5.35	1.00	4.50	26.10	-57.23	33.78
Saccade R	1	13	3805618394	3805638258	19864	1361.53	508.45	1363.03	503.38	0.09	5.35	1.00	4.50	26.10	-57.23	33.78
Fixation L	1	14	3805638258	3805777627	139369	1359.54	504.13	5	5	-1	15.77	15.77
Fixation R	1	14	3805638258	3805777627	139369	1359.54	504.13	5	5	-1	16.37	16.37
