[BeGaze]
Converted from:	C:\Documents and Settings\iViewX\Desktop\EXPERIMENTATIONS\Experiments\results\finaleart\S7121223-finaleart-1.idf
Date:	27.03.2019 15:37:14
Version:	BeGaze 2.5.77
Sample Rate:	50
Subject:	S7121223
Description:	Gregoire pacreau

Table Header for Fixations:
Event Type	Trial	Number	Start	End	Duration	Location X	Location Y	Dispersion X	Dispersion Y	Plane	Avg. Pupil Size X	Avg. Pupil Size Y

Table Header for Saccades:
Event Type	Trial	Number	Start	End	Duration	Start Loc.X	Start Loc.Y	End Loc.X	End Loc.Y	Amplitude	Peak Speed	Peak Speed At	Average Speed	Peak Accel.	Peak Decel.	Average Accel.

Table Header for Blinks:
Event Type	Trial	Number	Start	End	Duration

Table Header for User Events:
Event Type	Trial	Number	Start	Description

UserEvent	1	1	5125666066	# Message: Landscape_at_L-Estaque_Braque-1906.jpg
Fixation L	1	1	5125680931	5126058775	377844	838.11	548.66	8	24	-1	14.30	14.30
Fixation R	1	1	5125680931	5126058775	377844	838.11	548.66	8	24	-1	14.76	14.76
Saccade L	1	1	5126058775	5126078656	19881	844.04	540.26	928.48	537.29	0.70	85.47	1.00	35.09	2070.87	-2060.05	1805.07
Saccade R	1	1	5126058775	5126078656	19881	844.04	540.26	928.48	537.29	0.70	85.47	1.00	35.09	2070.87	-2060.05	1805.07
Fixation L	1	2	5126078656	5126436743	358087	981.04	526.96	57	29	-1	12.90	12.90
Fixation R	1	2	5126078656	5126436743	358087	981.04	526.96	57	29	-1	12.81	12.81
Saccade L	1	2	5126436743	5126476480	39737	985.75	511.38	1186.55	524.36	1.74	142.13	0.50	43.69	3533.35	-3259.81	2374.65
Saccade R	1	2	5126436743	5126476480	39737	985.75	511.38	1186.55	524.36	1.74	142.13	0.50	43.69	3533.35	-3259.81	2374.65
Fixation L	1	3	5126476480	5126734968	258488	1186.74	553.37	42	46	-1	10.89	10.89
Fixation R	1	3	5126476480	5126734968	258488	1186.74	553.37	42	46	-1	10.78	10.78
Saccade L	1	3	5126734968	5126754974	20006	1149.99	570.88	1147.22	589.63	0.37	26.84	0.00	18.57	92.32	-394.79	279.59
Saccade R	1	3	5126734968	5126754974	20006	1149.99	570.88	1147.22	589.63	0.37	26.84	0.00	18.57	92.32	-394.79	279.59
Fixation L	1	4	5126754974	5126993584	238610	1136.89	594.27	18	23	-1	11.96	11.96
Fixation R	1	4	5126754974	5126993584	238610	1136.89	594.27	18	23	-1	11.90	11.90
Saccade L	1	4	5126993584	5127013453	19869	1149.58	598.75	1291.51	601.09	0.91	143.57	1.00	45.98	3557.96	-3505.42	2389.65
Saccade R	1	4	5126993584	5127013453	19869	1149.58	598.75	1291.51	601.09	0.91	143.57	1.00	45.98	3557.96	-3505.42	2389.65
Fixation L	1	5	5127013453	5127490803	477350	1316.90	617.84	40	32	-1	12.79	12.79
Fixation R	1	5	5127013453	5127490803	477350	1316.90	617.84	40	32	-1	12.37	12.37
Saccade L	1	5	5127490803	5127510703	19900	1330.10	626.71	1186.70	623.35	1.07	145.09	1.00	53.75	3481.28	-3594.20	2777.31
Saccade R	1	5	5127490803	5127510703	19900	1330.10	626.71	1186.70	623.35	1.07	145.09	1.00	53.75	3481.28	-3594.20	2777.31
Fixation L	1	6	5127510703	5127848791	338088	1130.90	616.66	64	33	-1	13.00	13.00
Fixation R	1	6	5127510703	5127848791	338088	1130.90	616.66	64	33	-1	12.85	12.85
Saccade L	1	6	5127848791	5127948295	99504	1134.29	593.60	833.20	596.05	4.33	219.97	0.80	43.53	5174.32	-5396.67	2019.11
Saccade R	1	6	5127848791	5127948295	99504	1134.29	593.60	833.20	596.05	4.33	219.97	0.80	43.53	5174.32	-5396.67	2019.11
Fixation L	1	7	5127948295	5128107405	159110	807.94	591.69	36	6	-1	12.32	12.32
Fixation R	1	7	5127948295	5128107405	159110	807.94	591.69	36	6	-1	12.40	12.40
Saccade L	1	7	5128107405	5128147158	39753	798.77	589.07	805.50	328.21	2.31	177.18	1.00	58.13	4386.44	-4273.44	3099.59
Saccade R	1	7	5128107405	5128147158	39753	798.77	589.07	805.50	328.21	2.31	177.18	1.00	58.13	4386.44	-4273.44	3099.59
Fixation L	1	8	5128147158	5128485257	338099	811.72	308.29	56	30	-1	12.12	12.12
Fixation R	1	8	5128147158	5128485257	338099	811.72	308.29	56	30	-1	12.33	12.33
Saccade L	1	8	5128485257	5128505126	19869	764.06	306.46	741.08	267.08	0.57	55.32	0.00	28.72	1093.11	-1106.23	1084.87
Saccade R	1	8	5128485257	5128505126	19869	764.06	306.46	741.08	267.08	0.57	55.32	0.00	28.72	1093.11	-1106.23	1084.87
Fixation L	1	9	5128505126	5128704124	198998	733.46	277.28	20	23	-1	12.80	12.80
Fixation R	1	9	5128505126	5128704124	198998	733.46	277.28	20	23	-1	13.36	13.36
Saccade L	1	9	5128704124	5128723992	19868	720.96	290.99	543.68	412.18	1.26	217.13	1.00	63.30	5299.41	-5347.56	3592.11
Saccade R	1	9	5128704124	5128723992	19868	720.96	290.99	543.68	412.18	1.26	217.13	1.00	63.30	5299.41	-5347.56	3592.11
Fixation L	1	10	5128723992	5129221213	497221	545.30	461.81	18	73	-1	13.72	13.72
Fixation R	1	10	5128723992	5129221213	497221	545.30	461.81	18	73	-1	14.35	14.35
Saccade L	1	10	5129221213	5129260967	39754	556.72	485.74	566.68	664.85	1.59	112.09	0.50	40.02	2788.28	-2431.33	2075.52
Saccade R	1	10	5129221213	5129260967	39754	556.72	485.74	566.68	664.85	1.59	112.09	0.50	40.02	2788.28	-2431.33	2075.52
Fixation L	1	11	5129260967	5129519593	258626	592.85	661.27	34	20	-1	13.94	13.94
Fixation R	1	11	5129260967	5129519593	258626	592.85	661.27	34	20	-1	14.62	14.62
Saccade L	1	11	5129519593	5129559323	39730	596.02	664.20	543.15	896.32	2.43	206.29	0.50	61.04	5077.44	-4228.85	2844.36
Saccade R	1	11	5129519593	5129559323	39730	596.02	664.20	543.15	896.32	2.43	206.29	0.50	61.04	5077.44	-4228.85	2844.36
Fixation L	1	12	5129559323	5129658692	99369	551.13	930.27	12	50	-1	14.09	14.09
Fixation R	1	12	5129559323	5129658692	99369	551.13	930.27	12	50	-1	14.73	14.73
