[BeGaze]
Converted from:	C:\Documents and Settings\iViewX\Desktop\EXPERIMENTATIONS\Experiments\results\finaleart\S7121223-finaleart-1.idf
Date:	27.03.2019 15:37:24
Version:	BeGaze 2.5.77
Sample Rate:	50
Subject:	S7121223
Description:	Gregoire pacreau

Table Header for Fixations:
Event Type	Trial	Number	Start	End	Duration	Location X	Location Y	Dispersion X	Dispersion Y	Plane	Avg. Pupil Size X	Avg. Pupil Size Y

Table Header for Saccades:
Event Type	Trial	Number	Start	End	Duration	Start Loc.X	Start Loc.Y	End Loc.X	End Loc.Y	Amplitude	Peak Speed	Peak Speed At	Average Speed	Peak Accel.	Peak Decel.	Average Accel.

Table Header for Blinks:
Event Type	Trial	Number	Start	End	Duration

Table Header for User Events:
Event Type	Trial	Number	Start	Description

UserEvent	1	1	5516064476	# Message: void.jpg
Fixation L	1	1	5516080755	5516438727	357972	489.65	654.13	26	68	-1	13.85	13.85
Fixation R	1	1	5516080755	5516438727	357972	489.65	654.13	26	68	-1	14.29	14.29
Saccade L	1	1	5516438727	5516458581	19854	477.98	688.21	471.80	689.64	0.11	10.31	1.00	5.49	-66.68	-126.65	96.83
Saccade R	1	1	5516438727	5516458581	19854	477.98	688.21	471.80	689.64	0.11	10.31	1.00	5.49	-66.68	-126.65	96.83
Fixation L	1	2	5516458581	5516896202	437621	483.29	694.98	74	15	-1	14.34	14.34
Fixation R	1	2	5516458581	5516896202	437621	483.29	694.98	74	15	-1	14.86	14.86
Saccade L	1	2	5516896202	5516935961	39759	545.05	690.19	606.12	690.66	1.18	36.62	0.00	29.64	183.95	-305.03	221.38
Saccade R	1	2	5516896202	5516935961	39759	545.05	690.19	606.12	690.66	1.18	36.62	0.00	29.64	183.95	-305.03	221.38
Fixation L	1	3	5516935961	5517075171	139210	661.38	686.94	82	9	-1	14.61	14.61
Fixation R	1	3	5516935961	5517075171	139210	661.38	686.94	82	9	-1	15.35	15.35
Saccade L	1	3	5517075171	5517095049	19878	688.96	686.71	697.55	688.82	0.11	8.94	1.00	5.58	1065.13	-53.51	433.64
Saccade R	1	3	5517075171	5517095049	19878	688.96	686.71	697.55	688.82	0.11	8.94	1.00	5.58	1065.13	-53.51	433.64
Fixation L	1	4	5517095049	5517413285	318236	651.47	668.17	67	30	-1	14.91	14.91
Fixation R	1	4	5517095049	5517413285	318236	651.47	668.17	67	30	-1	15.57	15.57
Saccade L	1	4	5517413285	5517453026	39741	640.69	663.85	809.46	611.39	1.76	145.30	0.50	44.18	3608.73	-3267.24	2382.44
Saccade R	1	4	5517413285	5517453026	39741	640.69	663.85	809.46	611.39	1.76	145.30	0.50	44.18	3608.73	-3267.24	2382.44
Fixation L	1	5	5517453026	5518049751	596725	815.10	589.49	8	28	-1	14.61	14.61
Fixation R	1	5	5517453026	5518049751	596725	815.10	589.49	8	28	-1	14.86	14.86
