[BeGaze]
Converted from:	C:\Documents and Settings\iViewX\Desktop\EXPERIMENTATIONS\Experiments\results\finaleart\S14F27123-finaleart-1.idf
Date:	27.03.2019 15:43:17
Version:	BeGaze 2.5.77
Sample Rate:	50
Subject:	S14F27123
Description:	Anne-flore Perrin

Table Header for Fixations:
Event Type	Trial	Number	Start	End	Duration	Location X	Location Y	Dispersion X	Dispersion Y	Plane	Avg. Pupil Size X	Avg. Pupil Size Y

Table Header for Saccades:
Event Type	Trial	Number	Start	End	Duration	Start Loc.X	Start Loc.Y	End Loc.X	End Loc.Y	Amplitude	Peak Speed	Peak Speed At	Average Speed	Peak Accel.	Peak Decel.	Average Accel.

Table Header for Blinks:
Event Type	Trial	Number	Start	End	Duration

Table Header for User Events:
Event Type	Trial	Number	Start	Description

UserEvent	1	1	30868028006	# Message: Young_Girls_Playing_With_A_Lion_Club_Valtat_1905.jpg
Fixation L	1	1	30868039940	30868457674	417734	731.63	708.55	12	31	-1	13.33	13.33
Fixation R	1	1	30868039940	30868457674	417734	731.63	708.55	12	31	-1	13.44	13.44
Saccade L	1	1	30868457674	30868477545	19871	725.13	732.36	856.67	538.86	1.34	236.56	1.00	67.55	5761.30	-5616.90	3875.47
Saccade R	1	1	30868457674	30868477545	19871	725.13	732.36	856.67	538.86	1.34	236.56	1.00	67.55	5761.30	-5616.90	3875.47
Fixation L	1	2	30868477545	30868616780	139235	863.74	532.49	12	33	-1	13.31	13.31
Fixation R	1	2	30868477545	30868616780	139235	863.74	532.49	12	33	-1	13.35	13.35
Saccade L	1	2	30868616780	30868636671	19891	868.02	534.02	991.32	384.71	1.11	195.81	1.00	55.65	4355.86	-4684.33	3025.29
Saccade R	1	2	30868616780	30868636671	19891	868.02	534.02	991.32	384.71	1.11	195.81	1.00	55.65	4355.86	-4684.33	3025.29
Fixation L	1	3	30868636671	30868974761	338090	994.51	373.88	69	22	-1	10.39	10.39
Fixation R	1	3	30868636671	30868974761	338090	994.51	373.88	69	22	-1	10.54	10.54
Saccade L	1	3	30868974761	30868994639	19878	941.86	369.74	933.37	363.24	0.16	10.83	1.00	7.94	162.08	-103.36	113.24
Saccade R	1	3	30868974761	30868994639	19878	941.86	369.74	933.37	363.24	0.16	10.83	1.00	7.94	162.08	-103.36	113.24
Fixation L	1	4	30868994639	30869452116	457477	923.11	384.40	25	58	-1	10.79	10.79
Fixation R	1	4	30868994639	30869452116	457477	923.11	384.40	25	58	-1	10.75	10.75
Saccade L	1	4	30869452116	30869491865	39749	912.01	422.15	913.89	632.56	1.79	139.23	0.50	45.11	3408.22	-3366.93	2509.33
Saccade R	1	4	30869452116	30869491865	39749	912.01	422.15	913.89	632.56	1.79	139.23	0.50	45.11	3408.22	-3366.93	2509.33
Fixation L	1	5	30869491865	30869651113	159248	922.22	642.31	17	29	-1	11.91	11.91
Fixation R	1	5	30869491865	30869651113	159248	922.22	642.31	17	29	-1	11.90	11.90
Saccade L	1	5	30869651113	30869670984	19871	931.58	637.14	1088.87	681.52	1.03	165.29	1.00	51.99	4034.03	-4054.80	2940.36
Saccade R	1	5	30869651113	30869670984	19871	931.58	637.14	1088.87	681.52	1.03	165.29	1.00	51.99	4034.03	-4054.80	2940.36
Fixation L	1	6	30869670984	30869849969	178985	1091.10	711.37	4	36	-1	11.75	11.75
Fixation R	1	6	30869670984	30869849969	178985	1091.10	711.37	4	36	-1	11.77	11.77
Saccade L	1	6	30869849969	30869889720	39751	1092.89	712.90	1109.21	639.57	1.19	103.76	0.50	29.99	2550.20	-2271.99	1508.94
Saccade R	1	6	30869849969	30869889720	39751	1092.89	712.90	1109.21	639.57	1.19	103.76	0.50	29.99	2550.20	-2271.99	1508.94
Fixation L	1	7	30869889720	30870009091	119371	1114.93	666.28	11	66	-1	12.00	12.00
Fixation R	1	7	30869889720	30870009091	119371	1114.93	666.28	11	66	-1	11.96	11.96
Blink L	1	1	30870009091	30870406826	397735
Blink R	1	1	30870009091	30870406826	397735
Saccade L	1	7	30870406826	30870446702	39876	977.53	985.97	983.09	990.67	22.17	1384.31	1.00	556.05	34616.46	-34414.53	25897.21
Saccade R	1	7	30870406826	30870446702	39876	977.53	985.97	983.09	990.67	22.17	1384.31	1.00	556.05	34616.46	-34414.53	25897.21
Saccade L	1	8	30870506324	30870526193	19869	983.65	994.28	982.96	994.99	13.79	1387.16	1.00	693.85	34652.21	-34629.32	23102.19
Saccade R	1	8	30870506324	30870526193	19869	983.65	994.28	982.96	994.99	13.79	1387.16	1.00	693.85	34652.21	-34629.32	23102.19
Blink L	1	2	30870526193	30871023421	497228
Blink R	1	2	30870526193	30871023421	497228
Blink L	1	3	30871023421	30871202413	178992
Blink R	1	3	30871023421	30871202413	178992
Fixation L	1	8	30871202413	30871321812	119399	639.11	785.15	45	39	-1	12.27	12.27
Fixation R	1	8	30871202413	30871321812	119399	639.11	785.15	45	39	-1	16.16	16.16
Saccade L	1	9	30871321812	30871341667	19855	633.98	767.56	611.58	680.77	1.06	90.68	1.00	53.17	1970.43	-1574.22	1517.47
Saccade R	1	9	30871321812	30871341667	19855	633.98	767.56	611.58	680.77	1.06	90.68	1.00	53.17	1970.43	-1574.22	1517.47
Fixation L	1	9	30871341667	30871560525	218858	602.72	638.80	24	74	-1	11.05	11.05
Fixation R	1	9	30871341667	30871560525	218858	602.72	638.80	24	74	-1	11.71	11.71
Saccade L	1	10	30871560525	30871580403	19878	587.48	633.79	553.61	629.74	0.44	34.51	1.00	22.33	620.81	-223.03	300.46
Saccade R	1	10	30871560525	30871580403	19878	587.48	633.79	553.61	629.74	0.44	34.51	1.00	22.33	620.81	-223.03	300.46
Fixation L	1	10	30871580403	30871699774	119371	535.61	597.67	25	69	-1	10.93	10.93
Fixation R	1	10	30871580403	30871699774	119371	535.61	597.67	25	69	-1	11.58	11.58
Saccade L	1	11	30871699774	30871719644	19870	527.71	560.31	480.05	309.19	1.90	258.41	1.00	95.63	6147.11	-6132.23	4523.89
Saccade R	1	11	30871699774	30871719644	19870	527.71	560.31	480.05	309.19	1.90	258.41	1.00	95.63	6147.11	-6132.23	4523.89
Fixation L	1	11	30871719644	30871819013	99369	468.12	259.80	19	78	-1	10.82	10.82
Fixation R	1	11	30871719644	30871819013	99369	468.12	259.80	19	78	-1	11.51	11.51
Saccade L	1	12	30871819013	30871918515	99502	460.66	260.27	710.64	239.52	4.85	252.94	1.00	48.74	6319.31	-6254.52	2135.65
Saccade R	1	12	30871819013	30871918515	99502	460.66	260.27	710.64	239.52	4.85	252.94	1.00	48.74	6319.31	-6254.52	2135.65
Fixation L	1	12	30871918515	30872018026	99511	767.11	231.63	71	15	-1	10.65	10.65
Fixation R	1	12	30871918515	30872018026	99511	767.11	231.63	71	15	-1	11.39	11.39
