[BeGaze]
Converted from:	C:\Documents and Settings\iViewX\Desktop\EXPERIMENTATIONS\Experiments\results\finaleart\S14F27123-finaleart-1.idf
Date:	27.03.2019 15:44:10
Version:	BeGaze 2.5.77
Sample Rate:	50
Subject:	S14F27123
Description:	Anne-flore Perrin

Table Header for Fixations:
Event Type	Trial	Number	Start	End	Duration	Location X	Location Y	Dispersion X	Dispersion Y	Plane	Avg. Pupil Size X	Avg. Pupil Size Y

Table Header for Saccades:
Event Type	Trial	Number	Start	End	Duration	Start Loc.X	Start Loc.Y	End Loc.X	End Loc.Y	Amplitude	Peak Speed	Peak Speed At	Average Speed	Peak Accel.	Peak Decel.	Average Accel.

Table Header for Blinks:
Event Type	Trial	Number	Start	End	Duration

Table Header for User Events:
Event Type	Trial	Number	Start	Description

UserEvent	1	1	31770181142	# Message: void.jpg
Saccade L	1	1	31770196625	31770236368	39743	1264.65	205.78	590.07	218.19	6.93	426.18	0.50	174.27	6386.57	-10268.65	5722.11
Saccade R	1	1	31770196625	31770236368	39743	1264.65	205.78	590.07	218.19	6.93	426.18	0.50	174.27	6386.57	-10268.65	5722.11
Fixation L	1	1	31770236368	31770614344	377976	603.19	243.67	20	49	-1	11.96	11.96
Fixation R	1	1	31770236368	31770614344	377976	603.19	243.67	20	49	-1	12.03	12.03
Blink L	1	1	31770614344	31770733713	119369
Blink R	1	1	31770614344	31770733713	119369
Blink L	1	2	31770753594	31771449683	696089
Blink R	1	2	31770753594	31771449683	696089
Fixation L	1	2	31771449683	31771569055	119372	838.28	799.68	12	63	-1	12.22	12.22
Fixation R	1	2	31771449683	31771569055	119372	838.28	799.68	12	63	-1	24.63	16.63
Saccade L	1	2	31771569055	31771608808	39753	837.76	814.85	874.78	600.29	2.57	167.06	0.50	64.66	2836.87	-3274.45	2018.10
Saccade R	1	2	31771569055	31771608808	39753	837.76	814.85	874.78	600.29	2.57	167.06	0.50	64.66	2836.87	-3274.45	2018.10
Fixation L	1	3	31771608808	31772125908	517100	910.06	575.52	41	56	-1	11.28	11.28
Fixation R	1	3	31771608808	31772125908	517100	910.06	575.52	41	56	-1	11.79	11.79
Saccade L	1	3	31772125908	31772185663	59755	905.74	543.62	898.17	542.37	0.19	5.75	0.33	3.20	95.38	-113.23	66.86
Saccade R	1	3	31772125908	31772185663	59755	905.74	543.62	898.17	542.37	0.19	5.75	0.33	3.20	95.38	-113.23	66.86
