[BeGaze]
Converted from:	C:\Documents and Settings\iViewX\Desktop\EXPERIMENTATIONS\Experiments\results\finaleart\S14F27123-finaleart-1.idf
Date:	27.03.2019 15:43:01
Version:	BeGaze 2.5.77
Sample Rate:	50
Subject:	S14F27123
Description:	Anne-flore Perrin

Table Header for Fixations:
Event Type	Trial	Number	Start	End	Duration	Location X	Location Y	Dispersion X	Dispersion Y	Plane	Avg. Pupil Size X	Avg. Pupil Size Y

Table Header for Saccades:
Event Type	Trial	Number	Start	End	Duration	Start Loc.X	Start Loc.Y	End Loc.X	End Loc.Y	Amplitude	Peak Speed	Peak Speed At	Average Speed	Peak Accel.	Peak Decel.	Average Accel.

Table Header for Blinks:
Event Type	Trial	Number	Start	End	Duration

Table Header for User Events:
Event Type	Trial	Number	Start	Description

UserEvent	1	1	30536575007	# Message: mother_and_child_by_the_sea_dahl_1830.jpg
Fixation L	1	1	30536590345	30537027820	437475	855.33	652.63	12	20	-1	14.95	14.95
Fixation R	1	1	30536590345	30537027820	437475	855.33	652.63	12	20	-1	14.92	14.92
Saccade L	1	1	30537027820	30537067687	39867	848.26	657.83	693.67	828.60	2.20	167.12	1.00	55.23	4126.43	-4027.69	3032.28
Saccade R	1	1	30537027820	30537067687	39867	848.26	657.83	693.67	828.60	2.20	167.12	1.00	55.23	4126.43	-4027.69	3032.28
Fixation L	1	2	30537067687	30538201394	1133707	693.79	805.46	44	55	-1	15.70	15.70
Fixation R	1	2	30537067687	30538201394	1133707	693.79	805.46	44	55	-1	15.45	15.45
Saccade L	1	2	30538201394	30538400262	198868	709.99	779.39	1124.34	687.35	10.39	274.95	0.30	52.25	6831.67	-6329.80	1740.80
Saccade R	1	2	30538201394	30538400262	198868	709.99	779.39	1124.34	687.35	10.39	274.95	0.30	52.25	6831.67	-6329.80	1740.80
Fixation L	1	3	30538400262	30538579255	178993	1119.37	717.06	8	90	-1	15.93	15.93
Fixation R	1	3	30538400262	30538579255	178993	1119.37	717.06	8	90	-1	15.71	15.71
Saccade L	1	3	30538579255	30538599123	19868	1116.11	713.31	1114.28	713.89	0.04	2.31	1.00	1.83	49.29	9.99	26.27
Saccade R	1	3	30538579255	30538599123	19868	1116.11	713.31	1114.28	713.89	0.04	2.31	1.00	1.83	49.29	9.99	26.27
Fixation L	1	4	30538599123	30538798117	198994	1124.25	726.98	32	30	-1	16.05	16.05
Fixation R	1	4	30538599123	30538798117	198994	1124.25	726.98	32	30	-1	15.87	15.87
Saccade L	1	4	30538798117	30538837865	39748	1136.37	739.10	943.67	573.24	2.39	142.33	0.50	60.08	3352.15	-3272.53	3197.13
Saccade R	1	4	30538798117	30538837865	39748	1136.37	739.10	943.67	573.24	2.39	142.33	0.50	60.08	3352.15	-3272.53	3197.13
Fixation L	1	5	30538837865	30538957240	119375	936.49	588.72	11	29	-1	15.71	15.71
Fixation R	1	5	30538837865	30538957240	119375	936.49	588.72	11	29	-1	15.96	15.96
Saccade L	1	5	30538957240	30538996991	39751	932.28	595.25	825.86	318.89	2.80	173.19	1.00	70.42	4147.33	-4201.51	3735.31
Saccade R	1	5	30538957240	30538996991	39751	932.28	595.25	825.86	318.89	2.80	173.19	1.00	70.42	4147.33	-4201.51	3735.31
Fixation L	1	6	30538996991	30539255597	258606	809.97	326.90	27	41	-1	15.37	15.37
Fixation R	1	6	30538996991	30539255597	258606	809.97	326.90	27	41	-1	15.15	15.15
Saccade L	1	6	30539255597	30539295340	39743	798.00	316.81	672.89	491.59	2.00	150.58	1.00	50.28	3691.62	-3506.73	2598.06
Saccade R	1	6	30539255597	30539295340	39743	798.00	316.81	672.89	491.59	2.00	150.58	1.00	50.28	3691.62	-3506.73	2598.06
Fixation L	1	7	30539295340	30539573831	278491	680.28	507.21	22	47	-1	14.99	14.99
Fixation R	1	7	30539295340	30539573831	278491	680.28	507.21	22	47	-1	15.10	15.10
Saccade L	1	7	30539573831	30539593716	19885	684.37	539.00	644.51	615.96	0.70	87.67	1.00	35.23	2083.52	-1676.39	1272.27
Saccade R	1	7	30539573831	30539593716	19885	684.37	539.00	644.51	615.96	0.70	87.67	1.00	35.23	2083.52	-1676.39	1272.27
Fixation L	1	8	30539593716	30539713078	119362	633.28	614.71	39	23	-1	15.32	15.32
Fixation R	1	8	30539593716	30539713078	119362	633.28	614.71	39	23	-1	15.51	15.51
Saccade L	1	8	30539713078	30539752846	39768	661.23	608.50	1287.38	691.57	5.52	419.38	0.50	138.69	10440.05	-10336.25	7579.09
Saccade R	1	8	30539713078	30539752846	39768	661.23	608.50	1287.38	691.57	5.52	419.38	0.50	138.69	10440.05	-10336.25	7579.09
Fixation L	1	9	30539752846	30539931826	178980	1288.19	682.30	18	34	-1	15.29	15.29
Fixation R	1	9	30539752846	30539931826	178980	1288.19	682.30	18	34	-1	15.45	15.45
Saccade L	1	9	30539931826	30540031318	99492	1299.70	705.24	1481.09	909.42	7.64	273.03	0.20	76.77	6782.77	-3633.11	2275.71
Saccade R	1	9	30539931826	30540031318	99492	1299.70	705.24	1481.09	909.42	7.64	273.03	0.20	76.77	6782.77	-3633.11	2275.71
Fixation L	1	10	30540031318	30540170551	139233	1476.56	897.66	27	14	-1	14.99	14.99
Fixation R	1	10	30540031318	30540170551	139233	1476.56	897.66	27	14	-1	14.67	14.67
Saccade L	1	10	30540170551	30540210301	39750	1462.81	895.28	818.03	950.94	5.50	445.75	1.00	138.34	11075.43	-10333.17	7917.48
Saccade R	1	10	30540170551	30540210301	39750	1462.81	895.28	818.03	950.94	5.50	445.75	1.00	138.34	11075.43	-10333.17	7917.48
Fixation L	1	11	30540210301	30540449047	238746	790.22	965.20	45	22	-1	15.33	15.33
Fixation R	1	11	30540210301	30540449047	238746	790.22	965.20	45	22	-1	15.18	15.18
Saccade L	1	11	30540449047	30540568293	119246	773.60	970.76	692.11	473.22	8.75	278.53	0.17	73.37	6892.12	-6189.84	3416.02
Saccade R	1	11	30540449047	30540568293	119246	773.60	970.76	692.11	473.22	8.75	278.53	0.17	73.37	6892.12	-6189.84	3416.02
