[BeGaze]
Converted from:	C:\Documents and Settings\iViewX\Desktop\EXPERIMENTATIONS\Experiments\results\finaleart\S14F27123-finaleart-1.idf
Date:	27.03.2019 15:44:12
Version:	BeGaze 2.5.77
Sample Rate:	50
Subject:	S14F27123
Description:	Anne-flore Perrin

Table Header for Fixations:
Event Type	Trial	Number	Start	End	Duration	Location X	Location Y	Dispersion X	Dispersion Y	Plane	Avg. Pupil Size X	Avg. Pupil Size Y

Table Header for Saccades:
Event Type	Trial	Number	Start	End	Duration	Start Loc.X	Start Loc.Y	End Loc.X	End Loc.Y	Amplitude	Peak Speed	Peak Speed At	Average Speed	Peak Accel.	Peak Decel.	Average Accel.

Table Header for Blinks:
Event Type	Trial	Number	Start	End	Duration

Table Header for User Events:
Event Type	Trial	Number	Start	Description

UserEvent	1	1	31790524101	# Message: La_Danse_Matisse_1909.jpg
Fixation L	1	1	31790530382	31790709565	179183	681.85	703.70	78	15	-1	12.52	12.52
Fixation R	1	1	31790530382	31790709565	179183	681.85	703.70	78	15	-1	10.88	10.88
Saccade L	1	1	31790709565	31790729365	19800	672.32	705.86	668.24	672.34	0.38	34.91	1.00	19.43	849.17	-804.68	771.59
Saccade R	1	1	31790709565	31790729365	19800	672.32	705.86	668.24	672.34	0.38	34.91	1.00	19.43	849.17	-804.68	771.59
Fixation L	1	2	31790729365	31790848594	119229	671.71	701.53	11	39	-1	10.73	10.73
Fixation R	1	2	31790729365	31790848594	119229	671.71	701.53	11	39	-1	11.81	10.67
Blink L	1	1	31790848594	31790928214	79620
Blink R	1	1	31790848594	31790928214	79620
Fixation L	1	3	31790928214	31791027709	99495	840.46	687.99	17	9	-1	11.10	11.10
Fixation R	1	3	31790928214	31791027709	99495	840.46	687.99	17	9	-1	12.11	10.78
Saccade L	1	2	31791027709	31791047614	19905	829.45	683.60	836.60	443.22	1.44	243.14	1.00	72.15	5813.68	-5579.46	3800.04
Saccade R	1	2	31791027709	31791047614	19905	829.45	683.60	836.60	443.22	1.44	243.14	1.00	72.15	5813.68	-5579.46	3800.04
Fixation L	1	4	31791047614	31791226573	178959	831.75	438.51	10	34	-1	9.89	9.89
Fixation R	1	4	31791047614	31791226573	178959	831.75	438.51	10	34	-1	10.13	10.13
Saccade L	1	3	31791226573	31791266351	39778	826.68	431.10	463.60	267.92	3.43	303.13	0.50	86.15	7532.13	-7218.49	4874.72
Saccade R	1	3	31791226573	31791266351	39778	826.68	431.10	463.60	267.92	3.43	303.13	0.50	86.15	7532.13	-7218.49	4874.72
Fixation L	1	5	31791266351	31791385703	119352	481.27	277.10	23	15	-1	9.48	9.48
Fixation R	1	5	31791266351	31791385703	119352	481.27	277.10	23	15	-1	9.67	9.67
Saccade L	1	4	31791385703	31791425443	39740	483.57	278.31	866.71	250.73	3.24	286.43	0.50	81.65	7124.91	-6773.27	4640.15
Saccade R	1	4	31791385703	31791425443	39740	483.57	278.31	866.71	250.73	3.24	286.43	0.50	81.65	7124.91	-6773.27	4640.15
Fixation L	1	6	31791425443	31791624313	198870	896.80	227.31	41	44	-1	9.26	9.26
Fixation R	1	6	31791425443	31791624313	198870	896.80	227.31	41	44	-1	9.52	9.52
Saccade L	1	5	31791624313	31791644311	19998	908.35	218.70	877.89	113.43	0.63	110.85	1.00	31.58	2591.52	-2295.36	1633.90
Saccade R	1	5	31791624313	31791644311	19998	908.35	218.70	877.89	113.43	0.63	110.85	1.00	31.58	2591.52	-2295.36	1633.90
Fixation L	1	7	31791644311	31791803426	159115	863.09	112.42	30	17	-1	9.33	9.33
Fixation R	1	7	31791644311	31791803426	159115	863.09	112.42	30	17	-1	9.60	9.60
Saccade L	1	6	31791803426	31791843174	39748	862.75	125.49	1376.26	54.98	4.43	320.00	0.50	111.57	7906.08	-7718.00	6271.35
Saccade R	1	6	31791803426	31791843174	39748	862.75	125.49	1376.26	54.98	4.43	320.00	0.50	111.57	7906.08	-7718.00	6271.35
Fixation L	1	8	31791843174	31792081796	238622	1386.17	59.61	18	70	-1	10.23	10.23
Fixation R	1	8	31791843174	31792081796	238622	1386.17	59.61	18	70	-1	10.11	10.11
Saccade L	1	7	31792081796	31792101665	19869	1392.06	48.32	1401.87	33.33	0.31	26.48	1.00	15.50	301.35	-334.39	281.50
Saccade R	1	7	31792081796	31792101665	19869	1392.06	48.32	1401.87	33.33	0.31	26.48	1.00	15.50	301.35	-334.39	281.50
Fixation L	1	9	31792101665	31792240907	139242	1412.54	13.64	15	33	-1	10.46	10.46
Fixation R	1	9	31792101665	31792240907	139242	1412.54	13.64	15	33	-1	10.47	10.47
Saccade L	1	8	31792240907	31792280783	39876	1415.47	19.05	1646.99	507.58	5.18	346.03	0.50	129.81	8507.77	-7689.42	6803.40
Saccade R	1	8	31792240907	31792280783	39876	1415.47	19.05	1646.99	507.58	5.18	346.03	0.50	129.81	8507.77	-7689.42	6803.40
Fixation L	1	10	31792280783	31792479653	198870	1641.04	550.04	9	55	-1	11.13	11.13
Fixation R	1	10	31792280783	31792479653	198870	1641.04	550.04	9	55	-1	10.95	10.95
Saccade L	1	9	31792479653	31792539272	59619	1637.81	552.35	1095.17	779.65	6.23	349.56	0.67	104.52	8621.83	-8253.85	4898.15
Saccade R	1	9	31792479653	31792539272	59619	1637.81	552.35	1095.17	779.65	6.23	349.56	0.67	104.52	8621.83	-8253.85	4898.15
Fixation L	1	11	31792539272	31792777881	238609	1107.20	774.61	32	50	-1	11.97	11.97
Fixation R	1	11	31792539272	31792777881	238609	1107.20	774.61	32	50	-1	10.91	10.91
Saccade L	1	10	31792777881	31792817753	39872	1116.80	748.24	778.10	805.63	3.08	218.76	0.50	77.18	5131.80	-5069.45	3987.02
Saccade R	1	10	31792777881	31792817753	39872	1116.80	748.24	778.10	805.63	3.08	218.76	0.50	77.18	5131.80	-5069.45	3987.02
Fixation L	1	12	31792817753	31792917131	99378	763.19	835.56	28	49	-1	20.78	20.78
Fixation R	1	12	31792817753	31792917131	99378	763.19	835.56	28	49	-1	10.81	10.81
Blink L	1	2	31792917131	31793036500	119369
Blink R	1	2	31792917131	31793036500	119369
Blink L	1	3	31793036500	31793255239	218739
Blink R	1	3	31793036500	31793255239	218739
Fixation L	1	13	31793255239	31793474102	218863	374.18	706.78	60	26	-1	11.21	11.21
Fixation R	1	13	31793255239	31793474102	218863	374.18	706.78	60	26	-1	11.22	10.47
Saccade L	1	11	31793474102	31793493982	19880	420.26	710.93	474.30	743.17	0.72	63.66	1.00	36.25	1422.32	-1299.10	1263.04
Saccade R	1	11	31793474102	31793493982	19880	420.26	710.93	474.30	743.17	0.72	63.66	1.00	36.25	1422.32	-1299.10	1263.04
Fixation L	1	14	31793493982	31793593486	99504	489.12	732.94	23	39	-1	10.43	10.43
Fixation R	1	14	31793493982	31793593486	99504	489.12	732.94	23	39	-1	10.56	10.56
Saccade L	1	12	31793593486	31793633222	39736	489.71	705.77	493.56	225.80	4.36	321.82	0.50	109.77	7792.50	-7571.14	5615.07
Saccade R	1	12	31793593486	31793633222	39736	489.71	705.77	493.56	225.80	4.36	321.82	0.50	109.77	7792.50	-7571.14	5615.07
Fixation L	1	15	31793633222	31793752598	119376	527.11	226.98	54	14	-1	10.01	10.01
Fixation R	1	15	31793633222	31793752598	119376	527.11	226.98	54	14	-1	10.26	10.26
Saccade L	1	13	31793752598	31793812215	59617	548.56	237.79	1137.73	237.11	6.23	401.71	0.67	104.43	9674.58	-9789.56	5084.45
Saccade R	1	13	31793752598	31793812215	59617	548.56	237.79	1137.73	237.11	6.23	401.71	0.67	104.43	9674.58	-9789.56	5084.45
Fixation L	1	16	31793812215	31793971339	159124	1130.25	254.26	25	34	-1	9.76	9.76
Fixation R	1	16	31793812215	31793971339	159124	1130.25	254.26	25	34	-1	10.17	10.17
Saccade L	1	14	31793971339	31794011203	39864	1128.18	260.40	1351.81	292.56	2.03	171.93	1.00	50.89	4078.75	-3835.22	2600.77
Saccade R	1	14	31793971339	31794011203	39864	1128.18	260.40	1351.81	292.56	2.03	171.93	1.00	50.89	4078.75	-3835.22	2600.77
Fixation L	1	17	31794011203	31794210072	198869	1368.28	296.04	24	19	-1	9.78	9.78
Fixation R	1	17	31794011203	31794210072	198869	1368.28	296.04	24	19	-1	10.06	10.06
Saccade L	1	15	31794210072	31794249824	39752	1376.14	299.13	981.22	280.60	3.48	283.38	1.00	87.65	7024.32	-6619.61	4643.51
Saccade R	1	15	31794210072	31794249824	39752	1376.14	299.13	981.22	280.60	3.48	283.38	1.00	87.65	7024.32	-6619.61	4643.51
Fixation L	1	18	31794249824	31794508431	258607	950.83	252.20	44	42	-1	9.68	9.68
Fixation R	1	18	31794249824	31794508431	258607	950.83	252.20	44	42	-1	9.72	9.72
