[BeGaze]
Converted from:	C:\Documents and Settings\iViewX\Desktop\EXPERIMENTATIONS\Experiments\results\finaleart\S14F27123-finaleart-1.idf
Date:	27.03.2019 15:43:22
Version:	BeGaze 2.5.77
Sample Rate:	50
Subject:	S14F27123
Description:	Anne-flore Perrin

Table Header for Fixations:
Event Type	Trial	Number	Start	End	Duration	Location X	Location Y	Dispersion X	Dispersion Y	Plane	Avg. Pupil Size X	Avg. Pupil Size Y

Table Header for Saccades:
Event Type	Trial	Number	Start	End	Duration	Start Loc.X	Start Loc.Y	End Loc.X	End Loc.Y	Amplitude	Peak Speed	Peak Speed At	Average Speed	Peak Accel.	Peak Decel.	Average Accel.

Table Header for Blinks:
Event Type	Trial	Number	Start	End	Duration

Table Header for User Events:
Event Type	Trial	Number	Start	Description

UserEvent	1	1	30920975464	# Message: void.jpg
Fixation L	1	1	30920987390	30921226116	238726	1599.47	549.78	25	32	-1	11.52	11.52
Fixation R	1	1	30920987390	30921226116	238726	1599.47	549.78	25	32	-1	11.42	11.42
Saccade L	1	1	30921226116	30921245985	19869	1587.38	562.09	1417.76	648.27	1.06	192.39	1.00	53.50	4726.01	-3680.01	2916.99
Saccade R	1	1	30921226116	30921245985	19869	1587.38	562.09	1417.76	648.27	1.06	192.39	1.00	53.50	4726.01	-3680.01	2916.99
Fixation L	1	2	30921245985	30921444975	198990	1433.03	623.56	20	53	-1	13.06	13.06
Fixation R	1	2	30921245985	30921444975	198990	1433.03	623.56	20	53	-1	11.69	11.69
Blink L	1	1	30921444975	30922041582	596607
Blink R	1	1	30921444975	30922041582	596607
Fixation L	1	3	30922041582	30922598557	556975	807.59	679.38	24	39	-1	12.94	12.94
Fixation R	1	3	30922041582	30922598557	556975	807.59	679.38	24	39	-1	13.70	13.70
Saccade L	1	2	30922598557	30922618434	19877	805.80	680.26	796.44	763.45	0.70	84.69	1.00	34.97	2064.02	-1798.69	1482.28
Saccade R	1	2	30922598557	30922618434	19877	805.80	680.26	796.44	763.45	0.70	84.69	1.00	34.97	2064.02	-1798.69	1482.28
Fixation L	1	4	30922618434	30922956540	338106	780.63	742.61	25	38	-1	12.18	12.18
Fixation R	1	4	30922618434	30922956540	338106	780.63	742.61	25	38	-1	12.53	12.53
