[BeGaze]
Converted from:	C:\Documents and Settings\iViewX\Desktop\EXPERIMENTATIONS\Experiments\results\finaleart\S14F27123-finaleart-1.idf
Date:	27.03.2019 15:43:15
Version:	BeGaze 2.5.77
Sample Rate:	50
Subject:	S14F27123
Description:	Anne-flore Perrin

Table Header for Fixations:
Event Type	Trial	Number	Start	End	Duration	Location X	Location Y	Dispersion X	Dispersion Y	Plane	Avg. Pupil Size X	Avg. Pupil Size Y

Table Header for Saccades:
Event Type	Trial	Number	Start	End	Duration	Start Loc.X	Start Loc.Y	End Loc.X	End Loc.Y	Amplitude	Peak Speed	Peak Speed At	Average Speed	Peak Accel.	Peak Decel.	Average Accel.

Table Header for Blinks:
Event Type	Trial	Number	Start	End	Duration

Table Header for User Events:
Event Type	Trial	Number	Start	Description

UserEvent	1	1	30677114849	# Message: still-life-fruits-on-a-table_manet_1864.jpg
Fixation L	1	1	30677133874	30677531585	397711	748.28	692.54	3	12	-1	11.95	11.95
Fixation R	1	1	30677133874	30677531585	397711	748.28	692.54	3	12	-1	12.54	12.54
Saccade L	1	1	30677531585	30677571335	39750	749.94	699.30	859.65	551.11	2.00	122.71	1.00	50.26	3032.60	-2999.71	2999.85
Saccade R	1	1	30677531585	30677571335	39750	749.94	699.30	859.65	551.11	2.00	122.71	1.00	50.26	3032.60	-2999.71	2999.85
Fixation L	1	2	30677571335	30677670840	99505	854.17	552.86	10	18	-1	11.69	11.69
Fixation R	1	2	30677571335	30677670840	99505	854.17	552.86	10	18	-1	12.34	12.34
Saccade L	1	2	30677670840	30677710583	39743	848.81	548.66	516.58	628.38	3.51	227.84	1.00	88.44	5228.19	-5471.41	3762.54
Saccade R	1	2	30677670840	30677710583	39743	848.81	548.66	516.58	628.38	3.51	227.84	1.00	88.44	5228.19	-5471.41	3762.54
Fixation L	1	3	30677710583	30677889579	178996	502.51	593.82	19	53	-1	10.01	10.01
Fixation R	1	3	30677710583	30677889579	178996	502.51	593.82	19	53	-1	10.71	10.71
Saccade L	1	3	30677889579	30677909578	19999	501.40	594.49	251.18	726.03	1.63	285.73	1.00	81.42	6877.34	-6858.78	4700.74
Saccade R	1	3	30677889579	30677909578	19999	501.40	594.49	251.18	726.03	1.63	285.73	1.00	81.42	6877.34	-6858.78	4700.74
Fixation L	1	4	30677909578	30678128310	218732	242.53	742.70	36	52	-1	9.95	9.95
Fixation R	1	4	30677909578	30678128310	218732	242.53	742.70	36	52	-1	10.59	10.59
Saccade L	1	4	30678128310	30678168056	39746	264.15	778.46	747.98	782.87	4.45	246.97	0.50	111.90	5861.61	-5652.43	5584.63
Saccade R	1	4	30678128310	30678168056	39746	264.15	778.46	747.98	782.87	4.45	246.97	0.50	111.90	5861.61	-5652.43	5584.63
Fixation L	1	5	30678168056	30678426668	258612	777.22	812.19	36	41	-1	11.24	11.24
Fixation R	1	5	30678168056	30678426668	258612	777.22	812.19	36	41	-1	12.00	12.00
Blink L	1	1	30678426668	30678565914	139246
Blink R	1	1	30678426668	30678565914	139246
Fixation L	1	6	30678565914	30678705163	139249	1355.10	917.50	4	8	-1	22.49	22.49
Fixation R	1	6	30678565914	30678705163	139249	1355.10	917.50	4	8	-1	12.28	12.28
Blink L	1	2	30678705163	30678804530	99367
Blink R	1	2	30678705163	30678804530	99367
Blink L	1	3	30678824401	30678983518	159117
Blink R	1	3	30678824401	30678983518	159117
Blink L	1	4	30679083015	30679341629	258614
Blink R	1	4	30679083015	30679341629	258614
Fixation L	1	7	30679341629	30679460873	119244	1613.37	455.90	35	40	-1	11.88	11.88
Fixation R	1	7	30679341629	30679460873	119244	1613.37	455.90	35	40	-1	12.06	12.06
Saccade L	1	5	30679460873	30679500749	39876	1590.98	476.77	881.80	433.74	6.07	410.11	0.50	152.17	10033.04	-9884.11	8556.65
Saccade R	1	5	30679460873	30679500749	39876	1590.98	476.77	881.80	433.74	6.07	410.11	0.50	152.17	10033.04	-9884.11	8556.65
Fixation L	1	8	30679500749	30679799110	298361	869.44	408.49	22	72	-1	12.00	12.00
Fixation R	1	8	30679500749	30679799110	298361	869.44	408.49	22	72	-1	12.28	12.28
Saccade L	1	6	30679799110	30679858734	59624	870.28	408.96	1490.66	351.07	7.05	372.41	0.67	118.32	8887.26	-8456.22	5746.74
Saccade R	1	6	30679799110	30679858734	59624	870.28	408.96	1490.66	351.07	7.05	372.41	0.67	118.32	8887.26	-8456.22	5746.74
Fixation L	1	9	30679858734	30680057606	198872	1492.55	320.94	10	50	-1	12.30	12.30
Fixation R	1	9	30679858734	30680057606	198872	1492.55	320.94	10	50	-1	13.14	13.14
Saccade L	1	7	30680057606	30680097485	39879	1493.14	317.85	803.43	394.53	5.86	390.58	1.00	146.99	9647.71	-9339.90	8450.47
Saccade R	1	7	30680057606	30680097485	39879	1493.14	317.85	803.43	394.53	5.86	390.58	1.00	146.99	9647.71	-9339.90	8450.47
Fixation L	1	10	30680097485	30680554824	457339	762.75	416.61	49	40	-1	12.37	12.37
Fixation R	1	10	30680097485	30680554824	457339	762.75	416.61	49	40	-1	13.07	13.07
Saccade L	1	8	30680554824	30680594705	39881	756.05	405.88	335.31	538.24	3.59	424.65	1.00	90.11	10568.88	-10314.17	5461.37
Saccade R	1	8	30680554824	30680594705	39881	756.05	405.88	335.31	538.24	3.59	424.65	1.00	90.11	10568.88	-10314.17	5461.37
Fixation L	1	11	30680594705	30680972564	377859	349.55	571.92	32	59	-1	12.44	12.44
Fixation R	1	11	30680594705	30680972564	377859	349.55	571.92	32	59	-1	13.11	13.11
Saccade L	1	9	30680972564	30680992432	19868	334.03	587.25	589.60	444.35	1.68	295.94	1.00	84.80	7274.64	-7160.14	5006.89
Saccade R	1	9	30680972564	30680992432	19868	334.03	587.25	589.60	444.35	1.68	295.94	1.00	84.80	7274.64	-7160.14	5006.89
Fixation L	1	12	30680992432	30681111800	119368	617.58	441.80	37	20	-1	11.41	11.41
Fixation R	1	12	30680992432	30681111800	119368	617.58	441.80	37	20	-1	13.00	13.00
