[BeGaze]
Converted from:	C:\Documents and Settings\iViewX\Desktop\EXPERIMENTATIONS\Experiments\results\finaleart\S14F27123-finaleart-1.idf
Date:	27.03.2019 15:43:26
Version:	BeGaze 2.5.77
Sample Rate:	50
Subject:	S14F27123
Description:	Anne-flore Perrin

Table Header for Fixations:
Event Type	Trial	Number	Start	End	Duration	Location X	Location Y	Dispersion X	Dispersion Y	Plane	Avg. Pupil Size X	Avg. Pupil Size Y

Table Header for Saccades:
Event Type	Trial	Number	Start	End	Duration	Start Loc.X	Start Loc.Y	End Loc.X	End Loc.Y	Amplitude	Peak Speed	Peak Speed At	Average Speed	Peak Accel.	Peak Decel.	Average Accel.

Table Header for Blinks:
Event Type	Trial	Number	Start	End	Duration

Table Header for User Events:
Event Type	Trial	Number	Start	Description

UserEvent	1	1	30959613285	# Message: goya-Bodegones-con-pargos-dorados-1812.jpg
Fixation L	1	1	30959614079	30960051556	437477	721.46	668.06	18	30	-1	13.34	13.34
Fixation R	1	1	30959614079	30960051556	437477	721.46	668.06	18	30	-1	12.82	12.82
Saccade L	1	1	30960051556	30960071570	20014	729.40	665.19	823.23	638.45	0.73	98.69	1.00	36.48	2432.23	-2152.16	1870.77
Saccade R	1	1	30960051556	30960071570	20014	729.40	665.19	823.23	638.45	0.73	98.69	1.00	36.48	2432.23	-2152.16	1870.77
Fixation L	1	2	30960071570	30960250545	178975	824.20	598.27	17	57	-1	13.26	13.26
Fixation R	1	2	30960071570	30960250545	178975	824.20	598.27	17	57	-1	12.97	12.97
Saccade L	1	2	30960250545	30960270421	19876	829.08	580.71	656.35	555.99	1.02	176.47	1.00	51.44	4346.83	-4218.00	3007.67
Saccade R	1	2	30960250545	30960270421	19876	829.08	580.71	656.35	555.99	1.02	176.47	1.00	51.44	4346.83	-4218.00	3007.67
Fixation L	1	3	30960270421	30960529055	258634	638.64	558.72	24	17	-1	13.37	13.37
Fixation R	1	3	30960270421	30960529055	258634	638.64	558.72	24	17	-1	12.83	12.83
Saccade L	1	3	30960529055	30960548908	19853	654.21	562.06	934.20	649.56	1.85	296.49	1.00	93.22	7372.53	-7351.66	5215.77
Saccade R	1	3	30960529055	30960548908	19853	654.21	562.06	934.20	649.56	1.85	296.49	1.00	93.22	7372.53	-7351.66	5215.77
Fixation L	1	4	30960548908	30960767651	218743	990.13	648.47	64	27	-1	14.25	14.25
Fixation R	1	4	30960548908	30960767651	218743	990.13	648.47	64	27	-1	13.83	13.83
Saccade L	1	4	30960767651	30960787522	19871	998.20	637.23	1230.10	647.47	1.22	234.68	1.00	61.23	5777.10	-5617.61	3805.36
Saccade R	1	4	30960767651	30960787522	19871	998.20	637.23	1230.10	647.47	1.22	234.68	1.00	61.23	5777.10	-5617.61	3805.36
Fixation L	1	5	30960787522	30960946637	159115	1238.74	647.47	14	12	-1	14.87	14.87
Fixation R	1	5	30960787522	30960946637	159115	1238.74	647.47	14	12	-1	14.17	14.17
Saccade L	1	5	30960946637	30961245000	298363	1241.33	653.89	1641.81	1017.02	27.18	324.66	0.07	91.09	7893.33	-5998.19	2662.44
Saccade R	1	5	30960946637	30961245000	298363	1241.33	653.89	1641.81	1017.02	27.18	324.66	0.07	91.09	7893.33	-5998.19	2662.44
Fixation L	1	6	30961245000	30961364379	119379	1648.53	1012.57	21	21	-1	23.16	23.16
Fixation R	1	6	30961245000	30961364379	119379	1648.53	1012.57	21	21	-1	13.84	13.84
Blink L	1	1	30961364379	30961463866	99487
Blink R	1	1	30961364379	30961463866	99487
Fixation L	1	7	30961463866	30961583109	119243	530.50	1045.74	10	29	-1	24.38	24.38
Fixation R	1	7	30961463866	30961583109	119243	530.50	1045.74	10	29	-1	14.79	14.79
Fixation L	1	8	30961642854	30961762230	119376	327.42	992.46	12	38	-1	26.18	26.18
Fixation R	1	8	30961642854	30961762230	119376	327.42	992.46	12	38	-1	13.94	13.94
Blink L	1	2	30961762230	30961881472	119242
Blink R	1	2	30961762230	30961881472	119242
Saccade L	1	6	30961881472	30961980972	99500	362.69	996.74	420.91	907.73	2.77	97.65	1.00	27.80	2214.31	-2247.46	853.19
Saccade R	1	6	30961881472	30961980972	99500	362.69	996.74	420.91	907.73	2.77	97.65	1.00	27.80	2214.31	-2247.46	853.19
Fixation L	1	9	30961980972	30962179833	198861	427.17	866.30	28	65	-1	16.03	16.03
Fixation R	1	9	30961980972	30962179833	198861	427.17	866.30	28	65	-1	14.74	14.74
Saccade L	1	7	30962179833	30962199712	19879	425.29	854.29	423.51	666.36	1.12	190.05	1.00	56.42	4398.97	-4593.50	3066.32
Saccade R	1	7	30962179833	30962199712	19879	425.29	854.29	423.51	666.36	1.12	190.05	1.00	56.42	4398.97	-4593.50	3066.32
Fixation L	1	10	30962199712	30962319081	119369	412.74	671.11	22	34	-1	14.03	14.03
Fixation R	1	10	30962199712	30962319081	119369	412.74	671.11	22	34	-1	14.80	14.80
Saccade L	1	8	30962319081	30962358840	39759	407.40	678.48	443.70	287.49	3.44	266.75	0.50	86.45	6368.76	-6267.86	4565.78
Saccade R	1	8	30962319081	30962358840	39759	407.40	678.48	443.70	287.49	3.44	266.75	0.50	86.45	6368.76	-6267.86	4565.78
Fixation L	1	11	30962358840	30962517942	159102	453.01	314.41	31	52	-1	13.73	13.73
Fixation R	1	11	30962358840	30962517942	159102	453.01	314.41	31	52	-1	14.22	14.22
Saccade L	1	9	30962517942	30962537950	20008	459.57	320.26	575.00	145.94	1.27	211.41	1.00	63.57	5185.63	-4963.07	3578.19
Saccade R	1	9	30962517942	30962537950	20008	459.57	320.26	575.00	145.94	1.27	211.41	1.00	63.57	5185.63	-4963.07	3578.19
Fixation L	1	12	30962537950	30962716940	178990	602.08	149.09	35	19	-1	13.64	13.64
Fixation R	1	12	30962537950	30962716940	178990	602.08	149.09	35	19	-1	14.26	14.26
Saccade L	1	10	30962716940	30962756688	39748	605.81	154.56	1006.22	153.75	3.42	219.00	1.00	85.93	5426.08	-5399.11	4887.57
Saccade R	1	10	30962716940	30962756688	39748	605.81	154.56	1006.22	153.75	3.42	219.00	1.00	85.93	5426.08	-5399.11	4887.57
Fixation L	1	13	30962756688	30962955557	198869	1001.98	153.77	8	19	-1	14.34	14.34
Fixation R	1	13	30962756688	30962955557	198869	1001.98	153.77	8	19	-1	14.59	14.59
Saccade L	1	11	30962955557	30962995430	39873	1002.45	163.53	1385.16	184.87	3.52	220.61	1.00	88.27	5260.37	-4868.24	4398.81
Saccade R	1	11	30962955557	30962995430	39873	1002.45	163.53	1385.16	184.87	3.52	220.61	1.00	88.27	5260.37	-4868.24	4398.81
Fixation L	1	14	30962995430	30963154418	158988	1415.66	221.06	37	59	-1	15.05	15.05
Fixation R	1	14	30962995430	30963154418	158988	1415.66	221.06	37	59	-1	15.30	15.30
Saccade L	1	12	30963154418	30963313552	159134	1421.15	243.24	969.67	546.70	11.67	267.85	0.88	73.32	4994.04	-6643.56	2178.79
Saccade R	1	12	30963154418	30963313552	159134	1421.15	243.24	969.67	546.70	11.67	267.85	0.88	73.32	4994.04	-6643.56	2178.79
Fixation L	1	15	30963313552	30963472656	159104	972.54	548.26	5	11	-1	15.53	15.53
Fixation R	1	15	30963313552	30963472656	159104	972.54	548.26	5	11	-1	15.30	15.30
Saccade L	1	13	30963472656	30963492533	19877	974.54	549.34	834.51	546.97	0.82	141.66	1.00	41.09	3345.72	-3505.31	2364.72
Saccade R	1	13	30963472656	30963492533	19877	974.54	549.34	834.51	546.97	0.82	141.66	1.00	41.09	3345.72	-3505.31	2364.72
Fixation L	1	16	30963492533	30963611900	119367	842.85	549.90	12	11	-1	15.17	15.17
Fixation R	1	16	30963492533	30963611900	119367	842.85	549.90	12	11	-1	14.93	14.93
