[BeGaze]
Converted from:	C:\Documents and Settings\iViewX\Desktop\EXPERIMENTATIONS\Experiments\results\finaleart\S14F27123-finaleart-1.idf
Date:	27.03.2019 15:44:19
Version:	BeGaze 2.5.77
Sample Rate:	50
Subject:	S14F27123
Description:	Anne-flore Perrin

Table Header for Fixations:
Event Type	Trial	Number	Start	End	Duration	Location X	Location Y	Dispersion X	Dispersion Y	Plane	Avg. Pupil Size X	Avg. Pupil Size Y

Table Header for Saccades:
Event Type	Trial	Number	Start	End	Duration	Start Loc.X	Start Loc.Y	End Loc.X	End Loc.Y	Amplitude	Peak Speed	Peak Speed At	Average Speed	Peak Accel.	Peak Decel.	Average Accel.

Table Header for Blinks:
Event Type	Trial	Number	Start	End	Duration

Table Header for User Events:
Event Type	Trial	Number	Start	Description

UserEvent	1	1	31855646086	# Message: void.jpg
Saccade L	1	1	31855661663	31855701530	39867	789.80	731.21	832.33	569.69	1.80	102.58	1.00	45.24	2564.55	-2439.75	1597.97
Saccade R	1	1	31855661663	31855701530	39867	789.80	731.21	832.33	569.69	1.80	102.58	1.00	45.24	2564.55	-2439.75	1597.97
Fixation L	1	1	31855701530	31855820777	119247	834.59	589.48	7	37	-1	14.59	14.59
Fixation R	1	1	31855701530	31855820777	119247	834.59	589.48	7	37	-1	15.19	15.19
Saccade L	1	2	31855820777	31855840774	19997	837.28	575.64	845.08	454.51	0.83	122.77	1.00	41.76	2976.91	-2974.27	2115.69
Saccade R	1	2	31855820777	31855840774	19997	837.28	575.64	845.08	454.51	0.83	122.77	1.00	41.76	2976.91	-2974.27	2115.69
Fixation L	1	2	31855840774	31856099266	258492	860.94	474.85	27	31	-1	14.33	14.33
Fixation R	1	2	31855840774	31856099266	258492	860.94	474.85	27	31	-1	15.66	15.66
Blink L	1	1	31856099266	31856616487	517221
Blink R	1	1	31856099266	31856616487	517221
Blink L	1	2	31856715862	31856795480	79618
Blink R	1	2	31856715862	31856795480	79618
Fixation L	1	3	31856795480	31857531331	735851	739.76	679.42	22	53	-1	10.82	10.82
Fixation R	1	3	31856795480	31857531331	735851	739.76	679.42	22	53	-1	11.38	11.38
Saccade L	1	3	31857531331	31857630817	99486	744.01	662.98	747.42	594.56	1.70	45.75	0.20	17.07	1024.50	-816.34	452.77
Saccade R	1	3	31857531331	31857630817	99486	744.01	662.98	747.42	594.56	1.70	45.75	0.20	17.07	1024.50	-816.34	452.77
