[BeGaze]
Converted from:	C:\Documents and Settings\iViewX\Desktop\EXPERIMENTATIONS\Experiments\results\finaleart\S14F27123-finaleart-1.idf
Date:	27.03.2019 15:43:00
Version:	BeGaze 2.5.77
Sample Rate:	50
Subject:	S14F27123
Description:	Anne-flore Perrin

Table Header for Fixations:
Event Type	Trial	Number	Start	End	Duration	Location X	Location Y	Dispersion X	Dispersion Y	Plane	Avg. Pupil Size X	Avg. Pupil Size Y

Table Header for Saccades:
Event Type	Trial	Number	Start	End	Duration	Start Loc.X	Start Loc.Y	End Loc.X	End Loc.Y	Amplitude	Peak Speed	Peak Speed At	Average Speed	Peak Accel.	Peak Decel.	Average Accel.

Table Header for Blinks:
Event Type	Trial	Number	Start	End	Duration

Table Header for User Events:
Event Type	Trial	Number	Start	Description

UserEvent	1	1	30524334574	# Message: REJECTED_olympia_manet_1863.jpg
Fixation L	1	1	30524338023	30524715881	377858	883.38	715.02	18	37	-1	15.73	15.73
Fixation R	1	1	30524338023	30524715881	377858	883.38	715.02	18	37	-1	15.75	15.75
Saccade L	1	1	30524715881	30524775600	59719	895.62	710.37	673.34	547.39	3.32	206.45	0.33	55.68	5096.52	-3702.87	2373.98
Saccade R	1	1	30524715881	30524775600	59719	895.62	710.37	673.34	547.39	3.32	206.45	0.33	55.68	5096.52	-3702.87	2373.98
Fixation L	1	2	30524775600	30524874975	99375	671.01	527.45	10	31	-1	13.27	13.27
Fixation R	1	2	30524775600	30524874975	99375	671.01	527.45	10	31	-1	13.50	13.50
Saccade L	1	2	30524874975	30524894965	19990	663.99	515.94	557.47	348.95	1.26	200.30	1.00	62.96	4951.13	-4206.04	3239.17
Saccade R	1	2	30524874975	30524894965	19990	663.99	515.94	557.47	348.95	1.26	200.30	1.00	62.96	4951.13	-4206.04	3239.17
Fixation L	1	3	30524894965	30525412080	517115	564.31	339.76	40	40	-1	10.98	10.98
Fixation R	1	3	30524894965	30525412080	517115	564.31	339.76	40	40	-1	11.22	11.22
Saccade L	1	3	30525412080	30525451851	39771	562.73	334.27	577.52	579.64	2.20	190.44	1.00	55.38	4633.80	-4605.98	2892.62
Saccade R	1	3	30525412080	30525451851	39771	562.73	334.27	577.52	579.64	2.20	190.44	1.00	55.38	4633.80	-4605.98	2892.62
Fixation L	1	4	30525451851	30525750191	298340	580.47	590.14	21	51	-1	12.16	12.16
Fixation R	1	4	30525451851	30525750191	298340	580.47	590.14	21	51	-1	12.35	12.35
Saccade L	1	4	30525750191	30525770055	19864	590.49	614.93	652.62	578.95	0.53	72.62	1.00	26.66	1670.28	-1191.17	1105.31
Saccade R	1	4	30525750191	30525770055	19864	590.49	614.93	652.62	578.95	0.53	72.62	1.00	26.66	1670.28	-1191.17	1105.31
Fixation L	1	5	30525770055	30525988925	218870	670.39	544.01	21	44	-1	12.65	12.65
Fixation R	1	5	30525770055	30525988925	218870	670.39	544.01	21	44	-1	13.12	13.12
Saccade L	1	5	30525988925	30526008802	19877	673.94	535.91	884.47	705.22	1.49	273.09	1.00	74.89	6779.91	-6309.86	4545.70
Saccade R	1	5	30525988925	30526008802	19877	673.94	535.91	884.47	705.22	1.49	273.09	1.00	74.89	6779.91	-6309.86	4545.70
Fixation L	1	6	30526008802	30526227538	218736	912.72	726.63	41	28	-1	13.27	13.27
Fixation R	1	6	30526008802	30526227538	218736	912.72	726.63	41	28	-1	13.35	13.35
Saccade L	1	6	30526227538	30526247412	19874	926.21	729.37	1249.77	731.31	2.35	326.97	1.00	118.11	7412.30	-7906.50	5409.65
Saccade R	1	6	30526227538	30526247412	19874	926.21	729.37	1249.77	731.31	2.35	326.97	1.00	118.11	7412.30	-7906.50	5409.65
Fixation L	1	7	30526247412	30526346906	99494	1261.87	789.08	18	80	-1	13.07	13.07
Fixation R	1	7	30526247412	30526346906	99494	1261.87	789.08	18	80	-1	13.39	13.39
Saccade L	1	7	30526346906	30526486155	139249	1266.80	811.36	1374.27	710.02	7.04	180.73	0.71	50.54	4449.95	-2274.73	1598.18
Saccade R	1	7	30526346906	30526486155	139249	1266.80	811.36	1374.27	710.02	7.04	180.73	0.71	50.54	4449.95	-2274.73	1598.18
Fixation L	1	8	30526486155	30526625397	139242	1382.01	688.67	14	41	-1	12.76	12.76
Fixation R	1	8	30526486155	30526625397	139242	1382.01	688.67	14	41	-1	12.74	12.74
Saccade L	1	8	30526625397	30526685015	59618	1388.82	670.66	1382.09	168.98	5.30	235.90	0.33	88.82	5706.43	-3258.83	3590.04
Saccade R	1	8	30526625397	30526685015	59618	1388.82	670.66	1382.09	168.98	5.30	235.90	0.33	88.82	5706.43	-3258.83	3590.04
Fixation L	1	9	30526685015	30527003253	318238	1375.33	178.85	21	71	-1	12.81	12.81
Fixation R	1	9	30526685015	30527003253	318238	1375.33	178.85	21	71	-1	12.48	12.48
Saccade L	1	9	30527003253	30527023131	19878	1366.16	227.97	1370.97	235.01	0.23	17.67	1.00	11.71	26.03	-244.45	165.48
Saccade R	1	9	30527003253	30527023131	19878	1366.16	227.97	1370.97	235.01	0.23	17.67	1.00	11.71	26.03	-244.45	165.48
Fixation L	1	10	30527023131	30527281736	258605	1368.77	245.50	17	23	-1	13.98	13.98
Fixation R	1	10	30527023131	30527281736	258605	1368.77	245.50	17	23	-1	13.90	13.90
Saccade L	1	10	30527281736	30527321490	39754	1381.12	237.01	1652.37	697.41	4.94	444.76	0.50	124.28	11060.74	-11003.90	6847.26
Saccade R	1	10	30527281736	30527321490	39754	1381.12	237.01	1652.37	697.41	4.94	444.76	0.50	124.28	11060.74	-11003.90	6847.26
Fixation L	1	11	30527321490	30527818719	497229	1636.11	720.32	45	53	-1	15.34	15.34
Fixation R	1	11	30527321490	30527818719	497229	1636.11	720.32	45	53	-1	14.99	14.99
Saccade L	1	11	30527818719	30527838719	20000	1659.77	716.23	1664.04	719.68	0.16	18.85	1.00	8.00	365.49	-32.83	151.16
Saccade R	1	11	30527818719	30527838719	20000	1659.77	716.23	1664.04	719.68	0.16	18.85	1.00	8.00	365.49	-32.83	151.16
Fixation L	1	12	30527838719	30527938095	99376	1656.45	737.73	15	42	-1	15.10	15.10
Fixation R	1	12	30527838719	30527938095	99376	1656.45	737.73	15	42	-1	15.06	15.06
Saccade L	1	12	30527938095	30527957962	19867	1649.00	762.39	1596.81	943.28	1.16	190.38	1.00	58.51	4722.72	-4120.30	3054.72
Saccade R	1	12	30527938095	30527957962	19867	1649.00	762.39	1596.81	943.28	1.16	190.38	1.00	58.51	4722.72	-4120.30	3054.72
Fixation L	1	13	30527957962	30528216580	258618	1560.91	963.78	52	39	-1	15.72	15.72
Fixation R	1	13	30527957962	30528216580	258618	1560.91	963.78	52	39	-1	15.38	15.38
Saccade L	1	13	30528216580	30528335948	119368	1543.84	947.58	1479.08	906.23	5.02	92.67	0.50	42.09	1972.83	-2146.33	1084.54
Saccade R	1	13	30528216580	30528335948	119368	1543.84	947.58	1479.08	906.23	5.02	92.67	0.50	42.09	1972.83	-2146.33	1084.54
