[BeGaze]
Converted from:	C:\Documents and Settings\iViewX\Desktop\EXPERIMENTATIONS\Experiments\results\finaleart\S14F27123-finaleart-1.idf
Date:	27.03.2019 15:43:16
Version:	BeGaze 2.5.77
Sample Rate:	50
Subject:	S14F27123
Description:	Anne-flore Perrin

Table Header for Fixations:
Event Type	Trial	Number	Start	End	Duration	Location X	Location Y	Dispersion X	Dispersion Y	Plane	Avg. Pupil Size X	Avg. Pupil Size Y

Table Header for Saccades:
Event Type	Trial	Number	Start	End	Duration	Start Loc.X	Start Loc.Y	End Loc.X	End Loc.Y	Amplitude	Peak Speed	Peak Speed At	Average Speed	Peak Accel.	Peak Decel.	Average Accel.

Table Header for Blinks:
Event Type	Trial	Number	Start	End	Duration

Table Header for User Events:
Event Type	Trial	Number	Start	Description

UserEvent	1	1	30855804103	# Message: still-life-post-bottle-cup-and-fruit_cezanne_1871.jpg
Fixation L	1	1	30855807597	30856265069	457472	854.31	529.16	19	45	-1	14.32	14.32
Fixation R	1	1	30855807597	30856265069	457472	854.31	529.16	19	45	-1	14.25	14.25
Blink L	1	1	30856265069	30856523549	258480
Blink R	1	1	30856265069	30856523549	258480
Saccade L	1	1	30856523549	30856563315	39766	685.28	629.58	460.79	643.23	2.61	234.23	1.00	65.71	5544.07	-5538.11	3046.25
Saccade R	1	1	30856523549	30856563315	39766	685.28	629.58	460.79	643.23	2.61	234.23	1.00	65.71	5544.07	-5538.11	3046.25
Fixation L	1	2	30856563315	30856742417	179102	467.87	669.96	18	37	-1	12.57	12.57
Fixation R	1	2	30856563315	30856742417	179102	467.87	669.96	18	37	-1	11.98	11.98
Saccade L	1	2	30856742417	30856782165	39748	479.53	680.79	908.15	697.74	4.10	364.69	0.50	103.05	9001.14	-7443.34	4802.73
Saccade R	1	2	30856742417	30856782165	39748	479.53	680.79	908.15	697.74	4.10	364.69	0.50	103.05	9001.14	-7443.34	4802.73
Fixation L	1	3	30856782165	30856921416	139251	906.75	758.70	10	87	-1	13.12	13.12
Fixation R	1	3	30856782165	30856921416	139251	906.75	758.70	10	87	-1	12.82	12.82
Saccade L	1	3	30856921416	30856961160	39744	911.84	772.62	1298.19	885.66	3.61	343.12	0.50	90.72	8444.38	-8034.06	4789.30
Saccade R	1	3	30856921416	30856961160	39744	911.84	772.62	1298.19	885.66	3.61	343.12	0.50	90.72	8444.38	-8034.06	4789.30
Fixation L	1	4	30856961160	30857160028	198868	1315.74	910.06	28	34	-1	12.96	12.96
Fixation R	1	4	30856961160	30857160028	198868	1315.74	910.06	28	34	-1	12.67	12.67
Saccade L	1	4	30857160028	30857179904	19876	1309.83	912.62	1358.07	831.41	0.62	95.54	1.00	31.43	2235.25	-1398.54	1302.64
Saccade R	1	4	30857160028	30857179904	19876	1309.83	912.62	1358.07	831.41	0.62	95.54	1.00	31.43	2235.25	-1398.54	1302.64
Fixation L	1	5	30857179904	30857339024	159120	1369.60	808.62	33	38	-1	13.06	13.06
Fixation R	1	5	30857179904	30857339024	159120	1369.60	808.62	33	38	-1	12.55	12.55
Saccade L	1	5	30857339024	30857359024	20000	1364.45	810.28	1380.88	501.64	2.08	312.36	1.00	104.01	7619.90	-7635.89	5646.83
Saccade R	1	5	30857339024	30857359024	20000	1364.45	810.28	1380.88	501.64	2.08	312.36	1.00	104.01	7619.90	-7635.89	5646.83
Fixation L	1	6	30857359024	30857458408	99384	1376.13	429.97	8	89	-1	13.36	13.36
Fixation R	1	6	30857359024	30857458408	99384	1376.13	429.97	8	89	-1	12.64	12.64
Saccade L	1	6	30857458408	30857478263	19855	1372.14	411.77	1369.92	409.66	0.05	4.85	0.00	2.74	33.51	-90.82	46.89
Saccade R	1	6	30857458408	30857478263	19855	1372.14	411.77	1369.92	409.66	0.05	4.85	0.00	2.74	33.51	-90.82	46.89
Fixation L	1	7	30857478263	30857577767	99504	1370.65	405.81	4	11	-1	13.49	13.49
Fixation R	1	7	30857478263	30857577767	99504	1370.65	405.81	4	11	-1	12.88	12.88
Saccade L	1	7	30857577767	30857617520	39753	1370.54	403.66	993.56	302.39	3.31	276.20	0.50	83.28	6777.49	-6634.70	4782.19
Saccade R	1	7	30857577767	30857617520	39753	1370.54	403.66	993.56	302.39	3.31	276.20	0.50	83.28	6777.49	-6634.70	4782.19
Fixation L	1	8	30857617520	30857756749	139229	982.42	294.82	16	12	-1	13.84	13.84
Fixation R	1	8	30857617520	30857756749	139229	982.42	294.82	16	12	-1	13.38	13.38
Saccade L	1	8	30857756749	30857796499	39750	977.23	297.89	631.09	216.07	3.10	185.38	1.00	77.90	4600.31	-4112.65	4241.61
Saccade R	1	8	30857756749	30857796499	39750	977.23	297.89	631.09	216.07	3.10	185.38	1.00	77.90	4600.31	-4112.65	4241.61
Fixation L	1	9	30857796499	30858055115	258616	648.37	229.29	22	44	-1	13.78	13.78
Fixation R	1	9	30857796499	30858055115	258616	648.37	229.29	22	44	-1	13.77	13.77
Saccade L	1	9	30858055115	30858114737	59622	644.02	211.86	410.64	1133.41	10.62	426.92	0.67	178.10	10466.09	-9822.79	7467.00
Saccade R	1	9	30858055115	30858114737	59622	644.02	211.86	410.64	1133.41	10.62	426.92	0.67	178.10	10466.09	-9822.79	7467.00
Fixation L	1	10	30858114737	30858293853	179116	422.98	1107.50	19	34	-1	14.19	14.19
Fixation R	1	10	30858114737	30858293853	179116	422.98	1107.50	19	34	-1	14.21	14.21
Saccade L	1	10	30858293853	30858313743	19890	427.32	1102.62	292.27	978.03	0.98	185.81	1.00	49.31	4582.86	-4618.02	3088.79
Saccade R	1	10	30858293853	30858313743	19890	427.32	1102.62	292.27	978.03	0.98	185.81	1.00	49.31	4582.86	-4618.02	3088.79
Fixation L	1	11	30858313743	30858512590	198847	288.32	980.64	15	5	-1	13.50	13.50
Fixation R	1	11	30858313743	30858512590	198847	288.32	980.64	15	5	-1	13.97	13.97
Saccade L	1	11	30858512590	30858612084	99494	281.95	981.51	1428.26	1167.02	19.33	534.15	0.60	194.25	9928.92	-9399.75	6524.38
Saccade R	1	11	30858512590	30858612084	99494	281.95	981.51	1428.26	1167.02	19.33	534.15	0.60	194.25	9928.92	-9399.75	6524.38
Fixation L	1	12	30858612084	30858731330	119246	1447.93	1164.19	30	15	-1	13.68	13.68
Fixation R	1	12	30858612084	30858731330	119246	1447.93	1164.19	30	15	-1	13.98	13.98
Saccade L	1	12	30858731330	30858751335	20005	1445.16	1161.78	1472.55	1003.01	1.00	162.94	1.00	50.09	4017.77	-3702.25	2741.32
Saccade R	1	12	30858731330	30858751335	20005	1445.16	1161.78	1472.55	1003.01	1.00	162.94	1.00	50.09	4017.77	-3702.25	2741.32
Fixation L	1	13	30858751335	30858989947	238612	1464.55	973.40	29	44	-1	13.56	13.56
Fixation R	1	13	30858751335	30858989947	238612	1464.55	973.40	29	44	-1	13.35	13.35
Saccade L	1	13	30858989947	30859029701	39754	1473.92	958.63	1363.96	761.29	2.13	161.55	1.00	53.64	3938.12	-3296.77	2656.21
Saccade R	1	13	30858989947	30859029701	39754	1473.92	958.63	1363.96	761.29	2.13	161.55	1.00	53.64	3938.12	-3296.77	2656.21
Fixation L	1	14	30859029701	30859248563	218862	1330.78	743.22	52	26	-1	13.98	13.98
Fixation R	1	14	30859029701	30859248563	218862	1330.78	743.22	52	26	-1	13.28	13.28
Saccade L	1	14	30859248563	30859268435	19872	1322.71	739.35	1320.26	479.90	1.48	262.29	1.00	74.35	6383.88	-6282.64	4226.91
Saccade R	1	14	30859248563	30859268435	19872	1322.71	739.35	1320.26	479.90	1.48	262.29	1.00	74.35	6383.88	-6282.64	4226.91
Fixation L	1	15	30859268435	30859527049	258614	1321.10	500.36	15	35	-1	14.20	14.20
Fixation R	1	15	30859268435	30859527049	258614	1321.10	500.36	15	35	-1	14.00	14.00
Saccade L	1	15	30859527049	30859566799	39750	1311.53	507.18	1038.01	490.68	2.78	159.71	1.00	69.93	3891.77	-2998.74	2774.55
Saccade R	1	15	30859527049	30859566799	39750	1311.53	507.18	1038.01	490.68	2.78	159.71	1.00	69.93	3891.77	-2998.74	2774.55
Fixation L	1	16	30859566799	30859805416	238617	1037.13	434.55	10	78	-1	13.92	13.92
Fixation R	1	16	30859566799	30859805416	238617	1037.13	434.55	10	78	-1	13.63	13.63
