[BeGaze]
Converted from:	C:\Documents and Settings\iViewX\Desktop\EXPERIMENTATIONS\Experiments\results\finaleart\S14F27123-finaleart-1.idf
Date:	27.03.2019 15:43:41
Version:	BeGaze 2.5.77
Sample Rate:	50
Subject:	S14F27123
Description:	Anne-flore Perrin

Table Header for Fixations:
Event Type	Trial	Number	Start	End	Duration	Location X	Location Y	Dispersion X	Dispersion Y	Plane	Avg. Pupil Size X	Avg. Pupil Size Y

Table Header for Saccades:
Event Type	Trial	Number	Start	End	Duration	Start Loc.X	Start Loc.Y	End Loc.X	End Loc.Y	Amplitude	Peak Speed	Peak Speed At	Average Speed	Peak Accel.	Peak Decel.	Average Accel.

Table Header for Blinks:
Event Type	Trial	Number	Start	End	Duration

Table Header for User Events:
Event Type	Trial	Number	Start	Description

UserEvent	1	1	31371948661	# Message: pears-and-grapes_gauguin_1875.jpg
Fixation L	1	1	31371962299	31372399930	437631	801.66	699.65	17	23	-1	12.35	12.35
Fixation R	1	1	31371962299	31372399930	437631	801.66	699.65	17	23	-1	11.99	11.99
Saccade L	1	1	31372399930	31372439673	39743	791.74	689.07	508.35	760.61	2.96	263.83	0.50	74.43	6500.51	-5535.09	3678.00
Saccade R	1	1	31372399930	31372439673	39743	791.74	689.07	508.35	760.61	2.96	263.83	0.50	74.43	6500.51	-5535.09	3678.00
Fixation L	1	2	31372439673	31372757892	318219	470.16	769.03	49	30	-1	11.98	11.98
Fixation R	1	2	31372439673	31372757892	318219	470.16	769.03	49	30	-1	11.65	11.65
Saccade L	1	2	31372757892	31372777886	19994	466.15	764.40	510.49	868.46	0.65	114.41	1.00	32.64	2747.65	-2358.62	1736.62
Saccade R	1	2	31372757892	31372777886	19994	466.15	764.40	510.49	868.46	0.65	114.41	1.00	32.64	2747.65	-2358.62	1736.62
Fixation L	1	3	31372777886	31372976746	198860	534.36	879.24	31	25	-1	12.29	12.29
Fixation R	1	3	31372777886	31372976746	198860	534.36	879.24	31	25	-1	11.78	11.78
Saccade L	1	3	31372976746	31373096114	119368	541.81	885.19	1101.25	829.84	8.79	282.99	0.33	73.61	7007.61	-6974.93	3200.44
Saccade R	1	3	31372976746	31373096114	119368	541.81	885.19	1101.25	829.84	8.79	282.99	0.33	73.61	7007.61	-6974.93	3200.44
Fixation L	1	4	31373096114	31373454121	358007	1102.85	818.17	19	56	-1	12.98	12.98
Fixation R	1	4	31373096114	31373454121	358007	1102.85	818.17	19	56	-1	12.78	12.78
Saccade L	1	4	31373454121	31373473976	19855	1100.27	795.13	1092.82	553.42	1.39	244.49	1.00	69.95	6058.46	-5985.70	4156.11
Saccade R	1	4	31373454121	31373473976	19855	1100.27	795.13	1092.82	553.42	1.39	244.49	1.00	69.95	6058.46	-5985.70	4156.11
Fixation L	1	5	31373473976	31373593347	119371	1077.14	551.32	24	6	-1	12.56	12.56
Fixation R	1	5	31373473976	31373593347	119371	1077.14	551.32	24	6	-1	12.25	12.25
Saccade L	1	5	31373593347	31373633098	39751	1070.16	553.58	1145.74	364.68	1.89	112.58	0.50	47.49	2747.38	-2364.65	2429.36
Saccade R	1	5	31373593347	31373633098	39751	1070.16	553.58	1145.74	364.68	1.89	112.58	0.50	47.49	2747.38	-2364.65	2429.36
Fixation L	1	6	31373633098	31373792218	159120	1160.51	360.80	20	13	-1	11.98	11.98
Fixation R	1	6	31373633098	31373792218	159120	1160.51	360.80	20	13	-1	12.07	12.07
Saccade L	1	6	31373792218	31373812084	19866	1159.32	362.32	973.07	303.54	1.27	197.50	1.00	64.15	4932.45	-4482.13	3598.56
Saccade R	1	6	31373792218	31373812084	19866	1159.32	362.32	973.07	303.54	1.27	197.50	1.00	64.15	4932.45	-4482.13	3598.56
Fixation L	1	7	31373812084	31373931457	119373	961.88	335.99	18	53	-1	11.93	11.93
Fixation R	1	7	31373812084	31373931457	119373	961.88	335.99	18	53	-1	11.98	11.98
Saccade L	1	7	31373931457	31373971218	39761	961.74	327.35	1153.20	586.92	3.70	204.39	1.00	93.10	5001.31	-4922.91	4494.04
Saccade R	1	7	31373931457	31373971218	39761	961.74	327.35	1153.20	586.92	3.70	204.39	1.00	93.10	5001.31	-4922.91	4494.04
Fixation L	1	8	31373971218	31374110457	139239	1190.42	563.96	53	29	-1	12.33	12.33
Fixation R	1	8	31373971218	31374110457	139239	1190.42	563.96	53	29	-1	12.47	12.47
Saccade L	1	8	31374110457	31374150197	39740	1188.43	568.77	1339.78	242.43	3.56	321.70	1.00	89.68	7721.61	-7881.87	4204.11
Saccade R	1	8	31374110457	31374150197	39740	1188.43	568.77	1339.78	242.43	3.56	321.70	1.00	89.68	7721.61	-7881.87	4204.11
Fixation L	1	9	31374150197	31374289439	139242	1340.20	287.24	7	64	-1	12.34	12.34
Fixation R	1	9	31374150197	31374289439	139242	1340.20	287.24	7	64	-1	12.72	12.72
Saccade L	1	9	31374289439	31374349188	59749	1336.23	285.52	651.13	285.71	7.27	338.52	0.67	121.67	8380.41	-7875.62	5793.52
Saccade R	1	9	31374289439	31374349188	59749	1336.23	285.52	651.13	285.71	7.27	338.52	0.67	121.67	8380.41	-7875.62	5793.52
Fixation L	1	10	31374349188	31374468433	119245	640.93	277.77	22	37	-1	12.36	12.36
Fixation R	1	10	31374349188	31374468433	119245	640.93	277.77	22	37	-1	12.65	12.65
Saccade L	1	10	31374468433	31374508306	39873	639.70	252.62	330.41	228.59	3.01	240.78	0.50	75.55	5907.78	-5237.03	3491.80
Saccade R	1	10	31374468433	31374508306	39873	639.70	252.62	330.41	228.59	3.01	240.78	0.50	75.55	5907.78	-5237.03	3491.80
Fixation L	1	11	31374508306	31374687298	178992	342.17	185.51	28	67	-1	12.32	12.32
Fixation R	1	11	31374508306	31374687298	178992	342.17	185.51	28	67	-1	12.19	12.19
Saccade L	1	11	31374687298	31374707192	19894	354.26	187.01	305.76	170.24	0.56	51.91	1.00	28.18	304.88	-757.71	412.87
Saccade R	1	11	31374687298	31374707192	19894	354.26	187.01	305.76	170.24	0.56	51.91	1.00	28.18	304.88	-757.71	412.87
Fixation L	1	12	31374707192	31374985665	278473	306.06	178.53	27	52	-1	12.09	12.09
Fixation R	1	12	31374707192	31374985665	278473	306.06	178.53	27	52	-1	12.58	12.58
Saccade L	1	12	31374985665	31375065157	79492	310.00	214.25	579.23	1045.72	10.66	292.57	0.50	134.13	7036.34	-6243.47	4476.64
Saccade R	1	12	31374985665	31375065157	79492	310.00	214.25	579.23	1045.72	10.66	292.57	0.50	134.13	7036.34	-6243.47	4476.64
Fixation L	1	13	31375065157	31375224272	159115	570.36	1057.30	16	18	-1	17.45	17.45
Fixation R	1	13	31375065157	31375224272	159115	570.36	1057.30	16	18	-1	13.41	13.41
Blink L	1	1	31375224272	31375681750	457478
Blink R	1	1	31375224272	31375681750	457478
