[BeGaze]
Converted from:	C:\Documents and Settings\iViewX\Desktop\EXPERIMENTATIONS\Experiments\results\finaleart\S14F27123-finaleart-1.idf
Date:	27.03.2019 15:44:14
Version:	BeGaze 2.5.77
Sample Rate:	50
Subject:	S14F27123
Description:	Anne-flore Perrin

Table Header for Fixations:
Event Type	Trial	Number	Start	End	Duration	Location X	Location Y	Dispersion X	Dispersion Y	Plane	Avg. Pupil Size X	Avg. Pupil Size Y

Table Header for Saccades:
Event Type	Trial	Number	Start	End	Duration	Start Loc.X	Start Loc.Y	End Loc.X	End Loc.Y	Amplitude	Peak Speed	Peak Speed At	Average Speed	Peak Accel.	Peak Decel.	Average Accel.

Table Header for Blinks:
Event Type	Trial	Number	Start	End	Duration

Table Header for User Events:
Event Type	Trial	Number	Start	Description

UserEvent	1	1	31808899810	# Message: Houses_at_Chatou_Vlaminck_1905.jpg
Saccade L	1	1	31808908819	31809008316	99497	806.54	693.23	811.31	562.25	2.07	115.30	1.00	20.82	2780.02	-2778.33	835.58
Saccade R	1	1	31808908819	31809008316	99497	806.54	693.23	811.31	562.25	2.07	115.30	1.00	20.82	2780.02	-2778.33	835.58
Fixation L	1	1	31809008316	31809406055	397739	834.05	558.36	45	14	-1	12.05	12.05
Fixation R	1	1	31809008316	31809406055	397739	834.05	558.36	45	14	-1	12.27	12.27
Saccade L	1	2	31809406055	31809426061	20006	808.61	562.65	654.40	448.10	1.28	194.25	1.00	64.12	4812.33	-4772.18	3451.12
Saccade R	1	2	31809406055	31809426061	20006	808.61	562.65	654.40	448.10	1.28	194.25	1.00	64.12	4812.33	-4772.18	3451.12
Fixation L	1	2	31809426061	31809585174	159113	650.18	435.06	6	25	-1	11.05	11.05
Fixation R	1	2	31809426061	31809585174	159113	650.18	435.06	6	25	-1	11.33	11.33
Saccade L	1	3	31809585174	31809605034	19860	649.24	422.93	652.29	270.61	0.86	154.09	1.00	43.54	3817.47	-3694.75	2593.66
Saccade R	1	3	31809585174	31809605034	19860	649.24	422.93	652.29	270.61	0.86	154.09	1.00	43.54	3817.47	-3694.75	2593.66
Fixation L	1	3	31809605034	31809784025	178991	657.68	286.13	17	32	-1	10.06	10.06
Fixation R	1	3	31809605034	31809784025	178991	657.68	286.13	17	32	-1	10.17	10.17
Saccade L	1	4	31809784025	31809823770	39745	663.16	294.35	1001.19	308.58	2.87	202.20	1.00	72.15	4960.69	-4905.93	4131.12
Saccade R	1	4	31809784025	31809823770	39745	663.16	294.35	1001.19	308.58	2.87	202.20	1.00	72.15	4960.69	-4905.93	4131.12
Fixation L	1	4	31809823770	31810022637	198867	1030.53	323.12	47	20	-1	9.77	9.77
Fixation R	1	4	31809823770	31810022637	198867	1030.53	323.12	47	20	-1	10.26	10.26
Saccade L	1	5	31810022637	31810042510	19873	1049.03	322.48	1270.13	326.53	1.45	223.60	1.00	73.15	5385.72	-5132.04	3948.19
Saccade R	1	5	31810022637	31810042510	19873	1049.03	322.48	1270.13	326.53	1.45	223.60	1.00	73.15	5385.72	-5132.04	3948.19
Fixation L	1	5	31810042510	31810161892	119382	1335.53	329.06	87	9	-1	10.00	10.00
Fixation R	1	5	31810042510	31810161892	119382	1335.53	329.06	87	9	-1	10.29	10.29
Saccade L	1	6	31810161892	31810181758	19866	1357.71	334.53	1358.97	338.43	0.10	6.72	1.00	4.84	-1.02	-64.30	32.10
Saccade R	1	6	31810161892	31810181758	19866	1357.71	334.53	1358.97	338.43	0.10	6.72	1.00	4.84	-1.02	-64.30	32.10
Fixation L	1	6	31810181758	31810380746	198988	1357.94	346.19	2	42	-1	9.94	9.94
Fixation R	1	6	31810181758	31810380746	198988	1357.94	346.19	2	42	-1	10.37	10.37
Saccade L	1	7	31810380746	31810400621	19875	1357.36	381.13	1367.72	586.16	1.54	207.59	1.00	77.69	5162.54	-4893.33	3532.65
Saccade R	1	7	31810380746	31810400621	19875	1357.36	381.13	1367.72	586.16	1.54	207.59	1.00	77.69	5162.54	-4893.33	3532.65
Fixation L	1	7	31810400621	31810798358	397737	1353.43	644.64	28	70	-1	10.68	10.68
Fixation R	1	7	31810400621	31810798358	397737	1353.43	644.64	28	70	-1	10.52	10.52
Saccade L	1	8	31810798358	31810818225	19867	1338.94	647.57	1324.50	643.17	0.18	15.27	1.00	8.98	75.60	-269.01	127.21
Saccade R	1	8	31810798358	31810818225	19867	1338.94	647.57	1324.50	643.17	0.18	15.27	1.00	8.98	75.60	-269.01	127.21
Fixation L	1	8	31810818225	31810977349	159124	1317.17	642.96	19	11	-1	10.88	10.88
Fixation R	1	8	31810818225	31810977349	159124	1317.17	642.96	19	11	-1	10.76	10.76
Saccade L	1	9	31810977349	31811017219	39870	1306.61	641.20	918.66	658.74	3.40	314.43	0.50	85.23	7789.18	-7288.05	4627.84
Saccade R	1	9	31810977349	31811017219	39870	1306.61	641.20	918.66	658.74	3.40	314.43	0.50	85.23	7789.18	-7288.05	4627.84
Fixation L	1	9	31811017219	31811156460	139241	893.89	671.44	41	32	-1	11.18	11.18
Fixation R	1	9	31811017219	31811156460	139241	893.89	671.44	41	32	-1	10.98	10.98
Saccade L	1	10	31811156460	31811176332	19872	912.69	677.31	1267.60	670.41	2.12	358.64	1.00	106.53	8690.93	-7992.99	5666.54
Saccade R	1	10	31811156460	31811176332	19872	912.69	677.31	1267.60	670.41	2.12	358.64	1.00	106.53	8690.93	-7992.99	5666.54
Fixation L	1	10	31811176332	31811375202	198870	1312.35	682.93	56	18	-1	10.86	10.86
Fixation R	1	10	31811176332	31811375202	198870	1312.35	682.93	56	18	-1	10.72	10.72
Saccade L	1	11	31811375202	31811395082	19880	1318.11	669.49	1316.47	642.67	0.33	27.18	1.00	16.43	609.92	-509.93	376.15
Saccade R	1	11	31811375202	31811395082	19880	1318.11	669.49	1316.47	642.67	0.33	27.18	1.00	16.43	609.92	-509.93	376.15
Fixation L	1	11	31811395082	31811554207	159125	1309.54	643.19	15	33	-1	10.73	10.73
Fixation R	1	11	31811395082	31811554207	159125	1309.54	643.19	15	33	-1	10.60	10.60
Blink L	1	1	31811554207	31811733185	178978
Blink R	1	1	31811554207	31811733185	178978
Blink L	1	2	31811753063	31811832687	79624
Blink R	1	2	31811753063	31811832687	79624
Blink L	1	3	31811832687	31812011675	178988
Blink R	1	3	31811832687	31812011675	178988
Fixation L	1	12	31812011675	31812230539	218864	716.34	689.40	31	35	-1	11.01	11.01
Fixation R	1	12	31812011675	31812230539	218864	716.34	689.40	31	35	-1	11.05	11.05
Blink L	1	4	31812230539	31812648149	417610
Blink R	1	4	31812230539	31812648149	417610
Saccade L	1	12	31812648149	31812727769	79620	472.79	802.23	493.04	619.07	2.65	170.92	1.00	33.24	3748.90	-4196.22	1498.13
Saccade R	1	12	31812648149	31812727769	79620	472.79	802.23	493.04	619.07	2.65	170.92	1.00	33.24	3748.90	-4196.22	1498.13
Fixation L	1	13	31812727769	31812867014	139245	497.83	626.45	16	10	-1	10.72	10.72
Fixation R	1	13	31812727769	31812867014	139245	497.83	626.45	16	10	-1	10.89	10.89
Saccade L	1	13	31812867014	31812886886	19872	508.77	624.53	474.53	302.84	2.22	326.91	1.00	111.94	8112.21	0.00	4056.10
Saccade R	1	13	31812867014	31812886886	19872	508.77	624.53	474.53	302.84	2.22	326.91	1.00	111.94	8112.21	0.00	4056.10
