[BeGaze]
Converted from:	C:\Documents and Settings\iViewX\Desktop\EXPERIMENTATIONS\Experiments\results\finaleart\S14F27123-finaleart-1.idf
Date:	27.03.2019 15:42:56
Version:	BeGaze 2.5.77
Sample Rate:	50
Subject:	S14F27123
Description:	Anne-flore Perrin

Table Header for Fixations:
Event Type	Trial	Number	Start	End	Duration	Location X	Location Y	Dispersion X	Dispersion Y	Plane	Avg. Pupil Size X	Avg. Pupil Size Y

Table Header for Saccades:
Event Type	Trial	Number	Start	End	Duration	Start Loc.X	Start Loc.Y	End Loc.X	End Loc.Y	Amplitude	Peak Speed	Peak Speed At	Average Speed	Peak Accel.	Peak Decel.	Average Accel.

Table Header for Blinks:
Event Type	Trial	Number	Start	End	Duration

Table Header for User Events:
Event Type	Trial	Number	Start	Description

UserEvent	1	1	30400378249	# Message: courbet_Femme_nue_et_dormant_1858.jpg
Fixation L	1	1	30400394011	30400791869	397858	913.41	712.92	14	7	-1	13.02	13.02
Fixation R	1	1	30400394011	30400791869	397858	913.41	712.92	14	7	-1	13.29	13.29
Saccade L	1	1	30400791869	30400811749	19880	921.06	715.58	1272.44	593.73	2.11	375.69	1.00	106.23	9347.09	-9078.16	6438.63
Saccade R	1	1	30400791869	30400811749	19880	921.06	715.58	1272.44	593.73	2.11	375.69	1.00	106.23	9347.09	-9078.16	6438.63
Fixation L	1	2	30400811749	30400950982	139233	1323.82	602.29	68	16	-1	13.08	13.08
Fixation R	1	2	30400811749	30400950982	139233	1323.82	602.29	68	16	-1	13.21	13.21
Saccade L	1	2	30400950982	30400970863	19881	1335.05	607.30	1432.49	471.65	0.93	168.92	1.00	46.78	4099.41	-3990.31	2708.97
Saccade R	1	2	30400950982	30400970863	19881	1335.05	607.30	1432.49	471.65	0.93	168.92	1.00	46.78	4099.41	-3990.31	2708.97
Fixation L	1	3	30400970863	30401269216	298353	1436.43	453.45	7	32	-1	13.16	13.16
Fixation R	1	3	30400970863	30401269216	298353	1436.43	453.45	7	32	-1	13.22	13.22
Saccade L	1	3	30401269216	30401289091	19875	1436.92	440.45	1206.88	617.49	1.61	293.40	1.00	80.88	7295.98	-6855.82	4891.70
Saccade R	1	3	30401269216	30401289091	19875	1436.92	440.45	1206.88	617.49	1.61	293.40	1.00	80.88	7295.98	-6855.82	4891.70
Fixation L	1	4	30401289091	30401487959	198868	1181.22	646.14	36	40	-1	14.52	14.52
Fixation R	1	4	30401289091	30401487959	198868	1181.22	646.14	36	40	-1	14.75	14.75
Saccade L	1	4	30401487959	30401527709	39750	1170.32	655.03	942.69	721.33	2.21	176.62	1.00	55.67	4318.39	-3958.11	2676.51
Saccade R	1	4	30401487959	30401527709	39750	1170.32	655.03	942.69	721.33	2.21	176.62	1.00	55.67	4318.39	-3958.11	2676.51
Fixation L	1	5	30401527709	30401746570	218861	949.09	716.19	22	34	-1	15.53	15.53
Fixation R	1	5	30401527709	30401746570	218861	949.09	716.19	22	34	-1	15.53	15.53
Saccade L	1	5	30401746570	30401766452	19882	946.38	721.78	1023.09	720.65	0.56	77.60	1.00	28.06	1861.22	-1513.32	1336.82
Saccade R	1	5	30401746570	30401766452	19882	946.38	721.78	1023.09	720.65	0.56	77.60	1.00	28.06	1861.22	-1513.32	1336.82
Fixation L	1	6	30401766452	30401945440	178988	1016.05	718.48	28	12	-1	15.63	15.63
Fixation R	1	6	30401766452	30401945440	178988	1016.05	718.48	28	12	-1	16.07	16.07
Saccade L	1	6	30401945440	30401965313	19873	1018.12	717.98	775.78	731.74	1.54	245.40	1.00	77.54	6036.64	-5478.75	4227.58
Saccade R	1	6	30401945440	30401965313	19873	1018.12	717.98	775.78	731.74	1.54	245.40	1.00	77.54	6036.64	-5478.75	4227.58
Fixation L	1	7	30401965313	30402124427	159114	760.64	756.16	22	53	-1	16.12	16.12
Fixation R	1	7	30401965313	30402124427	159114	760.64	756.16	22	53	-1	16.25	16.25
Saccade L	1	7	30402124427	30402144323	19896	760.88	768.20	473.81	881.42	1.95	311.87	1.00	97.98	7243.57	-7175.56	5260.30
Saccade R	1	7	30402124427	30402144323	19896	760.88	768.20	473.81	881.42	1.95	311.87	1.00	97.98	7243.57	-7175.56	5260.30
Fixation L	1	8	30402144323	30402243807	99484	417.27	879.71	74	18	-1	15.82	15.82
Fixation R	1	8	30402144323	30402243807	99484	417.27	879.71	74	18	-1	16.22	16.22
Saccade L	1	8	30402243807	30402263689	19882	406.44	884.94	406.71	913.62	0.24	29.01	1.00	12.16	666.41	-411.00	405.60
Saccade R	1	8	30402243807	30402263689	19882	406.44	884.94	406.71	913.62	0.24	29.01	1.00	12.16	666.41	-411.00	405.60
Fixation L	1	9	30402263689	30402562033	298344	407.21	906.72	4	31	-1	15.97	15.97
Fixation R	1	9	30402263689	30402562033	298344	407.21	906.72	4	31	-1	16.37	16.37
Saccade L	1	9	30402562033	30402721150	159117	406.59	899.97	588.31	337.66	12.16	351.45	0.88	76.44	8643.75	-8109.16	3405.56
Saccade R	1	9	30402562033	30402721150	159117	406.59	899.97	588.31	337.66	12.16	351.45	0.88	76.44	8643.75	-8109.16	3405.56
Fixation L	1	10	30402721150	30402999639	278489	608.81	374.23	28	57	-1	15.55	15.55
Fixation R	1	10	30402721150	30402999639	278489	608.81	374.23	28	57	-1	16.32	16.32
Saccade L	1	10	30402999639	30403039388	39749	614.05	383.30	684.47	262.53	1.84	103.99	1.00	46.41	2414.69	-2446.33	2014.54
Saccade R	1	10	30402999639	30403039388	39749	614.05	383.30	684.47	262.53	1.84	103.99	1.00	46.41	2414.69	-2446.33	2014.54
Fixation L	1	11	30403039388	30403238255	198867	703.12	289.84	25	56	-1	15.00	15.00
Fixation R	1	11	30403039388	30403238255	198867	703.12	289.84	25	56	-1	16.05	16.05
Saccade L	1	11	30403238255	30403298004	59749	705.83	310.30	1409.67	309.37	7.35	378.41	0.67	123.04	9329.94	-9184.82	6190.98
Saccade R	1	11	30403238255	30403298004	59749	705.83	310.30	1409.67	309.37	7.35	378.41	0.67	123.04	9329.94	-9184.82	6190.98
Fixation L	1	12	30403298004	30403616243	318239	1421.97	299.86	32	63	-1	15.86	15.86
Fixation R	1	12	30403298004	30403616243	318239	1421.97	299.86	32	63	-1	16.20	16.20
Saccade L	1	12	30403616243	30403656008	39765	1435.38	341.52	1579.43	482.82	3.41	270.65	0.50	85.75	6626.06	-6481.09	3819.35
Saccade R	1	12	30403616243	30403656008	39765	1435.38	341.52	1579.43	482.82	3.41	270.65	0.50	85.75	6626.06	-6481.09	3819.35
Fixation L	1	13	30403656008	30403934484	278476	1571.18	506.51	30	44	-1	16.31	16.31
Fixation R	1	13	30403656008	30403934484	278476	1571.18	506.51	30	44	-1	16.59	16.59
Saccade L	1	13	30403934484	30403974231	39747	1565.13	518.58	1477.39	1011.18	4.62	296.05	0.50	116.30	7293.16	-6259.32	6166.63
Saccade R	1	13	30403934484	30403974231	39747	1565.13	518.58	1477.39	1011.18	4.62	296.05	0.50	116.30	7293.16	-6259.32	6166.63
Fixation L	1	14	30403974231	30404372086	397855	1441.18	1005.81	50	15	-1	16.37	16.37
Fixation R	1	14	30403974231	30404372086	397855	1441.18	1005.81	50	15	-1	15.64	15.64
