[BeGaze]
Converted from:	C:\Documents and Settings\iViewX\Desktop\EXPERIMENTATIONS\Experiments\results\finaleart\S14F27123-finaleart-1.idf
Date:	27.03.2019 15:43:34
Version:	BeGaze 2.5.77
Sample Rate:	50
Subject:	S14F27123
Description:	Anne-flore Perrin

Table Header for Fixations:
Event Type	Trial	Number	Start	End	Duration	Location X	Location Y	Dispersion X	Dispersion Y	Plane	Avg. Pupil Size X	Avg. Pupil Size Y

Table Header for Saccades:
Event Type	Trial	Number	Start	End	Duration	Start Loc.X	Start Loc.Y	End Loc.X	End Loc.Y	Amplitude	Peak Speed	Peak Speed At	Average Speed	Peak Accel.	Peak Decel.	Average Accel.

Table Header for Blinks:
Event Type	Trial	Number	Start	End	Duration

Table Header for User Events:
Event Type	Trial	Number	Start	Description

UserEvent	1	1	31296636688	# Message: void.jpg
Fixation L	1	1	31296638446	31296737955	99509	470.56	238.84	15	64	-1	11.61	11.61
Fixation R	1	1	31296638446	31296737955	99509	470.56	238.84	15	64	-1	11.57	11.57
Saccade L	1	1	31296737955	31296757828	19873	474.41	196.54	482.79	32.49	1.17	166.13	1.00	58.86	3839.47	-3799.14	2954.92
Saccade R	1	1	31296737955	31296757828	19873	474.41	196.54	482.79	32.49	1.17	166.13	1.00	58.86	3839.47	-3799.14	2954.92
Fixation L	1	2	31296757828	31296916926	159098	490.60	66.76	20	64	-1	11.26	11.26
Fixation R	1	2	31296757828	31296916926	159098	490.60	66.76	20	64	-1	11.91	11.91
Saccade L	1	2	31296916926	31296956677	39751	502.22	97.36	949.92	109.76	3.80	270.10	0.50	95.49	6552.94	-6641.07	5515.02
Saccade R	1	2	31296916926	31296956677	39751	502.22	97.36	949.92	109.76	3.80	270.10	0.50	95.49	6552.94	-6641.07	5515.02
Fixation L	1	3	31296956677	31297155660	198983	951.30	111.53	18	5	-1	11.82	11.82
Fixation R	1	3	31296956677	31297155660	198983	951.30	111.53	18	5	-1	12.35	12.35
Saccade L	1	3	31297155660	31297215280	59620	939.45	113.89	0.00	1.18	10.09	694.45	1.00	169.21	14306.68	-17355.02	8780.46
Saccade R	1	3	31297155660	31297215280	59620	939.45	113.89	0.00	1.18	10.09	694.45	1.00	169.21	14306.68	-17355.02	8780.46
Blink L	1	1	31297374405	31297513649	139244
Blink R	1	1	31297374405	31297513649	139244
Fixation L	1	4	31297513649	31298010876	497227	413.40	566.46	28	23	-1	13.66	13.66
Fixation R	1	4	31297513649	31298010876	497227	413.40	566.46	28	23	-1	13.85	13.85
Saccade L	1	4	31298010876	31298030750	19874	415.90	553.78	541.35	563.61	0.70	127.28	1.00	35.06	3117.85	-3088.06	2107.39
Saccade R	1	4	31298010876	31298030750	19874	415.90	553.78	541.35	563.61	0.70	127.28	1.00	35.06	3117.85	-3088.06	2107.39
Fixation L	1	5	31298030750	31298627472	596722	530.24	561.14	19	17	-1	12.54	12.54
Fixation R	1	5	31298030750	31298627472	596722	530.24	561.14	19	17	-1	13.18	13.18
