[BeGaze]
Converted from:	C:\Documents and Settings\iViewX\Desktop\EXPERIMENTATIONS\Experiments\results\finaleart\S14F27123-finaleart-1.idf
Date:	27.03.2019 15:43:49
Version:	BeGaze 2.5.77
Sample Rate:	50
Subject:	S14F27123
Description:	Anne-flore Perrin

Table Header for Fixations:
Event Type	Trial	Number	Start	End	Duration	Location X	Location Y	Dispersion X	Dispersion Y	Plane	Avg. Pupil Size X	Avg. Pupil Size Y

Table Header for Saccades:
Event Type	Trial	Number	Start	End	Duration	Start Loc.X	Start Loc.Y	End Loc.X	End Loc.Y	Amplitude	Peak Speed	Peak Speed At	Average Speed	Peak Accel.	Peak Decel.	Average Accel.

Table Header for Blinks:
Event Type	Trial	Number	Start	End	Duration

Table Header for User Events:
Event Type	Trial	Number	Start	Description

UserEvent	1	1	31474068944	# Message: Upper_Mississippi_Kensett_1855.jpg
Fixation L	1	1	31474075503	31474532966	457463	642.51	738.04	9	21	-1	12.79	12.79
Fixation R	1	1	31474075503	31474532966	457463	642.51	738.04	9	21	-1	12.86	12.86
Saccade L	1	1	31474532966	31474552835	19869	635.80	735.88	551.81	650.96	0.84	120.81	1.00	42.16	2994.85	-2486.03	2145.35
Saccade R	1	1	31474532966	31474552835	19869	635.80	735.88	551.81	650.96	0.84	120.81	1.00	42.16	2994.85	-2486.03	2145.35
Fixation L	1	2	31474552835	31474731952	179117	502.66	634.92	59	22	-1	11.15	11.15
Fixation R	1	2	31474552835	31474731952	179117	502.66	634.92	59	22	-1	11.66	11.66
Saccade L	1	2	31474731952	31474751824	19872	494.17	631.62	460.50	554.95	0.67	84.71	1.00	33.65	1822.45	-1961.34	1462.89
Saccade R	1	2	31474731952	31474751824	19872	494.17	631.62	460.50	554.95	0.67	84.71	1.00	33.65	1822.45	-1961.34	1462.89
Fixation L	1	3	31474751824	31474930814	178990	423.76	532.11	47	33	-1	9.14	9.14
Fixation R	1	3	31474751824	31474930814	178990	423.76	532.11	47	33	-1	9.80	9.80
Saccade L	1	3	31474930814	31474950699	19885	416.39	521.43	412.37	474.98	0.46	47.16	1.00	22.98	992.69	-224.36	509.67
Saccade R	1	3	31474930814	31474950699	19885	416.39	521.43	412.37	474.98	0.46	47.16	1.00	22.98	992.69	-224.36	509.67
Fixation L	1	4	31474950699	31475129691	178992	404.73	470.90	11	37	-1	8.91	8.91
Fixation R	1	4	31474950699	31475129691	178992	404.73	470.90	11	37	-1	9.44	9.44
Saccade L	1	4	31475129691	31475169437	39746	403.51	472.56	836.85	494.43	3.77	277.39	0.50	94.73	6838.25	-6483.54	5248.14
Saccade R	1	4	31475129691	31475169437	39746	403.51	472.56	836.85	494.43	3.77	277.39	0.50	94.73	6838.25	-6483.54	5248.14
Fixation L	1	5	31475169437	31475467792	298355	825.54	491.19	19	38	-1	8.93	8.93
Fixation R	1	5	31475169437	31475467792	298355	825.54	491.19	19	38	-1	9.89	9.89
Saccade L	1	5	31475467792	31475507667	39875	823.49	482.35	1128.01	588.42	2.91	176.78	1.00	73.00	4319.03	-4032.07	4015.08
Saccade R	1	5	31475467792	31475507667	39875	823.49	482.35	1128.01	588.42	2.91	176.78	1.00	73.00	4319.03	-4032.07	4015.08
Fixation L	1	6	31475507667	31475686657	178990	1136.53	572.36	13	32	-1	8.79	8.79
Fixation R	1	6	31475507667	31475686657	178990	1136.53	572.36	13	32	-1	9.27	9.27
Saccade L	1	6	31475686657	31475726408	39751	1140.20	575.03	1397.68	683.99	2.47	180.29	1.00	62.16	4451.96	-4276.05	3628.74
Saccade R	1	6	31475686657	31475726408	39751	1140.20	575.03	1397.68	683.99	2.47	180.29	1.00	62.16	4451.96	-4276.05	3628.74
Fixation L	1	7	31475726408	31475905401	178993	1396.45	679.05	12	16	-1	8.83	8.83
Fixation R	1	7	31475726408	31475905401	178993	1396.45	679.05	12	16	-1	9.69	9.69
Saccade L	1	7	31475905401	31475945149	39748	1390.29	677.01	1571.35	921.77	3.07	198.05	0.50	77.27	4825.27	-4426.77	4224.52
Saccade R	1	7	31475905401	31475945149	39748	1390.29	677.01	1571.35	921.77	3.07	198.05	0.50	77.27	4825.27	-4426.77	4224.52
Fixation L	1	8	31475945149	31476124268	179119	1582.89	890.86	22	38	-1	9.62	9.62
Fixation R	1	8	31475945149	31476124268	179119	1582.89	890.86	22	38	-1	9.64	9.64
Blink L	1	1	31476124268	31476243535	119267
Blink R	1	1	31476124268	31476243535	119267
Saccade L	1	8	31476243535	31476323135	79600	1338.58	1009.61	1539.06	739.71	6.01	268.10	1.00	75.51	6320.64	-6430.66	2743.57
Saccade R	1	8	31476243535	31476323135	79600	1338.58	1009.61	1539.06	739.71	6.01	268.10	1.00	75.51	6320.64	-6430.66	2743.57
Fixation L	1	9	31476323135	31476541868	218733	1539.82	678.92	6	73	-1	12.08	12.08
Fixation R	1	9	31476323135	31476541868	218733	1539.82	678.92	6	73	-1	10.30	10.30
Saccade L	1	9	31476541868	31476581750	39882	1540.19	672.98	1259.42	548.10	2.74	229.02	0.50	68.66	5671.03	-5568.85	3989.81
Saccade R	1	9	31476541868	31476581750	39882	1540.19	672.98	1259.42	548.10	2.74	229.02	0.50	68.66	5671.03	-5568.85	3989.81
Fixation L	1	10	31476581750	31476740863	159113	1258.86	547.42	6	18	-1	11.11	11.11
Fixation R	1	10	31476581750	31476740863	159113	1258.86	547.42	6	18	-1	10.54	10.54
Saccade L	1	10	31476740863	31476780619	39756	1262.81	559.36	826.64	480.94	3.85	283.34	0.50	96.75	6995.57	-6498.52	5348.71
Saccade R	1	10	31476740863	31476780619	39756	1262.81	559.36	826.64	480.94	3.85	283.34	0.50	96.75	6995.57	-6498.52	5348.71
Fixation L	1	11	31476780619	31476959604	178985	839.82	473.43	18	36	-1	10.92	10.92
Fixation R	1	11	31476780619	31476959604	178985	839.82	473.43	18	36	-1	10.75	10.75
Saccade L	1	11	31476959604	31476999375	39771	845.32	475.35	453.02	480.97	3.26	318.39	1.00	81.91	7876.87	-7764.93	4828.05
Saccade R	1	11	31476959604	31476999375	39771	845.32	475.35	453.02	480.97	3.26	318.39	1.00	81.91	7876.87	-7764.93	4828.05
Fixation L	1	12	31476999375	31477198219	198844	453.95	484.19	25	25	-1	11.16	11.16
Fixation R	1	12	31476999375	31477198219	198844	453.95	484.19	25	25	-1	10.89	10.89
Saccade L	1	12	31477198219	31477218223	20004	472.90	471.15	605.25	323.38	1.37	200.60	1.00	68.43	4641.73	-4582.28	3196.58
Saccade R	1	12	31477198219	31477218223	20004	472.90	471.15	605.25	323.38	1.37	200.60	1.00	68.43	4641.73	-4582.28	3196.58
Fixation L	1	13	31477218223	31477357345	139122	612.50	287.60	13	55	-1	10.80	10.80
Fixation R	1	13	31477218223	31477357345	139122	612.50	287.60	13	55	-1	10.85	10.85
Saccade L	1	13	31477357345	31477397216	39871	614.83	277.81	926.19	239.77	2.67	212.92	1.00	66.97	5281.34	-5109.66	3805.71
Saccade R	1	13	31477357345	31477397216	39871	614.83	277.81	926.19	239.77	2.67	212.92	1.00	66.97	5281.34	-5109.66	3805.71
Fixation L	1	14	31477397216	31477596082	198866	913.45	246.88	17	27	-1	10.65	10.65
Fixation R	1	14	31477397216	31477596082	198866	913.45	246.88	17	27	-1	10.74	10.74
Saccade L	1	14	31477596082	31477615946	19864	912.83	243.96	1164.36	179.89	1.70	262.40	1.00	85.65	6469.68	-6396.30	4752.30
Saccade R	1	14	31477596082	31477615946	19864	912.83	243.96	1164.36	179.89	1.70	262.40	1.00	85.65	6469.68	-6396.30	4752.30
Fixation L	1	15	31477615946	31477755199	139253	1197.70	152.43	43	49	-1	10.84	10.84
Fixation R	1	15	31477615946	31477755199	139253	1197.70	152.43	43	49	-1	10.66	10.66
Saccade L	1	15	31477755199	31477814823	59624	1197.01	171.72	382.72	500.85	9.19	435.85	0.67	154.08	10700.20	-10583.15	6858.25
Saccade R	1	15	31477755199	31477814823	59624	1197.01	171.72	382.72	500.85	9.19	435.85	0.67	154.08	10700.20	-10583.15	6858.25
Fixation L	1	16	31477814823	31477993810	178987	378.25	496.16	16	82	-1	11.16	11.16
Fixation R	1	16	31477814823	31477993810	178987	378.25	496.16	16	82	-1	11.00	11.00
Saccade L	1	16	31477993810	31478073436	79626	371.27	426.65	367.08	434.16	1.72	84.74	0.00	21.57	240.52	-1622.45	459.84
Saccade R	1	16	31477993810	31478073436	79626	371.27	426.65	367.08	434.16	1.72	84.74	0.00	21.57	240.52	-1622.45	459.84
