[BeGaze]
Converted from:	C:\Documents and Settings\iViewX\Desktop\EXPERIMENTATIONS\Experiments\results\finaleart\S14F27123-finaleart-1.idf
Date:	27.03.2019 15:42:58
Version:	BeGaze 2.5.77
Sample Rate:	50
Subject:	S14F27123
Description:	Anne-flore Perrin

Table Header for Fixations:
Event Type	Trial	Number	Start	End	Duration	Location X	Location Y	Dispersion X	Dispersion Y	Plane	Avg. Pupil Size X	Avg. Pupil Size Y

Table Header for Saccades:
Event Type	Trial	Number	Start	End	Duration	Start Loc.X	Start Loc.Y	End Loc.X	End Loc.Y	Amplitude	Peak Speed	Peak Speed At	Average Speed	Peak Accel.	Peak Decel.	Average Accel.

Table Header for Blinks:
Event Type	Trial	Number	Start	End	Duration

Table Header for User Events:
Event Type	Trial	Number	Start	Description

UserEvent	1	1	30422748010	# Message: void.jpg
Saccade L	1	1	30422750540	30422770419	19879	940.36	246.48	1066.82	76.01	1.57	214.62	1.00	79.00	559.63	-5253.76	1937.80
Saccade R	1	1	30422750540	30422770419	19879	940.36	246.48	1066.82	76.01	1.57	214.62	1.00	79.00	559.63	-5253.76	1937.80
Fixation L	1	1	30422770419	30422909763	139344	1060.56	111.03	24	71	-1	13.48	13.48
Fixation R	1	1	30422770419	30422909763	139344	1060.56	111.03	24	71	-1	12.98	12.98
Saccade L	1	2	30422909763	30423048907	139144	1042.52	147.26	872.24	535.44	8.56	240.15	1.00	61.50	4863.27	-5596.81	2372.81
Saccade R	1	2	30422909763	30423048907	139144	1042.52	147.26	872.24	535.44	8.56	240.15	1.00	61.50	4863.27	-5596.81	2372.81
Fixation L	1	2	30423048907	30423188151	139244	843.11	541.79	39	40	-1	14.54	14.54
Fixation R	1	2	30423048907	30423188151	139244	843.11	541.79	39	40	-1	14.60	14.60
Blink L	1	1	30423188151	30423705247	517096
Blink R	1	1	30423188151	30423705247	517096
Fixation L	1	3	30423705247	30423904115	198868	668.12	648.90	22	44	-1	14.26	14.26
Fixation R	1	3	30423705247	30423904115	198868	668.12	648.90	22	44	-1	14.50	14.50
Saccade L	1	3	30423904115	30423923986	19871	685.52	630.21	825.55	647.30	0.92	142.67	1.00	46.30	3317.88	-2975.35	2276.43
Saccade R	1	3	30423904115	30423923986	19871	685.52	630.21	825.55	647.30	0.92	142.67	1.00	46.30	3317.88	-2975.35	2276.43
Fixation L	1	4	30423923986	30424739450	815464	810.15	675.59	21	41	-1	13.14	13.14
Fixation R	1	4	30423923986	30424739450	815464	810.15	675.59	21	41	-1	13.37	13.37
