[BeGaze]
Converted from:	C:\Documents and Settings\iViewX\Desktop\EXPERIMENTATIONS\Experiments\results\finaleart\S14F27123-finaleart-1.idf
Date:	27.03.2019 15:42:57
Version:	BeGaze 2.5.77
Sample Rate:	50
Subject:	S14F27123
Description:	Anne-flore Perrin

Table Header for Fixations:
Event Type	Trial	Number	Start	End	Duration	Location X	Location Y	Dispersion X	Dispersion Y	Plane	Avg. Pupil Size X	Avg. Pupil Size Y

Table Header for Saccades:
Event Type	Trial	Number	Start	End	Duration	Start Loc.X	Start Loc.Y	End Loc.X	End Loc.Y	Amplitude	Peak Speed	Peak Speed At	Average Speed	Peak Accel.	Peak Decel.	Average Accel.

Table Header for Blinks:
Event Type	Trial	Number	Start	End	Duration

Table Header for User Events:
Event Type	Trial	Number	Start	Description

UserEvent	1	1	30406486606	# Message: avenue_of_trees_in_a_small_town_sisley_1866.jpg
Fixation L	1	1	30406500247	30407037341	537094	854.61	678.65	10	37	-1	13.40	13.40
Fixation R	1	1	30406500247	30407037341	537094	854.61	678.65	10	37	-1	13.37	13.37
Saccade L	1	1	30407037341	30407057215	19874	857.41	687.62	676.42	689.60	1.28	183.04	1.00	64.26	4503.50	-4156.07	3394.52
Saccade R	1	1	30407037341	30407057215	19874	857.41	687.62	676.42	689.60	1.28	183.04	1.00	64.26	4503.50	-4156.07	3394.52
Fixation L	1	2	30407057215	30407256088	198873	607.44	682.19	82	13	-1	11.36	11.36
Fixation R	1	2	30407057215	30407256088	198873	607.44	682.19	82	13	-1	11.67	11.67
Saccade L	1	2	30407256088	30407295841	39753	601.21	675.70	419.24	835.36	2.49	156.58	1.00	62.52	3714.46	-3709.23	3595.35
Saccade R	1	2	30407256088	30407295841	39753	601.21	675.70	419.24	835.36	2.49	156.58	1.00	62.52	3714.46	-3709.23	3595.35
Fixation L	1	3	30407295841	30407514700	218859	405.02	828.23	28	60	-1	11.32	11.32
Fixation R	1	3	30407295841	30407514700	218859	405.02	828.23	28	60	-1	11.79	11.79
Saccade L	1	3	30407514700	30407534576	19876	391.23	863.48	394.73	889.51	0.47	61.72	0.00	23.63	550.69	-1501.00	878.36
Saccade R	1	3	30407514700	30407534576	19876	391.23	863.48	394.73	889.51	0.47	61.72	0.00	23.63	550.69	-1501.00	878.36
Fixation L	1	4	30407534576	30408111419	576843	400.73	887.62	50	46	-1	12.38	12.38
Fixation R	1	4	30407534576	30408111419	576843	400.73	887.62	50	46	-1	13.12	13.12
Saccade L	1	4	30408111419	30408230663	119244	436.93	911.69	645.97	905.73	3.74	110.76	1.00	31.38	2544.59	-2548.99	1169.36
Saccade R	1	4	30408111419	30408230663	119244	436.93	911.69	645.97	905.73	3.74	110.76	1.00	31.38	2544.59	-2548.99	1169.36
Fixation L	1	5	30408230663	30408389783	159120	646.04	891.47	57	39	-1	13.57	13.57
Fixation R	1	5	30408230663	30408389783	159120	646.04	891.47	57	39	-1	13.53	13.53
Saccade L	1	5	30408389783	30408429654	39871	686.51	868.75	1152.74	784.12	4.55	371.07	0.50	114.01	9031.80	-8361.15	5399.52
Saccade R	1	5	30408389783	30408429654	39871	686.51	868.75	1152.74	784.12	4.55	371.07	0.50	114.01	9031.80	-8361.15	5399.52
Fixation L	1	6	30408429654	30408747891	318237	1164.90	755.12	17	42	-1	13.28	13.28
Fixation R	1	6	30408429654	30408747891	318237	1164.90	755.12	17	42	-1	13.46	13.46
Saccade L	1	6	30408747891	30408787655	39764	1166.49	758.29	1478.54	741.78	2.82	172.57	1.00	71.03	4199.37	-3510.53	3505.37
Saccade R	1	6	30408747891	30408787655	39764	1166.49	758.29	1478.54	741.78	2.82	172.57	1.00	71.03	4199.37	-3510.53	3505.37
Fixation L	1	7	30408787655	30408907010	119355	1487.50	736.17	21	28	-1	12.97	12.97
Fixation R	1	7	30408787655	30408907010	119355	1487.50	736.17	21	28	-1	12.76	12.76
Saccade L	1	7	30408907010	30408946761	39751	1482.57	735.72	1475.51	426.22	2.93	243.36	0.50	73.76	5580.76	-5792.26	3449.91
Saccade R	1	7	30408907010	30408946761	39751	1482.57	735.72	1475.51	426.22	2.93	243.36	0.50	73.76	5580.76	-5792.26	3449.91
Fixation L	1	8	30408946761	30409105879	159118	1479.92	400.60	14	38	-1	13.05	13.05
Fixation R	1	8	30408946761	30409105879	159118	1479.92	400.60	14	38	-1	13.14	13.14
Saccade L	1	8	30409105879	30409145626	39747	1470.60	408.36	941.09	366.25	4.57	343.10	0.50	115.10	8526.54	-8396.15	6426.29
Saccade R	1	8	30409105879	30409145626	39747	1470.60	408.36	941.09	366.25	4.57	343.10	0.50	115.10	8526.54	-8396.15	6426.29
Fixation L	1	9	30409145626	30409443987	298361	952.29	333.81	27	64	-1	12.77	12.77
Fixation R	1	9	30409145626	30409443987	298361	952.29	333.81	27	64	-1	12.88	12.88
Saccade L	1	9	30409443987	30409543488	99501	961.95	311.77	1010.02	941.21	25.94	1369.93	1.00	260.73	34078.69	-7446.61	13646.72
Saccade R	1	9	30409443987	30409543488	99501	961.95	311.77	1010.02	941.21	25.94	1369.93	1.00	260.73	34078.69	-7446.61	13646.72
Fixation L	1	10	30409603111	30409702606	99495	1032.76	945.93	16	3	-1	20.23	20.23
Fixation R	1	10	30409603111	30409702606	99495	1032.76	945.93	16	3	-1	13.56	13.56
Saccade L	1	10	30409702606	30409722472	19866	1041.39	948.08	1032.56	813.54	0.77	136.37	1.00	38.66	3314.42	-3234.83	2198.26
Saccade R	1	10	30409702606	30409722472	19866	1041.39	948.08	1032.56	813.54	0.77	136.37	1.00	38.66	3314.42	-3234.83	2198.26
Fixation L	1	11	30409722472	30409961224	238752	1025.19	825.28	14	20	-1	13.61	13.61
Fixation R	1	11	30409722472	30409961224	238752	1025.19	825.28	14	20	-1	13.44	13.44
Blink L	1	1	30409961224	30410100454	139230
Blink R	1	1	30409961224	30410100454	139230
