[BeGaze]
Converted from:	C:\Documents and Settings\iViewX\Desktop\EXPERIMENTATIONS\Experiments\results\finaleart\S14F27123-finaleart-1.idf
Date:	27.03.2019 15:43:31
Version:	BeGaze 2.5.77
Sample Rate:	50
Subject:	S14F27123
Description:	Anne-flore Perrin

Table Header for Fixations:
Event Type	Trial	Number	Start	End	Duration	Location X	Location Y	Dispersion X	Dispersion Y	Plane	Avg. Pupil Size X	Avg. Pupil Size Y

Table Header for Saccades:
Event Type	Trial	Number	Start	End	Duration	Start Loc.X	Start Loc.Y	End Loc.X	End Loc.Y	Amplitude	Peak Speed	Peak Speed At	Average Speed	Peak Accel.	Peak Decel.	Average Accel.

Table Header for Blinks:
Event Type	Trial	Number	Start	End	Duration

Table Header for User Events:
Event Type	Trial	Number	Start	Description

UserEvent	1	1	31002366548	# Message: paysage_avec_du_betail_au_limousin_jules-dupre_1837.jpg
Blink L	1	1	31002377728	31005023103	2645375
Blink R	1	1	31002377728	31005023103	2645375
Fixation L	1	1	31005023103	31005162345	139242	1316.63	710.72	5	20	-1	21.90	21.90
Fixation R	1	1	31005023103	31005162345	139242	1316.63	710.72	5	20	-1	12.02	12.02
Saccade L	1	1	31005162345	31005182214	19869	1317.46	698.22	1114.16	622.79	1.31	219.26	1.00	65.90	5376.89	-5322.91	3606.57
Saccade R	1	1	31005162345	31005182214	19869	1317.46	698.22	1114.16	622.79	1.31	219.26	1.00	65.90	5376.89	-5322.91	3606.57
Fixation L	1	2	31005182214	31005321460	139246	1121.23	586.65	14	61	-1	11.87	11.87
Fixation R	1	2	31005182214	31005321460	139246	1121.23	586.65	14	61	-1	11.79	11.79
Saccade L	1	2	31005321460	31005341355	19895	1127.90	580.16	1127.34	365.04	1.63	217.51	1.00	81.88	5108.69	-5218.99	3900.56
Saccade R	1	2	31005321460	31005341355	19895	1127.90	580.16	1127.34	365.04	1.63	217.51	1.00	81.88	5108.69	-5218.99	3900.56
Fixation L	1	3	31005341355	31005540329	198974	1131.26	298.32	9	80	-1	11.48	11.48
Fixation R	1	3	31005341355	31005540329	198974	1131.26	298.32	9	80	-1	11.67	11.67
Saccade L	1	3	31005540329	31005580078	39749	1130.88	300.04	771.33	298.69	3.13	273.08	1.00	78.85	6760.42	-6486.12	4289.52
Saccade R	1	3	31005540329	31005580078	39749	1130.88	300.04	771.33	298.69	3.13	273.08	1.00	78.85	6760.42	-6486.12	4289.52
Fixation L	1	4	31005580078	31005818812	238734	728.00	280.23	58	35	-1	11.57	11.57
Fixation R	1	4	31005580078	31005818812	238734	728.00	280.23	58	35	-1	12.00	12.00
Saccade L	1	4	31005818812	31005878438	59626	724.29	273.67	436.84	489.47	4.82	305.72	0.67	80.85	7521.59	-7134.10	3951.78
Saccade R	1	4	31005818812	31005878438	59626	724.29	273.67	436.84	489.47	4.82	305.72	0.67	80.85	7521.59	-7134.10	3951.78
Fixation L	1	5	31005878438	31006176804	298366	432.54	498.60	23	56	-1	11.59	11.59
Fixation R	1	5	31005878438	31006176804	298366	432.54	498.60	23	56	-1	12.17	12.17
Saccade L	1	5	31006176804	31006216558	39754	423.79	490.70	403.85	220.77	2.34	182.67	1.00	58.87	4440.91	-4365.46	3246.05
Saccade R	1	5	31006176804	31006216558	39754	423.79	490.70	403.85	220.77	2.34	182.67	1.00	58.87	4440.91	-4365.46	3246.05
Fixation L	1	6	31006216558	31006355795	139237	395.40	205.98	19	23	-1	11.00	11.00
Fixation R	1	6	31006216558	31006355795	139237	395.40	205.98	19	23	-1	11.48	11.48
