[BeGaze]
Converted from:	C:\Documents and Settings\iViewX\Desktop\EXPERIMENTATIONS\Experiments\results\finaleart\S14F27123-finaleart-1.idf
Date:	27.03.2019 15:43:50
Version:	BeGaze 2.5.77
Sample Rate:	50
Subject:	S14F27123
Description:	Anne-flore Perrin

Table Header for Fixations:
Event Type	Trial	Number	Start	End	Duration	Location X	Location Y	Dispersion X	Dispersion Y	Plane	Avg. Pupil Size X	Avg. Pupil Size Y

Table Header for Saccades:
Event Type	Trial	Number	Start	End	Duration	Start Loc.X	Start Loc.Y	End Loc.X	End Loc.Y	Amplitude	Peak Speed	Peak Speed At	Average Speed	Peak Accel.	Peak Decel.	Average Accel.

Table Header for Blinks:
Event Type	Trial	Number	Start	End	Duration

Table Header for User Events:
Event Type	Trial	Number	Start	Description

UserEvent	1	1	31486269986	# Message: Hayet-Nature-morte-1888.jpg
Saccade L	1	1	31486327840	31486367590	39750	663.13	940.73	673.82	948.31	18.60	1160.71	1.00	467.98	28933.32	-28146.73	21437.52
Saccade R	1	1	31486327840	31486367590	39750	663.13	940.73	673.82	948.31	18.60	1160.71	1.00	467.98	28933.32	-28146.73	21437.52
Saccade L	1	2	31486433838	31486506812	72974	670.24	953.40	674.55	952.66	24.55	1166.87	1.00	336.37	29031.61	-29108.16	9745.47
Saccade R	1	2	31486433838	31486506812	72974	670.24	953.40	674.55	952.66	24.55	1166.87	1.00	336.37	29031.61	-29108.16	9745.47
Blink L	1	1	31486506812	31486626181	119369
Blink R	1	1	31486506812	31486626181	119369
Saccade L	1	3	31486626181	31486646072	19891	665.13	945.09	671.97	950.30	11.67	1164.27	1.00	586.47	28739.65	-28889.24	27805.41
Saccade R	1	3	31486626181	31486646072	19891	665.13	945.09	671.97	950.30	11.67	1164.27	1.00	586.47	28739.65	-28889.24	27805.41
Blink L	1	2	31486646072	31486725679	79607
Blink R	1	2	31486646072	31486725679	79607
Fixation L	1	1	31486725679	31486844923	119244	729.93	728.67	14	10	-1	11.50	11.50
Fixation R	1	1	31486725679	31486844923	119244	729.93	728.67	14	10	-1	17.07	11.07
Saccade L	1	4	31486904669	31486944421	39752	747.57	731.60	742.13	709.88	16.68	1039.83	1.00	419.48	25279.29	-25581.09	12758.45
Saccade R	1	4	31486904669	31486944421	39752	747.57	731.60	742.13	709.88	16.68	1039.83	1.00	419.48	25279.29	-25581.09	12758.45
Blink L	1	3	31486944421	31487043934	99513
Blink R	1	3	31486944421	31487043934	99513
Fixation L	1	2	31487043934	31487183156	139222	586.26	909.03	20	43	-1	13.09	13.09
Fixation R	1	2	31487043934	31487183156	139222	586.26	909.03	20	43	-1	10.37	10.37
Blink L	1	4	31487183156	31487342285	159129
Blink R	1	4	31487183156	31487342285	159129
Blink L	1	5	31487362161	31487441650	79489
Blink R	1	5	31487362161	31487441650	79489
Fixation L	1	3	31487441650	31487561024	119374	1120.77	545.88	9	29	-1	10.41	10.41
Fixation R	1	3	31487441650	31487561024	119374	1120.77	545.88	9	29	-1	10.53	10.53
Saccade L	1	5	31487561024	31487620643	59619	1121.75	537.27	1139.66	406.06	3.54	124.18	0.67	59.41	2890.59	-2926.25	2036.14
Saccade R	1	5	31487561024	31487620643	59619	1121.75	537.27	1139.66	406.06	3.54	124.18	0.67	59.41	2890.59	-2926.25	2036.14
Fixation L	1	4	31487620643	31487779762	159119	1149.28	406.98	16	22	-1	10.00	10.00
Fixation R	1	4	31487620643	31487779762	159119	1149.28	406.98	16	22	-1	10.41	10.41
Saccade L	1	6	31487779762	31487819637	39875	1149.87	408.85	953.47	349.02	2.05	133.39	1.00	51.52	3175.34	-3116.22	2667.37
Saccade R	1	6	31487779762	31487819637	39875	1149.87	408.85	953.47	349.02	2.05	133.39	1.00	51.52	3175.34	-3116.22	2667.37
Fixation L	1	5	31487819637	31487958882	139245	973.49	343.25	33	21	-1	9.85	9.85
Fixation R	1	5	31487819637	31487958882	139245	973.49	343.25	33	21	-1	10.47	10.47
Saccade L	1	7	31487958882	31488018506	59624	978.87	339.85	575.07	369.85	4.76	291.52	0.67	79.84	7162.42	-6487.74	3531.82
Saccade R	1	7	31487958882	31488018506	59624	978.87	339.85	575.07	369.85	4.76	291.52	0.67	79.84	7162.42	-6487.74	3531.82
Fixation L	1	6	31488018506	31488376490	357984	550.70	414.14	34	60	-1	10.23	10.23
Fixation R	1	6	31488018506	31488376490	357984	550.70	414.14	34	60	-1	11.00	11.00
Saccade L	1	8	31488376490	31488416354	39864	547.11	409.23	672.23	352.38	1.52	105.85	1.00	38.19	2317.11	-2250.27	1612.39
Saccade R	1	8	31488376490	31488416354	39864	547.11	409.23	672.23	352.38	1.52	105.85	1.00	38.19	2317.11	-2250.27	1612.39
Fixation L	1	7	31488416354	31488555482	139128	681.94	331.35	14	48	-1	10.72	10.72
Fixation R	1	7	31488416354	31488555482	139128	681.94	331.35	14	48	-1	11.52	11.52
Saccade L	1	9	31488555482	31488575476	19994	679.36	304.23	701.64	157.42	1.03	150.19	1.00	51.41	3718.83	-3424.98	2383.60
Saccade R	1	9	31488555482	31488575476	19994	679.36	304.23	701.64	157.42	1.03	150.19	1.00	51.41	3718.83	-3424.98	2383.60
Fixation L	1	8	31488575476	31488774346	198870	723.56	162.57	33	26	-1	11.10	11.10
Fixation R	1	8	31488575476	31488774346	198870	723.56	162.57	33	26	-1	11.41	11.41
Saccade L	1	10	31488774346	31488893718	119372	726.68	178.75	1748.04	300.04	15.99	422.41	0.33	133.92	10551.57	-10258.99	4796.28
Saccade R	1	10	31488774346	31488893718	119372	726.68	178.75	1748.04	300.04	15.99	422.41	0.33	133.92	10551.57	-10258.99	4796.28
Fixation L	1	9	31488893718	31489052831	159113	1732.09	332.60	25	48	-1	11.47	11.47
Fixation R	1	9	31488893718	31489052831	159113	1732.09	332.60	25	48	-1	11.95	11.95
Saccade L	1	11	31489052831	31489072703	19872	1724.78	348.00	1709.29	365.66	0.16	23.76	1.00	8.14	474.77	-323.39	284.11
Saccade R	1	11	31489052831	31489072703	19872	1724.78	348.00	1709.29	365.66	0.16	23.76	1.00	8.14	474.77	-323.39	284.11
Fixation L	1	10	31489072703	31489211950	139247	1716.68	362.58	21	9	-1	11.34	11.34
Fixation R	1	10	31489072703	31489211950	139247	1716.68	362.58	21	9	-1	11.40	11.40
Saccade L	1	12	31489211950	31489231819	19869	1704.17	366.78	1657.59	400.78	0.50	58.34	1.00	25.02	1375.14	-1198.96	929.81
Saccade R	1	12	31489211950	31489231819	19869	1704.17	366.78	1657.59	400.78	0.50	58.34	1.00	25.02	1375.14	-1198.96	929.81
Fixation L	1	11	31489231819	31489390939	159120	1656.65	403.45	21	22	-1	11.03	11.03
Fixation R	1	11	31489231819	31489390939	159120	1656.65	403.45	21	22	-1	11.34	11.34
Saccade L	1	13	31489390939	31489430693	39754	1649.69	415.74	1165.96	540.74	4.47	368.32	1.00	112.43	9076.69	-8885.68	5873.51
Saccade R	1	13	31489390939	31489430693	39754	1649.69	415.74	1165.96	540.74	4.47	368.32	1.00	112.43	9076.69	-8885.68	5873.51
Fixation L	1	12	31489430693	31489530185	99492	1129.32	552.56	48	50	-1	12.01	12.01
Fixation R	1	12	31489430693	31489530185	99492	1129.32	552.56	48	50	-1	11.60	11.60
Saccade L	1	14	31489530185	31489649428	119243	1117.83	557.62	869.55	564.85	4.83	236.60	1.00	40.53	5813.24	-5803.07	1691.51
Saccade R	1	14	31489530185	31489649428	119243	1117.83	557.62	869.55	564.85	4.83	236.60	1.00	40.53	5813.24	-5803.07	1691.51
Fixation L	1	13	31489649428	31489888178	238750	870.07	549.69	5	54	-1	11.76	11.76
Fixation R	1	13	31489649428	31489888178	238750	870.07	549.69	5	54	-1	11.75	11.75
Saccade L	1	15	31489888178	31489908044	19866	870.82	513.96	737.69	500.07	0.90	135.38	1.00	45.39	2975.10	-3235.50	2213.74
Saccade R	1	15	31489888178	31489908044	19866	870.82	513.96	737.69	500.07	0.90	135.38	1.00	45.39	2975.10	-3235.50	2213.74
Fixation L	1	14	31489908044	31490146783	238739	739.89	520.04	11	36	-1	11.07	11.07
Fixation R	1	14	31489908044	31490146783	238739	739.89	520.04	11	36	-1	11.81	11.81
Saccade L	1	16	31490146783	31490266030	119247	739.77	512.94	690.01	287.59	4.23	100.75	0.33	35.46	1931.79	-1939.31	1014.65
Saccade R	1	16	31490146783	31490266030	119247	739.77	512.94	690.01	287.59	4.23	100.75	0.33	35.46	1931.79	-1939.31	1014.65
