[BeGaze]
Converted from:	C:\Documents and Settings\iViewX\Desktop\EXPERIMENTATIONS\Experiments\results\finaleart\S14F27123-finaleart-1.idf
Date:	27.03.2019 15:43:40
Version:	BeGaze 2.5.77
Sample Rate:	50
Subject:	S14F27123
Description:	Anne-flore Perrin

Table Header for Fixations:
Event Type	Trial	Number	Start	End	Duration	Location X	Location Y	Dispersion X	Dispersion Y	Plane	Avg. Pupil Size X	Avg. Pupil Size Y

Table Header for Saccades:
Event Type	Trial	Number	Start	End	Duration	Start Loc.X	Start Loc.Y	End Loc.X	End Loc.Y	Amplitude	Peak Speed	Peak Speed At	Average Speed	Peak Accel.	Peak Decel.	Average Accel.

Table Header for Blinks:
Event Type	Trial	Number	Start	End	Duration

Table Header for User Events:
Event Type	Trial	Number	Start	Description

UserEvent	1	1	31363790399	# Message: void.jpg
Saccade L	1	1	31363807400	31363886906	79506	1223.43	529.36	1126.79	484.56	1.88	87.99	1.00	23.59	2181.75	-1754.51	829.36
Saccade R	1	1	31363807400	31363886906	79506	1223.43	529.36	1126.79	484.56	1.88	87.99	1.00	23.59	2181.75	-1754.51	829.36
Fixation L	1	1	31363886906	31364006273	119367	1116.44	486.89	18	16	-1	11.52	11.52
Fixation R	1	1	31363886906	31364006273	119367	1116.44	486.89	18	16	-1	11.62	11.62
Saccade L	1	2	31364006273	31364046024	39751	1116.39	482.08	866.21	514.21	2.20	137.83	0.50	55.32	3407.08	-3070.85	3020.20
Saccade R	1	2	31364006273	31364046024	39751	1116.39	482.08	866.21	514.21	2.20	137.83	0.50	55.32	3407.08	-3070.85	3020.20
Fixation L	1	2	31364046024	31364324499	278475	858.58	559.18	10	61	-1	11.73	11.73
Fixation R	1	2	31364046024	31364324499	278475	858.58	559.18	10	61	-1	11.94	11.94
Blink L	1	1	31364324499	31364602985	278486
Blink R	1	1	31364324499	31364602985	278486
Fixation L	1	3	31364602985	31364821733	218748	604.27	298.60	13	13	-1	12.26	12.26
Fixation R	1	3	31364602985	31364821733	218748	604.27	298.60	13	13	-1	12.97	12.97
Saccade L	1	3	31364821733	31364901349	79616	606.53	299.97	974.32	900.61	8.83	323.66	0.50	110.88	8054.12	-5640.25	3971.93
Saccade R	1	3	31364821733	31364901349	79616	606.53	299.97	974.32	900.61	8.83	323.66	0.50	110.88	8054.12	-5640.25	3971.93
Fixation L	1	4	31364901349	31365100224	198875	972.21	875.53	14	45	-1	12.85	12.85
Fixation R	1	4	31364901349	31365100224	198875	972.21	875.53	14	45	-1	13.02	13.02
Saccade L	1	4	31365100224	31365120090	19866	960.96	864.54	830.21	817.27	1.11	140.63	1.00	55.73	3155.90	-3318.24	2406.65
Saccade R	1	4	31365100224	31365120090	19866	960.96	864.54	830.21	817.27	1.11	140.63	1.00	55.73	3155.90	-3318.24	2406.65
Fixation L	1	5	31365120090	31365617321	497231	832.91	750.97	20	76	-1	12.14	12.14
Fixation R	1	5	31365120090	31365617321	497231	832.91	750.97	20	76	-1	12.11	12.11
Saccade L	1	5	31365617321	31365637212	19891	822.72	747.05	819.22	751.80	0.06	5.97	1.00	2.79	118.90	6.85	52.63
Saccade R	1	5	31365617321	31365637212	19891	822.72	747.05	819.22	751.80	0.06	5.97	1.00	2.79	118.90	6.85	52.63
Fixation L	1	6	31365637212	31365776436	139224	816.84	748.35	4	9	-1	11.99	11.99
Fixation R	1	6	31365637212	31365776436	139224	816.84	748.35	4	9	-1	12.05	12.05
