[BeGaze]
Converted from:	C:\Documents and Settings\iViewX\Desktop\EXPERIMENTATIONS\Experiments\results\finaleart\S14F27123-finaleart-1.idf
Date:	27.03.2019 15:42:59
Version:	BeGaze 2.5.77
Sample Rate:	50
Subject:	S14F27123
Description:	Anne-flore Perrin

Table Header for Fixations:
Event Type	Trial	Number	Start	End	Duration	Location X	Location Y	Dispersion X	Dispersion Y	Plane	Avg. Pupil Size X	Avg. Pupil Size Y

Table Header for Saccades:
Event Type	Trial	Number	Start	End	Duration	Start Loc.X	Start Loc.Y	End Loc.X	End Loc.Y	Amplitude	Peak Speed	Peak Speed At	Average Speed	Peak Accel.	Peak Decel.	Average Accel.

Table Header for Blinks:
Event Type	Trial	Number	Start	End	Duration

Table Header for User Events:
Event Type	Trial	Number	Start	Description

UserEvent	1	1	30428850863	# Message: void.jpg
Saccade L	1	1	30428856780	30428896539	39759	843.42	1040.79	848.63	1040.10	13.39	1333.38	1.00	336.70	33232.40	-233.61	8424.91
Saccade R	1	1	30428856780	30428896539	39759	843.42	1040.79	848.63	1040.10	13.39	1333.38	1.00	336.70	33232.40	-233.61	8424.91
Blink L	1	1	30428896539	30429214773	318234
Blink R	1	1	30428896539	30429214773	318234
Saccade L	1	2	30429214773	30429274499	59726	1420.09	945.57	1436.89	976.00	18.03	1675.10	1.00	301.87	40431.22	-41664.89	16850.44
Saccade R	1	2	30429214773	30429274499	59726	1420.09	945.57	1436.89	976.00	18.03	1675.10	1.00	301.87	40431.22	-41664.89	16850.44
Blink L	1	2	30429274499	30429692103	417604
Blink R	1	2	30429274499	30429692103	417604
Fixation L	1	1	30429692103	30430169464	477361	714.86	468.64	10	55	-1	12.37	12.37
Fixation R	1	1	30429692103	30430169464	477361	714.86	468.64	10	55	-1	12.91	12.91
Saccade L	1	3	30430169464	30430268958	99494	719.61	478.17	821.65	1043.79	8.73	315.29	0.40	87.71	7837.26	-6908.52	3095.07
Saccade R	1	3	30430169464	30430268958	99494	719.61	478.17	821.65	1043.79	8.73	315.29	0.40	87.71	7837.26	-6908.52	3095.07
Fixation L	1	2	30430268958	30430388330	119372	825.90	1042.57	39	19	-1	18.60	18.60
Fixation R	1	2	30430268958	30430388330	119372	825.90	1042.57	39	19	-1	13.81	13.81
Blink L	1	3	30430388330	30430467829	79499
Blink R	1	3	30430388330	30430467829	79499
Fixation L	1	3	30430547444	30430686690	139246	663.18	999.72	18	35	-1	18.66	18.66
Fixation R	1	3	30430547444	30430686690	139246	663.18	999.72	18	35	-1	13.83	13.83
Fixation L	1	4	30430746310	30430845807	99497	670.04	988.28	4	4	-1	23.46	23.46
Fixation R	1	4	30430746310	30430845807	99497	670.04	988.28	4	4	-1	14.11	14.11
