[BeGaze]
Converted from:	C:\Documents and Settings\iViewX\Desktop\EXPERIMENTATIONS\Experiments\results\finaleart\S14F27123-finaleart-1.idf
Date:	27.03.2019 15:43:18
Version:	BeGaze 2.5.77
Sample Rate:	50
Subject:	S14F27123
Description:	Anne-flore Perrin

Table Header for Fixations:
Event Type	Trial	Number	Start	End	Duration	Location X	Location Y	Dispersion X	Dispersion Y	Plane	Avg. Pupil Size X	Avg. Pupil Size Y

Table Header for Saccades:
Event Type	Trial	Number	Start	End	Duration	Start Loc.X	Start Loc.Y	End Loc.X	End Loc.Y	Amplitude	Peak Speed	Peak Speed At	Average Speed	Peak Accel.	Peak Decel.	Average Accel.

Table Header for Blinks:
Event Type	Trial	Number	Start	End	Duration

Table Header for User Events:
Event Type	Trial	Number	Start	Description

UserEvent	1	1	30874116471	# Message: still-life_pissarro_1867.jpg
Fixation L	1	1	30874126293	30874603641	477348	822.31	625.41	29	22	-1	13.90	13.90
Fixation R	1	1	30874126293	30874603641	477348	822.31	625.41	29	22	-1	14.11	14.11
Saccade L	1	1	30874603641	30874623511	19870	807.02	629.16	657.47	658.61	1.01	154.16	1.00	51.07	3749.99	-3318.54	2693.21
Saccade R	1	1	30874603641	30874623511	19870	807.02	629.16	657.47	658.61	1.01	154.16	1.00	51.07	3749.99	-3318.54	2693.21
Fixation L	1	2	30874623511	30874782634	159123	621.39	664.55	56	42	-1	13.02	13.02
Fixation R	1	2	30874623511	30874782634	159123	621.39	664.55	56	42	-1	13.43	13.43
Saccade L	1	2	30874782634	30874802634	20000	623.10	678.36	621.63	679.99	0.04	2.22	1.00	2.12	38.03	4.35	15.59
Saccade R	1	2	30874782634	30874802634	20000	623.10	678.36	621.63	679.99	0.04	2.22	1.00	2.12	38.03	4.35	15.59
Fixation L	1	3	30874802634	30874961751	159117	620.03	672.21	3	19	-1	12.23	12.23
Fixation R	1	3	30874802634	30874961751	159117	620.03	672.21	3	19	-1	12.86	12.86
Saccade L	1	3	30874961751	30875001504	39753	618.89	661.15	1006.04	758.82	3.34	295.53	0.50	84.08	7281.18	-7153.19	4938.26
Saccade R	1	3	30874961751	30875001504	39753	618.89	661.15	1006.04	758.82	3.34	295.53	0.50	84.08	7281.18	-7153.19	4938.26
Fixation L	1	4	30875001504	30875240115	238611	1006.93	776.78	10	36	-1	13.41	13.41
Fixation R	1	4	30875001504	30875240115	238611	1006.93	776.78	10	36	-1	14.14	14.14
Saccade L	1	4	30875240115	30875260116	20001	1014.19	795.68	1243.54	787.51	1.25	232.03	1.00	62.54	5741.25	-5683.32	3836.80
Saccade R	1	4	30875240115	30875260116	20001	1014.19	795.68	1243.54	787.51	1.25	232.03	1.00	62.54	5741.25	-5683.32	3836.80
Fixation L	1	5	30875260116	30875439115	178999	1238.12	804.55	12	29	-1	14.11	14.11
Fixation R	1	5	30875260116	30875439115	178999	1238.12	804.55	12	29	-1	14.51	14.51
Saccade L	1	5	30875439115	30875478859	39744	1231.44	805.59	1131.26	553.14	2.37	206.13	0.50	59.54	5031.84	-4791.36	3264.68
Saccade R	1	5	30875439115	30875478859	39744	1231.44	805.59	1131.26	553.14	2.37	206.13	0.50	59.54	5031.84	-4791.36	3264.68
Fixation L	1	6	30875478859	30875598225	119366	1121.41	568.48	15	26	-1	14.33	14.33
Fixation R	1	6	30875478859	30875598225	119366	1121.41	568.48	15	26	-1	14.29	14.29
Saccade L	1	6	30875598225	30875637978	39753	1115.53	579.60	829.17	351.95	3.27	216.76	1.00	82.31	5265.33	-5186.02	4330.09
Saccade R	1	6	30875598225	30875637978	39753	1115.53	579.60	829.17	351.95	3.27	216.76	1.00	82.31	5265.33	-5186.02	4330.09
Fixation L	1	7	30875637978	30875816964	178986	797.65	349.03	39	12	-1	14.02	14.02
Fixation R	1	7	30875637978	30875816964	178986	797.65	349.03	39	12	-1	14.03	14.03
Saccade L	1	7	30875816964	30875836834	19870	791.65	346.12	962.82	253.78	1.16	196.68	1.00	58.63	4869.13	-4497.29	3370.19
Saccade R	1	7	30875816964	30875836834	19870	791.65	346.12	962.82	253.78	1.16	196.68	1.00	58.63	4869.13	-4497.29	3370.19
Fixation L	1	8	30875836834	30875976090	139256	996.46	230.77	43	37	-1	13.91	13.91
Fixation R	1	8	30875836834	30875976090	139256	996.46	230.77	43	37	-1	14.00	14.00
Saccade L	1	8	30875976090	30876035833	59743	1004.49	231.75	1431.81	36.37	6.31	270.42	0.33	105.59	6698.69	-6034.30	5173.78
Saccade R	1	8	30875976090	30876035833	59743	1004.49	231.75	1431.81	36.37	6.31	270.42	0.33	105.59	6698.69	-6034.30	5173.78
Fixation L	1	9	30876035833	30876214820	178987	1409.43	58.24	31	39	-1	13.83	13.83
Fixation R	1	9	30876035833	30876214820	178987	1409.43	58.24	31	39	-1	14.27	14.27
Saccade L	1	9	30876214820	30876234699	19879	1399.84	69.89	1546.60	32.38	1.02	153.20	1.00	51.16	3582.58	-3457.51	2491.96
Saccade R	1	9	30876214820	30876234699	19879	1399.84	69.89	1546.60	32.38	1.02	153.20	1.00	51.16	3582.58	-3457.51	2491.96
Fixation L	1	10	30876234699	30876513189	278490	1517.34	54.91	51	43	-1	13.40	13.40
Fixation R	1	10	30876234699	30876513189	278490	1517.34	54.91	51	43	-1	13.48	13.48
Saccade L	1	10	30876513189	30876533061	19872	1494.63	75.39	1485.81	82.82	0.20	11.66	1.00	10.27	20.02	-85.18	44.09
Saccade R	1	10	30876513189	30876533061	19872	1494.63	75.39	1485.81	82.82	0.20	11.66	1.00	10.27	20.02	-85.18	44.09
Fixation L	1	11	30876533061	30876692176	159115	1479.25	73.64	19	16	-1	13.44	13.44
Fixation R	1	11	30876533061	30876692176	159115	1479.25	73.64	19	16	-1	13.15	13.15
Saccade L	1	11	30876692176	30876731931	39755	1469.70	76.05	891.30	281.93	5.17	438.01	0.50	129.97	10879.92	-10596.16	7468.10
Saccade R	1	11	30876692176	30876731931	39755	1469.70	76.05	891.30	281.93	5.17	438.01	0.50	129.97	10879.92	-10596.16	7468.10
Fixation L	1	12	30876731931	30876871184	139253	875.80	274.36	22	35	-1	14.09	14.09
Fixation R	1	12	30876731931	30876871184	139253	875.80	274.36	22	35	-1	13.85	13.85
Saccade L	1	12	30876871184	30876910916	39732	872.17	266.47	706.57	421.43	2.08	169.91	1.00	52.40	4192.92	-3550.79	2695.42
Saccade R	1	12	30876871184	30876910916	39732	872.17	266.47	706.57	421.43	2.08	169.91	1.00	52.40	4192.92	-3550.79	2695.42
Fixation L	1	13	30876910916	30877129783	218867	707.80	392.76	8	41	-1	14.51	14.51
Fixation R	1	13	30876910916	30877129783	218867	707.80	392.76	8	41	-1	14.59	14.59
Saccade L	1	13	30877129783	30877149660	19877	704.20	410.81	552.89	598.99	1.53	244.12	1.00	77.09	6096.44	-5683.15	4064.01
Saccade R	1	13	30877129783	30877149660	19877	704.20	410.81	552.89	598.99	1.53	244.12	1.00	77.09	6096.44	-5683.15	4064.01
Fixation L	1	14	30877149660	30877348525	198865	556.70	647.58	9	71	-1	14.32	14.32
Fixation R	1	14	30877149660	30877348525	198865	556.70	647.58	9	71	-1	14.73	14.73
Saccade L	1	14	30877348525	30877408151	59626	554.74	620.25	860.86	685.38	5.53	276.77	0.33	92.81	6265.55	-4324.46	3602.57
Saccade R	1	14	30877348525	30877408151	59626	554.74	620.25	860.86	685.38	5.53	276.77	0.33	92.81	6265.55	-4324.46	3602.57
Fixation L	1	15	30877408151	30877587139	178988	857.42	706.46	15	42	-1	14.04	14.04
Fixation R	1	15	30877408151	30877587139	178988	857.42	706.46	15	42	-1	14.60	14.60
Saccade L	1	15	30877587139	30877825876	238737	863.59	715.39	1424.62	1119.95	19.00	364.58	0.08	79.60	8023.73	-9059.40	3681.55
Saccade R	1	15	30877587139	30877825876	238737	863.59	715.39	1424.62	1119.95	19.00	364.58	0.08	79.60	8023.73	-9059.40	3681.55
Fixation L	1	16	30877825876	30878104365	278489	1430.86	1124.60	9	11	-1	13.55	13.55
Fixation R	1	16	30877825876	30878104365	278489	1430.86	1124.60	9	11	-1	13.73	13.73
