[BeGaze]
Converted from:	C:\Documents and Settings\iViewX\Desktop\EXPERIMENTATIONS\Experiments\results\finaleart\S14F27123-finaleart-1.idf
Date:	27.03.2019 15:43:09
Version:	BeGaze 2.5.77
Sample Rate:	50
Subject:	S14F27123
Description:	Anne-flore Perrin

Table Header for Fixations:
Event Type	Trial	Number	Start	End	Duration	Location X	Location Y	Dispersion X	Dispersion Y	Plane	Avg. Pupil Size X	Avg. Pupil Size Y

Table Header for Saccades:
Event Type	Trial	Number	Start	End	Duration	Start Loc.X	Start Loc.Y	End Loc.X	End Loc.Y	Amplitude	Peak Speed	Peak Speed At	Average Speed	Peak Accel.	Peak Decel.	Average Accel.

Table Header for Blinks:
Event Type	Trial	Number	Start	End	Duration

Table Header for User Events:
Event Type	Trial	Number	Start	Description

UserEvent	1	1	30616012086	# Message: monticelli-still-life-with-white-pitcher-1822.jpg
Fixation L	1	1	30616031382	30616468983	437601	874.33	783.96	11	44	-1	13.24	13.24
Fixation R	1	1	30616031382	30616468983	437601	874.33	783.96	11	44	-1	13.86	13.86
Saccade L	1	1	30616468983	30616488856	19873	873.75	799.47	879.82	630.46	0.94	171.04	1.00	47.52	4207.94	-4144.28	2800.42
Saccade R	1	1	30616468983	30616488856	19873	873.75	799.47	879.82	630.46	0.94	171.04	1.00	47.52	4207.94	-4144.28	2800.42
Fixation L	1	2	30616488856	30616767354	278498	886.08	591.64	11	70	-1	12.31	12.31
Fixation R	1	2	30616488856	30616767354	278498	886.08	591.64	11	70	-1	12.83	12.83
Saccade L	1	2	30616767354	30616866728	99374	888.71	559.49	937.98	167.04	6.12	182.03	0.20	61.56	4205.01	-3738.41	2169.44
Saccade R	1	2	30616767354	30616866728	99374	888.71	559.49	937.98	167.04	6.12	182.03	0.20	61.56	4205.01	-3738.41	2169.44
Fixation L	1	3	30616866728	30617145211	278483	956.94	168.28	31	46	-1	11.75	11.75
Fixation R	1	3	30616866728	30617145211	278483	956.94	168.28	31	46	-1	12.31	12.31
Saccade L	1	3	30617145211	30617184956	39745	966.68	177.02	1330.72	416.06	3.87	288.52	1.00	97.39	7162.94	-6598.98	5282.47
Saccade R	1	3	30617145211	30617184956	39745	966.68	177.02	1330.72	416.06	3.87	288.52	1.00	97.39	7162.94	-6598.98	5282.47
Fixation L	1	4	30617184956	30617423706	238750	1315.81	391.29	23	40	-1	12.94	12.94
Fixation R	1	4	30617184956	30617423706	238750	1315.81	391.29	23	40	-1	13.26	13.26
Saccade L	1	4	30617423706	30617463448	39742	1319.24	376.00	994.49	606.35	3.36	303.73	0.50	84.46	7474.81	-7376.54	4841.23
Saccade R	1	4	30617423706	30617463448	39742	1319.24	376.00	994.49	606.35	3.36	303.73	0.50	84.46	7474.81	-7376.54	4841.23
Fixation L	1	5	30617463448	30617702192	238744	977.96	596.78	32	25	-1	13.67	13.67
Fixation R	1	5	30617463448	30617702192	238744	977.96	596.78	32	25	-1	14.05	14.05
Saccade L	1	5	30617702192	30617741938	39746	962.41	609.08	717.44	948.00	3.75	256.76	0.50	94.39	6238.81	-6260.14	5539.92
Saccade R	1	5	30617702192	30617741938	39746	962.41	609.08	717.44	948.00	3.75	256.76	0.50	94.39	6238.81	-6260.14	5539.92
Fixation L	1	6	30617741938	30618239167	497229	714.26	974.02	32	50	-1	12.86	12.86
Fixation R	1	6	30617741938	30618239167	497229	714.26	974.02	32	50	-1	14.04	14.04
Blink L	1	1	30618239167	30618378405	139238
Blink R	1	1	30618239167	30618378405	139238
Blink L	1	2	30618398296	30618577274	178978
Blink R	1	2	30618398296	30618577274	178978
Blink L	1	3	30618597149	30618796141	198992
Blink R	1	3	30618597149	30618796141	198992
Blink L	1	4	30618816012	30619233742	417730
Blink R	1	4	30618816012	30619233742	417730
Blink L	1	5	30619233742	30619452483	218741
Blink R	1	5	30619233742	30619452483	218741
Saccade L	1	6	30619452483	30619571854	119371	940.30	714.40	937.27	519.34	3.77	85.84	1.00	31.60	1898.53	-2003.81	1037.69
Saccade R	1	6	30619452483	30619571854	119371	940.30	714.40	937.27	519.34	3.77	85.84	1.00	31.60	1898.53	-2003.81	1037.69
Fixation L	1	7	30619571854	30619870216	298362	936.80	526.20	10	27	-1	12.46	12.46
Fixation R	1	7	30619571854	30619870216	298362	936.80	526.20	10	27	-1	12.82	12.82
Saccade L	1	7	30619870216	30619890090	19874	931.69	523.20	691.17	526.42	1.30	243.19	1.00	65.58	5973.13	-5349.08	3804.86
Saccade R	1	7	30619870216	30619890090	19874	931.69	523.20	691.17	526.42	1.30	243.19	1.00	65.58	5973.13	-5349.08	3804.86
Fixation L	1	8	30619890090	30620009465	119375	669.40	534.61	34	32	-1	12.08	12.08
Fixation R	1	8	30619890090	30620009465	119375	669.40	534.61	34	32	-1	12.92	12.92
