[BeGaze]
Converted from:	C:\Documents and Settings\iViewX\Desktop\EXPERIMENTATIONS\Experiments\results\finaleart\S14F27123-finaleart-1.idf
Date:	27.03.2019 15:43:44
Version:	BeGaze 2.5.77
Sample Rate:	50
Subject:	S14F27123
Description:	Anne-flore Perrin

Table Header for Fixations:
Event Type	Trial	Number	Start	End	Duration	Location X	Location Y	Dispersion X	Dispersion Y	Plane	Avg. Pupil Size X	Avg. Pupil Size Y

Table Header for Saccades:
Event Type	Trial	Number	Start	End	Duration	Start Loc.X	Start Loc.Y	End Loc.X	End Loc.Y	Amplitude	Peak Speed	Peak Speed At	Average Speed	Peak Accel.	Peak Decel.	Average Accel.

Table Header for Blinks:
Event Type	Trial	Number	Start	End	Duration

Table Header for User Events:
Event Type	Trial	Number	Start	Description

UserEvent	1	1	31402461349	# Message: after_a_rain_country_road_Vasilyev_1869.jpg
Fixation L	1	1	31402471221	31402948568	477347	800.33	667.75	11	87	-1	12.04	12.04
Fixation R	1	1	31402471221	31402948568	477347	800.33	667.75	11	87	-1	11.10	11.10
Saccade L	1	1	31402948568	31402968439	19871	801.65	740.17	803.66	764.89	0.50	70.75	0.00	25.40	531.01	-1721.05	897.27
Saccade R	1	1	31402948568	31402968439	19871	801.65	740.17	803.66	764.89	0.50	70.75	0.00	25.40	531.01	-1721.05	897.27
Fixation L	1	2	31402968439	31403147434	178995	805.35	752.62	5	80	-1	10.69	10.69
Fixation R	1	2	31402968439	31403147434	178995	805.35	752.62	5	80	-1	9.73	9.73
Saccade L	1	2	31403147434	31403167309	19875	808.92	715.08	811.32	676.72	0.69	45.85	1.00	34.51	664.47	121.46	355.47
Saccade R	1	2	31403147434	31403167309	19875	808.92	715.08	811.32	676.72	0.69	45.85	1.00	34.51	664.47	121.46	355.47
Fixation L	1	3	31403167309	31403286689	119380	809.53	697.64	9	49	-1	9.85	9.85
Fixation R	1	3	31403167309	31403286689	119380	809.53	697.64	9	49	-1	8.70	8.70
Saccade L	1	3	31403286689	31403326439	39750	807.70	716.86	579.27	698.15	2.54	170.28	1.00	63.98	3716.31	-4201.57	2541.00
Saccade R	1	3	31403286689	31403326439	39750	807.70	716.86	579.27	698.15	2.54	170.28	1.00	63.98	3716.31	-4201.57	2541.00
Fixation L	1	4	31403326439	31403505419	178980	542.37	670.98	50	47	-1	10.33	10.33
Fixation R	1	4	31403326439	31403505419	178980	542.37	670.98	50	47	-1	9.55	9.55
Saccade L	1	4	31403505419	31403525299	19880	528.50	652.94	527.34	641.14	0.16	11.99	1.00	8.15	106.63	-254.60	128.70
Saccade R	1	4	31403505419	31403525299	19880	528.50	652.94	527.34	641.14	0.16	11.99	1.00	8.15	106.63	-254.60	128.70
Fixation L	1	5	31403525299	31403764035	238736	520.14	624.35	38	37	-1	10.75	10.75
Fixation R	1	5	31403525299	31403764035	238736	520.14	624.35	38	37	-1	9.97	9.97
Saccade L	1	5	31403764035	31403783908	19873	549.90	640.10	830.44	726.73	1.79	296.76	1.00	90.08	7329.82	-7218.49	4914.13
Saccade R	1	5	31403764035	31403783908	19873	549.90	640.10	830.44	726.73	1.79	296.76	1.00	90.08	7329.82	-7218.49	4914.13
Fixation L	1	6	31403783908	31403943025	159117	806.06	741.98	31	39	-1	11.10	11.10
Fixation R	1	6	31403783908	31403943025	159117	806.06	741.98	31	39	-1	10.08	10.08
Saccade L	1	6	31403943025	31403982777	39752	799.23	765.75	799.19	741.09	1.55	92.70	0.50	38.91	2126.12	-1985.50	1563.24
Saccade R	1	6	31403943025	31403982777	39752	799.23	765.75	799.19	741.09	1.55	92.70	0.50	38.91	2126.12	-1985.50	1563.24
Fixation L	1	7	31403982777	31404082273	99496	798.51	758.12	7	44	-1	11.33	11.33
Fixation R	1	7	31403982777	31404082273	99496	798.51	758.12	7	44	-1	10.50	10.50
Saccade L	1	7	31404082273	31404102150	19877	795.64	773.16	872.02	782.62	0.47	77.85	1.00	23.49	1890.53	-1746.11	1264.45
Saccade R	1	7	31404082273	31404102150	19877	795.64	773.16	872.02	782.62	0.47	77.85	1.00	23.49	1890.53	-1746.11	1264.45
Fixation L	1	8	31404102150	31404539750	437600	883.04	795.92	17	38	-1	11.88	11.88
Fixation R	1	8	31404102150	31404539750	437600	883.04	795.92	17	38	-1	11.00	11.00
Saccade L	1	8	31404539750	31404599372	59622	878.86	821.16	1242.70	734.39	4.13	221.43	0.67	69.27	5332.85	-5413.73	3090.97
Saccade R	1	8	31404539750	31404599372	59622	878.86	821.16	1242.70	734.39	4.13	221.43	0.67	69.27	5332.85	-5413.73	3090.97
Fixation L	1	9	31404599372	31404877865	278493	1262.56	736.28	62	35	-1	12.13	12.13
Fixation R	1	9	31404599372	31404877865	278493	1262.56	736.28	62	35	-1	11.01	11.01
Saccade L	1	9	31404877865	31404897738	19873	1305.17	718.72	1309.65	727.46	0.16	14.06	0.00	8.13	118.32	-268.96	145.52
Saccade R	1	9	31404877865	31404897738	19873	1305.17	718.72	1309.65	727.46	0.16	14.06	0.00	8.13	118.32	-268.96	145.52
Fixation L	1	10	31404897738	31404997246	99508	1311.79	717.23	7	21	-1	11.69	11.69
Fixation R	1	10	31404897738	31404997246	99508	1311.79	717.23	7	21	-1	10.72	10.72
Saccade L	1	10	31404997246	31405036984	39738	1313.62	709.55	1478.06	736.74	1.63	112.03	0.50	41.14	2520.75	-2637.64	1945.76
Saccade R	1	10	31404997246	31405036984	39738	1313.62	709.55	1478.06	736.74	1.63	112.03	0.50	41.14	2520.75	-2637.64	1945.76
Fixation L	1	11	31405036984	31405136472	99488	1486.88	743.89	38	55	-1	16.08	16.08
Fixation R	1	11	31405036984	31405136472	99488	1486.88	743.89	38	55	-1	10.14	10.14
Saccade L	1	11	31405136472	31405176220	39748	1486.42	754.65	1512.74	771.90	0.90	31.48	1.00	22.53	-64.90	-622.68	343.67
Saccade R	1	11	31405136472	31405176220	39748	1486.42	754.65	1512.74	771.90	0.90	31.48	1.00	22.53	-64.90	-622.68	343.67
Fixation L	1	12	31405176220	31405315477	139257	1517.31	763.63	13	69	-1	24.35	22.73
Fixation R	1	12	31405176220	31405315477	139257	1517.31	763.63	13	69	-1	10.56	10.56
Saccade L	1	12	31405315477	31405335343	19866	1513.77	777.44	1520.85	847.88	0.45	71.62	1.00	22.89	1593.38	-1208.23	936.01
Saccade R	1	12	31405315477	31405335343	19866	1513.77	777.44	1520.85	847.88	0.45	71.62	1.00	22.89	1593.38	-1208.23	936.01
Fixation L	1	13	31405335343	31405494456	159113	1516.64	844.75	41	48	-1	23.88	23.88
Fixation R	1	13	31405335343	31405494456	159113	1516.64	844.75	41	48	-1	10.83	10.83
Saccade L	1	13	31405494456	31405514331	19875	1485.89	850.28	1473.68	665.72	1.23	187.05	1.00	61.87	4548.90	-4193.21	2960.05
Saccade R	1	13	31405494456	31405514331	19875	1485.89	850.28	1473.68	665.72	1.23	187.05	1.00	61.87	4548.90	-4193.21	2960.05
Fixation L	1	14	31405514331	31405753076	238745	1471.97	659.83	37	18	-1	12.64	12.64
Fixation R	1	14	31405514331	31405753076	238745	1471.97	659.83	37	18	-1	11.42	11.42
Saccade L	1	14	31405753076	31405772950	19874	1460.29	657.13	1381.14	653.83	0.68	80.14	1.00	33.97	1972.27	-1902.44	1685.08
Saccade R	1	14	31405753076	31405772950	19874	1460.29	657.13	1381.14	653.83	0.68	80.14	1.00	33.97	1972.27	-1902.44	1685.08
Fixation L	1	15	31405772950	31405971815	198865	1346.80	616.29	41	48	-1	12.03	12.03
Fixation R	1	15	31405772950	31405971815	198865	1346.80	616.29	41	48	-1	10.99	10.99
Saccade L	1	15	31405971815	31406011567	39752	1339.73	610.40	1337.77	367.41	2.49	174.39	0.50	62.66	4232.15	-2847.46	2601.83
Saccade R	1	15	31405971815	31406011567	39752	1339.73	610.40	1337.77	367.41	2.49	174.39	0.50	62.66	4232.15	-2847.46	2601.83
Fixation L	1	16	31406011567	31406130934	119367	1335.77	320.72	5	59	-1	11.38	11.38
Fixation R	1	16	31406011567	31406130934	119367	1335.77	320.72	5	59	-1	10.24	10.24
Saccade L	1	16	31406130934	31406150805	19871	1332.55	322.79	1360.06	149.17	1.11	177.78	1.00	55.79	4381.80	-3373.82	2777.26
Saccade R	1	16	31406130934	31406150805	19871	1332.55	322.79	1360.06	149.17	1.11	177.78	1.00	55.79	4381.80	-3373.82	2777.26
Fixation L	1	17	31406150805	31406329802	178997	1402.50	137.30	67	31	-1	10.97	10.97
Fixation R	1	17	31406150805	31406329802	178997	1402.50	137.30	67	31	-1	9.86	9.86
Saccade L	1	17	31406329802	31406449168	119366	1404.46	130.11	861.78	293.52	9.28	302.38	0.67	77.75	7513.04	-6424.35	2936.79
Saccade R	1	17	31406329802	31406449168	119366	1404.46	130.11	861.78	293.52	9.28	302.38	0.67	77.75	7513.04	-6424.35	2936.79
