[BeGaze]
Converted from:	C:\Documents and Settings\iViewX\Desktop\EXPERIMENTATIONS\Experiments\results\finaleart\S14F27123-finaleart-1.idf
Date:	27.03.2019 15:43:46
Version:	BeGaze 2.5.77
Sample Rate:	50
Subject:	S14F27123
Description:	Anne-flore Perrin

Table Header for Fixations:
Event Type	Trial	Number	Start	End	Duration	Location X	Location Y	Dispersion X	Dispersion Y	Plane	Avg. Pupil Size X	Avg. Pupil Size Y

Table Header for Saccades:
Event Type	Trial	Number	Start	End	Duration	Start Loc.X	Start Loc.Y	End Loc.X	End Loc.Y	Amplitude	Peak Speed	Peak Speed At	Average Speed	Peak Accel.	Peak Decel.	Average Accel.

Table Header for Blinks:
Event Type	Trial	Number	Start	End	Duration

Table Header for User Events:
Event Type	Trial	Number	Start	Description

UserEvent	1	1	31420793357	# Message: stilleven-met-vis_dubois-pillet_1885.jpg
Fixation L	1	1	31420809921	31421287296	477375	852.38	644.93	11	30	-1	12.42	12.42
Fixation R	1	1	31420809921	31421287296	477375	852.38	644.93	11	30	-1	12.60	12.60
Saccade L	1	1	31421287296	31421307157	19861	858.16	657.82	847.90	783.91	0.85	127.96	1.00	42.58	3080.82	-2588.31	2197.66
Saccade R	1	1	31421287296	31421307157	19861	858.16	657.82	847.90	783.91	0.85	127.96	1.00	42.58	3080.82	-2588.31	2197.66
Fixation L	1	2	31421307157	31421525882	218725	820.41	765.76	41	44	-1	10.85	10.85
Fixation R	1	2	31421307157	31421525882	218725	820.41	765.76	41	44	-1	11.00	11.00
Saccade L	1	2	31421525882	31421585641	59759	806.11	746.32	538.01	797.80	3.21	166.11	1.00	53.79	3653.34	-4023.81	2660.70
Saccade R	1	2	31421525882	31421585641	59759	806.11	746.32	538.01	797.80	3.21	166.11	1.00	53.79	3653.34	-4023.81	2660.70
Fixation L	1	3	31421585641	31421764631	178990	545.48	814.82	19	23	-1	15.71	11.71
Fixation R	1	3	31421585641	31421764631	178990	545.48	814.82	19	23	-1	10.08	10.08
Fixation L	1	4	31421824250	31422102742	278492	977.23	783.61	36	55	-1	20.39	19.79
Fixation R	1	4	31421824250	31422102742	278492	977.23	783.61	36	55	-1	10.59	10.59
Saccade L	1	3	31422102742	31422122614	19872	999.13	756.46	1007.52	754.57	0.11	8.70	1.00	5.44	1.73	-147.32	77.00
Saccade R	1	3	31422102742	31422122614	19872	999.13	756.46	1007.52	754.57	0.11	8.70	1.00	5.44	1.73	-147.32	77.00
Fixation L	1	5	31422122614	31422222107	99493	1011.66	753.31	8	3	-1	21.31	18.31
Fixation R	1	5	31422122614	31422222107	99493	1011.66	753.31	8	3	-1	10.77	10.77
Blink L	1	1	31422222107	31422381223	159116
Blink R	1	1	31422222107	31422381223	159116
Fixation L	1	6	31422381223	31422480596	99373	436.18	1019.31	5	25	-1	17.66	17.66
Fixation R	1	6	31422381223	31422480596	99373	436.18	1019.31	5	25	-1	11.40	11.40
Blink L	1	2	31422480596	31422759081	278485
Blink R	1	2	31422480596	31422759081	278485
Fixation L	1	7	31422759081	31422918207	159126	584.09	320.41	11	28	-1	11.64	11.64
Fixation R	1	7	31422759081	31422918207	159126	584.09	320.41	11	28	-1	12.11	12.11
Saccade L	1	4	31422918207	31422977833	59626	583.10	317.07	1098.43	331.86	5.64	370.07	0.67	94.57	9249.09	-8461.09	4304.34
Saccade R	1	4	31422918207	31422977833	59626	583.10	317.07	1098.43	331.86	5.64	370.07	0.67	94.57	9249.09	-8461.09	4304.34
Fixation L	1	8	31422977833	31423136946	159113	1107.98	348.38	14	30	-1	11.89	11.89
Fixation R	1	8	31422977833	31423136946	159113	1107.98	348.38	14	30	-1	12.07	12.07
Saccade L	1	5	31423136946	31423156942	19996	1112.16	362.09	1247.82	193.81	1.32	218.56	1.00	66.19	5223.51	-5178.99	3696.02
Saccade R	1	5	31423136946	31423156942	19996	1112.16	362.09	1247.82	193.81	1.32	218.56	1.00	66.19	5223.51	-5178.99	3696.02
Fixation L	1	9	31423156942	31423634290	477348	1258.30	209.48	37	30	-1	11.21	11.21
Fixation R	1	9	31423156942	31423634290	477348	1258.30	209.48	37	30	-1	11.33	11.33
Saccade L	1	6	31423634290	31423693918	59628	1269.43	215.86	718.24	321.94	5.93	354.71	0.67	99.45	8770.11	-8529.96	4769.08
Saccade R	1	6	31423634290	31423693918	59628	1269.43	215.86	718.24	321.94	5.93	354.71	0.67	99.45	8770.11	-8529.96	4769.08
Fixation L	1	10	31423693918	31423952541	258623	697.67	317.52	26	29	-1	10.73	10.73
Fixation R	1	10	31423693918	31423952541	258623	697.67	317.52	26	29	-1	10.78	10.78
Saccade L	1	7	31423952541	31424032032	79491	698.47	318.93	1233.81	488.29	7.73	286.29	0.25	97.28	7099.99	-6901.54	4927.88
Saccade R	1	7	31423952541	31424032032	79491	698.47	318.93	1233.81	488.29	7.73	286.29	0.25	97.28	7099.99	-6901.54	4927.88
Fixation L	1	11	31424032032	31424270763	238731	1223.84	535.78	18	76	-1	11.41	11.41
Fixation R	1	11	31424032032	31424270763	238731	1223.84	535.78	18	76	-1	11.54	11.54
Saccade L	1	8	31424270763	31424290647	19884	1215.77	532.59	966.86	759.95	1.92	340.64	1.00	96.50	8367.90	-8079.65	5692.89
Saccade R	1	8	31424270763	31424290647	19884	1215.77	532.59	966.86	759.95	1.92	340.64	1.00	96.50	8367.90	-8079.65	5692.89
Fixation L	1	12	31424290647	31424549254	258607	964.61	814.54	16	69	-1	11.60	11.60
Fixation R	1	12	31424290647	31424549254	258607	964.61	814.54	16	69	-1	11.09	11.09
Saccade L	1	9	31424549254	31424569134	19880	957.94	823.74	854.83	810.01	0.73	105.21	1.00	36.52	2585.51	-1854.55	1754.52
Saccade R	1	9	31424549254	31424569134	19880	957.94	823.74	854.83	810.01	0.73	105.21	1.00	36.52	2585.51	-1854.55	1754.52
Fixation L	1	13	31424569134	31424787878	218744	867.50	776.78	19	51	-1	11.25	11.25
Fixation R	1	13	31424569134	31424787878	218744	867.50	776.78	19	51	-1	11.18	11.18
