[BeGaze]
Converted from:	C:\Documents and Settings\iViewX\Desktop\EXPERIMENTATIONS\Experiments\results\finaleart\S14F27123-finaleart-1.idf
Date:	27.03.2019 15:43:45
Version:	BeGaze 2.5.77
Sample Rate:	50
Subject:	S14F27123
Description:	Anne-flore Perrin

Table Header for Fixations:
Event Type	Trial	Number	Start	End	Duration	Location X	Location Y	Dispersion X	Dispersion Y	Plane	Avg. Pupil Size X	Avg. Pupil Size Y

Table Header for Saccades:
Event Type	Trial	Number	Start	End	Duration	Start Loc.X	Start Loc.Y	End Loc.X	End Loc.Y	Amplitude	Peak Speed	Peak Speed At	Average Speed	Peak Accel.	Peak Decel.	Average Accel.

Table Header for Blinks:
Event Type	Trial	Number	Start	End	Duration

Table Header for User Events:
Event Type	Trial	Number	Start	Description

UserEvent	1	1	31408588778	# Message: chase-a-study-in-curves-1890.jpg
Fixation L	1	1	31408597328	31408716711	119383	812.78	538.86	87	6	-1	12.60	12.60
Fixation R	1	1	31408597328	31408716711	119383	812.78	538.86	87	6	-1	13.30	13.30
Saccade L	1	1	31408716711	31408736604	19893	737.97	542.04	698.56	703.52	1.38	168.10	1.00	69.26	4128.11	-3065.58	2984.01
Saccade R	1	1	31408716711	31408736604	19893	737.97	542.04	698.56	703.52	1.38	168.10	1.00	69.26	4128.11	-3065.58	2984.01
Fixation L	1	2	31408736604	31408995054	258450	699.78	669.60	20	62	-1	13.01	13.01
Fixation R	1	2	31408736604	31408995054	258450	699.78	669.60	20	62	-1	13.30	13.30
Saccade L	1	2	31408995054	31409015058	20004	689.80	664.19	357.36	660.62	1.84	335.94	1.00	92.10	8329.99	-7987.82	5554.80
Saccade R	1	2	31408995054	31409015058	20004	689.80	664.19	357.36	660.62	1.84	335.94	1.00	92.10	8329.99	-7987.82	5554.80
Fixation L	1	3	31409015058	31409213920	198862	325.11	629.08	47	48	-1	12.66	12.66
Fixation R	1	3	31409015058	31409213920	198862	325.11	629.08	47	48	-1	13.12	13.12
Saccade L	1	3	31409213920	31409233797	19877	309.79	612.57	290.98	608.31	0.20	19.51	1.00	10.01	428.27	-318.90	327.20
Saccade R	1	3	31409213920	31409233797	19877	309.79	612.57	290.98	608.31	0.20	19.51	1.00	10.01	428.27	-318.90	327.20
Fixation L	1	4	31409233797	31409731029	497232	302.46	596.29	23	34	-1	12.46	12.46
Fixation R	1	4	31409233797	31409731029	497232	302.46	596.29	23	34	-1	12.96	12.96
Saccade L	1	4	31409731029	31409750901	19872	311.22	611.95	209.53	616.31	0.58	102.96	1.00	29.19	2452.88	-2523.38	1675.11
Saccade R	1	4	31409731029	31409750901	19872	311.22	611.95	209.53	616.31	0.58	102.96	1.00	29.19	2452.88	-2523.38	1675.11
Fixation L	1	5	31409750901	31409949906	199005	210.12	615.60	56	7	-1	12.15	12.15
Fixation R	1	5	31409750901	31409949906	199005	210.12	615.60	56	7	-1	13.03	13.03
Saccade L	1	5	31409949906	31409969764	19858	256.50	615.82	552.24	598.43	1.83	299.42	1.00	91.98	7384.98	-7291.48	5250.95
Saccade R	1	5	31409949906	31409969764	19858	256.50	615.82	552.24	598.43	1.83	299.42	1.00	91.98	7384.98	-7291.48	5250.95
Fixation L	1	6	31409969764	31410069140	99376	564.71	583.63	18	38	-1	12.47	12.47
Fixation R	1	6	31409969764	31410069140	99376	564.71	583.63	18	38	-1	13.20	13.20
Saccade L	1	6	31410069140	31410128882	59742	570.53	559.60	1071.32	639.52	5.44	362.44	0.67	91.06	8673.67	-8916.10	4278.09
Saccade R	1	6	31410069140	31410128882	59742	570.53	559.60	1071.32	639.52	5.44	362.44	0.67	91.06	8673.67	-8916.10	4278.09
Fixation L	1	7	31410128882	31410347624	218742	1067.12	672.72	8	45	-1	13.46	13.46
Fixation R	1	7	31410128882	31410347624	218742	1067.12	672.72	8	45	-1	13.73	13.73
Saccade L	1	7	31410347624	31410367500	19876	1063.58	677.95	985.67	530.99	1.06	168.22	1.00	53.14	4172.51	-3758.25	2952.96
Saccade R	1	7	31410347624	31410367500	19876	1063.58	677.95	985.67	530.99	1.06	168.22	1.00	53.14	4172.51	-3758.25	2952.96
Fixation L	1	8	31410367500	31410606244	238744	978.53	577.47	21	73	-1	13.51	13.51
Fixation R	1	8	31410367500	31410606244	238744	978.53	577.47	21	73	-1	13.62	13.62
Saccade L	1	8	31410606244	31410626111	19867	971.81	568.43	822.37	623.49	0.92	161.07	1.00	46.12	3987.27	-3748.28	2654.74
Saccade R	1	8	31410606244	31410626111	19867	971.81	568.43	822.37	623.49	0.92	161.07	1.00	46.12	3987.27	-3748.28	2654.74
Fixation L	1	9	31410626111	31410824976	198865	802.92	649.96	25	38	-1	13.73	13.73
Fixation R	1	9	31410626111	31410824976	198865	802.92	649.96	25	38	-1	13.82	13.82
Saccade L	1	9	31410824976	31410864737	39761	801.59	662.03	1356.34	788.13	4.83	343.30	0.50	121.37	8512.61	-7955.63	6966.65
Saccade R	1	9	31410824976	31410864737	39761	801.59	662.03	1356.34	788.13	4.83	343.30	0.50	121.37	8512.61	-7955.63	6966.65
Fixation L	1	10	31410864737	31411063718	198981	1330.27	797.26	54	16	-1	13.88	13.88
Fixation R	1	10	31410864737	31411063718	198981	1330.27	797.26	54	16	-1	14.00	14.00
Saccade L	1	10	31411063718	31411083609	19891	1369.77	791.20	1424.29	694.89	1.05	111.94	1.00	52.95	2657.52	-2170.33	1662.52
Saccade R	1	10	31411063718	31411083609	19891	1369.77	791.20	1424.29	694.89	1.05	111.94	1.00	52.95	2657.52	-2170.33	1662.52
Fixation L	1	11	31411083609	31411222836	139227	1440.61	673.81	34	28	-1	13.48	13.48
Fixation R	1	11	31411083609	31411222836	139227	1440.61	673.81	34	28	-1	13.29	13.29
Saccade L	1	11	31411222836	31411242724	19888	1442.34	666.53	1545.32	379.42	1.78	308.27	1.00	89.36	7494.88	-7396.25	5185.85
Saccade R	1	11	31411222836	31411242724	19888	1442.34	666.53	1545.32	379.42	1.78	308.27	1.00	89.36	7494.88	-7396.25	5185.85
Fixation L	1	12	31411242724	31411401834	159110	1523.21	423.83	37	62	-1	12.76	12.76
Fixation R	1	12	31411242724	31411401834	159110	1523.21	423.83	37	62	-1	13.01	13.01
Saccade L	1	12	31411401834	31411441576	39742	1514.44	441.60	1624.85	440.75	1.25	116.92	1.00	31.43	2658.38	-2551.24	1367.84
Saccade R	1	12	31411401834	31411441576	39742	1514.44	441.60	1624.85	440.75	1.25	116.92	1.00	31.43	2658.38	-2551.24	1367.84
Fixation L	1	13	31411441576	31411799688	358112	1622.81	476.33	13	54	-1	13.83	13.83
Fixation R	1	13	31411441576	31411799688	358112	1622.81	476.33	13	54	-1	13.73	13.73
Saccade L	1	13	31411799688	31411839437	39749	1618.83	491.27	1406.94	362.47	2.24	154.84	1.00	56.41	3557.69	-3807.97	2940.54
Saccade R	1	13	31411799688	31411839437	39749	1618.83	491.27	1406.94	362.47	2.24	154.84	1.00	56.41	3557.69	-3807.97	2940.54
Fixation L	1	14	31411839437	31412058181	218744	1409.77	348.33	22	54	-1	14.84	14.84
Fixation R	1	14	31411839437	31412058181	218744	1409.77	348.33	22	54	-1	14.41	14.41
Saccade L	1	14	31412058181	31412078050	19869	1421.42	310.06	1299.31	244.39	0.92	140.23	1.00	46.34	3430.57	-3292.34	2263.61
Saccade R	1	14	31412058181	31412078050	19869	1421.42	310.06	1299.31	244.39	0.92	140.23	1.00	46.34	3430.57	-3292.34	2263.61
Fixation L	1	15	31412078050	31412257164	179114	1299.33	256.14	22	16	-1	14.56	14.56
Fixation R	1	15	31412078050	31412257164	179114	1299.33	256.14	22	16	-1	14.42	14.42
Saccade L	1	15	31412257164	31412296915	39751	1294.96	258.62	972.86	322.11	2.92	220.25	0.50	73.39	5481.80	-4961.51	3674.98
Saccade R	1	15	31412257164	31412296915	39751	1294.96	258.62	972.86	322.11	2.92	220.25	0.50	73.39	5481.80	-4961.51	3674.98
Fixation L	1	16	31412296915	31412456032	159117	980.96	348.07	12	70	-1	14.64	14.64
Fixation R	1	16	31412296915	31412456032	159117	980.96	348.07	12	70	-1	14.79	14.79
Saccade L	1	16	31412456032	31412475914	19882	978.06	351.66	709.74	269.21	1.88	283.74	1.00	94.74	7078.78	-6233.47	5138.00
Saccade R	1	16	31412456032	31412475914	19882	978.06	351.66	709.74	269.21	1.88	283.74	1.00	94.74	7078.78	-6233.47	5138.00
Fixation L	1	17	31412475914	31412575401	99487	645.28	264.09	88	11	-1	14.04	14.04
Fixation R	1	17	31412475914	31412575401	99487	645.28	264.09	88	11	-1	14.80	14.80
