[BeGaze]
Converted from:	C:\Documents and Settings\iViewX\Desktop\EXPERIMENTATIONS\Experiments\results\finaleart\S14F27123-finaleart-1.idf
Date:	27.03.2019 15:43:04
Version:	BeGaze 2.5.77
Sample Rate:	50
Subject:	S14F27123
Description:	Anne-flore Perrin

Table Header for Fixations:
Event Type	Trial	Number	Start	End	Duration	Location X	Location Y	Dispersion X	Dispersion Y	Plane	Avg. Pupil Size X	Avg. Pupil Size Y

Table Header for Saccades:
Event Type	Trial	Number	Start	End	Duration	Start Loc.X	Start Loc.Y	End Loc.X	End Loc.Y	Amplitude	Peak Speed	Peak Speed At	Average Speed	Peak Accel.	Peak Decel.	Average Accel.

Table Header for Blinks:
Event Type	Trial	Number	Start	End	Duration

Table Header for User Events:
Event Type	Trial	Number	Start	Description

UserEvent	1	1	30567151886	# Message: landschaft_mit_dem_ondregenbogen_caspar_david_friedrich_1810.jpg
Fixation L	1	1	30567161395	30567658611	497216	799.18	544.07	7	22	-1	13.33	13.33
Fixation R	1	1	30567161395	30567658611	497216	799.18	544.07	7	22	-1	13.62	13.62
Saccade L	1	1	30567658611	30567678656	20045	801.72	561.37	905.03	684.99	0.94	162.94	1.00	47.11	3930.58	-3862.12	2661.27
Saccade R	1	1	30567658611	30567678656	20045	801.72	561.37	905.03	684.99	0.94	162.94	1.00	47.11	3930.58	-3862.12	2661.27
Fixation L	1	2	30567678656	30567777980	99324	898.79	695.93	8	29	-1	13.83	13.83
Fixation R	1	2	30567678656	30567777980	99324	898.79	695.93	8	29	-1	14.07	14.07
Saccade L	1	2	30567777980	30567797859	19879	897.10	714.01	800.94	549.84	1.13	192.40	1.00	56.86	4401.15	-4620.13	3060.31
Saccade R	1	2	30567777980	30567797859	19879	897.10	714.01	800.94	549.84	1.13	192.40	1.00	56.86	4401.15	-4620.13	3060.31
Fixation L	1	3	30567797859	30567917230	119371	793.47	532.62	11	26	-1	13.57	13.57
Fixation R	1	3	30567797859	30567917230	119371	793.47	532.62	11	26	-1	13.68	13.68
Saccade L	1	3	30567917230	30567956976	39746	789.76	523.77	854.71	349.26	1.69	128.18	0.50	42.63	3128.65	-2700.60	2143.07
Saccade R	1	3	30567917230	30567956976	39746	789.76	523.77	854.71	349.26	1.69	128.18	0.50	42.63	3128.65	-2700.60	2143.07
Fixation L	1	4	30567956976	30568136104	179128	879.59	355.08	34	25	-1	13.17	13.17
Fixation R	1	4	30567956976	30568136104	179128	879.59	355.08	34	25	-1	13.49	13.49
Saccade L	1	4	30568136104	30568155960	19856	885.32	358.61	1104.49	360.06	1.29	221.61	1.00	65.20	5173.50	-5261.58	3606.77
Saccade R	1	4	30568136104	30568155960	19856	885.32	358.61	1104.49	360.06	1.29	221.61	1.00	65.20	5173.50	-5261.58	3606.77
Fixation L	1	5	30568155960	30568295090	139130	1132.51	378.23	38	28	-1	12.93	12.93
Fixation R	1	5	30568155960	30568295090	139130	1132.51	378.23	38	28	-1	13.31	13.31
Saccade L	1	5	30568295090	30568334953	39863	1139.74	388.81	1467.45	529.95	3.48	330.41	1.00	87.31	7980.07	-7998.66	4328.08
Saccade R	1	5	30568295090	30568334953	39863	1139.74	388.81	1467.45	529.95	3.48	330.41	1.00	87.31	7980.07	-7998.66	4328.08
Fixation L	1	6	30568334953	30568513951	178998	1518.84	541.27	68	18	-1	12.83	12.83
Fixation R	1	6	30568334953	30568513951	178998	1518.84	541.27	68	18	-1	13.08	13.08
Saccade L	1	6	30568513951	30568553700	39749	1498.94	548.76	1075.15	562.72	3.81	412.65	0.50	95.75	10244.44	-9773.64	5091.13
Saccade R	1	6	30568513951	30568553700	39749	1498.94	548.76	1075.15	562.72	3.81	412.65	0.50	95.75	10244.44	-9773.64	5091.13
Fixation L	1	7	30568553700	30568772440	218740	1044.49	601.66	40	59	-1	13.37	13.37
Fixation R	1	7	30568553700	30568772440	218740	1044.49	601.66	40	59	-1	12.96	12.96
Saccade L	1	7	30568772440	30568792433	19993	1034.88	614.71	982.89	601.07	0.44	54.38	1.00	22.14	1233.59	-1154.78	1001.59
Saccade R	1	7	30568772440	30568792433	19993	1034.88	614.71	982.89	601.07	0.44	54.38	1.00	22.14	1233.59	-1154.78	1001.59
Fixation L	1	8	30568792433	30569011176	218743	954.08	624.12	35	30	-1	13.68	13.68
Fixation R	1	8	30568792433	30569011176	218743	954.08	624.12	35	30	-1	13.56	13.56
Saccade L	1	8	30569011176	30569070804	59628	949.28	631.37	952.62	1060.15	4.79	257.74	0.67	80.38	6377.73	-5927.31	3516.88
Saccade R	1	8	30569011176	30569070804	59628	949.28	631.37	952.62	1060.15	4.79	257.74	0.67	80.38	6377.73	-5927.31	3516.88
Fixation L	1	9	30569070804	30569249792	178988	965.95	1075.85	52	20	-1	14.14	14.14
Fixation R	1	9	30569070804	30569249792	178988	965.95	1075.85	52	20	-1	14.61	14.61
Saccade L	1	9	30569249792	30569269788	19996	1001.48	1075.12	1053.63	1064.21	0.54	53.90	1.00	27.23	1240.93	-671.12	651.89
Saccade R	1	9	30569249792	30569269788	19996	1001.48	1075.12	1053.63	1064.21	0.54	53.90	1.00	27.23	1240.93	-671.12	651.89
Fixation L	1	10	30569269788	30569468668	198880	1053.80	1043.60	34	53	-1	14.75	14.75
Fixation R	1	10	30569269788	30569468668	198880	1053.80	1043.60	34	53	-1	14.40	14.40
Saccade L	1	10	30569468668	30569488525	19857	1059.49	1013.22	1061.45	998.50	0.41	29.10	1.00	20.60	140.45	5.91	52.92
Saccade R	1	10	30569468668	30569488525	19857	1059.49	1013.22	1061.45	998.50	0.41	29.10	1.00	20.60	140.45	5.91	52.92
Fixation L	1	11	30569488525	30569627781	139256	1058.55	992.98	5	39	-1	21.34	21.34
Fixation R	1	11	30569488525	30569627781	139256	1058.55	992.98	5	39	-1	13.89	13.89
Saccade L	1	11	30569687398	30569767017	79619	1066.31	1017.30	709.38	1027.38	21.06	1446.40	1.00	264.57	6790.06	-36067.41	8958.69
Saccade R	1	11	30569687398	30569767017	79619	1066.31	1017.30	709.38	1027.38	21.06	1446.40	1.00	264.57	6790.06	-36067.41	8958.69
Fixation L	1	12	30569767017	30570065394	298377	700.08	1029.95	41	15	-1	18.89	18.89
Fixation R	1	12	30569767017	30570065394	298377	700.08	1029.95	41	15	-1	14.20	14.20
Saccade L	1	12	30570065394	30570085261	19867	729.24	1021.79	924.55	866.50	1.61	252.26	1.00	81.27	6161.53	-6102.22	4258.07
Saccade R	1	12	30570065394	30570085261	19867	729.24	1021.79	924.55	866.50	1.61	252.26	1.00	81.27	6161.53	-6102.22	4258.07
Fixation L	1	13	30570085261	30570264248	178987	947.03	827.62	38	53	-1	16.97	16.97
Fixation R	1	13	30570085261	30570264248	178987	947.03	827.62	38	53	-1	14.25	14.25
Saccade L	1	13	30570264248	30570303991	39743	950.20	828.81	958.12	724.33	1.04	59.45	1.00	26.20	1240.30	-1151.39	1093.11
Saccade R	1	13	30570264248	30570303991	39743	950.20	828.81	958.12	724.33	1.04	59.45	1.00	26.20	1240.30	-1151.39	1093.11
Fixation L	1	14	30570303991	30570443241	139250	958.17	694.84	3	44	-1	14.36	14.36
Fixation R	1	14	30570303991	30570443241	139250	958.17	694.84	3	44	-1	15.09	15.09
Saccade L	1	14	30570443241	30570482986	39745	959.24	679.66	652.54	707.17	2.70	249.96	0.50	67.91	6117.39	-5907.18	3777.45
Saccade R	1	14	30570443241	30570482986	39745	959.24	679.66	652.54	707.17	2.70	249.96	0.50	67.91	6117.39	-5907.18	3777.45
Fixation L	1	15	30570482986	30570662112	179126	643.33	708.79	14	28	-1	15.11	15.11
Fixation R	1	15	30570482986	30570662112	179126	643.33	708.79	14	28	-1	15.48	15.48
Saccade L	1	15	30570662112	30570681978	19866	639.91	721.35	704.14	393.00	1.84	338.07	1.00	92.54	8261.09	-7960.97	5536.63
Saccade R	1	15	30570662112	30570681978	19866	639.91	721.35	704.14	393.00	1.84	338.07	1.00	92.54	8261.09	-7960.97	5536.63
Fixation L	1	16	30570681978	30570860966	178988	706.67	378.28	40	32	-1	14.73	14.73
Fixation R	1	16	30570681978	30570860966	178988	706.67	378.28	40	32	-1	15.23	15.23
Saccade L	1	16	30570860966	30570880851	19885	725.42	360.30	796.77	192.85	1.17	184.07	1.00	58.78	4518.05	-4360.15	3049.13
Saccade R	1	16	30570860966	30570880851	19885	725.42	360.30	796.77	192.85	1.17	184.07	1.00	58.78	4518.05	-4360.15	3049.13
Fixation L	1	17	30570880851	30571079710	198859	816.21	205.78	26	29	-1	14.03	14.03
Fixation R	1	17	30570880851	30571079710	198859	816.21	205.78	26	29	-1	14.61	14.61
Saccade L	1	17	30571079710	30571139458	59748	816.64	201.49	1171.48	184.83	5.34	307.82	0.67	89.35	7571.56	-388.32	2355.37
Saccade R	1	17	30571079710	30571139458	59748	816.64	201.49	1171.48	184.83	5.34	307.82	0.67	89.35	7571.56	-388.32	2355.37
