[BeGaze]
Converted from:	C:\Documents and Settings\iViewX\Desktop\EXPERIMENTATIONS\Experiments\results\finaleart\S14F27123-finaleart-1.idf
Date:	27.03.2019 15:43:06
Version:	BeGaze 2.5.77
Sample Rate:	50
Subject:	S14F27123
Description:	Anne-flore Perrin

Table Header for Fixations:
Event Type	Trial	Number	Start	End	Duration	Location X	Location Y	Dispersion X	Dispersion Y	Plane	Avg. Pupil Size X	Avg. Pupil Size Y

Table Header for Saccades:
Event Type	Trial	Number	Start	End	Duration	Start Loc.X	Start Loc.Y	End Loc.X	End Loc.Y	Amplitude	Peak Speed	Peak Speed At	Average Speed	Peak Accel.	Peak Decel.	Average Accel.

Table Header for Blinks:
Event Type	Trial	Number	Start	End	Duration

Table Header for User Events:
Event Type	Trial	Number	Start	Description

UserEvent	1	1	30585486492	# Message: garlic-cloves-and-knife-on-the-corner-of-a-table_caillebotte_1871.jpg
Fixation L	1	1	30585500096	30585937699	437603	809.18	703.11	20	58	-1	12.78	12.78
Fixation R	1	1	30585500096	30585937699	437603	809.18	703.11	20	58	-1	13.06	13.06
Saccade L	1	1	30585937699	30585957564	19865	819.99	708.32	637.10	708.45	1.31	184.96	1.00	65.73	4552.62	-4419.37	3503.52
Saccade R	1	1	30585937699	30585957564	19865	819.99	708.32	637.10	708.45	1.31	184.96	1.00	65.73	4552.62	-4419.37	3503.52
Fixation L	1	2	30585957564	30586295682	338118	575.58	713.64	75	11	-1	13.20	13.20
Fixation R	1	2	30585957564	30586295682	338118	575.58	713.64	75	11	-1	12.81	12.81
Saccade L	1	2	30586295682	30586315559	19877	583.61	716.00	734.40	812.66	1.26	181.12	1.00	63.44	4477.71	-3633.41	3165.07
Saccade R	1	2	30586295682	30586315559	19877	583.61	716.00	734.40	812.66	1.26	181.12	1.00	63.44	4477.71	-3633.41	3165.07
Fixation L	1	3	30586315559	30586454794	139235	733.87	783.93	15	61	-1	13.91	13.91
Fixation R	1	3	30586315559	30586454794	139235	733.87	783.93	15	61	-1	14.05	14.05
Saccade L	1	3	30586454794	30586494536	39742	741.07	785.45	1118.87	772.36	3.22	208.95	0.50	81.11	5003.15	-5054.98	4403.51
Saccade R	1	3	30586454794	30586494536	39742	741.07	785.45	1118.87	772.36	3.22	208.95	0.50	81.11	5003.15	-5054.98	4403.51
Fixation L	1	4	30586494536	30586693535	198999	1142.58	739.19	31	47	-1	14.09	14.09
Fixation R	1	4	30586494536	30586693535	198999	1142.58	739.19	31	47	-1	14.27	14.27
Saccade L	1	4	30586693535	30586733304	39769	1147.79	724.40	1383.42	646.17	2.17	151.53	0.50	54.57	3720.21	-3433.95	3021.57
Saccade R	1	4	30586693535	30586733304	39769	1147.79	724.40	1383.42	646.17	2.17	151.53	0.50	54.57	3720.21	-3433.95	3021.57
Fixation L	1	5	30586733304	30587051516	318212	1363.70	661.16	31	27	-1	13.12	13.12
Fixation R	1	5	30586733304	30587051516	318212	1363.70	661.16	31	27	-1	13.09	13.09
Saccade L	1	5	30587051516	30587150884	99368	1351.61	673.74	1386.20	906.37	24.74	1630.02	1.00	248.96	40294.18	-4390.37	7697.59
Saccade R	1	5	30587051516	30587150884	99368	1351.61	673.74	1386.20	906.37	24.74	1630.02	1.00	248.96	40294.18	-4390.37	7697.59
Blink L	1	1	30587150884	30587230528	79644
Blink R	1	1	30587150884	30587230528	79644
Saccade L	1	6	30587230528	30587349878	119350	1386.46	917.08	889.68	975.07	28.89	1629.24	1.00	242.04	8891.15	-40539.27	8152.41
Saccade R	1	6	30587230528	30587349878	119350	1386.46	917.08	889.68	975.07	28.89	1629.24	1.00	242.04	8891.15	-40539.27	8152.41
Fixation L	1	6	30587349878	30587489134	139256	895.97	991.92	10	29	-1	17.76	17.76
Fixation R	1	6	30587349878	30587489134	139256	895.97	991.92	10	29	-1	14.70	14.70
Saccade L	1	7	30587489134	30587528871	39737	897.56	1004.71	890.81	501.24	4.16	307.85	0.50	104.69	7523.94	-7612.75	6249.27
Saccade R	1	7	30587489134	30587528871	39737	897.56	1004.71	890.81	501.24	4.16	307.85	0.50	104.69	7523.94	-7612.75	6249.27
Fixation L	1	7	30587528871	30587648250	119379	880.09	522.45	29	49	-1	14.89	14.89
Fixation R	1	7	30587528871	30587648250	119379	880.09	522.45	29	49	-1	15.00	15.00
Saccade L	1	8	30587648250	30587688002	39752	861.77	541.09	959.55	277.51	2.64	163.44	0.50	66.48	3763.77	-3693.54	3418.08
Saccade R	1	8	30587648250	30587688002	39752	861.77	541.09	959.55	277.51	2.64	163.44	0.50	66.48	3763.77	-3693.54	3418.08
Fixation L	1	8	30587688002	30587986366	298364	971.50	288.86	15	15	-1	14.49	14.49
Fixation R	1	8	30587688002	30587986366	298364	971.50	288.86	15	15	-1	15.04	15.04
Saccade L	1	9	30587986366	30588026106	39740	972.64	285.23	713.29	290.56	2.35	175.85	1.00	59.02	4366.21	-4274.21	3401.58
Saccade R	1	9	30587986366	30588026106	39740	972.64	285.23	713.29	290.56	2.35	175.85	1.00	59.02	4366.21	-4274.21	3401.58
Fixation L	1	9	30588026106	30588344333	318227	703.88	288.88	16	48	-1	14.72	14.72
Fixation R	1	9	30588026106	30588344333	318227	703.88	288.88	16	48	-1	15.24	15.24
Saccade L	1	10	30588344333	30588423959	79626	700.53	272.22	632.04	957.16	9.84	308.77	0.50	123.60	7711.14	-6072.96	4685.69
Saccade R	1	10	30588344333	30588423959	79626	700.53	272.22	632.04	957.16	9.84	308.77	0.50	123.60	7711.14	-6072.96	4685.69
Fixation L	1	10	30588423959	30588702323	278364	647.62	967.62	26	40	-1	14.72	14.72
Fixation R	1	10	30588423959	30588702323	278364	647.62	967.62	26	40	-1	14.93	14.93
Saccade L	1	11	30588702323	30588742195	39872	648.85	976.44	655.85	777.75	1.66	131.18	1.00	41.73	3255.76	-3095.82	2420.71
Saccade R	1	11	30588702323	30588742195	39872	648.85	976.44	655.85	777.75	1.66	131.18	1.00	41.73	3255.76	-3095.82	2420.71
Fixation L	1	11	30588742195	30589120053	377858	672.03	773.79	22	17	-1	14.13	14.13
Fixation R	1	11	30588742195	30589120053	377858	672.03	773.79	22	17	-1	14.54	14.54
Saccade L	1	12	30589120053	30589139925	19872	674.15	775.18	676.87	657.08	0.87	119.49	1.00	43.89	2821.74	-2340.81	2101.25
Saccade R	1	12	30589120053	30589139925	19872	674.15	775.18	676.87	657.08	0.87	119.49	1.00	43.89	2821.74	-2340.81	2101.25
Fixation L	1	12	30589139925	30589338792	198867	694.08	668.96	32	47	-1	14.16	14.16
Fixation R	1	12	30589139925	30589338792	198867	694.08	668.96	32	47	-1	14.83	14.83
Saccade L	1	13	30589338792	30589378675	39883	707.69	665.50	1058.86	673.09	3.05	190.75	1.00	76.36	4541.78	-4562.05	4223.09
Saccade R	1	13	30589338792	30589378675	39883	707.69	665.50	1058.86	673.09	3.05	190.75	1.00	76.36	4541.78	-4562.05	4223.09
Fixation L	1	13	30589378675	30589478037	99362	1064.45	675.69	12	7	-1	14.34	14.34
Fixation R	1	13	30589378675	30589478037	99362	1064.45	675.69	12	7	-1	14.96	14.96
