[BeGaze]
Converted from:	C:\Documents and Settings\iViewX\Desktop\EXPERIMENTATIONS\Experiments\results\finaleart\S14F27123-finaleart-1.idf
Date:	27.03.2019 15:43:02
Version:	BeGaze 2.5.77
Sample Rate:	50
Subject:	S14F27123
Description:	Anne-flore Perrin

Table Header for Fixations:
Event Type	Trial	Number	Start	End	Duration	Location X	Location Y	Dispersion X	Dispersion Y	Plane	Avg. Pupil Size X	Avg. Pupil Size Y

Table Header for Saccades:
Event Type	Trial	Number	Start	End	Duration	Start Loc.X	Start Loc.Y	End Loc.X	End Loc.Y	Amplitude	Peak Speed	Peak Speed At	Average Speed	Peak Accel.	Peak Decel.	Average Accel.

Table Header for Blinks:
Event Type	Trial	Number	Start	End	Duration

Table Header for User Events:
Event Type	Trial	Number	Start	Description

UserEvent	1	1	30552892977	# Message: void.jpg
Fixation L	1	1	30552900135	30553079258	179123	498.33	1090.11	20	12	-1	21.77	21.77
Fixation R	1	1	30552900135	30553079258	179123	498.33	1090.11	20	12	-1	14.22	14.22
Saccade L	1	1	30553079258	30553138895	59637	497.73	1087.32	382.75	486.90	6.59	304.40	0.67	110.43	7554.28	-6713.63	4422.60
Saccade R	1	1	30553079258	30553138895	59637	497.73	1087.32	382.75	486.90	6.59	304.40	0.67	110.43	7554.28	-6713.63	4422.60
Fixation L	1	2	30553138895	30553397479	258584	400.32	501.27	29	25	-1	14.28	14.28
Fixation R	1	2	30553138895	30553397479	258584	400.32	501.27	29	25	-1	14.40	14.40
Blink L	1	1	30553397479	30553616222	218743
Blink R	1	1	30553397479	30553616222	218743
Blink L	1	2	30553636096	30553815088	178992
Blink R	1	2	30553636096	30553815088	178992
Fixation L	1	3	30553815088	30554650553	835465	692.40	657.52	45	25	-1	14.48	14.48
Fixation R	1	3	30553815088	30554650553	835465	692.40	657.52	45	25	-1	14.58	14.58
Saccade L	1	2	30554650553	30554670422	19869	683.34	665.65	871.01	716.83	1.16	196.71	1.00	58.58	4845.59	-4343.89	3314.93
Saccade R	1	2	30554650553	30554670422	19869	683.34	665.65	871.01	716.83	1.16	196.71	1.00	58.58	4845.59	-4343.89	3314.93
Fixation L	1	4	30554670422	30554889161	218739	877.24	751.95	17	46	-1	14.27	14.27
Fixation R	1	4	30554670422	30554889161	218739	877.24	751.95	17	46	-1	14.44	14.44
