[BeGaze]
Converted from:	C:\Documents and Settings\iViewX\Desktop\EXPERIMENTATIONS\Experiments\results\finaleart\S14F27123-finaleart-1.idf
Date:	27.03.2019 15:43:48
Version:	BeGaze 2.5.77
Sample Rate:	50
Subject:	S14F27123
Description:	Anne-flore Perrin

Table Header for Fixations:
Event Type	Trial	Number	Start	End	Duration	Location X	Location Y	Dispersion X	Dispersion Y	Plane	Avg. Pupil Size X	Avg. Pupil Size Y

Table Header for Saccades:
Event Type	Trial	Number	Start	End	Duration	Start Loc.X	Start Loc.Y	End Loc.X	End Loc.Y	Amplitude	Peak Speed	Peak Speed At	Average Speed	Peak Accel.	Peak Decel.	Average Accel.

Table Header for Blinks:
Event Type	Trial	Number	Start	End	Duration

Table Header for User Events:
Event Type	Trial	Number	Start	Description

UserEvent	1	1	31461861333	# Message: REJECTED_after-the-bath_degas_1885.jpg
Fixation L	1	1	31461863019	31462061882	198863	936.52	668.79	9	14	-1	14.01	14.01
Fixation R	1	1	31461863019	31462061882	198863	936.52	668.79	9	14	-1	14.25	14.25
Blink L	1	1	31462061882	31462280617	218735
Blink R	1	1	31462061882	31462280617	218735
Fixation L	1	2	31462340401	31462459737	119336	751.00	746.76	9	56	-1	14.53	14.53
Fixation R	1	2	31462340401	31462459737	119336	751.00	746.76	9	56	-1	16.21	16.21
Saccade L	1	1	31462459737	31462479616	19879	746.23	741.05	456.81	613.22	1.94	319.74	1.00	97.67	7580.37	-7923.47	5399.14
Saccade R	1	1	31462459737	31462479616	19879	746.23	741.05	456.81	613.22	1.94	319.74	1.00	97.67	7580.37	-7923.47	5399.14
Fixation L	1	3	31462479616	31462678484	198868	448.77	627.05	18	19	-1	12.49	12.49
Fixation R	1	3	31462479616	31462678484	198868	448.77	627.05	18	19	-1	12.66	12.66
Saccade L	1	2	31462678484	31462698352	19868	437.90	630.22	322.51	508.52	1.16	169.60	1.00	58.47	4116.49	-3674.07	2926.07
Saccade R	1	2	31462678484	31462698352	19868	437.90	630.22	322.51	508.52	1.16	169.60	1.00	58.47	4116.49	-3674.07	2926.07
Fixation L	1	4	31462698352	31463116090	417738	297.60	480.00	43	49	-1	11.41	11.41
Fixation R	1	4	31462698352	31463116090	417738	297.60	480.00	43	49	-1	11.90	11.90
Saccade L	1	3	31463116090	31463195593	79503	306.24	460.75	374.34	193.49	3.37	172.08	0.75	42.33	4016.10	-3992.21	2116.06
Saccade R	1	3	31463116090	31463195593	79503	306.24	460.75	374.34	193.49	3.37	172.08	0.75	42.33	4016.10	-3992.21	2116.06
Fixation L	1	5	31463195593	31463434329	238736	397.46	177.61	64	29	-1	10.93	10.93
Fixation R	1	5	31463195593	31463434329	238736	397.46	177.61	64	29	-1	11.74	11.74
Saccade L	1	4	31463434329	31463474070	39741	439.32	188.24	987.97	277.18	5.08	399.69	0.50	127.91	9900.24	-9187.82	6547.63
Saccade R	1	4	31463434329	31463474070	39741	439.32	188.24	987.97	277.18	5.08	399.69	0.50	127.91	9900.24	-9187.82	6547.63
Fixation L	1	6	31463474070	31463613310	139240	988.47	275.58	8	55	-1	12.14	12.14
Fixation R	1	6	31463474070	31463613310	139240	988.47	275.58	8	55	-1	12.59	12.59
Saccade L	1	5	31463613310	31463653054	39744	993.43	262.57	1470.60	307.54	4.01	350.11	0.50	100.95	8676.21	-8652.20	5906.76
Saccade R	1	5	31463613310	31463653054	39744	993.43	262.57	1470.60	307.54	4.01	350.11	0.50	100.95	8676.21	-8652.20	5906.76
Fixation L	1	7	31463653054	31463832065	179011	1462.29	332.08	22	53	-1	11.99	11.99
Fixation R	1	7	31463653054	31463832065	179011	1462.29	332.08	22	53	-1	12.85	12.85
Saccade L	1	6	31463832065	31463891802	59737	1451.87	355.37	1755.03	708.74	5.85	332.47	0.67	97.98	8226.24	-8092.04	4578.23
Saccade R	1	6	31463832065	31463891802	59737	1451.87	355.37	1755.03	708.74	5.85	332.47	0.67	97.98	8226.24	-8092.04	4578.23
Fixation L	1	8	31463891802	31464170292	278490	1725.51	724.05	54	27	-1	11.98	11.98
Fixation R	1	8	31463891802	31464170292	278490	1725.51	724.05	54	27	-1	11.73	11.73
Saccade L	1	7	31464170292	31464210042	39750	1700.73	736.42	1430.65	948.18	2.90	240.27	0.50	73.01	5956.98	-5797.92	4120.39
Saccade R	1	7	31464170292	31464210042	39750	1700.73	736.42	1430.65	948.18	2.90	240.27	0.50	73.01	5956.98	-5797.92	4120.39
Fixation L	1	9	31464210042	31464389036	178994	1451.42	928.85	31	33	-1	12.07	12.07
Fixation R	1	9	31464210042	31464389036	178994	1451.42	928.85	31	33	-1	11.54	11.54
Saccade L	1	8	31464389036	31464448659	59623	1455.19	929.21	823.73	1064.76	6.79	418.03	0.67	113.94	10239.47	-10130.01	5556.67
Saccade R	1	8	31464389036	31464448659	59623	1455.19	929.21	823.73	1064.76	6.79	418.03	0.67	113.94	10239.47	-10130.01	5556.67
Fixation L	1	10	31464448659	31464627778	179119	819.41	1075.59	27	15	-1	12.02	12.02
Fixation R	1	10	31464448659	31464627778	179119	819.41	1075.59	27	15	-1	12.24	12.24
Saccade L	1	9	31464627778	31464647648	19870	803.48	1075.71	563.33	1054.90	1.54	243.71	1.00	77.46	5971.49	-5687.59	4239.50
Saccade R	1	9	31464627778	31464647648	19870	803.48	1075.71	563.33	1054.90	1.54	243.71	1.00	77.46	5971.49	-5687.59	4239.50
Fixation L	1	11	31464647648	31464826636	178988	571.07	1002.78	23	67	-1	11.53	11.53
Fixation R	1	11	31464647648	31464826636	178988	571.07	1002.78	23	67	-1	12.21	12.21
Saccade L	1	10	31464826636	31464846508	19872	576.70	989.11	578.73	921.34	0.84	68.58	1.00	42.18	1236.17	-1538.67	1263.62
Saccade R	1	10	31464826636	31464846508	19872	576.70	989.11	578.73	921.34	0.84	68.58	1.00	42.18	1236.17	-1538.67	1263.62
Fixation L	1	12	31464846508	31465005633	159125	589.96	959.09	17	60	-1	11.24	11.24
Fixation R	1	12	31464846508	31465005633	159125	589.96	959.09	17	60	-1	11.74	11.74
Saccade L	1	11	31465005633	31465065260	59627	596.56	967.39	483.95	640.29	4.20	151.26	0.67	70.45	3648.78	-2413.11	2211.28
Saccade R	1	11	31465005633	31465065260	59627	596.56	967.39	483.95	640.29	4.20	151.26	0.67	70.45	3648.78	-2413.11	2211.28
Fixation L	1	13	31465065260	31465204501	139241	493.07	649.47	17	51	-1	10.48	10.48
Fixation R	1	13	31465065260	31465204501	139241	493.07	649.47	17	51	-1	11.42	11.42
Saccade L	1	12	31465204501	31465244372	39871	494.26	642.84	375.56	514.84	2.62	120.23	0.50	65.82	2907.72	-1488.86	2013.31
Saccade R	1	12	31465204501	31465244372	39871	494.26	642.84	375.56	514.84	2.62	120.23	0.50	65.82	2907.72	-1488.86	2013.31
Fixation L	1	14	31465244372	31465383483	139111	375.15	554.64	4	82	-1	10.25	10.25
Fixation R	1	14	31465244372	31465383483	139111	375.15	554.64	4	82	-1	11.09	11.09
Saccade L	1	13	31465383483	31465403483	20000	376.15	557.00	357.84	433.86	0.81	125.92	1.00	40.56	2983.30	-2446.21	2050.65
Saccade R	1	13	31465383483	31465403483	20000	376.15	557.00	357.84	433.86	0.81	125.92	1.00	40.56	2983.30	-2446.21	2050.65
Fixation L	1	15	31465403483	31465821093	417610	315.78	413.77	62	31	-1	10.37	10.37
Fixation R	1	15	31465403483	31465821093	417610	315.78	413.77	62	31	-1	11.33	11.33
Saccade L	1	14	31465821093	31465860836	39743	328.27	432.94	330.63	458.02	0.50	20.23	0.50	12.67	216.91	-204.21	140.37
Saccade R	1	14	31465821093	31465860836	39743	328.27	432.94	330.63	458.02	0.50	20.23	0.50	12.67	216.91	-204.21	140.37
