[BeGaze]
Converted from:	C:\Documents and Settings\iViewX\Desktop\EXPERIMENTATIONS\Experiments\results\finaleart\S14F27123-finaleart-1.idf
Date:	27.03.2019 15:42:51
Version:	BeGaze 2.5.77
Sample Rate:	50
Subject:	S14F27123
Description:	Anne-flore Perrin

Table Header for Fixations:
Event Type	Trial	Number	Start	End	Duration	Location X	Location Y	Dispersion X	Dispersion Y	Plane	Avg. Pupil Size X	Avg. Pupil Size Y

Table Header for Saccades:
Event Type	Trial	Number	Start	End	Duration	Start Loc.X	Start Loc.Y	End Loc.X	End Loc.Y	Amplitude	Peak Speed	Peak Speed At	Average Speed	Peak Accel.	Peak Decel.	Average Accel.

Table Header for Blinks:
Event Type	Trial	Number	Start	End	Duration

Table Header for User Events:
Event Type	Trial	Number	Start	Description

UserEvent	1	1	30355440057	# Message: void.jpg
Saccade L	1	1	30355442353	30355462217	19864	1276.47	599.90	1486.30	593.14	1.45	212.29	1.00	73.12	176.48	-5255.95	1810.81
Saccade R	1	1	30355442353	30355462217	19864	1276.47	599.90	1486.30	593.14	1.45	212.29	1.00	73.12	176.48	-5255.95	1810.81
Fixation L	1	1	30355462217	30355601470	139253	1491.36	608.08	14	27	-1	11.22	11.22
Fixation R	1	1	30355462217	30355601470	139253	1491.36	608.08	14	27	-1	11.79	11.79
Saccade L	1	2	30355601470	30355641370	39900	1495.41	606.84	1202.16	298.43	3.64	285.02	0.50	91.12	6989.51	-6997.36	4854.18
Saccade R	1	2	30355601470	30355641370	39900	1495.41	606.84	1202.16	298.43	3.64	285.02	0.50	91.12	6989.51	-6997.36	4854.18
Fixation L	1	2	30355641370	30355860057	218687	1206.03	254.33	13	67	-1	11.17	11.17
Fixation R	1	2	30355641370	30355860057	218687	1206.03	254.33	13	67	-1	11.38	11.38
Blink L	1	1	30355860057	30356794905	934848
Blink R	1	1	30355860057	30356794905	934848
Fixation L	1	3	30356794905	30357073393	278488	694.87	790.59	11	75	-1	12.65	12.65
Fixation R	1	3	30356794905	30357073393	278488	694.87	790.59	11	75	-1	13.10	13.10
Saccade L	1	3	30357073393	30357093260	19867	700.83	751.59	703.50	729.78	0.44	28.89	1.00	21.92	215.28	-462.37	275.31
Saccade R	1	3	30357073393	30357093260	19867	700.83	751.59	703.50	729.78	0.44	28.89	1.00	21.92	215.28	-462.37	275.31
Fixation L	1	4	30357093260	30357431390	338130	703.85	751.91	9	83	-1	11.71	11.71
Fixation R	1	4	30357093260	30357431390	338130	703.85	751.91	9	83	-1	12.64	12.64
