[BeGaze]
Converted from:	C:\Documents and Settings\iViewX\Desktop\EXPERIMENTATIONS\Experiments\results\finaleart\S14F27123-finaleart-1.idf
Date:	27.03.2019 15:44:04
Version:	BeGaze 2.5.77
Sample Rate:	50
Subject:	S14F27123
Description:	Anne-flore Perrin

Table Header for Fixations:
Event Type	Trial	Number	Start	End	Duration	Location X	Location Y	Dispersion X	Dispersion Y	Plane	Avg. Pupil Size X	Avg. Pupil Size Y

Table Header for Saccades:
Event Type	Trial	Number	Start	End	Duration	Start Loc.X	Start Loc.Y	End Loc.X	End Loc.Y	Amplitude	Peak Speed	Peak Speed At	Average Speed	Peak Accel.	Peak Decel.	Average Accel.

Table Header for Blinks:
Event Type	Trial	Number	Start	End	Duration

Table Header for User Events:
Event Type	Trial	Number	Start	Description

UserEvent	1	1	31715179450	# Message: void.jpg
Fixation L	1	1	31715180639	31715280029	99390	1191.85	223.65	4	32	-1	11.33	11.33
Fixation R	1	1	31715180639	31715280029	99390	1191.85	223.65	4	32	-1	10.91	10.91
Saccade L	1	1	31715280029	31715299888	19859	1192.45	202.09	940.29	200.59	1.57	254.94	1.00	78.97	6125.77	-6000.55	4153.78
Saccade R	1	1	31715280029	31715299888	19859	1192.45	202.09	940.29	200.59	1.57	254.94	1.00	78.97	6125.77	-6000.55	4153.78
Fixation L	1	2	31715299888	31715498863	198975	911.05	185.77	41	28	-1	11.25	11.25
Fixation R	1	2	31715299888	31715498863	198975	911.05	185.77	41	28	-1	11.48	11.48
Saccade L	1	2	31715498863	31715518742	19879	898.55	172.02	913.58	-28.00	1.35	202.83	1.00	67.70	4993.25	-4361.70	3446.33
Saccade R	1	2	31715498863	31715518742	19879	898.55	172.02	913.58	-28.00	1.35	202.83	1.00	67.70	4993.25	-4361.70	3446.33
Fixation L	1	3	31715518742	31715657985	139243	925.79	2.36	32	51	-1	11.25	11.25
Fixation R	1	3	31715518742	31715657985	139243	925.79	2.36	32	51	-1	11.86	11.86
Saccade L	1	3	31715657985	31715697729	39744	942.49	15.48	0.00	5.03	8.39	932.73	1.00	211.05	22947.75	-23280.70	12852.04
Saccade R	1	3	31715657985	31715697729	39744	942.49	15.48	0.00	5.03	8.39	932.73	1.00	211.05	22947.75	-23280.70	12852.04
Fixation R	1	4	31715697729	31715797243	99514	0.00	4.54	0	2	-1	30.30	21.64
