[BeGaze]
Converted from:	C:\Documents and Settings\iViewX\Desktop\EXPERIMENTATIONS\Experiments\results\finaleart\S14F27123-finaleart-1.idf
Date:	27.03.2019 15:43:18
Version:	BeGaze 2.5.77
Sample Rate:	50
Subject:	S14F27123
Description:	Anne-flore Perrin

Table Header for Fixations:
Event Type	Trial	Number	Start	End	Duration	Location X	Location Y	Dispersion X	Dispersion Y	Plane	Avg. Pupil Size X	Avg. Pupil Size Y

Table Header for Saccades:
Event Type	Trial	Number	Start	End	Duration	Start Loc.X	Start Loc.Y	End Loc.X	End Loc.Y	Amplitude	Peak Speed	Peak Speed At	Average Speed	Peak Accel.	Peak Decel.	Average Accel.

Table Header for Blinks:
Event Type	Trial	Number	Start	End	Duration

Table Header for User Events:
Event Type	Trial	Number	Start	Description

UserEvent	1	1	30878189653	# Message: void.jpg
Fixation L	1	1	30878203885	30878303365	99480	702.56	921.86	6	23	-1	13.39	13.39
Fixation R	1	1	30878203885	30878303365	99480	702.56	921.86	6	23	-1	13.65	13.65
Saccade L	1	1	30878303365	30878343257	39892	699.21	927.40	631.53	726.15	2.15	160.03	0.50	53.82	3826.87	-3199.17	2475.36
Saccade R	1	1	30878303365	30878343257	39892	699.21	927.40	631.53	726.15	2.15	160.03	0.50	53.82	3826.87	-3199.17	2475.36
Fixation L	1	2	30878343257	30878641335	298078	644.50	720.84	27	17	-1	13.12	13.12
Fixation R	1	2	30878343257	30878641335	298078	644.50	720.84	27	17	-1	13.99	13.99
Blink L	1	1	30878641335	30878959578	318243
Blink R	1	1	30878641335	30878959578	318243
Fixation L	1	3	30878959578	30879655799	696221	785.19	525.98	26	40	-1	13.87	13.87
Fixation R	1	3	30878959578	30879655799	696221	785.19	525.98	26	40	-1	13.83	13.83
Saccade L	1	2	30879655799	30879675677	19878	785.60	542.96	790.70	643.40	0.60	101.73	1.00	30.06	2353.98	-2513.48	1679.27
Saccade R	1	2	30879655799	30879675677	19878	785.60	542.96	790.70	643.40	0.60	101.73	1.00	30.06	2353.98	-2513.48	1679.27
Fixation L	1	4	30879675677	30880192766	517089	807.34	642.11	22	41	-1	13.44	13.44
Fixation R	1	4	30879675677	30880192766	517089	807.34	642.11	22	41	-1	13.57	13.57
