[BeGaze]
Converted from:	C:\Documents and Settings\iViewX\Desktop\EXPERIMENTATIONS\Experiments\results\finaleart\S14F27123-finaleart-1.idf
Date:	27.03.2019 15:42:52
Version:	BeGaze 2.5.77
Sample Rate:	50
Subject:	S14F27123
Description:	Anne-flore Perrin

Table Header for Fixations:
Event Type	Trial	Number	Start	End	Duration	Location X	Location Y	Dispersion X	Dispersion Y	Plane	Avg. Pupil Size X	Avg. Pupil Size Y

Table Header for Saccades:
Event Type	Trial	Number	Start	End	Duration	Start Loc.X	Start Loc.Y	End Loc.X	End Loc.Y	Amplitude	Peak Speed	Peak Speed At	Average Speed	Peak Accel.	Peak Decel.	Average Accel.

Table Header for Blinks:
Event Type	Trial	Number	Start	End	Duration

Table Header for User Events:
Event Type	Trial	Number	Start	Description

UserEvent	1	1	30357476345	# Message: cows_at_a_pond_Bilders_1856.jpg
Fixation L	1	1	30357491004	30357829233	338229	702.45	763.33	22	75	-1	12.09	12.09
Fixation R	1	1	30357491004	30357829233	338229	702.45	763.33	22	75	-1	12.75	12.75
Saccade L	1	1	30357829233	30357849121	19888	700.95	797.83	699.60	800.05	0.23	26.99	0.00	11.77	188.37	-569.30	341.04
Saccade R	1	1	30357829233	30357849121	19888	700.95	797.83	699.60	800.05	0.23	26.99	0.00	11.77	188.37	-569.30	341.04
Fixation L	1	2	30357849121	30357968476	119355	697.42	805.83	5	21	-1	13.30	13.30
Fixation R	1	2	30357849121	30357968476	119355	697.42	805.83	5	21	-1	13.77	13.77
Saccade L	1	2	30357968476	30358008218	39742	697.13	808.51	779.12	650.07	2.67	240.15	0.50	67.29	5915.63	-5524.36	3508.84
Saccade R	1	2	30357968476	30358008218	39742	697.13	808.51	779.12	650.07	2.67	240.15	0.50	67.29	5915.63	-5524.36	3508.84
Fixation L	1	3	30358008218	30358346359	338141	793.10	651.90	43	51	-1	11.34	11.34
Fixation R	1	3	30358008218	30358346359	338141	793.10	651.90	43	51	-1	12.05	12.05
Saccade L	1	3	30358346359	30358386079	39720	797.06	646.35	1031.55	688.09	2.69	123.17	1.00	67.65	2889.07	-2039.95	2144.06
Saccade R	1	3	30358346359	30358386079	39720	797.06	646.35	1031.55	688.09	2.69	123.17	1.00	67.65	2889.07	-2039.95	2144.06
Fixation L	1	4	30358386079	30358664572	278493	1051.36	664.20	40	55	-1	11.51	11.51
Fixation R	1	4	30358386079	30358664572	278493	1051.36	664.20	40	55	-1	11.75	11.75
Saccade L	1	4	30358664572	30358684449	19877	1046.94	667.58	1231.95	664.66	1.01	187.12	1.00	51.00	4639.40	-4429.16	3088.35
Saccade R	1	4	30358664572	30358684449	19877	1046.94	667.58	1231.95	664.66	1.01	187.12	1.00	51.00	4639.40	-4429.16	3088.35
Fixation L	1	5	30358684449	30358962935	278486	1234.47	641.99	26	38	-1	12.03	12.03
Fixation R	1	5	30358684449	30358962935	278486	1234.47	641.99	26	38	-1	12.03	12.03
Blink L	1	1	30358962935	30359102181	139246
Blink R	1	1	30358962935	30359102181	139246
Fixation L	1	6	30359102181	30359261311	159130	1339.03	1040.93	23	11	-1	22.81	22.81
Fixation R	1	6	30359102181	30359261311	159130	1339.03	1040.93	23	11	-1	13.26	13.26
Blink L	1	2	30359261311	30359360666	99355
Blink R	1	2	30359261311	30359360666	99355
Fixation L	1	7	30359360666	30359579533	218867	569.35	1026.29	58	23	-1	18.52	18.52
Fixation R	1	7	30359360666	30359579533	218867	569.35	1026.29	58	23	-1	13.89	13.89
Saccade L	1	5	30359579533	30359599403	19870	608.93	1034.56	407.23	977.53	1.49	211.95	1.00	75.03	4977.21	-5044.82	3780.22
Saccade R	1	5	30359579533	30359599403	19870	608.93	1034.56	407.23	977.53	1.49	211.95	1.00	75.03	4977.21	-5044.82	3780.22
Fixation L	1	8	30359599403	30359758534	159131	358.60	951.26	60	35	-1	13.57	13.57
Fixation R	1	8	30359599403	30359758534	159131	358.60	951.26	60	35	-1	13.42	13.42
Saccade L	1	6	30359758534	30359798267	39733	352.65	948.89	386.32	513.07	3.76	300.40	0.50	94.70	7470.06	-6894.22	5245.55
Saccade R	1	6	30359758534	30359798267	39733	352.65	948.89	386.32	513.07	3.76	300.40	0.50	94.70	7470.06	-6894.22	5245.55
Fixation L	1	9	30359798267	30360076764	278497	392.79	494.87	25	29	-1	12.83	12.83
Fixation R	1	9	30359798267	30360076764	278497	392.79	494.87	25	29	-1	13.36	13.36
Saccade L	1	7	30360076764	30360116505	39741	396.16	485.20	925.63	487.91	4.47	297.61	1.00	112.39	7393.91	-7034.10	6421.72
Saccade R	1	7	30360076764	30360116505	39741	396.16	485.20	925.63	487.91	4.47	297.61	1.00	112.39	7393.91	-7034.10	6421.72
Fixation L	1	10	30360116505	30360275626	159121	954.23	493.55	39	14	-1	12.96	12.96
Fixation R	1	10	30360116505	30360275626	159121	954.23	493.55	39	14	-1	13.39	13.39
Saccade L	1	8	30360275626	30360315498	39872	957.15	497.90	1364.83	479.03	3.50	284.71	0.50	87.82	6876.72	-6842.68	4941.61
Saccade R	1	8	30360275626	30360315498	39872	957.15	497.90	1364.83	479.03	3.50	284.71	0.50	87.82	6876.72	-6842.68	4941.61
Fixation L	1	11	30360315498	30360454751	139253	1357.25	458.49	10	33	-1	12.78	12.78
Fixation R	1	11	30360315498	30360454751	139253	1357.25	458.49	10	33	-1	13.19	13.19
Saccade L	1	9	30360454751	30360514363	59612	1354.36	445.38	1692.57	980.10	7.84	368.02	0.67	131.56	9127.22	-7980.14	5322.62
Saccade R	1	9	30360454751	30360514363	59612	1354.36	445.38	1692.57	980.10	7.84	368.02	0.67	131.56	9127.22	-7980.14	5322.62
Fixation L	1	12	30360514363	30360971844	457481	1680.78	936.18	26	60	-1	13.45	13.45
Fixation R	1	12	30360514363	30360971844	457481	1680.78	936.18	26	60	-1	12.47	12.47
Saccade L	1	10	30360971844	30360991722	19878	1668.31	935.79	1663.14	779.01	0.87	158.65	1.00	43.94	3880.25	-3890.43	2630.30
Saccade R	1	10	30360971844	30360991722	19878	1668.31	935.79	1663.14	779.01	0.87	158.65	1.00	43.94	3880.25	-3890.43	2630.30
Fixation L	1	13	30360991722	30361150862	159140	1658.34	780.03	22	14	-1	14.57	14.57
Fixation R	1	13	30360991722	30361150862	159140	1658.34	780.03	22	14	-1	13.51	13.51
Saccade L	1	11	30361150862	30361170709	19847	1643.49	772.16	1621.49	571.60	1.14	204.02	1.00	57.40	5009.52	-4948.12	3359.80
Saccade R	1	11	30361150862	30361170709	19847	1643.49	772.16	1621.49	571.60	1.14	204.02	1.00	57.40	5009.52	-4948.12	3359.80
Fixation L	1	14	30361170709	30361349701	178992	1614.51	582.22	19	15	-1	14.19	14.19
Fixation R	1	14	30361170709	30361349701	178992	1614.51	582.22	19	15	-1	13.73	13.73
Saccade L	1	12	30361349701	30361469075	119374	1616.45	577.70	1208.76	663.01	7.26	281.94	0.17	60.84	6979.69	-6801.09	3096.07
Saccade R	1	12	30361349701	30361469075	119374	1616.45	577.70	1208.76	663.01	7.26	281.94	0.17	60.84	6979.69	-6801.09	3096.07
