[BeGaze]
Converted from:	C:\Documents and Settings\iViewX\Desktop\EXPERIMENTATIONS\Experiments\results\finaleart\S14F27123-finaleart-1.idf
Date:	27.03.2019 15:44:12
Version:	BeGaze 2.5.77
Sample Rate:	50
Subject:	S14F27123
Description:	Anne-flore Perrin

Table Header for Fixations:
Event Type	Trial	Number	Start	End	Duration	Location X	Location Y	Dispersion X	Dispersion Y	Plane	Avg. Pupil Size X	Avg. Pupil Size Y

Table Header for Saccades:
Event Type	Trial	Number	Start	End	Duration	Start Loc.X	Start Loc.Y	End Loc.X	End Loc.Y	Amplitude	Peak Speed	Peak Speed At	Average Speed	Peak Accel.	Peak Decel.	Average Accel.

Table Header for Blinks:
Event Type	Trial	Number	Start	End	Duration

Table Header for User Events:
Event Type	Trial	Number	Start	Description

UserEvent	1	1	31784424386	# Message: ronde_cross_1905.jpg
Fixation L	1	1	31784444006	31784881603	437597	855.37	433.66	19	49	-1	10.63	10.63
Fixation R	1	1	31784444006	31784881603	437597	855.37	433.66	19	49	-1	11.21	11.21
Saccade L	1	1	31784881603	31784901471	19868	855.67	454.43	766.68	493.69	0.69	98.38	1.00	34.51	2005.70	-1924.93	1432.35
Saccade R	1	1	31784881603	31784901471	19868	855.67	454.43	766.68	493.69	0.69	98.38	1.00	34.51	2005.70	-1924.93	1432.35
Fixation L	1	2	31784901471	31785100465	198994	751.05	501.71	27	33	-1	9.86	9.86
Fixation R	1	2	31784901471	31785100465	198994	751.05	501.71	27	33	-1	11.14	11.14
Saccade L	1	2	31785100465	31785120341	19876	743.15	509.52	487.46	507.25	1.62	258.50	1.00	81.62	6444.59	-5304.00	4286.69
Saccade R	1	2	31785100465	31785120341	19876	743.15	509.52	487.46	507.25	1.62	258.50	1.00	81.62	6444.59	-5304.00	4286.69
Fixation L	1	3	31785120341	31785358959	238618	464.38	523.65	54	40	-1	8.35	8.35
Fixation R	1	3	31785120341	31785358959	238618	464.38	523.65	54	40	-1	9.24	9.24
Saccade L	1	3	31785358959	31785398711	39752	463.34	533.88	776.16	521.51	2.58	247.77	1.00	64.92	6171.11	-6139.63	3909.49
Saccade R	1	3	31785358959	31785398711	39752	463.34	533.88	776.16	521.51	2.58	247.77	1.00	64.92	6171.11	-6139.63	3909.49
Fixation L	1	4	31785398711	31785577827	179116	782.25	516.54	19	13	-1	8.38	8.38
Fixation R	1	4	31785398711	31785577827	179116	782.25	516.54	19	13	-1	9.33	9.33
Saccade L	1	4	31785577827	31785617575	39748	793.49	508.50	1086.47	488.21	2.56	221.93	0.50	64.45	5518.94	-5068.47	3402.78
Saccade R	1	4	31785577827	31785617575	39748	793.49	508.50	1086.47	488.21	2.56	221.93	0.50	64.45	5518.94	-5068.47	3402.78
Fixation L	1	5	31785617575	31785856195	238620	1108.24	478.34	51	33	-1	8.57	8.57
Fixation R	1	5	31785617575	31785856195	238620	1108.24	478.34	51	33	-1	9.01	9.01
Saccade L	1	5	31785856195	31785876061	19866	1138.04	478.35	1162.78	455.85	0.43	33.83	1.00	21.73	773.91	-517.91	466.56
Saccade R	1	5	31785856195	31785876061	19866	1138.04	478.35	1162.78	455.85	0.43	33.83	1.00	21.73	773.91	-517.91	466.56
Fixation L	1	6	31785876061	31786114796	238735	1188.80	456.93	36	32	-1	8.65	8.65
Fixation R	1	6	31785876061	31786114796	238735	1188.80	456.93	36	32	-1	8.66	8.66
Saccade L	1	6	31786114796	31786134672	19876	1193.73	456.11	1267.39	450.41	0.54	74.73	1.00	27.24	1633.02	-1583.21	1211.62
Saccade R	1	6	31786114796	31786134672	19876	1193.73	456.11	1267.39	450.41	0.54	74.73	1.00	27.24	1633.02	-1583.21	1211.62
Fixation L	1	7	31786134672	31786293792	159120	1295.29	462.49	40	29	-1	8.80	8.80
Fixation R	1	7	31786134672	31786293792	159120	1295.29	462.49	40	29	-1	8.60	8.60
Saccade L	1	7	31786293792	31786333540	39748	1296.53	479.62	1053.88	278.51	3.05	200.03	1.00	76.78	4377.43	-4870.82	4001.95
Saccade R	1	7	31786293792	31786333540	39748	1296.53	479.62	1053.88	278.51	3.05	200.03	1.00	76.78	4377.43	-4870.82	4001.95
Fixation L	1	8	31786333540	31786472787	139247	1044.22	264.65	15	20	-1	8.81	8.81
Fixation R	1	8	31786333540	31786472787	139247	1044.22	264.65	15	20	-1	9.17	9.17
Saccade L	1	8	31786472787	31786512659	39872	1038.65	259.10	955.54	158.61	1.56	108.33	0.50	39.19	2625.00	-1490.25	1371.09
Saccade R	1	8	31786472787	31786512659	39872	1038.65	259.10	955.54	158.61	1.56	108.33	0.50	39.19	2625.00	-1490.25	1371.09
Fixation L	1	9	31786512659	31786751273	238614	905.92	156.65	57	31	-1	8.33	8.33
Fixation R	1	9	31786512659	31786751273	238614	905.92	156.65	57	31	-1	8.99	8.99
Saccade L	1	9	31786751273	31786810899	59626	903.30	159.39	567.67	181.68	3.60	184.13	0.67	60.39	4531.85	-4247.29	2425.82
Saccade R	1	9	31786751273	31786810899	59626	903.30	159.39	567.67	181.68	3.60	184.13	0.67	60.39	4531.85	-4247.29	2425.82
Fixation L	1	10	31786810899	31786930269	119370	589.94	199.06	36	60	-1	8.54	8.54
Fixation R	1	10	31786810899	31786930269	119370	589.94	199.06	36	60	-1	9.11	9.11
Saccade L	1	10	31786930269	31786950138	19869	604.51	229.86	605.42	240.54	0.24	21.70	0.00	12.27	70.40	-364.36	156.98
Saccade R	1	10	31786930269	31786950138	19869	604.51	229.86	605.42	240.54	0.24	21.70	0.00	12.27	70.40	-364.36	156.98
Fixation L	1	11	31786950138	31787049632	99494	605.68	241.05	11	19	-1	8.76	8.76
Fixation R	1	11	31786950138	31787049632	99494	605.68	241.05	11	19	-1	8.98	8.98
Blink L	1	1	31787049632	31787268375	218743
Blink R	1	1	31787049632	31787268375	218743
Saccade L	1	11	31787268375	31787447490	179115	592.86	953.84	511.94	888.71	5.59	79.77	1.00	31.22	2461.52	-1802.73	1012.93
Saccade R	1	11	31787268375	31787447490	179115	592.86	953.84	511.94	888.71	5.59	79.77	1.00	31.22	2461.52	-1802.73	1012.93
Blink L	1	2	31787447490	31787666244	218754
Blink R	1	2	31787447490	31787666244	218754
Saccade L	1	12	31787666244	31787745732	79488	0.00	-1.31	0.00	-1.12	50.72	1965.83	1.00	638.13	31255.05	-49142.20	29027.52
Saccade R	1	12	31787666244	31787745732	79488	0.00	-1.31	0.00	-1.12	50.72	1965.83	1.00	638.13	31255.05	-49142.20	29027.52
Fixation L	1	12	31787745732	31787845225	99493	0.00	-0.86	0	1	-1	20.65	20.65
Fixation R	1	12	31787745732	31787845225	99493	0.00	-0.86	0	1	-1	23.63	14.96
Blink L	1	3	31787845225	31788004346	159121
Blink R	1	3	31787845225	31788004346	159121
Fixation L	1	13	31788004346	31788163462	159116	820.41	526.80	17	24	-1	10.44	9.77
Fixation R	1	13	31788004346	31788163462	159116	820.41	526.80	17	24	-1	10.14	10.14
Saccade L	1	13	31788163462	31788183334	19872	813.41	516.00	811.44	460.40	0.41	56.27	1.00	20.54	1251.98	-1192.91	945.68
Saccade R	1	13	31788163462	31788183334	19872	813.41	516.00	811.44	460.40	0.41	56.27	1.00	20.54	1251.98	-1192.91	945.68
Fixation L	1	14	31788183334	31788422075	238741	787.22	467.49	35	39	-1	10.18	10.18
Fixation R	1	14	31788183334	31788422075	238741	787.22	467.49	35	39	-1	10.34	10.34
