[BeGaze]
Converted from:	C:\Documents and Settings\iViewX\Desktop\EXPERIMENTATIONS\Experiments\results\finaleart\S14F27123-finaleart-1.idf
Date:	27.03.2019 15:42:46
Version:	BeGaze 2.5.77
Sample Rate:	50
Subject:	S14F27123
Description:	Anne-flore Perrin

Table Header for Fixations:
Event Type	Trial	Number	Start	End	Duration	Location X	Location Y	Dispersion X	Dispersion Y	Plane	Avg. Pupil Size X	Avg. Pupil Size Y

Table Header for Saccades:
Event Type	Trial	Number	Start	End	Duration	Start Loc.X	Start Loc.Y	End Loc.X	End Loc.Y	Amplitude	Peak Speed	Peak Speed At	Average Speed	Peak Accel.	Peak Decel.	Average Accel.

Table Header for Blinks:
Event Type	Trial	Number	Start	End	Duration

Table Header for User Events:
Event Type	Trial	Number	Start	Description

UserEvent	1	1	30302527188	# Message: Nature_morte_au_panier_Derain_1927.jpg
Fixation L	1	1	30302534659	30303012004	477345	833.06	786.42	14	34	-1	13.88	13.88
Fixation R	1	1	30302534659	30303012004	477345	833.06	786.42	14	34	-1	13.78	13.78
Saccade L	1	1	30303012004	30303031869	19865	834.96	775.75	774.33	859.71	0.73	104.76	1.00	36.79	2374.65	-2274.33	1670.36
Saccade R	1	1	30303012004	30303031869	19865	834.96	775.75	774.33	859.71	0.73	104.76	1.00	36.79	2374.65	-2274.33	1670.36
Fixation L	1	2	30303031869	30303409846	377977	766.09	843.50	43	35	-1	11.30	11.30
Fixation R	1	2	30303031869	30303409846	377977	766.09	843.50	43	35	-1	11.93	11.93
Blink L	1	1	30303409846	30303509216	99370
Blink R	1	1	30303409846	30303509216	99370
Blink L	1	2	30303529220	30303688333	159113
Blink R	1	2	30303529220	30303688333	159113
Blink L	1	3	30303708221	30303807585	99364
Blink R	1	3	30303708221	30303807585	99364
Blink L	1	4	30303867346	30304006568	139222
Blink R	1	4	30303867346	30304006568	139222
Blink L	1	5	30304026448	30304125814	99366
Blink R	1	5	30304026448	30304125814	99366
Fixation L	1	3	30304125814	30304384429	258615	1168.84	674.93	25	39	-1	12.83	12.83
Fixation R	1	3	30304125814	30304384429	258615	1168.84	674.93	25	39	-1	12.64	12.64
Saccade L	1	2	30304384429	30304404307	19878	1172.72	658.53	1171.30	605.84	0.41	53.32	1.00	20.55	1271.06	-180.62	634.83
Saccade R	1	2	30304384429	30304404307	19878	1172.72	658.53	1171.30	605.84	0.41	53.32	1.00	20.55	1271.06	-180.62	634.83
Fixation L	1	4	30304404307	30304543542	139235	1165.83	590.19	11	54	-1	12.27	12.27
Fixation R	1	4	30304404307	30304543542	139235	1165.83	590.19	11	54	-1	12.58	12.58
Saccade L	1	3	30304543542	30304563429	19887	1165.61	579.00	1253.89	468.54	0.90	143.01	1.00	45.35	3088.24	-3325.32	2192.05
Saccade R	1	3	30304543542	30304563429	19887	1165.61	579.00	1253.89	468.54	0.90	143.01	1.00	45.35	3088.24	-3325.32	2192.05
Fixation L	1	5	30304563429	30304822037	258608	1249.86	481.11	14	20	-1	12.23	12.23
Fixation R	1	5	30304563429	30304822037	258608	1249.86	481.11	14	20	-1	12.85	12.85
Saccade L	1	4	30304822037	30304861784	39747	1250.11	486.49	926.22	489.35	2.83	206.61	0.50	71.19	4858.97	-4884.55	3855.39
Saccade R	1	4	30304822037	30304861784	39747	1250.11	486.49	926.22	489.35	2.83	206.61	0.50	71.19	4858.97	-4884.55	3855.39
Fixation L	1	6	30304861784	30305020902	159118	934.58	477.63	12	19	-1	12.89	12.89
Fixation R	1	6	30304861784	30305020902	159118	934.58	477.63	12	19	-1	13.50	13.50
Saccade L	1	5	30305020902	30305060674	39772	939.04	478.87	664.73	469.42	2.45	168.16	1.00	61.73	4166.18	-3204.14	3027.48
Saccade R	1	5	30305020902	30305060674	39772	939.04	478.87	664.73	469.42	2.45	168.16	1.00	61.73	4166.18	-3204.14	3027.48
Fixation L	1	7	30305060674	30305219780	159106	656.19	454.67	23	65	-1	12.70	12.70
Fixation R	1	7	30305060674	30305219780	159106	656.19	454.67	23	65	-1	13.68	13.68
Saccade L	1	6	30305219780	30305239767	19987	656.75	429.25	648.38	219.02	1.20	212.75	1.00	59.81	5023.42	-5169.28	3469.41
Saccade R	1	6	30305219780	30305239767	19987	656.75	429.25	648.38	219.02	1.20	212.75	1.00	59.81	5023.42	-5169.28	3469.41
Fixation L	1	8	30305239767	30305538009	298242	622.23	233.36	36	30	-1	12.73	12.73
Fixation R	1	8	30305239767	30305538009	298242	622.23	233.36	36	30	-1	13.70	13.70
Saccade L	1	7	30305538009	30305597755	59746	616.68	238.96	1212.32	337.04	6.35	281.91	0.67	106.23	6994.53	-6707.45	4752.66
Saccade R	1	7	30305538009	30305597755	59746	616.68	238.96	1212.32	337.04	6.35	281.91	0.67	106.23	6994.53	-6707.45	4752.66
Fixation L	1	9	30305597755	30305717130	119375	1219.84	342.76	10	9	-1	12.82	12.82
Fixation R	1	9	30305597755	30305717130	119375	1219.84	342.76	10	9	-1	13.90	13.90
Saccade L	1	8	30305717130	30305736992	19862	1220.33	341.74	1527.89	325.22	1.85	311.28	1.00	92.94	7612.66	-7342.60	5392.46
Saccade R	1	8	30305717130	30305736992	19862	1220.33	341.74	1527.89	325.22	1.85	311.28	1.00	92.94	7612.66	-7342.60	5392.46
Fixation L	1	10	30305736992	30305935860	198868	1534.22	389.61	14	77	-1	12.81	12.81
Fixation R	1	10	30305736992	30305935860	198868	1534.22	389.61	14	77	-1	13.32	13.32
Saccade L	1	9	30305935860	30305955736	19876	1541.94	401.46	1541.35	568.95	0.95	169.39	1.00	47.79	4181.07	-3972.53	2837.62
Saccade R	1	9	30305935860	30305955736	19876	1541.94	401.46	1541.35	568.95	0.95	169.39	1.00	47.79	4181.07	-3972.53	2837.62
Fixation L	1	11	30305955736	30306075107	119371	1530.90	604.30	35	60	-1	12.47	12.47
Fixation R	1	11	30305955736	30306075107	119371	1530.90	604.30	35	60	-1	12.84	12.84
Saccade L	1	10	30306075107	30306154734	79627	1507.43	629.49	955.17	895.71	8.17	382.07	0.75	102.66	9447.31	-8221.07	4909.35
Saccade R	1	10	30306075107	30306154734	79627	1507.43	629.49	955.17	895.71	8.17	382.07	0.75	102.66	9447.31	-8221.07	4909.35
Fixation L	1	12	30306154734	30306413224	258490	949.89	953.40	16	68	-1	13.17	13.17
Fixation R	1	12	30306154734	30306413224	258490	949.89	953.40	16	68	-1	13.29	13.29
