[BeGaze]
Converted from:	C:\Documents and Settings\iViewX\Desktop\EXPERIMENTATIONS\Experiments\results\finaleart\S14F27123-finaleart-1.idf
Date:	27.03.2019 15:43:32
Version:	BeGaze 2.5.77
Sample Rate:	50
Subject:	S14F27123
Description:	Anne-flore Perrin

Table Header for Fixations:
Event Type	Trial	Number	Start	End	Duration	Location X	Location Y	Dispersion X	Dispersion Y	Plane	Avg. Pupil Size X	Avg. Pupil Size Y

Table Header for Saccades:
Event Type	Trial	Number	Start	End	Duration	Start Loc.X	Start Loc.Y	End Loc.X	End Loc.Y	Amplitude	Peak Speed	Peak Speed At	Average Speed	Peak Accel.	Peak Decel.	Average Accel.

Table Header for Blinks:
Event Type	Trial	Number	Start	End	Duration

Table Header for User Events:
Event Type	Trial	Number	Start	Description

UserEvent	1	1	31280361938	# Message: reclining-nude_renoir_1883.jpg
Fixation L	1	1	31280368405	31280806021	437616	673.50	621.17	8	19	-1	12.44	12.44
Fixation R	1	1	31280368405	31280806021	437616	673.50	621.17	8	19	-1	12.84	12.84
Blink L	1	1	31280806021	31280965118	159097
Blink R	1	1	31280806021	31280965118	159097
Saccade L	1	1	31280965118	31281064486	99368	696.63	395.54	702.22	227.64	12.93	795.26	1.00	130.09	4170.34	-19542.43	4087.77
Saccade R	1	1	31280965118	31281064486	99368	696.63	395.54	702.22	227.64	12.93	795.26	1.00	130.09	4170.34	-19542.43	4087.77
Fixation L	1	2	31281064486	31281323113	258627	710.86	228.63	83	15	-1	11.90	11.90
Fixation R	1	2	31281064486	31281323113	258627	710.86	228.63	83	15	-1	12.24	12.24
Saccade L	1	2	31281323113	31281342982	19869	755.62	225.77	757.40	223.27	0.09	9.35	0.00	4.55	320.14	-183.40	173.02
Saccade R	1	2	31281323113	31281342982	19869	755.62	225.77	757.40	223.27	0.09	9.35	0.00	4.55	320.14	-183.40	173.02
Fixation L	1	3	31281342982	31281641337	298355	762.29	226.40	15	41	-1	11.96	11.96
Fixation R	1	3	31281342982	31281641337	298355	762.29	226.40	15	41	-1	12.39	12.39
Saccade L	1	3	31281641337	31281681086	39749	751.83	242.05	519.75	379.78	2.79	207.76	0.50	70.26	5063.18	-4954.43	3786.04
Saccade R	1	3	31281641337	31281681086	39749	751.83	242.05	519.75	379.78	2.79	207.76	0.50	70.26	5063.18	-4954.43	3786.04
Fixation L	1	4	31281681086	31281840205	159119	503.23	375.95	25	7	-1	12.64	12.64
Fixation R	1	4	31281681086	31281840205	159119	503.23	375.95	25	7	-1	12.77	12.77
Saccade L	1	4	31281840205	31281899953	59748	493.91	378.04	786.95	269.59	3.76	174.90	0.33	63.01	4355.70	-3628.75	3009.32
Saccade R	1	4	31281840205	31281899953	59748	493.91	378.04	786.95	269.59	3.76	174.90	0.33	63.01	4355.70	-3628.75	3009.32
Fixation L	1	5	31281899953	31282078941	178988	767.72	229.61	30	59	-1	12.49	12.49
Fixation R	1	5	31281899953	31282078941	178988	767.72	229.61	30	59	-1	12.93	12.93
Saccade L	1	5	31282078941	31282158450	79509	759.17	213.50	460.69	357.90	6.10	215.95	0.75	76.74	5050.09	-4809.63	3268.14
Saccade R	1	5	31282078941	31282158450	79509	759.17	213.50	460.69	357.90	6.10	215.95	0.75	76.74	5050.09	-4809.63	3268.14
Fixation L	1	6	31282158450	31282337435	178985	438.26	384.20	40	46	-1	13.15	13.15
Fixation R	1	6	31282158450	31282337435	178985	438.26	384.20	40	46	-1	13.85	13.85
Saccade L	1	6	31282337435	31282397184	59749	439.86	396.47	1172.17	802.68	8.91	359.39	0.67	149.07	8906.81	-8173.54	5768.76
Saccade R	1	6	31282337435	31282397184	59749	439.86	396.47	1172.17	802.68	8.91	359.39	0.67	149.07	8906.81	-8173.54	5768.76
Fixation L	1	7	31282397184	31282615924	218740	1186.24	851.81	20	62	-1	14.42	14.42
Fixation R	1	7	31282397184	31282615924	218740	1186.24	851.81	20	62	-1	14.76	14.76
Saccade L	1	7	31282615924	31282675698	59774	1193.16	865.41	1403.78	306.87	6.17	386.80	0.66	103.17	9609.82	-9447.47	5568.49
Saccade R	1	7	31282615924	31282675698	59774	1193.16	865.41	1403.78	306.87	6.17	386.80	0.66	103.17	9609.82	-9447.47	5568.49
Fixation L	1	8	31282675698	31282834783	159085	1394.24	350.29	28	64	-1	13.24	13.24
Fixation R	1	8	31282675698	31282834783	159085	1394.24	350.29	28	64	-1	13.39	13.39
Saccade L	1	8	31282834783	31282894433	59650	1390.69	366.45	1558.55	380.63	2.28	171.08	1.00	38.23	3889.85	-4181.18	1687.40
Saccade R	1	8	31282834783	31282894433	59650	1390.69	366.45	1558.55	380.63	2.28	171.08	1.00	38.23	3889.85	-4181.18	1687.40
Fixation L	1	9	31282894433	31283073401	178968	1564.36	379.92	14	9	-1	12.92	12.92
Fixation R	1	9	31282894433	31283073401	178968	1564.36	379.92	14	9	-1	13.09	13.09
Saccade L	1	9	31283073401	31283093282	19881	1556.14	384.87	1443.61	375.83	0.74	114.19	1.00	37.42	2776.71	-2466.31	1970.52
Saccade R	1	9	31283073401	31283093282	19881	1556.14	384.87	1443.61	375.83	0.74	114.19	1.00	37.42	2776.71	-2466.31	1970.52
Fixation L	1	10	31283093282	31283252392	159110	1417.30	337.36	40	56	-1	13.39	13.39
Fixation R	1	10	31283093282	31283252392	159110	1417.30	337.36	40	56	-1	13.17	13.17
Saccade L	1	10	31283252392	31283312142	59750	1402.78	336.16	1125.43	303.87	3.22	246.82	1.00	53.97	5878.61	-5734.97	2537.69
Saccade R	1	10	31283252392	31283312142	59750	1402.78	336.16	1125.43	303.87	3.22	246.82	1.00	53.97	5878.61	-5734.97	2537.69
Fixation L	1	11	31283312142	31283491136	178994	1108.07	267.50	25	58	-1	13.61	13.61
Fixation R	1	11	31283312142	31283491136	178994	1108.07	267.50	25	58	-1	13.40	13.40
Saccade L	1	11	31283491136	31283511006	19870	1102.65	250.08	1091.42	235.61	0.17	18.52	1.00	8.56	347.85	-236.71	221.90
Saccade R	1	11	31283491136	31283511006	19870	1102.65	250.08	1091.42	235.61	0.17	18.52	1.00	8.56	347.85	-236.71	221.90
Fixation L	1	12	31283511006	31283650267	139261	1081.55	231.69	21	20	-1	13.52	13.52
Fixation R	1	12	31283511006	31283650267	139261	1081.55	231.69	21	20	-1	13.16	13.16
Saccade L	1	12	31283650267	31283689997	39730	1070.11	217.39	892.48	98.06	2.63	224.87	0.50	66.19	5539.63	-4299.11	2769.13
Saccade R	1	12	31283650267	31283689997	39730	1070.11	217.39	892.48	98.06	2.63	224.87	0.50	66.19	5539.63	-4299.11	2769.13
Fixation L	1	13	31283689997	31283869009	179012	888.21	143.59	10	57	-1	13.52	13.52
Fixation R	1	13	31283689997	31283869009	179012	888.21	143.59	10	57	-1	13.72	13.72
Saccade L	1	13	31283869009	31283948617	79608	881.99	150.66	503.04	912.77	11.69	440.58	0.50	146.86	10945.46	-8524.76	5673.68
Saccade R	1	13	31283869009	31283948617	79608	881.99	150.66	503.04	912.77	11.69	440.58	0.50	146.86	10945.46	-8524.76	5673.68
Fixation L	1	14	31283948617	31284187232	238615	504.38	925.68	7	36	-1	15.02	15.02
Fixation R	1	14	31283948617	31284187232	238615	504.38	925.68	7	36	-1	15.15	15.15
Saccade L	1	14	31284187232	31284226980	39748	501.24	920.24	1005.66	973.94	4.32	271.32	0.50	108.64	6553.47	-6422.08	6190.82
Saccade R	1	14	31284187232	31284226980	39748	501.24	920.24	1005.66	973.94	4.32	271.32	0.50	108.64	6553.47	-6422.08	6190.82
Fixation L	1	15	31284226980	31284346353	119373	1010.42	965.71	9	16	-1	13.79	13.79
Fixation R	1	15	31284226980	31284346353	119373	1010.42	965.71	9	16	-1	14.25	14.25
