[BeGaze]
Converted from:	C:\Documents and Settings\iViewX\Desktop\EXPERIMENTATIONS\Experiments\results\finaleart\S14F27123-finaleart-1.idf
Date:	27.03.2019 15:43:01
Version:	BeGaze 2.5.77
Sample Rate:	50
Subject:	S14F27123
Description:	Anne-flore Perrin

Table Header for Fixations:
Event Type	Trial	Number	Start	End	Duration	Location X	Location Y	Dispersion X	Dispersion Y	Plane	Avg. Pupil Size X	Avg. Pupil Size Y

Table Header for Saccades:
Event Type	Trial	Number	Start	End	Duration	Start Loc.X	Start Loc.Y	End Loc.X	End Loc.Y	Amplitude	Peak Speed	Peak Speed At	Average Speed	Peak Accel.	Peak Decel.	Average Accel.

Table Header for Blinks:
Event Type	Trial	Number	Start	End	Duration

Table Header for User Events:
Event Type	Trial	Number	Start	Description

UserEvent	1	1	30540630183	# Message: void.jpg
Fixation L	1	1	30540647911	30540846789	198878	673.55	456.64	25	38	-1	14.92	14.92
Fixation R	1	1	30540647911	30540846789	198878	673.55	456.64	25	38	-1	15.41	15.41
Saccade L	1	1	30540846789	30540926398	79609	662.87	456.90	432.83	914.85	9.84	321.94	0.25	123.54	7977.00	-4177.99	4371.89
Saccade R	1	1	30540846789	30540926398	79609	662.87	456.90	432.83	914.85	9.84	321.94	0.25	123.54	7977.00	-4177.99	4371.89
Fixation L	1	2	30540926398	30541105387	178989	438.17	971.69	20	78	-1	14.32	14.32
Fixation R	1	2	30540926398	30541105387	178989	438.17	971.69	20	78	-1	14.60	14.60
Blink L	1	1	30541105387	30541483256	377869
Blink R	1	1	30541105387	30541483256	377869
Fixation L	1	3	30541503121	30541801486	298365	714.56	625.29	40	52	-1	14.99	14.99
Fixation R	1	3	30541503121	30541801486	298365	714.56	625.29	40	52	-1	13.37	13.37
Saccade L	1	2	30541801486	30541821361	19875	709.68	654.34	711.60	661.20	0.09	7.20	1.00	4.34	116.18	-137.60	115.60
Saccade R	1	2	30541801486	30541821361	19875	709.68	654.34	711.60	661.20	0.09	7.20	1.00	4.34	116.18	-137.60	115.60
Fixation L	1	4	30541821361	30542020356	198995	713.36	660.72	5	19	-1	13.00	13.00
Fixation R	1	4	30541821361	30542020356	198995	713.36	660.72	5	19	-1	13.72	13.72
Saccade L	1	3	30542020356	30542040224	19868	715.59	648.90	853.79	650.68	0.90	139.79	1.00	45.51	3432.68	-3343.01	2352.69
Saccade R	1	3	30542020356	30542040224	19868	715.59	648.90	853.79	650.68	0.90	139.79	1.00	45.51	3432.68	-3343.01	2352.69
Fixation L	1	5	30542040224	30542616964	576740	824.50	646.84	37	14	-1	12.69	12.69
Fixation R	1	5	30542040224	30542616964	576740	824.50	646.84	37	14	-1	12.91	12.91
