[BeGaze]
Converted from:	C:\Documents and Settings\iViewX\Desktop\EXPERIMENTATIONS\Experiments\results\finaleart\S14F27123-finaleart-1.idf
Date:	27.03.2019 15:43:29
Version:	BeGaze 2.5.77
Sample Rate:	50
Subject:	S14F27123
Description:	Anne-flore Perrin

Table Header for Fixations:
Event Type	Trial	Number	Start	End	Duration	Location X	Location Y	Dispersion X	Dispersion Y	Plane	Avg. Pupil Size X	Avg. Pupil Size Y

Table Header for Saccades:
Event Type	Trial	Number	Start	End	Duration	Start Loc.X	Start Loc.Y	End Loc.X	End Loc.Y	Amplitude	Peak Speed	Peak Speed At	Average Speed	Peak Accel.	Peak Decel.	Average Accel.

Table Header for Blinks:
Event Type	Trial	Number	Start	End	Duration

Table Header for User Events:
Event Type	Trial	Number	Start	Description

UserEvent	1	1	30981999276	# Message: void.jpg
Blink L	1	1	30982010232	30982089861	79629
Blink R	1	1	30982010232	30982089861	79629
Blink L	1	2	30982109723	30983064431	954708
Blink R	1	2	30982109723	30983064431	954708
Fixation L	1	1	30983064431	30983203670	139239	534.49	681.79	62	24	-1	13.30	13.30
Fixation R	1	1	30983064431	30983203670	139239	534.49	681.79	62	24	-1	13.71	13.71
Saccade L	1	1	30983203670	30983303170	99500	538.89	681.59	534.22	964.52	5.25	179.45	0.40	52.78	4263.66	-4337.14	1920.06
Saccade R	1	1	30983203670	30983303170	99500	538.89	681.59	534.22	964.52	5.25	179.45	0.40	52.78	4263.66	-4337.14	1920.06
Fixation L	1	2	30983303170	30983442414	139244	574.99	934.81	53	45	-1	12.53	12.53
Fixation R	1	2	30983303170	30983442414	139244	574.99	934.81	53	45	-1	14.80	14.80
Saccade L	1	2	30983442414	30983462289	19875	587.76	922.54	590.05	920.00	5.53	1092.25	1.00	278.14	27210.56	-239.18	9178.74
Saccade R	1	2	30983442414	30983462289	19875	587.76	922.54	590.05	920.00	5.53	1092.25	1.00	278.14	27210.56	-239.18	9178.74
Blink L	1	3	30983462289	30983581651	119362
Blink R	1	3	30983462289	30983581651	119362
Saccade L	1	3	30983581651	30983621404	39753	610.51	913.82	637.75	921.90	17.96	1119.56	1.00	451.85	27489.98	-26871.18	13690.98
Saccade R	1	3	30983581651	30983621404	39753	610.51	913.82	637.75	921.90	17.96	1119.56	1.00	451.85	27489.98	-26871.18	13690.98
Blink L	1	4	30983621404	30983840149	218745
Blink R	1	4	30983621404	30983840149	218745
