[BeGaze]
Converted from:	C:\Documents and Settings\iViewX\Desktop\EXPERIMENTATIONS\Experiments\results\finaleart\S14F27123-finaleart-1.idf
Date:	27.03.2019 15:43:00
Version:	BeGaze 2.5.77
Sample Rate:	50
Subject:	S14F27123
Description:	Anne-flore Perrin

Table Header for Fixations:
Event Type	Trial	Number	Start	End	Duration	Location X	Location Y	Dispersion X	Dispersion Y	Plane	Avg. Pupil Size X	Avg. Pupil Size Y

Table Header for Saccades:
Event Type	Trial	Number	Start	End	Duration	Start Loc.X	Start Loc.Y	End Loc.X	End Loc.Y	Amplitude	Peak Speed	Peak Speed At	Average Speed	Peak Accel.	Peak Decel.	Average Accel.

Table Header for Blinks:
Event Type	Trial	Number	Start	End	Duration

Table Header for User Events:
Event Type	Trial	Number	Start	Description

UserEvent	1	1	30530449730	# Message: basket-of-fruits-Manet-1864.jpg
Fixation L	1	1	30530464110	30530921614	457504	887.50	587.55	21	55	-1	13.41	13.41
Fixation R	1	1	30530464110	30530921614	457504	887.50	587.55	21	55	-1	13.66	13.66
Saccade L	1	1	30530921614	30530961460	39846	875.58	612.19	868.03	440.05	1.81	93.21	1.00	45.55	2174.42	-2060.12	1777.21
Saccade R	1	1	30530921614	30530961460	39846	875.58	612.19	868.03	440.05	1.81	93.21	1.00	45.55	2174.42	-2060.12	1777.21
Fixation L	1	2	30530961460	30531239816	278356	857.42	477.60	17	51	-1	13.78	13.78
Fixation R	1	2	30530961460	30531239816	278356	857.42	477.60	17	51	-1	13.80	13.80
Saccade L	1	2	30531239816	30531279698	39882	855.53	458.11	831.96	937.23	4.64	297.64	0.50	116.24	7232.52	-6245.22	6000.37
Saccade R	1	2	30531239816	30531279698	39882	855.53	458.11	831.96	937.23	4.64	297.64	0.50	116.24	7232.52	-6245.22	6000.37
Fixation L	1	3	30531279698	30531478553	198855	782.78	937.58	62	5	-1	13.88	13.88
Fixation R	1	3	30531279698	30531478553	198855	782.78	937.58	62	5	-1	13.83	13.83
Saccade L	1	3	30531478553	30531498437	19884	784.03	937.26	1019.34	939.23	1.29	237.92	1.00	65.01	5832.00	-5886.30	3937.05
Saccade R	1	3	30531478553	30531498437	19884	784.03	937.26	1019.34	939.23	1.29	237.92	1.00	65.01	5832.00	-5886.30	3937.05
Fixation L	1	4	30531498437	30531776917	278480	1003.16	933.14	33	26	-1	13.83	13.83
Fixation R	1	4	30531498437	30531776917	278480	1003.16	933.14	33	26	-1	19.02	19.02
Saccade L	1	4	30531776917	30531816671	39754	987.80	939.30	1259.75	851.93	2.67	168.76	1.00	67.14	4157.68	-3905.30	3292.96
Saccade R	1	4	30531776917	30531816671	39754	987.80	939.30	1259.75	851.93	2.67	168.76	1.00	67.14	4157.68	-3905.30	3292.96
Fixation L	1	5	30531816671	30532115029	298358	1281.19	824.26	33	58	-1	14.89	14.89
Fixation R	1	5	30531816671	30532115029	298358	1281.19	824.26	33	58	-1	25.58	25.58
Saccade L	1	5	30532115029	30532154784	39755	1283.50	801.49	1313.48	716.35	1.30	70.89	1.00	32.80	1551.54	-254.07	574.33
Saccade R	1	5	30532115029	30532154784	39755	1283.50	801.49	1313.48	716.35	1.30	70.89	1.00	32.80	1551.54	-254.07	574.33
Fixation L	1	6	30532154784	30532294022	139238	1316.78	749.21	30	57	-1	14.43	14.43
Fixation R	1	6	30532154784	30532294022	139238	1316.78	749.21	30	57	-1	26.92	26.92
Saccade L	1	6	30532294022	30532313905	19883	1306.81	742.03	1320.14	574.00	1.11	170.46	1.00	55.70	4110.34	-4076.40	2785.72
Saccade R	1	6	30532294022	30532313905	19883	1306.81	742.03	1320.14	574.00	1.11	170.46	1.00	55.70	4110.34	-4076.40	2785.72
Fixation L	1	7	30532313905	30532512887	198982	1318.57	542.73	6	91	-1	14.19	14.19
Fixation R	1	7	30532313905	30532512887	198982	1318.57	542.73	6	91	-1	20.38	20.38
Saccade L	1	7	30532512887	30532552637	39750	1318.27	529.06	939.70	550.03	3.23	359.86	1.00	81.20	8598.65	-8621.01	4631.66
Saccade R	1	7	30532512887	30532552637	39750	1318.27	529.06	939.70	550.03	3.23	359.86	1.00	81.20	8598.65	-8621.01	4631.66
Fixation L	1	8	30532552637	30532831124	278487	936.29	569.66	12	62	-1	14.46	14.46
Fixation R	1	8	30532552637	30532831124	278487	936.29	569.66	12	62	-1	15.06	15.06
Saccade L	1	8	30532831124	30532870868	39744	929.58	607.51	814.76	572.97	1.46	74.96	1.00	36.84	1758.22	-1602.68	1231.12
Saccade R	1	8	30532831124	30532870868	39744	929.58	607.51	814.76	572.97	1.46	74.96	1.00	36.84	1758.22	-1602.68	1231.12
Fixation L	1	9	30532870868	30533189113	318245	797.69	587.25	24	25	-1	14.40	14.40
Fixation R	1	9	30532870868	30533189113	318245	797.69	587.25	24	25	-1	15.03	15.03
Blink L	1	1	30533189113	30533387974	198861
Blink R	1	1	30533189113	30533387974	198861
Fixation L	1	10	30533407853	30533507344	99491	792.13	469.84	11	69	-1	14.41	14.41
Fixation R	1	10	30533407853	30533507344	99491	792.13	469.84	11	69	-1	18.33	16.50
Saccade L	1	9	30533507344	30533606724	99380	797.21	435.29	1039.65	489.51	5.53	237.69	1.00	55.68	5703.21	-5767.17	2470.04
Saccade R	1	9	30533507344	30533606724	99380	797.21	435.29	1039.65	489.51	5.53	237.69	1.00	55.68	5703.21	-5767.17	2470.04
Fixation L	1	11	30533606724	30533805706	198982	1045.00	496.71	59	33	-1	14.73	14.73
Fixation R	1	11	30533606724	30533805706	198982	1045.00	496.71	59	33	-1	14.67	14.67
Saccade L	1	10	30533805706	30533825585	19879	1038.99	498.64	1096.21	535.63	0.79	68.92	1.00	39.79	243.60	-1256.58	575.63
Saccade R	1	10	30533805706	30533825585	19879	1038.99	498.64	1096.21	535.63	0.79	68.92	1.00	39.79	243.60	-1256.58	575.63
Fixation L	1	12	30533825585	30533944955	119370	1074.68	532.61	57	34	-1	14.86	14.86
Fixation R	1	12	30533825585	30533944955	119370	1074.68	532.61	57	34	-1	14.70	14.70
Saccade L	1	11	30533944955	30533984706	39751	1048.68	521.54	1079.76	751.41	2.22	151.15	1.00	55.88	3712.75	-3089.82	2798.86
Saccade R	1	11	30533944955	30533984706	39751	1048.68	521.54	1079.76	751.41	2.22	151.15	1.00	55.88	3712.75	-3089.82	2798.86
Fixation L	1	13	30533984706	30534302942	318236	1103.87	705.16	35	61	-1	15.07	15.07
Fixation R	1	13	30533984706	30534302942	318236	1103.87	705.16	35	61	-1	14.76	14.76
Saccade L	1	12	30534302942	30534342679	39737	1115.30	693.25	752.44	698.77	2.95	306.05	1.00	74.16	7642.70	-7349.15	4485.92
Saccade R	1	12	30534302942	30534342679	39737	1115.30	693.25	752.44	698.77	2.95	306.05	1.00	74.16	7642.70	-7349.15	4485.92
Fixation L	1	14	30534342679	30534442177	99498	748.37	704.61	9	16	-1	15.62	15.62
Fixation R	1	14	30534342679	30534442177	99498	748.37	704.61	9	16	-1	15.20	15.20
