[BeGaze]
Converted from:	C:\Documents and Settings\iViewX\Desktop\EXPERIMENTATIONS\Experiments\results\finaleart\S14F27123-finaleart-1.idf
Date:	27.03.2019 15:44:03
Version:	BeGaze 2.5.77
Sample Rate:	50
Subject:	S14F27123
Description:	Anne-flore Perrin

Table Header for Fixations:
Event Type	Trial	Number	Start	End	Duration	Location X	Location Y	Dispersion X	Dispersion Y	Plane	Avg. Pupil Size X	Avg. Pupil Size Y

Table Header for Saccades:
Event Type	Trial	Number	Start	End	Duration	Start Loc.X	Start Loc.Y	End Loc.X	End Loc.Y	Amplitude	Peak Speed	Peak Speed At	Average Speed	Peak Accel.	Peak Decel.	Average Accel.

Table Header for Blinks:
Event Type	Trial	Number	Start	End	Duration

Table Header for User Events:
Event Type	Trial	Number	Start	Description

UserEvent	1	1	31618463122	# Message: void.jpg
Saccade L	1	1	31618477104	31618516834	39730	972.43	494.79	1100.18	539.50	1.93	137.45	1.00	48.48	3436.26	-3185.14	1929.87
Saccade R	1	1	31618477104	31618516834	39730	972.43	494.79	1100.18	539.50	1.93	137.45	1.00	48.48	3436.26	-3185.14	1929.87
Fixation L	1	1	31618516834	31618636366	119532	1123.44	581.12	37	59	-1	10.99	10.99
Fixation R	1	1	31618516834	31618636366	119532	1123.44	581.12	37	59	-1	11.57	11.57
Saccade L	1	2	31618636366	31618675951	39585	1131.68	598.50	1366.40	331.26	3.16	285.29	0.50	79.75	6890.68	-6984.06	4614.49
Saccade R	1	2	31618636366	31618675951	39585	1131.68	598.50	1366.40	331.26	3.16	285.29	0.50	79.75	6890.68	-6984.06	4614.49
Fixation L	1	2	31618675951	31618914563	238612	1358.44	335.28	14	12	-1	11.10	11.10
Fixation R	1	2	31618675951	31618914563	238612	1358.44	335.28	14	12	-1	11.38	11.38
Blink L	1	1	31618914563	31619073693	159130
Blink R	1	1	31618914563	31619073693	159130
Blink L	1	2	31619093568	31619332314	238746
Blink R	1	2	31619093568	31619332314	238746
Fixation L	1	3	31619332314	31619769903	437589	718.01	555.95	31	27	-1	12.64	12.64
Fixation R	1	3	31619332314	31619769903	437589	718.01	555.95	31	27	-1	14.47	13.16
Saccade L	1	3	31619769903	31619789773	19870	706.77	567.07	651.11	598.18	0.59	64.51	1.00	29.70	1435.98	-1392.40	1301.66
Saccade R	1	3	31619769903	31619789773	19870	706.77	567.07	651.11	598.18	0.59	64.51	1.00	29.70	1435.98	-1392.40	1301.66
Fixation L	1	4	31619789773	31620147762	357989	662.27	632.17	44	54	-1	12.25	12.25
Fixation R	1	4	31619789773	31620147762	357989	662.27	632.17	44	54	-1	12.95	12.95
Saccade L	1	4	31620147762	31620167630	19868	655.67	651.51	657.31	655.36	0.08	4.49	0.00	3.87	36.76	-14.95	21.52
Saccade R	1	4	31620147762	31620167630	19868	655.67	651.51	657.31	655.36	0.08	4.49	0.00	3.87	36.76	-14.95	21.52
Fixation L	1	5	31620167630	31620446123	278493	659.26	666.21	5	17	-1	12.49	12.49
Fixation R	1	5	31620167630	31620446123	278493	659.26	666.21	5	17	-1	13.33	13.33
