[BeGaze]
Converted from:	C:\Documents and Settings\iViewX\Desktop\EXPERIMENTATIONS\Experiments\results\finaleart\S14F27123-finaleart-1.idf
Date:	27.03.2019 15:43:26
Version:	BeGaze 2.5.77
Sample Rate:	50
Subject:	S14F27123
Description:	Anne-flore Perrin

Table Header for Fixations:
Event Type	Trial	Number	Start	End	Duration	Location X	Location Y	Dispersion X	Dispersion Y	Plane	Avg. Pupil Size X	Avg. Pupil Size Y

Table Header for Saccades:
Event Type	Trial	Number	Start	End	Duration	Start Loc.X	Start Loc.Y	End Loc.X	End Loc.Y	Amplitude	Peak Speed	Peak Speed At	Average Speed	Peak Accel.	Peak Decel.	Average Accel.

Table Header for Blinks:
Event Type	Trial	Number	Start	End	Duration

Table Header for User Events:
Event Type	Trial	Number	Start	Description

UserEvent	1	1	30951474756	# Message: void.jpg
Fixation L	1	1	30951478935	30951618206	139271	1395.39	893.53	10	8	-1	20.96	20.96
Fixation R	1	1	30951478935	30951618206	139271	1395.39	893.53	10	8	-1	12.92	12.92
Blink L	1	1	30951618206	30951697835	79629
Blink R	1	1	30951618206	30951697835	79629
Fixation L	1	2	30951697835	30951956277	258442	1522.02	914.74	54	23	-1	21.25	21.25
Fixation R	1	2	30951697835	30951956277	258442	1522.02	914.74	54	23	-1	13.34	13.34
Blink L	1	2	30951956277	30952592877	636600
Blink R	1	2	30951956277	30952592877	636600
Fixation L	1	3	30952592877	30952831492	238615	763.30	568.43	10	25	-1	13.17	13.17
Fixation R	1	3	30952592877	30952831492	238615	763.30	568.43	10	25	-1	14.80	14.80
Saccade L	1	1	30952831492	30952851365	19873	768.52	567.76	691.15	636.13	0.63	104.44	1.00	31.62	2580.47	-1827.96	1523.64
Saccade R	1	1	30952831492	30952851365	19873	768.52	567.76	691.15	636.13	0.63	104.44	1.00	31.62	2580.47	-1827.96	1523.64
Fixation L	1	4	30952851365	30953308853	457488	702.61	633.75	22	74	-1	11.11	11.11
Fixation R	1	4	30952851365	30953308853	457488	702.61	633.75	22	74	-1	12.23	12.23
Saccade L	1	2	30953308853	30953328776	19923	687.72	660.79	685.12	676.51	0.24	16.12	1.00	12.22	280.72	-66.68	131.86
Saccade R	1	2	30953308853	30953328776	19923	687.72	660.79	685.12	676.51	0.24	16.12	1.00	12.22	280.72	-66.68	131.86
Fixation L	1	5	30953328776	30953467981	139205	680.67	682.05	6	13	-1	12.06	12.06
Fixation R	1	5	30953328776	30953467981	139205	680.67	682.05	6	13	-1	12.29	12.29
