[BeGaze]
Converted from:	C:\Documents and Settings\iViewX\Desktop\EXPERIMENTATIONS\Experiments\results\finaleart\S14F27123-finaleart-1.idf
Date:	27.03.2019 15:43:41
Version:	BeGaze 2.5.77
Sample Rate:	50
Subject:	S14F27123
Description:	Anne-flore Perrin

Table Header for Fixations:
Event Type	Trial	Number	Start	End	Duration	Location X	Location Y	Dispersion X	Dispersion Y	Plane	Avg. Pupil Size X	Avg. Pupil Size Y

Table Header for Saccades:
Event Type	Trial	Number	Start	End	Duration	Start Loc.X	Start Loc.Y	End Loc.X	End Loc.Y	Amplitude	Peak Speed	Peak Speed At	Average Speed	Peak Accel.	Peak Decel.	Average Accel.

Table Header for Blinks:
Event Type	Trial	Number	Start	End	Duration

Table Header for User Events:
Event Type	Trial	Number	Start	Description

UserEvent	1	1	31369908488	# Message: void.jpg
Saccade L	1	1	31369913642	31369973293	59651	907.51	587.98	1565.97	598.82	8.16	349.64	0.67	136.87	8740.97	-8394.37	4187.24
Saccade R	1	1	31369913642	31369973293	59651	907.51	587.98	1565.97	598.82	8.16	349.64	0.67	136.87	8740.97	-8394.37	4187.24
Fixation L	1	1	31369973293	31370271629	298336	1556.47	607.59	56	32	-1	12.03	12.03
Fixation R	1	1	31369973293	31370271629	298336	1556.47	607.59	56	32	-1	11.97	11.97
Saccade L	1	2	31370271629	31370371114	99485	1602.12	601.55	1602.67	594.57	5.79	327.91	1.00	58.15	34535.57	-557.33	6196.54
Saccade R	1	2	31370271629	31370371114	99485	1602.12	601.55	1602.67	594.57	5.79	327.91	1.00	58.15	34535.57	-557.33	6196.54
Blink L	1	1	31370371114	31370490482	119368
Blink R	1	1	31370371114	31370490482	119368
Blink L	1	2	31370510359	31370967835	457476
Blink R	1	2	31370510359	31370967835	457476
Fixation L	1	2	31370967835	31371325827	357992	718.55	760.17	14	15	-1	12.08	12.08
Fixation R	1	2	31370967835	31371325827	357992	718.55	760.17	14	15	-1	12.53	12.53
Blink L	1	3	31371325827	31371564568	238741
Blink R	1	3	31371325827	31371564568	238741
Blink L	1	4	31371564568	31371703806	139238
Blink R	1	4	31371564568	31371703806	139238
Saccade L	1	3	31371703806	31371803173	99367	686.23	940.31	789.42	754.07	29.16	1152.95	0.80	293.45	28555.93	-28009.63	15955.81
Saccade R	1	3	31371703806	31371803173	99367	686.23	940.31	789.42	754.07	29.16	1152.95	0.80	293.45	28555.93	-28009.63	15955.81
Fixation L	1	3	31371803173	31371902667	99494	790.29	724.21	11	41	-1	11.93	11.93
Fixation R	1	3	31371803173	31371902667	99494	790.29	724.21	11	41	-1	11.69	11.69
