[BeGaze]
Converted from:	C:\Documents and Settings\iViewX\Desktop\EXPERIMENTATIONS\Experiments\results\finaleart\S14F27123-finaleart-1.idf
Date:	27.03.2019 15:43:05
Version:	BeGaze 2.5.77
Sample Rate:	50
Subject:	S14F27123
Description:	Anne-flore Perrin

Table Header for Fixations:
Event Type	Trial	Number	Start	End	Duration	Location X	Location Y	Dispersion X	Dispersion Y	Plane	Avg. Pupil Size X	Avg. Pupil Size Y

Table Header for Saccades:
Event Type	Trial	Number	Start	End	Duration	Start Loc.X	Start Loc.Y	End Loc.X	End Loc.Y	Amplitude	Peak Speed	Peak Speed At	Average Speed	Peak Accel.	Peak Decel.	Average Accel.

Table Header for Blinks:
Event Type	Trial	Number	Start	End	Duration

Table Header for User Events:
Event Type	Trial	Number	Start	Description

UserEvent	1	1	30583429068	# Message: void.jpg
Fixation L	1	1	30583431568	30583570809	139241	1328.17	798.86	12	22	-1	12.59	12.59
Fixation R	1	1	30583431568	30583570809	139241	1328.17	798.86	12	22	-1	12.77	12.77
Saccade L	1	1	30583570809	30583630415	59606	1325.94	804.33	493.06	703.79	8.66	416.69	0.67	145.27	10375.30	-9996.41	6519.31
Saccade R	1	1	30583570809	30583630415	59606	1325.94	804.33	493.06	703.79	8.66	416.69	0.67	145.27	10375.30	-9996.41	6519.31
Fixation L	1	2	30583630415	30583829279	198864	490.99	697.58	26	26	-1	12.89	12.89
Fixation R	1	2	30583630415	30583829279	198864	490.99	697.58	26	26	-1	13.41	13.41
Blink L	1	1	30583829279	30584167396	338117
Blink R	1	1	30583829279	30584167396	338117
Fixation L	1	3	30584167396	30584366389	198993	704.47	341.50	22	26	-1	11.96	11.96
Fixation R	1	3	30584167396	30584366389	198993	704.47	341.50	22	26	-1	12.61	12.61
Saccade L	1	2	30584366389	30584426009	59620	700.11	350.30	951.72	896.41	6.47	346.35	0.67	108.52	8526.19	-8178.98	4963.89
Saccade R	1	2	30584366389	30584426009	59620	700.11	350.30	951.72	896.41	6.47	346.35	0.67	108.52	8526.19	-8178.98	4963.89
Fixation L	1	4	30584426009	30584604993	178984	960.37	888.28	18	14	-1	13.54	13.54
Fixation R	1	4	30584426009	30584604993	178984	960.37	888.28	18	14	-1	14.28	14.28
Saccade L	1	3	30584604993	30584644748	39755	959.89	891.68	822.87	712.01	2.47	204.80	0.50	62.13	5072.50	-4599.24	3349.50
Saccade R	1	3	30584604993	30584644748	39755	959.89	891.68	822.87	712.01	2.47	204.80	0.50	62.13	5072.50	-4599.24	3349.50
Fixation L	1	5	30584644748	30585420461	775713	811.28	699.70	27	37	-1	13.01	13.01
Fixation R	1	5	30584644748	30585420461	775713	811.28	699.70	27	37	-1	13.35	13.35
