[BeGaze]
Converted from:	C:\Documents and Settings\iViewX\Desktop\EXPERIMENTATIONS\Experiments\results\finaleart\S16F14542-finaleart-1.idf
Date:	27.03.2019 15:47:36
Version:	BeGaze 2.5.77
Sample Rate:	50
Subject:	S16F14542
Description:	Diane Dewez

Table Header for Fixations:
Event Type	Trial	Number	Start	End	Duration	Location X	Location Y	Dispersion X	Dispersion Y	Plane	Avg. Pupil Size X	Avg. Pupil Size Y

Table Header for Saccades:
Event Type	Trial	Number	Start	End	Duration	Start Loc.X	Start Loc.Y	End Loc.X	End Loc.Y	Amplitude	Peak Speed	Peak Speed At	Average Speed	Peak Accel.	Peak Decel.	Average Accel.

Table Header for Blinks:
Event Type	Trial	Number	Start	End	Duration

Table Header for User Events:
Event Type	Trial	Number	Start	Description

UserEvent	1	1	7286770932	# Message: courbet_Femme_nue_et_dormant_1858.jpg
Saccade L	1	1	7286789602	7286869102	79500	823.73	583.85	817.85	576.53	1.83	101.74	1.00	23.07	2328.42	-229.67	886.08
Saccade R	1	1	7286789602	7286869102	79500	823.73	583.85	817.85	576.53	1.83	101.74	1.00	23.07	2328.42	-229.67	886.08
Fixation L	1	1	7286928983	7287207365	278382	803.58	535.05	15	32	-1	9.46	9.46
Fixation R	1	1	7286928983	7287207365	278382	803.58	535.05	15	32	-1	9.37	9.37
Saccade L	1	2	7287207365	7287247086	39721	806.44	528.40	1220.15	527.66	3.64	242.12	1.00	91.59	5954.04	-5737.09	4902.64
Saccade R	1	2	7287207365	7287247086	39721	806.44	528.40	1220.15	527.66	3.64	242.12	1.00	91.59	5954.04	-5737.09	4902.64
Fixation L	1	2	7287247086	7287406196	159110	1260.62	512.77	54	38	-1	10.26	10.26
Fixation R	1	2	7287247086	7287406196	159110	1260.62	512.77	54	38	-1	10.13	10.13
Saccade L	1	3	7287406196	7287485700	79504	1274.95	493.13	1393.56	496.61	1.75	86.80	1.00	22.00	2011.05	-1996.86	799.91
Saccade R	1	3	7287406196	7287485700	79504	1274.95	493.13	1393.56	496.61	1.75	86.80	1.00	22.00	2011.05	-1996.86	799.91
Fixation L	1	3	7287485700	7287684687	198987	1420.67	473.60	39	46	-1	11.41	11.41
Fixation R	1	3	7287485700	7287684687	198987	1420.67	473.60	39	46	-1	11.21	11.21
Saccade L	1	4	7287684687	7287704560	19873	1432.63	451.74	1444.23	438.81	0.16	17.57	1.00	7.92	422.30	-343.87	314.35
Saccade R	1	4	7287684687	7287704560	19873	1432.63	451.74	1444.23	438.81	0.16	17.57	1.00	7.92	422.30	-343.87	314.35
Fixation L	1	4	7287704560	7287843798	139238	1441.55	445.54	4	9	-1	12.51	12.51
Fixation R	1	4	7287704560	7287843798	139238	1441.55	445.54	4	9	-1	12.40	12.40
Saccade L	1	5	7287843798	7287883539	39741	1439.53	448.27	1006.39	613.70	3.94	247.71	0.50	99.11	6153.32	-5794.54	5766.65
Saccade R	1	5	7287843798	7287883539	39741	1439.53	448.27	1006.39	613.70	3.94	247.71	0.50	99.11	6153.32	-5794.54	5766.65
Fixation L	1	5	7287883539	7288201779	318240	981.33	630.01	30	44	-1	13.73	13.73
Fixation R	1	5	7287883539	7288201779	318240	981.33	630.01	30	44	-1	13.79	13.79
Saccade L	1	6	7288201779	7288241530	39751	979.26	652.62	1386.74	565.84	3.55	228.75	0.50	89.43	5646.83	-5347.36	5029.85
Saccade R	1	6	7288201779	7288241530	39751	979.26	652.62	1386.74	565.84	3.55	228.75	0.50	89.43	5646.83	-5347.36	5029.85
Fixation L	1	6	7288241530	7288400658	159128	1390.19	536.85	23	53	-1	14.79	14.79
Fixation R	1	6	7288241530	7288400658	159128	1390.19	536.85	23	53	-1	14.34	14.34
Saccade L	1	7	7288400658	7288420513	19855	1402.49	512.19	1415.75	501.35	0.30	19.50	1.00	15.20	156.79	-361.10	190.75
Saccade R	1	7	7288400658	7288420513	19855	1402.49	512.19	1415.75	501.35	0.30	19.50	1.00	15.20	156.79	-361.10	190.75
Fixation L	1	7	7288420513	7288738759	318246	1427.23	496.67	28	31	-1	15.39	15.39
Fixation R	1	7	7288420513	7288738759	318246	1427.23	496.67	28	31	-1	14.67	14.67
Saccade L	1	8	7288738759	7288798499	59740	1427.33	490.24	906.25	447.87	5.70	239.48	0.67	95.36	5836.03	-5430.40	3916.27
Saccade R	1	8	7288738759	7288798499	59740	1427.33	490.24	906.25	447.87	5.70	239.48	0.67	95.36	5836.03	-5430.40	3916.27
Fixation L	1	8	7288798499	7288997371	198872	907.54	429.28	10	24	-1	15.57	15.57
Fixation R	1	8	7288798499	7288997371	198872	907.54	429.28	10	24	-1	15.35	15.35
Saccade L	1	9	7288997371	7289017245	19874	904.05	428.05	759.64	388.96	0.93	151.32	1.00	46.97	3741.91	-3081.40	2558.48
Saccade R	1	9	7288997371	7289017245	19874	904.05	428.05	759.64	388.96	0.93	151.32	1.00	46.97	3741.91	-3081.40	2558.48
Fixation L	1	9	7289017245	7289434976	417731	718.79	390.73	52	31	-1	15.36	15.36
Fixation R	1	9	7289017245	7289434976	417731	718.79	390.73	52	31	-1	15.75	15.75
Saccade L	1	10	7289434976	7289474725	39749	718.35	385.56	1001.90	540.57	3.05	213.52	0.50	76.71	5208.20	-4866.40	4079.22
Saccade R	1	10	7289434976	7289474725	39749	718.35	385.56	1001.90	540.57	3.05	213.52	0.50	76.71	5208.20	-4866.40	4079.22
Fixation L	1	10	7289474725	7289653714	178989	992.36	545.70	18	14	-1	15.31	15.31
Fixation R	1	10	7289474725	7289653714	178989	992.36	545.70	18	14	-1	15.72	15.72
Saccade L	1	11	7289653714	7289673582	19868	990.07	554.92	994.23	678.79	0.70	125.36	1.00	35.14	3079.94	-3038.66	2075.52
Saccade R	1	11	7289653714	7289673582	19868	990.07	554.92	994.23	678.79	0.70	125.36	1.00	35.14	3079.94	-3038.66	2075.52
Fixation L	1	11	7289673582	7289932190	258608	1001.80	682.63	11	10	-1	15.77	15.77
Fixation R	1	11	7289673582	7289932190	258608	1001.80	682.63	11	10	-1	16.10	16.10
Saccade L	1	12	7289932190	7289952070	19880	1003.75	689.13	1146.01	688.55	1.06	143.89	1.00	53.12	3522.83	-3485.96	2753.48
Saccade R	1	12	7289932190	7289952070	19880	1003.75	689.13	1146.01	688.55	1.06	143.89	1.00	53.12	3522.83	-3485.96	2753.48
Fixation L	1	12	7289952070	7290190813	238743	1205.06	702.26	67	21	-1	16.21	16.21
Fixation R	1	12	7289952070	7290190813	238743	1205.06	702.26	67	21	-1	16.22	16.22
Saccade L	1	13	7290190813	7290230561	39748	1213.05	709.56	1364.04	616.62	1.81	106.67	1.00	45.56	2628.73	-2069.30	2247.10
Saccade R	1	13	7290190813	7290230561	39748	1213.05	709.56	1364.04	616.62	1.81	106.67	1.00	45.56	2628.73	-2069.30	2247.10
Fixation L	1	13	7290230561	7290389675	159114	1366.02	581.49	40	48	-1	16.02	16.02
Fixation R	1	13	7290230561	7290389675	159114	1366.02	581.49	40	48	-1	15.53	15.53
Saccade L	1	14	7290389675	7290409552	19877	1338.37	593.74	1145.47	718.76	1.47	232.42	1.00	74.20	5594.20	-5689.62	4107.88
Saccade R	1	14	7290389675	7290409552	19877	1338.37	593.74	1145.47	718.76	1.47	232.42	1.00	74.20	5594.20	-5689.62	4107.88
Fixation L	1	14	7290409552	7290767667	358115	1127.49	722.28	25	18	-1	15.61	15.61
Fixation R	1	14	7290409552	7290767667	358115	1127.49	722.28	25	18	-1	15.21	15.21
