[BeGaze]
Converted from:	C:\Documents and Settings\iViewX\Desktop\EXPERIMENTATIONS\Experiments\results\finaleart\S16F14542-finaleart-1.idf
Date:	27.03.2019 15:46:12
Version:	BeGaze 2.5.77
Sample Rate:	50
Subject:	S16F14542
Description:	Diane Dewez

Table Header for Fixations:
Event Type	Trial	Number	Start	End	Duration	Location X	Location Y	Dispersion X	Dispersion Y	Plane	Avg. Pupil Size X	Avg. Pupil Size Y

Table Header for Saccades:
Event Type	Trial	Number	Start	End	Duration	Start Loc.X	Start Loc.Y	End Loc.X	End Loc.Y	Amplitude	Peak Speed	Peak Speed At	Average Speed	Peak Accel.	Peak Decel.	Average Accel.

Table Header for Blinks:
Event Type	Trial	Number	Start	End	Duration

Table Header for User Events:
Event Type	Trial	Number	Start	Description

UserEvent	1	1	6345440077	# Message: void.jpg
Saccade L	1	1	6345448943	6345528447	79504	1004.18	498.27	1007.94	504.82	15.60	1125.69	1.00	196.23	27908.55	-416.04	4833.35
Saccade R	1	1	6345448943	6345528447	79504	1004.18	498.27	1007.94	504.82	15.60	1125.69	1.00	196.23	27908.55	-416.04	4833.35
Blink L	1	1	6345528447	6345767179	238732
Blink R	1	1	6345528447	6345767179	238732
Fixation L	1	1	6345767179	6346005795	238616	1184.91	481.76	9	44	-1	16.57	16.57
Fixation R	1	1	6345767179	6346005795	238616	1184.91	481.76	9	44	-1	16.87	16.87
Blink L	1	2	6346005795	6346383640	377845
Blink R	1	2	6346005795	6346383640	377845
Fixation L	1	2	6346383640	6346741751	358111	679.94	490.01	33	57	-1	14.96	14.96
Fixation R	1	2	6346383640	6346741751	358111	679.94	490.01	33	57	-1	15.18	15.18
Saccade L	1	2	6346741751	6346781498	39747	695.99	509.56	925.80	503.98	2.21	127.95	0.50	55.56	2633.93	-2712.38	2597.02
Saccade R	1	2	6346741751	6346781498	39747	695.99	509.56	925.80	503.98	2.21	127.95	0.50	55.56	2633.93	-2712.38	2597.02
Fixation L	1	3	6346781498	6347159349	377851	927.86	449.11	8	85	-1	12.78	12.78
Fixation R	1	3	6346781498	6347159349	377851	927.86	449.11	8	85	-1	12.91	12.91
Saccade L	1	3	6347159349	6347179358	20009	931.33	418.14	932.56	412.67	0.08	5.68	1.00	3.79	118.72	-47.37	55.97
Saccade R	1	3	6347159349	6347179358	20009	931.33	418.14	932.56	412.67	0.08	5.68	1.00	3.79	118.72	-47.37	55.97
Fixation L	1	4	6347179358	6347437853	258495	935.41	413.51	7	17	-1	11.94	11.94
Fixation R	1	4	6347179358	6347437853	258495	935.41	413.51	7	17	-1	12.11	12.11
