[BeGaze]
Converted from:	C:\Documents and Settings\iViewX\Desktop\EXPERIMENTATIONS\Experiments\results\finaleart\S16F14542-finaleart-1.idf
Date:	27.03.2019 15:46:13
Version:	BeGaze 2.5.77
Sample Rate:	50
Subject:	S16F14542
Description:	Diane Dewez

Table Header for Fixations:
Event Type	Trial	Number	Start	End	Duration	Location X	Location Y	Dispersion X	Dispersion Y	Plane	Avg. Pupil Size X	Avg. Pupil Size Y

Table Header for Saccades:
Event Type	Trial	Number	Start	End	Duration	Start Loc.X	Start Loc.Y	End Loc.X	End Loc.Y	Amplitude	Peak Speed	Peak Speed At	Average Speed	Peak Accel.	Peak Decel.	Average Accel.

Table Header for Blinks:
Event Type	Trial	Number	Start	End	Duration

Table Header for User Events:
Event Type	Trial	Number	Start	Description

UserEvent	1	1	6353580448	# Message: plage-de-la-vignassa_cross_1892.jpg
Fixation L	1	1	6353583924	6354220390	636466	873.17	657.85	9	23	-1	13.55	13.55
Fixation R	1	1	6353583924	6354220390	636466	873.17	657.85	9	23	-1	14.82	14.82
Saccade L	1	1	6354220390	6354240269	19879	872.19	660.53	882.22	785.35	0.74	126.65	1.00	37.24	3084.01	-2924.30	2087.86
Saccade R	1	1	6354220390	6354240269	19879	872.19	660.53	882.22	785.35	0.74	126.65	1.00	37.24	3084.01	-2924.30	2087.86
Fixation L	1	2	6354240269	6354558504	318235	890.54	769.36	14	33	-1	12.86	12.86
Fixation R	1	2	6354240269	6354558504	318235	890.54	769.36	14	33	-1	13.90	13.90
Saccade L	1	2	6354558504	6354598249	39745	895.18	757.85	869.00	533.10	2.26	115.58	0.50	56.87	2865.13	-2750.05	2501.25
Saccade R	1	2	6354558504	6354598249	39745	895.18	757.85	869.00	533.10	2.26	115.58	0.50	56.87	2865.13	-2750.05	2501.25
Fixation L	1	3	6354598249	6354697739	99490	851.89	484.34	30	68	-1	12.18	12.18
Fixation R	1	3	6354598249	6354697739	99490	851.89	484.34	30	68	-1	13.22	13.22
Saccade L	1	3	6354697739	6354717627	19888	844.21	464.64	844.68	456.30	0.22	17.26	1.00	11.29	208.35	-220.25	172.46
Saccade R	1	3	6354697739	6354717627	19888	844.21	464.64	844.68	456.30	0.22	17.26	1.00	11.29	208.35	-220.25	172.46
Fixation L	1	4	6354717627	6355035856	318229	838.59	458.55	8	13	-1	11.82	11.82
Fixation R	1	4	6354717627	6355035856	318229	838.59	458.55	8	13	-1	12.74	12.74
Blink L	1	1	6355035856	6355175091	139235
Blink R	1	1	6355035856	6355175091	139235
Saccade L	1	4	6355175091	6355354093	179002	278.13	1012.99	270.64	1138.88	11.62	245.80	0.22	64.91	5813.38	-4745.27	2250.82
Saccade R	1	4	6355175091	6355194966	19875	278.13	1012.99	268.33	1025.03	1.73	245.80	1.00	87.29	5813.38	-1467.02	2522.43
Blink R	1	2	6355194966	6355274591	79625
Saccade R	1	5	6355274591	6355354093	79502	73.93	945.97	270.64	1138.88	4.57	197.04	0.25	57.50	3130.40	-4745.27	2032.34
Fixation L	1	5	6355354093	6356090051	735958	311.18	1146.69	72	18	-1	14.04	14.04
Fixation R	1	5	6355354093	6356090051	735958	311.18	1146.69	72	18	-1	13.74	13.74
Saccade L	1	5	6356090051	6356109920	19869	336.73	1147.55	254.88	1145.89	0.45	82.81	1.00	22.57	2054.35	-1937.99	1382.95
Saccade R	1	6	6356090051	6356109920	19869	336.73	1147.55	254.88	1145.89	0.45	82.81	1.00	22.57	2054.35	-1937.99	1382.95
Fixation L	1	6	6356109920	6356368534	258614	248.04	1144.88	11	2	-1	12.73	12.73
Fixation R	1	6	6356109920	6356368534	258614	248.04	1144.88	11	2	-1	12.58	12.58
Blink L	1	2	6356368534	6356507784	139250
Blink R	1	3	6356368534	6356507784	139250
Fixation L	1	7	6356507784	6357005008	497224	1097.61	513.29	28	43	-1	12.32	12.32
Fixation R	1	7	6356507784	6357005008	497224	1097.61	513.29	28	43	-1	13.05	13.05
Saccade L	1	6	6357005008	6357024881	19873	1076.57	514.22	949.12	440.39	0.95	148.96	1.00	47.81	3640.33	-3518.27	2448.89
Saccade R	1	7	6357005008	6357024881	19873	1076.57	514.22	949.12	440.39	0.95	148.96	1.00	47.81	3640.33	-3518.27	2448.89
Fixation L	1	8	6357024881	6357323244	298363	935.68	422.82	20	25	-1	12.58	12.58
Fixation R	1	8	6357024881	6357323244	298363	935.68	422.82	20	25	-1	12.98	12.98
Saccade L	1	7	6357323244	6357343120	19876	928.87	421.45	800.75	592.67	1.33	216.23	1.00	66.89	5381.69	-5067.30	3824.52
Saccade R	1	8	6357323244	6357343120	19876	928.87	421.45	800.75	592.67	1.33	216.23	1.00	66.89	5381.69	-5067.30	3824.52
Fixation L	1	9	6357343120	6357581877	238757	769.47	617.67	47	42	-1	12.18	12.18
Fixation R	1	9	6357343120	6357581877	238757	769.47	617.67	47	42	-1	12.85	12.85
