[BeGaze]
Converted from:	C:\Documents and Settings\iViewX\Desktop\EXPERIMENTATIONS\Experiments\results\finaleart\S16F14542-finaleart-1.idf
Date:	27.03.2019 15:47:21
Version:	BeGaze 2.5.77
Sample Rate:	50
Subject:	S16F14542
Description:	Diane Dewez

Table Header for Fixations:
Event Type	Trial	Number	Start	End	Duration	Location X	Location Y	Dispersion X	Dispersion Y	Plane	Avg. Pupil Size X	Avg. Pupil Size Y

Table Header for Saccades:
Event Type	Trial	Number	Start	End	Duration	Start Loc.X	Start Loc.Y	End Loc.X	End Loc.Y	Amplitude	Peak Speed	Peak Speed At	Average Speed	Peak Accel.	Peak Decel.	Average Accel.

Table Header for Blinks:
Event Type	Trial	Number	Start	End	Duration

Table Header for User Events:
Event Type	Trial	Number	Start	Description

UserEvent	1	1	7168725502	# Message: void.jpg
Fixation L	1	1	7168738492	7169016963	278471	719.99	489.20	41	57	-1	15.74	15.74
Fixation R	1	1	7168798116	7169036845	238729	720.18	487.08	61	29	-1	16.10	16.10
Saccade L	1	1	7169016963	7169036845	19882	733.53	490.26	671.80	493.66	0.56	62.54	1.00	27.96	1516.61	-775.54	1113.89
Fixation L	1	2	7169036845	7169195956	159111	605.64	498.35	81	13	-1	15.98	15.98
Saccade R	1	1	7169036845	7169056716	19871	671.80	493.66	628.03	499.71	0.70	62.54	0.00	35.37	1049.52	-941.74	922.27
Fixation R	1	2	7169056716	7169693192	636476	593.85	486.14	40	32	-1	15.08	15.08
Saccade L	1	2	7169195956	7169215840	19884	590.18	488.98	587.65	485.50	0.14	12.22	0.00	7.18	41.19	-84.42	50.65
Fixation L	1	3	7169215840	7169693192	477352	592.73	482.05	7	23	-1	14.68	14.68
Blink L	1	1	7169693192	7170071195	378003
Blink R	1	1	7169693192	7170130790	437598
Fixation L	1	4	7170071195	7170190419	119224	769.58	468.92	34	62	-1	13.67	13.67
Fixation R	1	3	7170130790	7170230286	99496	771.42	475.05	20	77	-1	14.10	14.10
Saccade L	1	3	7170190419	7170210285	19866	777.75	490.55	779.58	498.52	0.40	42.62	1.00	20.27	-40.68	-858.53	403.48
Fixation L	1	5	7170210285	7170727514	517229	790.44	507.34	17	50	-1	13.16	13.16
Saccade R	1	2	7170230286	7170250160	19874	780.95	507.18	785.82	502.77	0.15	8.87	0.00	7.35	28.97	-81.35	50.33
Fixation R	1	4	7170250160	7170727514	477354	791.26	507.70	15	50	-1	12.97	12.97
