[BeGaze]
Converted from:	C:\Documents and Settings\iViewX\Desktop\EXPERIMENTATIONS\Experiments\results\finaleart\S16F14542-finaleart-1.idf
Date:	27.03.2019 15:46:08
Version:	BeGaze 2.5.77
Sample Rate:	50
Subject:	S16F14542
Description:	Diane Dewez

Table Header for Fixations:
Event Type	Trial	Number	Start	End	Duration	Location X	Location Y	Dispersion X	Dispersion Y	Plane	Avg. Pupil Size X	Avg. Pupil Size Y

Table Header for Saccades:
Event Type	Trial	Number	Start	End	Duration	Start Loc.X	Start Loc.Y	End Loc.X	End Loc.Y	Amplitude	Peak Speed	Peak Speed At	Average Speed	Peak Accel.	Peak Decel.	Average Accel.

Table Header for Blinks:
Event Type	Trial	Number	Start	End	Duration

Table Header for User Events:
Event Type	Trial	Number	Start	Description

UserEvent	1	1	6304791697	# Message: stilleven-met-vis_dubois-pillet_1885.jpg
Fixation L	1	1	6304793639	6305330727	537088	949.85	553.10	26	45	-1	11.78	11.78
Saccade R	1	1	6304793639	6304833379	39740	957.14	555.28	967.60	588.27	0.71	36.94	1.00	17.99	352.65	-229.37	221.58
Fixation R	1	1	6304873276	6305350594	477318	949.75	550.74	60	12	-1	12.25	12.25
Saccade L	1	1	6305330727	6305370465	39738	943.00	552.32	1107.60	524.90	1.41	111.88	1.00	35.59	2765.93	-2496.56	2009.70
Saccade R	1	2	6305350594	6305370465	19871	1000.93	554.11	1107.60	524.90	0.87	111.88	1.00	43.71	2765.93	-2496.56	2217.03
Fixation L	1	2	6305370465	6305728455	357990	1110.81	491.05	36	47	-1	11.08	11.08
Fixation R	1	2	6305370465	6305728455	357990	1110.81	491.05	36	47	-1	11.48	11.48
Saccade L	1	2	6305728455	6305768334	39879	1085.87	479.60	747.89	409.01	3.48	211.62	0.50	87.16	5232.16	-4164.66	3798.69
Saccade R	1	3	6305728455	6305768334	39879	1085.87	479.60	747.89	409.01	3.48	211.62	0.50	87.16	5232.16	-4164.66	3798.69
Fixation L	1	3	6305768334	6306205811	437477	743.47	428.92	11	44	-1	11.12	11.12
Fixation R	1	3	6305768334	6306205811	437477	743.47	428.92	11	44	-1	11.63	11.63
Saccade L	1	3	6306205811	6306265556	59745	739.63	430.06	1055.13	471.18	3.45	182.96	0.67	57.82	4510.36	-4194.61	2467.90
Saccade R	1	4	6306205811	6306265556	59745	739.63	430.06	1055.13	471.18	3.45	182.96	0.67	57.82	4510.36	-4194.61	2467.90
Fixation L	1	4	6306265556	6306424678	159122	1070.52	484.70	20	22	-1	11.42	11.42
Fixation R	1	4	6306265556	6306424678	159122	1070.52	484.70	20	22	-1	11.86	11.86
Saccade L	1	4	6306424678	6306583787	159109	1070.48	489.68	417.59	1054.35	20.66	286.03	0.25	129.88	7039.92	-6615.97	4158.21
Blink R	1	1	6306424678	6306524045	99367
Saccade R	1	5	6306524045	6306583787	59742	418.73	1073.44	417.59	1054.35	6.46	235.19	1.00	108.10	3587.71	-5807.02	3465.90
Fixation L	1	5	6306583787	6306822410	238623	432.51	1092.25	27	71	-1	12.80	12.80
Fixation R	1	5	6306583787	6306822410	238623	432.51	1092.25	27	71	-1	13.43	13.43
Saccade L	1	5	6306822410	6306842278	19868	445.47	1121.04	446.58	1121.53	0.06	6.33	1.00	3.19	84.28	-127.62	82.49
Saccade R	1	6	6306822410	6306842278	19868	445.47	1121.04	446.58	1121.53	0.06	6.33	1.00	3.19	84.28	-127.62	82.49
Fixation L	1	6	6306842278	6307061149	218871	449.69	1123.35	8	8	-1	13.03	13.03
Fixation R	1	6	6306842278	6307061149	218871	449.69	1123.35	8	8	-1	13.83	13.83
Saccade L	1	6	6307061149	6307120767	59618	444.95	1120.22	749.12	632.53	6.36	318.36	0.67	106.67	7935.41	-6840.52	4539.34
Saccade R	1	7	6307061149	6307120767	59618	444.95	1120.22	749.12	632.53	6.36	318.36	0.67	106.67	7935.41	-6840.52	4539.34
Fixation L	1	7	6307120767	6307339625	218858	762.09	608.85	20	44	-1	12.58	12.58
Fixation R	1	7	6307120767	6307339625	218858	762.09	608.85	20	44	-1	12.91	12.91
Saccade L	1	7	6307339625	6307458875	119250	769.66	605.70	431.25	1128.07	12.84	279.34	0.33	107.65	6920.79	-3825.34	2879.94
Blink R	1	2	6307339625	6307478744	139119
Fixation L	1	8	6307458875	6308373824	914949	445.95	1143.93	53	28	-1	12.82	12.82
Fixation R	1	8	6307478744	6308373824	895080	446.27	1144.27	53	28	-1	13.61	13.61
Saccade L	1	8	6308373824	6308433575	59751	415.02	1133.94	1011.05	839.31	7.40	291.83	0.67	123.83	7171.14	-6335.27	4851.19
Saccade R	1	8	6308373824	6308433575	59751	415.02	1133.94	1011.05	839.31	7.40	291.83	0.67	123.83	7171.14	-6335.27	4851.19
Fixation L	1	9	6308433575	6308572822	139247	1046.56	803.65	45	52	-1	13.36	13.36
Fixation R	1	9	6308433575	6308572822	139247	1046.56	803.65	45	52	-1	13.64	13.64
Saccade L	1	9	6308572822	6308692062	119240	1048.76	800.90	1052.59	545.39	5.15	222.84	1.00	43.16	5440.16	-5451.03	1728.93
Saccade R	1	9	6308572822	6308692062	119240	1048.76	800.90	1052.59	545.39	5.15	222.84	1.00	43.16	5440.16	-5451.03	1728.93
Fixation L	1	10	6308692062	6308791557	99495	1054.52	480.31	4	84	-1	13.25	13.25
Fixation R	1	10	6308692062	6308791557	99495	1054.52	480.31	4	84	-1	13.14	13.14
