[BeGaze]
Converted from:	C:\Documents and Settings\iViewX\Desktop\EXPERIMENTATIONS\Experiments\results\finaleart\S16F14542-finaleart-1.idf
Date:	27.03.2019 15:46:22
Version:	BeGaze 2.5.77
Sample Rate:	50
Subject:	S16F14542
Description:	Diane Dewez

Table Header for Fixations:
Event Type	Trial	Number	Start	End	Duration	Location X	Location Y	Dispersion X	Dispersion Y	Plane	Avg. Pupil Size X	Avg. Pupil Size Y

Table Header for Saccades:
Event Type	Trial	Number	Start	End	Duration	Start Loc.X	Start Loc.Y	End Loc.X	End Loc.Y	Amplitude	Peak Speed	Peak Speed At	Average Speed	Peak Accel.	Peak Decel.	Average Accel.

Table Header for Blinks:
Event Type	Trial	Number	Start	End	Duration

Table Header for User Events:
Event Type	Trial	Number	Start	Description

UserEvent	1	1	6426844635	# Message: bacchante_sorolla_1886.jpg
Fixation L	1	1	6426858803	6427594770	735967	801.81	657.37	34	33	-1	15.35	15.35
Fixation R	1	1	6426858803	6427594770	735967	801.81	657.37	34	33	-1	15.06	15.06
Saccade L	1	1	6427594770	6427634528	39758	772.68	654.73	480.14	656.02	2.65	229.37	0.50	66.56	5529.08	-5501.78	3435.45
Saccade R	1	1	6427594770	6427634528	39758	772.68	654.73	480.14	656.02	2.65	229.37	0.50	66.56	5529.08	-5501.78	3435.45
Fixation L	1	2	6427634528	6427952747	318219	461.95	648.91	24	11	-1	13.50	13.50
Fixation R	1	2	6427634528	6427952747	318219	461.95	648.91	24	11	-1	12.95	12.95
Saccade L	1	2	6427952747	6427992487	39740	460.13	647.29	877.94	633.27	3.73	251.65	1.00	93.78	6212.63	-5822.72	4877.66
Saccade R	1	2	6427952747	6427992487	39740	460.13	647.29	877.94	633.27	3.73	251.65	1.00	93.78	6212.63	-5822.72	4877.66
Fixation L	1	3	6427992487	6428211355	218868	936.10	619.90	71	25	-1	13.09	13.09
Fixation R	1	3	6427992487	6428211355	218868	936.10	619.90	71	25	-1	12.94	12.94
Saccade L	1	3	6428211355	6428270979	59624	948.39	607.54	1131.63	530.36	2.45	193.54	1.00	41.17	4724.78	-4314.14	1903.13
Saccade R	1	3	6428211355	6428270979	59624	948.39	607.54	1131.63	530.36	2.45	193.54	1.00	41.17	4724.78	-4314.14	1903.13
Fixation L	1	4	6428270979	6428509721	238742	1159.93	493.63	44	48	-1	12.96	12.96
Fixation R	1	4	6428270979	6428509721	238742	1159.93	493.63	44	48	-1	12.13	12.13
Saccade L	1	4	6428509721	6428549479	39758	1176.11	482.40	1401.62	475.09	1.93	199.31	1.00	48.59	4869.19	-4870.05	2736.54
Saccade R	1	4	6428509721	6428549479	39758	1176.11	482.40	1401.62	475.09	1.93	199.31	1.00	48.59	4869.19	-4870.05	2736.54
Fixation L	1	5	6428549479	6428807950	258471	1418.41	439.91	32	55	-1	12.14	12.14
Fixation R	1	5	6428549479	6428807950	258471	1418.41	439.91	32	55	-1	11.09	11.09
Saccade L	1	5	6428807950	6428827832	19882	1433.70	420.24	1427.14	403.61	0.18	18.09	1.00	9.05	370.83	56.00	197.15
Saccade R	1	5	6428807950	6428827832	19882	1433.70	420.24	1427.14	403.61	0.18	18.09	1.00	9.05	370.83	56.00	197.15
Fixation L	1	6	6428827832	6429006944	179112	1417.92	359.05	17	70	-1	12.21	12.21
Fixation R	1	6	6428827832	6429006944	179112	1417.92	359.05	17	70	-1	11.59	11.59
Saccade L	1	6	6429006944	6429046694	39750	1413.48	344.37	1059.45	205.85	3.40	243.27	1.00	85.60	5800.11	-5945.73	4530.08
Saccade R	1	6	6429006944	6429046694	39750	1413.48	344.37	1059.45	205.85	3.40	243.27	1.00	85.60	5800.11	-5945.73	4530.08
Fixation L	1	7	6429046694	6429285309	238615	1047.18	167.37	20	68	-1	12.81	12.81
Fixation R	1	7	6429046694	6429285309	238615	1047.18	167.37	20	68	-1	11.90	11.90
Saccade L	1	7	6429285309	6429384802	99493	1041.50	170.63	1497.44	20.22	6.87	198.04	0.20	69.03	4737.99	-3855.64	2833.50
Saccade R	1	7	6429285309	6429384802	99493	1041.50	170.63	1497.44	20.22	6.87	198.04	0.20	69.03	4737.99	-3855.64	2833.50
Fixation L	1	8	6429384802	6429504172	119370	1496.00	48.82	35	59	-1	12.32	12.32
Fixation R	1	8	6429384802	6429504172	119370	1496.00	48.82	35	59	-1	11.28	11.28
Saccade L	1	8	6429504172	6429524036	19864	1473.99	60.72	1466.93	70.08	0.32	19.10	1.00	15.92	117.34	-161.28	127.56
Saccade R	1	8	6429504172	6429524036	19864	1473.99	60.72	1466.93	70.08	0.32	19.10	1.00	15.92	117.34	-161.28	127.56
Fixation L	1	9	6429524036	6429703037	179001	1478.68	73.70	23	29	-1	12.25	12.25
Fixation R	1	9	6429524036	6429703037	179001	1478.68	73.70	23	29	-1	11.43	11.43
Saccade L	1	9	6429703037	6429722911	19874	1473.50	90.77	1545.26	81.27	0.58	73.23	1.00	29.42	1556.64	-916.36	997.88
Saccade R	1	9	6429703037	6429722911	19874	1473.50	90.77	1545.26	81.27	0.58	73.23	1.00	29.42	1556.64	-916.36	997.88
Fixation L	1	10	6429722911	6429882026	159115	1550.51	100.72	17	72	-1	12.56	12.56
Fixation R	1	10	6429722911	6429882026	159115	1550.51	100.72	17	72	-1	11.81	11.81
Saccade L	1	10	6429882026	6429921777	39751	1554.74	129.94	1347.64	319.62	2.87	219.37	1.00	72.24	4859.58	-4977.30	3512.49
Saccade R	1	10	6429882026	6429921777	39751	1554.74	129.94	1347.64	319.62	2.87	219.37	1.00	72.24	4859.58	-4977.30	3512.49
Fixation L	1	11	6429921777	6430160515	238738	1335.24	337.82	23	32	-1	13.54	13.54
Fixation R	1	11	6429921777	6430160515	238738	1335.24	337.82	23	32	-1	12.91	12.91
Saccade L	1	11	6430160515	6430200259	39744	1339.77	336.27	1044.77	543.88	3.37	220.89	1.00	84.71	5066.08	-4884.77	4035.95
Saccade R	1	11	6430160515	6430200259	39744	1339.77	336.27	1044.77	543.88	3.37	220.89	1.00	84.71	5066.08	-4884.77	4035.95
Fixation L	1	12	6430200259	6430439023	238764	1022.32	567.31	31	35	-1	14.32	14.32
Fixation R	1	12	6430200259	6430439023	238764	1022.32	567.31	31	35	-1	13.73	13.73
Saccade L	1	12	6430439023	6430478745	39722	1014.79	567.78	721.82	578.98	2.70	223.01	1.00	67.85	5509.22	-5129.05	3329.68
Saccade R	1	12	6430439023	6430478745	39722	1014.79	567.78	721.82	578.98	2.70	223.01	1.00	67.85	5509.22	-5129.05	3329.68
Fixation L	1	13	6430478745	6430657758	179013	688.96	608.25	44	39	-1	13.68	13.68
Fixation R	1	13	6430478745	6430657758	179013	688.96	608.25	44	39	-1	13.65	13.65
Saccade L	1	13	6430657758	6430697485	39727	677.29	618.98	458.49	625.40	1.85	203.54	1.00	46.48	5019.94	-4870.79	2647.18
Saccade R	1	13	6430657758	6430697485	39727	677.29	618.98	458.49	625.40	1.85	203.54	1.00	46.48	5019.94	-4870.79	2647.18
Fixation L	1	14	6430697485	6430836735	139250	446.96	632.88	22	12	-1	13.34	13.34
Fixation R	1	14	6430697485	6430836735	139250	446.96	632.88	22	12	-1	13.11	13.11
