[BeGaze]
Converted from:	C:\Documents and Settings\iViewX\Desktop\EXPERIMENTATIONS\Experiments\results\finaleart\S16F14542-finaleart-1.idf
Date:	27.03.2019 15:47:56
Version:	BeGaze 2.5.77
Sample Rate:	50
Subject:	S16F14542
Description:	Diane Dewez

Table Header for Fixations:
Event Type	Trial	Number	Start	End	Duration	Location X	Location Y	Dispersion X	Dispersion Y	Plane	Avg. Pupil Size X	Avg. Pupil Size Y

Table Header for Saccades:
Event Type	Trial	Number	Start	End	Duration	Start Loc.X	Start Loc.Y	End Loc.X	End Loc.Y	Amplitude	Peak Speed	Peak Speed At	Average Speed	Peak Accel.	Peak Decel.	Average Accel.

Table Header for Blinks:
Event Type	Trial	Number	Start	End	Duration

Table Header for User Events:
Event Type	Trial	Number	Start	Description

UserEvent	1	1	7493441526	# Message: delacroix-Reclining-Odalisque-or-Woman-with-a-Parakeet-1827.jpg
Fixation L	1	1	7493460728	7493639720	178992	809.30	384.02	5	26	-1	12.03	12.03
Fixation R	1	1	7493460728	7493639720	178992	809.30	384.02	5	26	-1	12.27	12.27
Fixation L	1	2	7493699333	7493878467	179134	803.87	390.10	7	18	-1	12.51	12.51
Fixation R	1	2	7493699333	7493898322	198989	809.92	389.59	69	18	-1	13.01	13.01
Blink L	1	1	7493878467	7493957963	79496
Saccade R	1	1	7493898322	7493938087	39765	870.47	384.53	1219.30	366.50	3.46	224.48	0.50	87.01	5568.38	-5389.50	3467.51
Fixation R	1	3	7493938087	7494136945	198858	1220.96	326.54	19	80	-1	11.63	11.63
Fixation L	1	3	7493957963	7494136945	178982	1221.12	322.54	19	71	-1	13.59	13.59
Saccade L	1	1	7494136945	7494176814	39869	1233.05	331.57	1315.70	231.63	1.59	82.68	1.00	39.98	1764.48	-1653.88	1352.71
Saccade R	1	2	7494136945	7494176814	39869	1233.05	331.57	1315.70	231.63	1.59	82.68	1.00	39.98	1764.48	-1653.88	1352.71
Fixation L	1	4	7494176814	7494395559	218745	1351.48	217.56	49	46	-1	13.53	13.53
Fixation R	1	4	7494176814	7494395559	218745	1351.48	217.56	49	46	-1	11.05	11.05
Saccade L	1	2	7494395559	7494415427	19868	1365.08	224.73	1366.83	245.37	0.38	32.36	1.00	19.13	579.47	12.72	255.23
Saccade R	1	3	7494395559	7494415427	19868	1365.08	224.73	1366.83	245.37	0.38	32.36	1.00	19.13	579.47	12.72	255.23
Fixation L	1	5	7494415427	7494554679	139252	1362.16	215.04	24	71	-1	13.81	13.81
Fixation R	1	5	7494415427	7494554679	139252	1362.16	215.04	24	71	-1	11.18	11.18
Saccade L	1	3	7494554679	7494574545	19866	1368.67	219.50	1382.91	211.02	0.50	46.33	0.00	25.38	524.67	-1062.61	677.77
Saccade R	1	4	7494554679	7494594425	39746	1368.67	219.50	1384.94	214.20	1.11	46.33	0.00	27.85	1259.82	-1062.61	823.29
Fixation L	1	6	7494574545	7494713793	139248	1388.60	204.80	49	43	-1	14.10	14.10
Blink R	1	1	7494594425	7494674045	79620
Saccade R	1	5	7494674045	7494753541	79496	1391.42	193.29	1348.18	322.16	2.69	100.99	1.00	33.78	2455.40	-1926.36	968.80
Saccade L	1	4	7494713793	7494753541	39748	1393.44	214.50	1348.18	322.16	1.28	100.99	1.00	32.08	2455.40	-1926.36	1137.82
Fixation L	1	7	7494753541	7494972413	218872	1340.74	337.10	23	21	-1	14.61	14.61
Fixation R	1	6	7494753541	7494972413	218872	1340.74	337.10	23	21	-1	14.68	14.68
Saccade L	1	5	7494972413	7494992283	19870	1336.47	341.81	1346.17	264.54	0.42	78.77	1.00	21.17	1924.44	-1589.30	1182.44
Saccade R	1	6	7494972413	7494992283	19870	1336.47	341.81	1346.17	264.54	0.42	78.77	1.00	21.17	1924.44	-1589.30	1182.44
Fixation L	1	8	7494992283	7495350263	357980	1362.02	252.03	25	29	-1	14.96	14.96
Fixation R	1	7	7494992283	7495350263	357980	1362.02	252.03	25	29	-1	14.99	14.99
Saccade L	1	6	7495350263	7495390005	39742	1368.54	254.66	1597.59	350.96	2.25	133.37	0.50	56.58	3215.29	-2941.81	2944.46
Saccade R	1	7	7495350263	7495390005	39742	1368.54	254.66	1597.59	350.96	2.25	133.37	0.50	56.58	3215.29	-2941.81	2944.46
Fixation L	1	9	7495390005	7495628751	238746	1580.42	363.21	30	18	-1	15.08	15.08
Fixation R	1	8	7495390005	7495628751	238746	1580.42	363.21	30	18	-1	15.22	15.22
Saccade L	1	7	7495628751	7495747992	119241	1575.43	364.87	726.74	421.11	12.50	241.00	0.33	104.84	5981.89	-4917.95	2777.76
Blink R	1	2	7495628751	7495767995	139244
Fixation L	1	10	7495747992	7496006609	258617	725.69	482.18	8	85	-1	15.66	15.66
Fixation R	1	9	7495767995	7496026478	258483	725.82	488.91	8	90	-1	15.85	15.85
Saccade L	1	8	7496006609	7496026478	19869	728.28	506.30	728.63	515.43	0.09	9.24	1.00	4.75	189.05	-181.01	139.95
Fixation L	1	11	7496026478	7496165726	139248	730.16	518.75	16	10	-1	15.21	15.21
Saccade R	1	8	7496026478	7496046355	19877	728.63	515.43	729.88	518.16	0.10	9.24	0.00	4.83	-45.76	-181.01	92.19
Fixation R	1	10	7496046355	7496165726	119371	730.38	519.22	16	10	-1	15.06	15.06
Saccade L	1	9	7496165726	7496205470	39744	718.41	526.04	474.43	567.83	2.31	196.68	0.50	58.07	4897.72	-4433.25	2853.39
Saccade R	1	9	7496165726	7496205470	39744	718.41	526.04	474.43	567.83	2.31	196.68	0.50	58.07	4897.72	-4433.25	2853.39
Fixation L	1	12	7496205470	7496324850	119380	451.11	539.63	45	50	-1	14.67	14.67
Fixation R	1	11	7496205470	7496324850	119380	451.11	539.63	45	50	-1	14.21	14.21
Saccade L	1	10	7496324850	7496444213	119363	428.54	517.57	1053.72	486.49	9.76	235.57	1.00	81.77	5534.57	-5684.70	2772.46
Saccade R	1	10	7496324850	7496444213	119363	428.54	517.57	1053.72	486.49	9.76	235.57	1.00	81.77	5534.57	-5684.70	2772.46
Fixation L	1	13	7496444213	7496742568	298355	1101.92	498.29	57	35	-1	14.45	14.45
Fixation R	1	12	7496444213	7496742568	298355	1101.92	498.29	57	35	-1	13.79	13.79
Saccade L	1	11	7496742568	7496861949	119381	1110.89	521.56	1074.97	443.62	2.58	96.42	1.00	21.63	2354.08	-2129.55	811.93
Saccade R	1	11	7496742568	7496861949	119381	1110.89	521.56	1074.97	443.62	2.58	96.42	1.00	21.63	2354.08	-2129.55	811.93
Fixation L	1	14	7496861949	7497001184	139235	1040.02	415.42	47	47	-1	13.94	13.94
Fixation R	1	13	7496861949	7497001184	139235	1040.02	415.42	47	47	-1	13.53	13.53
Saccade L	1	12	7497001184	7497060805	59621	1027.29	396.34	1348.41	195.91	4.30	222.27	0.67	72.13	5417.65	-4869.13	2769.30
Saccade R	1	12	7497001184	7497060805	59621	1027.29	396.34	1348.41	195.91	4.30	222.27	0.67	72.13	5417.65	-4869.13	2769.30
Fixation L	1	15	7497060805	7497398906	338101	1390.87	188.16	62	36	-1	14.11	14.11
Fixation R	1	14	7497060805	7497398906	338101	1390.87	188.16	62	36	-1	13.11	13.11
Saccade L	1	13	7497398906	7497438662	39756	1410.48	209.39	1411.16	190.92	0.65	23.28	0.50	16.25	121.15	-299.33	140.16
Saccade R	1	13	7497398906	7497438662	39756	1410.48	209.39	1411.16	190.92	0.65	23.28	0.50	16.25	121.15	-299.33	140.16
