[BeGaze]
Converted from:	C:\Documents and Settings\iViewX\Desktop\EXPERIMENTATIONS\Experiments\results\finaleart\S16F14542-finaleart-1.idf
Date:	27.03.2019 15:47:51
Version:	BeGaze 2.5.77
Sample Rate:	50
Subject:	S16F14542
Description:	Diane Dewez

Table Header for Fixations:
Event Type	Trial	Number	Start	End	Duration	Location X	Location Y	Dispersion X	Dispersion Y	Plane	Avg. Pupil Size X	Avg. Pupil Size Y

Table Header for Saccades:
Event Type	Trial	Number	Start	End	Duration	Start Loc.X	Start Loc.Y	End Loc.X	End Loc.Y	Amplitude	Peak Speed	Peak Speed At	Average Speed	Peak Accel.	Peak Decel.	Average Accel.

Table Header for Blinks:
Event Type	Trial	Number	Start	End	Duration

Table Header for User Events:
Event Type	Trial	Number	Start	Description

UserEvent	1	1	7450712860	# Message: Un_Jardin_Maison_Baptiste_Butler_1895.jpg
Fixation L	1	1	7450719274	7451017617	298343	797.07	468.10	44	26	-1	9.91	9.91
Fixation R	1	1	7450719274	7451017617	298343	797.07	468.10	44	26	-1	10.37	10.37
Saccade L	1	1	7451017617	7451037490	19873	836.26	484.96	968.08	482.32	0.94	133.35	1.00	47.37	3205.10	-2914.16	2287.03
Saccade R	1	1	7451017617	7451037490	19873	836.26	484.96	968.08	482.32	0.94	133.35	1.00	47.37	3205.10	-2914.16	2287.03
Fixation L	1	2	7451037490	7451693840	656350	954.00	496.50	48	26	-1	10.75	10.75
Fixation R	1	2	7451037490	7451693840	656350	954.00	496.50	48	26	-1	11.36	11.36
Saccade L	1	2	7451693840	7451733722	39882	925.74	496.12	649.61	489.44	2.39	173.17	1.00	60.02	4267.93	-3935.59	3265.32
Saccade R	1	2	7451693840	7451733722	39882	925.74	496.12	649.61	489.44	2.39	173.17	1.00	60.02	4267.93	-3935.59	3265.32
Fixation L	1	3	7451733722	7452012202	278480	608.14	476.48	57	41	-1	10.55	10.55
Fixation R	1	3	7451733722	7452012202	278480	608.14	476.48	57	41	-1	11.01	11.01
Saccade L	1	3	7452012202	7452051953	39751	591.70	451.43	393.94	653.04	2.98	259.31	1.00	74.93	6282.58	-6287.73	3561.10
Saccade R	1	3	7452012202	7452051953	39751	591.70	451.43	393.94	653.04	2.98	259.31	1.00	74.93	6282.58	-6287.73	3561.10
Fixation L	1	4	7452051953	7452151325	99372	378.39	710.79	22	72	-1	11.05	11.05
Fixation R	1	4	7452051953	7452151325	99372	378.39	710.79	22	72	-1	11.98	11.98
Saccade L	1	4	7452151325	7452171324	19999	371.55	724.41	369.79	732.12	0.12	8.00	1.00	5.91	92.59	-155.32	115.89
Saccade R	1	4	7452151325	7452171324	19999	371.55	724.41	369.79	732.12	0.12	8.00	1.00	5.91	92.59	-155.32	115.89
Fixation L	1	5	7452171324	7452330439	159115	373.40	741.74	12	16	-1	11.72	11.72
Fixation R	1	5	7452171324	7452330439	159115	373.40	741.74	12	16	-1	12.34	12.34
Saccade L	1	5	7452330439	7452390062	59623	381.10	741.51	866.43	627.43	5.26	233.72	0.33	88.19	5813.42	-4771.56	4239.41
Saccade R	1	5	7452330439	7452390062	59623	381.10	741.51	866.43	627.43	5.26	233.72	0.33	88.19	5813.42	-4771.56	4239.41
Fixation L	1	6	7452390062	7452748047	357985	880.49	612.88	19	27	-1	11.50	11.50
Fixation R	1	6	7452390062	7452748047	357985	880.49	612.88	19	27	-1	11.97	11.97
Blink L	1	1	7452748047	7452887286	139239
Blink R	1	1	7452748047	7452887286	139239
Fixation L	1	7	7452887286	7453185654	298368	1299.51	625.77	12	30	-1	14.46	14.46
Fixation R	1	7	7452887286	7453185654	298368	1299.51	625.77	12	30	-1	15.95	15.95
Blink L	1	2	7453185654	7453384638	198984
Blink R	1	2	7453185654	7453384638	198984
Fixation L	1	8	7453384638	7453503880	119242	1152.11	520.45	71	24	-1	14.45	14.45
Fixation R	1	8	7453384638	7453503880	119242	1152.11	520.45	71	24	-1	13.65	13.65
Saccade L	1	6	7453503880	7453643123	139243	1147.07	521.07	776.07	682.23	7.47	265.06	1.00	53.67	6434.27	-6243.47	2381.65
Saccade R	1	6	7453503880	7453643123	139243	1147.07	521.07	776.07	682.23	7.47	265.06	1.00	53.67	6434.27	-6243.47	2381.65
Fixation L	1	9	7453643123	7453961358	318235	734.33	708.88	52	40	-1	13.86	13.86
Fixation R	1	9	7453643123	7453961358	318235	734.33	708.88	52	40	-1	14.21	14.21
Saccade L	1	7	7453961358	7454001113	39755	735.88	721.96	542.07	805.87	1.79	132.77	0.50	45.02	3261.12	-3206.51	2622.15
Saccade R	1	7	7453961358	7454001113	39755	735.88	721.96	542.07	805.87	1.79	132.77	0.50	45.02	3261.12	-3206.51	2622.15
Fixation L	1	10	7454001113	7454219975	218862	536.82	812.18	7	10	-1	14.12	14.12
Fixation R	1	10	7454001113	7454219975	218862	536.82	812.18	7	10	-1	14.20	14.20
Saccade L	1	8	7454219975	7454279590	59615	536.45	815.38	1064.44	570.75	6.43	223.05	0.67	107.86	5557.30	-4606.53	4073.85
Saccade R	1	8	7454219975	7454279590	59615	536.45	815.38	1064.44	570.75	6.43	223.05	0.67	107.86	5557.30	-4606.53	4073.85
Fixation L	1	11	7454279590	7454558093	278503	1108.14	539.40	51	44	-1	13.34	13.34
Fixation R	1	11	7454279590	7454558093	278503	1108.14	539.40	51	44	-1	13.30	13.30
Saccade L	1	9	7454558093	7454577965	19872	1113.21	526.16	1111.95	521.64	0.07	4.75	1.00	3.33	69.20	-75.91	53.40
Saccade R	1	9	7454558093	7454577965	19872	1113.21	526.16	1111.95	521.64	0.07	4.75	1.00	3.33	69.20	-75.91	53.40
Fixation L	1	12	7454577965	7454697327	119362	1113.37	523.85	2	5	-1	13.08	13.08
Fixation R	1	12	7454577965	7454697327	119362	1113.37	523.85	2	5	-1	12.72	12.72
