[BeGaze]
Converted from:	C:\Documents and Settings\iViewX\Desktop\EXPERIMENTATIONS\Experiments\results\finaleart\S16F14542-finaleart-1.idf
Date:	27.03.2019 15:46:50
Version:	BeGaze 2.5.77
Sample Rate:	50
Subject:	S16F14542
Description:	Diane Dewez

Table Header for Fixations:
Event Type	Trial	Number	Start	End	Duration	Location X	Location Y	Dispersion X	Dispersion Y	Plane	Avg. Pupil Size X	Avg. Pupil Size Y

Table Header for Saccades:
Event Type	Trial	Number	Start	End	Duration	Start Loc.X	Start Loc.Y	End Loc.X	End Loc.Y	Amplitude	Peak Speed	Peak Speed At	Average Speed	Peak Accel.	Peak Decel.	Average Accel.

Table Header for Blinks:
Event Type	Trial	Number	Start	End	Duration

Table Header for User Events:
Event Type	Trial	Number	Start	Description

UserEvent	1	1	6808513857	# Message: wright-vesuvius-from-posillipo-1774.jpg
Fixation L	1	1	6808530944	6809008306	477362	900.90	471.93	14	38	-1	11.24	11.24
Fixation R	1	1	6808530944	6809008306	477362	900.90	471.93	14	38	-1	9.86	9.86
Saccade L	1	1	6809008306	6809048175	39869	903.26	489.67	1045.84	638.13	1.76	142.38	0.50	44.12	3551.98	-3350.06	2508.16
Saccade R	1	1	6809008306	6809048175	39869	903.26	489.67	1045.84	638.13	1.76	142.38	0.50	44.12	3551.98	-3350.06	2508.16
Fixation L	1	2	6809048175	6809187403	139228	1051.18	653.26	7	23	-1	11.89	11.89
Fixation R	1	2	6809048175	6809187403	139228	1051.18	653.26	7	23	-1	10.67	10.67
Saccade L	1	2	6809187403	6809207287	19884	1051.42	659.65	1052.35	767.97	0.75	109.58	1.00	37.59	2710.87	-2706.18	2115.44
Saccade R	1	2	6809187403	6809207287	19884	1051.42	659.65	1052.35	767.97	0.75	109.58	1.00	37.59	2710.87	-2706.18	2115.44
Fixation L	1	3	6809207287	6809426023	218736	1054.67	801.24	4	46	-1	13.09	13.09
Fixation R	1	3	6809207287	6809426023	218736	1054.67	801.24	4	46	-1	11.12	11.12
Saccade L	1	3	6809426023	6809445897	19874	1056.52	793.12	1036.19	648.08	0.92	148.13	1.00	46.23	3650.83	-3340.35	2464.73
Saccade R	1	3	6809426023	6809445897	19874	1056.52	793.12	1036.19	648.08	0.92	148.13	1.00	46.23	3650.83	-3340.35	2464.73
Fixation L	1	4	6809445897	6809605015	159118	991.72	644.42	67	30	-1	13.31	13.31
Fixation R	1	4	6809445897	6809605015	159118	991.72	644.42	67	30	-1	11.41	11.41
Saccade L	1	4	6809605015	6809624914	19899	968.45	622.29	961.18	633.03	0.21	14.82	0.00	10.71	20.24	-306.06	109.96
Saccade R	1	4	6809605015	6809624914	19899	968.45	622.29	961.18	633.03	0.21	14.82	0.00	10.71	20.24	-306.06	109.96
Fixation L	1	5	6809624914	6809744260	119346	952.05	620.93	19	39	-1	13.02	13.02
Fixation R	1	5	6809624914	6809744260	119346	952.05	620.93	19	39	-1	11.10	11.10
Saccade L	1	5	6809744260	6809803877	59617	941.39	597.01	884.80	326.72	4.08	218.38	0.33	68.43	4630.15	-5151.12	2299.06
Saccade R	1	5	6809744260	6809803877	59617	941.39	597.01	884.80	326.72	4.08	218.38	0.33	68.43	4630.15	-5151.12	2299.06
Fixation L	1	6	6809803877	6809903376	99499	872.79	265.19	18	79	-1	12.49	12.49
Fixation R	1	6	6809803877	6809903376	99499	872.79	265.19	18	79	-1	11.07	11.07
Saccade L	1	6	6809903376	6809923242	19866	866.56	247.23	863.86	249.99	0.15	15.76	1.00	7.45	387.78	-55.35	245.53
Saccade R	1	6	6809903376	6809923242	19866	866.56	247.23	863.86	249.99	0.15	15.76	1.00	7.45	387.78	-55.35	245.53
Fixation L	1	7	6809923242	6810161992	238750	860.80	246.28	8	27	-1	12.46	12.46
Fixation R	1	7	6809923242	6810161992	238750	860.80	246.28	8	27	-1	10.79	10.79
Saccade L	1	7	6810161992	6810241482	79490	858.02	243.81	1533.29	643.70	9.50	289.12	0.50	119.57	7146.48	-5807.94	4198.94
Saccade R	1	7	6810161992	6810241482	79490	858.02	243.81	1533.29	643.70	9.50	289.12	0.50	119.57	7146.48	-5807.94	4198.94
Fixation L	1	8	6810241482	6810599595	358113	1501.17	657.07	39	28	-1	13.53	13.53
Fixation R	1	8	6810241482	6810599595	358113	1501.17	657.07	39	28	-1	11.51	11.51
Saccade L	1	8	6810599595	6810639333	39738	1496.02	660.56	1288.96	834.76	2.36	191.96	1.00	59.30	4784.61	-4024.64	3089.54
Saccade R	1	8	6810599595	6810639333	39738	1496.02	660.56	1288.96	834.76	2.36	191.96	1.00	59.30	4784.61	-4024.64	3089.54
Fixation L	1	9	6810639333	6810818335	179002	1261.16	860.08	35	49	-1	13.58	13.58
Fixation R	1	9	6810639333	6810818335	179002	1261.16	860.08	35	49	-1	11.80	11.80
Saccade L	1	9	6810818335	6810838206	19871	1253.70	874.47	1250.22	923.50	0.38	49.72	1.00	19.07	1159.66	-970.87	747.07
Saccade R	1	9	6810818335	6810838206	19871	1253.70	874.47	1250.22	923.50	0.38	49.72	1.00	19.07	1159.66	-970.87	747.07
Fixation L	1	10	6810838206	6811176308	338102	1238.04	914.56	55	18	-1	13.75	13.75
Fixation R	1	10	6810838206	6811176308	338102	1238.04	914.56	55	18	-1	11.43	11.43
Saccade L	1	10	6811176308	6811236054	59746	1194.25	912.99	499.42	1018.76	7.80	303.27	0.33	130.63	7560.45	-6231.13	5302.38
Saccade R	1	10	6811176308	6811236054	59746	1194.25	912.99	499.42	1018.76	7.80	303.27	0.33	130.63	7560.45	-6231.13	5302.38
Fixation L	1	11	6811236054	6811653664	417610	507.79	1026.09	12	12	-1	13.80	13.80
Fixation R	1	11	6811236054	6811653664	417610	507.79	1026.09	12	12	-1	12.84	12.84
Saccade L	1	11	6811653664	6811713410	59746	507.61	1027.62	593.71	365.04	7.22	256.56	0.33	120.76	6370.65	-4710.42	4644.29
Saccade R	1	11	6811653664	6811713410	59746	507.61	1027.62	593.71	365.04	7.22	256.56	0.33	120.76	6370.65	-4710.42	4644.29
Fixation L	1	12	6811713410	6811812784	99374	608.85	321.19	27	70	-1	14.36	14.36
Fixation R	1	12	6811713410	6811812784	99374	608.85	321.19	27	70	-1	13.49	13.49
Saccade L	1	12	6811812784	6811832779	19995	621.10	313.73	610.55	267.71	0.46	47.76	1.00	22.79	925.85	-888.19	719.42
Saccade R	1	12	6811812784	6811832779	19995	621.10	313.73	610.55	267.71	0.46	47.76	1.00	22.79	925.85	-888.19	719.42
Fixation L	1	13	6811832779	6811971894	139115	618.11	274.96	11	42	-1	14.59	14.59
Fixation R	1	13	6811832779	6811971894	139115	618.11	274.96	11	42	-1	13.66	13.66
Saccade L	1	13	6811971894	6812031643	59749	619.77	273.95	1095.37	147.95	5.19	249.24	0.67	86.78	6167.30	-5976.63	3637.79
Saccade R	1	13	6811971894	6812031643	59749	619.77	273.95	1095.37	147.95	5.19	249.24	0.67	86.78	6167.30	-5976.63	3637.79
Fixation L	1	14	6812031643	6812170892	139249	1098.25	169.58	37	36	-1	14.56	14.56
Fixation R	1	14	6812031643	6812170892	139249	1098.25	169.58	37	36	-1	13.27	13.27
Saccade L	1	14	6812170892	6812508995	338103	1123.61	174.58	1560.75	952.01	27.47	306.82	0.06	81.25	7610.26	-5806.41	2501.06
Saccade R	1	14	6812170892	6812508995	338103	1123.61	174.58	1560.75	952.01	27.47	306.82	0.06	81.25	7610.26	-5806.41	2501.06
