[BeGaze]
Converted from:	C:\Documents and Settings\iViewX\Desktop\EXPERIMENTATIONS\Experiments\results\finaleart\S16F14542-finaleart-1.idf
Date:	27.03.2019 15:46:42
Version:	BeGaze 2.5.77
Sample Rate:	50
Subject:	S16F14542
Description:	Diane Dewez

Table Header for Fixations:
Event Type	Trial	Number	Start	End	Duration	Location X	Location Y	Dispersion X	Dispersion Y	Plane	Avg. Pupil Size X	Avg. Pupil Size Y

Table Header for Saccades:
Event Type	Trial	Number	Start	End	Duration	Start Loc.X	Start Loc.Y	End Loc.X	End Loc.Y	Amplitude	Peak Speed	Peak Speed At	Average Speed	Peak Accel.	Peak Decel.	Average Accel.

Table Header for Blinks:
Event Type	Trial	Number	Start	End	Duration

Table Header for User Events:
Event Type	Trial	Number	Start	Description

UserEvent	1	1	6631780187	# Message: void.jpg
Fixation L	1	1	6631791766	6632288984	497218	534.03	476.25	20	24	-1	12.58	12.58
Fixation R	1	1	6631791766	6632288984	497218	534.03	476.25	20	24	-1	13.26	13.26
Blink L	1	1	6632288984	6632507718	218734
Blink R	1	1	6632288984	6632507718	218734
Fixation L	1	2	6632507718	6632646976	139258	1531.47	644.11	19	78	-1	15.62	15.62
Fixation R	1	2	6632507718	6632646976	139258	1531.47	644.11	19	78	-1	15.11	15.11
Saccade L	1	1	6632646976	6632766341	119365	1522.10	631.47	1242.86	539.15	4.90	230.79	0.83	41.04	5669.94	-5061.11	1560.60
Saccade R	1	1	6632646976	6632766341	119365	1522.10	631.47	1242.86	539.15	4.90	230.79	0.83	41.04	5669.94	-5061.11	1560.60
Fixation L	1	3	6632766341	6632865832	99491	1225.89	543.46	27	68	-1	15.11	15.11
Fixation R	1	3	6632766341	6632865832	99491	1225.89	543.46	27	68	-1	14.84	14.84
Saccade L	1	2	6632865832	6632885706	19874	1215.71	580.87	1208.92	560.99	0.49	54.78	0.00	24.72	203.55	-1125.45	550.78
Saccade R	1	2	6632865832	6632885706	19874	1215.71	580.87	1208.92	560.99	0.49	54.78	0.00	24.72	203.55	-1125.45	550.78
Fixation L	1	4	6632885706	6633283458	397752	1195.40	557.03	61	37	-1	13.70	13.70
Fixation R	1	4	6632885706	6633283458	397752	1195.40	557.03	61	37	-1	13.38	13.38
Saccade L	1	3	6633283458	6633303436	19978	1147.76	558.82	1092.96	561.25	0.54	55.49	1.00	27.08	1249.52	-1115.45	992.74
Saccade R	1	3	6633283458	6633303436	19978	1147.76	558.82	1092.96	561.25	0.54	55.49	1.00	27.08	1249.52	-1115.45	992.74
Fixation L	1	5	6633303436	6633681287	377851	1076.72	547.71	27	28	-1	13.46	13.46
Fixation R	1	5	6633303436	6633681287	377851	1076.72	547.71	27	28	-1	12.87	12.87
Saccade L	1	4	6633681287	6633780809	99522	1067.68	546.06	852.42	539.50	3.70	136.64	0.40	37.18	3391.91	-3329.75	1760.59
Saccade R	1	4	6633681287	6633780809	99522	1067.68	546.06	852.42	539.50	3.70	136.64	0.40	37.18	3391.91	-3329.75	1760.59
