[BeGaze]
Converted from:	C:\Documents and Settings\iViewX\Desktop\EXPERIMENTATIONS\Experiments\results\finaleart\S16F14542-finaleart-1.idf
Date:	27.03.2019 15:47:34
Version:	BeGaze 2.5.77
Sample Rate:	50
Subject:	S16F14542
Description:	Diane Dewez

Table Header for Fixations:
Event Type	Trial	Number	Start	End	Duration	Location X	Location Y	Dispersion X	Dispersion Y	Plane	Avg. Pupil Size X	Avg. Pupil Size Y

Table Header for Saccades:
Event Type	Trial	Number	Start	End	Duration	Start Loc.X	Start Loc.Y	End Loc.X	End Loc.Y	Amplitude	Peak Speed	Peak Speed At	Average Speed	Peak Accel.	Peak Decel.	Average Accel.

Table Header for Blinks:
Event Type	Trial	Number	Start	End	Duration

Table Header for User Events:
Event Type	Trial	Number	Start	Description

UserEvent	1	1	7274529135	# Message: venice_from_porche_of_madonna_turner_1835.jpg
Fixation L	1	1	7274540686	7274679949	139263	911.99	504.93	78	17	-1	9.55	9.55
Fixation R	1	1	7274540686	7274679949	139263	911.99	504.93	78	17	-1	9.98	9.98
Saccade L	1	1	7274679949	7274699794	19845	875.00	496.28	864.45	484.75	0.22	15.81	1.00	10.88	56.67	-290.76	124.75
Saccade R	1	1	7274679949	7274699794	19845	875.00	496.28	864.45	484.75	0.22	15.81	1.00	10.88	56.67	-290.76	124.75
Fixation L	1	2	7274699794	7274978296	278502	854.65	478.22	13	25	-1	9.71	9.71
Fixation R	1	2	7274699794	7274978296	278502	854.65	478.22	13	25	-1	10.47	10.47
Saccade L	1	2	7274978296	7275038035	59739	857.96	463.95	1071.05	847.05	4.73	212.46	0.67	79.20	5208.09	-5189.97	3442.94
Saccade R	1	2	7274978296	7275038035	59739	857.96	463.95	1071.05	847.05	4.73	212.46	0.67	79.20	5208.09	-5189.97	3442.94
Fixation L	1	3	7275038035	7275296532	258497	1073.28	850.17	24	44	-1	10.42	10.42
Fixation R	1	3	7275038035	7275296532	258497	1073.28	850.17	24	44	-1	11.08	11.08
Saccade L	1	3	7275296532	7275316408	19876	1062.74	828.93	922.88	841.09	0.90	141.99	1.00	45.31	3391.54	-3431.59	2336.27
Saccade R	1	3	7275296532	7275316408	19876	1062.74	828.93	922.88	841.09	0.90	141.99	1.00	45.31	3391.54	-3431.59	2336.27
Fixation L	1	4	7275316408	7275734118	417710	927.40	814.84	13	35	-1	9.64	9.64
Fixation R	1	4	7275316408	7275734118	417710	927.40	814.84	13	35	-1	10.16	10.16
Saccade L	1	4	7275734118	7275753996	19878	936.65	823.54	1134.85	813.04	1.23	200.70	1.00	61.67	4969.94	-4987.06	3377.98
Saccade R	1	4	7275734118	7275753996	19878	936.65	823.54	1134.85	813.04	1.23	200.70	1.00	61.67	4969.94	-4987.06	3377.98
Fixation L	1	5	7275753996	7276032488	278492	1161.60	824.10	38	18	-1	8.90	8.90
Fixation R	1	5	7275753996	7276032488	278492	1161.60	824.10	38	18	-1	9.54	9.54
Saccade L	1	5	7276032488	7276072235	39747	1173.70	823.90	1494.12	706.56	2.93	206.28	0.50	73.83	5091.54	-4889.28	4233.51
Saccade R	1	5	7276032488	7276072235	39747	1173.70	823.90	1494.12	706.56	2.93	206.28	0.50	73.83	5091.54	-4889.28	4233.51
Fixation L	1	6	7276072235	7276310975	238740	1487.35	698.95	45	43	-1	8.81	8.81
Fixation R	1	6	7276072235	7276310975	238740	1487.35	698.95	45	43	-1	8.93	8.93
Saccade L	1	6	7276310975	7276330843	19868	1524.72	662.72	1606.97	573.41	0.95	122.80	1.00	47.69	2991.13	-2738.27	2345.33
Saccade R	1	6	7276310975	7276330843	19868	1524.72	662.72	1606.97	573.41	0.95	122.80	1.00	47.69	2991.13	-2738.27	2345.33
Fixation L	1	7	7276330843	7276509858	179015	1623.41	555.92	43	40	-1	8.27	8.27
Fixation R	1	7	7276330843	7276509858	179015	1623.41	555.92	43	40	-1	8.40	8.40
Saccade L	1	7	7276509858	7276529713	19855	1650.54	538.54	1657.61	524.92	0.27	15.58	1.00	13.44	102.04	-1.61	48.96
Saccade R	1	7	7276509858	7276529713	19855	1650.54	538.54	1657.61	524.92	0.27	15.58	1.00	13.44	102.04	-1.61	48.96
Fixation L	1	8	7276529713	7276649077	119364	1673.34	517.31	21	30	-1	8.26	8.26
Fixation R	1	8	7276529713	7276649077	119364	1673.34	517.31	21	30	-1	8.15	8.15
Saccade L	1	8	7276649077	7276748572	99495	1677.28	512.62	525.22	611.62	15.27	320.63	0.40	153.49	7902.04	-4503.03	4134.15
Saccade R	1	8	7276649077	7276748572	99495	1677.28	512.62	525.22	611.62	15.27	320.63	0.40	153.49	7902.04	-4503.03	4134.15
Fixation L	1	9	7276748572	7277126429	377857	493.99	642.02	45	49	-1	8.39	8.39
Fixation R	1	9	7276748572	7277126429	377857	493.99	642.02	45	49	-1	9.16	9.16
Saccade L	1	9	7277126429	7277166185	39756	479.57	661.30	661.82	671.27	1.68	130.44	1.00	42.33	3130.81	-3038.38	2083.29
Saccade R	1	9	7277126429	7277166185	39756	479.57	661.30	661.82	671.27	1.68	130.44	1.00	42.33	3130.81	-3038.38	2083.29
Fixation L	1	10	7277166185	7277325301	159116	663.66	703.20	9	51	-1	8.79	8.79
Fixation R	1	10	7277166185	7277325301	159116	663.66	703.20	9	51	-1	9.80	9.80
Saccade L	1	10	7277325301	7277345174	19873	659.83	708.33	544.77	571.44	1.13	180.84	1.00	56.94	4236.24	-4292.67	2961.38
Saccade R	1	10	7277325301	7277345174	19873	659.83	708.33	544.77	571.44	1.13	180.84	1.00	56.94	4236.24	-4292.67	2961.38
Fixation L	1	11	7277345174	7277603784	258610	511.89	556.96	44	30	-1	8.53	8.53
Fixation R	1	11	7277345174	7277603784	258610	511.89	556.96	44	30	-1	9.52	9.52
Saccade L	1	11	7277603784	7277643530	39746	500.75	541.33	813.40	539.19	3.15	232.15	1.00	79.37	5674.64	-5719.00	3428.44
Saccade R	1	11	7277603784	7277643530	39746	500.75	541.33	813.40	539.19	3.15	232.15	1.00	79.37	5674.64	-5719.00	3428.44
Fixation L	1	12	7277643530	7277822527	178997	878.50	551.31	74	22	-1	8.16	8.16
Fixation R	1	12	7277643530	7277822527	178997	878.50	551.31	74	22	-1	9.05	9.05
Saccade L	1	12	7277822527	7277941895	119368	885.61	561.73	926.57	725.04	3.27	107.47	0.83	27.43	2449.32	-1219.42	717.16
Saccade R	1	12	7277822527	7277941895	119368	885.61	561.73	926.57	725.04	3.27	107.47	0.83	27.43	2449.32	-1219.42	717.16
Fixation L	1	13	7277941895	7278379501	437606	956.71	770.19	39	58	-1	9.10	9.10
Fixation R	1	13	7277941895	7278379501	437606	956.71	770.19	39	58	-1	10.07	10.07
Saccade L	1	13	7278379501	7278518751	139250	966.29	783.30	610.07	776.47	5.84	188.85	0.86	41.93	4685.89	-32.93	1141.14
Saccade R	1	13	7278379501	7278518751	139250	966.29	783.30	610.07	776.47	5.84	188.85	0.86	41.93	4685.89	-32.93	1141.14
