[BeGaze]
Converted from:	C:\Documents and Settings\iViewX\Desktop\EXPERIMENTATIONS\Experiments\results\finaleart\S16F14542-finaleart-1.idf
Date:	27.03.2019 15:47:18
Version:	BeGaze 2.5.77
Sample Rate:	50
Subject:	S16F14542
Description:	Diane Dewez

Table Header for Fixations:
Event Type	Trial	Number	Start	End	Duration	Location X	Location Y	Dispersion X	Dispersion Y	Plane	Avg. Pupil Size X	Avg. Pupil Size Y

Table Header for Saccades:
Event Type	Trial	Number	Start	End	Duration	Start Loc.X	Start Loc.Y	End Loc.X	End Loc.Y	Amplitude	Peak Speed	Peak Speed At	Average Speed	Peak Accel.	Peak Decel.	Average Accel.

Table Header for Blinks:
Event Type	Trial	Number	Start	End	Duration

Table Header for User Events:
Event Type	Trial	Number	Start	Description

UserEvent	1	1	7082371610	# Message: Turner-snow-storm-boat-off-a-harbours-mouth-1842.jpg
Fixation L	1	1	7082389492	7082906589	517097	932.68	538.03	20	70	-1	10.06	10.06
Fixation R	1	1	7082389492	7082906589	517097	932.68	538.03	20	70	-1	9.45	9.45
Saccade L	1	1	7082906589	7082926461	19872	943.55	572.95	986.89	623.27	0.82	67.18	1.00	41.41	1033.60	-1221.31	920.73
Saccade R	1	1	7082906589	7082926461	19872	943.55	572.95	986.89	623.27	0.82	67.18	1.00	41.41	1033.60	-1221.31	920.73
Fixation L	1	2	7082926461	7083125322	198861	1010.71	618.50	66	29	-1	10.64	10.64
Fixation R	1	2	7082926461	7083125322	198861	1010.71	618.50	66	29	-1	9.82	9.82
Saccade L	1	2	7083125322	7083145202	19880	1053.86	628.34	1097.44	672.92	0.64	63.07	1.00	32.44	1568.40	-1258.53	1033.01
Saccade R	1	2	7083125322	7083145202	19880	1053.86	628.34	1097.44	672.92	0.64	63.07	1.00	32.44	1568.40	-1258.53	1033.01
Fixation L	1	3	7083145202	7083443559	298357	1106.68	713.28	27	61	-1	11.07	11.07
Fixation R	1	3	7083145202	7083443559	298357	1106.68	713.28	27	61	-1	9.59	9.59
Saccade L	1	3	7083443559	7083463439	19880	1092.75	726.95	1092.25	759.15	0.37	32.58	1.00	18.44	691.97	-754.41	702.03
Saccade R	1	3	7083443559	7083463439	19880	1092.75	726.95	1092.25	759.15	0.37	32.58	1.00	18.44	691.97	-754.41	702.03
Fixation L	1	4	7083463439	7083602675	139236	1089.77	729.12	7	39	-1	11.45	11.45
Fixation R	1	4	7083463439	7083602675	139236	1089.77	729.12	7	39	-1	9.88	9.88
Saccade L	1	4	7083602675	7083642553	39878	1091.53	720.87	1049.90	603.94	1.32	83.28	0.50	33.05	1955.41	-1477.98	1248.66
Saccade R	1	4	7083602675	7083642553	39878	1091.53	720.87	1049.90	603.94	1.32	83.28	0.50	33.05	1955.41	-1477.98	1248.66
Fixation L	1	5	7083642553	7083841432	198879	1020.80	594.99	39	28	-1	11.17	11.17
Fixation R	1	5	7083642553	7083841432	198879	1020.80	594.99	39	28	-1	10.26	10.26
Saccade L	1	5	7083841432	7083861290	19858	1010.83	586.89	1005.22	478.38	0.62	109.91	1.00	31.10	2635.32	-1991.85	1605.05
Saccade R	1	5	7083841432	7083861290	19858	1010.83	586.89	1005.22	478.38	0.62	109.91	1.00	31.10	2635.32	-1991.85	1605.05
Fixation L	1	6	7083861290	7084100023	238733	1005.71	431.45	9	68	-1	11.28	11.28
Fixation R	1	6	7083861290	7084100023	238733	1005.71	431.45	9	68	-1	10.44	10.44
Saccade L	1	6	7084100023	7084119906	19883	1009.25	417.14	1007.41	339.42	0.62	78.65	1.00	31.05	1898.04	-1699.06	1492.48
Saccade R	1	6	7084100023	7084119906	19883	1009.25	417.14	1007.41	339.42	0.62	78.65	1.00	31.05	1898.04	-1699.06	1492.48
Fixation L	1	7	7084119906	7084398396	278490	986.65	302.15	47	50	-1	10.97	10.97
Fixation R	1	7	7084119906	7084239142	119236	999.47	307.95	21	41	-1	9.61	9.61
Fixation R	1	8	7084279019	7084398396	119377	977.57	297.61	3	13	-1	12.30	12.30
Saccade L	1	7	7084398396	7084458010	59614	977.33	302.35	847.63	706.06	4.68	179.42	0.67	78.44	4431.07	-4243.53	3039.81
Saccade R	1	7	7084398396	7084458010	59614	977.33	302.35	847.63	706.06	4.68	179.42	0.67	78.44	4431.07	-4243.53	3039.81
Fixation L	1	8	7084458010	7084696619	238609	839.25	724.23	12	37	-1	11.63	11.63
Fixation R	1	9	7084458010	7084696619	238609	839.25	724.23	12	37	-1	13.35	13.35
Saccade L	1	8	7084696619	7084756371	59752	837.13	734.73	1197.00	974.72	4.48	242.41	0.67	75.04	5918.53	-5922.31	3603.82
Saccade R	1	8	7084696619	7084756371	59752	837.13	734.73	1197.00	974.72	4.48	242.41	0.67	75.04	5918.53	-5922.31	3603.82
Fixation L	1	9	7084756371	7084915492	159121	1210.54	978.82	36	13	-1	12.68	12.68
Fixation R	1	10	7084756371	7084915492	159121	1210.54	978.82	36	13	-1	13.96	13.96
Saccade L	1	9	7084915492	7084955239	39747	1208.98	987.09	1574.24	1042.24	3.32	231.07	1.00	83.61	5585.38	-5310.59	4274.62
Saccade R	1	9	7084915492	7084955239	39747	1208.98	987.09	1574.24	1042.24	3.32	231.07	1.00	83.61	5585.38	-5310.59	4274.62
Fixation L	1	10	7084955239	7085213851	258612	1609.47	1078.58	44	49	-1	12.87	12.87
Fixation R	1	11	7084955239	7085213851	258612	1609.47	1078.58	44	49	-1	13.64	13.64
Saccade L	1	10	7085213851	7085353094	139243	1616.67	1090.15	495.65	258.40	21.08	339.88	0.43	151.39	6731.81	-6206.68	3318.70
Saccade R	1	10	7085213851	7085353094	139243	1616.67	1090.15	495.65	258.40	21.08	339.88	0.43	151.39	6731.81	-6206.68	3318.70
Fixation L	1	11	7085353094	7085472341	119247	478.49	230.01	35	64	-1	12.43	12.43
Fixation R	1	12	7085353094	7085472341	119247	478.49	230.01	35	64	-1	13.51	13.51
Saccade L	1	11	7085472341	7085492334	19993	460.64	193.47	449.17	208.23	0.39	29.90	1.00	19.51	397.91	156.54	295.82
Saccade R	1	11	7085472341	7085492334	19993	460.64	193.47	449.17	208.23	0.39	29.90	1.00	19.51	397.91	156.54	295.82
Fixation L	1	12	7085492334	7085591709	99375	447.08	196.81	15	48	-1	11.81	11.81
Fixation R	1	13	7085492334	7085591709	99375	447.08	196.81	15	48	-1	13.50	13.50
Saccade L	1	12	7085591709	7085631457	39748	445.38	218.49	692.09	361.12	3.06	216.82	0.50	76.96	4815.07	-4973.09	3058.81
Saccade R	1	12	7085591709	7085631457	39748	445.38	218.49	692.09	361.12	3.06	216.82	0.50	76.96	4815.07	-4973.09	3058.81
Fixation L	1	13	7085631457	7085870189	238732	696.30	371.98	8	23	-1	12.32	12.32
Fixation R	1	14	7085631457	7085870189	238732	696.30	371.98	8	23	-1	13.84	13.84
Blink L	1	1	7085870189	7086108809	238620
Blink R	1	1	7085870189	7086108809	238620
Fixation L	1	14	7086108809	7086367413	258604	1125.39	634.49	19	52	-1	14.51	14.51
Fixation R	1	15	7086108809	7086367413	258604	1125.39	634.49	19	52	-1	13.99	13.99
