[BeGaze]
Converted from:	C:\Documents and Settings\iViewX\Desktop\EXPERIMENTATIONS\Experiments\results\finaleart\S16F14542-finaleart-1.idf
Date:	27.03.2019 15:46:07
Version:	BeGaze 2.5.77
Sample Rate:	50
Subject:	S16F14542
Description:	Diane Dewez

Table Header for Fixations:
Event Type	Trial	Number	Start	End	Duration	Location X	Location Y	Dispersion X	Dispersion Y	Plane	Avg. Pupil Size X	Avg. Pupil Size Y

Table Header for Saccades:
Event Type	Trial	Number	Start	End	Duration	Start Loc.X	Start Loc.Y	End Loc.X	End Loc.Y	Amplitude	Peak Speed	Peak Speed At	Average Speed	Peak Accel.	Peak Decel.	Average Accel.

Table Header for Blinks:
Event Type	Trial	Number	Start	End	Duration

Table Header for User Events:
Event Type	Trial	Number	Start	Description

UserEvent	1	1	6298697948	# Message: landschaft_mit_dem_ondregenbogen_caspar_david_friedrich_1810.jpg
Fixation L	1	1	6298702546	6299179907	477361	736.48	529.01	28	37	-1	15.21	15.21
Fixation R	1	1	6298702546	6299179907	477361	736.48	529.01	28	37	-1	15.93	15.93
Saccade L	1	1	6299179907	6299199912	20005	760.48	549.70	918.40	627.18	1.22	177.90	1.00	61.02	3964.71	-4068.85	2682.97
Saccade R	1	1	6299179907	6299199912	20005	760.48	549.70	918.40	627.18	1.22	177.90	1.00	61.02	3964.71	-4068.85	2682.97
Fixation L	1	2	6299199912	6299359010	159098	914.06	656.12	7	43	-1	15.17	15.17
Fixation R	1	2	6299199912	6299359010	159098	914.06	656.12	7	43	-1	16.04	16.04
Saccade L	1	2	6299359010	6299398754	39744	913.99	654.67	1088.14	821.10	2.08	160.38	0.50	52.42	3968.44	-3739.10	2804.51
Saccade R	1	2	6299359010	6299398754	39744	913.99	654.67	1088.14	821.10	2.08	160.38	0.50	52.42	3968.44	-3739.10	2804.51
Fixation L	1	3	6299398754	6299677247	278493	1103.41	806.71	21	38	-1	14.83	14.83
Fixation R	1	3	6299398754	6299677247	278493	1103.41	806.71	21	38	-1	14.81	14.81
Saccade L	1	3	6299677247	6299697124	19877	1106.44	825.89	1106.50	972.30	1.03	148.08	1.00	51.72	3628.33	-3434.92	2517.30
Saccade R	1	3	6299677247	6299697124	19877	1106.44	825.89	1106.50	972.30	1.03	148.08	1.00	51.72	3628.33	-3434.92	2517.30
Fixation L	1	4	6299697124	6300074982	377858	1099.17	1022.70	24	69	-1	15.15	15.15
Fixation R	1	4	6299697124	6300074982	377858	1099.17	1022.70	24	69	-1	15.28	15.28
Saccade L	1	4	6300074982	6300094854	19872	1085.14	1041.94	1079.66	1048.24	0.09	8.45	1.00	4.44	145.33	-52.73	87.51
Saccade R	1	4	6300074982	6300094854	19872	1085.14	1041.94	1079.66	1048.24	0.09	8.45	1.00	4.44	145.33	-52.73	87.51
Fixation L	1	5	6300094854	6300472838	377984	1063.23	1045.07	23	20	-1	14.97	14.97
Fixation R	1	5	6300094854	6300472838	377984	1063.23	1045.07	23	20	-1	14.78	14.78
Saccade L	1	5	6300472838	6300532452	59614	1060.15	1034.99	977.35	709.04	3.58	158.27	0.67	59.98	3804.71	-3730.04	2397.05
Saccade R	1	5	6300472838	6300532452	59614	1060.15	1034.99	977.35	709.04	3.58	158.27	0.67	59.98	3804.71	-3730.04	2397.05
Fixation L	1	6	6300532452	6300791067	258615	968.41	669.32	24	69	-1	13.68	13.68
Fixation R	1	6	6300532452	6300791067	258615	968.41	669.32	24	69	-1	13.57	13.57
Saccade L	1	6	6300791067	6300810939	19872	954.89	641.70	947.73	640.52	0.12	9.71	1.00	6.19	35.67	-59.26	49.67
Saccade R	1	6	6300791067	6300810939	19872	954.89	641.70	947.73	640.52	0.12	9.71	1.00	6.19	35.67	-59.26	49.67
Fixation L	1	7	6300810939	6301745776	934837	934.36	624.48	22	43	-1	13.07	13.07
Fixation R	1	7	6300810939	6301745776	934837	934.36	624.48	22	43	-1	13.32	13.32
Blink L	1	1	6301745776	6301885017	139241
Blink R	1	1	6301745776	6301885017	139241
Fixation L	1	8	6301885017	6302362372	477355	944.11	644.87	14	52	-1	14.70	14.70
Fixation R	1	8	6301885017	6302362372	477355	944.11	644.87	14	52	-1	15.20	15.20
Saccade L	1	7	6302362372	6302382243	19871	941.62	608.32	940.22	563.23	0.70	55.82	1.00	35.40	968.26	-1100.59	877.94
Saccade R	1	7	6302362372	6302382243	19871	941.62	608.32	940.22	563.23	0.70	55.82	1.00	35.40	968.26	-1100.59	877.94
Fixation L	1	9	6302382243	6302680603	298360	933.30	614.99	11	64	-1	14.66	14.66
Fixation R	1	9	6302382243	6302680603	298360	933.30	614.99	11	64	-1	14.56	14.56
