[BeGaze]
Converted from:	C:\Documents and Settings\iViewX\Desktop\EXPERIMENTATIONS\Experiments\results\finaleart\S16F14542-finaleart-1.idf
Date:	27.03.2019 15:46:13
Version:	BeGaze 2.5.77
Sample Rate:	50
Subject:	S16F14542
Description:	Diane Dewez

Table Header for Fixations:
Event Type	Trial	Number	Start	End	Duration	Location X	Location Y	Dispersion X	Dispersion Y	Plane	Avg. Pupil Size X	Avg. Pupil Size Y

Table Header for Saccades:
Event Type	Trial	Number	Start	End	Duration	Start Loc.X	Start Loc.Y	End Loc.X	End Loc.Y	Amplitude	Peak Speed	Peak Speed At	Average Speed	Peak Accel.	Peak Decel.	Average Accel.

Table Header for Blinks:
Event Type	Trial	Number	Start	End	Duration

Table Header for User Events:
Event Type	Trial	Number	Start	Description

UserEvent	1	1	6347476074	# Message: kneeling-nude_degas_1888.jpg
Fixation L	1	1	6347477734	6347656706	178972	886.67	435.98	82	15	-1	11.93	11.93
Fixation R	1	1	6347477734	6347656706	178972	886.67	435.98	82	15	-1	12.21	12.21
Saccade L	1	1	6347656706	6347676566	19860	858.52	443.98	855.61	439.57	0.07	5.35	1.00	3.54	148.53	-36.66	71.72
Saccade R	1	1	6347656706	6347676566	19860	858.52	443.98	855.61	439.57	0.07	5.35	1.00	3.54	148.53	-36.66	71.72
Fixation L	1	2	6347676566	6347955067	278501	851.94	443.99	16	46	-1	12.01	12.01
Fixation R	1	2	6347676566	6347955067	278501	851.94	443.99	16	46	-1	12.52	12.52
Saccade L	1	2	6347955067	6347994815	39748	864.22	471.70	1223.52	721.66	3.78	267.69	0.50	95.14	6603.88	-6227.34	5281.88
Saccade R	1	2	6347955067	6347994815	39748	864.22	471.70	1223.52	721.66	3.78	267.69	0.50	95.14	6603.88	-6227.34	5281.88
Fixation L	1	3	6347994815	6348193702	198887	1250.24	736.74	38	21	-1	12.09	12.09
Fixation R	1	3	6347994815	6348193702	198887	1250.24	736.74	38	21	-1	12.25	12.25
Saccade L	1	3	6348193702	6348213561	19859	1260.14	740.40	1255.70	822.87	0.54	83.55	1.00	27.41	2019.74	-1992.71	1360.51
Saccade R	1	3	6348193702	6348213561	19859	1260.14	740.40	1255.70	822.87	0.54	83.55	1.00	27.41	2019.74	-1992.71	1360.51
Fixation L	1	4	6348213561	6348611406	397845	1243.48	854.35	27	71	-1	11.46	11.46
Fixation R	1	4	6348213561	6348611406	397845	1243.48	854.35	27	71	-1	11.19	11.19
Saccade L	1	4	6348611406	6348631287	19881	1231.17	886.27	1229.44	892.54	0.14	10.02	1.00	6.93	-47.75	-139.57	91.08
Saccade R	1	4	6348611406	6348631287	19881	1231.17	886.27	1229.44	892.54	0.14	10.02	1.00	6.93	-47.75	-139.57	91.08
Fixation L	1	5	6348631287	6348850026	218739	1198.41	878.67	57	40	-1	11.99	11.99
Fixation R	1	5	6348631287	6348850026	218739	1198.41	878.67	57	40	-1	11.78	11.78
Saccade L	1	5	6348850026	6348929641	79615	1171.83	861.54	988.28	563.20	4.40	198.94	0.75	55.30	4850.42	-4618.33	2583.42
Saccade R	1	5	6348850026	6348929641	79615	1171.83	861.54	988.28	563.20	4.40	198.94	0.75	55.30	4850.42	-4618.33	2583.42
Fixation L	1	6	6348929641	6349088758	159117	971.66	549.60	52	46	-1	11.87	11.87
Fixation R	1	6	6348929641	6349088758	159117	971.66	549.60	52	46	-1	12.00	12.00
Saccade L	1	6	6349088758	6349108642	19884	935.35	516.43	774.84	352.00	1.65	232.33	1.00	82.75	5559.27	-5691.72	3992.94
Saccade R	1	6	6349088758	6349108642	19884	935.35	516.43	774.84	352.00	1.65	232.33	1.00	82.75	5559.27	-5691.72	3992.94
Fixation L	1	7	6349108642	6349327400	218758	759.93	313.35	34	49	-1	11.99	11.99
Fixation R	1	7	6349108642	6349327400	218758	759.93	313.35	34	49	-1	12.38	12.38
Saccade L	1	7	6349327400	6349347378	19978	739.97	305.70	544.58	496.36	1.59	275.96	1.00	79.38	6745.23	-6731.15	4519.49
Saccade R	1	7	6349327400	6349347378	19978	739.97	305.70	544.58	496.36	1.59	275.96	1.00	79.38	6745.23	-6731.15	4519.49
Fixation L	1	8	6349347378	6349605868	258490	524.07	519.87	30	32	-1	12.13	12.13
Fixation R	1	8	6349347378	6349605868	258490	524.07	519.87	30	32	-1	12.51	12.51
Blink L	1	1	6349605868	6349844603	238735
Blink R	1	1	6349605868	6349844603	238735
Fixation L	1	9	6349844603	6349983842	139239	1276.34	859.48	45	50	-1	14.88	14.88
Fixation R	1	9	6349844603	6349983842	139239	1276.34	859.48	45	50	-1	15.49	15.49
Saccade L	1	8	6349983842	6350003717	19875	1242.95	882.48	1239.27	895.22	0.46	52.25	1.00	22.92	-195.72	-970.74	498.04
Saccade R	1	8	6349983842	6350003717	19875	1242.95	882.48	1239.27	895.22	0.46	52.25	1.00	22.92	-195.72	-970.74	498.04
Fixation L	1	10	6350003717	6350361702	357985	1223.02	903.53	27	13	-1	14.92	14.92
Fixation R	1	10	6350003717	6350361702	357985	1223.02	903.53	27	13	-1	15.14	15.14
Saccade L	1	9	6350361702	6350381576	19874	1213.00	908.43	1219.67	790.68	0.91	119.29	1.00	45.88	2904.65	-2609.92	2313.31
Saccade R	1	9	6350361702	6350381576	19874	1213.00	908.43	1219.67	790.68	0.91	119.29	1.00	45.88	2904.65	-2609.92	2313.31
Fixation L	1	11	6350381576	6350481071	99495	1219.50	733.83	10	87	-1	14.24	14.24
Fixation R	1	11	6350381576	6350481071	99495	1219.50	733.83	10	87	-1	13.98	13.98
Saccade L	1	10	6350481071	6350580441	99370	1225.19	703.12	1230.25	704.27	18.01	1405.19	1.00	181.24	34916.77	-249.19	5086.38
Saccade R	1	10	6350481071	6350580441	99370	1225.19	703.12	1230.25	704.27	18.01	1405.19	1.00	181.24	34916.77	-249.19	5086.38
Blink L	1	2	6350580441	6350839047	258606
Blink R	1	2	6350580441	6350839047	258606
Saccade L	1	11	6350839047	6350938555	99508	474.45	195.35	379.66	160.23	2.33	83.31	1.00	23.41	1786.60	-1809.24	668.42
Saccade R	1	11	6350839047	6350938555	99508	474.45	195.35	379.66	160.23	2.33	83.31	1.00	23.41	1786.60	-1809.24	668.42
Fixation L	1	12	6350938555	6351455653	517098	383.72	169.06	30	48	-1	13.25	13.25
Fixation R	1	12	6350938555	6351455653	517098	383.72	169.06	30	48	-1	13.01	13.01
Saccade L	1	12	6351455653	6351475524	19871	380.30	168.15	570.89	182.96	1.45	193.31	1.00	72.97	4269.88	0.00	2134.94
Saccade R	1	12	6351455653	6351475524	19871	380.30	168.15	570.89	182.96	1.45	193.31	1.00	72.97	4269.88	0.00	2134.94
