[BeGaze]
Converted from:	C:\Documents and Settings\iViewX\Desktop\EXPERIMENTATIONS\Experiments\results\finaleart\S16F14542-finaleart-1.idf
Date:	27.03.2019 15:47:25
Version:	BeGaze 2.5.77
Sample Rate:	50
Subject:	S16F14542
Description:	Diane Dewez

Table Header for Fixations:
Event Type	Trial	Number	Start	End	Duration	Location X	Location Y	Dispersion X	Dispersion Y	Plane	Avg. Pupil Size X	Avg. Pupil Size Y

Table Header for Saccades:
Event Type	Trial	Number	Start	End	Duration	Start Loc.X	Start Loc.Y	End Loc.X	End Loc.Y	Amplitude	Peak Speed	Peak Speed At	Average Speed	Peak Accel.	Peak Decel.	Average Accel.

Table Header for Blinks:
Event Type	Trial	Number	Start	End	Duration

Table Header for User Events:
Event Type	Trial	Number	Start	Description

UserEvent	1	1	7195189620	# Message: still-life-with-a-puro-(II)_matisse_1904.jpg
Fixation L	1	1	7195192231	7195788943	596712	925.11	510.16	20	31	-1	14.37	14.37
Fixation R	1	1	7195192231	7195788943	596712	925.11	510.16	20	31	-1	14.97	14.97
Saccade L	1	1	7195788943	7195828679	39736	910.83	492.07	614.50	454.42	2.64	228.76	0.50	66.43	5570.14	-5598.12	3533.77
Saccade R	1	1	7195788943	7195828679	39736	910.83	492.07	614.50	454.42	2.64	228.76	0.50	66.43	5570.14	-5598.12	3533.77
Fixation L	1	2	7195828679	7196206668	377989	615.78	446.59	31	58	-1	12.29	12.29
Fixation R	1	2	7195828679	7196206668	377989	615.78	446.59	31	58	-1	12.63	12.63
Saccade L	1	2	7196206668	7196246417	39749	609.61	427.82	823.62	432.80	1.83	123.74	0.50	46.03	3013.23	-2945.38	2575.04
Saccade R	1	2	7196206668	7196246417	39749	609.61	427.82	823.62	432.80	1.83	123.74	0.50	46.03	3013.23	-2945.38	2575.04
Fixation L	1	3	7196246417	7196425414	178997	836.36	452.83	35	56	-1	11.45	11.45
Fixation R	1	3	7196246417	7196425414	178997	836.36	452.83	35	56	-1	11.88	11.88
Saccade L	1	3	7196425414	7196445288	19874	859.47	476.87	1022.96	507.24	1.31	168.18	1.00	66.01	3581.03	-3955.17	2666.51
Saccade R	1	3	7196425414	7196445288	19874	859.47	476.87	1022.96	507.24	1.31	168.18	1.00	66.01	3581.03	-3955.17	2666.51
Fixation L	1	4	7196445288	7196863028	417740	1046.35	555.31	30	59	-1	11.66	11.66
Fixation R	1	4	7196445288	7196863028	417740	1046.35	555.31	30	59	-1	11.95	11.95
Saccade L	1	4	7196863028	7196922642	59614	1035.00	554.24	617.57	483.89	4.93	263.04	0.33	82.67	6536.95	-5386.24	3969.06
Saccade R	1	4	7196863028	7196922642	59614	1035.00	554.24	617.57	483.89	4.93	263.04	0.33	82.67	6536.95	-5386.24	3969.06
Fixation L	1	5	7196922642	7197141508	218866	610.00	457.68	10	37	-1	11.22	11.22
Fixation R	1	5	7196922642	7197141508	218866	610.00	457.68	10	37	-1	11.95	11.95
Saccade L	1	5	7197141508	7197181245	39737	608.60	451.20	466.84	638.67	2.17	189.16	0.50	54.68	4698.16	-3983.01	2745.98
Saccade R	1	5	7197141508	7197181245	39737	608.60	451.20	466.84	638.67	2.17	189.16	0.50	54.68	4698.16	-3983.01	2745.98
Fixation L	1	6	7197181245	7197360245	179000	449.33	668.04	22	36	-1	11.48	11.48
Fixation R	1	6	7197181245	7197360245	179000	449.33	668.04	22	36	-1	12.13	12.13
Saccade L	1	6	7197360245	7197439733	79488	451.04	674.98	1203.38	494.70	9.43	260.66	0.50	118.66	6367.73	-5469.30	3978.56
Saccade R	1	6	7197360245	7197439733	79488	451.04	674.98	1203.38	494.70	9.43	260.66	0.50	118.66	6367.73	-5469.30	3978.56
Fixation L	1	7	7197439733	7197578980	139247	1227.59	472.07	39	48	-1	12.73	12.73
Fixation R	1	7	7197439733	7197578980	139247	1227.59	472.07	39	48	-1	12.98	12.98
Saccade L	1	7	7197578980	7197638731	59751	1243.38	451.23	1438.72	1018.15	6.50	336.97	0.67	108.71	8242.52	-8225.86	5187.91
Saccade R	1	7	7197578980	7197638731	59751	1243.38	451.23	1438.72	1018.15	6.50	336.97	0.67	108.71	8242.52	-8225.86	5187.91
Fixation L	1	8	7197638731	7197837598	198867	1446.67	1013.97	12	18	-1	13.02	13.02
Fixation R	1	8	7197638731	7197837598	198867	1446.67	1013.97	12	18	-1	12.77	12.77
Saccade L	1	8	7197837598	7197877339	39741	1449.73	1016.07	1237.58	791.33	2.84	166.85	0.50	71.38	4043.56	-3469.30	3637.24
Saccade R	1	8	7197837598	7197877339	39741	1449.73	1016.07	1237.58	791.33	2.84	166.85	0.50	71.38	4043.56	-3469.30	3637.24
Fixation L	1	9	7197877339	7198175706	298367	1220.37	760.98	24	43	-1	12.58	12.58
Fixation R	1	9	7197877339	7198175706	298367	1220.37	760.98	24	43	-1	12.87	12.87
Blink L	1	1	7198175706	7198573560	397854
Blink R	1	1	7198175706	7198573560	397854
Fixation L	1	10	7198573560	7198931538	357978	1166.40	612.74	12	32	-1	11.86	11.86
Fixation R	1	10	7198573560	7198931538	357978	1166.40	612.74	12	32	-1	12.27	12.27
Saccade L	1	9	7198931538	7198951411	19873	1160.04	605.37	1143.93	524.08	0.61	83.82	1.00	30.45	2026.17	-1388.14	1189.42
Saccade R	1	9	7198931538	7198951411	19873	1160.04	605.37	1143.93	524.08	0.61	83.82	1.00	30.45	2026.17	-1388.14	1189.42
Fixation L	1	11	7198951411	7199190151	238740	1118.52	499.47	37	42	-1	10.62	10.62
Fixation R	1	11	7198951411	7199190151	238740	1118.52	499.47	37	42	-1	10.96	10.96
