[BeGaze]
Converted from:	C:\Documents and Settings\iViewX\Desktop\EXPERIMENTATIONS\Experiments\results\finaleart\S16F14542-finaleart-1.idf
Date:	27.03.2019 15:47:38
Version:	BeGaze 2.5.77
Sample Rate:	50
Subject:	S16F14542
Description:	Diane Dewez

Table Header for Fixations:
Event Type	Trial	Number	Start	End	Duration	Location X	Location Y	Dispersion X	Dispersion Y	Plane	Avg. Pupil Size X	Avg. Pupil Size Y

Table Header for Saccades:
Event Type	Trial	Number	Start	End	Duration	Start Loc.X	Start Loc.Y	End Loc.X	End Loc.Y	Amplitude	Peak Speed	Peak Speed At	Average Speed	Peak Accel.	Peak Decel.	Average Accel.

Table Header for Blinks:
Event Type	Trial	Number	Start	End	Duration

Table Header for User Events:
Event Type	Trial	Number	Start	Description

UserEvent	1	1	7305053677	# Message: study_of_a_reclining_nude_Delacroix_1824.jpg
Fixation L	1	1	7305104480	7305502233	397753	842.31	499.38	6	46	-1	11.06	11.06
Fixation R	1	1	7305104480	7305502233	397753	842.31	499.38	6	46	-1	11.09	11.09
Saccade L	1	1	7305502233	7305581832	79599	841.81	517.11	1345.16	308.27	6.80	239.89	0.50	85.47	5950.69	-5474.93	3446.14
Saccade R	1	1	7305502233	7305581832	79599	841.81	517.11	1345.16	308.27	6.80	239.89	0.50	85.47	5950.69	-5474.93	3446.14
Fixation L	1	2	7305581832	7305820432	238600	1352.61	244.03	17	81	-1	12.42	12.42
Fixation R	1	2	7305581832	7305820432	238600	1352.61	244.03	17	81	-1	12.13	12.13
Saccade L	1	2	7305820432	7305840324	19892	1357.55	233.46	1360.64	227.73	0.14	11.89	1.00	6.79	-45.52	-132.89	78.96
Saccade R	1	2	7305820432	7305840324	19892	1357.55	233.46	1360.64	227.73	0.14	11.89	1.00	6.79	-45.52	-132.89	78.96
Fixation L	1	3	7305840324	7306039297	198973	1356.38	226.47	7	17	-1	13.00	13.00
Fixation R	1	3	7305840324	7306039297	198973	1356.38	226.47	7	17	-1	13.09	13.09
Saccade L	1	3	7306039297	7306118800	79503	1359.91	235.24	1099.87	399.66	4.50	190.13	0.25	56.61	4413.18	-3967.37	2316.78
Saccade R	1	3	7306039297	7306118800	79503	1359.91	235.24	1099.87	399.66	4.50	190.13	0.25	56.61	4413.18	-3967.37	2316.78
Fixation L	1	4	7306118800	7306218300	99500	1094.01	456.01	8	86	-1	14.16	14.16
Fixation R	1	4	7306118800	7306218300	99500	1094.01	456.01	8	86	-1	13.75	13.75
Saccade L	1	4	7306218300	7306238170	19870	1090.99	486.25	1092.05	490.80	0.11	6.44	1.00	5.59	0.34	-42.75	18.77
Saccade R	1	4	7306218300	7306238170	19870	1090.99	486.25	1092.05	490.80	0.11	6.44	1.00	5.59	0.34	-42.75	18.77
Fixation L	1	5	7306238170	7306397289	159119	1086.32	493.30	10	5	-1	14.53	14.53
Fixation R	1	5	7306238170	7306397289	159119	1086.32	493.30	10	5	-1	14.43	14.43
Saccade L	1	5	7306397289	7306437031	39742	1081.20	494.61	820.95	497.61	2.67	147.39	1.00	67.21	3651.53	-3610.05	2818.19
Saccade R	1	5	7306397289	7306437031	39742	1081.20	494.61	820.95	497.61	2.67	147.39	1.00	67.21	3651.53	-3610.05	2818.19
Fixation L	1	6	7306437031	7306755278	318247	746.65	501.50	82	12	-1	15.25	15.25
Fixation R	1	6	7306437031	7306755278	318247	746.65	501.50	82	12	-1	15.24	15.24
Saccade L	1	6	7306755278	7306775140	19862	740.41	505.49	638.09	543.91	0.84	110.55	1.00	42.30	2686.70	-2625.35	2123.86
Saccade R	1	6	7306755278	7306775140	19862	740.41	505.49	638.09	543.91	0.84	110.55	1.00	42.30	2686.70	-2625.35	2123.86
Fixation L	1	7	7306775140	7307192875	417735	596.19	569.62	48	34	-1	15.78	15.78
Fixation R	1	7	7306775140	7307192875	417735	596.19	569.62	48	34	-1	15.97	15.97
Saccade L	1	7	7307192875	7307212755	19880	590.75	569.08	760.63	545.01	1.23	173.53	1.00	62.08	4193.71	-4069.67	3320.02
Saccade R	1	7	7307192875	7307212755	19880	590.75	569.08	760.63	545.01	1.23	173.53	1.00	62.08	4193.71	-4069.67	3320.02
Fixation L	1	8	7307212755	7307391739	178984	812.23	523.90	62	37	-1	16.38	16.38
Fixation R	1	8	7307212755	7307391739	178984	812.23	523.90	62	37	-1	16.22	16.22
Saccade L	1	8	7307391739	7307471363	79624	815.90	511.43	816.86	506.82	1.53	108.67	1.00	19.16	26586.71	-114.75	4916.03
Saccade R	1	8	7307391739	7307471363	79624	815.90	511.43	816.86	506.82	1.53	108.67	1.00	19.16	26586.71	-114.75	4916.03
Blink L	1	1	7307471363	7307650344	178981
Blink R	1	1	7307471363	7307650344	178981
Fixation L	1	9	7307650344	7307988463	338119	1324.10	307.20	37	60	-1	16.46	16.46
Fixation R	1	9	7307650344	7307988463	338119	1324.10	307.20	37	60	-1	15.92	15.92
Saccade L	1	9	7307988463	7308008336	19873	1351.95	283.80	1349.73	282.02	0.11	11.48	0.00	5.41	8.32	-168.90	72.69
Saccade R	1	9	7307988463	7308008336	19873	1351.95	283.80	1349.73	282.02	0.11	11.48	0.00	5.41	8.32	-168.90	72.69
Fixation L	1	10	7308008336	7308207203	198867	1354.91	277.74	16	21	-1	16.02	16.02
Fixation R	1	10	7308008336	7308207203	198867	1354.91	277.74	16	21	-1	14.92	14.92
Saccade L	1	10	7308207203	7308227070	19867	1357.51	288.79	1359.17	401.42	0.75	113.94	1.00	37.70	2782.95	-2664.48	1872.38
Saccade R	1	10	7308207203	7308227070	19867	1357.51	288.79	1359.17	401.42	0.75	113.94	1.00	37.70	2782.95	-2664.48	1872.38
Fixation L	1	11	7308227070	7308485687	258617	1358.12	433.22	9	50	-1	15.91	15.91
Fixation R	1	11	7308227070	7308485687	258617	1358.12	433.22	9	50	-1	15.06	15.06
Saccade L	1	11	7308485687	7308525439	39752	1353.45	449.62	1141.28	596.35	2.42	200.40	0.50	60.99	4869.28	-4415.61	3092.99
Saccade R	1	11	7308485687	7308525439	39752	1353.45	449.62	1141.28	596.35	2.42	200.40	0.50	60.99	4869.28	-4415.61	3092.99
Fixation L	1	12	7308525439	7308863659	338220	1119.04	632.68	31	53	-1	16.27	16.27
Fixation R	1	12	7308525439	7308863659	338220	1119.04	632.68	31	53	-1	15.47	15.47
Saccade L	1	12	7308863659	7308923285	59626	1109.82	650.07	715.53	718.25	4.17	268.66	0.67	70.01	6621.45	-6589.00	3550.89
Saccade R	1	12	7308863659	7308923285	59626	1109.82	650.07	715.53	718.25	4.17	268.66	0.67	70.01	6621.45	-6589.00	3550.89
Fixation L	1	13	7308923285	7309042664	119379	704.42	726.19	20	13	-1	15.92	15.92
Fixation R	1	13	7308923285	7309042664	119379	704.42	726.19	20	13	-1	15.35	15.35
