[BeGaze]
Converted from:	C:\Documents and Settings\iViewX\Desktop\EXPERIMENTATIONS\Experiments\results\finaleart\S16F14542-finaleart-1.idf
Date:	27.03.2019 15:47:32
Version:	BeGaze 2.5.77
Sample Rate:	50
Subject:	S16F14542
Description:	Diane Dewez

Table Header for Fixations:
Event Type	Trial	Number	Start	End	Duration	Location X	Location Y	Dispersion X	Dispersion Y	Plane	Avg. Pupil Size X	Avg. Pupil Size Y

Table Header for Saccades:
Event Type	Trial	Number	Start	End	Duration	Start Loc.X	Start Loc.Y	End Loc.X	End Loc.Y	Amplitude	Peak Speed	Peak Speed At	Average Speed	Peak Accel.	Peak Decel.	Average Accel.

Table Header for Blinks:
Event Type	Trial	Number	Start	End	Duration

Table Header for User Events:
Event Type	Trial	Number	Start	Description

UserEvent	1	1	7254157083	# Message: void.jpg
Fixation L	1	1	7254166159	7254683252	517093	1367.50	776.17	21	19	-1	16.81	16.81
Fixation R	1	1	7254166159	7254683252	517093	1367.50	776.17	21	19	-1	16.25	16.25
Blink L	1	1	7254683252	7254882249	198997
Blink R	1	1	7254683252	7254882249	198997
Fixation L	1	2	7254882249	7255160619	278370	1792.52	600.09	19	44	-1	14.86	14.86
Fixation R	1	2	7254882249	7255160619	278370	1792.52	600.09	19	44	-1	14.63	14.63
Saccade L	1	1	7255160619	7255220357	59738	1801.51	580.37	1122.41	547.73	7.34	265.63	0.67	122.79	6274.19	-5826.10	4485.20
Saccade R	1	1	7255160619	7255220357	59738	1801.51	580.37	1122.41	547.73	7.34	265.63	0.67	122.79	6274.19	-5826.10	4485.20
Fixation L	1	3	7255220357	7255498718	278361	1079.23	567.00	56	42	-1	14.16	14.16
Fixation R	1	3	7255220357	7255498718	278361	1079.23	567.00	56	42	-1	14.45	14.45
Saccade L	1	2	7255498718	7255518745	20027	1065.81	584.93	1064.76	586.30	0.07	6.91	0.00	3.34	30.94	-67.74	37.17
Saccade R	1	2	7255498718	7255518745	20027	1065.81	584.93	1064.76	586.30	0.07	6.91	0.00	3.34	30.94	-67.74	37.17
Fixation L	1	4	7255518745	7255777203	258458	1056.08	584.27	13	13	-1	13.34	13.34
Fixation R	1	4	7255518745	7255777203	258458	1056.08	584.27	13	13	-1	13.49	13.49
Saccade L	1	3	7255777203	7255797071	19868	1056.89	574.26	996.31	535.80	0.48	72.59	1.00	24.25	1642.30	-1640.93	1227.12
Saccade R	1	3	7255777203	7255797071	19868	1056.89	574.26	996.31	535.80	0.48	72.59	1.00	24.25	1642.30	-1640.93	1227.12
Fixation L	1	5	7255797071	7256155191	358120	960.72	531.93	45	32	-1	12.61	12.61
Fixation R	1	5	7255797071	7256155191	358120	960.72	531.93	45	32	-1	13.58	13.58
