[BeGaze]
Converted from:	C:\Documents and Settings\iViewX\Desktop\EXPERIMENTATIONS\Experiments\results\finaleart\S16F14542-finaleart-1.idf
Date:	27.03.2019 15:47:45
Version:	BeGaze 2.5.77
Sample Rate:	50
Subject:	S16F14542
Description:	Diane Dewez

Table Header for Fixations:
Event Type	Trial	Number	Start	End	Duration	Location X	Location Y	Dispersion X	Dispersion Y	Plane	Avg. Pupil Size X	Avg. Pupil Size Y

Table Header for Saccades:
Event Type	Trial	Number	Start	End	Duration	Start Loc.X	Start Loc.Y	End Loc.X	End Loc.Y	Amplitude	Peak Speed	Peak Speed At	Average Speed	Peak Accel.	Peak Decel.	Average Accel.

Table Header for Blinks:
Event Type	Trial	Number	Start	End	Duration

Table Header for User Events:
Event Type	Trial	Number	Start	Description

UserEvent	1	1	7395800069	# Message: Upper_Mississippi_Kensett_1855.jpg
Fixation L	1	1	7395803023	7396379736	576713	860.34	481.63	10	25	-1	14.51	14.51
Fixation R	1	1	7395803023	7396379736	576713	860.34	481.63	10	25	-1	14.85	14.85
Saccade L	1	1	7396379736	7396399618	19882	860.53	473.10	949.48	617.17	1.08	171.24	1.00	54.16	4222.27	-3798.47	2918.32
Saccade R	1	1	7396379736	7396399618	19882	860.53	473.10	949.48	617.17	1.08	171.24	1.00	54.16	4222.27	-3798.47	2918.32
Fixation L	1	2	7396399618	7396916839	517221	946.95	653.47	24	72	-1	12.23	12.23
Fixation R	1	2	7396399618	7396916839	517221	946.95	653.47	24	72	-1	12.02	12.02
Saccade L	1	2	7396916839	7396936711	19872	951.90	616.07	947.62	591.86	0.33	24.86	1.00	16.49	422.25	-565.96	350.18
Saccade R	1	2	7396916839	7396936711	19872	951.90	616.07	947.62	591.86	0.33	24.86	1.00	16.49	422.25	-565.96	350.18
Fixation L	1	3	7396936711	7397056074	119363	950.70	603.84	4	16	-1	11.49	11.49
Fixation R	1	3	7396936711	7397056074	119363	950.70	603.84	4	16	-1	11.28	11.28
Saccade L	1	3	7397056074	7397095830	39756	951.09	604.98	1232.87	615.06	2.46	185.08	1.00	61.88	4598.50	-4443.43	3369.10
Saccade R	1	3	7397056074	7397095830	39756	951.09	604.98	1232.87	615.06	2.46	185.08	1.00	61.88	4598.50	-4443.43	3369.10
Fixation L	1	4	7397095830	7397493570	397740	1263.16	634.10	44	27	-1	11.06	11.06
Fixation R	1	4	7397095830	7397493570	397740	1263.16	634.10	44	27	-1	10.83	10.83
Saccade L	1	4	7397493570	7397533441	39871	1276.87	639.66	933.35	646.87	3.40	207.76	1.00	85.20	5180.58	-5007.95	3807.51
Saccade R	1	4	7397493570	7397533441	39871	1276.87	639.66	933.35	646.87	3.40	207.76	1.00	85.20	5180.58	-5007.95	3807.51
Fixation L	1	5	7397533441	7397692549	159108	858.59	653.17	88	8	-1	10.78	10.78
Fixation R	1	5	7397533441	7397692549	159108	858.59	653.17	88	8	-1	10.60	10.60
Saccade L	1	5	7397692549	7397712418	19869	844.72	654.94	839.92	652.35	0.06	5.52	1.00	3.24	108.42	-73.03	89.68
Saccade R	1	5	7397692549	7397712418	19869	844.72	654.94	839.92	652.35	0.06	5.52	1.00	3.24	108.42	-73.03	89.68
Fixation L	1	6	7397712418	7397990913	278495	832.34	644.21	47	13	-1	10.82	10.82
Fixation R	1	6	7397712418	7397990913	278495	832.34	644.21	47	13	-1	10.83	10.83
Saccade L	1	6	7397990913	7398010784	19871	792.48	647.70	641.00	653.74	1.02	153.33	1.00	51.29	3765.09	-3609.16	2696.67
Saccade R	1	6	7397990913	7398010784	19871	792.48	647.70	641.00	653.74	1.02	153.33	1.00	51.29	3765.09	-3609.16	2696.67
Fixation L	1	7	7398010784	7398289270	278486	619.54	657.50	34	24	-1	11.43	11.43
Fixation R	1	7	7398010784	7398289270	278486	619.54	657.50	34	24	-1	11.67	11.67
Saccade L	1	7	7398289270	7398309149	19879	606.12	641.24	493.26	557.57	0.95	142.10	1.00	47.99	3333.87	-3035.94	2199.41
Saccade R	1	7	7398289270	7398309149	19879	606.12	641.24	493.26	557.57	0.95	142.10	1.00	47.99	3333.87	-3035.94	2199.41
Fixation L	1	8	7398309149	7398746628	437479	468.15	569.35	32	29	-1	11.33	11.33
Fixation R	1	8	7398309149	7398746628	437479	468.15	569.35	32	29	-1	11.80	11.80
Saccade L	1	8	7398746628	7398766625	19997	468.70	561.46	626.24	565.64	0.97	159.39	1.00	48.38	3932.08	-3732.87	2732.43
Saccade R	1	8	7398746628	7398766625	19997	468.70	561.46	626.24	565.64	0.97	159.39	1.00	48.38	3932.08	-3732.87	2732.43
Fixation L	1	9	7398766625	7399184229	417604	665.02	576.75	57	26	-1	11.44	11.44
Fixation R	1	9	7398766625	7399184229	417604	665.02	576.75	57	26	-1	12.00	12.00
Blink L	1	1	7399184229	7399701455	517226
Blink R	1	1	7399184229	7399701455	517226
Fixation L	1	10	7399701455	7399800816	99361	1200.63	556.71	10	35	-1	13.36	13.36
Fixation R	1	10	7399701455	7399800816	99361	1200.63	556.71	10	35	-1	12.98	12.98
