[BeGaze]
Converted from:	C:\Documents and Settings\iViewX\Desktop\EXPERIMENTATIONS\Experiments\results\finaleart\S16F14542-finaleart-1.idf
Date:	27.03.2019 15:46:56
Version:	BeGaze 2.5.77
Sample Rate:	50
Subject:	S16F14542
Description:	Diane Dewez

Table Header for Fixations:
Event Type	Trial	Number	Start	End	Duration	Location X	Location Y	Dispersion X	Dispersion Y	Plane	Avg. Pupil Size X	Avg. Pupil Size Y

Table Header for Saccades:
Event Type	Trial	Number	Start	End	Duration	Start Loc.X	Start Loc.Y	End Loc.X	End Loc.Y	Amplitude	Peak Speed	Peak Speed At	Average Speed	Peak Accel.	Peak Decel.	Average Accel.

Table Header for Blinks:
Event Type	Trial	Number	Start	End	Duration

Table Header for User Events:
Event Type	Trial	Number	Start	Description

UserEvent	1	1	6863484486	# Message: woman-at-her-toilette_degas_1877.jpg
Fixation L	1	1	6863499190	6863897037	397847	847.86	408.72	63	31	-1	10.62	10.62
Fixation R	1	1	6863499190	6863897037	397847	847.86	408.72	63	31	-1	11.16	11.16
Saccade L	1	1	6863897037	6863916920	19883	900.85	385.46	988.72	357.33	1.01	93.32	1.00	50.79	2271.84	-2151.91	1752.97
Saccade R	1	1	6863897037	6863916920	19883	900.85	385.46	988.72	357.33	1.01	93.32	1.00	50.79	2271.84	-2151.91	1752.97
Fixation L	1	2	6863916920	6864056180	139260	978.27	325.02	15	40	-1	11.82	11.82
Fixation R	1	2	6863916920	6864056180	139260	978.27	325.02	15	40	-1	12.14	12.14
Saccade L	1	2	6864056180	6864095908	39728	976.09	316.99	1059.03	501.99	1.76	125.09	0.50	44.38	2960.80	-2925.83	2435.46
Saccade R	1	2	6864056180	6864095908	39728	976.09	316.99	1059.03	501.99	1.76	125.09	0.50	44.38	2960.80	-2925.83	2435.46
Fixation L	1	3	6864095908	6864473769	377861	1073.05	522.79	18	37	-1	11.22	11.22
Fixation R	1	3	6864095908	6864473769	377861	1073.05	522.79	18	37	-1	11.64	11.64
Saccade L	1	3	6864473769	6864493641	19872	1072.07	539.46	1182.32	418.06	1.02	165.85	1.00	51.28	4087.37	-3813.49	2916.14
Saccade R	1	3	6864473769	6864493641	19872	1072.07	539.46	1182.32	418.06	1.02	165.85	1.00	51.28	4087.37	-3813.49	2916.14
Fixation L	1	4	6864493641	6864692632	198991	1199.07	362.19	20	78	-1	11.43	11.43
Fixation R	1	4	6864493641	6864692632	198991	1199.07	362.19	20	78	-1	11.53	11.53
Saccade L	1	4	6864692632	6864712510	19878	1201.41	339.61	1204.11	336.55	0.07	4.23	1.00	3.50	50.42	-92.02	53.10
Saccade R	1	4	6864692632	6864712510	19878	1201.41	339.61	1204.11	336.55	0.07	4.23	1.00	3.50	50.42	-92.02	53.10
Fixation L	1	5	6864712510	6864891500	178990	1211.88	330.26	77	9	-1	11.32	11.32
Fixation R	1	5	6864712510	6864891500	178990	1211.88	330.26	77	9	-1	11.69	11.69
Saccade L	1	5	6864891500	6864911378	19878	1280.70	332.09	1416.21	332.02	1.10	137.07	1.00	55.27	3400.94	-3250.01	2809.47
Saccade R	1	5	6864891500	6864911378	19878	1280.70	332.09	1416.21	332.02	1.10	137.07	1.00	55.27	3400.94	-3250.01	2809.47
Fixation L	1	6	6864911378	6865130117	218739	1417.67	332.84	8	9	-1	11.83	11.83
Fixation R	1	6	6864911378	6865130117	218739	1417.67	332.84	8	9	-1	12.05	12.05
Saccade L	1	6	6865130117	6865150105	19988	1413.95	336.77	1527.06	323.66	0.76	115.17	1.00	37.88	2805.13	-2181.37	1888.80
Saccade R	1	6	6865130117	6865150105	19988	1413.95	336.77	1527.06	323.66	0.76	115.17	1.00	37.88	2805.13	-2181.37	1888.80
Fixation L	1	7	6865150105	6865309105	159000	1552.53	284.27	39	59	-1	12.28	12.28
Fixation R	1	7	6865150105	6865309105	159000	1552.53	284.27	39	59	-1	12.01	12.01
Saccade L	1	7	6865309105	6865428474	119369	1567.05	263.76	1763.51	440.11	5.43	168.02	0.83	45.46	3890.84	-3011.27	1691.90
Saccade R	1	7	6865309105	6865428474	119369	1567.05	263.76	1763.51	440.11	5.43	168.02	0.83	45.46	3890.84	-3011.27	1691.90
Fixation L	1	8	6865428474	6865687079	258605	1735.45	468.31	47	36	-1	12.09	12.09
Fixation R	1	8	6865428474	6865687079	258605	1735.45	468.31	47	36	-1	12.36	12.36
Blink L	1	1	6865687079	6865866073	178994
Blink R	1	1	6865687079	6865866073	178994
Fixation L	1	9	6865866073	6866582169	716096	1033.27	323.88	22	44	-1	14.82	14.82
Fixation R	1	9	6865866073	6866582169	716096	1033.27	323.88	22	44	-1	14.73	14.73
Saccade L	1	8	6866582169	6866621922	39753	1021.77	306.31	707.27	481.86	3.39	221.06	1.00	85.39	5486.59	-5318.32	4290.02
Saccade R	1	8	6866582169	6866621922	39753	1021.77	306.31	707.27	481.86	3.39	221.06	1.00	85.39	5486.59	-5318.32	4290.02
Fixation L	1	10	6866621922	6866741291	119369	662.99	500.40	55	35	-1	14.74	14.74
Fixation R	1	10	6866621922	6866741291	119369	662.99	500.40	55	35	-1	15.20	15.20
Saccade L	1	9	6866741291	6866761161	19870	652.51	517.25	652.50	529.43	0.20	16.38	0.00	9.89	165.08	-280.61	235.67
Saccade R	1	9	6866741291	6866761161	19870	652.51	517.25	652.50	529.43	0.20	16.38	0.00	9.89	165.08	-280.61	235.67
Fixation L	1	11	6866761161	6866860520	99359	653.08	534.06	8	20	-1	14.66	14.66
Fixation R	1	11	6866761161	6866860520	99359	653.08	534.06	8	20	-1	12.89	12.89
Blink L	1	2	6866860520	6867019645	159125
Blink R	1	2	6866860520	6867019645	159125
Fixation L	1	12	6867019645	6867139012	119367	352.81	575.09	10	14	-1	15.36	15.36
Fixation R	1	12	6867019645	6867139012	119367	352.81	575.09	10	14	-1	14.62	14.62
Saccade L	1	10	6867139012	6867178760	39748	350.16	580.49	461.34	891.30	2.91	195.70	0.50	73.14	4783.63	-4517.10	4100.55
Saccade R	1	10	6867139012	6867178760	39748	350.16	580.49	461.34	891.30	2.91	195.70	0.50	73.14	4783.63	-4517.10	4100.55
Fixation L	1	13	6867178760	6867357879	179119	474.62	914.08	34	52	-1	14.93	14.93
Fixation R	1	13	6867178760	6867357879	179119	474.62	914.08	34	52	-1	14.61	14.61
Saccade L	1	11	6867357879	6867377781	19902	455.42	944.29	394.88	983.86	0.65	73.16	1.00	32.56	1702.10	-1592.38	1359.84
Saccade R	1	11	6867357879	6867377781	19902	455.42	944.29	394.88	983.86	0.65	73.16	1.00	32.56	1702.10	-1592.38	1359.84
Fixation L	1	14	6867377781	6867477127	99346	383.32	985.95	18	9	-1	14.13	14.13
Fixation R	1	14	6867377781	6867477127	99346	383.32	985.95	18	9	-1	14.28	14.28
