[BeGaze]
Converted from:	C:\Documents and Settings\iViewX\Desktop\EXPERIMENTATIONS\Experiments\results\finaleart\S16F14542-finaleart-1.idf
Date:	27.03.2019 15:47:39
Version:	BeGaze 2.5.77
Sample Rate:	50
Subject:	S16F14542
Description:	Diane Dewez

Table Header for Fixations:
Event Type	Trial	Number	Start	End	Duration	Location X	Location Y	Dispersion X	Dispersion Y	Plane	Avg. Pupil Size X	Avg. Pupil Size Y

Table Header for Saccades:
Event Type	Trial	Number	Start	End	Duration	Start Loc.X	Start Loc.Y	End Loc.X	End Loc.Y	Amplitude	Peak Speed	Peak Speed At	Average Speed	Peak Accel.	Peak Decel.	Average Accel.

Table Header for Blinks:
Event Type	Trial	Number	Start	End	Duration

Table Header for User Events:
Event Type	Trial	Number	Start	Description

UserEvent	1	1	7311151847	# Message: still-life-with-red-mullet-and-jug_gaugain_1876.jpg
Fixation L	1	1	7311170941	7311588539	417598	934.34	503.69	4	15	-1	11.28	11.28
Fixation R	1	1	7311170941	7311588539	417598	934.34	503.69	4	15	-1	11.79	11.79
Saccade L	1	1	7311588539	7311628414	39875	931.95	494.81	918.39	732.11	2.03	141.35	0.50	50.86	3439.57	-3370.45	2892.06
Saccade R	1	1	7311588539	7311628414	39875	931.95	494.81	918.39	732.11	2.03	141.35	0.50	50.86	3439.57	-3370.45	2892.06
Fixation L	1	2	7311628414	7311986399	357985	891.34	728.28	41	34	-1	12.93	12.93
Fixation R	1	2	7311628414	7311986399	357985	891.34	728.28	41	34	-1	13.59	13.59
Saccade L	1	2	7311986399	7312026146	39747	891.60	701.09	1107.52	430.60	3.19	245.28	0.50	80.20	6062.13	-5943.13	4090.25
Saccade R	1	2	7311986399	7312026146	39747	891.60	701.09	1107.52	430.60	3.19	245.28	0.50	80.20	6062.13	-5943.13	4090.25
Fixation L	1	3	7312026146	7312443874	417728	1112.51	421.94	16	43	-1	14.20	14.20
Fixation R	1	3	7312026146	7312443874	417728	1112.51	421.94	16	43	-1	14.47	14.47
Saccade L	1	3	7312443874	7312503515	59641	1123.19	399.64	818.81	827.40	5.57	195.71	0.33	93.33	4774.93	-4055.10	3516.80
Saccade R	1	3	7312443874	7312503515	59641	1123.19	399.64	818.81	827.40	5.57	195.71	0.33	93.33	4774.93	-4055.10	3516.80
Fixation L	1	4	7312503515	7312762106	258591	811.08	865.71	12	52	-1	15.28	15.28
Fixation R	1	4	7312503515	7312762106	258591	811.08	865.71	12	52	-1	16.15	16.15
Saccade L	1	4	7312762106	7312781985	19879	807.37	878.75	753.84	877.06	0.41	54.18	1.00	20.59	1318.79	-1227.42	1047.01
Saccade R	1	4	7312762106	7312781985	19879	807.37	878.75	753.84	877.06	0.41	54.18	1.00	20.59	1318.79	-1227.42	1047.01
Fixation L	1	5	7312781985	7313000722	218737	722.48	869.84	39	12	-1	16.04	16.04
Fixation R	1	5	7312781985	7313000722	218737	722.48	869.84	39	12	-1	16.67	16.67
Saccade L	1	5	7313000722	7313060468	59746	714.49	867.01	710.69	285.77	6.11	250.83	1.00	102.33	5499.78	-5989.32	4542.28
Saccade R	1	5	7313000722	7313060468	59746	714.49	867.01	710.69	285.77	6.11	250.83	1.00	102.33	5499.78	-5989.32	4542.28
Fixation L	1	6	7313060468	7313159841	99373	688.30	258.91	44	52	-1	15.04	15.04
Fixation R	1	6	7313060468	7313159841	99373	688.30	258.91	44	52	-1	15.80	15.80
Saccade L	1	6	7313159841	7313179719	19878	665.77	232.91	666.17	229.80	0.41	38.68	0.00	20.61	162.22	-516.71	387.74
Saccade R	1	6	7313159841	7313179719	19878	665.77	232.91	666.17	229.80	0.41	38.68	0.00	20.61	162.22	-516.71	387.74
Fixation L	1	7	7313179719	7313358824	179105	656.17	199.11	15	47	-1	14.80	14.80
Fixation R	1	7	7313179719	7313358824	179105	656.17	199.11	15	47	-1	15.24	15.24
Saccade L	1	7	7313358824	7313398573	39749	650.84	188.67	995.94	190.37	2.97	180.50	0.50	74.65	4458.56	-4145.14	4184.42
Saccade R	1	7	7313358824	7313398573	39749	650.84	188.67	995.94	190.37	2.97	180.50	0.50	74.65	4458.56	-4145.14	4184.42
Fixation L	1	8	7313398573	7313597444	198871	1019.61	209.52	32	41	-1	15.33	15.33
Fixation R	1	8	7313398573	7313597444	198871	1019.61	209.52	32	41	-1	15.29	15.29
Saccade L	1	8	7313597444	7313637203	39759	1025.44	211.33	781.07	349.51	2.56	144.86	0.50	64.42	3500.33	-3221.45	3264.97
Saccade R	1	8	7313597444	7313637203	39759	1025.44	211.33	781.07	349.51	2.56	144.86	0.50	64.42	3500.33	-3221.45	3264.97
Fixation L	1	9	7313637203	7313736680	99477	778.59	393.38	5	89	-1	15.97	15.97
Fixation R	1	9	7313637203	7313736680	99477	778.59	393.38	5	89	-1	16.13	16.13
Saccade L	1	9	7313736680	7313756560	19880	778.66	438.98	780.27	445.10	0.26	32.58	1.00	13.32	-20.24	-654.35	322.15
Saccade R	1	9	7313736680	7313756560	19880	778.66	438.98	780.27	445.10	0.26	32.58	1.00	13.32	-20.24	-654.35	322.15
Fixation L	1	10	7313756560	7313935552	178992	778.76	451.81	2	39	-1	16.04	16.04
Fixation R	1	10	7313756560	7313935552	178992	778.76	451.81	2	39	-1	16.94	16.94
Saccade L	1	10	7313935552	7313955424	19872	777.98	481.83	713.71	633.98	1.03	167.04	1.00	52.06	4107.58	-3988.21	2860.45
Saccade R	1	10	7313935552	7313955424	19872	777.98	481.83	713.71	633.98	1.03	167.04	1.00	52.06	4107.58	-3988.21	2860.45
Fixation L	1	11	7313955424	7314572023	616599	705.78	620.24	27	23	-1	17.07	17.07
Fixation R	1	11	7313955424	7314572023	616599	705.78	620.24	27	23	-1	17.57	17.57
Saccade L	1	11	7314572023	7314592015	19992	690.03	634.65	515.74	737.08	1.21	204.43	1.00	60.72	5077.50	-4544.17	3348.91
Saccade R	1	11	7314572023	7314592015	19992	690.03	634.65	515.74	737.08	1.21	204.43	1.00	60.72	5077.50	-4544.17	3348.91
Fixation L	1	12	7314592015	7314870385	278370	519.83	761.89	11	31	-1	17.26	17.26
Fixation R	1	12	7314592015	7314870385	278370	519.83	761.89	11	31	-1	18.25	18.25
Saccade L	1	12	7314870385	7314930130	59745	517.11	767.05	1010.37	496.76	6.08	301.08	0.67	101.77	7489.53	-6832.46	4676.42
Saccade R	1	12	7314870385	7314930130	59745	517.11	767.05	1010.37	496.76	6.08	301.08	0.67	101.77	7489.53	-6832.46	4676.42
Fixation L	1	13	7314930130	7315148872	218742	1054.45	491.97	54	19	-1	17.25	17.25
Fixation R	1	13	7314930130	7315148872	218742	1054.45	491.97	54	19	-1	18.22	18.22
