[BeGaze]
Converted from:	C:\Documents and Settings\iViewX\Desktop\EXPERIMENTATIONS\Experiments\results\finaleart\S16F14542-finaleart-1.idf
Date:	27.03.2019 15:47:15
Version:	BeGaze 2.5.77
Sample Rate:	50
Subject:	S16F14542
Description:	Diane Dewez

Table Header for Fixations:
Event Type	Trial	Number	Start	End	Duration	Location X	Location Y	Dispersion X	Dispersion Y	Plane	Avg. Pupil Size X	Avg. Pupil Size Y

Table Header for Saccades:
Event Type	Trial	Number	Start	End	Duration	Start Loc.X	Start Loc.Y	End Loc.X	End Loc.Y	Amplitude	Peak Speed	Peak Speed At	Average Speed	Peak Accel.	Peak Decel.	Average Accel.

Table Header for Blinks:
Event Type	Trial	Number	Start	End	Duration

Table Header for User Events:
Event Type	Trial	Number	Start	Description

UserEvent	1	1	7057913192	# Message: courbet-the-bathers-1858.jpg
Fixation L	1	1	7057924660	7058103762	179102	1074.43	528.44	33	15	-1	11.32	11.32
Fixation R	1	1	7057924660	7058103762	179102	1074.43	528.44	33	15	-1	11.63	11.63
Saccade L	1	1	7058103762	7058123519	19757	1050.27	536.32	898.47	533.76	0.90	153.55	1.00	45.66	3795.58	-3778.48	2672.66
Saccade R	1	1	7058103762	7058123519	19757	1050.27	536.32	898.47	533.76	0.90	153.55	1.00	45.66	3795.58	-3778.48	2672.66
Fixation L	1	2	7058123519	7058402022	278503	885.90	532.07	38	20	-1	11.87	11.87
Fixation R	1	2	7058123519	7058402022	278503	885.90	532.07	38	20	-1	12.70	12.70
Saccade L	1	2	7058402022	7058441898	39876	860.19	515.85	684.31	422.02	1.98	184.04	0.50	49.71	4501.95	-4070.01	2211.76
Saccade R	1	2	7058402022	7058441898	39876	860.19	515.85	684.31	422.02	1.98	184.04	0.50	49.71	4501.95	-4070.01	2211.76
Fixation L	1	3	7058441898	7058580993	139095	663.58	393.32	29	57	-1	12.70	12.70
Fixation R	1	3	7058441898	7058580993	139095	663.58	393.32	29	57	-1	13.42	13.42
Saccade L	1	3	7058580993	7058601000	20007	655.17	401.07	655.06	335.75	0.50	66.07	1.00	24.96	1307.83	-1426.65	1039.32
Saccade R	1	3	7058580993	7058601000	20007	655.17	401.07	655.06	335.75	0.50	66.07	1.00	24.96	1307.83	-1426.65	1039.32
Fixation L	1	4	7058601000	7058740119	139119	666.96	305.19	29	58	-1	12.36	12.36
Fixation R	1	4	7058601000	7058740119	139119	666.96	305.19	29	58	-1	13.41	13.41
Saccade L	1	4	7058740119	7058779992	39873	666.29	277.31	763.72	112.70	2.19	98.58	0.50	54.91	1978.64	-1876.46	1823.62
Saccade R	1	4	7058740119	7058779992	39873	666.29	277.31	763.72	112.70	2.19	98.58	0.50	54.91	1978.64	-1876.46	1823.62
Fixation L	1	5	7058779992	7059038488	258496	767.30	94.24	39	33	-1	12.27	12.27
Fixation R	1	5	7058779992	7059038488	258496	767.30	94.24	39	33	-1	12.98	12.98
Saccade L	1	5	7059038488	7059078346	39858	773.81	93.43	875.15	294.49	2.28	152.80	0.50	57.08	3757.37	-2586.00	2337.54
Saccade R	1	5	7059038488	7059078346	39858	773.81	93.43	875.15	294.49	2.28	152.80	0.50	57.08	3757.37	-2586.00	2337.54
Fixation L	1	6	7059078346	7059416461	338115	893.64	282.96	33	55	-1	13.50	13.50
Fixation R	1	6	7059078346	7059416461	338115	893.64	282.96	33	55	-1	13.99	13.99
Saccade L	1	6	7059416461	7059436328	19867	888.46	297.77	653.08	315.65	1.52	238.67	1.00	76.38	5872.04	-5781.81	4049.15
Saccade R	1	6	7059416461	7059436328	19867	888.46	297.77	653.08	315.65	1.52	238.67	1.00	76.38	5872.04	-5781.81	4049.15
Fixation L	1	7	7059436328	7059694944	258616	613.01	353.15	47	50	-1	14.13	14.13
Fixation R	1	7	7059436328	7059694944	258616	613.01	353.15	47	50	-1	14.68	14.68
Saccade L	1	7	7059694944	7059754562	59618	607.93	366.50	603.44	528.20	1.75	106.62	1.00	29.40	2545.13	-2538.07	1505.55
Saccade R	1	7	7059694944	7059754562	59618	607.93	366.50	603.44	528.20	1.75	106.62	1.00	29.40	2545.13	-2538.07	1505.55
Fixation L	1	8	7059754562	7060112552	357990	593.58	531.55	16	66	-1	14.93	14.93
Fixation R	1	8	7059754562	7060112552	357990	593.58	531.55	16	66	-1	15.42	15.42
Saccade L	1	8	7060112552	7060172297	59745	589.45	575.34	844.67	804.12	3.86	247.43	0.67	64.55	6163.42	-5613.13	2800.67
Saccade R	1	8	7060112552	7060172297	59745	589.45	575.34	844.67	804.12	3.86	247.43	0.67	64.55	6163.42	-5613.13	2800.67
Fixation L	1	9	7060172297	7060450660	278363	865.22	833.88	28	37	-1	15.25	15.25
Fixation R	1	9	7060172297	7060450660	278363	865.22	833.88	28	37	-1	15.79	15.79
Saccade L	1	9	7060450660	7060470657	19997	873.62	841.20	810.47	848.91	0.55	64.36	1.00	27.28	1585.78	-1066.63	1213.85
Saccade R	1	9	7060450660	7060470657	19997	873.62	841.20	810.47	848.91	0.55	64.36	1.00	27.28	1585.78	-1066.63	1213.85
Fixation L	1	10	7060470657	7060928139	457482	790.46	892.66	34	59	-1	14.59	14.59
Fixation R	1	10	7060470657	7060928139	457482	790.46	892.66	34	59	-1	14.78	14.78
Saccade L	1	10	7060928139	7060967877	39738	819.45	900.98	1158.61	901.19	3.01	243.04	0.50	75.64	5945.84	-5977.09	4065.89
Saccade R	1	10	7060928139	7060967877	39738	819.45	900.98	1158.61	901.19	3.01	243.04	0.50	75.64	5945.84	-5977.09	4065.89
Fixation L	1	11	7060967877	7061306000	338123	1171.61	904.34	26	8	-1	14.35	14.35
Fixation R	1	11	7060967877	7061306000	338123	1171.61	904.34	26	8	-1	14.49	14.49
Saccade L	1	11	7061306000	7061385481	79481	1177.13	909.46	945.70	342.89	7.50	224.90	0.50	94.39	5554.90	-3507.95	3086.59
Saccade R	1	11	7061306000	7061385481	79481	1177.13	909.46	945.70	342.89	7.50	224.90	0.50	94.39	5554.90	-3507.95	3086.59
Fixation L	1	12	7061385481	7061524738	139257	942.92	320.72	17	38	-1	13.78	13.78
Fixation R	1	12	7061385481	7061524738	139257	942.92	320.72	17	38	-1	13.89	13.89
Saccade L	1	12	7061524738	7061544602	19864	929.71	304.07	800.07	161.47	1.11	194.89	1.00	56.08	4761.59	-4614.43	3132.67
Saccade R	1	12	7061524738	7061544602	19864	929.71	304.07	800.07	161.47	1.11	194.89	1.00	56.08	4761.59	-4614.43	3132.67
Fixation L	1	13	7061544602	7061862966	318364	798.40	166.55	19	36	-1	13.30	13.30
Fixation R	1	13	7061544602	7061862966	318364	798.40	166.55	19	36	-1	14.10	14.10
Saccade L	1	13	7061862966	7061902716	39750	788.40	149.61	567.93	320.74	2.89	156.70	1.00	72.71	3877.73	0.00	2361.87
Saccade R	1	13	7061862966	7061902716	39750	788.40	149.61	567.93	320.74	2.89	156.70	1.00	72.71	3877.73	0.00	2361.87
