[BeGaze]
Converted from:	C:\Documents and Settings\iViewX\Desktop\EXPERIMENTATIONS\Experiments\results\finaleart\S16F14542-finaleart-1.idf
Date:	27.03.2019 15:46:15
Version:	BeGaze 2.5.77
Sample Rate:	50
Subject:	S16F14542
Description:	Diane Dewez

Table Header for Fixations:
Event Type	Trial	Number	Start	End	Duration	Location X	Location Y	Dispersion X	Dispersion Y	Plane	Avg. Pupil Size X	Avg. Pupil Size Y

Table Header for Saccades:
Event Type	Trial	Number	Start	End	Duration	Start Loc.X	Start Loc.Y	End Loc.X	End Loc.Y	Amplitude	Peak Speed	Peak Speed At	Average Speed	Peak Accel.	Peak Decel.	Average Accel.

Table Header for Blinks:
Event Type	Trial	Number	Start	End	Duration

Table Header for User Events:
Event Type	Trial	Number	Start	Description

UserEvent	1	1	6369860349	# Message: void.jpg
Saccade L	1	1	6369873776	6369913645	39869	1171.55	361.24	1345.96	599.02	3.11	156.56	1.00	78.12	3914.06	-3592.26	2673.25
Saccade R	1	1	6369873776	6369913645	39869	1171.55	361.24	1345.96	599.02	3.11	156.56	1.00	78.12	3914.06	-3592.26	2673.25
Fixation L	1	1	6369913645	6370112512	198867	1345.86	584.68	17	19	-1	15.23	15.23
Fixation R	1	1	6369913645	6370112512	198867	1345.86	584.68	17	19	-1	15.21	15.21
Saccade L	1	2	6370112512	6370132382	19870	1347.51	582.29	1165.78	454.43	1.30	224.67	1.00	65.27	5543.66	-5222.71	3801.02
Saccade R	1	2	6370112512	6370132382	19870	1347.51	582.29	1165.78	454.43	1.30	224.67	1.00	65.27	5543.66	-5222.71	3801.02
Fixation L	1	2	6370132382	6370251753	119371	1131.66	432.01	45	49	-1	15.15	15.15
Fixation R	1	2	6370132382	6370251753	119371	1131.66	432.01	45	49	-1	14.79	14.79
Saccade L	1	3	6370251753	6370271627	19874	1121.99	405.16	1121.62	390.87	0.41	38.47	1.00	20.47	485.13	-104.20	234.49
Saccade R	1	3	6370251753	6370271627	19874	1121.99	405.16	1121.62	390.87	0.41	38.47	1.00	20.47	485.13	-104.20	234.49
Fixation L	1	3	6370271627	6370669481	397854	1107.12	431.93	24	50	-1	14.98	14.98
Fixation R	1	3	6370271627	6370669481	397854	1107.12	431.93	24	50	-1	14.63	14.63
Saccade L	1	4	6370669481	6370709232	39751	1097.27	441.03	1046.06	421.01	9.49	1125.99	1.00	238.81	27122.61	-364.95	7142.65
Saccade R	1	4	6370669481	6370709232	39751	1097.27	441.03	1046.06	421.01	9.49	1125.99	1.00	238.81	27122.61	-364.95	7142.65
Blink L	1	1	6370709232	6371126830	417598
Blink R	1	1	6370709232	6371126830	417598
Saccade L	1	5	6371126830	6371146831	20001	900.54	418.05	915.78	431.02	0.69	82.35	1.00	34.71	185.43	-1552.90	612.00
Saccade R	1	5	6371126830	6371146831	20001	900.54	418.05	915.78	431.02	0.69	82.35	1.00	34.71	185.43	-1552.90	612.00
Fixation L	1	4	6371146831	6371524682	377851	921.02	490.86	14	84	-1	16.11	16.11
Fixation R	1	4	6371146831	6371524682	377851	921.02	490.86	14	84	-1	16.22	16.22
Saccade L	1	6	6371524682	6371544577	19895	916.88	514.18	916.82	517.56	0.10	6.80	1.00	5.18	76.80	-84.53	57.96
Saccade R	1	6	6371524682	6371544577	19895	916.88	514.18	916.82	517.56	0.10	6.80	1.00	5.18	76.80	-84.53	57.96
Fixation L	1	5	6371544577	6371842922	298345	919.75	535.06	14	28	-1	15.16	15.16
Fixation R	1	5	6371544577	6371842922	298345	919.75	535.06	14	28	-1	15.25	15.25
