[BeGaze]
Converted from:	C:\Documents and Settings\iViewX\Desktop\EXPERIMENTATIONS\Experiments\results\finaleart\S16F14542-finaleart-1.idf
Date:	27.03.2019 15:47:06
Version:	BeGaze 2.5.77
Sample Rate:	50
Subject:	S16F14542
Description:	Diane Dewez

Table Header for Fixations:
Event Type	Trial	Number	Start	End	Duration	Location X	Location Y	Dispersion X	Dispersion Y	Plane	Avg. Pupil Size X	Avg. Pupil Size Y

Table Header for Saccades:
Event Type	Trial	Number	Start	End	Duration	Start Loc.X	Start Loc.Y	End Loc.X	End Loc.Y	Amplitude	Peak Speed	Peak Speed At	Average Speed	Peak Accel.	Peak Decel.	Average Accel.

Table Header for Blinks:
Event Type	Trial	Number	Start	End	Duration

Table Header for User Events:
Event Type	Trial	Number	Start	Description

UserEvent	1	1	6982643901	# Message: void.jpg
Fixation L	1	1	6982651382	6982830368	178986	960.28	574.64	10	34	-1	15.11	15.11
Fixation R	1	1	6982651382	6982830368	178986	960.28	574.64	10	34	-1	15.46	15.46
Saccade L	1	1	6982830368	6982850256	19888	956.52	587.43	907.59	596.97	0.48	50.43	1.00	24.13	1199.78	-20.09	724.44
Saccade R	1	1	6982830368	6982850256	19888	956.52	587.43	907.59	596.97	0.48	50.43	1.00	24.13	1199.78	-20.09	724.44
Fixation L	1	2	6982850256	6983148595	298339	874.19	626.08	42	42	-1	15.26	15.26
Fixation R	1	2	6982850256	6983148595	298339	874.19	626.08	42	42	-1	15.77	15.77
Blink L	1	1	6983148595	6983526582	377987
Blink R	1	1	6983148595	6983526582	377987
Saccade L	1	2	6983526582	6983546452	19870	1200.10	686.16	1201.53	612.30	1.39	172.47	1.00	69.84	418.23	-2443.54	1471.67
Saccade R	1	2	6983526582	6983546452	19870	1200.10	686.16	1201.53	612.30	1.39	172.47	1.00	69.84	418.23	-2443.54	1471.67
Fixation L	1	3	6983546452	6983785063	238611	1188.19	597.45	46	52	-1	15.30	15.30
Fixation R	1	3	6983546452	6983785063	238611	1188.19	597.45	46	52	-1	14.77	14.77
Saccade L	1	3	6983785063	6983805062	19999	1163.83	610.50	1162.45	611.97	0.10	9.21	0.00	4.90	52.72	-139.85	86.66
Saccade R	1	3	6983785063	6983805062	19999	1163.83	610.50	1162.45	611.97	0.10	9.21	0.00	4.90	52.72	-139.85	86.66
Fixation L	1	4	6983805062	6984302294	497232	1139.18	605.83	32	13	-1	13.31	13.31
Fixation R	1	4	6983805062	6984302294	497232	1139.18	605.83	32	13	-1	12.68	12.68
Saccade L	1	4	6984302294	6984322170	19876	1132.51	602.39	1015.07	602.02	0.73	118.79	1.00	36.53	2945.81	-2945.97	2108.77
Saccade R	1	4	6984302294	6984322170	19876	1132.51	602.39	1015.07	602.02	0.73	118.79	1.00	36.53	2945.81	-2945.97	2108.77
Fixation L	1	5	6984322170	6984640411	318241	975.34	593.15	52	17	-1	10.59	10.59
Fixation R	1	5	6984322170	6984640411	318241	975.34	593.15	52	17	-1	10.41	10.41
