[BeGaze]
Converted from:	C:\Documents and Settings\iViewX\Desktop\EXPERIMENTATIONS\Experiments\results\finaleart\S16F14542-finaleart-1.idf
Date:	27.03.2019 15:46:22
Version:	BeGaze 2.5.77
Sample Rate:	50
Subject:	S16F14542
Description:	Diane Dewez

Table Header for Fixations:
Event Type	Trial	Number	Start	End	Duration	Location X	Location Y	Dispersion X	Dispersion Y	Plane	Avg. Pupil Size X	Avg. Pupil Size Y

Table Header for Saccades:
Event Type	Trial	Number	Start	End	Duration	Start Loc.X	Start Loc.Y	End Loc.X	End Loc.Y	Amplitude	Peak Speed	Peak Speed At	Average Speed	Peak Accel.	Peak Decel.	Average Accel.

Table Header for Blinks:
Event Type	Trial	Number	Start	End	Duration

Table Header for User Events:
Event Type	Trial	Number	Start	Description

UserEvent	1	1	6424792271	# Message: void.jpg
Saccade L	1	1	6424810153	6424889655	79502	980.02	723.74	894.23	704.06	1.57	88.23	1.00	19.79	2176.17	-1669.86	752.41
Saccade R	1	1	6424810153	6424889655	79502	980.02	723.74	894.23	704.06	1.57	88.23	1.00	19.79	2176.17	-1669.86	752.41
Fixation L	1	1	6424889655	6425108510	218855	893.47	689.22	32	23	-1	11.32	11.32
Fixation R	1	1	6424889655	6425108510	218855	893.47	689.22	32	23	-1	12.48	12.48
Blink L	1	1	6425108510	6425287492	178982
Blink R	1	1	6425108510	6425287492	178982
Fixation L	1	2	6425287492	6426162577	875085	852.57	663.92	18	66	-1	14.45	14.45
Fixation R	1	2	6425287492	6426162577	875085	852.57	663.92	18	66	-1	13.67	13.67
Saccade L	1	2	6426162577	6426182582	20005	844.89	675.34	736.23	727.95	0.77	122.11	1.00	38.71	3014.16	-2915.85	2077.51
Saccade R	1	2	6426162577	6426182582	20005	844.89	675.34	736.23	727.95	0.77	122.11	1.00	38.71	3014.16	-2915.85	2077.51
Fixation L	1	3	6426182582	6426640060	457478	720.30	737.77	40	17	-1	15.12	15.12
Fixation R	1	3	6426182582	6426640060	457478	720.30	737.77	40	17	-1	14.97	14.97
Saccade L	1	3	6426640060	6426659943	19883	752.48	738.22	785.04	711.22	0.64	42.79	1.00	32.15	983.57	-308.03	438.38
Saccade R	1	3	6426640060	6426659943	19883	752.48	738.22	785.04	711.22	0.64	42.79	1.00	32.15	983.57	-308.03	438.38
Fixation L	1	4	6426659943	6426779179	119236	790.99	656.75	12	74	-1	14.96	14.96
Fixation R	1	4	6426659943	6426779179	119236	790.99	656.75	12	74	-1	14.96	14.96
