[BeGaze]
Converted from:	C:\Documents and Settings\iViewX\Desktop\EXPERIMENTATIONS\Experiments\results\finaleart\S16F14542-finaleart-1.idf
Date:	27.03.2019 15:46:28
Version:	BeGaze 2.5.77
Sample Rate:	50
Subject:	S16F14542
Description:	Diane Dewez

Table Header for Fixations:
Event Type	Trial	Number	Start	End	Duration	Location X	Location Y	Dispersion X	Dispersion Y	Plane	Avg. Pupil Size X	Avg. Pupil Size Y

Table Header for Saccades:
Event Type	Trial	Number	Start	End	Duration	Start Loc.X	Start Loc.Y	End Loc.X	End Loc.Y	Amplitude	Peak Speed	Peak Speed At	Average Speed	Peak Accel.	Peak Decel.	Average Accel.

Table Header for Blinks:
Event Type	Trial	Number	Start	End	Duration

Table Header for User Events:
Event Type	Trial	Number	Start	Description

UserEvent	1	1	6517821562	# Message: Georges-braque-still-life-with-jugs-and-pipe-1906.jpg
Fixation L	1	1	6517821971	6518478298	656327	883.72	468.69	26	34	-1	13.62	13.62
Fixation R	1	1	6517821971	6518478298	656327	883.72	468.69	26	34	-1	13.91	13.91
Saccade L	1	1	6518478298	6518498172	19874	902.33	479.64	1037.04	523.65	0.93	143.33	1.00	46.88	3527.45	-3165.27	2319.87
Saccade R	1	1	6518478298	6518498172	19874	902.33	479.64	1037.04	523.65	0.93	143.33	1.00	46.88	3527.45	-3165.27	2319.87
Fixation L	1	2	6518498172	6518677164	178992	1062.37	525.60	33	12	-1	12.32	12.32
Fixation R	1	2	6518498172	6518677164	178992	1062.37	525.60	33	12	-1	12.09	12.09
Saccade L	1	2	6518677164	6518716915	39751	1068.93	528.97	1313.83	710.13	2.57	193.29	0.50	64.67	4772.84	-4593.46	3760.05
Saccade R	1	2	6518677164	6518716915	39751	1068.93	528.97	1313.83	710.13	2.57	193.29	0.50	64.67	4772.84	-4593.46	3760.05
Fixation L	1	3	6518716915	6518935770	218855	1305.54	723.04	18	22	-1	11.88	11.88
Fixation R	1	3	6518716915	6518935770	218855	1305.54	723.04	18	22	-1	11.58	11.58
Saccade L	1	3	6518935770	6518955652	19882	1296.61	732.52	1303.62	916.95	1.23	186.65	1.00	61.75	4543.76	-4279.14	3347.37
Saccade R	1	3	6518935770	6518955652	19882	1296.61	732.52	1303.62	916.95	1.23	186.65	1.00	61.75	4543.76	-4279.14	3347.37
Fixation L	1	4	6518955652	6519234137	278485	1303.68	986.37	12	84	-1	12.10	12.10
Fixation R	1	4	6518955652	6519234137	278485	1303.68	986.37	12	84	-1	11.67	11.67
Blink L	1	1	6519234137	6519393247	159110
Blink R	1	1	6519234137	6519393247	159110
Fixation L	1	5	6519393247	6519631866	238619	1247.24	427.39	11	47	-1	13.13	13.13
Fixation R	1	5	6519393247	6519631866	238619	1247.24	427.39	11	47	-1	12.24	12.24
Saccade L	1	4	6519631866	6519671615	39749	1242.86	417.42	1236.93	259.18	1.77	127.96	0.50	44.61	2908.47	-2063.00	1564.99
Saccade R	1	4	6519631866	6519671615	39749	1242.86	417.42	1236.93	259.18	1.77	127.96	0.50	44.61	2908.47	-2063.00	1564.99
Fixation L	1	6	6519671615	6519790983	119368	1217.62	299.24	26	72	-1	13.09	13.09
Fixation R	1	6	6519671615	6519790983	119368	1217.62	299.24	26	72	-1	12.23	12.23
Saccade L	1	5	6519790983	6519810861	19878	1210.35	293.17	1205.42	289.90	0.19	13.85	0.00	9.76	-6.83	-91.46	57.93
Saccade R	1	5	6519790983	6519810861	19878	1210.35	293.17	1205.42	289.90	0.19	13.85	0.00	9.76	-6.83	-91.46	57.93
Fixation L	1	7	6519810861	6519910369	99508	1205.77	294.83	5	24	-1	13.40	13.40
Fixation R	1	7	6519810861	6519910369	99508	1205.77	294.83	5	24	-1	12.27	12.27
Saccade L	1	6	6519910369	6519950095	39726	1209.10	285.50	841.44	294.25	3.38	186.38	1.00	85.04	4134.51	-4430.80	4247.88
Saccade R	1	6	6519910369	6519950095	39726	1209.10	285.50	841.44	294.25	3.38	186.38	1.00	85.04	4134.51	-4430.80	4247.88
Fixation L	1	8	6519950095	6520228597	278502	825.43	280.32	26	24	-1	13.47	13.47
Fixation R	1	8	6519950095	6520228597	278502	825.43	280.32	26	24	-1	12.90	12.90
Saccade L	1	7	6520228597	6520248466	19869	815.31	274.79	652.90	327.01	1.02	172.54	1.00	51.50	4032.38	-4097.93	2801.59
Saccade R	1	7	6520228597	6520248466	19869	815.31	274.79	652.90	327.01	1.02	172.54	1.00	51.50	4032.38	-4097.93	2801.59
Fixation L	1	9	6520248466	6520626451	377985	640.88	306.40	36	37	-1	13.46	13.46
Fixation R	1	9	6520248466	6520626451	377985	640.88	306.40	36	37	-1	13.19	13.19
Blink L	1	2	6520626451	6520825305	198854
Blink R	1	2	6520626451	6520825305	198854
Fixation L	1	10	6520825305	6521004300	178995	635.22	393.88	22	20	-1	14.99	14.99
Fixation R	1	10	6520825305	6521004300	178995	635.22	393.88	22	20	-1	14.69	14.69
Saccade L	1	8	6521004300	6521063916	59616	645.73	402.50	426.66	779.28	4.95	203.57	0.33	83.08	4989.70	-3776.64	3622.50
Saccade R	1	8	6521004300	6521063916	59616	645.73	402.50	426.66	779.28	4.95	203.57	0.33	83.08	4989.70	-3776.64	3622.50
Fixation L	1	11	6521063916	6521203169	139253	438.75	802.60	16	31	-1	15.15	15.15
Fixation R	1	11	6521063916	6521203169	139253	438.75	802.60	16	31	-1	15.06	15.06
Saccade L	1	9	6521203169	6521223047	19878	441.52	810.92	436.12	1010.14	1.14	201.53	1.00	57.36	5008.88	-4940.05	3509.15
Saccade R	1	9	6521203169	6521223047	19878	441.52	810.92	436.12	1010.14	1.14	201.53	1.00	57.36	5008.88	-4940.05	3509.15
Fixation L	1	12	6521223047	6521481655	258608	423.21	1052.77	21	75	-1	14.96	14.96
Fixation R	1	12	6521223047	6521481655	258608	423.21	1052.77	21	75	-1	15.30	15.30
Saccade L	1	10	6521481655	6521521395	39740	416.78	1085.94	420.82	1082.83	2.20	244.20	1.00	55.42	5934.60	29.40	1631.37
Saccade R	1	10	6521481655	6521521395	39740	416.78	1085.94	420.82	1082.83	2.20	244.20	1.00	55.42	5934.60	29.40	1631.37
Blink L	1	3	6521521395	6521680520	159125
Blink R	1	3	6521521395	6521680520	159125
Fixation L	1	13	6521680520	6521819766	139246	966.52	368.47	26	35	-1	14.02	14.02
Fixation R	1	13	6521680520	6521819766	139246	966.52	368.47	26	35	-1	13.92	13.92
