[BeGaze]
Converted from:	C:\Documents and Settings\iViewX\Desktop\EXPERIMENTATIONS\Experiments\results\finaleart\S16F14542-finaleart-1.idf
Date:	27.03.2019 15:46:38
Version:	BeGaze 2.5.77
Sample Rate:	50
Subject:	S16F14542
Description:	Diane Dewez

Table Header for Fixations:
Event Type	Trial	Number	Start	End	Duration	Location X	Location Y	Dispersion X	Dispersion Y	Plane	Avg. Pupil Size X	Avg. Pupil Size Y

Table Header for Saccades:
Event Type	Trial	Number	Start	End	Duration	Start Loc.X	Start Loc.Y	End Loc.X	End Loc.Y	Amplitude	Peak Speed	Peak Speed At	Average Speed	Peak Accel.	Peak Decel.	Average Accel.

Table Header for Blinks:
Event Type	Trial	Number	Start	End	Duration

Table Header for User Events:
Event Type	Trial	Number	Start	Description

UserEvent	1	1	6603279426	# Message: Niagara_Falls_Hale_1902.jpg
Fixation L	1	1	6603289383	6603587732	298349	965.48	515.93	25	21	-1	10.58	10.58
Fixation R	1	1	6603289383	6603587732	298349	965.48	515.93	25	21	-1	10.79	10.79
Saccade L	1	1	6603587732	6603607602	19870	947.98	507.56	893.65	509.52	0.43	54.99	1.00	21.69	1264.56	-1248.21	1049.16
Saccade R	1	1	6603587732	6603607602	19870	947.98	507.56	893.65	509.52	0.43	54.99	1.00	21.69	1264.56	-1248.21	1049.16
Fixation L	1	2	6603607602	6603806484	198882	883.81	495.68	18	53	-1	10.55	10.55
Fixation R	1	2	6603607602	6603806484	198882	883.81	495.68	18	53	-1	11.20	11.20
Saccade L	1	2	6603806484	6603846231	39747	874.88	456.73	857.32	260.23	1.90	134.50	0.50	47.83	3230.40	-3247.59	2220.96
Saccade R	1	2	6603806484	6603846231	39747	874.88	456.73	857.32	260.23	1.90	134.50	0.50	47.83	3230.40	-3247.59	2220.96
Fixation L	1	3	6603846231	6604104836	258605	840.32	230.22	36	58	-1	10.23	10.23
Fixation R	1	3	6603846231	6604104836	258605	840.32	230.22	36	58	-1	10.60	10.60
Saccade L	1	3	6604104836	6604144583	39747	822.38	214.52	661.35	170.14	1.65	88.22	1.00	41.49	2017.89	-1707.82	1786.77
Saccade R	1	3	6604104836	6604144583	39747	822.38	214.52	661.35	170.14	1.65	88.22	1.00	41.49	2017.89	-1707.82	1786.77
Fixation L	1	4	6604144583	6604383316	238733	670.44	155.73	20	62	-1	9.27	9.27
Fixation R	1	4	6604144583	6604383316	238733	670.44	155.73	20	62	-1	10.15	10.15
Blink L	1	1	6604383316	6604502687	119371
Blink R	1	1	6604383316	6604462818	79502
Saccade R	1	4	6604462818	6604502687	39869	0.00	1.88	0.00	1.11	0.04	2.64	1.00	0.91	27321.67	-54.00	6849.67
Saccade L	1	4	6604502687	6604522556	19869	0.00	1.11	0.00	0.91	5.43	1093.16	1.00	273.54	27321.67	-7.03	10340.91
Blink L	1	2	6604522556	6604621933	99377
Blink R	1	2	6604522556	6604621933	99377
Fixation L	1	5	6604621933	6604960037	338104	853.47	697.91	14	25	-1	13.70	13.70
Fixation R	1	5	6604621933	6604960037	338104	853.47	697.91	14	25	-1	14.36	14.36
Saccade L	1	5	6604960037	6605019814	59777	848.10	708.72	1142.02	479.65	4.11	187.87	0.67	68.71	4663.65	-4232.88	3028.74
Saccade R	1	5	6604960037	6605019814	59777	848.10	708.72	1142.02	479.65	4.11	187.87	0.67	68.71	4663.65	-4232.88	3028.74
Fixation L	1	6	6605019814	6605278276	258462	1154.25	451.64	22	42	-1	13.97	13.97
Fixation R	1	6	6605019814	6605278276	258462	1154.25	451.64	22	42	-1	13.63	13.63
Saccade L	1	6	6605278276	6605298280	20004	1164.06	439.95	1177.19	340.48	0.70	101.49	1.00	35.11	2369.26	-2107.98	1711.92
Saccade R	1	6	6605278276	6605298280	20004	1164.06	439.95	1177.19	340.48	0.70	101.49	1.00	35.11	2369.26	-2107.98	1711.92
Fixation L	1	7	6605298280	6605397645	99365	1182.61	292.17	13	75	-1	13.73	13.73
Fixation R	1	7	6605298280	6605397645	99365	1182.61	292.17	13	75	-1	13.53	13.53
Saccade L	1	7	6605397645	6605417512	19867	1190.40	269.77	1196.70	242.38	0.29	28.42	1.00	14.62	486.77	-445.14	342.81
Saccade R	1	7	6605397645	6605417512	19867	1190.40	269.77	1196.70	242.38	0.29	28.42	1.00	14.62	486.77	-445.14	342.81
Fixation L	1	8	6605417512	6605696005	278493	1200.66	237.82	10	24	-1	13.98	13.98
Fixation R	1	8	6605417512	6605696005	278493	1200.66	237.82	10	24	-1	13.60	13.60
Blink L	1	3	6605696005	6605815376	119371
Blink R	1	3	6605696005	6605815376	119371
Fixation L	1	9	6605815376	6606233107	417731	755.66	185.71	29	63	-1	13.27	13.27
Fixation R	1	9	6605815376	6606233107	417731	755.66	185.71	29	63	-1	13.68	13.68
Saccade L	1	8	6606233107	6606292731	59624	744.18	157.33	1119.38	44.86	4.32	230.40	0.67	72.48	5640.10	-5603.67	3802.42
Saccade R	1	8	6606233107	6606292731	59624	744.18	157.33	1119.38	44.86	4.32	230.40	0.67	72.48	5640.10	-5603.67	3802.42
Fixation L	1	10	6606292731	6606750208	457477	1116.69	104.86	15	83	-1	14.49	14.49
Fixation R	1	10	6606292731	6606750208	457477	1116.69	104.86	15	83	-1	14.42	14.42
Saccade L	1	9	6606750208	6606829703	79495	1109.33	111.03	1161.71	313.75	3.13	144.26	0.75	39.33	3171.61	-3040.53	1685.17
Saccade R	1	9	6606750208	6606829703	79495	1109.33	111.03	1161.71	313.75	3.13	144.26	0.75	39.33	3171.61	-3040.53	1685.17
Fixation L	1	11	6606829703	6607128067	298364	1184.39	295.19	35	30	-1	15.35	15.35
Fixation R	1	11	6606829703	6607128067	298364	1184.39	295.19	35	30	-1	15.56	15.56
Saccade L	1	10	6607128067	6607148059	19992	1185.01	286.68	1020.45	297.25	1.04	166.77	1.00	52.02	4063.49	-4103.33	2813.83
Saccade R	1	10	6607128067	6607148059	19992	1185.01	286.68	1020.45	297.25	1.04	166.77	1.00	52.02	4063.49	-4103.33	2813.83
Fixation L	1	12	6607148059	6607267303	119244	1006.03	333.94	21	64	-1	15.33	15.33
Fixation R	1	12	6607148059	6607267303	119244	1006.03	333.94	21	64	-1	15.68	15.68
