[BeGaze]
Converted from:	C:\Documents and Settings\iViewX\Desktop\EXPERIMENTATIONS\Experiments\results\finaleart\S16F14542-finaleart-1.idf
Date:	27.03.2019 15:47:12
Version:	BeGaze 2.5.77
Sample Rate:	50
Subject:	S16F14542
Description:	Diane Dewez

Table Header for Fixations:
Event Type	Trial	Number	Start	End	Duration	Location X	Location Y	Dispersion X	Dispersion Y	Plane	Avg. Pupil Size X	Avg. Pupil Size Y

Table Header for Saccades:
Event Type	Trial	Number	Start	End	Duration	Start Loc.X	Start Loc.Y	End Loc.X	End Loc.Y	Amplitude	Peak Speed	Peak Speed At	Average Speed	Peak Accel.	Peak Decel.	Average Accel.

Table Header for Blinks:
Event Type	Trial	Number	Start	End	Duration

Table Header for User Events:
Event Type	Trial	Number	Start	Description

UserEvent	1	1	7033494417	# Message: ronde_cross_1905.jpg
Fixation L	1	1	7033500331	7033898065	397734	985.83	567.86	12	17	-1	14.64	14.64
Fixation R	1	1	7033500331	7033898065	397734	985.83	567.86	12	17	-1	14.55	14.55
Saccade L	1	1	7033898065	7033917948	19883	977.62	575.78	841.25	568.06	0.83	138.15	1.00	41.50	3426.88	-3231.52	2344.90
Saccade R	1	1	7033898065	7033917948	19883	977.62	575.78	841.25	568.06	0.83	138.15	1.00	41.50	3426.88	-3231.52	2344.90
Fixation L	1	2	7033917948	7034216287	298339	804.69	548.80	55	43	-1	14.72	14.72
Fixation R	1	2	7033917948	7034216287	298339	804.69	548.80	55	43	-1	14.57	14.57
Saccade L	1	2	7034216287	7034236161	19874	785.50	530.90	783.09	535.32	0.14	9.33	0.00	7.18	3.88	-92.31	61.70
Saccade R	1	2	7034216287	7034236161	19874	785.50	530.90	783.09	535.32	0.14	9.33	0.00	7.18	3.88	-92.31	61.70
Fixation L	1	3	7034236161	7034435153	198992	776.91	543.62	36	53	-1	13.27	13.27
Fixation R	1	3	7034236161	7034435153	198992	776.91	543.62	36	53	-1	12.84	12.84
Saccade L	1	3	7034435153	7034455025	19872	803.43	586.11	808.45	596.78	0.39	28.56	1.00	19.78	-135.82	-415.64	232.21
Saccade R	1	3	7034435153	7034455025	19872	803.43	586.11	808.45	596.78	0.39	28.56	1.00	19.78	-135.82	-415.64	232.21
Fixation L	1	4	7034455025	7034773254	318229	828.97	603.41	30	21	-1	12.25	12.25
Fixation R	1	4	7034455025	7034773254	318229	828.97	603.41	30	21	-1	11.82	11.82
Saccade L	1	4	7034773254	7034813008	39754	839.12	593.08	1066.49	534.13	2.15	182.61	0.50	54.19	4506.68	-4110.74	2859.17
Saccade R	1	4	7034773254	7034813008	39754	839.12	593.08	1066.49	534.13	2.15	182.61	0.50	54.19	4506.68	-4110.74	2859.17
Fixation L	1	5	7034813008	7035170997	357989	1074.28	543.15	26	43	-1	11.56	11.56
Fixation R	1	5	7034813008	7035170997	357989	1074.28	543.15	26	43	-1	11.14	11.14
Saccade L	1	5	7035170997	7035190861	19864	1092.51	545.64	1280.77	551.37	1.18	190.46	1.00	59.64	4674.43	-4584.63	3201.59
Saccade R	1	5	7035170997	7035190861	19864	1092.51	545.64	1280.77	551.37	1.18	190.46	1.00	59.64	4674.43	-4584.63	3201.59
Fixation L	1	6	7035190861	7035509224	318363	1311.29	579.80	37	49	-1	11.39	11.39
Fixation R	1	6	7035190861	7035509224	318363	1311.29	579.80	37	49	-1	10.61	10.61
Saccade L	1	6	7035509224	7035529091	19867	1313.87	600.46	1316.54	613.91	0.19	14.79	0.00	9.56	278.05	-198.78	176.13
Saccade R	1	6	7035509224	7035529091	19867	1313.87	600.46	1316.54	613.91	0.19	14.79	0.00	9.56	278.05	-198.78	176.13
Fixation L	1	7	7035529091	7035648343	119252	1322.78	624.52	11	22	-1	11.26	11.26
Fixation R	1	7	7035529091	7035648343	119252	1322.78	624.52	11	22	-1	10.68	10.68
Saccade L	1	7	7035648343	7035668344	20001	1328.52	634.71	1210.70	646.30	0.87	119.75	1.00	43.57	2724.67	-2675.84	2117.96
Saccade R	1	7	7035648343	7035668344	20001	1328.52	634.71	1210.70	646.30	0.87	119.75	1.00	43.57	2724.67	-2675.84	2117.96
Fixation L	1	8	7035668344	7035827462	159118	1176.46	674.81	45	49	-1	11.29	11.29
Fixation R	1	8	7035668344	7035827462	159118	1176.46	674.81	45	49	-1	10.65	10.65
Saccade L	1	8	7035827462	7035887083	59621	1178.12	695.35	570.95	635.94	6.38	259.19	0.67	106.93	6422.73	-6215.76	4405.29
Saccade R	1	8	7035827462	7035887083	59621	1178.12	695.35	570.95	635.94	6.38	259.19	0.67	106.93	6422.73	-6215.76	4405.29
Fixation L	1	9	7035887083	7036324685	437602	561.43	615.84	14	60	-1	10.90	10.90
Fixation R	1	9	7035887083	7036324685	437602	561.43	615.84	14	60	-1	11.17	11.17
Saccade L	1	9	7036324685	7036364436	39751	564.70	575.16	725.14	301.70	2.97	192.50	0.50	74.74	4709.19	-4672.76	3757.94
Saccade R	1	9	7036324685	7036364436	39751	564.70	575.16	725.14	301.70	2.97	192.50	0.50	74.74	4709.19	-4672.76	3757.94
Fixation L	1	10	7036364436	7036563301	198865	723.82	316.32	10	36	-1	10.63	10.63
Fixation R	1	10	7036364436	7036563301	198865	723.82	316.32	10	36	-1	10.88	10.88
Saccade L	1	10	7036563301	7036623048	59747	729.59	336.16	1093.49	341.81	4.08	189.28	0.67	68.24	4178.61	-4622.09	2714.66
Saccade R	1	10	7036563301	7036623048	59747	729.59	336.16	1093.49	341.81	4.08	189.28	0.67	68.24	4178.61	-4622.09	2714.66
Fixation L	1	11	7036623048	7036841795	218747	1091.11	370.19	11	52	-1	10.88	10.88
Fixation R	1	11	7036623048	7036841795	218747	1091.11	370.19	11	52	-1	10.88	10.88
Blink L	1	1	7036841795	7037060526	218731
Blink R	1	1	7036841795	7037060526	218731
Fixation L	1	12	7037060526	7037199765	139239	1233.30	719.77	16	20	-1	11.75	11.75
Fixation R	1	12	7037060526	7037199765	139239	1233.30	719.77	16	20	-1	11.62	11.62
Saccade L	1	11	7037199765	7037239637	39872	1227.88	729.53	1517.70	1001.76	3.29	235.21	0.50	82.56	5743.54	-5779.93	4952.92
Saccade R	1	11	7037199765	7037239637	39872	1227.88	729.53	1517.70	1001.76	3.29	235.21	0.50	82.56	5743.54	-5779.93	4952.92
Fixation L	1	13	7037239637	7037458389	218752	1515.41	1009.93	8	16	-1	11.98	11.98
Fixation R	1	13	7037239637	7037458389	218752	1515.41	1009.93	8	16	-1	11.48	11.48
Saccade L	1	12	7037458389	7037478263	19874	1509.46	1018.14	1325.50	917.85	1.46	211.86	1.00	73.24	5274.05	0.00	2637.02
Saccade R	1	12	7037458389	7037478263	19874	1509.46	1018.14	1325.50	917.85	1.46	211.86	1.00	73.24	5274.05	0.00	2637.02
