[BeGaze]
Converted from:	C:\Documents and Settings\iViewX\Desktop\EXPERIMENTATIONS\Experiments\results\finaleart\S16F14542-finaleart-1.idf
Date:	27.03.2019 15:46:18
Version:	BeGaze 2.5.77
Sample Rate:	50
Subject:	S16F14542
Description:	Diane Dewez

Table Header for Fixations:
Event Type	Trial	Number	Start	End	Duration	Location X	Location Y	Dispersion X	Dispersion Y	Plane	Avg. Pupil Size X	Avg. Pupil Size Y

Table Header for Saccades:
Event Type	Trial	Number	Start	End	Duration	Start Loc.X	Start Loc.Y	End Loc.X	End Loc.Y	Amplitude	Peak Speed	Peak Speed At	Average Speed	Peak Accel.	Peak Decel.	Average Accel.

Table Header for Blinks:
Event Type	Trial	Number	Start	End	Duration

Table Header for User Events:
Event Type	Trial	Number	Start	Description

UserEvent	1	1	6394273110	# Message: void.jpg
Fixation L	1	1	6394278862	6394477844	198982	960.22	523.55	7	92	-1	15.77	15.77
Fixation R	1	1	6394278862	6394477844	198982	960.22	523.55	7	92	-1	15.76	15.76
Saccade L	1	1	6394477844	6394497720	19876	964.55	558.36	965.13	557.71	0.11	10.38	1.00	5.34	93.36	-42.12	68.92
Saccade R	1	1	6394477844	6394497720	19876	964.55	558.36	965.13	557.71	0.11	10.38	1.00	5.34	93.36	-42.12	68.92
Fixation L	1	2	6394497720	6394756207	258487	967.33	561.60	4	30	-1	16.03	16.03
Fixation R	1	2	6394497720	6394756207	258487	967.33	561.60	4	30	-1	16.36	16.36
Blink L	1	1	6394756207	6394994963	238756
Blink R	1	1	6394756207	6394994963	238756
Fixation L	1	3	6394994963	6395651291	656328	1060.76	553.41	29	33	-1	15.11	15.11
Fixation R	1	3	6394994963	6395651291	656328	1060.76	553.41	29	33	-1	15.51	15.51
Saccade L	1	2	6395651291	6395671163	19872	1054.76	546.00	943.90	548.30	0.70	112.16	1.00	35.22	2475.83	-2469.74	1709.57
Saccade R	1	2	6395651291	6395671163	19872	1054.76	546.00	943.90	548.30	0.70	112.16	1.00	35.22	2475.83	-2469.74	1709.57
Fixation L	1	4	6395671163	6396148518	477355	930.26	582.97	24	58	-1	14.37	14.37
Fixation R	1	4	6395671163	6396148518	477355	930.26	582.97	24	58	-1	14.70	14.70
Saccade L	1	3	6396148518	6396168513	19995	922.99	594.72	818.80	577.52	0.78	106.82	1.00	38.92	2523.51	-2354.68	1801.34
Saccade R	1	3	6396148518	6396168513	19995	922.99	594.72	818.80	577.52	0.78	106.82	1.00	38.92	2523.51	-2354.68	1801.34
Fixation L	1	5	6396168513	6396267886	99373	808.62	553.25	16	42	-1	14.03	14.03
Fixation R	1	5	6396168513	6396267886	99373	808.62	553.25	16	42	-1	14.26	14.26
