[BeGaze]
Converted from:	C:\Documents and Settings\iViewX\Desktop\EXPERIMENTATIONS\Experiments\results\finaleart\S16F14542-finaleart-1.idf
Date:	27.03.2019 15:47:02
Version:	BeGaze 2.5.77
Sample Rate:	50
Subject:	S16F14542
Description:	Diane Dewez

Table Header for Fixations:
Event Type	Trial	Number	Start	End	Duration	Location X	Location Y	Dispersion X	Dispersion Y	Plane	Avg. Pupil Size X	Avg. Pupil Size Y

Table Header for Saccades:
Event Type	Trial	Number	Start	End	Duration	Start Loc.X	Start Loc.Y	End Loc.X	End Loc.Y	Amplitude	Peak Speed	Peak Speed At	Average Speed	Peak Accel.	Peak Decel.	Average Accel.

Table Header for Blinks:
Event Type	Trial	Number	Start	End	Duration

Table Header for User Events:
Event Type	Trial	Number	Start	Description

UserEvent	1	1	6947997382	# Message: Kiprensky-two-sitters-1800.jpg
Fixation L	1	1	6948008534	6948446124	437590	876.58	621.02	9	46	-1	14.06	14.06
Fixation R	1	1	6948008534	6948446124	437590	876.58	621.02	9	46	-1	15.16	15.16
Saccade L	1	1	6948446124	6948485889	39765	877.60	636.77	996.70	419.83	2.18	146.14	0.50	54.82	3584.61	-3271.40	2872.23
Saccade R	1	1	6948446124	6948485889	39765	877.60	636.77	996.70	419.83	2.18	146.14	0.50	54.82	3584.61	-3271.40	2872.23
Fixation L	1	2	6948485889	6948744496	258607	1011.53	378.73	25	73	-1	13.62	13.62
Fixation R	1	2	6948485889	6948744496	258607	1011.53	378.73	25	73	-1	14.02	14.02
Saccade L	1	2	6948744496	6948764361	19865	1022.66	346.56	1020.12	269.75	0.54	77.74	1.00	27.40	1884.87	-1514.00	1138.57
Saccade R	1	2	6948744496	6948764361	19865	1022.66	346.56	1020.12	269.75	0.54	77.74	1.00	27.40	1884.87	-1514.00	1138.57
Fixation L	1	3	6948764361	6949042850	278489	1031.19	230.77	19	79	-1	11.66	11.66
Fixation R	1	3	6948764361	6949042850	278489	1031.19	230.77	19	79	-1	11.97	11.97
Saccade L	1	3	6949042850	6949062732	19882	1039.98	201.96	1041.29	206.73	0.22	18.66	1.00	10.92	140.31	-341.51	175.46
Saccade R	1	3	6949042850	6949062732	19882	1039.98	201.96	1041.29	206.73	0.22	18.66	1.00	10.92	140.31	-341.51	175.46
Fixation L	1	4	6949062732	6949380968	318236	1034.81	188.97	24	29	-1	11.89	11.89
Fixation R	1	4	6949062732	6949380968	318236	1034.81	188.97	24	29	-1	12.32	12.32
Blink L	1	1	6949380968	6949540093	159125
Blink R	1	1	6949380968	6949540093	159125
Fixation L	1	5	6949540093	6950077197	537104	536.39	602.55	78	18	-1	13.97	13.97
Fixation R	1	5	6949540093	6950077197	537104	536.39	602.55	78	18	-1	14.02	14.02
Saccade L	1	4	6950077197	6950196426	119229	493.78	603.18	731.54	516.78	4.03	189.18	0.83	33.80	4521.22	-4565.21	1600.63
Saccade R	1	4	6950077197	6950196426	119229	493.78	603.18	731.54	516.78	4.03	189.18	0.83	33.80	4521.22	-4565.21	1600.63
Fixation L	1	6	6950196426	6950474911	278485	745.65	526.50	37	38	-1	12.96	12.96
Fixation R	1	6	6950196426	6950474911	278485	745.65	526.50	37	38	-1	13.00	13.00
Saccade L	1	5	6950474911	6950494778	19867	769.36	542.63	945.84	560.85	1.10	179.43	1.00	55.47	4363.37	-4161.11	2912.37
Saccade R	1	5	6950474911	6950494778	19867	769.36	542.63	945.84	560.85	1.10	179.43	1.00	55.47	4363.37	-4161.11	2912.37
Fixation L	1	7	6950494778	6950892643	397865	995.88	575.46	67	28	-1	13.04	13.04
Fixation R	1	7	6950494778	6950892643	397865	995.88	575.46	67	28	-1	12.87	12.87
Saccade L	1	6	6950892643	6950912514	19871	1013.06	581.71	1019.91	584.56	0.07	7.50	1.00	3.36	174.45	19.73	86.94
Saccade R	1	6	6950892643	6950912514	19871	1013.06	581.71	1019.91	584.56	0.07	7.50	1.00	3.36	174.45	19.73	86.94
Fixation L	1	8	6950912514	6951111382	198868	1029.65	595.27	13	17	-1	13.51	13.51
Fixation R	1	8	6950912514	6951111382	198868	1029.65	595.27	13	17	-1	13.35	13.35
Saccade L	1	7	6951111382	6951151120	39738	1031.11	601.16	1138.56	309.75	2.62	170.72	1.00	65.90	4263.81	-3623.43	3672.06
Saccade R	1	7	6951111382	6951151120	39738	1031.11	601.16	1138.56	309.75	2.62	170.72	1.00	65.90	4263.81	-3623.43	3672.06
Fixation L	1	9	6951151120	6951250627	99507	1155.55	284.43	30	50	-1	13.79	13.79
Fixation R	1	9	6951151120	6951250627	99507	1155.55	284.43	30	50	-1	13.41	13.41
Saccade L	1	8	6951250627	6951270501	19874	1168.89	258.99	1175.44	241.02	0.25	19.35	1.00	12.47	135.65	-354.44	280.88
Saccade R	1	8	6951250627	6951270501	19874	1168.89	258.99	1175.44	241.02	0.25	19.35	1.00	12.47	135.65	-354.44	280.88
Fixation L	1	10	6951270501	6951449491	178990	1177.24	249.14	12	21	-1	13.72	13.72
Fixation R	1	10	6951270501	6951449491	178990	1177.24	249.14	12	21	-1	13.34	13.34
Saccade L	1	9	6951449491	6951469364	19873	1168.69	243.80	1049.82	219.26	0.84	122.78	1.00	42.47	2938.56	-2951.63	2006.58
Saccade R	1	9	6951449491	6951469364	19873	1168.69	243.80	1049.82	219.26	0.84	122.78	1.00	42.47	2938.56	-2951.63	2006.58
Fixation L	1	11	6951469364	6951648481	179117	1053.08	209.93	32	30	-1	13.90	13.90
Fixation R	1	11	6951469364	6951648481	179117	1053.08	209.93	32	30	-1	13.77	13.77
Saccade L	1	10	6951648481	6951668355	19874	1081.42	215.62	1298.49	409.13	1.88	293.92	1.00	94.79	6766.11	-6795.11	4581.43
Saccade R	1	10	6951648481	6951668355	19874	1081.42	215.62	1298.49	409.13	1.88	293.92	1.00	94.79	6766.11	-6795.11	4581.43
Fixation L	1	12	6951668355	6951906967	238612	1334.01	417.13	54	30	-1	14.29	14.29
Fixation R	1	12	6951668355	6951906967	238612	1334.01	417.13	54	30	-1	14.15	14.15
Saccade L	1	11	6951906967	6951986587	79620	1309.91	401.15	1149.58	243.40	3.82	222.65	0.25	48.03	5518.81	-5203.50	2296.45
Saccade R	1	11	6951906967	6951986587	79620	1309.91	401.15	1149.58	243.40	3.82	222.65	0.25	48.03	5518.81	-5203.50	2296.45
