[BeGaze]
Converted from:	C:\Documents and Settings\iViewX\Desktop\EXPERIMENTATIONS\Experiments\results\finaleart\S16F14542-finaleart-1.idf
Date:	27.03.2019 15:46:29
Version:	BeGaze 2.5.77
Sample Rate:	50
Subject:	S16F14542
Description:	Diane Dewez

Table Header for Fixations:
Event Type	Trial	Number	Start	End	Duration	Location X	Location Y	Dispersion X	Dispersion Y	Plane	Avg. Pupil Size X	Avg. Pupil Size Y

Table Header for Saccades:
Event Type	Trial	Number	Start	End	Duration	Start Loc.X	Start Loc.Y	End Loc.X	End Loc.Y	Amplitude	Peak Speed	Peak Speed At	Average Speed	Peak Accel.	Peak Decel.	Average Accel.

Table Header for Blinks:
Event Type	Trial	Number	Start	End	Duration

Table Header for User Events:
Event Type	Trial	Number	Start	Description

UserEvent	1	1	6521881369	# Message: void.jpg
Fixation L	1	1	6521899397	6522157871	258474	975.19	350.61	34	14	-1	13.71	13.71
Fixation R	1	1	6521899397	6522157871	258474	975.19	350.61	34	14	-1	13.70	13.70
Saccade L	1	1	6522157871	6522197737	39866	1000.95	355.32	1227.12	432.57	2.61	164.01	0.50	65.40	3865.69	-3404.69	2711.40
Saccade R	1	1	6522157871	6522197737	39866	1000.95	355.32	1227.12	432.57	2.61	164.01	0.50	65.40	3865.69	-3404.69	2711.40
Fixation L	1	2	6522197737	6522774483	576746	1244.56	443.48	22	28	-1	14.45	14.45
Fixation R	1	2	6522197737	6522774483	576746	1244.56	443.48	22	28	-1	14.38	14.38
Blink L	1	1	6522774483	6522913709	139226
Blink R	1	1	6522774483	6522913709	139226
Fixation L	1	3	6522913709	6523430937	517228	751.24	380.93	30	65	-1	15.96	15.96
Fixation R	1	3	6522913709	6523430937	517228	751.24	380.93	30	65	-1	15.98	15.98
Saccade L	1	2	6523430937	6523450801	19864	747.29	406.56	748.00	422.71	0.12	16.35	1.00	6.17	331.00	-258.36	203.15
Saccade R	1	2	6523430937	6523450801	19864	747.29	406.56	748.00	422.71	0.12	16.35	1.00	6.17	331.00	-258.36	203.15
Fixation L	1	4	6523450801	6523808797	357996	750.83	423.85	68	10	-1	16.48	16.48
Fixation R	1	4	6523450801	6523808797	357996	750.83	423.85	68	10	-1	16.24	16.24
Saccade L	1	3	6523808797	6523868416	59619	810.29	426.80	936.62	518.40	3.19	174.46	0.33	53.53	4186.56	-4322.61	2364.42
Saccade R	1	3	6523808797	6523868416	59619	810.29	426.80	936.62	518.40	3.19	174.46	0.33	53.53	4186.56	-4322.61	2364.42
