[BeGaze]
Converted from:	C:\Documents and Settings\iViewX\Desktop\EXPERIMENTATIONS\Experiments\results\finaleart\S16F14542-finaleart-1.idf
Date:	27.03.2019 15:46:12
Version:	BeGaze 2.5.77
Sample Rate:	50
Subject:	S16F14542
Description:	Diane Dewez

Table Header for Fixations:
Event Type	Trial	Number	Start	End	Duration	Location X	Location Y	Dispersion X	Dispersion Y	Plane	Avg. Pupil Size X	Avg. Pupil Size Y

Table Header for Saccades:
Event Type	Trial	Number	Start	End	Duration	Start Loc.X	Start Loc.Y	End Loc.X	End Loc.Y	Amplitude	Peak Speed	Peak Speed At	Average Speed	Peak Accel.	Peak Decel.	Average Accel.

Table Header for Blinks:
Event Type	Trial	Number	Start	End	Duration

Table Header for User Events:
Event Type	Trial	Number	Start	Description

UserEvent	1	1	6341375210	# Message: goya-Pavo-muerto-1812.jpg
Fixation L	1	1	6341391387	6341848865	457478	729.28	493.72	10	30	-1	14.81	14.81
Fixation R	1	1	6341391387	6341848865	457478	729.28	493.72	10	30	-1	15.34	15.34
Saccade L	1	1	6341848865	6341868734	19869	733.72	500.72	729.06	648.15	1.00	149.18	1.00	50.09	3672.59	-2937.52	2580.64
Saccade R	1	1	6341848865	6341868734	19869	733.72	500.72	729.06	648.15	1.00	149.18	1.00	50.09	3672.59	-2937.52	2580.64
Fixation L	1	2	6341868734	6341968099	99365	705.43	696.46	33	64	-1	15.51	15.51
Fixation R	1	2	6341868734	6341968099	99365	705.43	696.46	33	64	-1	15.83	15.83
Saccade L	1	2	6341968099	6341988114	20015	695.93	711.99	691.13	716.47	0.09	6.64	1.00	4.29	144.11	-46.95	86.76
Saccade R	1	2	6341968099	6341988114	20015	695.93	711.99	691.13	716.47	0.09	6.64	1.00	4.29	144.11	-46.95	86.76
Fixation L	1	3	6341988114	6342206842	218728	684.60	715.26	14	11	-1	15.70	15.70
Fixation R	1	3	6341988114	6342206842	218728	684.60	715.26	14	11	-1	16.02	16.02
Saccade L	1	3	6342206842	6342266558	59716	676.95	723.63	255.69	1113.17	6.23	338.32	0.33	104.27	8379.64	-6920.15	4897.64
Saccade R	1	3	6342206842	6342266558	59716	676.95	723.63	255.69	1113.17	6.23	338.32	0.33	104.27	8379.64	-6920.15	4897.64
Fixation L	1	4	6342266558	6342624574	358016	262.29	1139.51	16	33	-1	15.16	15.16
Fixation R	1	4	6342266558	6342624574	358016	262.29	1139.51	16	33	-1	16.00	16.00
Blink L	1	1	6342624574	6342783683	159109
Blink R	1	1	6342624574	6342783683	159109
Saccade L	1	4	6342783683	6342803561	19878	631.19	721.72	1030.03	530.18	7.07	966.63	1.00	355.48	-85.25	-12998.65	8044.12
Saccade R	1	4	6342783683	6342803561	19878	631.19	721.72	1030.03	530.18	7.07	966.63	1.00	355.48	-85.25	-12998.65	8044.12
Fixation L	1	5	6342803561	6343261035	457474	1019.15	513.50	42	56	-1	17.15	17.15
Fixation R	1	5	6342803561	6343261035	457474	1019.15	513.50	42	56	-1	15.78	15.78
Saccade L	1	5	6343261035	6343280929	19894	992.58	538.39	991.70	544.23	0.07	5.98	1.00	3.57	19.97	-117.36	50.54
Saccade R	1	5	6343261035	6343280929	19894	992.58	538.39	991.70	544.23	0.07	5.98	1.00	3.57	19.97	-117.36	50.54
Fixation L	1	6	6343280929	6343400286	119357	981.47	542.50	64	5	-1	17.07	17.07
Fixation R	1	6	6343280929	6343400286	119357	981.47	542.50	64	5	-1	16.00	16.00
Saccade L	1	6	6343400286	6343420162	19876	927.46	539.46	911.27	523.50	0.52	63.17	0.00	26.41	462.52	-1205.59	691.73
Saccade R	1	6	6343400286	6343420162	19876	927.46	539.46	911.27	523.50	0.52	63.17	0.00	26.41	462.52	-1205.59	691.73
Fixation L	1	7	6343420162	6343837765	417603	892.54	502.51	23	62	-1	16.43	16.43
Fixation R	1	7	6343420162	6343837765	417603	892.54	502.51	23	62	-1	15.30	15.30
Saccade L	1	7	6343837765	6343857760	19995	889.10	471.81	963.26	459.99	0.61	75.96	1.00	30.65	1867.48	-1782.74	1261.83
Saccade R	1	7	6343837765	6343857760	19995	889.10	471.81	963.26	459.99	0.61	75.96	1.00	30.65	1867.48	-1782.74	1261.83
Fixation L	1	8	6343857760	6344255496	397736	978.02	451.04	24	24	-1	16.17	16.17
Fixation R	1	8	6343857760	6344255496	397736	978.02	451.04	24	24	-1	14.85	14.85
Saccade L	1	8	6344255496	6344275366	19870	976.46	454.66	1021.02	562.13	0.82	117.67	1.00	41.43	2889.74	-2289.43	1874.04
Saccade R	1	8	6344255496	6344275366	19870	976.46	454.66	1021.02	562.13	0.82	117.67	1.00	41.43	2889.74	-2289.43	1874.04
Fixation L	1	9	6344275366	6344514101	238735	1025.91	566.83	16	56	-1	16.84	16.84
Fixation R	1	9	6344275366	6344514101	238735	1025.91	566.83	16	56	-1	15.76	15.76
Saccade L	1	9	6344514101	6344553853	39752	1015.68	588.44	685.58	928.44	4.03	288.10	0.50	101.47	7153.20	-7076.83	5888.01
Saccade R	1	9	6344514101	6344553853	39752	1015.68	588.44	685.58	928.44	4.03	288.10	0.50	101.47	7153.20	-7076.83	5888.01
Fixation L	1	10	6344553853	6345070955	517102	675.20	929.01	15	11	-1	17.41	17.41
Fixation R	1	10	6344553853	6345070955	517102	675.20	929.01	15	11	-1	16.54	16.54
Saccade L	1	10	6345070955	6345110843	39888	680.17	920.79	1010.38	533.14	4.27	333.36	0.50	107.12	8258.59	-8207.83	6258.20
Saccade R	1	10	6345070955	6345110843	39888	680.17	920.79	1010.38	533.14	4.27	333.36	0.50	107.12	8258.59	-8207.83	6258.20
Fixation L	1	11	6345110843	6345369310	258467	1015.23	529.59	6	15	-1	16.22	16.22
Fixation R	1	11	6345110843	6345369310	258467	1015.23	529.59	6	15	-1	15.19	15.19
