[BeGaze]
Converted from:	C:\Documents and Settings\iViewX\Desktop\EXPERIMENTATIONS\Experiments\results\finaleart\S16F14542-finaleart-1.idf
Date:	27.03.2019 15:46:40
Version:	BeGaze 2.5.77
Sample Rate:	50
Subject:	S16F14542
Description:	Diane Dewez

Table Header for Fixations:
Event Type	Trial	Number	Start	End	Duration	Location X	Location Y	Dispersion X	Dispersion Y	Plane	Avg. Pupil Size X	Avg. Pupil Size Y

Table Header for Saccades:
Event Type	Trial	Number	Start	End	Duration	Start Loc.X	Start Loc.Y	End Loc.X	End Loc.Y	Amplitude	Peak Speed	Peak Speed At	Average Speed	Peak Accel.	Peak Decel.	Average Accel.

Table Header for Blinks:
Event Type	Trial	Number	Start	End	Duration

Table Header for User Events:
Event Type	Trial	Number	Start	Description

UserEvent	1	1	6615506592	# Message: morning_Daubigny_1858.jpg
Fixation L	1	1	6615521665	6615740527	218862	873.78	425.07	37	16	-1	13.83	13.83
Fixation R	1	1	6615521665	6615740527	218862	873.78	425.07	37	16	-1	14.16	14.16
Saccade L	1	1	6615740527	6615760399	19872	844.24	422.17	795.44	419.00	0.49	49.47	1.00	24.56	1119.13	-990.97	968.75
Saccade R	1	1	6615740527	6615760399	19872	844.24	422.17	795.44	419.00	0.49	49.47	1.00	24.56	1119.13	-990.97	968.75
Fixation L	1	2	6615760399	6615979144	218745	779.65	401.29	34	39	-1	13.65	13.65
Fixation R	1	2	6615760399	6615979144	218745	779.65	401.29	34	39	-1	14.35	14.35
Saccade L	1	2	6615979144	6616019008	39864	768.33	379.03	895.32	648.87	2.71	193.21	0.50	68.02	4738.63	-4369.51	3658.97
Saccade R	1	2	6615979144	6616019008	39864	768.33	379.03	895.32	648.87	2.71	193.21	0.50	68.02	4738.63	-4369.51	3658.97
Fixation L	1	3	6616019008	6616158131	139123	910.25	644.09	21	19	-1	13.54	13.54
Fixation R	1	3	6616019008	6616158131	139123	910.25	644.09	21	19	-1	13.37	13.37
Saccade L	1	3	6616158131	6616178135	20004	917.00	652.30	907.39	750.09	0.61	99.40	1.00	30.48	2382.24	-2121.40	1577.03
Saccade R	1	3	6616158131	6616178135	20004	917.00	652.30	907.39	750.09	0.61	99.40	1.00	30.48	2382.24	-2121.40	1577.03
Fixation L	1	4	6616178135	6616496360	318225	894.94	751.74	58	24	-1	11.53	11.53
Fixation R	1	4	6616178135	6616496360	318225	894.94	751.74	58	24	-1	11.47	11.47
Saccade L	1	4	6616496360	6616516239	19879	944.08	742.43	1090.87	718.85	1.10	150.36	1.00	55.10	3659.72	-3316.21	2706.82
Saccade R	1	4	6616496360	6616516239	19879	944.08	742.43	1090.87	718.85	1.10	150.36	1.00	55.10	3659.72	-3316.21	2706.82
Fixation L	1	5	6616516239	6616695223	178984	1105.34	703.11	20	26	-1	11.03	11.03
Fixation R	1	5	6616516239	6616695223	178984	1105.34	703.11	20	26	-1	10.61	10.61
Blink L	1	1	6616695223	6616834473	139250
Blink R	1	1	6616695223	6616834473	139250
Blink L	1	2	6616854350	6617192451	338101
Blink R	1	2	6616854350	6617232206	377856
Fixation L	1	6	6617192451	6617669804	477353	928.49	702.78	43	31	-1	12.16	12.16
Fixation R	1	6	6617232206	6617669804	437598	926.93	702.36	19	31	-1	11.80	11.80
Saccade L	1	5	6617669804	6617709556	39752	924.62	701.72	694.77	889.26	2.59	170.33	0.50	65.03	4240.51	-3700.64	3527.95
Saccade R	1	5	6617669804	6617709556	39752	924.62	701.72	694.77	889.26	2.59	170.33	0.50	65.03	4240.51	-3700.64	3527.95
Fixation L	1	7	6617709556	6617988044	278488	687.84	889.12	10	52	-1	10.86	10.86
Fixation R	1	7	6617709556	6617988044	278488	687.84	889.12	10	52	-1	10.92	10.92
Saccade L	1	6	6617988044	6618047796	59752	688.51	876.31	974.61	748.07	3.51	184.05	0.67	58.79	4571.73	-3974.59	2604.35
Saccade R	1	6	6617988044	6618047796	59752	688.51	876.31	974.61	748.07	3.51	184.05	0.67	58.79	4571.73	-3974.59	2604.35
Fixation L	1	8	6618047796	6618405769	357973	1002.03	736.47	35	24	-1	10.80	10.80
Fixation R	1	8	6618047796	6618405769	357973	1002.03	736.47	35	24	-1	9.94	9.94
Blink L	1	3	6618405769	6618624520	218751
Blink R	1	3	6618405769	6618624520	218751
Fixation L	1	9	6618624520	6619042258	417738	997.82	709.78	19	45	-1	11.52	11.52
Fixation R	1	9	6618624520	6619042258	417738	997.82	709.78	19	45	-1	11.33	11.33
Saccade L	1	7	6619042258	6619062123	19865	993.00	735.98	889.00	766.81	0.80	109.72	1.00	40.35	2599.40	-2205.37	1887.65
Saccade R	1	7	6619042258	6619062123	19865	993.00	735.98	889.00	766.81	0.80	109.72	1.00	40.35	2599.40	-2205.37	1887.65
Fixation L	1	10	6619062123	6619221230	159107	836.75	783.63	67	30	-1	10.87	10.87
Fixation R	1	10	6619062123	6619221230	159107	836.75	783.63	67	30	-1	11.06	11.06
Saccade L	1	8	6619221230	6619241108	19878	822.15	797.23	821.64	804.55	0.09	7.42	1.00	4.75	28.24	-75.71	54.41
Saccade R	1	8	6619221230	6619241108	19878	822.15	797.23	821.64	804.55	0.09	7.42	1.00	4.75	28.24	-75.71	54.41
Fixation L	1	11	6619241108	6619499725	258617	819.79	809.95	4	11	-1	10.71	10.71
Fixation R	1	11	6619241108	6619499725	258617	819.79	809.95	4	11	-1	11.21	11.21
