[BeGaze]
Converted from:	C:\Documents and Settings\iViewX\Desktop\EXPERIMENTATIONS\Experiments\results\finaleart\S16F14542-finaleart-1.idf
Date:	27.03.2019 15:46:33
Version:	BeGaze 2.5.77
Sample Rate:	50
Subject:	S16F14542
Description:	Diane Dewez

Table Header for Fixations:
Event Type	Trial	Number	Start	End	Duration	Location X	Location Y	Dispersion X	Dispersion Y	Plane	Avg. Pupil Size X	Avg. Pupil Size Y

Table Header for Saccades:
Event Type	Trial	Number	Start	End	Duration	Start Loc.X	Start Loc.Y	End Loc.X	End Loc.Y	Amplitude	Peak Speed	Peak Speed At	Average Speed	Peak Accel.	Peak Decel.	Average Accel.

Table Header for Blinks:
Event Type	Trial	Number	Start	End	Duration

Table Header for User Events:
Event Type	Trial	Number	Start	Description

UserEvent	1	1	6560560135	# Message: goya-Nature-morte-avec-Bouteilles-et-Pains-1826.jpg
Fixation L	1	1	6560565539	6561162259	596720	901.91	610.25	36	35	-1	14.89	14.89
Fixation R	1	1	6560565539	6561162259	596720	901.91	610.25	36	35	-1	14.49	14.49
Saccade L	1	1	6561162259	6561182128	19869	928.80	631.98	952.07	650.05	0.50	41.58	1.00	25.31	92.92	-566.29	317.90
Saccade R	1	1	6561162259	6561182128	19869	928.80	631.98	952.07	650.05	0.50	41.58	1.00	25.31	92.92	-566.29	317.90
Fixation L	1	2	6561182128	6561361263	179135	956.56	660.56	6	19	-1	15.28	15.28
Fixation R	1	2	6561182128	6561361263	179135	956.56	660.56	6	19	-1	14.45	14.45
Saccade L	1	2	6561361263	6561401004	39741	958.36	656.08	713.42	502.44	2.79	166.52	0.50	70.12	4106.69	-3809.28	3885.06
Saccade R	1	2	6561361263	6561401004	39741	958.36	656.08	713.42	502.44	2.79	166.52	0.50	70.12	4106.69	-3809.28	3885.06
Fixation L	1	3	6561401004	6561619736	218732	687.61	489.45	47	22	-1	14.70	14.70
Fixation R	1	3	6561401004	6561619736	218732	687.61	489.45	47	22	-1	14.45	14.45
Saccade L	1	3	6561619736	6561639605	19869	666.10	480.19	628.40	482.20	0.38	38.19	1.00	18.94	846.38	-588.51	502.30
Saccade R	1	3	6561619736	6561639605	19869	666.10	480.19	628.40	482.20	0.38	38.19	1.00	18.94	846.38	-588.51	502.30
Fixation L	1	4	6561639605	6561858472	218867	612.82	474.88	44	18	-1	15.12	15.12
Fixation R	1	4	6561639605	6561858472	218867	612.82	474.88	44	18	-1	14.94	14.94
Saccade L	1	4	6561858472	6561898219	39747	644.37	465.15	1061.77	452.55	3.87	286.89	0.50	97.32	7111.48	-6968.59	5026.20
Saccade R	1	4	6561858472	6561898219	39747	644.37	465.15	1061.77	452.55	3.87	286.89	0.50	97.32	7111.48	-6968.59	5026.20
Fixation L	1	5	6561898219	6562156840	258621	1065.77	436.34	7	27	-1	16.03	16.03
Fixation R	1	5	6561898219	6562156840	258621	1065.77	436.34	7	27	-1	15.48	15.48
Saccade L	1	5	6562156840	6562196585	39745	1068.99	439.22	1393.76	617.14	3.14	206.77	0.50	78.96	5035.86	-4927.04	4506.24
Saccade R	1	5	6562156840	6562196585	39745	1068.99	439.22	1393.76	617.14	3.14	206.77	0.50	78.96	5035.86	-4927.04	4506.24
Fixation L	1	6	6562196585	6562574463	377878	1429.46	594.16	49	30	-1	16.39	16.39
Fixation R	1	6	6562196585	6562574463	377878	1429.46	594.16	49	30	-1	15.04	15.04
Saccade L	1	6	6562574463	6562614308	39845	1442.82	590.79	1521.83	857.82	2.75	235.09	1.00	69.08	5861.74	-5670.28	3263.10
Saccade R	1	6	6562574463	6562614308	39845	1442.82	590.79	1521.83	857.82	2.75	235.09	1.00	69.08	5861.74	-5670.28	3263.10
Fixation L	1	7	6562614308	6562753434	139126	1537.29	902.63	38	58	-1	16.41	16.41
Fixation R	1	7	6562614308	6562753434	139126	1537.29	902.63	38	58	-1	14.38	14.38
Saccade L	1	7	6562753434	6562773433	19999	1529.06	916.29	1531.39	919.85	0.08	6.26	1.00	3.78	26.66	-48.88	34.74
Saccade R	1	7	6562753434	6562773433	19999	1529.06	916.29	1531.39	919.85	0.08	6.26	1.00	3.78	26.66	-48.88	34.74
Fixation L	1	8	6562773433	6563191042	417609	1510.82	939.23	56	38	-1	15.75	15.75
Fixation R	1	8	6562773433	6563191042	417609	1510.82	939.23	56	38	-1	14.02	14.02
Saccade L	1	8	6563191042	6563250781	59739	1489.58	957.56	921.24	839.13	6.10	251.58	0.67	102.16	6218.72	-5922.98	4298.30
Saccade R	1	8	6563191042	6563250781	59739	1489.58	957.56	921.24	839.13	6.10	251.58	0.67	102.16	6218.72	-5922.98	4298.30
Fixation L	1	9	6563250781	6563628644	377863	907.16	832.03	24	53	-1	14.43	14.43
Fixation R	1	9	6563250781	6563628644	377863	907.16	832.03	24	53	-1	13.19	13.19
Saccade L	1	9	6563628644	6563648514	19870	897.06	818.25	760.25	812.49	0.94	138.49	1.00	47.54	2999.04	-3344.03	2250.50
Saccade R	1	9	6563628644	6563648514	19870	897.06	818.25	760.25	812.49	0.94	138.49	1.00	47.54	2999.04	-3344.03	2250.50
Fixation L	1	10	6563648514	6563748007	99493	762.84	810.67	10	4	-1	14.00	14.00
Fixation R	1	10	6563648514	6563748007	99493	762.84	810.67	10	4	-1	13.43	13.43
Saccade L	1	10	6563748007	6563827879	79872	756.77	810.74	627.75	419.33	4.99	217.30	0.50	62.50	5322.39	-4145.41	2358.57
Saccade R	1	10	6563748007	6563827879	79872	756.77	810.74	627.75	419.33	4.99	217.30	0.50	62.50	5322.39	-4145.41	2358.57
Fixation L	1	11	6563827879	6564006496	178617	613.23	381.21	30	68	-1	13.36	13.36
Fixation R	1	11	6563827879	6564006496	178617	613.23	381.21	30	68	-1	12.99	12.99
Saccade L	1	11	6564006496	6564026501	20005	599.23	350.68	599.53	348.87	0.08	7.18	1.00	4.24	1536.74	-132.96	570.31
Saccade R	1	11	6564006496	6564026501	20005	599.23	350.68	599.53	348.87	0.08	7.18	1.00	4.24	1536.74	-132.96	570.31
Fixation L	1	12	6564026501	6564165739	139238	594.98	399.96	7	85	-1	13.43	13.43
Fixation R	1	12	6564026501	6564165739	139238	594.98	399.96	7	85	-1	12.91	12.91
Saccade L	1	12	6564165739	6564185607	19868	593.35	430.08	595.96	438.45	0.15	14.25	1.00	7.45	81.44	-134.58	93.31
Saccade R	1	12	6564165739	6564185607	19868	593.35	430.08	595.96	438.45	0.15	14.25	1.00	7.45	81.44	-134.58	93.31
Fixation L	1	13	6564185607	6564543595	357988	597.96	479.01	6	60	-1	13.99	13.99
Fixation R	1	13	6564185607	6564543595	357988	597.96	479.01	6	60	-1	13.77	13.77
