[BeGaze]
Converted from:	C:\Documents and Settings\iViewX\Desktop\EXPERIMENTATIONS\Experiments\results\finaleart\S16F14542-finaleart-1.idf
Date:	27.03.2019 15:46:44
Version:	BeGaze 2.5.77
Sample Rate:	50
Subject:	S16F14542
Description:	Diane Dewez

Table Header for Fixations:
Event Type	Trial	Number	Start	End	Duration	Location X	Location Y	Dispersion X	Dispersion Y	Plane	Avg. Pupil Size X	Avg. Pupil Size Y

Table Header for Saccades:
Event Type	Trial	Number	Start	End	Duration	Start Loc.X	Start Loc.Y	End Loc.X	End Loc.Y	Amplitude	Peak Speed	Peak Speed At	Average Speed	Peak Accel.	Peak Decel.	Average Accel.

Table Header for Blinks:
Event Type	Trial	Number	Start	End	Duration

Table Header for User Events:
Event Type	Trial	Number	Start	Description

UserEvent	1	1	6763749561	# Message: void.jpg
Fixation L	1	1	6763754106	6764052441	298335	1148.75	484.84	16	12	-1	14.25	14.25
Fixation R	1	1	6763754106	6764052441	298335	1148.75	484.84	16	12	-1	13.61	13.61
Saccade L	1	1	6764052441	6764072312	19871	1151.31	486.12	921.62	405.09	1.55	246.25	1.00	78.05	6136.23	-5916.43	4460.16
Saccade R	1	1	6764052441	6764072312	19871	1151.31	486.12	921.62	405.09	1.55	246.25	1.00	78.05	6136.23	-5916.43	4460.16
Fixation L	1	2	6764072312	6764768403	696091	855.89	400.15	72	25	-1	14.35	14.35
Fixation R	1	2	6764072312	6764768403	696091	855.89	400.15	72	25	-1	14.30	14.30
Saccade L	1	2	6764768403	6764848033	79630	850.14	415.84	846.11	414.81	0.47	28.66	1.00	5.88	24181.40	-24.53	4157.21
Saccade R	1	2	6764768403	6764848033	79630	850.14	415.84	846.11	414.81	0.47	28.66	1.00	5.88	24181.40	-24.53	4157.21
Blink L	1	1	6764848033	6765027013	178980
Blink R	1	1	6764848033	6765027013	178980
Fixation L	1	3	6765027013	6765504367	477354	963.72	464.30	25	20	-1	13.80	13.80
Fixation R	1	3	6765027013	6765504367	477354	963.72	464.30	25	20	-1	14.49	14.49
Saccade L	1	3	6765504367	6765524247	19880	942.41	475.75	871.23	471.24	0.53	72.15	1.00	26.53	1769.56	-1534.23	1200.89
Saccade R	1	3	6765504367	6765524247	19880	942.41	475.75	871.23	471.24	0.53	72.15	1.00	26.53	1769.56	-1534.23	1200.89
Fixation L	1	4	6765524247	6765743119	218872	871.51	482.50	28	18	-1	13.96	13.96
Fixation R	1	4	6765524247	6765743119	218872	871.51	482.50	28	18	-1	14.38	14.38
