[BeGaze]
Converted from:	C:\Documents and Settings\iViewX\Desktop\EXPERIMENTATIONS\Experiments\results\finaleart\S21F22332-finaleart-1.idf
Date:	27.03.2019 15:54:51
Version:	BeGaze 2.5.77
Sample Rate:	50
Subject:	S21F22332
Description:	Cyrielle Mailart

Table Header for Fixations:
Event Type	Trial	Number	Start	End	Duration	Location X	Location Y	Dispersion X	Dispersion Y	Plane	Avg. Pupil Size X	Avg. Pupil Size Y

Table Header for Saccades:
Event Type	Trial	Number	Start	End	Duration	Start Loc.X	Start Loc.Y	End Loc.X	End Loc.Y	Amplitude	Peak Speed	Peak Speed At	Average Speed	Peak Accel.	Peak Decel.	Average Accel.

Table Header for Blinks:
Event Type	Trial	Number	Start	End	Duration

Table Header for User Events:
Event Type	Trial	Number	Start	Description

UserEvent	1	1	2283670298	# Message: void.jpg
Fixation L	1	1	2283688878	2283887753	198875	1033.86	749.12	67	24	-1	13.57	13.57
Fixation R	1	1	2283688878	2283887753	198875	1033.86	749.12	67	24	-1	11.68	11.68
Saccade L	1	1	2283887753	2283907630	19877	975.75	732.79	982.38	719.13	0.45	61.17	0.00	22.55	279.32	-1292.61	549.28
Saccade R	1	1	2283887753	2283907630	19877	975.75	732.79	982.38	719.13	0.45	61.17	0.00	22.55	279.32	-1292.61	549.28
Fixation L	1	2	2283907630	2284225853	318223	966.47	682.59	21	55	-1	13.33	13.33
Fixation R	1	2	2283907630	2284225853	318223	966.47	682.59	21	55	-1	11.81	11.81
Blink L	1	1	2284225853	2284384980	159127
Blink R	1	1	2284225853	2284384980	159127
Saccade L	1	2	2284384980	2284444717	59737	987.41	649.95	997.90	552.18	21.42	1180.65	1.00	358.59	10626.16	-27144.34	13505.04
Saccade R	1	2	2284384980	2284444717	59737	987.41	649.95	997.90	552.18	21.42	1180.65	1.00	358.59	10626.16	-27144.34	13505.04
Fixation L	1	3	2284444717	2285001560	556843	993.11	549.95	12	35	-1	14.05	14.05
Fixation R	1	3	2284444717	2285001560	556843	993.11	549.95	12	35	-1	12.67	12.67
Saccade L	1	3	2285001560	2285021435	19875	998.79	566.45	932.80	608.18	0.53	78.98	1.00	26.70	1949.86	-1206.07	1268.47
Saccade R	1	3	2285001560	2285021435	19875	998.79	566.45	932.80	608.18	0.53	78.98	1.00	26.70	1949.86	-1206.07	1268.47
Fixation L	1	4	2285021435	2285638030	616595	939.24	628.48	43	52	-1	14.15	14.15
Fixation R	1	4	2285021435	2285638030	616595	939.24	628.48	43	52	-1	12.58	12.58
Saccade L	1	4	2285638030	2285657903	19873	968.27	625.58	972.68	618.04	0.10	8.84	1.00	5.13	113.36	0.00	56.68
Saccade R	1	4	2285638030	2285657903	19873	968.27	625.58	972.68	618.04	0.10	8.84	1.00	5.13	113.36	0.00	56.68
