[BeGaze]
Converted from:	C:\Documents and Settings\iViewX\Desktop\EXPERIMENTATIONS\Experiments\results\finaleart\S21F22332-finaleart-1.idf
Date:	27.03.2019 15:55:03
Version:	BeGaze 2.5.77
Sample Rate:	50
Subject:	S21F22332
Description:	Cyrielle Mailart

Table Header for Fixations:
Event Type	Trial	Number	Start	End	Duration	Location X	Location Y	Dispersion X	Dispersion Y	Plane	Avg. Pupil Size X	Avg. Pupil Size Y

Table Header for Saccades:
Event Type	Trial	Number	Start	End	Duration	Start Loc.X	Start Loc.Y	End Loc.X	End Loc.Y	Amplitude	Peak Speed	Peak Speed At	Average Speed	Peak Accel.	Peak Decel.	Average Accel.

Table Header for Blinks:
Event Type	Trial	Number	Start	End	Duration

Table Header for User Events:
Event Type	Trial	Number	Start	Description

UserEvent	1	1	2369484653	# Message: void.jpg
Fixation L	1	1	2369494036	2369911765	417729	939.53	1022.80	23	33	-1	15.35	15.35
Fixation R	1	1	2369494036	2369911765	417729	939.53	1022.80	23	33	-1	14.86	14.86
Blink L	1	1	2369911765	2370150370	238605
Blink R	1	1	2369911765	2370150370	238605
Saccade L	1	1	2370150370	2370210120	59750	1264.11	317.57	1251.77	316.95	1.64	70.56	1.00	27.50	1392.70	-617.91	698.09
Saccade R	1	1	2370150370	2370210120	59750	1264.11	317.57	1251.77	316.95	1.64	70.56	1.00	27.50	1392.70	-617.91	698.09
Fixation L	1	2	2370210120	2370369250	159130	1234.21	328.73	69	24	-1	13.91	13.91
Fixation R	1	2	2370210120	2370369250	159130	1234.21	328.73	69	24	-1	13.01	13.01
Blink L	1	2	2370369250	2370587985	218735
Blink R	1	2	2370369250	2370587985	218735
Fixation L	1	3	2370587985	2371085198	497213	1226.18	362.78	31	67	-1	14.81	14.81
Fixation R	1	3	2370587985	2371085198	497213	1226.18	362.78	31	67	-1	12.86	12.86
Saccade L	1	2	2371085198	2371105199	20001	1222.58	385.84	1411.47	383.70	1.17	191.03	1.00	58.49	4624.72	-4643.14	3338.62
Saccade R	1	2	2371085198	2371105199	20001	1222.58	385.84	1411.47	383.70	1.17	191.03	1.00	58.49	4624.72	-4643.14	3338.62
Fixation L	1	4	2371105199	2371264318	159119	1382.80	372.12	45	40	-1	14.92	14.92
Fixation R	1	4	2371105199	2371264318	159119	1382.80	372.12	45	40	-1	12.89	12.89
Saccade L	1	3	2371264318	2371343819	79501	1366.23	343.52	1197.64	360.14	5.75	177.04	1.00	72.33	2309.21	-3915.86	2052.88
Saccade R	1	3	2371264318	2371343819	79501	1366.23	343.52	1197.64	360.14	5.75	177.04	1.00	72.33	2309.21	-3915.86	2052.88
Fixation L	1	5	2371343819	2371443313	99494	1160.64	356.75	54	39	-1	15.04	15.04
Fixation R	1	5	2371343819	2371443313	99494	1160.64	356.75	54	39	-1	12.92	12.92
Saccade L	1	4	2371443313	2371483063	39750	1143.34	333.00	1134.90	314.18	0.60	30.81	0.00	15.04	57.44	-384.96	147.47
Saccade R	1	4	2371443313	2371483063	39750	1143.34	333.00	1134.90	314.18	0.60	30.81	0.00	15.04	57.44	-384.96	147.47
