[BeGaze]
Converted from:	C:\Documents and Settings\iViewX\Desktop\EXPERIMENTATIONS\Experiments\results\finaleart\S21F22332-finaleart-1.idf
Date:	27.03.2019 15:56:32
Version:	BeGaze 2.5.77
Sample Rate:	50
Subject:	S21F22332
Description:	Cyrielle Mailart

Table Header for Fixations:
Event Type	Trial	Number	Start	End	Duration	Location X	Location Y	Dispersion X	Dispersion Y	Plane	Avg. Pupil Size X	Avg. Pupil Size Y

Table Header for Saccades:
Event Type	Trial	Number	Start	End	Duration	Start Loc.X	Start Loc.Y	End Loc.X	End Loc.Y	Amplitude	Peak Speed	Peak Speed At	Average Speed	Peak Accel.	Peak Decel.	Average Accel.

Table Header for Blinks:
Event Type	Trial	Number	Start	End	Duration

Table Header for User Events:
Event Type	Trial	Number	Start	Description

UserEvent	1	1	3223867595	# Message: void.jpg
Fixation L	1	1	3223885042	3224004474	119432	1553.52	235.28	3	13	-1	12.83	12.83
Fixation R	1	1	3223885042	3224004474	119432	1553.52	235.28	3	13	-1	11.73	11.73
Saccade L	1	1	3224004474	3224024391	19917	1555.63	234.38	1602.83	334.84	0.77	112.27	1.00	38.51	2691.41	-2054.00	1834.66
Saccade R	1	1	3224004474	3224024391	19917	1555.63	234.38	1602.83	334.84	0.77	112.27	1.00	38.51	2691.41	-2054.00	1834.66
Fixation L	1	2	3224024391	3224362385	337994	1598.36	344.58	13	53	-1	12.96	12.96
Fixation R	1	2	3224024391	3224362385	337994	1598.36	344.58	13	53	-1	12.12	12.12
Blink L	1	1	3224362385	3224640885	278500
Blink R	1	1	3224362385	3224640885	278500
Saccade L	1	2	3224640885	3224660757	19872	856.68	704.72	853.49	676.48	0.97	138.83	1.00	48.61	569.57	-2751.88	1287.51
Saccade R	1	2	3224640885	3224660757	19872	856.68	704.72	853.49	676.48	0.97	138.83	1.00	48.61	569.57	-2751.88	1287.51
Fixation L	1	3	3224660757	3225257472	596715	854.51	642.73	11	74	-1	17.16	17.16
Fixation R	1	3	3224660757	3225257472	596715	854.51	642.73	11	74	-1	12.84	12.84
Saccade L	1	3	3225257472	3225277341	19869	851.98	640.71	964.93	634.47	0.66	114.42	1.00	33.29	2814.98	-2165.38	1793.37
Saccade R	1	3	3225257472	3225277341	19869	851.98	640.71	964.93	634.47	0.66	114.42	1.00	33.29	2814.98	-2165.38	1793.37
Fixation L	1	4	3225277341	3225496096	218755	968.92	587.93	6	64	-1	16.56	16.56
Fixation R	1	4	3225277341	3225496096	218755	968.92	587.93	6	64	-1	12.44	12.44
Blink L	1	2	3225496096	3225695072	198976
Blink R	1	2	3225496096	3225695072	198976
Fixation L	1	5	3225695072	3225854192	159120	1026.03	447.19	4	7	-1	13.82	13.82
Fixation R	1	5	3225695072	3225854192	159120	1026.03	447.19	4	7	-1	12.56	12.56
