[BeGaze]
Converted from:	C:\Documents and Settings\iViewX\Desktop\EXPERIMENTATIONS\Experiments\results\finaleart\S21F22332-finaleart-1.idf
Date:	27.03.2019 15:56:25
Version:	BeGaze 2.5.77
Sample Rate:	50
Subject:	S21F22332
Description:	Cyrielle Mailart

Table Header for Fixations:
Event Type	Trial	Number	Start	End	Duration	Location X	Location Y	Dispersion X	Dispersion Y	Plane	Avg. Pupil Size X	Avg. Pupil Size Y

Table Header for Saccades:
Event Type	Trial	Number	Start	End	Duration	Start Loc.X	Start Loc.Y	End Loc.X	End Loc.Y	Amplitude	Peak Speed	Peak Speed At	Average Speed	Peak Accel.	Peak Decel.	Average Accel.

Table Header for Blinks:
Event Type	Trial	Number	Start	End	Duration

Table Header for User Events:
Event Type	Trial	Number	Start	Description

UserEvent	1	1	3176929533	# Message: nasturtiums-dahlias-in-a-basket_gauguin_1884.jpg
Fixation L	1	1	3176944736	3177064121	119385	859.87	512.41	53	46	-1	14.17	14.17
Fixation R	1	1	3176944736	3177064121	119385	859.87	512.41	53	46	-1	13.86	13.86
Saccade L	1	1	3177064121	3177084014	19893	848.95	524.95	848.92	531.53	0.10	6.65	1.00	5.10	60.40	-146.92	83.94
Saccade R	1	1	3177064121	3177084014	19893	848.95	524.95	848.92	531.53	0.10	6.65	1.00	5.10	60.40	-146.92	83.94
Fixation L	1	2	3177084014	3177422088	338074	868.53	518.47	57	28	-1	14.09	14.09
Fixation R	1	2	3177084014	3177422088	338074	868.53	518.47	57	28	-1	13.80	13.80
Saccade L	1	2	3177422088	3177461854	39766	896.15	502.68	716.78	505.97	1.52	93.18	0.50	38.16	2277.42	-2190.33	2194.00
Saccade R	1	2	3177422088	3177461854	39766	896.15	502.68	716.78	505.97	1.52	93.18	0.50	38.16	2277.42	-2190.33	2194.00
Fixation L	1	3	3177461854	3177640823	178969	712.07	514.02	6	16	-1	14.03	14.03
Fixation R	1	3	3177461854	3177640823	178969	712.07	514.02	6	16	-1	13.66	13.66
Saccade L	1	3	3177640823	3177700603	59780	712.37	522.25	434.99	118.44	5.18	226.30	0.67	86.65	5578.55	-5543.88	4008.83
Saccade R	1	3	3177640823	3177700603	59780	712.37	522.25	434.99	118.44	5.18	226.30	0.67	86.65	5578.55	-5543.88	4008.83
Fixation L	1	4	3177700603	3177839813	139210	424.07	124.45	16	37	-1	13.84	13.84
Fixation R	1	4	3177700603	3177839813	139210	424.07	124.45	16	37	-1	12.92	12.92
Saccade L	1	4	3177839813	3177939181	99368	420.85	151.50	327.82	93.82	13.56	451.30	0.20	136.43	10647.35	-9149.75	5570.16
Saccade R	1	4	3177839813	3177939181	99368	420.85	151.50	327.82	93.82	13.56	451.30	0.20	136.43	10647.35	-9149.75	5570.16
Fixation L	1	5	3177939181	3178098301	159120	347.23	120.31	30	55	-1	13.10	13.10
Fixation R	1	5	3177939181	3178098301	159120	347.23	120.31	30	55	-1	13.31	13.31
Saccade L	1	5	3178098301	3178118180	19879	357.84	132.85	0.00	8.23	2.12	382.75	1.00	106.58	9076.38	-9541.23	6289.75
Saccade R	1	5	3178098301	3178118180	19879	357.84	132.85	0.00	8.23	2.12	382.75	1.00	106.58	9076.38	-9541.23	6289.75
Fixation L	1	6	3178118180	3178217661	99481	0.00	1.68	0	8	-1	12.91	12.91
Fixation R	1	6	3178118180	3178217661	99481	0.00	1.68	0	8	-1	13.49	13.49
Fixation L	1	7	3178297160	3178456281	159121	479.42	94.09	11	67	-1	13.24	13.24
Fixation R	1	7	3178297160	3178456281	159121	479.42	94.09	11	67	-1	13.49	13.49
Saccade L	1	6	3178456281	3178516027	59746	484.41	97.97	497.58	736.69	7.02	372.25	0.67	117.48	8865.89	-9040.90	5065.33
Saccade R	1	6	3178456281	3178516027	59746	484.41	97.97	497.58	736.69	7.02	372.25	0.67	117.48	8865.89	-9040.90	5065.33
Fixation L	1	8	3178516027	3178874139	358112	491.10	695.87	14	64	-1	14.04	14.04
Fixation R	1	8	3178516027	3178874139	358112	491.10	695.87	14	64	-1	14.02	14.02
Saccade L	1	7	3178874139	3178894008	19869	487.31	672.45	559.99	706.06	0.56	81.00	1.00	28.07	1937.28	-1351.12	1247.72
Saccade R	1	7	3178874139	3178894008	19869	487.31	672.45	559.99	706.06	0.56	81.00	1.00	28.07	1937.28	-1351.12	1247.72
Fixation L	1	9	3178894008	3178993375	99367	560.01	714.37	29	21	-1	13.44	13.44
Fixation R	1	9	3178894008	3178993375	99367	560.01	714.37	29	21	-1	13.36	13.36
Saccade L	1	8	3178993375	3179033276	39901	567.97	726.72	899.64	475.61	3.70	234.43	1.00	92.70	5705.02	-5504.94	5098.71
Saccade R	1	8	3178993375	3179033276	39901	567.97	726.72	899.64	475.61	3.70	234.43	1.00	92.70	5705.02	-5504.94	5098.71
Fixation L	1	10	3179033276	3179252011	218735	897.45	439.87	3	47	-1	13.26	13.26
Fixation R	1	10	3179033276	3179252011	218735	897.45	439.87	3	47	-1	13.24	13.24
Saccade L	1	9	3179252011	3179351486	99475	896.33	438.81	1100.84	165.23	4.79	170.21	1.00	48.13	4190.07	-4013.08	2561.15
Saccade R	1	9	3179252011	3179351486	99475	896.33	438.81	1100.84	165.23	4.79	170.21	1.00	48.13	4190.07	-4013.08	2561.15
Fixation L	1	11	3179351486	3179590099	238613	1099.58	199.27	11	76	-1	13.41	13.41
Fixation R	1	11	3179351486	3179590099	238613	1099.58	199.27	11	76	-1	12.84	12.84
Saccade L	1	10	3179590099	3179609967	19868	1098.80	240.39	1130.09	511.82	1.56	276.19	1.00	78.65	6783.89	-6219.79	4528.65
Saccade R	1	10	3179590099	3179609967	19868	1098.80	240.39	1130.09	511.82	1.56	276.19	1.00	78.65	6783.89	-6219.79	4528.65
Fixation L	1	12	3179609967	3179868582	258615	1151.14	551.35	28	50	-1	14.11	14.11
Fixation R	1	12	3179609967	3179868582	258615	1151.14	551.35	28	50	-1	13.25	13.25
Saccade L	1	11	3179868582	3179888454	19872	1157.79	557.19	1321.75	733.01	1.37	243.05	1.00	68.74	6064.10	-5741.41	4170.10
Saccade R	1	11	3179868582	3179888454	19872	1157.79	557.19	1321.75	733.01	1.37	243.05	1.00	68.74	6064.10	-5741.41	4170.10
Fixation L	1	13	3179888454	3180127197	238743	1302.19	758.39	27	31	-1	13.50	13.50
Fixation R	1	13	3179888454	3180127197	238743	1302.19	758.39	27	31	-1	12.80	12.80
Saccade L	1	12	3180127197	3180166952	39755	1302.74	763.64	1556.04	765.83	2.10	156.32	0.50	52.91	3855.38	-3770.28	3114.83
Saccade R	1	12	3180127197	3180166952	39755	1302.74	763.64	1556.04	765.83	2.10	156.32	0.50	52.91	3855.38	-3770.28	3114.83
Fixation L	1	14	3180166952	3180326059	159107	1555.17	788.38	9	39	-1	13.63	13.63
Fixation R	1	14	3180166952	3180326059	159107	1555.17	788.38	9	39	-1	12.63	12.63
Saccade L	1	13	3180326059	3180345929	19870	1550.71	805.61	1642.68	798.70	0.78	93.29	1.00	39.05	2233.43	-2141.85	1892.24
Saccade R	1	13	3180326059	3180345929	19870	1550.71	805.61	1642.68	798.70	0.78	93.29	1.00	39.05	2233.43	-2141.85	1892.24
Fixation L	1	15	3180345929	3180644297	298368	1606.25	802.39	54	14	-1	13.88	13.88
Fixation R	1	15	3180345929	3180644297	298368	1606.25	802.39	54	14	-1	12.78	12.78
Saccade L	1	14	3180644297	3180664167	19870	1601.92	791.71	1599.98	738.43	0.33	53.93	1.00	16.86	1286.38	-1155.70	876.28
Saccade R	1	14	3180644297	3180664167	19870	1601.92	791.71	1599.98	738.43	0.33	53.93	1.00	16.86	1286.38	-1155.70	876.28
Fixation L	1	16	3180664167	3180922789	258622	1591.38	731.76	19	18	-1	13.88	13.88
Fixation R	1	16	3180664167	3180922789	258622	1591.38	731.76	19	18	-1	12.93	12.93
