[BeGaze]
Converted from:	C:\Documents and Settings\iViewX\Desktop\EXPERIMENTATIONS\Experiments\results\finaleart\S21F22332-finaleart-1.idf
Date:	27.03.2019 15:55:21
Version:	BeGaze 2.5.77
Sample Rate:	50
Subject:	S21F22332
Description:	Cyrielle Mailart

Table Header for Fixations:
Event Type	Trial	Number	Start	End	Duration	Location X	Location Y	Dispersion X	Dispersion Y	Plane	Avg. Pupil Size X	Avg. Pupil Size Y

Table Header for Saccades:
Event Type	Trial	Number	Start	End	Duration	Start Loc.X	Start Loc.Y	End Loc.X	End Loc.Y	Amplitude	Peak Speed	Peak Speed At	Average Speed	Peak Accel.	Peak Decel.	Average Accel.

Table Header for Blinks:
Event Type	Trial	Number	Start	End	Duration

Table Header for User Events:
Event Type	Trial	Number	Start	Description

UserEvent	1	1	2567708585	# Message: Trouville_Black_Rocks_Boudin_1863.jpg
Saccade L	1	1	2567726464	2567766209	39745	910.20	497.96	935.07	365.51	1.72	134.95	1.00	43.23	3373.79	-2676.81	1706.73
Saccade R	1	1	2567726464	2567766209	39745	910.20	497.96	935.07	365.51	1.72	134.95	1.00	43.23	3373.79	-2676.81	1706.73
Fixation L	1	1	2567766209	2568183930	417721	964.40	383.85	35	45	-1	13.88	13.88
Fixation R	1	1	2567766209	2568183930	417721	964.40	383.85	35	45	-1	12.97	12.97
Saccade L	1	2	2568183930	2568223685	39755	970.66	386.19	1150.67	812.79	3.96	312.99	1.00	99.65	7727.64	-7445.71	5881.79
Saccade R	1	2	2568183930	2568223685	39755	970.66	386.19	1150.67	812.79	3.96	312.99	1.00	99.65	7727.64	-7445.71	5881.79
Fixation L	1	2	2568223685	2568343057	119372	1149.66	823.90	4	33	-1	13.40	13.40
Fixation R	1	2	2568223685	2568343057	119372	1149.66	823.90	4	33	-1	12.27	12.27
Saccade L	1	3	2568343057	2568402668	59611	1150.49	840.77	501.30	826.78	6.71	373.35	0.67	112.55	9103.09	-9196.72	5446.39
Saccade R	1	3	2568343057	2568402668	59611	1150.49	840.77	501.30	826.78	6.71	373.35	0.67	112.55	9103.09	-9196.72	5446.39
Fixation L	1	3	2568402668	2568661287	258619	494.33	821.44	12	21	-1	11.56	11.56
Fixation R	1	3	2568402668	2568661287	258619	494.33	821.44	12	21	-1	10.93	10.93
Blink L	1	1	2568661287	2568820401	159114
Blink R	1	1	2568661287	2568820401	159114
Fixation L	1	4	2568820401	2569715473	895072	1387.90	936.63	36	46	-1	13.21	13.21
Fixation R	1	4	2568820401	2569715473	895072	1387.90	936.63	36	46	-1	11.89	11.89
Saccade L	1	4	2569715473	2569755230	39757	1397.90	924.70	1483.62	1025.66	1.20	81.24	0.50	30.18	1967.88	-1759.79	1551.69
Saccade R	1	4	2569715473	2569755230	39757	1397.90	924.70	1483.62	1025.66	1.20	81.24	0.50	30.18	1967.88	-1759.79	1551.69
Fixation L	1	5	2569755230	2569973972	218742	1503.55	1034.01	26	11	-1	13.24	13.24
Fixation R	1	5	2569755230	2569973972	218742	1503.55	1034.01	26	11	-1	11.42	11.42
Saccade L	1	5	2569973972	2569993842	19870	1510.04	1034.11	1635.00	925.43	1.17	167.50	1.00	58.81	4110.55	-4028.31	3230.54
Saccade R	1	5	2569973972	2569993842	19870	1510.04	1034.11	1635.00	925.43	1.17	167.50	1.00	58.81	4110.55	-4028.31	3230.54
Fixation L	1	6	2569993842	2570232571	238729	1667.45	883.38	44	52	-1	13.35	13.35
Fixation R	1	6	2569993842	2570232571	238729	1667.45	883.38	44	52	-1	11.21	11.21
Saccade L	1	6	2570232571	2570252453	19882	1665.57	887.17	1687.28	887.92	0.26	27.35	1.00	13.03	657.79	-202.44	455.01
Saccade R	1	6	2570232571	2570252453	19882	1665.57	887.17	1687.28	887.92	0.26	27.35	1.00	13.03	657.79	-202.44	455.01
Fixation L	1	7	2570252453	2570431447	178994	1729.62	884.30	52	8	-1	13.03	13.03
Fixation R	1	7	2570252453	2570431447	178994	1729.62	884.30	52	8	-1	11.27	11.27
Saccade L	1	7	2570431447	2570511065	79618	1740.14	879.17	682.16	890.52	12.27	341.29	0.50	154.13	8475.00	-7768.84	5411.62
Saccade R	1	7	2570431447	2570511065	79618	1740.14	879.17	682.16	890.52	12.27	341.29	0.50	154.13	8475.00	-7768.84	5411.62
Fixation L	1	8	2570511065	2570650305	139240	665.84	887.12	41	15	-1	13.52	13.52
Fixation R	1	8	2570511065	2570650305	139240	665.84	887.12	41	15	-1	11.53	11.53
Saccade L	1	8	2570650305	2570670172	19867	640.75	876.27	508.97	764.04	1.11	175.05	1.00	55.64	4222.46	-4155.46	2829.21
Saccade R	1	8	2570650305	2570670172	19867	640.75	876.27	508.97	764.04	1.11	175.05	1.00	55.64	4222.46	-4155.46	2829.21
Fixation L	1	9	2570670172	2571326516	656344	501.49	775.35	63	28	-1	12.88	12.88
Fixation R	1	9	2570670172	2571326516	656344	501.49	775.35	63	28	-1	11.90	11.90
Saccade L	1	9	2571326516	2571346414	19898	475.55	792.27	667.76	841.45	1.25	200.63	1.00	62.70	4911.64	-4527.43	3430.71
Saccade R	1	9	2571326516	2571346414	19898	475.55	792.27	667.76	841.45	1.25	200.63	1.00	62.70	4911.64	-4527.43	3430.71
Fixation L	1	10	2571346414	2571624876	278462	647.59	837.69	29	63	-1	13.31	13.31
Fixation R	1	10	2571346414	2571624876	278462	647.59	837.69	29	63	-1	12.39	12.39
Saccade L	1	10	2571624876	2571704372	79496	637.88	788.36	484.24	753.68	3.40	142.86	1.00	42.80	3479.17	-1374.98	1309.17
Saccade R	1	10	2571624876	2571704372	79496	637.88	788.36	484.24	753.68	3.40	142.86	1.00	42.80	3479.17	-1374.98	1309.17
