[BeGaze]
Converted from:	C:\Documents and Settings\iViewX\Desktop\EXPERIMENTATIONS\Experiments\results\finaleart\S21F22332-finaleart-1.idf
Date:	27.03.2019 15:55:52
Version:	BeGaze 2.5.77
Sample Rate:	50
Subject:	S21F22332
Description:	Cyrielle Mailart

Table Header for Fixations:
Event Type	Trial	Number	Start	End	Duration	Location X	Location Y	Dispersion X	Dispersion Y	Plane	Avg. Pupil Size X	Avg. Pupil Size Y

Table Header for Saccades:
Event Type	Trial	Number	Start	End	Duration	Start Loc.X	Start Loc.Y	End Loc.X	End Loc.Y	Amplitude	Peak Speed	Peak Speed At	Average Speed	Peak Accel.	Peak Decel.	Average Accel.

Table Header for Blinks:
Event Type	Trial	Number	Start	End	Duration

Table Header for User Events:
Event Type	Trial	Number	Start	Description

UserEvent	1	1	2841405285	# Message: avenue_of_trees_in_a_small_town_sisley_1866.jpg
Fixation L	1	1	2841422587	2841582005	159418	896.06	514.70	10	7	-1	12.87	12.87
Fixation R	1	1	2841422587	2841582005	159418	896.06	514.70	10	7	-1	12.32	12.32
Blink L	1	1	2841582005	2841740810	158805
Blink R	1	1	2841582005	2841740810	158805
Fixation L	1	2	2841740810	2841959545	218735	909.75	503.12	8	25	-1	13.70	13.70
Fixation R	1	2	2841740810	2841959545	218735	909.75	503.12	8	25	-1	12.19	12.19
Saccade L	1	1	2841959545	2841979541	19996	909.60	493.89	736.56	542.48	1.01	181.76	1.00	50.70	4508.93	-3999.43	2937.94
Saccade R	1	1	2841959545	2841979541	19996	909.60	493.89	736.56	542.48	1.01	181.76	1.00	50.70	4508.93	-3999.43	2937.94
Fixation L	1	3	2841979541	2842178419	198878	729.42	586.34	10	64	-1	13.23	13.23
Fixation R	1	3	2841979541	2842178419	198878	729.42	586.34	10	64	-1	11.65	11.65
Saccade L	1	2	2842178419	2842198294	19875	729.17	606.49	677.44	597.73	0.42	53.07	1.00	21.33	1178.95	-60.25	619.84
Saccade R	1	2	2842178419	2842198294	19875	729.17	606.49	677.44	597.73	0.42	53.07	1.00	21.33	1178.95	-60.25	619.84
Fixation L	1	4	2842198294	2842317651	119357	666.28	540.33	19	80	-1	12.59	12.59
Fixation R	1	4	2842198294	2842317651	119357	666.28	540.33	19	80	-1	11.15	11.15
Saccade L	1	3	2842317651	2842397151	79500	663.04	519.03	574.60	233.54	3.75	236.63	0.75	47.20	5784.39	-5419.01	2381.02
Saccade R	1	3	2842317651	2842397151	79500	663.04	519.03	574.60	233.54	3.75	236.63	0.75	47.20	5784.39	-5419.01	2381.02
Fixation L	1	5	2842397151	2842655758	258607	568.07	226.57	10	43	-1	12.71	12.71
Fixation R	1	5	2842397151	2842655758	258607	568.07	226.57	10	43	-1	11.58	11.58
Saccade L	1	4	2842655758	2842715383	59625	563.84	224.44	927.19	795.11	7.29	330.93	0.67	122.23	8219.74	-7341.68	5349.01
Saccade R	1	4	2842655758	2842715383	59625	563.84	224.44	927.19	795.11	7.29	330.93	0.67	122.23	8219.74	-7341.68	5349.01
Fixation L	1	6	2842715383	2842914379	198996	892.10	819.42	44	40	-1	13.41	13.41
Fixation R	1	6	2842715383	2842914379	198996	892.10	819.42	44	40	-1	12.36	12.36
Saccade L	1	5	2842914379	2842934250	19871	890.77	831.93	991.52	840.09	0.79	102.24	1.00	39.68	2191.94	-2400.07	1703.33
Saccade R	1	5	2842914379	2842934250	19871	890.77	831.93	991.52	840.09	0.79	102.24	1.00	39.68	2191.94	-2400.07	1703.33
Fixation L	1	7	2842934250	2843093362	159112	985.47	883.49	14	64	-1	13.50	13.50
Fixation R	1	7	2842934250	2843093362	159112	985.47	883.49	14	64	-1	12.24	12.24
Saccade L	1	6	2843093362	2843133119	39757	982.79	904.39	476.46	917.02	4.25	367.51	0.50	106.82	9059.38	-9071.47	6218.93
Saccade R	1	6	2843093362	2843133119	39757	982.79	904.39	476.46	917.02	4.25	367.51	0.50	106.82	9059.38	-9071.47	6218.93
Fixation L	1	8	2843133119	2843471224	338105	448.15	934.30	74	25	-1	13.84	13.84
Fixation R	1	8	2843133119	2843471224	338105	448.15	934.30	74	25	-1	12.43	12.43
Saccade L	1	7	2843471224	2843491096	19872	408.56	938.47	408.33	936.04	0.06	4.77	0.00	2.93	-4.85	-73.63	39.53
Saccade R	1	7	2843471224	2843491096	19872	408.56	938.47	408.33	936.04	0.06	4.77	0.00	2.93	-4.85	-73.63	39.53
Fixation L	1	9	2843491096	2843670214	179118	405.44	933.42	5	6	-1	13.63	13.63
Fixation R	1	9	2843491096	2843670214	179118	405.44	933.42	5	6	-1	12.43	12.43
Saccade L	1	8	2843670214	2843729834	59620	408.52	935.02	1067.39	909.98	6.85	263.75	0.67	114.84	6535.20	-6223.13	5028.49
Saccade R	1	8	2843670214	2843729834	59620	408.52	935.02	1067.39	909.98	6.85	263.75	0.67	114.84	6535.20	-6223.13	5028.49
Fixation L	1	10	2843729834	2844107690	377856	1045.09	891.34	48	33	-1	13.82	13.82
Fixation R	1	10	2843729834	2844107690	377856	1045.09	891.34	48	33	-1	12.57	12.57
Saccade L	1	9	2844107690	2844127687	19997	1018.78	880.19	1110.75	873.21	0.57	93.30	1.00	28.69	2257.80	-2117.24	1492.44
Saccade R	1	9	2844107690	2844127687	19997	1018.78	880.19	1110.75	873.21	0.57	93.30	1.00	28.69	2257.80	-2117.24	1492.44
Fixation L	1	11	2844127687	2845042513	914826	1108.77	839.82	34	47	-1	14.09	14.09
Fixation R	1	11	2844127687	2845042513	914826	1108.77	839.82	34	47	-1	12.61	12.61
Saccade L	1	10	2845042513	2845082385	39872	1097.67	834.99	1499.75	787.03	3.47	223.60	1.00	87.03	5551.59	-5182.19	4879.35
Saccade R	1	10	2845042513	2845082385	39872	1097.67	834.99	1499.75	787.03	3.47	223.60	1.00	87.03	5551.59	-5182.19	4879.35
Fixation L	1	12	2845082385	2845380741	298356	1525.93	748.41	36	49	-1	13.59	13.59
Fixation R	1	12	2845082385	2845380741	298356	1525.93	748.41	36	49	-1	11.89	11.89
Saccade L	1	11	2845380741	2845400621	19880	1531.53	741.13	1574.58	730.88	0.33	44.77	1.00	16.83	1088.23	0.00	544.12
Saccade R	1	11	2845380741	2845400621	19880	1531.53	741.13	1574.58	730.88	0.33	44.77	1.00	16.83	1088.23	0.00	544.12
