[BeGaze]
Converted from:	C:\Documents and Settings\iViewX\Desktop\EXPERIMENTATIONS\Experiments\results\finaleart\S21F22332-finaleart-1.idf
Date:	27.03.2019 15:55:46
Version:	BeGaze 2.5.77
Sample Rate:	50
Subject:	S21F22332
Description:	Cyrielle Mailart

Table Header for Fixations:
Event Type	Trial	Number	Start	End	Duration	Location X	Location Y	Dispersion X	Dispersion Y	Plane	Avg. Pupil Size X	Avg. Pupil Size Y

Table Header for Saccades:
Event Type	Trial	Number	Start	End	Duration	Start Loc.X	Start Loc.Y	End Loc.X	End Loc.Y	Amplitude	Peak Speed	Peak Speed At	Average Speed	Peak Accel.	Peak Decel.	Average Accel.

Table Header for Blinks:
Event Type	Trial	Number	Start	End	Duration

Table Header for User Events:
Event Type	Trial	Number	Start	Description

UserEvent	1	1	2804737960	# Message: Odalisque_Matisse.jpg
Saccade L	1	1	2804745491	2804825134	79643	1034.41	872.48	1034.64	892.91	4.62	327.17	1.00	58.05	8103.31	-201.78	2150.27
Saccade R	1	1	2804745491	2804825134	79643	1034.41	872.48	1034.64	892.91	4.62	327.17	1.00	58.05	8103.31	-201.78	2150.27
Blink L	1	1	2804825134	2805083716	258582
Blink R	1	1	2804825134	2805083716	258582
Blink L	1	2	2805083716	2805183088	99372
Blink R	1	2	2805083716	2805183088	99372
Fixation L	1	1	2805183088	2805282603	99515	1123.22	749.86	4	8	-1	13.25	13.25
Fixation R	1	1	2805183088	2805282603	99515	1123.22	749.86	4	8	-1	11.83	11.83
Saccade L	1	2	2805282603	2805322349	39746	1121.34	745.90	683.11	547.48	3.98	364.06	0.50	100.25	9088.82	-8952.46	6025.93
Saccade R	1	2	2805282603	2805322349	39746	1121.34	745.90	683.11	547.48	3.98	364.06	0.50	100.25	9088.82	-8952.46	6025.93
Fixation L	1	2	2805322349	2805461573	139224	684.79	537.71	7	22	-1	12.78	12.78
Fixation R	1	2	2805322349	2805461573	139224	684.79	537.71	7	22	-1	11.45	11.45
Saccade L	1	3	2805461573	2805481450	19877	681.15	536.19	560.05	334.13	1.29	238.17	1.00	64.77	5894.87	-4579.90	3641.85
Saccade R	1	3	2805461573	2805481450	19877	681.15	536.19	560.05	334.13	1.29	238.17	1.00	64.77	5894.87	-4579.90	3641.85
Fixation L	1	3	2805481450	2805759937	278487	539.35	325.77	30	53	-1	12.61	12.61
Fixation R	1	3	2805481450	2805759937	278487	539.35	325.77	30	53	-1	11.85	11.85
Saccade L	1	4	2805759937	2805779808	19871	529.87	336.53	723.69	320.52	1.15	196.66	1.00	57.81	4653.37	-4756.05	3173.08
Saccade R	1	4	2805759937	2805779808	19871	529.87	336.53	723.69	320.52	1.15	196.66	1.00	57.81	4653.37	-4756.05	3173.08
Fixation L	1	4	2805779808	2806157796	377988	731.23	312.57	11	20	-1	13.66	13.66
Fixation R	1	4	2805779808	2806157796	377988	731.23	312.57	11	20	-1	12.99	12.99
Saccade L	1	5	2806157796	2806197540	39744	729.80	315.07	436.31	950.69	6.14	484.19	0.50	154.59	12057.87	-10553.90	8397.90
Saccade R	1	5	2806157796	2806197540	39744	729.80	315.07	436.31	950.69	6.14	484.19	0.50	154.59	12057.87	-10553.90	8397.90
Fixation L	1	5	2806197540	2806356656	159116	425.06	1013.97	18	80	-1	14.87	14.87
Fixation R	1	5	2806197540	2806356656	159116	425.06	1013.97	18	80	-1	14.18	14.18
Saccade L	1	6	2806356656	2806376525	19869	421.83	1031.52	422.14	1032.82	0.07	8.59	1.00	3.35	34.89	-180.82	81.35
Saccade R	1	6	2806356656	2806376525	19869	421.83	1031.52	422.14	1032.82	0.07	8.59	1.00	3.35	34.89	-180.82	81.35
Fixation L	1	6	2806376525	2806794257	417732	411.68	1063.31	25	57	-1	14.68	14.68
Fixation R	1	6	2806376525	2806794257	417732	411.68	1063.31	25	57	-1	14.27	14.27
Saccade L	1	7	2806794257	2806834007	39750	399.26	1088.60	943.27	1060.38	4.56	406.99	0.50	114.60	10141.59	-9720.22	6657.69
Saccade R	1	7	2806794257	2806834007	39750	399.26	1088.60	943.27	1060.38	4.56	406.99	0.50	114.60	10141.59	-9720.22	6657.69
Fixation L	1	7	2806834007	2806953374	119367	944.03	1029.56	8	44	-1	15.29	15.29
Fixation R	1	7	2806834007	2806953374	119367	944.03	1029.56	8	44	-1	14.90	14.90
Saccade L	1	8	2806953374	2806993135	39761	948.33	1016.23	1020.46	858.00	1.55	121.20	0.50	38.91	2978.73	-2753.01	2077.90
Saccade R	1	8	2806953374	2806993135	39761	948.33	1016.23	1020.46	858.00	1.55	121.20	0.50	38.91	2978.73	-2753.01	2077.90
Fixation L	1	8	2806993135	2807092610	99475	1032.34	848.95	19	16	-1	15.04	15.04
Fixation R	1	8	2806993135	2807092610	99475	1032.34	848.95	19	16	-1	14.80	14.80
Saccade L	1	9	2807092610	2807112493	19883	1039.57	844.65	1092.78	726.92	0.74	130.68	1.00	37.04	3198.64	-2846.30	2074.34
Saccade R	1	9	2807092610	2807112493	19883	1039.57	844.65	1092.78	726.92	0.74	130.68	1.00	37.04	3198.64	-2846.30	2074.34
Fixation L	1	9	2807112493	2807351096	238603	1093.78	725.18	10	79	-1	14.70	14.70
Fixation R	1	9	2807112493	2807351096	238603	1093.78	725.18	10	79	-1	13.66	13.66
Saccade L	1	10	2807351096	2807370979	19883	1096.73	728.57	1094.03	494.29	1.62	236.89	1.00	81.63	5366.76	-5639.23	3831.94
Saccade R	1	10	2807351096	2807370979	19883	1096.73	728.57	1094.03	494.29	1.62	236.89	1.00	81.63	5366.76	-5639.23	3831.94
Fixation L	1	10	2807370979	2807609712	238733	1090.45	520.92	36	59	-1	14.27	14.27
Fixation R	1	10	2807370979	2807609712	238733	1090.45	520.92	36	59	-1	12.99	12.99
Saccade L	1	11	2807609712	2807629590	19878	1117.95	554.00	1136.31	558.70	0.31	24.01	0.00	15.63	77.69	-518.43	244.87
Saccade R	1	11	2807609712	2807629590	19878	1117.95	554.00	1136.31	558.70	0.31	24.01	0.00	15.63	77.69	-518.43	244.87
Fixation L	1	11	2807629590	2807729084	99494	1138.84	565.96	6	15	-1	14.28	14.28
Fixation R	1	11	2807629590	2807729084	99494	1138.84	565.96	6	15	-1	12.95	12.95
Saccade L	1	12	2807729084	2807848321	119237	1141.43	567.13	1145.25	207.37	4.98	154.60	0.17	41.78	3733.94	-3772.65	2013.99
Saccade R	1	12	2807729084	2807848321	119237	1141.43	567.13	1145.25	207.37	4.98	154.60	0.17	41.78	3733.94	-3772.65	2013.99
Fixation L	1	12	2807848321	2808007439	159118	1132.87	211.89	21	20	-1	14.22	14.22
Fixation R	1	12	2807848321	2808007439	159118	1132.87	211.89	21	20	-1	13.14	13.14
Saccade L	1	13	2808007439	2808047314	39875	1123.39	212.64	1352.65	733.99	5.15	346.16	0.50	129.25	8446.30	-8113.87	7199.41
Saccade R	1	13	2808007439	2808047314	39875	1123.39	212.64	1352.65	733.99	5.15	346.16	0.50	129.25	8446.30	-8113.87	7199.41
Fixation L	1	13	2808047314	2808266054	218740	1371.92	727.38	24	15	-1	15.02	15.02
Fixation R	1	13	2808047314	2808266054	218740	1371.92	727.38	24	15	-1	13.57	13.57
Saccade L	1	14	2808266054	2808285925	19871	1374.13	727.94	1382.57	574.25	0.86	155.67	1.00	43.23	3881.41	-3630.94	2620.22
Saccade R	1	14	2808266054	2808285925	19871	1374.13	727.94	1382.57	574.25	0.86	155.67	1.00	43.23	3881.41	-3630.94	2620.22
Fixation L	1	14	2808285925	2808484918	198993	1405.07	583.63	38	15	-1	14.38	14.38
Fixation R	1	14	2808285925	2808484918	198993	1405.07	583.63	38	15	-1	13.04	13.04
Saccade L	1	15	2808484918	2808504798	19880	1421.56	579.97	1563.38	580.21	0.81	143.44	1.00	40.94	3557.00	-3517.71	2458.56
Saccade R	1	15	2808484918	2808504798	19880	1421.56	579.97	1563.38	580.21	0.81	143.44	1.00	40.94	3557.00	-3517.71	2458.56
Fixation L	1	15	2808504798	2808723533	218735	1542.37	578.31	28	7	-1	14.22	14.22
Fixation R	1	15	2808504798	2808723533	218735	1542.37	578.31	28	7	-1	12.99	12.99
