[BeGaze]
Converted from:	C:\Documents and Settings\iViewX\Desktop\EXPERIMENTATIONS\Experiments\results\finaleart\S21F22332-finaleart-1.idf
Date:	27.03.2019 15:55:41
Version:	BeGaze 2.5.77
Sample Rate:	50
Subject:	S21F22332
Description:	Cyrielle Mailart

Table Header for Fixations:
Event Type	Trial	Number	Start	End	Duration	Location X	Location Y	Dispersion X	Dispersion Y	Plane	Avg. Pupil Size X	Avg. Pupil Size Y

Table Header for Saccades:
Event Type	Trial	Number	Start	End	Duration	Start Loc.X	Start Loc.Y	End Loc.X	End Loc.Y	Amplitude	Peak Speed	Peak Speed At	Average Speed	Peak Accel.	Peak Decel.	Average Accel.

Table Header for Blinks:
Event Type	Trial	Number	Start	End	Duration

Table Header for User Events:
Event Type	Trial	Number	Start	Description

UserEvent	1	1	2768133015	# Message: Niagara_Falls_Hale_1902.jpg
Fixation L	1	1	2768145020	2768403504	258484	974.77	652.18	75	21	-1	13.76	13.76
Fixation R	1	1	2768145020	2768403504	258484	974.77	652.18	75	21	-1	13.21	13.21
Saccade L	1	1	2768403504	2768423505	20001	918.58	655.08	907.57	652.55	0.53	75.22	1.00	26.61	121.14	-1594.91	637.65
Saccade R	1	1	2768403504	2768423505	20001	918.58	655.08	907.57	652.55	0.53	75.22	1.00	26.61	121.14	-1594.91	637.65
Fixation L	1	2	2768423505	2768602503	178998	903.73	668.23	7	25	-1	13.53	13.53
Fixation R	1	2	2768423505	2768602503	178998	903.73	668.23	7	25	-1	12.90	12.90
Saccade L	1	2	2768602503	2768642253	39750	903.97	672.88	794.87	372.48	2.92	183.29	0.50	73.38	4559.12	-3676.79	3759.93
Saccade R	1	2	2768602503	2768642253	39750	903.97	672.88	794.87	372.48	2.92	183.29	0.50	73.38	4559.12	-3676.79	3759.93
Fixation L	1	3	2768642253	2768821233	178980	797.67	384.69	12	60	-1	12.36	12.36
Fixation R	1	3	2768642253	2768821233	178980	797.67	384.69	12	60	-1	11.69	11.69
Saccade L	1	3	2768821233	2768841106	19873	790.83	349.56	795.72	52.26	1.81	300.52	1.00	90.87	7397.76	-7038.12	4816.80
Saccade R	1	3	2768821233	2768841106	19873	790.83	349.56	795.72	52.26	1.81	300.52	1.00	90.87	7397.76	-7038.12	4816.80
Fixation L	1	4	2768841106	2769000229	159123	823.72	28.09	42	37	-1	11.45	11.45
Fixation R	1	4	2768841106	2769000229	159123	823.72	28.09	42	37	-1	10.93	10.93
Saccade L	1	4	2769000229	2769020097	19868	838.17	26.13	617.16	18.26	1.41	223.60	1.00	70.74	5296.47	-5489.51	3909.39
Saccade R	1	4	2769000229	2769020097	19868	838.17	26.13	617.16	18.26	1.41	223.60	1.00	70.74	5296.47	-5489.51	3909.39
Fixation L	1	5	2769020097	2769238959	218862	572.11	19.57	56	23	-1	11.01	11.01
Fixation R	1	5	2769020097	2769238959	218862	572.11	19.57	56	23	-1	10.54	10.54
Saccade L	1	5	2769238959	2769258831	19872	562.50	20.77	498.41	82.81	0.78	90.24	1.00	39.37	2148.14	-2116.20	1911.24
Saccade R	1	5	2769238959	2769258831	19872	562.50	20.77	498.41	82.81	0.78	90.24	1.00	39.37	2148.14	-2116.20	1911.24
Fixation L	1	6	2769258831	2769497450	238619	473.42	40.93	31	63	-1	10.86	10.86
Fixation R	1	6	2769258831	2769497450	238619	473.42	40.93	31	63	-1	10.96	10.96
Saccade L	1	6	2769497450	2769517450	20000	471.35	75.76	452.47	127.39	0.53	55.62	1.00	26.46	1230.08	-375.35	674.59
Saccade R	1	6	2769497450	2769517450	20000	471.35	75.76	452.47	127.39	0.53	55.62	1.00	26.46	1230.08	-375.35	674.59
Fixation L	1	7	2769517450	2769636696	119246	434.19	107.68	36	50	-1	11.01	11.01
Fixation R	1	7	2769517450	2769636696	119246	434.19	107.68	36	50	-1	11.98	11.98
Saccade L	1	7	2769636696	2769696445	59749	415.76	98.14	939.77	7.22	6.34	290.02	0.67	106.03	6845.38	-6009.17	4838.55
Saccade R	1	7	2769636696	2769696445	59749	415.76	98.14	939.77	7.22	6.34	290.02	0.67	106.03	6845.38	-6009.17	4838.55
Fixation L	1	8	2769696445	2770034540	338095	975.50	-12.37	48	43	-1	11.80	11.80
Fixation R	1	8	2769696445	2770034540	338095	975.50	-12.37	48	43	-1	11.76	11.76
Saccade L	1	8	2770034540	2770074294	39754	972.06	-13.89	1102.22	102.34	1.87	115.20	0.50	47.07	2644.09	-2576.41	2469.39
Saccade R	1	8	2770034540	2770074294	39754	972.06	-13.89	1102.22	102.34	1.87	115.20	0.50	47.07	2644.09	-2576.41	2469.39
Fixation L	1	9	2770074294	2770352776	278482	1109.74	89.76	10	37	-1	11.78	11.78
Fixation R	1	9	2770074294	2770352776	278482	1109.74	89.76	10	37	-1	11.70	11.70
Saccade L	1	9	2770352776	2770412394	59618	1111.75	85.39	611.93	60.81	5.64	217.44	0.67	94.59	5373.09	-4180.37	3712.01
Saccade R	1	9	2770352776	2770412394	59618	1111.75	85.39	611.93	60.81	5.64	217.44	0.67	94.59	5373.09	-4180.37	3712.01
Fixation L	1	10	2770412394	2770651146	238752	605.80	17.77	12	66	-1	11.83	11.83
Fixation R	1	10	2770412394	2770651146	238752	605.80	17.77	12	66	-1	11.71	11.71
Saccade L	1	10	2770651146	2770671011	19865	599.31	8.86	468.64	43.63	0.84	136.77	1.00	42.39	3036.42	-3138.82	2090.07
Saccade R	1	10	2770651146	2770671011	19865	599.31	8.86	468.64	43.63	0.84	136.77	1.00	42.39	3036.42	-3138.82	2090.07
Fixation L	1	11	2770671011	2770770517	99506	461.94	55.62	13	38	-1	11.53	11.53
Fixation R	1	11	2770671011	2770770517	99506	461.94	55.62	13	38	-1	11.76	11.76
Saccade L	1	11	2770770517	2770830125	59608	464.04	78.74	1030.48	8.67	6.17	266.06	0.67	103.53	6381.71	-6296.32	4938.66
Saccade R	1	11	2770770517	2770830125	59608	464.04	78.74	1030.48	8.67	6.17	266.06	0.67	103.53	6381.71	-6296.32	4938.66
Fixation L	1	12	2770830125	2771029006	198881	1028.12	-46.20	14	80	-1	12.02	12.02
Fixation R	1	12	2770830125	2771029006	198881	1028.12	-46.20	14	80	-1	11.91	11.91
Saccade L	1	12	2771029006	2771108616	79610	1028.26	-69.98	0.00	-9.93	23.90	1026.36	1.00	300.22	25365.50	-25429.69	13517.76
Saccade R	1	12	2771029006	2771108616	79610	1028.26	-69.98	0.00	-9.93	23.90	1026.36	1.00	300.22	25365.50	-25429.69	13517.76
Blink L	1	1	2771108616	2771188122	79506
Blink R	1	1	2771108616	2771188122	79506
Saccade L	1	13	2771188122	2771267727	79605	0.00	-1.66	533.43	964.28	50.39	1323.37	0.50	633.03	33029.38	-28669.80	25004.93
Saccade R	1	13	2771188122	2771207982	19860	0.00	-1.66	0.00	-1.17	11.77	1323.37	1.00	592.57	33029.38	-26092.71	29483.87
Blink R	1	2	2771207982	2771307478	99496
Fixation L	1	13	2771267727	2771884326	616599	543.69	932.00	32	65	-1	13.81	13.81
Fixation R	1	13	2771307478	2771884326	576848	543.77	930.50	32	65	-1	13.13	13.13
Saccade L	1	14	2771884326	2771943942	59616	527.96	902.39	1012.41	466.13	7.08	246.55	1.00	118.71	5645.85	-5905.99	4508.77
Saccade R	1	14	2771884326	2771943942	59616	527.96	902.39	1012.41	466.13	7.08	246.55	1.00	118.71	5645.85	-5905.99	4508.77
Fixation L	1	14	2771943942	2772122938	178996	1031.36	436.56	30	45	-1	13.15	13.15
Fixation R	1	14	2771943942	2772122938	178996	1031.36	436.56	30	45	-1	12.75	12.75
