[BeGaze]
Converted from:	C:\Documents and Settings\iViewX\Desktop\EXPERIMENTATIONS\Experiments\results\finaleart\S21F22332-finaleart-1.idf
Date:	27.03.2019 15:56:28
Version:	BeGaze 2.5.77
Sample Rate:	50
Subject:	S21F22332
Description:	Cyrielle Mailart

Table Header for Fixations:
Event Type	Trial	Number	Start	End	Duration	Location X	Location Y	Dispersion X	Dispersion Y	Plane	Avg. Pupil Size X	Avg. Pupil Size Y

Table Header for Saccades:
Event Type	Trial	Number	Start	End	Duration	Start Loc.X	Start Loc.Y	End Loc.X	End Loc.Y	Amplitude	Peak Speed	Peak Speed At	Average Speed	Peak Accel.	Peak Decel.	Average Accel.

Table Header for Blinks:
Event Type	Trial	Number	Start	End	Duration

Table Header for User Events:
Event Type	Trial	Number	Start	Description

UserEvent	1	1	3201512261	# Message: the_three_skulls_gericault_1814.jpg
Fixation L	1	1	3201528715	3201966305	437590	976.56	554.53	42	22	-1	12.67	12.67
Fixation R	1	1	3201528715	3201966305	437590	976.56	554.53	42	22	-1	11.54	11.54
Saccade L	1	1	3201966305	3201986193	19888	987.30	568.10	777.82	573.80	1.09	211.90	1.00	54.93	5277.21	-4922.70	3404.00
Saccade R	1	1	3201966305	3201986193	19888	987.30	568.10	777.82	573.80	1.09	211.90	1.00	54.93	5277.21	-4922.70	3404.00
Fixation L	1	2	3201986193	3202145297	159104	763.69	581.05	25	13	-1	12.78	12.78
Fixation R	1	2	3201986193	3202145297	159104	763.69	581.05	25	13	-1	11.83	11.83
Saccade L	1	2	3202145297	3202185168	39871	756.07	576.70	325.79	516.28	3.66	291.83	0.50	91.76	7202.90	-7073.95	5173.14
Saccade R	1	2	3202145297	3202185168	39871	756.07	576.70	325.79	516.28	3.66	291.83	0.50	91.76	7202.90	-7073.95	5173.14
Fixation L	1	3	3202185168	3202384053	198885	344.34	521.57	28	30	-1	12.72	12.72
Fixation R	1	3	3202185168	3202384053	198885	344.34	521.57	28	30	-1	12.07	12.07
Saccade L	1	3	3202384053	3202403913	19860	353.83	516.21	357.03	396.12	0.79	121.51	1.00	39.65	2940.83	-2446.91	2012.67
Saccade R	1	3	3202384053	3202403913	19860	353.83	516.21	357.03	396.12	0.79	121.51	1.00	39.65	2940.83	-2446.91	2012.67
Fixation L	1	4	3202403913	3202742016	338103	374.24	391.86	27	57	-1	13.72	13.72
Fixation R	1	4	3202403913	3202742016	338103	374.24	391.86	27	57	-1	13.07	13.07
Saccade L	1	4	3202742016	3202761892	19876	384.13	402.49	321.55	413.37	0.57	64.25	1.00	28.89	1316.86	-1244.44	1090.84
Saccade R	1	4	3202742016	3202761892	19876	384.13	402.49	321.55	413.37	0.57	64.25	1.00	28.89	1316.86	-1244.44	1090.84
Fixation L	1	5	3202761892	3202881264	119372	346.05	416.46	36	21	-1	14.14	14.14
Fixation R	1	5	3202761892	3202881264	119372	346.05	416.46	36	21	-1	13.46	13.46
Saccade L	1	5	3202881264	3202940881	59617	357.87	425.75	1037.34	686.86	7.74	358.84	0.67	129.82	8534.48	-8645.58	5447.81
Saccade R	1	5	3202881264	3202940881	59617	357.87	425.75	1037.34	686.86	7.74	358.84	0.67	129.82	8534.48	-8645.58	5447.81
Fixation L	1	6	3202940881	3203239244	298363	1034.42	670.57	9	21	-1	14.73	14.73
Fixation R	1	6	3202940881	3203239244	298363	1034.42	670.57	9	21	-1	13.93	13.93
Saccade L	1	6	3203239244	3203259117	19873	1037.83	664.97	1101.65	802.65	0.89	153.48	1.00	44.98	3816.63	-3390.93	2604.05
Saccade R	1	6	3203239244	3203259117	19873	1037.83	664.97	1101.65	802.65	0.89	153.48	1.00	44.98	3816.63	-3390.93	2604.05
Fixation L	1	7	3203259117	3203716589	457472	1101.74	786.48	60	37	-1	14.88	14.88
Fixation R	1	7	3203259117	3203716589	457472	1101.74	786.48	60	37	-1	13.68	13.68
Saccade L	1	7	3203716589	3203736463	19874	1133.89	804.06	1138.16	809.41	0.17	20.54	1.00	8.34	29.29	-340.48	131.04
Saccade R	1	7	3203716589	3203736463	19874	1133.89	804.06	1138.16	809.41	0.17	20.54	1.00	8.34	29.29	-340.48	131.04
Fixation L	1	8	3203736463	3203855832	119369	1140.91	804.92	15	64	-1	15.61	15.61
Fixation R	1	8	3203736463	3203855832	119369	1140.91	804.92	15	64	-1	14.14	14.14
Saccade L	1	8	3203855832	3203875705	19873	1130.96	753.14	1057.14	523.68	1.71	243.70	1.00	86.06	6059.50	-5870.16	4276.17
Saccade R	1	8	3203855832	3203875705	19873	1130.96	753.14	1057.14	523.68	1.71	243.70	1.00	86.06	6059.50	-5870.16	4276.17
Fixation L	1	9	3203875705	3204134319	258614	1038.14	544.35	22	30	-1	15.51	15.51
Fixation R	1	9	3203875705	3204134319	258614	1038.14	544.35	22	30	-1	14.02	14.02
Saccade L	1	9	3204134319	3204154192	19873	1040.27	554.19	1357.08	556.49	1.81	320.17	1.00	91.00	7903.44	-7544.01	5364.13
Saccade R	1	9	3204134319	3204154192	19873	1040.27	554.19	1357.08	556.49	1.81	320.17	1.00	91.00	7903.44	-7544.01	5364.13
Fixation L	1	10	3204154192	3204293436	139244	1384.65	601.01	36	63	-1	15.68	15.68
Fixation R	1	10	3204154192	3204293436	139244	1384.65	601.01	36	63	-1	14.10	14.10
Saccade L	1	10	3204293436	3204313306	19870	1392.61	618.28	1393.27	620.18	0.10	8.01	1.00	4.96	-12.16	-149.33	78.75
Saccade R	1	10	3204293436	3204313306	19870	1392.61	618.28	1393.27	620.18	0.10	8.01	1.00	4.96	-12.16	-149.33	78.75
Fixation L	1	11	3204313306	3204532172	218866	1397.89	625.31	9	8	-1	15.86	15.86
Fixation R	1	11	3204313306	3204532172	218866	1397.89	625.31	9	8	-1	14.10	14.10
Saccade L	1	11	3204532172	3204571918	39746	1403.01	627.15	1689.64	956.36	3.85	344.08	0.50	96.89	8576.42	-8373.81	5774.67
Saccade R	1	11	3204532172	3204571918	39746	1403.01	627.15	1689.64	956.36	3.85	344.08	0.50	96.89	8576.42	-8373.81	5774.67
Fixation L	1	12	3204571918	3204770787	198869	1697.48	946.76	11	72	-1	15.73	15.73
Fixation R	1	12	3204571918	3204770787	198869	1697.48	946.76	11	72	-1	13.73	13.73
Saccade L	1	12	3204770787	3204790652	19865	1701.63	883.58	1711.72	604.93	1.77	281.84	1.00	88.87	7025.19	-6825.72	5206.12
Saccade R	1	12	3204770787	3204790652	19865	1701.63	883.58	1711.72	604.93	1.77	281.84	1.00	88.87	7025.19	-6825.72	5206.12
Fixation L	1	13	3204790652	3205228259	437607	1721.10	618.97	35	63	-1	15.54	15.54
Fixation R	1	13	3204790652	3205228259	437607	1721.10	618.97	35	63	-1	13.25	13.25
Saccade L	1	13	3205228259	3205248141	19882	1745.39	659.98	1746.35	670.23	0.15	10.42	1.00	7.61	100.15	-150.33	112.01
Saccade R	1	13	3205228259	3205248141	19882	1745.39	659.98	1746.35	670.23	0.15	10.42	1.00	7.61	100.15	-150.33	112.01
Fixation L	1	14	3205248141	3205446994	198853	1747.98	678.92	6	18	-1	15.81	15.81
Fixation R	1	14	3205248141	3205446994	198853	1747.98	678.92	6	18	-1	13.59	13.59
Saccade L	1	14	3205446994	3205506751	59757	1744.16	687.43	1675.46	517.68	2.36	172.70	0.33	39.45	4292.34	-4008.22	2117.61
Saccade R	1	14	3205446994	3205506751	59757	1744.16	687.43	1675.46	517.68	2.36	172.70	0.33	39.45	4292.34	-4008.22	2117.61
