[BeGaze]
Converted from:	C:\Documents and Settings\iViewX\Desktop\EXPERIMENTATIONS\Experiments\results\finaleart\S21F22332-finaleart-1.idf
Date:	27.03.2019 15:55:29
Version:	BeGaze 2.5.77
Sample Rate:	50
Subject:	S21F22332
Description:	Cyrielle Mailart

Table Header for Fixations:
Event Type	Trial	Number	Start	End	Duration	Location X	Location Y	Dispersion X	Dispersion Y	Plane	Avg. Pupil Size X	Avg. Pupil Size Y

Table Header for Saccades:
Event Type	Trial	Number	Start	End	Duration	Start Loc.X	Start Loc.Y	End Loc.X	End Loc.Y	Amplitude	Peak Speed	Peak Speed At	Average Speed	Peak Accel.	Peak Decel.	Average Accel.

Table Header for Blinks:
Event Type	Trial	Number	Start	End	Duration

Table Header for User Events:
Event Type	Trial	Number	Start	Description

UserEvent	1	1	2616627004	# Message: The_Two_Models_Dufy_1930.jpg
Fixation L	1	1	2616630169	2617067778	437609	931.97	388.28	49	32	-1	13.96	13.96
Fixation R	1	1	2616630169	2617067778	437609	931.97	388.28	49	32	-1	13.34	13.34
Saccade L	1	1	2617067778	2617087643	19865	952.54	406.58	1256.54	492.74	2.00	319.31	1.00	100.65	7843.63	-7616.74	5285.78
Saccade R	1	1	2617067778	2617087643	19865	952.54	406.58	1256.54	492.74	2.00	319.31	1.00	100.65	7843.63	-7616.74	5285.78
Fixation L	1	2	2617087643	2617465487	377844	1270.90	479.59	40	58	-1	12.52	12.52
Fixation R	1	2	2617087643	2617465487	377844	1270.90	479.59	40	58	-1	11.85	11.85
Saccade L	1	2	2617465487	2617485372	19885	1292.97	444.11	1296.96	442.87	0.09	5.30	1.00	4.30	0.93	-59.98	29.23
Saccade R	1	2	2617465487	2617485372	19885	1292.97	444.11	1296.96	442.87	0.09	5.30	1.00	4.30	0.93	-59.98	29.23
Fixation L	1	3	2617485372	2617783727	298355	1322.48	438.71	42	17	-1	11.84	11.84
Fixation R	1	3	2617485372	2617783727	298355	1322.48	438.71	42	17	-1	10.88	10.88
Saccade L	1	3	2617783727	2617803598	19871	1328.15	448.49	1010.15	455.50	1.72	321.43	1.00	86.37	7919.23	-7832.97	5280.95
Saccade R	1	3	2617783727	2617803598	19871	1328.15	448.49	1010.15	455.50	1.72	321.43	1.00	86.37	7919.23	-7832.97	5280.95
Fixation L	1	4	2617803598	2618022468	218870	1012.28	476.32	8	34	-1	12.71	12.71
Fixation R	1	4	2617803598	2618022468	218870	1012.28	476.32	8	34	-1	11.65	11.65
Saccade L	1	4	2618022468	2618062204	39736	1008.34	489.72	901.80	140.85	3.34	230.35	0.50	84.02	5712.80	-4688.36	4211.35
Saccade R	1	4	2618022468	2618062204	39736	1008.34	489.72	901.80	140.85	3.34	230.35	0.50	84.02	5712.80	-4688.36	4211.35
Fixation L	1	5	2618062204	2618241207	179003	891.14	151.28	15	48	-1	12.87	12.87
Fixation R	1	5	2618062204	2618241207	179003	891.14	151.28	15	48	-1	12.09	12.09
Saccade L	1	5	2618241207	2618261075	19868	886.40	144.09	881.82	49.24	0.73	96.05	1.00	36.54	2309.43	-917.66	1285.05
Saccade R	1	5	2618241207	2618261075	19868	886.40	144.09	881.82	49.24	0.73	96.05	1.00	36.54	2309.43	-917.66	1285.05
Fixation L	1	6	2618261075	2618678820	417745	869.02	44.94	34	61	-1	13.26	13.26
Fixation R	1	6	2618261075	2618678820	417745	869.02	44.94	34	61	-1	12.68	12.68
Saccade L	1	6	2618678820	2618698679	19859	846.89	40.20	791.45	32.38	0.63	56.64	1.00	31.92	1257.42	-916.42	1029.99
Saccade R	1	6	2618678820	2618698679	19859	846.89	40.20	791.45	32.38	0.63	56.64	1.00	31.92	1257.42	-916.42	1029.99
Fixation L	1	7	2618698679	2619136278	437599	745.56	21.93	53	35	-1	13.71	13.71
Fixation R	1	7	2618698679	2619136278	437599	745.56	21.93	53	35	-1	13.30	13.30
Saccade L	1	7	2619136278	2619215913	79635	743.27	14.42	733.71	11.64	2.44	95.34	1.00	30.64	2302.44	-2190.04	1525.89
Saccade R	1	7	2619136278	2619215913	79635	743.27	14.42	733.71	11.64	2.44	95.34	1.00	30.64	2302.44	-2190.04	1525.89
Fixation L	1	8	2619215913	2619375014	159101	736.80	8.16	6	26	-1	13.98	13.98
Fixation R	1	8	2619215913	2619375014	159101	736.80	8.16	6	26	-1	13.84	13.84
Saccade L	1	8	2619375014	2619414765	39751	740.02	18.27	666.85	716.93	6.47	393.97	0.50	162.75	9561.37	-8280.62	8432.27
Saccade R	1	8	2619375014	2619414765	39751	740.02	18.27	666.85	716.93	6.47	393.97	0.50	162.75	9561.37	-8280.62	8432.27
Fixation L	1	9	2619414765	2619514131	99366	660.48	778.08	17	81	-1	14.65	14.65
Fixation R	1	9	2619414765	2619514131	99366	660.48	778.08	17	81	-1	14.31	14.31
Saccade L	1	9	2619514131	2619534136	20005	648.95	791.47	647.00	788.67	0.16	16.27	1.00	8.07	-62.15	-320.81	203.20
Saccade R	1	9	2619514131	2619534136	20005	648.95	791.47	647.00	788.67	0.16	16.27	1.00	8.07	-62.15	-320.81	203.20
Fixation L	1	10	2619534136	2619633505	99369	648.95	789.67	3	5	-1	14.69	14.69
Fixation R	1	10	2619534136	2619633505	99369	648.95	789.67	3	5	-1	14.06	14.06
Saccade L	1	10	2619633505	2619653384	19879	650.08	786.65	665.64	1062.61	1.59	279.39	1.00	79.90	6924.40	-6576.76	4730.09
Saccade R	1	10	2619633505	2619653384	19879	650.08	786.65	665.64	1062.61	1.59	279.39	1.00	79.90	6924.40	-6576.76	4730.09
Fixation L	1	11	2619653384	2619931864	278480	680.00	1048.46	36	33	-1	13.83	13.83
Fixation R	1	11	2619653384	2619931864	278480	680.00	1048.46	36	33	-1	13.46	13.46
Saccade L	1	11	2619931864	2619951736	19872	688.48	1028.76	673.31	835.85	1.17	195.68	1.00	58.64	4773.46	-4551.46	3259.66
Saccade R	1	11	2619931864	2619951736	19872	688.48	1028.76	673.31	835.85	1.17	195.68	1.00	58.64	4773.46	-4551.46	3259.66
Fixation L	1	12	2619951736	2620170597	218861	654.11	849.76	27	21	-1	13.68	13.68
Fixation R	1	12	2619951736	2620170597	218861	654.11	849.76	27	21	-1	13.28	13.28
Saccade L	1	12	2620170597	2620190477	19880	646.26	857.42	652.53	600.15	1.35	260.15	1.00	68.09	6457.98	-6210.96	4273.20
Saccade R	1	12	2620170597	2620190477	19880	646.26	857.42	652.53	600.15	1.35	260.15	1.00	68.09	6457.98	-6210.96	4273.20
Fixation L	1	13	2620190477	2620508706	318229	665.44	593.09	77	16	-1	13.92	13.92
Fixation R	1	13	2620190477	2620508706	318229	665.44	593.09	77	16	-1	13.35	13.35
Saccade L	1	13	2620508706	2620528585	19879	599.30	600.02	316.07	595.23	1.92	286.32	1.00	96.73	7083.44	-6390.17	4971.67
Saccade R	1	13	2620508706	2620528585	19879	599.30	600.02	316.07	595.23	1.92	286.32	1.00	96.73	7083.44	-6390.17	4971.67
Fixation L	1	14	2620528585	2620628079	99494	336.02	633.75	30	64	-1	13.52	13.52
Fixation R	1	14	2620528585	2620628079	99494	336.02	633.75	30	64	-1	13.68	13.68
