[BeGaze]
Converted from:	C:\Documents and Settings\iViewX\Desktop\EXPERIMENTATIONS\Experiments\results\finaleart\S21F22332-finaleart-1.idf
Date:	27.03.2019 15:55:13
Version:	BeGaze 2.5.77
Sample Rate:	50
Subject:	S21F22332
Description:	Cyrielle Mailart

Table Header for Fixations:
Event Type	Trial	Number	Start	End	Duration	Location X	Location Y	Dispersion X	Dispersion Y	Plane	Avg. Pupil Size X	Avg. Pupil Size Y

Table Header for Saccades:
Event Type	Trial	Number	Start	End	Duration	Start Loc.X	Start Loc.Y	End Loc.X	End Loc.Y	Amplitude	Peak Speed	Peak Speed At	Average Speed	Peak Accel.	Peak Decel.	Average Accel.

Table Header for Blinks:
Event Type	Trial	Number	Start	End	Duration

Table Header for User Events:
Event Type	Trial	Number	Start	Description

UserEvent	1	1	2512717053	# Message: Matisse-Nature-morte-a-la-cruche-bleue.jpg
Saccade R	1	1	2512730709	2512810324	79615	980.30	1080.98	897.48	448.80	18.49	680.69	0.25	232.27	13781.81	-16645.45	7346.19
Saccade L	1	1	2512790459	2512810324	19865	893.52	564.18	897.48	448.80	3.54	551.27	1.00	178.23	378.06	-10862.41	4549.96
Fixation L	1	1	2512810324	2513208047	397723	906.65	470.46	14	49	-1	14.21	14.21
Fixation R	1	1	2512810324	2513208047	397723	906.65	470.46	14	49	-1	13.33	13.33
Saccade L	1	2	2513208047	2513347293	139246	911.29	480.89	779.87	265.44	6.42	237.43	0.86	46.07	5542.41	-5762.83	2023.73
Saccade R	1	2	2513208047	2513347293	139246	911.29	480.89	779.87	265.44	6.42	237.43	0.86	46.07	5542.41	-5762.83	2023.73
Fixation L	1	2	2513347293	2513546280	198987	773.21	256.23	11	15	-1	13.85	13.85
Fixation R	1	2	2513347293	2513546280	198987	773.21	256.23	11	15	-1	12.87	12.87
Saccade L	1	3	2513546280	2513566147	19867	768.64	258.36	665.42	257.87	0.86	104.42	1.00	43.47	2561.38	-1548.53	1906.51
Saccade R	1	3	2513546280	2513566147	19867	768.64	258.36	665.42	257.87	0.86	104.42	1.00	43.47	2561.38	-1548.53	1906.51
Fixation L	1	3	2513566147	2513844514	278367	697.87	240.47	65	33	-1	14.21	14.21
Fixation R	1	3	2513566147	2513844514	278367	697.87	240.47	65	33	-1	13.53	13.53
Saccade L	1	4	2513844514	2513864516	20002	692.58	229.46	691.37	219.28	0.11	10.37	1.00	5.70	234.26	-139.10	201.34
Saccade R	1	4	2513844514	2513864516	20002	692.58	229.46	691.37	219.28	0.11	10.37	1.00	5.70	234.26	-139.10	201.34
Fixation L	1	4	2513864516	2514242370	377854	685.86	244.14	24	51	-1	14.94	14.94
Fixation R	1	4	2513864516	2514242370	377854	685.86	244.14	24	51	-1	14.12	14.12
Saccade L	1	5	2514242370	2514282116	39746	700.02	270.57	1035.24	858.53	5.77	507.26	0.50	145.09	12541.74	-12220.15	8276.75
Saccade R	1	5	2514242370	2514282116	39746	700.02	270.57	1035.24	858.53	5.77	507.26	0.50	145.09	12541.74	-12220.15	8276.75
Fixation L	1	5	2514282116	2514500983	218867	1058.17	867.04	30	27	-1	15.67	15.67
Fixation R	1	5	2514282116	2514500983	218867	1058.17	867.04	30	27	-1	14.97	14.97
Saccade L	1	6	2514500983	2514520855	19872	1065.42	882.33	1213.49	902.19	1.03	151.10	1.00	51.92	3738.48	-3542.86	2782.00
Saccade R	1	6	2514500983	2514520855	19872	1065.42	882.33	1213.49	902.19	1.03	151.10	1.00	51.92	3738.48	-3542.86	2782.00
Fixation L	1	6	2514520855	2514679974	159119	1253.30	930.48	47	40	-1	14.99	14.99
Fixation R	1	6	2514520855	2514679974	159119	1253.30	930.48	47	40	-1	14.00	14.00
Saccade L	1	7	2514679974	2514699842	19868	1260.17	936.93	1334.91	943.12	0.50	75.87	1.00	25.15	1825.53	-1612.75	1244.71
Saccade R	1	7	2514679974	2514699842	19868	1260.17	936.93	1334.91	943.12	0.50	75.87	1.00	25.15	1825.53	-1612.75	1244.71
Fixation L	1	7	2514699842	2515057828	357986	1353.71	971.67	25	44	-1	14.94	14.94
Fixation R	1	7	2514699842	2515057828	357986	1353.71	971.67	25	44	-1	13.39	13.39
Saccade L	1	8	2515057828	2515077698	19870	1345.91	952.49	1339.29	764.75	1.27	189.97	1.00	63.72	4640.22	-4564.83	3434.37
Saccade R	1	8	2515057828	2515077698	19870	1345.91	952.49	1339.29	764.75	1.27	189.97	1.00	63.72	4640.22	-4564.83	3434.37
Fixation L	1	8	2515077698	2515415934	338236	1333.29	803.85	29	67	-1	15.20	15.20
Fixation R	1	8	2515077698	2515415934	338236	1333.29	803.85	29	67	-1	13.67	13.67
Saccade L	1	9	2515415934	2515435812	19878	1352.98	832.00	1354.18	838.83	0.10	10.42	0.00	5.21	156.80	-194.69	168.73
Saccade R	1	9	2515415934	2515435812	19878	1352.98	832.00	1354.18	838.83	0.10	10.42	0.00	5.21	156.80	-194.69	168.73
Fixation L	1	9	2515435812	2515694294	258482	1353.18	841.26	12	10	-1	15.31	15.31
Fixation R	1	9	2515435812	2515694294	258482	1353.18	841.26	12	10	-1	13.76	13.76
Saccade L	1	10	2515694294	2515734167	39873	1346.60	834.87	1057.47	876.09	2.50	207.54	1.00	62.64	5106.27	-5085.11	3554.64
Saccade R	1	10	2515694294	2515734167	39873	1346.60	834.87	1057.47	876.09	2.50	207.54	1.00	62.64	5106.27	-5085.11	3554.64
Fixation L	1	10	2515734167	2515933036	198869	1059.60	883.97	9	12	-1	15.60	15.60
Fixation R	1	10	2515734167	2515933036	198869	1059.60	883.97	9	12	-1	14.14	14.14
Saccade L	1	11	2515933036	2515952908	19872	1054.69	880.97	1074.67	511.33	2.08	373.95	1.00	104.49	9271.03	-8586.12	6280.37
Saccade R	1	11	2515933036	2515952908	19872	1054.69	880.97	1074.67	511.33	2.08	373.95	1.00	104.49	9271.03	-8586.12	6280.37
Fixation L	1	11	2515952908	2516211509	258601	1123.14	494.40	56	39	-1	15.32	15.32
Fixation R	1	11	2515952908	2516211509	258601	1123.14	494.40	56	39	-1	13.62	13.62
Saccade L	1	12	2516211509	2516231394	19885	1130.51	502.25	1216.62	507.38	0.59	87.26	1.00	29.45	2086.59	-1885.91	1462.51
Saccade R	1	12	2516211509	2516231394	19885	1130.51	502.25	1216.62	507.38	0.59	87.26	1.00	29.45	2086.59	-1885.91	1462.51
Fixation L	1	12	2516231394	2516509880	278486	1206.64	513.12	21	18	-1	15.64	15.64
Fixation R	1	12	2516231394	2516509880	278486	1206.64	513.12	21	18	-1	13.96	13.96
Saccade L	1	13	2516509880	2516549631	39751	1205.07	504.16	1096.30	145.37	3.62	344.62	0.50	91.01	8512.81	-7931.71	4823.90
Saccade R	1	13	2516509880	2516549631	39751	1205.07	504.16	1096.30	145.37	3.62	344.62	0.50	91.01	8512.81	-7931.71	4823.90
Fixation L	1	13	2516549631	2516708743	159112	1073.16	120.03	30	53	-1	15.42	15.42
Fixation R	1	13	2516549631	2516708743	159112	1073.16	120.03	30	53	-1	14.18	14.18
