[BeGaze]
Converted from:	C:\Documents and Settings\iViewX\Desktop\EXPERIMENTATIONS\Experiments\results\finaleart\S21F22332-finaleart-1.idf
Date:	27.03.2019 15:54:32
Version:	BeGaze 2.5.77
Sample Rate:	50
Subject:	S21F22332
Description:	Cyrielle Mailart

Table Header for Fixations:
Event Type	Trial	Number	Start	End	Duration	Location X	Location Y	Dispersion X	Dispersion Y	Plane	Avg. Pupil Size X	Avg. Pupil Size Y

Table Header for Saccades:
Event Type	Trial	Number	Start	End	Duration	Start Loc.X	Start Loc.Y	End Loc.X	End Loc.Y	Amplitude	Peak Speed	Peak Speed At	Average Speed	Peak Accel.	Peak Decel.	Average Accel.

Table Header for Blinks:
Event Type	Trial	Number	Start	End	Duration

Table Header for User Events:
Event Type	Trial	Number	Start	Description

UserEvent	1	1	1744817500	# Message: still-life_matisse_0.jpg
Blink L	1	1	1744832376	1744912003	79627
Blink R	1	1	1744832376	1744912003	79627
Fixation L	1	1	1744912003	1745250108	338105	889.69	490.10	22	64	-1	17.98	17.98
Fixation R	1	1	1744912003	1745250108	338105	889.69	490.10	22	64	-1	16.56	16.56
Saccade L	1	1	1745250108	1745269983	19875	887.02	511.49	650.02	422.03	1.37	256.10	1.00	68.80	6294.15	-6206.26	4195.93
Saccade R	1	1	1745250108	1745269983	19875	887.02	511.49	650.02	422.03	1.37	256.10	1.00	68.80	6294.15	-6206.26	4195.93
Fixation L	1	2	1745269983	1745468836	198853	647.99	410.80	8	24	-1	17.06	17.06
Fixation R	1	2	1745269983	1745468836	198853	647.99	410.80	8	24	-1	15.71	15.71
Saccade L	1	2	1745468836	1745508582	39746	646.66	413.51	520.16	642.29	2.23	155.49	1.00	56.03	3815.52	-3834.76	3304.86
Saccade R	1	2	1745468836	1745508582	39746	646.66	413.51	520.16	642.29	2.23	155.49	1.00	56.03	3815.52	-3834.76	3304.86
Fixation L	1	3	1745508582	1745747324	238742	518.15	643.55	7	5	-1	15.78	15.78
Fixation R	1	3	1745508582	1745747324	238742	518.15	643.55	7	5	-1	14.77	14.77
Saccade L	1	3	1745747324	1745767197	19873	521.81	646.84	461.41	772.80	0.96	141.29	1.00	48.50	3417.82	-2702.95	2405.02
Saccade R	1	3	1745747324	1745767197	19873	521.81	646.84	461.41	772.80	0.96	141.29	1.00	48.50	3417.82	-2702.95	2405.02
Fixation L	1	4	1745767197	1746025814	258617	470.77	774.53	42	25	-1	16.00	16.00
Fixation R	1	4	1745767197	1746025814	258617	470.77	774.53	42	25	-1	15.30	15.30
Saccade L	1	4	1746025814	1746045680	19866	471.64	766.89	577.55	545.36	1.38	248.24	1.00	69.36	6148.31	-5512.52	3930.12
Saccade R	1	4	1746025814	1746045680	19866	471.64	766.89	577.55	545.36	1.38	248.24	1.00	69.36	6148.31	-5512.52	3930.12
Fixation L	1	5	1746045680	1746324050	278370	599.70	521.62	33	50	-1	16.74	16.74
Fixation R	1	5	1746045680	1746324050	278370	599.70	521.62	33	50	-1	16.13	16.13
Saccade L	1	5	1746324050	1746344044	19994	610.94	529.27	795.20	526.20	1.09	186.36	1.00	54.64	4575.54	-4476.78	3243.06
Saccade R	1	5	1746324050	1746344044	19994	610.94	529.27	795.20	526.20	1.09	186.36	1.00	54.64	4575.54	-4476.78	3243.06
Fixation L	1	6	1746344044	1746562781	218737	789.58	505.79	15	30	-1	16.95	16.95
Fixation R	1	6	1746344044	1746562781	218737	789.58	505.79	15	30	-1	16.13	16.13
Saccade L	1	6	1746562781	1746582652	19871	790.11	495.77	716.43	508.35	0.44	75.61	1.00	22.01	1803.20	-1714.45	1173.05
Saccade R	1	6	1746562781	1746582652	19871	790.11	495.77	716.43	508.35	0.44	75.61	1.00	22.01	1803.20	-1714.45	1173.05
Fixation L	1	7	1746582652	1746761651	178999	710.57	510.96	10	16	-1	16.78	16.78
Fixation R	1	7	1746582652	1746761651	178999	710.57	510.96	10	16	-1	15.91	15.91
Saccade L	1	7	1746761651	1746781523	19872	706.06	520.03	688.79	663.18	0.88	145.83	1.00	44.26	3305.56	-3071.45	2192.40
Saccade R	1	7	1746761651	1746781523	19872	706.06	520.03	688.79	663.18	0.88	145.83	1.00	44.26	3305.56	-3071.45	2192.40
Fixation L	1	8	1746781523	1747000380	218857	676.85	676.39	21	22	-1	16.67	16.67
Fixation R	1	8	1746781523	1747000380	218857	676.85	676.39	21	22	-1	15.90	15.90
Saccade L	1	8	1747000380	1747040133	39753	672.95	677.63	952.81	667.09	2.44	204.40	0.50	61.26	4968.14	-4769.03	3345.03
Saccade R	1	8	1747000380	1747040133	39753	672.95	677.63	952.81	667.09	2.44	204.40	0.50	61.26	4968.14	-4769.03	3345.03
Fixation L	1	9	1747040133	1747239001	198868	971.51	672.32	23	11	-1	16.77	16.77
Fixation R	1	9	1747040133	1747239001	198868	971.51	672.32	23	11	-1	15.94	15.94
Saccade L	1	9	1747239001	1747258869	19868	975.09	678.11	1100.20	546.50	1.15	183.64	1.00	57.92	4509.53	-4452.88	3329.57
Saccade R	1	9	1747239001	1747258869	19868	975.09	678.11	1100.20	546.50	1.15	183.64	1.00	57.92	4509.53	-4452.88	3329.57
Fixation L	1	10	1747258869	1747537354	278485	1133.90	512.79	44	42	-1	16.39	16.39
Fixation R	1	10	1747258869	1747537354	278485	1133.90	512.79	44	42	-1	15.15	15.15
Saccade L	1	10	1747537354	1747557231	19877	1144.76	508.86	1338.33	499.39	1.07	195.98	1.00	54.04	4887.75	-4772.44	3246.87
Saccade R	1	10	1747537354	1747557231	19877	1144.76	508.86	1338.33	499.39	1.07	195.98	1.00	54.04	4887.75	-4772.44	3246.87
Fixation L	1	11	1747557231	1747815838	258607	1343.44	472.22	19	57	-1	15.85	15.85
Fixation R	1	11	1747557231	1747815838	258607	1343.44	472.22	19	57	-1	14.04	14.04
Saccade L	1	11	1747815838	1747835715	19877	1349.36	461.65	1222.43	456.46	0.94	128.49	1.00	47.48	2963.15	-2992.82	2306.71
Saccade R	1	11	1747815838	1747835715	19877	1349.36	461.65	1222.43	456.46	0.94	128.49	1.00	47.48	2963.15	-2992.82	2306.71
Fixation L	1	12	1747835715	1748114204	278489	1184.36	447.28	51	16	-1	15.78	15.78
Fixation R	1	12	1747835715	1748114204	278489	1184.36	447.28	51	16	-1	13.69	13.69
Saccade L	1	12	1748114204	1748134079	19875	1196.07	448.73	1347.12	335.86	1.38	190.68	1.00	69.43	4710.62	-3502.03	3227.13
Saccade R	1	12	1748114204	1748134079	19875	1196.07	448.73	1347.12	335.86	1.38	190.68	1.00	69.43	4710.62	-3502.03	3227.13
Fixation L	1	13	1748134079	1748273320	139241	1344.83	351.45	6	71	-1	15.36	15.36
Fixation R	1	13	1748134079	1748273320	139241	1344.83	351.45	6	71	-1	13.49	13.49
Saccade L	1	13	1748273320	1748293183	19863	1343.60	334.59	1426.56	163.83	1.25	191.98	1.00	63.08	4661.84	-4048.98	3324.67
Saccade R	1	13	1748273320	1748293183	19863	1343.60	334.59	1426.56	163.83	1.25	191.98	1.00	63.08	4661.84	-4048.98	3324.67
Fixation L	1	14	1748293183	1748571671	278488	1432.37	127.31	11	80	-1	14.90	14.90
Fixation R	1	14	1748293183	1748571671	278488	1432.37	127.31	11	80	-1	13.26	13.26
Saccade L	1	14	1748571671	1748671177	99506	1430.99	118.49	1555.89	138.19	4.54	128.25	1.00	45.59	2956.34	-2460.62	1633.17
Saccade R	1	14	1748571671	1748671177	99506	1430.99	118.49	1555.89	138.19	4.54	128.25	1.00	45.59	2956.34	-2460.62	1633.17
Fixation L	1	15	1748671177	1748810304	139127	1523.52	158.38	52	37	-1	15.11	15.11
Fixation R	1	15	1748671177	1748810304	139127	1523.52	158.38	52	37	-1	13.10	13.10
