[BeGaze]
Converted from:	C:\Documents and Settings\iViewX\Desktop\EXPERIMENTATIONS\Experiments\results\finaleart\S21F22332-finaleart-1.idf
Date:	27.03.2019 15:54:28
Version:	BeGaze 2.5.77
Sample Rate:	50
Subject:	S21F22332
Description:	Cyrielle Mailart

Table Header for Fixations:
Event Type	Trial	Number	Start	End	Duration	Location X	Location Y	Dispersion X	Dispersion Y	Plane	Avg. Pupil Size X	Avg. Pupil Size Y

Table Header for Saccades:
Event Type	Trial	Number	Start	End	Duration	Start Loc.X	Start Loc.Y	End Loc.X	End Loc.Y	Amplitude	Peak Speed	Peak Speed At	Average Speed	Peak Accel.	Peak Decel.	Average Accel.

Table Header for Blinks:
Event Type	Trial	Number	Start	End	Duration

Table Header for User Events:
Event Type	Trial	Number	Start	Description

UserEvent	1	1	1718220189	# Message: void.jpg
Saccade L	1	1	1718239516	1718259388	19872	1387.35	982.35	1508.65	981.25	0.84	122.70	1.00	42.18	95.71	-3023.81	1039.84
Saccade R	1	1	1718239516	1718259388	19872	1387.35	982.35	1508.65	981.25	0.84	122.70	1.00	42.18	95.71	-3023.81	1039.84
Fixation L	1	1	1718259388	1718517994	258606	1505.55	986.23	36	56	-1	18.86	18.86
Fixation R	1	1	1718259388	1718517994	258606	1505.55	986.23	36	56	-1	16.94	16.94
Saccade L	1	2	1718517994	1718537868	19874	1474.15	940.76	1466.43	938.99	0.43	49.68	0.00	21.61	-88.73	-950.52	422.10
Saccade R	1	2	1718517994	1718537868	19874	1474.15	940.76	1466.43	938.99	0.43	49.68	0.00	21.61	-88.73	-950.52	422.10
Fixation L	1	2	1718537868	1718776483	238615	1453.29	925.95	16	20	-1	18.73	18.73
Fixation R	1	2	1718537868	1718776483	238615	1453.29	925.95	16	20	-1	16.76	16.76
Blink L	1	1	1718776483	1718935608	159125
Blink R	1	1	1718776483	1718935608	159125
Fixation L	1	3	1718935608	1719532323	596715	978.68	508.56	58	36	-1	18.20	18.20
Fixation R	1	3	1718935608	1719532323	596715	978.68	508.56	58	36	-1	16.45	16.45
Saccade L	1	3	1719532323	1719552191	19868	928.34	515.20	817.96	373.30	1.17	181.81	1.00	59.08	4498.82	-4452.26	3343.57
Saccade R	1	3	1719532323	1719552191	19868	928.34	515.20	817.96	373.30	1.17	181.81	1.00	59.08	4498.82	-4452.26	3343.57
Fixation L	1	4	1719552191	1719989791	437600	816.39	368.74	15	30	-1	18.37	18.37
Fixation R	1	4	1719552191	1719989791	437600	816.39	368.74	15	30	-1	16.97	16.97
Saccade L	1	4	1719989791	1720029541	39750	823.81	364.68	957.79	556.34	2.01	178.24	1.00	50.61	4370.93	-4355.86	2932.39
Saccade R	1	4	1719989791	1720029541	39750	823.81	364.68	957.79	556.34	2.01	178.24	1.00	50.61	4370.93	-4355.86	2932.39
Fixation L	1	5	1720029541	1720208662	179121	962.91	562.64	7	25	-1	18.99	18.99
Fixation R	1	5	1720029541	1720208662	179121	962.91	562.64	7	25	-1	17.48	17.48
