[BeGaze]
Converted from:	C:\Documents and Settings\iViewX\Desktop\EXPERIMENTATIONS\Experiments\results\finaleart\S21F22332-finaleart-1.idf
Date:	27.03.2019 15:56:10
Version:	BeGaze 2.5.77
Sample Rate:	50
Subject:	S21F22332
Description:	Cyrielle Mailart

Table Header for Fixations:
Event Type	Trial	Number	Start	End	Duration	Location X	Location Y	Dispersion X	Dispersion Y	Plane	Avg. Pupil Size X	Avg. Pupil Size Y

Table Header for Saccades:
Event Type	Trial	Number	Start	End	Duration	Start Loc.X	Start Loc.Y	End Loc.X	End Loc.Y	Amplitude	Peak Speed	Peak Speed At	Average Speed	Peak Accel.	Peak Decel.	Average Accel.

Table Header for Blinks:
Event Type	Trial	Number	Start	End	Duration

Table Header for User Events:
Event Type	Trial	Number	Start	Description

UserEvent	1	1	3014009487	# Message: Bank_Of_A_Lake_Pechstein_1910.jpg
Saccade L	1	1	3014021595	3014121094	99499	1034.90	472.42	932.40	480.01	2.14	102.84	1.00	21.56	2483.17	-2400.14	828.06
Saccade R	1	1	3014021595	3014121094	99499	1034.90	472.42	932.40	480.01	2.14	102.84	1.00	21.56	2483.17	-2400.14	828.06
Fixation L	1	1	3014121094	3014419478	298384	953.07	496.75	34	32	-1	13.31	13.31
Fixation R	1	1	3014121094	3014419478	298384	953.07	496.75	34	32	-1	13.00	13.00
Saccade L	1	2	3014419478	3014439329	19851	948.50	504.98	695.72	167.35	2.34	425.89	1.00	117.88	10583.51	-10045.99	7159.79
Saccade R	1	2	3014419478	3014439329	19851	948.50	504.98	695.72	167.35	2.34	425.89	1.00	117.88	10583.51	-10045.99	7159.79
Fixation L	1	2	3014439329	3014618309	178980	688.62	176.39	11	45	-1	12.85	12.85
Fixation R	1	2	3014439329	3014618309	178980	688.62	176.39	11	45	-1	12.62	12.62
Saccade L	1	3	3014618309	3014737682	119373	685.31	160.08	704.39	493.74	7.28	229.92	1.00	61.00	4940.90	-5235.85	2327.43
Saccade R	1	3	3014618309	3014737682	119373	685.31	160.08	704.39	493.74	7.28	229.92	1.00	61.00	4940.90	-5235.85	2327.43
Fixation L	1	3	3014737682	3014936541	198859	718.62	463.13	26	62	-1	11.52	11.52
Fixation R	1	3	3014737682	3014936541	198859	718.62	463.13	26	62	-1	11.36	11.36
Saccade L	1	4	3014936541	3014956441	19900	730.85	509.06	955.35	592.84	1.86	242.26	1.00	93.36	5619.09	-5713.52	3958.05
Saccade R	1	4	3014936541	3014956441	19900	730.85	509.06	955.35	592.84	1.86	242.26	1.00	93.36	5619.09	-5713.52	3958.05
Fixation L	1	4	3014956441	3015115547	159106	1020.33	604.37	78	15	-1	11.81	11.81
Fixation R	1	4	3014956441	3015115547	159106	1020.33	604.37	78	15	-1	11.71	11.71
Saccade L	1	5	3015115547	3015135533	19986	1027.77	606.73	1138.34	609.09	0.63	111.87	1.00	31.75	2708.60	-2616.04	1860.69
Saccade R	1	5	3015115547	3015135533	19986	1027.77	606.73	1138.34	609.09	0.63	111.87	1.00	31.75	2708.60	-2616.04	1860.69
Fixation L	1	5	3015135533	3015294649	159116	1132.21	620.35	9	17	-1	11.82	11.82
Fixation R	1	5	3015135533	3015294649	159116	1132.21	620.35	9	17	-1	11.41	11.41
Saccade L	1	6	3015294649	3015334403	39754	1131.17	626.21	1510.15	748.73	3.30	202.60	1.00	82.95	5033.23	-4999.08	4979.83
Saccade R	1	6	3015294649	3015334403	39754	1131.17	626.21	1510.15	748.73	3.30	202.60	1.00	82.95	5033.23	-4999.08	4979.83
Fixation L	1	6	3015334403	3015772000	437597	1482.26	762.52	66	24	-1	11.86	11.86
Fixation R	1	6	3015334403	3015772000	437597	1482.26	762.52	66	24	-1	11.14	11.14
Saccade L	1	7	3015772000	3015791871	19871	1443.51	772.86	1586.59	632.91	1.11	202.39	1.00	55.89	4990.85	-4765.60	3375.19
Saccade R	1	7	3015772000	3015791871	19871	1443.51	772.86	1586.59	632.91	1.11	202.39	1.00	55.89	4990.85	-4765.60	3375.19
Fixation L	1	7	3015791871	3016050362	258491	1594.22	608.48	9	32	-1	11.80	11.80
Fixation R	1	7	3015791871	3016050362	258491	1594.22	608.48	9	32	-1	11.04	11.04
Saccade L	1	8	3016050362	3016110105	59743	1595.56	606.00	1250.60	205.33	5.96	203.53	0.67	99.83	4954.22	-4329.70	3772.67
Saccade R	1	8	3016050362	3016110105	59743	1595.56	606.00	1250.60	205.33	5.96	203.53	0.67	99.83	4954.22	-4329.70	3772.67
Fixation L	1	8	3016110105	3016328851	218746	1247.43	181.83	26	35	-1	11.83	11.83
Fixation R	1	8	3016110105	3016328851	218746	1247.43	181.83	26	35	-1	10.94	10.94
Saccade L	1	9	3016328851	3016368595	39744	1226.70	194.54	1110.46	580.73	3.57	324.77	0.50	89.70	8061.03	-7699.21	4832.28
Saccade R	1	9	3016328851	3016368595	39744	1226.70	194.54	1110.46	580.73	3.57	324.77	0.50	89.70	8061.03	-7699.21	4832.28
Fixation L	1	9	3016368595	3016567600	199005	1106.70	594.49	6	18	-1	12.89	12.89
Fixation R	1	9	3016368595	3016567600	199005	1106.70	594.49	6	18	-1	11.89	11.89
Saccade L	1	10	3016567600	3016587458	19858	1104.41	595.75	1109.04	686.33	0.80	91.74	1.00	40.43	2257.87	-1699.07	1865.59
Saccade R	1	10	3016567600	3016587458	19858	1104.41	595.75	1109.04	686.33	0.80	91.74	1.00	40.43	2257.87	-1699.07	1865.59
Fixation L	1	10	3016587458	3016985179	397721	1123.22	657.81	23	66	-1	13.08	13.08
Fixation R	1	10	3016587458	3016985179	397721	1123.22	657.81	23	66	-1	12.35	12.35
Saccade L	1	11	3016985179	3017005187	20008	1132.72	653.06	1206.44	654.32	0.51	74.59	1.00	25.63	1829.17	-1591.11	1330.97
Saccade R	1	11	3016985179	3017005187	20008	1132.72	653.06	1206.44	654.32	0.51	74.59	1.00	25.63	1829.17	-1591.11	1330.97
Fixation L	1	11	3017005187	3017124430	119243	1187.33	662.37	29	14	-1	12.93	12.93
Fixation R	1	11	3017005187	3017124430	119243	1187.33	662.37	29	14	-1	12.00	12.00
Saccade L	1	12	3017124430	3017184177	59747	1182.11	668.14	678.13	185.43	7.65	367.82	0.33	128.06	8897.55	-7242.07	6207.52
Saccade R	1	12	3017124430	3017184177	59747	1182.11	668.14	678.13	185.43	7.65	367.82	0.33	128.06	8897.55	-7242.07	6207.52
Fixation L	1	12	3017184177	3017402915	218738	660.78	145.91	26	62	-1	12.08	12.08
Fixation R	1	12	3017184177	3017402915	218738	660.78	145.91	26	62	-1	11.36	11.36
Saccade L	1	13	3017402915	3017442668	39753	652.06	147.83	484.86	244.96	2.00	119.12	0.50	50.34	2880.38	-2217.07	2292.05
Saccade R	1	13	3017402915	3017442668	39753	652.06	147.83	484.86	244.96	2.00	119.12	0.50	50.34	2880.38	-2217.07	2292.05
Fixation L	1	13	3017442668	3017621780	179112	472.48	225.59	19	72	-1	11.60	11.60
Fixation R	1	13	3017442668	3017621780	179112	472.48	225.59	19	72	-1	11.39	11.39
Saccade L	1	14	3017621780	3017661539	39759	471.63	218.43	323.18	286.27	2.36	140.09	1.00	59.39	2603.94	-3337.70	1734.82
Saccade R	1	14	3017621780	3017661539	39759	471.63	218.43	323.18	286.27	2.36	140.09	1.00	59.39	2603.94	-3337.70	1734.82
Fixation L	1	14	3017661539	3017820647	159108	331.83	342.39	14	85	-1	11.98	11.98
Fixation R	1	14	3017661539	3017820647	159108	331.83	342.39	14	85	-1	11.54	11.54
Saccade L	1	15	3017820647	3017999631	178984	337.97	359.74	329.72	977.10	11.20	320.77	0.67	62.58	7853.82	-7684.32	2390.11
Saccade R	1	15	3017820647	3017999631	178984	337.97	359.74	329.72	977.10	11.20	320.77	0.67	62.58	7853.82	-7684.32	2390.11
