[BeGaze]
Converted from:	C:\Documents and Settings\iViewX\Desktop\EXPERIMENTATIONS\Experiments\results\finaleart\S21F22332-finaleart-1.idf
Date:	27.03.2019 15:55:35
Version:	BeGaze 2.5.77
Sample Rate:	50
Subject:	S21F22332
Description:	Cyrielle Mailart

Table Header for Fixations:
Event Type	Trial	Number	Start	End	Duration	Location X	Location Y	Dispersion X	Dispersion Y	Plane	Avg. Pupil Size X	Avg. Pupil Size Y

Table Header for Saccades:
Event Type	Trial	Number	Start	End	Duration	Start Loc.X	Start Loc.Y	End Loc.X	End Loc.Y	Amplitude	Peak Speed	Peak Speed At	Average Speed	Peak Accel.	Peak Decel.	Average Accel.

Table Header for Blinks:
Event Type	Trial	Number	Start	End	Duration

Table Header for User Events:
Event Type	Trial	Number	Start	Description

UserEvent	1	1	2725378369	# Message: oysters_manet_1862.jpg
Fixation L	1	1	2725395745	2725853224	457479	983.85	520.65	32	62	-1	13.97	13.97
Fixation R	1	1	2725395745	2725853224	457479	983.85	520.65	32	62	-1	13.14	13.14
Saccade L	1	1	2725853224	2725873102	19878	983.31	564.91	711.57	591.93	1.74	276.04	1.00	87.72	6748.17	-6422.99	4407.70
Saccade R	1	1	2725853224	2725873102	19878	983.31	564.91	711.57	591.93	1.74	276.04	1.00	87.72	6748.17	-6422.99	4407.70
Fixation L	1	2	2725873102	2726191328	318226	654.55	586.85	67	25	-1	14.11	14.11
Fixation R	1	2	2725873102	2726191328	318226	654.55	586.85	67	25	-1	13.01	13.01
Saccade L	1	2	2726191328	2726211195	19867	644.37	571.07	638.25	561.16	0.20	14.58	1.00	10.05	271.26	-35.94	116.45
Saccade R	1	2	2726191328	2726211195	19867	644.37	571.07	638.25	561.16	0.20	14.58	1.00	10.05	271.26	-35.94	116.45
Fixation L	1	3	2726211195	2726350443	139248	630.23	557.78	46	20	-1	13.71	13.71
Fixation R	1	3	2726211195	2726350443	139248	630.23	557.78	46	20	-1	12.74	12.74
Saccade L	1	3	2726350443	2726370324	19881	594.50	549.22	489.34	550.85	0.77	106.39	1.00	38.58	2620.46	-2532.61	1977.42
Saccade R	1	3	2726350443	2726370324	19881	594.50	549.22	489.34	550.85	0.77	106.39	1.00	38.58	2620.46	-2532.61	1977.42
Fixation L	1	4	2726370324	2726529438	159114	483.15	553.02	8	12	-1	13.88	13.88
Fixation R	1	4	2726370324	2726529438	159114	483.15	553.02	8	12	-1	13.16	13.16
Saccade L	1	4	2726529438	2726569182	39744	481.68	552.89	1054.94	847.76	5.74	379.85	0.50	144.42	9372.74	-7872.42	7630.87
Saccade R	1	4	2726529438	2726569182	39744	481.68	552.89	1054.94	847.76	5.74	379.85	0.50	144.42	9372.74	-7872.42	7630.87
Fixation L	1	5	2726569182	2726807922	238740	1118.94	861.84	72	22	-1	14.35	14.35
Fixation R	1	5	2726569182	2726807922	238740	1118.94	861.84	72	22	-1	13.77	13.77
Saccade L	1	5	2726807922	2726827793	19871	1125.84	870.69	1295.85	732.84	1.16	221.31	1.00	58.60	5421.79	-5500.70	3652.79
Saccade R	1	5	2726807922	2726827793	19871	1125.84	870.69	1295.85	732.84	1.16	221.31	1.00	58.60	5421.79	-5500.70	3652.79
Fixation L	1	6	2726827793	2727364761	536968	1321.31	728.95	60	34	-1	13.38	13.38
Fixation R	1	6	2726827793	2727364761	536968	1321.31	728.95	60	34	-1	12.54	12.54
Saccade L	1	6	2727364761	2727384640	19879	1355.83	709.78	1380.34	703.39	0.29	26.87	1.00	14.83	607.80	-427.13	522.76
Saccade R	1	6	2727364761	2727384640	19879	1355.83	709.78	1380.34	703.39	0.29	26.87	1.00	14.83	607.80	-427.13	522.76
Fixation L	1	7	2727384640	2727543763	159123	1392.58	658.75	29	66	-1	13.30	13.30
Fixation R	1	7	2727384640	2727543763	159123	1392.58	658.75	29	66	-1	11.98	11.98
Saccade L	1	7	2727543763	2727563749	19986	1405.31	637.07	1402.92	486.16	0.85	152.64	1.00	42.43	3633.94	-3289.48	2321.16
Saccade R	1	7	2727543763	2727563749	19986	1405.31	637.07	1402.92	486.16	0.85	152.64	1.00	42.43	3633.94	-3289.48	2321.16
Fixation L	1	8	2727563749	2727842119	278370	1414.87	464.56	25	28	-1	13.18	13.18
Fixation R	1	8	2727563749	2727842119	278370	1414.87	464.56	25	28	-1	11.98	11.98
Saccade L	1	8	2727842119	2727862113	19994	1428.10	459.44	1478.19	518.22	0.61	78.12	1.00	30.31	1904.24	-1611.38	1419.25
Saccade R	1	8	2727842119	2727862113	19994	1428.10	459.44	1478.19	518.22	0.61	78.12	1.00	30.31	1904.24	-1611.38	1419.25
Fixation L	1	9	2727862113	2728080858	218745	1475.79	557.81	37	54	-1	13.65	13.65
Fixation R	1	9	2727862113	2728080858	218745	1475.79	557.81	37	54	-1	12.30	12.30
Saccade L	1	9	2728080858	2728100730	19872	1494.82	572.79	1501.81	574.66	0.19	14.85	1.00	9.64	76.00	-188.17	92.40
Saccade R	1	9	2728080858	2728100730	19872	1494.82	572.79	1501.81	574.66	0.19	14.85	1.00	9.64	76.00	-188.17	92.40
Fixation L	1	10	2728100730	2728299595	198865	1516.27	602.44	20	44	-1	14.09	14.09
Fixation R	1	10	2728100730	2728299595	198865	1516.27	602.44	20	44	-1	12.48	12.48
Saccade L	1	10	2728299595	2728339461	39866	1522.49	613.07	1458.71	889.11	2.46	166.54	1.00	61.74	4099.17	-3853.46	3372.88
Saccade R	1	10	2728299595	2728339461	39866	1522.49	613.07	1458.71	889.11	2.46	166.54	1.00	61.74	4099.17	-3853.46	3372.88
Fixation L	1	11	2728339461	2728478588	139127	1451.58	889.86	20	23	-1	13.90	13.90
Fixation R	1	11	2728339461	2728478588	139127	1451.58	889.86	20	23	-1	12.42	12.42
Saccade L	1	11	2728478588	2728498584	19996	1440.11	897.02	1192.12	896.16	1.33	250.71	1.00	66.32	6224.64	-6155.23	4166.70
Saccade R	1	11	2728478588	2728498584	19996	1440.11	897.02	1192.12	896.16	1.33	250.71	1.00	66.32	6224.64	-6155.23	4166.70
Fixation L	1	12	2728498584	2728757068	258484	1172.32	910.95	71	20	-1	14.06	14.06
Fixation R	1	12	2728498584	2728757068	258484	1172.32	910.95	71	20	-1	12.46	12.46
Saccade L	1	12	2728757068	2728896329	139261	1122.01	913.01	752.81	640.45	7.25	249.28	0.86	52.06	6174.21	-5878.65	2507.53
Saccade R	1	12	2728757068	2728896329	139261	1122.01	913.01	752.81	640.45	7.25	249.28	0.86	52.06	6174.21	-5878.65	2507.53
Fixation L	1	13	2728896329	2729095175	198846	729.68	629.01	33	18	-1	13.76	13.76
Fixation R	1	13	2728896329	2729095175	198846	729.68	629.01	33	18	-1	12.20	12.20
Saccade L	1	13	2729095175	2729135047	39872	718.82	621.87	829.54	826.21	2.10	161.49	0.50	52.70	3988.27	-3806.75	3017.71
Saccade R	1	13	2729095175	2729135047	39872	718.82	621.87	829.54	826.21	2.10	161.49	0.50	52.70	3988.27	-3806.75	3017.71
Fixation L	1	14	2729135047	2729373669	238622	840.78	833.55	16	26	-1	13.34	13.34
Fixation R	1	14	2729135047	2729373669	238622	840.78	833.55	16	26	-1	12.34	12.34
