[BeGaze]
Converted from:	C:\Documents and Settings\iViewX\Desktop\EXPERIMENTATIONS\Experiments\results\finaleart\S21F22332-finaleart-1.idf
Date:	27.03.2019 15:55:20
Version:	BeGaze 2.5.77
Sample Rate:	50
Subject:	S21F22332
Description:	Cyrielle Mailart

Table Header for Fixations:
Event Type	Trial	Number	Start	End	Duration	Location X	Location Y	Dispersion X	Dispersion Y	Plane	Avg. Pupil Size X	Avg. Pupil Size Y

Table Header for Saccades:
Event Type	Trial	Number	Start	End	Duration	Start Loc.X	Start Loc.Y	End Loc.X	End Loc.Y	Amplitude	Peak Speed	Peak Speed At	Average Speed	Peak Accel.	Peak Decel.	Average Accel.

Table Header for Blinks:
Event Type	Trial	Number	Start	End	Duration

Table Header for User Events:
Event Type	Trial	Number	Start	Description

UserEvent	1	1	2555498682	# Message: Sailboats_On_The_River_Sheldt_van_Rysselberghe_1892.jpg
Fixation L	1	1	2555513975	2555832209	318234	922.58	632.51	66	33	-1	15.89	15.89
Fixation R	1	1	2555513975	2555832209	318234	922.58	632.51	66	33	-1	13.09	13.09
Saccade L	1	1	2555832209	2555856003	23794	871.13	641.70	898.71	652.56	0.59	60.20	0.00	24.66	689.05	-1354.03	840.24
Saccade R	1	1	2555832209	2555856003	23794	871.13	641.70	898.71	652.56	0.59	60.20	0.00	24.66	689.05	-1354.03	840.24
Fixation L	1	2	2555856003	2556011198	155195	876.67	657.86	81	15	-1	16.01	16.01
Fixation R	1	2	2555856003	2556011198	155195	876.67	657.86	81	15	-1	13.22	13.22
Saccade L	1	2	2556011198	2556031211	20013	817.00	667.24	657.68	584.68	1.28	181.46	1.00	63.88	4406.59	-4387.15	3349.39
Saccade R	1	2	2556011198	2556031211	20013	817.00	667.24	657.68	584.68	1.28	181.46	1.00	63.88	4406.59	-4387.15	3349.39
Fixation L	1	3	2556031211	2556289681	258470	646.33	573.24	16	76	-1	13.72	13.72
Fixation R	1	3	2556031211	2556289681	258470	646.33	573.24	16	76	-1	11.20	11.20
Saccade L	1	3	2556289681	2556329434	39753	640.92	549.20	851.26	541.95	1.98	110.94	0.50	49.73	2491.12	-2722.95	2398.89
Saccade R	1	3	2556289681	2556329434	39753	640.92	549.20	851.26	541.95	1.98	110.94	0.50	49.73	2491.12	-2722.95	2398.89
Fixation L	1	4	2556329434	2556508543	179109	856.90	518.19	10	43	-1	12.27	12.27
Fixation R	1	4	2556329434	2556508543	179109	856.90	518.19	10	43	-1	10.22	10.22
Saccade L	1	4	2556508543	2556548285	39742	861.30	509.22	1051.27	887.27	3.67	305.91	0.50	92.44	7528.66	-7506.51	5298.93
Saccade R	1	4	2556508543	2556548285	39742	861.30	509.22	1051.27	887.27	3.67	305.91	0.50	92.44	7528.66	-7506.51	5298.93
Fixation L	1	5	2556548285	2556707407	159122	1058.37	898.69	16	18	-1	12.66	12.66
Fixation R	1	5	2556548285	2556707407	159122	1058.37	898.69	16	18	-1	10.44	10.44
Saccade L	1	5	2556707407	2556727285	19878	1067.28	903.00	1267.67	1051.96	1.37	252.43	1.00	68.80	6165.70	-6137.34	4152.93
Saccade R	1	5	2556707407	2556727285	19878	1067.28	903.00	1267.67	1051.96	1.37	252.43	1.00	68.80	6165.70	-6137.34	4152.93
Fixation L	1	6	2556727285	2556985892	258607	1267.44	1069.14	2	23	-1	13.01	13.01
Fixation R	1	6	2556727285	2556985892	258607	1267.44	1069.14	2	23	-1	10.40	10.40
Saccade L	1	6	2556985892	2557025638	39746	1266.53	1075.62	1471.94	1082.84	1.75	122.02	0.50	43.98	2966.45	-2938.83	2490.04
Saccade R	1	6	2556985892	2557025638	39746	1266.53	1075.62	1471.94	1082.84	1.75	122.02	0.50	43.98	2966.45	-2938.83	2490.04
Fixation L	1	7	2557025638	2557343875	318237	1480.88	1098.40	36	21	-1	13.00	13.00
Fixation R	1	7	2557025638	2557343875	318237	1480.88	1098.40	36	21	-1	10.34	10.34
Saccade L	1	7	2557343875	2557363742	19867	1508.79	1100.85	1588.37	1095.38	0.54	80.69	1.00	27.31	1955.77	-1827.76	1370.82
Saccade R	1	7	2557343875	2557363742	19867	1508.79	1100.85	1588.37	1095.38	0.54	80.69	1.00	27.31	1955.77	-1827.76	1370.82
Fixation L	1	8	2557363742	2557522863	159121	1589.49	1077.66	6	31	-1	13.21	13.21
Fixation R	1	8	2557363742	2557522863	159121	1589.49	1077.66	6	31	-1	10.06	10.06
Saccade L	1	8	2557522863	2557562611	39748	1590.13	1063.56	1270.07	1067.95	2.90	185.57	1.00	73.04	4559.96	-4329.40	3709.89
Saccade R	1	8	2557522863	2557562611	39748	1590.13	1063.56	1270.07	1067.95	2.90	185.57	1.00	73.04	4559.96	-4329.40	3709.89
Fixation L	1	9	2557562611	2557801347	238736	1226.09	1075.89	51	17	-1	13.48	13.48
Fixation R	1	9	2557562611	2557801347	238736	1226.09	1075.89	51	17	-1	10.24	10.24
Saccade L	1	9	2557801347	2557841097	39750	1223.27	1082.65	1641.03	1083.50	3.40	284.83	0.50	85.63	7108.01	-7023.69	5220.82
Saccade R	1	9	2557801347	2557841097	39750	1223.27	1082.65	1641.03	1083.50	3.40	284.83	0.50	85.63	7108.01	-7023.69	5220.82
Fixation L	1	10	2557841097	2558020091	178994	1638.47	1076.35	15	17	-1	13.64	13.64
Fixation R	1	10	2557841097	2558020091	178994	1638.47	1076.35	15	17	-1	10.37	10.37
Saccade L	1	10	2558020091	2558039965	19874	1628.33	1066.03	1514.70	1012.73	0.71	126.95	1.00	35.93	3110.84	-2885.36	2020.37
Saccade R	1	10	2558020091	2558039965	19874	1628.33	1066.03	1514.70	1012.73	0.71	126.95	1.00	35.93	3110.84	-2885.36	2020.37
Fixation L	1	11	2558039965	2558159330	119365	1523.53	999.56	15	18	-1	13.56	13.56
Fixation R	1	11	2558039965	2558159330	119365	1523.53	999.56	15	18	-1	10.23	10.23
Saccade L	1	11	2558159330	2558219074	59744	1529.35	995.09	1194.47	282.17	8.60	517.49	0.67	143.95	12907.95	-12151.45	6490.69
Saccade R	1	11	2558159330	2558219074	59744	1529.35	995.09	1194.47	282.17	8.60	517.49	0.67	143.95	12907.95	-12151.45	6490.69
Fixation L	1	12	2558219074	2558417948	198874	1191.75	269.38	8	31	-1	13.50	13.50
Fixation R	1	12	2558219074	2558417948	198874	1191.75	269.38	8	31	-1	10.28	10.28
Saccade L	1	12	2558417948	2558437818	19870	1185.96	268.89	1184.99	179.24	0.54	90.69	1.00	27.27	2153.64	-2137.03	1479.51
Saccade R	1	12	2558417948	2558437818	19870	1185.96	268.89	1184.99	179.24	0.54	90.69	1.00	27.27	2153.64	-2137.03	1479.51
Fixation L	1	13	2558437818	2558696431	258613	1176.44	175.12	15	10	-1	13.50	13.50
Fixation R	1	13	2558437818	2558696431	258613	1176.44	175.12	15	10	-1	10.34	10.34
Saccade L	1	13	2558696431	2558736179	39748	1169.85	168.35	819.69	169.26	3.03	261.39	0.50	76.33	6525.28	-6026.54	4208.73
Saccade R	1	13	2558696431	2558736179	39748	1169.85	168.35	819.69	169.26	3.03	261.39	0.50	76.33	6525.28	-6026.54	4208.73
Fixation L	1	14	2558736179	2559094158	357979	798.92	155.19	27	27	-1	13.35	13.35
Fixation R	1	14	2558736179	2559094158	357979	798.92	155.19	27	27	-1	10.76	10.76
Saccade L	1	14	2559094158	2559134030	39872	797.47	152.58	1250.03	137.44	3.76	240.86	0.50	94.22	5811.67	-5926.56	5573.05
Saccade R	1	14	2559094158	2559134030	39872	797.47	152.58	1250.03	137.44	3.76	240.86	0.50	94.22	5811.67	-5926.56	5573.05
Fixation L	1	15	2559134030	2559492015	357985	1263.79	142.65	17	36	-1	13.73	13.73
Fixation R	1	15	2559134030	2559492015	357985	1263.79	142.65	17	36	-1	10.92	10.92
