[BeGaze]
Converted from:	C:\Documents and Settings\iViewX\Desktop\EXPERIMENTATIONS\Experiments\results\finaleart\S21F22332-finaleart-1.idf
Date:	27.03.2019 15:55:06
Version:	BeGaze 2.5.77
Sample Rate:	50
Subject:	S21F22332
Description:	Cyrielle Mailart

Table Header for Fixations:
Event Type	Trial	Number	Start	End	Duration	Location X	Location Y	Dispersion X	Dispersion Y	Plane	Avg. Pupil Size X	Avg. Pupil Size Y

Table Header for Saccades:
Event Type	Trial	Number	Start	End	Duration	Start Loc.X	Start Loc.Y	End Loc.X	End Loc.Y	Amplitude	Peak Speed	Peak Speed At	Average Speed	Peak Accel.	Peak Decel.	Average Accel.

Table Header for Blinks:
Event Type	Trial	Number	Start	End	Duration

Table Header for User Events:
Event Type	Trial	Number	Start	Description

UserEvent	1	1	2389929330	# Message: The_Orchard_Vlaminck_1905.jpg
Saccade L	1	1	2389940979	2390020478	79499	940.75	568.00	988.70	537.72	1.22	46.05	1.00	15.35	1118.98	-838.45	450.62
Saccade R	1	1	2389940979	2390020478	79499	940.75	568.00	988.70	537.72	1.22	46.05	1.00	15.35	1118.98	-838.45	450.62
Fixation L	1	1	2390020478	2390219453	198975	1002.67	495.02	28	56	-1	13.23	13.23
Fixation R	1	1	2390020478	2390219453	198975	1002.67	495.02	28	56	-1	12.82	12.82
Blink L	1	1	2390219453	2390378571	159118
Blink R	1	1	2390219453	2390378571	159118
Fixation L	1	2	2390378571	2390517811	139240	1018.34	521.81	10	15	-1	13.27	13.27
Fixation R	1	2	2390378571	2390517811	139240	1018.34	521.81	10	15	-1	11.93	11.93
Saccade L	1	2	2390517811	2390557566	39755	1013.36	522.30	704.60	271.51	3.33	306.10	0.50	83.69	7626.82	-7391.72	4841.18
Saccade R	1	2	2390517811	2390557566	39755	1013.36	522.30	704.60	271.51	3.33	306.10	0.50	83.69	7626.82	-7391.72	4841.18
Fixation L	1	3	2390557566	2390756424	198858	697.91	254.86	13	23	-1	11.65	11.65
Fixation R	1	3	2390557566	2390756424	198858	697.91	254.86	13	23	-1	10.62	10.62
Saccade L	1	3	2390756424	2390776302	19878	690.73	260.04	501.09	98.07	1.47	252.14	1.00	73.98	6225.79	-5879.35	4206.24
Saccade R	1	3	2390756424	2390776302	19878	690.73	260.04	501.09	98.07	1.47	252.14	1.00	73.98	6225.79	-5879.35	4206.24
Fixation L	1	4	2390776302	2391034915	258613	483.29	142.31	26	62	-1	11.59	11.59
Fixation R	1	4	2390776302	2391034915	258613	483.29	142.31	26	62	-1	10.72	10.72
Saccade L	1	4	2391034915	2391293406	258491	486.42	137.67	854.97	-11.27	15.70	219.75	0.08	60.75	5316.43	-3914.72	1958.27
Saccade R	1	4	2391034915	2391293406	258491	486.42	137.67	854.97	-11.27	15.70	219.75	0.08	60.75	5316.43	-3914.72	1958.27
Fixation L	1	5	2391293406	2391392899	99493	874.31	33.22	35	64	-1	13.26	13.26
Fixation R	1	5	2391293406	2391392899	99493	874.31	33.22	35	64	-1	12.40	12.40
Saccade L	1	5	2391392899	2391532138	139239	890.40	48.31	1079.79	87.84	3.90	134.85	0.86	27.98	3327.61	-3098.26	1155.10
Saccade R	1	5	2391392899	2391532138	139239	890.40	48.31	1079.79	87.84	3.90	134.85	0.86	27.98	3327.61	-3098.26	1155.10
Fixation L	1	6	2391532138	2391651501	119363	1069.94	101.89	15	35	-1	13.16	13.16
Fixation R	1	6	2391532138	2391651501	119363	1069.94	101.89	15	35	-1	12.39	12.39
Saccade L	1	6	2391651501	2391671384	19883	1069.22	121.84	988.00	103.66	0.72	84.18	1.00	36.18	2027.20	-1373.80	1423.96
Saccade R	1	6	2391651501	2391671384	19883	1069.22	121.84	988.00	103.66	0.72	84.18	1.00	36.18	2027.20	-1373.80	1423.96
Fixation L	1	7	2391671384	2391790752	119368	1003.91	66.50	22	72	-1	13.22	13.22
Fixation R	1	7	2391671384	2391790752	119368	1003.91	66.50	22	72	-1	12.42	12.42
Saccade L	1	7	2391790752	2391810626	19874	1006.05	31.41	1004.94	-8.20	0.45	40.09	1.00	22.75	594.60	-853.12	498.28
Saccade R	1	7	2391790752	2391810626	19874	1006.05	31.41	1004.94	-8.20	0.45	40.09	1.00	22.75	594.60	-853.12	498.28
Fixation L	1	8	2391810626	2391909995	99369	1000.87	-7.53	8	35	-1	13.16	13.16
Fixation R	1	8	2391810626	2391909995	99369	1000.87	-7.53	8	35	-1	12.82	12.82
Saccade L	1	8	2391909995	2391949871	39876	1005.50	-7.59	1368.63	32.09	3.29	338.66	0.50	82.63	8390.34	-8008.30	4252.86
Saccade R	1	8	2391909995	2391949871	39876	1005.50	-7.59	1368.63	32.09	3.29	338.66	0.50	82.63	8390.34	-8008.30	4252.86
Fixation L	1	9	2391949871	2392108986	159115	1390.14	52.63	32	40	-1	13.39	13.39
Fixation R	1	9	2391949871	2392108986	159115	1390.14	52.63	32	40	-1	12.65	12.65
Saccade L	1	9	2392108986	2392168609	59623	1400.78	72.25	1448.74	623.57	6.64	415.36	0.67	111.32	10247.75	-9480.93	5183.88
Saccade R	1	9	2392108986	2392168609	59623	1400.78	72.25	1448.74	623.57	6.64	415.36	0.67	111.32	10247.75	-9480.93	5183.88
Fixation L	1	10	2392168609	2392407227	238618	1474.94	635.40	34	20	-1	14.00	14.00
Fixation R	1	10	2392168609	2392407227	238618	1474.94	635.40	34	20	-1	12.53	12.53
Saccade L	1	10	2392407227	2392447089	39862	1472.81	644.08	1162.15	527.48	2.98	258.43	0.50	74.83	6409.35	-6247.30	4372.36
Saccade R	1	10	2392407227	2392447089	39862	1472.81	644.08	1162.15	527.48	2.98	258.43	0.50	74.83	6409.35	-6247.30	4372.36
Fixation L	1	11	2392447089	2392665824	218735	1155.30	528.67	14	15	-1	13.35	13.35
Fixation R	1	11	2392447089	2392665824	218735	1155.30	528.67	14	15	-1	11.72	11.72
Saccade L	1	11	2392665824	2392685711	19887	1148.11	520.03	1095.95	347.14	1.01	182.62	1.00	50.54	4517.07	-4473.68	3014.04
Saccade R	1	11	2392665824	2392685711	19887	1148.11	520.03	1095.95	347.14	1.01	182.62	1.00	50.54	4517.07	-4473.68	3014.04
Fixation L	1	12	2392685711	2392844837	159126	1085.60	355.52	15	11	-1	12.72	12.72
Fixation R	1	12	2392685711	2392844837	159126	1085.60	355.52	15	11	-1	11.49	11.49
Saccade L	1	12	2392844837	2392904567	59730	1083.22	355.34	1197.40	878.69	5.63	342.55	0.67	94.31	8533.10	-8371.04	4432.98
Saccade R	1	12	2392844837	2392904567	59730	1083.22	355.34	1197.40	878.69	5.63	342.55	0.67	94.31	8533.10	-8371.04	4432.98
Fixation L	1	13	2392904567	2393103429	198862	1204.62	881.01	10	10	-1	13.18	13.18
Fixation R	1	13	2392904567	2393103429	198862	1204.62	881.01	10	10	-1	12.02	12.02
Saccade L	1	13	2393103429	2393143179	39750	1205.11	874.30	798.61	862.20	3.47	315.40	0.50	87.42	7835.86	-7632.74	5060.88
Saccade R	1	13	2393103429	2393143179	39750	1205.11	874.30	798.61	862.20	3.47	315.40	0.50	87.42	7835.86	-7632.74	5060.88
Fixation L	1	14	2393143179	2393421667	278488	794.27	817.41	10	73	-1	13.32	13.32
Fixation R	1	14	2393143179	2393421667	278488	794.27	817.41	10	73	-1	12.24	12.24
Saccade L	1	14	2393421667	2393441540	19873	799.83	803.77	1140.49	862.55	2.00	349.28	1.00	100.44	8565.69	-8138.42	5812.61
Saccade R	1	14	2393421667	2393441540	19873	799.83	803.77	1140.49	862.55	2.00	349.28	1.00	100.44	8565.69	-8138.42	5812.61
Fixation L	1	15	2393441540	2393660406	218866	1195.67	869.30	67	12	-1	12.77	12.77
Fixation R	1	15	2393441540	2393660406	218866	1195.67	869.30	67	12	-1	11.55	11.55
Saccade L	1	15	2393660406	2393700152	39746	1207.58	870.76	1305.78	524.79	3.05	221.96	0.50	76.84	5499.11	-5357.67	4505.32
Saccade R	1	15	2393660406	2393700152	39746	1207.58	870.76	1305.78	524.79	3.05	221.96	0.50	76.84	5499.11	-5357.67	4505.32
Fixation L	1	16	2393700152	2393918890	218738	1308.05	528.06	12	24	-1	12.26	12.26
Fixation R	1	16	2393700152	2393918890	218738	1308.05	528.06	12	24	-1	11.11	11.11
