[BeGaze]
Converted from:	C:\Documents and Settings\iViewX\Desktop\EXPERIMENTATIONS\Experiments\results\finaleart\S21F22332-finaleart-1.idf
Date:	27.03.2019 15:54:21
Version:	BeGaze 2.5.77
Sample Rate:	50
Subject:	S21F22332
Description:	Cyrielle Mailart

Table Header for Fixations:
Event Type	Trial	Number	Start	End	Duration	Location X	Location Y	Dispersion X	Dispersion Y	Plane	Avg. Pupil Size X	Avg. Pupil Size Y

Table Header for Saccades:
Event Type	Trial	Number	Start	End	Duration	Start Loc.X	Start Loc.Y	End Loc.X	End Loc.Y	Amplitude	Peak Speed	Peak Speed At	Average Speed	Peak Accel.	Peak Decel.	Average Accel.

Table Header for Blinks:
Event Type	Trial	Number	Start	End	Duration

Table Header for User Events:
Event Type	Trial	Number	Start	Description

UserEvent	1	1	1671265002	# Message: REJECTED_Volga_Lagoon_Vassiliev_1870.jpg
Fixation L	1	1	1671279343	1671836190	556847	915.34	640.90	33	39	-1	18.76	18.76
Fixation R	1	1	1671279343	1671836190	556847	915.34	640.90	33	39	-1	17.82	17.82
Saccade L	1	1	1671836190	1671856193	20003	889.71	648.47	858.98	643.41	0.50	40.59	0.00	25.21	544.45	-654.71	579.66
Saccade R	1	1	1671836190	1671856193	20003	889.71	648.47	858.98	643.41	0.50	40.59	0.00	25.21	544.45	-654.71	579.66
Fixation L	1	2	1671856193	1671995308	139115	843.17	671.24	27	56	-1	16.04	16.04
Fixation R	1	2	1671856193	1671995308	139115	843.17	671.24	27	56	-1	15.10	15.10
Saccade L	1	2	1671995308	1672035179	39871	831.88	696.32	450.76	753.53	3.57	273.41	0.50	89.64	6221.97	-6247.74	4357.21
Saccade R	1	2	1671995308	1672035179	39871	831.88	696.32	450.76	753.53	3.57	273.41	0.50	89.64	6221.97	-6247.74	4357.21
Fixation L	1	3	1672035179	1672234032	198853	447.07	776.61	13	37	-1	14.59	14.59
Fixation R	1	3	1672035179	1672234032	198853	447.07	776.61	13	37	-1	13.90	13.90
Saccade L	1	3	1672234032	1672253919	19887	445.92	787.83	443.55	556.92	1.45	233.48	1.00	72.90	5803.07	-5500.19	4219.94
Saccade R	1	3	1672234032	1672253919	19887	445.92	787.83	443.55	556.92	1.45	233.48	1.00	72.90	5803.07	-5500.19	4219.94
Fixation L	1	4	1672253919	1672532423	278504	451.96	493.12	20	76	-1	14.53	14.53
Fixation R	1	4	1672253919	1672532423	278504	451.96	493.12	20	76	-1	14.05	14.05
Saccade L	1	4	1672532423	1672552289	19866	459.56	493.29	395.21	436.86	0.59	86.58	1.00	29.49	2059.71	-1496.60	1402.52
Saccade R	1	4	1672532423	1672552289	19866	459.56	493.29	395.21	436.86	0.59	86.58	1.00	29.49	2059.71	-1496.60	1402.52
Fixation L	1	5	1672552289	1672850633	298344	390.04	408.06	26	67	-1	14.83	14.83
Fixation R	1	5	1672552289	1672850633	298344	390.04	408.06	26	67	-1	14.59	14.59
Saccade L	1	5	1672850633	1672870507	19874	391.82	369.40	392.10	354.52	0.32	31.34	1.00	15.97	-56.29	-407.16	221.95
Saccade R	1	5	1672850633	1672870507	19874	391.82	369.40	392.10	354.52	0.32	31.34	1.00	15.97	-56.29	-407.16	221.95
Fixation L	1	6	1672870507	1673049501	178994	395.46	348.27	6	16	-1	15.06	15.06
Fixation R	1	6	1672870507	1673049501	178994	395.46	348.27	6	16	-1	14.94	14.94
Saccade L	1	6	1673049501	1673168869	119368	395.04	344.34	148.09	523.32	6.19	203.33	0.33	51.82	5018.83	-4921.62	2143.15
Saccade R	1	6	1673049501	1673168869	119368	395.04	344.34	148.09	523.32	6.19	203.33	0.33	51.82	5018.83	-4921.62	2143.15
Fixation L	1	7	1673168869	1673506980	338111	175.42	537.09	44	23	-1	15.66	15.66
Fixation R	1	7	1673168869	1673506980	338111	175.42	537.09	44	23	-1	15.57	15.57
Saccade L	1	7	1673506980	1673546719	39739	168.99	530.90	224.35	782.45	2.29	168.72	0.50	57.59	3959.34	-3889.95	3054.28
Saccade R	1	7	1673506980	1673546719	39739	168.99	530.90	224.35	782.45	2.29	168.72	0.50	57.59	3959.34	-3889.95	3054.28
Fixation L	1	8	1673546719	1673705839	159120	229.42	767.96	36	44	-1	16.07	16.07
Fixation R	1	8	1673546719	1673705839	159120	229.42	767.96	36	44	-1	15.82	15.82
Saccade L	1	8	1673705839	1673725841	20002	256.50	792.41	344.50	980.06	1.43	209.58	1.00	71.25	5075.54	-5212.95	3693.54
Saccade R	1	8	1673705839	1673725841	20002	256.50	792.41	344.50	980.06	1.43	209.58	1.00	71.25	5075.54	-5212.95	3693.54
Fixation L	1	9	1673725841	1674223085	497244	344.17	977.93	18	52	-1	16.47	16.47
Fixation R	1	9	1673725841	1674223085	497244	344.17	977.93	18	52	-1	16.28	16.28
Saccade L	1	9	1674223085	1674262811	39726	345.62	1008.31	760.03	988.99	3.63	263.97	0.50	91.30	6318.63	-6070.40	4981.10
Saccade R	1	9	1674223085	1674262811	39726	345.62	1008.31	760.03	988.99	3.63	263.97	0.50	91.30	6318.63	-6070.40	4981.10
Fixation L	1	10	1674262811	1674521421	258610	770.85	972.29	20	24	-1	16.67	16.67
Fixation R	1	10	1674262811	1674521421	258610	770.85	972.29	20	24	-1	16.54	16.54
Saccade L	1	10	1674521421	1674541303	19882	780.90	976.25	767.68	871.91	0.58	106.38	1.00	28.93	2594.04	-2477.70	1729.73
Saccade R	1	10	1674521421	1674541303	19882	780.90	976.25	767.68	871.91	0.58	106.38	1.00	28.93	2594.04	-2477.70	1729.73
Fixation L	1	11	1674541303	1674839657	298354	764.19	877.35	14	18	-1	16.60	16.60
Fixation R	1	11	1674541303	1674839657	298354	764.19	877.35	14	18	-1	15.79	15.79
Saccade L	1	11	1674839657	1674859520	19863	765.84	876.93	908.46	876.38	0.78	144.24	1.00	39.30	3560.47	-3449.44	2375.68
Saccade R	1	11	1674839657	1674859520	19863	765.84	876.93	908.46	876.38	0.78	144.24	1.00	39.30	3560.47	-3449.44	2375.68
Fixation L	1	12	1674859520	1675257260	397740	907.88	871.52	10	9	-1	16.76	16.76
Fixation R	1	12	1674859520	1675257260	397740	907.88	871.52	10	9	-1	15.91	15.91
Saccade L	1	12	1675257260	1675336872	79612	906.16	875.69	1126.13	861.91	3.12	139.84	0.25	39.21	3404.87	-3317.36	2085.72
Saccade R	1	12	1675257260	1675336872	79612	906.16	875.69	1126.13	861.91	3.12	139.84	0.25	39.21	3404.87	-3317.36	2085.72
