[BeGaze]
Converted from:	C:\Documents and Settings\iViewX\Desktop\EXPERIMENTATIONS\Experiments\results\finaleart\S21F22332-finaleart-1.idf
Date:	27.03.2019 15:56:14
Version:	BeGaze 2.5.77
Sample Rate:	50
Subject:	S21F22332
Description:	Cyrielle Mailart

Table Header for Fixations:
Event Type	Trial	Number	Start	End	Duration	Location X	Location Y	Dispersion X	Dispersion Y	Plane	Avg. Pupil Size X	Avg. Pupil Size Y

Table Header for Saccades:
Event Type	Trial	Number	Start	End	Duration	Start Loc.X	Start Loc.Y	End Loc.X	End Loc.Y	Amplitude	Peak Speed	Peak Speed At	Average Speed	Peak Accel.	Peak Decel.	Average Accel.

Table Header for Blinks:
Event Type	Trial	Number	Start	End	Duration

Table Header for User Events:
Event Type	Trial	Number	Start	Description

UserEvent	1	1	3044546037	# Message: marquet-fruit-knife-and-napkin-1898.jpg
Fixation L	1	1	3044552749	3044831232	278483	861.16	523.07	12	38	-1	13.32	13.32
Fixation R	1	1	3044552749	3044831232	278483	861.16	523.07	12	38	-1	12.74	12.74
Saccade L	1	1	3044831232	3044851106	19874	868.14	507.09	955.44	511.58	0.53	88.43	1.00	26.76	2010.71	-1788.94	1282.71
Saccade R	1	1	3044831232	3044851106	19874	868.14	507.09	955.44	511.58	0.53	88.43	1.00	26.76	2010.71	-1788.94	1282.71
Fixation L	1	2	3044851106	3045049985	198879	966.64	531.50	18	34	-1	13.45	13.45
Fixation R	1	2	3044851106	3045049985	198879	966.64	531.50	18	34	-1	12.54	12.54
Saccade L	1	2	3045049985	3045089728	39743	965.10	545.84	1190.30	748.78	2.99	194.92	0.50	75.34	4785.19	-4342.89	4182.28
Saccade R	1	2	3045049985	3045089728	39743	965.10	545.84	1190.30	748.78	2.99	194.92	0.50	75.34	4785.19	-4342.89	4182.28
Fixation L	1	3	3045089728	3045209091	119363	1179.26	770.31	16	33	-1	12.96	12.96
Fixation R	1	3	3045089728	3045209091	119363	1179.26	770.31	16	33	-1	12.16	12.16
Saccade L	1	3	3045209091	3045248844	39753	1173.56	782.04	1501.69	837.32	2.88	188.67	0.50	72.49	4593.14	-4267.78	3977.53
Saccade R	1	3	3045209091	3045248844	39753	1173.56	782.04	1501.69	837.32	2.88	188.67	0.50	72.49	4593.14	-4267.78	3977.53
Fixation L	1	4	3045248844	3045706318	457474	1502.13	867.42	9	44	-1	12.56	12.56
Fixation R	1	4	3045248844	3045706318	457474	1502.13	867.42	9	44	-1	11.70	11.70
Saccade L	1	4	3045706318	3045726195	19877	1501.87	853.17	1394.48	835.70	0.62	110.06	1.00	31.35	2692.11	-2643.92	1877.38
Saccade R	1	4	3045706318	3045726195	19877	1501.87	853.17	1394.48	835.70	0.62	110.06	1.00	31.35	2692.11	-2643.92	1877.38
Fixation L	1	5	3045726195	3045925179	198984	1405.17	836.44	30	16	-1	13.15	13.15
Fixation R	1	5	3045726195	3045925179	198984	1405.17	836.44	30	16	-1	11.83	11.83
Saccade L	1	5	3045925179	3045945052	19873	1385.97	828.68	1099.73	832.22	1.62	289.35	1.00	81.51	7127.82	-7148.62	4996.42
Saccade R	1	5	3045925179	3045945052	19873	1385.97	828.68	1099.73	832.22	1.62	289.35	1.00	81.51	7127.82	-7148.62	4996.42
Fixation L	1	6	3045945052	3046064300	119248	1094.78	831.85	9	2	-1	13.17	13.17
Fixation R	1	6	3045945052	3046064300	119248	1094.78	831.85	9	2	-1	11.72	11.72
Saccade L	1	6	3046064300	3046104169	39869	1090.40	830.73	625.58	728.32	4.02	250.11	0.50	100.89	6243.73	-5796.77	5828.03
Saccade R	1	6	3046064300	3046104169	39869	1090.40	830.73	625.58	728.32	4.02	250.11	0.50	100.89	6243.73	-5796.77	5828.03
Fixation L	1	7	3046104169	3046362658	258489	587.55	719.29	49	18	-1	12.93	12.93
Fixation R	1	7	3046104169	3046362658	258489	587.55	719.29	49	18	-1	11.85	11.85
Saccade L	1	7	3046362658	3046382657	19999	576.79	713.43	574.38	593.07	1.04	121.77	1.00	52.01	2973.04	-2969.36	2609.93
Saccade R	1	7	3046362658	3046382657	19999	576.79	713.43	574.38	593.07	1.04	121.77	1.00	52.01	2973.04	-2969.36	2609.93
Fixation L	1	8	3046382657	3046521775	139118	569.13	524.63	11	80	-1	12.53	12.53
Fixation R	1	8	3046382657	3046521775	139118	569.13	524.63	11	80	-1	11.76	11.76
Saccade L	1	8	3046521775	3046541771	19996	563.15	513.17	501.40	270.22	1.48	253.43	1.00	73.82	6244.40	-5829.37	4258.09
Saccade R	1	8	3046521775	3046541771	19996	563.15	513.17	501.40	270.22	1.48	253.43	1.00	73.82	6244.40	-5829.37	4258.09
Fixation L	1	9	3046541771	3046820138	278367	485.46	265.84	25	26	-1	12.49	12.49
Fixation R	1	9	3046541771	3046820138	278367	485.46	265.84	25	26	-1	12.08	12.08
Saccade L	1	9	3046820138	3046860001	39863	499.68	263.41	655.76	143.06	2.30	171.93	0.50	57.82	4254.52	-3671.54	2711.79
Saccade R	1	9	3046820138	3046860001	39863	499.68	263.41	655.76	143.06	2.30	171.93	0.50	57.82	4254.52	-3671.54	2711.79
Fixation L	1	10	3046860001	3047138365	278364	661.10	161.97	9	60	-1	12.78	12.78
Fixation R	1	10	3046860001	3047138365	278364	661.10	161.97	9	60	-1	12.47	12.47
Saccade L	1	10	3047138365	3047178239	39874	661.40	179.71	379.48	182.90	3.15	248.51	0.50	79.07	6076.16	-5951.25	4546.31
Saccade R	1	10	3047138365	3047178239	39874	661.40	179.71	379.48	182.90	3.15	248.51	0.50	79.07	6076.16	-5951.25	4546.31
Fixation L	1	11	3047178239	3047456597	278358	390.74	206.30	30	63	-1	13.30	13.30
Fixation R	1	11	3047178239	3047456597	278358	390.74	206.30	30	63	-1	13.18	13.18
Saccade L	1	11	3047456597	3047536224	79627	402.19	237.44	1400.93	278.38	12.15	434.63	0.50	152.61	10553.47	-7760.51	6207.92
Saccade R	1	11	3047456597	3047536224	79627	402.19	237.44	1400.93	278.38	12.15	434.63	0.50	152.61	10553.47	-7760.51	6207.92
Fixation L	1	12	3047536224	3047675336	139112	1370.02	317.22	39	56	-1	13.63	13.63
Fixation R	1	12	3047536224	3047675336	139112	1370.02	317.22	39	56	-1	13.40	13.40
Saccade L	1	12	3047675336	3047695342	20006	1366.20	331.62	1361.80	341.92	0.12	11.33	1.00	5.79	161.07	-112.84	111.61
Saccade R	1	12	3047675336	3047695342	20006	1366.20	331.62	1361.80	341.92	0.12	11.33	1.00	5.79	161.07	-112.84	111.61
Fixation L	1	13	3047695342	3047814579	119237	1358.16	340.23	16	54	-1	13.76	13.76
Fixation R	1	13	3047695342	3047814579	119237	1358.16	340.23	16	54	-1	13.38	13.38
Saccade L	1	13	3047814579	3047834454	19875	1344.93	297.92	1332.53	247.28	0.68	56.57	0.00	34.34	1274.09	-1190.69	1073.94
Saccade R	1	13	3047814579	3047834454	19875	1344.93	297.92	1332.53	247.28	0.68	56.57	0.00	34.34	1274.09	-1190.69	1073.94
Fixation L	1	14	3047834454	3047953829	119375	1321.62	223.72	20	30	-1	13.69	13.69
Fixation R	1	14	3047834454	3047953829	119375	1321.62	223.72	20	30	-1	12.55	12.55
Saccade L	1	14	3047953829	3047993567	39738	1312.73	217.57	1503.12	354.68	2.21	136.38	1.00	55.51	3314.96	-2978.82	3050.36
Saccade R	1	14	3047953829	3047993567	39738	1312.73	217.57	1503.12	354.68	2.21	136.38	1.00	55.51	3314.96	-2978.82	3050.36
Fixation L	1	15	3047993567	3048172705	179138	1512.31	347.40	31	42	-1	13.14	13.14
Fixation R	1	15	3047993567	3048172705	179138	1512.31	347.40	31	42	-1	12.02	12.02
Saccade L	1	15	3048172705	3048192566	19861	1509.32	318.36	1331.90	152.17	1.57	245.78	1.00	79.21	6088.69	-5553.48	3921.02
Saccade R	1	15	3048172705	3048192566	19861	1509.32	318.36	1331.90	152.17	1.57	245.78	1.00	79.21	6088.69	-5553.48	3921.02
Fixation L	1	16	3048192566	3048510800	318234	1332.62	160.04	9	43	-1	12.78	12.78
Fixation R	1	16	3048192566	3048510800	318234	1332.62	160.04	9	43	-1	11.79	11.79
Saccade L	1	16	3048510800	3048530669	19869	1331.05	174.77	1594.81	329.15	2.10	308.87	1.00	105.71	7574.58	0.00	3787.29
Saccade R	1	16	3048510800	3048530669	19869	1331.05	174.77	1594.81	329.15	2.10	308.87	1.00	105.71	7574.58	0.00	3787.29
