[BeGaze]
Converted from:	C:\Documents and Settings\iViewX\Desktop\EXPERIMENTATIONS\Experiments\results\finaleart\S21F22332-finaleart-1.idf
Date:	27.03.2019 15:55:42
Version:	BeGaze 2.5.77
Sample Rate:	50
Subject:	S21F22332
Description:	Cyrielle Mailart

Table Header for Fixations:
Event Type	Trial	Number	Start	End	Duration	Location X	Location Y	Dispersion X	Dispersion Y	Plane	Avg. Pupil Size X	Avg. Pupil Size Y

Table Header for Saccades:
Event Type	Trial	Number	Start	End	Duration	Start Loc.X	Start Loc.Y	End Loc.X	End Loc.Y	Amplitude	Peak Speed	Peak Speed At	Average Speed	Peak Accel.	Peak Decel.	Average Accel.

Table Header for Blinks:
Event Type	Trial	Number	Start	End	Duration

Table Header for User Events:
Event Type	Trial	Number	Start	Description

UserEvent	1	1	2774219767	# Message: renoir-still-life-with-peaches-and-grapes-1881.jpg
Saccade L	1	1	2774231333	2774251201	19868	973.81	311.93	977.48	406.22	0.73	95.45	1.00	36.70	366.38	-1757.14	707.84
Saccade R	1	1	2774231333	2774251201	19868	973.81	311.93	977.48	406.22	0.73	95.45	1.00	36.70	366.38	-1757.14	707.84
Fixation L	1	1	2774251201	2774649064	397863	963.37	401.22	19	32	-1	13.88	13.88
Fixation R	1	1	2774251201	2774649064	397863	963.37	401.22	19	32	-1	12.92	12.92
Saccade L	1	2	2774649064	2774668940	19876	962.46	398.94	824.35	426.06	0.80	142.36	1.00	40.41	3441.98	-3348.09	2274.88
Saccade R	1	2	2774649064	2774668940	19876	962.46	398.94	824.35	426.06	0.80	142.36	1.00	40.41	3441.98	-3348.09	2274.88
Fixation L	1	2	2774668940	2774907547	238607	809.86	428.57	44	38	-1	12.35	12.35
Fixation R	1	2	2774668940	2774907547	238607	809.86	428.57	44	38	-1	11.45	11.45
Saccade L	1	3	2774907547	2774927410	19863	845.73	451.25	1119.09	772.58	2.60	425.99	1.00	130.84	10452.66	-10159.59	6949.04
Saccade R	1	3	2774907547	2774927410	19863	845.73	451.25	1119.09	772.58	2.60	425.99	1.00	130.84	10452.66	-10159.59	6949.04
Fixation L	1	3	2774927410	2775086533	159123	1129.91	823.41	25	67	-1	11.31	11.31
Fixation R	1	3	2774927410	2775086533	159123	1129.91	823.41	25	67	-1	10.37	10.37
Saccade L	1	4	2775086533	2775106404	19871	1140.95	839.72	1139.67	852.40	0.13	12.90	1.00	6.39	254.56	-48.26	116.53
Saccade R	1	4	2775086533	2775106404	19871	1140.95	839.72	1139.67	852.40	0.13	12.90	1.00	6.39	254.56	-48.26	116.53
Fixation L	1	4	2775106404	2775205897	99493	1146.46	846.34	10	12	-1	11.60	11.60
Fixation R	1	4	2775106404	2775205897	99493	1146.46	846.34	10	12	-1	10.49	10.49
Saccade L	1	5	2775205897	2775225777	19880	1150.36	849.88	1322.54	848.12	0.96	174.13	1.00	48.08	4249.16	-4201.46	2858.85
Saccade R	1	5	2775205897	2775225777	19880	1150.36	849.88	1322.54	848.12	0.96	174.13	1.00	48.08	4249.16	-4201.46	2858.85
Fixation L	1	5	2775225777	2775404766	178989	1329.83	846.43	15	8	-1	10.97	10.97
Fixation R	1	5	2775225777	2775404766	178989	1329.83	846.43	15	8	-1	10.02	10.02
Saccade L	1	6	2775404766	2775424763	19997	1337.64	846.01	1430.09	698.78	0.97	175.81	1.00	48.57	4371.09	-3936.90	2787.05
Saccade R	1	6	2775404766	2775424763	19997	1337.64	846.01	1430.09	698.78	0.97	175.81	1.00	48.57	4371.09	-3936.90	2787.05
Fixation L	1	6	2775424763	2775683253	258490	1443.44	672.37	27	34	-1	10.63	10.63
Fixation R	1	6	2775424763	2775683253	258490	1443.44	672.37	27	34	-1	9.77	9.77
Saccade L	1	7	2775683253	2775703127	19874	1457.91	666.64	1522.76	674.73	0.49	66.11	1.00	24.70	1641.18	-1366.95	1131.02
Saccade R	1	7	2775683253	2775703127	19874	1457.91	666.64	1522.76	674.73	0.49	66.11	1.00	24.70	1641.18	-1366.95	1131.02
Fixation L	1	7	2775703127	2775882131	179004	1533.39	707.20	15	51	-1	10.47	10.47
Fixation R	1	7	2775703127	2775882131	179004	1533.39	707.20	15	51	-1	9.66	9.66
Saccade L	1	8	2775882131	2775921987	39856	1535.21	725.91	1301.37	798.16	2.22	176.22	1.00	55.63	4204.23	-4060.10	2821.04
Saccade R	1	8	2775882131	2775921987	39856	1535.21	725.91	1301.37	798.16	2.22	176.22	1.00	55.63	4204.23	-4060.10	2821.04
Fixation L	1	8	2775921987	2776061231	139244	1302.41	795.99	16	21	-1	11.01	11.01
Fixation R	1	8	2775921987	2776061231	139244	1302.41	795.99	16	21	-1	9.93	9.93
Saccade L	1	9	2776061231	2776081098	19867	1290.35	801.67	991.10	804.36	1.79	302.46	1.00	90.05	7482.95	-7056.06	5027.06
Saccade R	1	9	2776061231	2776081098	19867	1290.35	801.67	991.10	804.36	1.79	302.46	1.00	90.05	7482.95	-7056.06	5027.06
Fixation L	1	9	2776081098	2776319717	238619	955.44	835.45	42	50	-1	11.41	11.41
Fixation R	1	9	2776081098	2776319717	238619	955.44	835.45	42	50	-1	10.38	10.38
Saccade L	1	10	2776319717	2776339590	19873	949.02	852.71	832.36	842.93	0.71	118.41	1.00	35.95	2816.64	-2855.95	2002.51
Saccade R	1	10	2776319717	2776339590	19873	949.02	852.71	832.36	842.93	0.71	118.41	1.00	35.95	2816.64	-2855.95	2002.51
Fixation L	1	10	2776339590	2776876684	537094	831.68	890.27	17	81	-1	11.08	11.08
Fixation R	1	10	2776339590	2776876684	537094	831.68	890.27	17	81	-1	10.34	10.34
Saccade L	1	11	2776876684	2776896566	19882	835.07	924.01	836.20	929.42	0.04	5.59	1.00	2.24	114.79	-79.76	75.65
Saccade R	1	11	2776876684	2776896566	19882	835.07	924.01	836.20	929.42	0.04	5.59	1.00	2.24	114.79	-79.76	75.65
Fixation L	1	11	2776896566	2777194944	298378	839.06	915.26	4	32	-1	10.84	10.84
Fixation R	1	11	2776896566	2777194944	298378	839.06	915.26	4	32	-1	10.54	10.54
Saccade L	1	12	2777194944	2777254545	59601	838.32	896.65	820.45	414.32	5.07	285.54	0.33	85.05	7123.09	-6388.74	4460.76
Saccade R	1	12	2777194944	2777254545	59601	838.32	896.65	820.45	414.32	5.07	285.54	0.33	85.05	7123.09	-6388.74	4460.76
Fixation L	1	12	2777254545	2777373903	119358	812.65	378.66	16	68	-1	10.84	10.84
Fixation R	1	12	2777254545	2777373903	119358	812.65	378.66	16	68	-1	10.23	10.23
Saccade L	1	13	2777373903	2777393788	19885	803.69	346.10	796.87	337.57	0.18	12.35	0.00	8.93	185.93	-91.65	113.61
Saccade R	1	13	2777373903	2777393788	19885	803.69	346.10	796.87	337.57	0.18	12.35	0.00	8.93	185.93	-91.65	113.61
Fixation L	1	13	2777393788	2777572780	178992	840.79	345.04	74	22	-1	10.95	10.95
Fixation R	1	13	2777393788	2777572780	178992	840.79	345.04	74	22	-1	10.43	10.43
Saccade L	1	14	2777572780	2777592654	19874	870.58	350.19	871.97	354.61	0.06	4.69	1.00	2.86	15.95	-57.91	31.48
Saccade R	1	14	2777572780	2777592654	19874	870.58	350.19	871.97	354.61	0.06	4.69	1.00	2.86	15.95	-57.91	31.48
Fixation L	1	14	2777592654	2778010377	417723	857.34	348.10	49	49	-1	11.41	11.41
Fixation R	1	14	2777592654	2778010377	417723	857.34	348.10	49	49	-1	10.70	10.70
Saccade L	1	15	2778010377	2778209246	198869	827.38	320.25	653.57	541.40	5.82	201.27	0.70	29.25	4951.68	-4985.81	1372.76
Saccade R	1	15	2778010377	2778209246	198869	827.38	320.25	653.57	541.40	5.82	201.27	0.70	29.25	4951.68	-4985.81	1372.76
