[BeGaze]
Converted from:	C:\Documents and Settings\iViewX\Desktop\EXPERIMENTATIONS\Experiments\results\finaleart\S21F22332-finaleart-1.idf
Date:	27.03.2019 15:54:54
Version:	BeGaze 2.5.77
Sample Rate:	50
Subject:	S21F22332
Description:	Cyrielle Mailart

Table Header for Fixations:
Event Type	Trial	Number	Start	End	Duration	Location X	Location Y	Dispersion X	Dispersion Y	Plane	Avg. Pupil Size X	Avg. Pupil Size Y

Table Header for Saccades:
Event Type	Trial	Number	Start	End	Duration	Start Loc.X	Start Loc.Y	End Loc.X	End Loc.Y	Amplitude	Peak Speed	Peak Speed At	Average Speed	Peak Accel.	Peak Decel.	Average Accel.

Table Header for Blinks:
Event Type	Trial	Number	Start	End	Duration

Table Header for User Events:
Event Type	Trial	Number	Start	Description

UserEvent	1	1	2304034962	# Message: les-deux-amies_marevna_0.jpg
Saccade L	1	1	2304036220	2304115827	79607	959.11	510.35	1107.80	603.45	2.79	176.79	1.00	35.09	4376.56	-4255.04	1560.78
Saccade R	1	1	2304036220	2304115827	79607	959.11	510.35	1107.80	603.45	2.79	176.79	1.00	35.09	4376.56	-4255.04	1560.78
Fixation L	1	1	2304115827	2304334551	218724	1081.90	622.41	33	26	-1	13.14	13.14
Fixation R	1	1	2304115827	2304334551	218724	1081.90	622.41	33	26	-1	12.33	12.33
Saccade L	1	2	2304334551	2304354428	19877	1073.93	629.63	996.70	580.65	0.69	92.51	1.00	34.56	2212.92	-2099.17	1703.97
Saccade R	1	2	2304334551	2304354428	19877	1073.93	629.63	996.70	580.65	0.69	92.51	1.00	34.56	2212.92	-2099.17	1703.97
Fixation L	1	2	2304354428	2304493679	139251	988.74	546.60	14	50	-1	12.68	12.68
Fixation R	1	2	2304354428	2304493679	139251	988.74	546.60	14	50	-1	12.40	12.40
Saccade L	1	3	2304493679	2304513549	19870	982.60	530.52	1213.99	326.86	1.96	311.52	1.00	98.74	7657.95	-7545.77	5447.59
Saccade R	1	3	2304493679	2304513549	19870	982.60	530.52	1213.99	326.86	1.96	311.52	1.00	98.74	7657.95	-7545.77	5447.59
Fixation L	1	3	2304513549	2304732409	218860	1270.07	315.96	67	16	-1	11.52	11.52
Fixation R	1	3	2304513549	2304732409	218860	1270.07	315.96	67	16	-1	10.91	10.91
Saccade L	1	4	2304732409	2304752278	19869	1272.35	309.94	1175.91	314.11	0.66	97.64	1.00	33.18	2340.43	-2176.80	1614.03
Saccade R	1	4	2304732409	2304752278	19869	1272.35	309.94	1175.91	314.11	0.66	97.64	1.00	33.18	2340.43	-2176.80	1614.03
Fixation L	1	4	2304752278	2304871655	119377	1187.86	307.81	20	11	-1	10.24	10.24
Fixation R	1	4	2304752278	2304871655	119377	1187.86	307.81	20	11	-1	9.94	9.94
Saccade L	1	5	2304871655	2304931277	59622	1188.99	307.32	415.75	145.12	8.28	407.19	0.67	138.92	10142.19	-9782.11	6512.41
Saccade R	1	5	2304871655	2304931277	59622	1188.99	307.32	415.75	145.12	8.28	407.19	0.67	138.92	10142.19	-9782.11	6512.41
Fixation L	1	5	2304931277	2305229636	298359	404.96	150.86	33	66	-1	10.24	10.24
Fixation R	1	5	2304931277	2305229636	298359	404.96	150.86	33	66	-1	10.59	10.59
Saccade L	1	6	2305229636	2305527996	298360	382.63	100.40	357.94	50.78	18.93	178.71	0.73	63.46	3806.67	-4107.78	1226.78
Saccade R	1	6	2305229636	2305527996	298360	382.63	100.40	357.94	50.78	18.93	178.71	0.73	63.46	3806.67	-4107.78	1226.78
Fixation L	1	6	2305527996	2305766608	238612	370.24	48.03	22	77	-1	11.86	11.86
Fixation R	1	6	2305527996	2305766608	238612	370.24	48.03	22	77	-1	12.55	12.55
Saccade L	1	7	2305766608	2305786606	19998	377.85	65.52	383.64	119.36	0.60	54.78	1.00	30.19	1163.71	-1266.50	1039.73
Saccade R	1	7	2305766608	2305786606	19998	377.85	65.52	383.64	119.36	0.60	54.78	1.00	30.19	1163.71	-1266.50	1039.73
Fixation L	1	7	2305786606	2306005342	218736	390.07	166.60	25	69	-1	11.97	11.97
Fixation R	1	7	2305786606	2306005342	218736	390.07	166.60	25	69	-1	12.74	12.74
Saccade L	1	8	2306005342	2306084959	79617	400.01	184.49	1224.51	536.35	11.48	343.35	0.75	144.18	7739.40	-8350.02	5320.80
Saccade R	1	8	2306005342	2306084959	79617	400.01	184.49	1224.51	536.35	11.48	343.35	0.75	144.18	7739.40	-8350.02	5320.80
Fixation L	1	8	2306084959	2306283831	198872	1224.13	537.64	12	28	-1	13.24	13.24
Fixation R	1	8	2306084959	2306283831	198872	1224.13	537.64	12	28	-1	13.68	13.68
Saccade L	1	9	2306283831	2306423071	139240	1228.24	520.83	1461.71	229.63	7.48	251.67	0.14	53.73	5999.59	-6048.84	2439.43
Saccade R	1	9	2306283831	2306423071	139240	1228.24	520.83	1461.71	229.63	7.48	251.67	0.14	53.73	5999.59	-6048.84	2439.43
Fixation L	1	9	2306423071	2306800929	377858	1439.40	232.39	35	60	-1	12.41	12.41
Fixation R	1	9	2306423071	2306800929	377858	1439.40	232.39	35	60	-1	12.14	12.14
Saccade L	1	10	2306800929	2306860672	59743	1445.55	269.83	1485.20	623.87	4.60	206.49	0.67	76.97	4972.39	-4458.04	3613.78
Saccade R	1	10	2306800929	2306860672	59743	1445.55	269.83	1485.20	623.87	4.60	206.49	0.67	76.97	4972.39	-4458.04	3613.78
Fixation L	1	10	2306860672	2307099288	238616	1521.63	618.14	44	14	-1	13.73	13.73
Fixation R	1	10	2306860672	2307099288	238616	1521.63	618.14	44	14	-1	13.09	13.09
Saccade L	1	11	2307099288	2307119163	19875	1524.09	615.68	1550.60	743.82	0.93	132.36	1.00	46.79	3259.94	-2605.86	2375.83
Saccade R	1	11	2307099288	2307119163	19875	1524.09	615.68	1550.60	743.82	0.93	132.36	1.00	46.79	3259.94	-2605.86	2375.83
Fixation L	1	11	2307119163	2307258404	139241	1571.15	721.44	32	49	-1	13.19	13.19
Fixation R	1	11	2307119163	2307258404	139241	1571.15	721.44	32	49	-1	12.46	12.46
Saccade L	1	12	2307258404	2307318155	59751	1583.44	725.09	836.82	832.54	8.02	351.12	0.67	134.27	8666.44	-8287.26	6054.73
Saccade R	1	12	2307258404	2307318155	59751	1583.44	725.09	836.82	832.54	8.02	351.12	0.67	134.27	8666.44	-8287.26	6054.73
Fixation L	1	12	2307318155	2307477276	159121	809.71	846.75	33	28	-1	13.16	13.16
Fixation R	1	12	2307318155	2307477276	159121	809.71	846.75	33	28	-1	12.21	12.21
Saccade L	1	13	2307477276	2307497144	19868	804.00	852.22	611.71	743.66	1.31	223.27	1.00	65.80	5444.30	-5247.64	3800.86
Saccade R	1	13	2307477276	2307497144	19868	804.00	852.22	611.71	743.66	1.31	223.27	1.00	65.80	5444.30	-5247.64	3800.86
Fixation L	1	13	2307497144	2307676138	178994	581.19	742.86	37	14	-1	13.06	13.06
Fixation R	1	13	2307497144	2307676138	178994	581.19	742.86	37	14	-1	12.22	12.22
Saccade L	1	14	2307676138	2307696006	19868	574.07	742.38	324.30	824.63	1.41	265.84	1.00	70.83	6579.38	-6485.88	4427.56
Saccade R	1	14	2307676138	2307696006	19868	574.07	742.38	324.30	824.63	1.41	265.84	1.00	70.83	6579.38	-6485.88	4427.56
Fixation L	1	14	2307696006	2308034111	338105	324.29	837.00	23	20	-1	12.83	12.83
Fixation R	1	14	2307696006	2308034111	338105	324.29	837.00	23	20	-1	12.50	12.50
