[BeGaze]
Converted from:	C:\Documents and Settings\iViewX\Desktop\EXPERIMENTATIONS\Experiments\results\finaleart\S21F22332-finaleart-1.idf
Date:	27.03.2019 15:55:37
Version:	BeGaze 2.5.77
Sample Rate:	50
Subject:	S21F22332
Description:	Cyrielle Mailart

Table Header for Fixations:
Event Type	Trial	Number	Start	End	Duration	Location X	Location Y	Dispersion X	Dispersion Y	Plane	Avg. Pupil Size X	Avg. Pupil Size Y

Table Header for Saccades:
Event Type	Trial	Number	Start	End	Duration	Start Loc.X	Start Loc.Y	End Loc.X	End Loc.Y	Amplitude	Peak Speed	Peak Speed At	Average Speed	Peak Accel.	Peak Decel.	Average Accel.

Table Header for Blinks:
Event Type	Trial	Number	Start	End	Duration

Table Header for User Events:
Event Type	Trial	Number	Start	Description

UserEvent	1	1	2737588328	# Message: study_of_a_reclining_nude_Delacroix_1824.jpg
Fixation L	1	1	2737608114	2738005985	397871	922.51	529.47	10	23	-1	13.30	13.30
Fixation R	1	1	2737608114	2738005985	397871	922.51	529.47	10	23	-1	12.67	12.67
Saccade L	1	1	2738005985	2738045721	39736	924.25	543.37	1255.79	388.00	3.11	216.01	0.50	78.24	5292.40	-5220.10	4524.57
Saccade R	1	1	2738005985	2738045721	39736	924.25	543.37	1255.79	388.00	3.11	216.01	0.50	78.24	5292.40	-5220.10	4524.57
Fixation L	1	2	2738045721	2738224703	178982	1253.15	382.69	4	17	-1	13.30	13.30
Fixation R	1	2	2738045721	2738224703	178982	1253.15	382.69	4	17	-1	12.50	12.50
Saccade L	1	2	2738224703	2738244575	19872	1254.25	375.71	1342.52	226.75	0.96	175.11	1.00	48.27	4345.96	-4134.92	2927.07
Saccade R	1	2	2738224703	2738244575	19872	1254.25	375.71	1342.52	226.75	0.96	175.11	1.00	48.27	4345.96	-4134.92	2927.07
Fixation L	1	3	2738244575	2738523059	278484	1371.15	206.48	46	48	-1	13.03	13.03
Fixation R	1	3	2738244575	2738523059	278484	1371.15	206.48	46	48	-1	12.39	12.39
Saccade L	1	3	2738523059	2738542936	19877	1389.11	191.08	1443.16	185.06	0.38	55.02	1.00	19.36	1280.84	-1074.05	855.14
Saccade R	1	3	2738523059	2738542936	19877	1389.11	191.08	1443.16	185.06	0.38	55.02	1.00	19.36	1280.84	-1074.05	855.14
Fixation L	1	4	2738542936	2738662307	119371	1450.21	178.12	20	18	-1	13.18	13.18
Fixation R	1	4	2738542936	2738662307	119371	1450.21	178.12	20	18	-1	12.42	12.42
Saccade L	1	4	2738662307	2738682176	19869	1454.97	171.69	1607.06	226.10	1.14	163.36	1.00	57.33	3823.30	-4026.83	2978.49
Saccade R	1	4	2738662307	2738682176	19869	1454.97	171.69	1607.06	226.10	1.14	163.36	1.00	57.33	3823.30	-4026.83	2978.49
Fixation L	1	5	2738682176	2738841289	159113	1610.62	289.96	7	90	-1	13.58	13.58
Fixation R	1	5	2738682176	2738841289	159113	1610.62	289.96	7	90	-1	12.69	12.69
Saccade L	1	5	2738841289	2738940786	99497	1611.82	316.97	1623.66	630.40	4.48	265.16	0.80	45.04	6565.35	-6281.81	2224.25
Saccade R	1	5	2738841289	2738940786	99497	1611.82	316.97	1623.66	630.40	4.48	265.16	0.80	45.04	6565.35	-6281.81	2224.25
Fixation L	1	6	2738940786	2739099907	159121	1621.39	650.01	12	24	-1	14.43	14.43
Fixation R	1	6	2738940786	2739099907	159121	1621.39	650.01	12	24	-1	13.50	13.50
Saccade L	1	6	2739099907	2739139657	39750	1611.45	653.64	1099.59	673.20	4.42	415.24	0.50	111.27	10327.64	-9980.61	6349.78
Saccade R	1	6	2739099907	2739139657	39750	1611.45	653.64	1099.59	673.20	4.42	415.24	0.50	111.27	10327.64	-9980.61	6349.78
Fixation L	1	7	2739139657	2739318650	178993	1104.07	696.35	7	32	-1	14.59	14.59
Fixation R	1	7	2739139657	2739318650	178993	1104.07	696.35	7	32	-1	13.53	13.53
Saccade L	1	7	2739318650	2739338516	19866	1105.76	704.87	816.88	704.31	1.56	291.98	1.00	78.59	7219.81	-6470.18	4697.72
Saccade R	1	7	2739318650	2739338516	19866	1105.76	704.87	816.88	704.31	1.56	291.98	1.00	78.59	7219.81	-6470.18	4697.72
Fixation L	1	8	2739338516	2739497636	159120	780.50	736.18	51	47	-1	14.38	14.38
Fixation R	1	8	2739338516	2739497636	159120	780.50	736.18	51	47	-1	13.14	13.14
Saccade L	1	8	2739497636	2739537511	39875	765.45	745.15	504.57	874.45	2.63	244.48	1.00	65.89	5942.17	-5900.82	3423.21
Saccade R	1	8	2739497636	2739537511	39875	765.45	745.15	504.57	874.45	2.63	244.48	1.00	65.89	5942.17	-5900.82	3423.21
Fixation L	1	9	2739537511	2739696618	159107	514.14	888.55	18	22	-1	14.45	14.45
Fixation R	1	9	2739537511	2739696618	159107	514.14	888.55	18	22	-1	13.66	13.66
Saccade L	1	9	2739696618	2739736380	39762	511.19	884.67	354.79	863.33	1.36	91.10	0.50	34.08	2156.56	-2211.10	1904.52
Saccade R	1	9	2739696618	2739736380	39762	511.19	884.67	354.79	863.33	1.36	91.10	0.50	34.08	2156.56	-2211.10	1904.52
Fixation L	1	10	2739736380	2739915367	178987	349.79	843.78	7	36	-1	14.44	14.44
Fixation R	1	10	2739736380	2739915367	178987	349.79	843.78	7	36	-1	14.02	14.02
Saccade L	1	10	2739915367	2739955136	39769	347.46	826.68	304.24	313.17	4.35	362.91	0.50	109.40	8990.98	-8756.76	6251.75
Saccade R	1	10	2739915367	2739955136	39769	347.46	826.68	304.24	313.17	4.35	362.91	0.50	109.40	8990.98	-8756.76	6251.75
Fixation L	1	11	2739955136	2740074485	119349	279.25	289.57	40	43	-1	14.29	14.29
Fixation R	1	11	2739955136	2740074485	119349	279.25	289.57	40	43	-1	13.76	13.76
Saccade L	1	11	2740074485	2740551831	477346	263.86	272.50	329.92	280.08	35.87	308.79	0.63	75.15	7192.18	-7679.69	2307.11
Saccade R	1	11	2740074485	2740551831	477346	263.86	272.50	329.92	280.08	35.87	308.79	0.63	75.15	7192.18	-7679.69	2307.11
Fixation L	1	12	2740551831	2740671198	119367	334.65	245.73	20	76	-1	14.40	14.40
Fixation R	1	12	2740551831	2740671198	119367	334.65	245.73	20	76	-1	14.73	14.73
Saccade L	1	12	2740671198	2740770569	99371	330.50	227.20	347.90	265.13	7.72	441.62	1.00	77.74	25461.58	-1967.06	6020.27
Saccade R	1	12	2740671198	2740770569	99371	330.50	227.20	347.90	265.13	7.72	441.62	1.00	77.74	25461.58	-1967.06	6020.27
Blink L	1	1	2740770569	2741094688	324119
Blink R	1	1	2740770569	2741094688	324119
Saccade L	1	13	2741094688	2741134427	39739	534.14	852.35	354.42	877.49	9.92	1021.90	1.00	249.66	3879.22	-24964.97	8234.56
Saccade R	1	13	2741094688	2741134427	39739	534.14	852.35	354.42	877.49	9.92	1021.90	1.00	249.66	3879.22	-24964.97	8234.56
Fixation L	1	13	2741134427	2741393037	258610	361.00	864.47	11	43	-1	15.05	15.05
Fixation R	1	13	2741134427	2741393037	258610	361.00	864.47	11	43	-1	15.11	15.11
Saccade L	1	14	2741393037	2741412911	19874	357.15	841.22	524.26	850.54	1.03	169.26	1.00	51.95	4118.64	-4151.88	2837.46
Saccade R	1	14	2741393037	2741412911	19874	357.15	841.22	524.26	850.54	1.03	169.26	1.00	51.95	4118.64	-4151.88	2837.46
Fixation L	1	14	2741412911	2741572033	159122	503.93	848.91	24	5	-1	14.73	14.73
Fixation R	1	14	2741412911	2741572033	159122	503.93	848.91	24	5	-1	14.92	14.92
