[BeGaze]
Converted from:	C:\Documents and Settings\iViewX\Desktop\EXPERIMENTATIONS\Experiments\results\finaleart\S21F22332-finaleart-1.idf
Date:	27.03.2019 15:54:57
Version:	BeGaze 2.5.77
Sample Rate:	50
Subject:	S21F22332
Description:	Cyrielle Mailart

Table Header for Fixations:
Event Type	Trial	Number	Start	End	Duration	Location X	Location Y	Dispersion X	Dispersion Y	Plane	Avg. Pupil Size X	Avg. Pupil Size Y

Table Header for Saccades:
Event Type	Trial	Number	Start	End	Duration	Start Loc.X	Start Loc.Y	End Loc.X	End Loc.Y	Amplitude	Peak Speed	Peak Speed At	Average Speed	Peak Accel.	Peak Decel.	Average Accel.

Table Header for Blinks:
Event Type	Trial	Number	Start	End	Duration

Table Header for User Events:
Event Type	Trial	Number	Start	Description

UserEvent	1	1	2326450820	# Message: void.jpg
Saccade L	1	1	2326452289	2326710764	258475	472.25	416.63	743.62	71.49	17.51	324.44	0.15	67.76	8111.00	-6500.92	2081.02
Saccade R	1	1	2326452289	2326710764	258475	472.25	416.63	743.62	71.49	17.51	324.44	0.15	67.76	8111.00	-6500.92	2081.02
Fixation L	1	1	2326710764	2326810280	99516	740.49	4.10	7	89	-1	12.87	12.87
Fixation R	1	1	2326710764	2326810280	99516	740.49	4.10	7	89	-1	11.48	11.48
Saccade L	1	2	2326810280	2326830179	19899	740.77	-18.13	731.52	-38.43	0.26	22.56	1.00	13.01	333.95	-63.28	198.55
Saccade R	1	2	2326810280	2326830179	19899	740.77	-18.13	731.52	-38.43	0.26	22.56	1.00	13.01	333.95	-63.28	198.55
Fixation L	1	2	2326830179	2326969371	139192	727.83	-37.05	25	67	-1	12.90	12.90
Fixation R	1	2	2326830179	2326969371	139192	727.83	-37.05	25	67	-1	11.92	11.92
Blink L	1	1	2326969371	2327088736	119365
Blink R	1	1	2326969371	2327088736	119365
Saccade L	1	3	2327088736	2327148368	59632	0.00	-9.56	1030.69	443.71	34.11	2197.50	1.00	571.95	28534.91	-54903.21	22310.05
Saccade R	1	3	2327088736	2327148368	59632	0.00	-9.56	1030.69	443.71	34.11	2197.50	1.00	571.95	28534.91	-54903.21	22310.05
Fixation L	1	3	2327148368	2327307487	159119	1010.31	411.26	26	57	-1	13.94	13.94
Fixation R	1	3	2327148368	2327307487	159119	1010.31	411.26	26	57	-1	12.94	12.94
Blink L	1	2	2327307487	2327466617	159130
Blink R	1	2	2327307487	2327466617	159130
Fixation L	1	4	2327466617	2327665463	198846	952.34	388.97	22	51	-1	13.98	13.98
Fixation R	1	4	2327466617	2327665463	198846	952.34	388.97	22	51	-1	12.60	12.60
Saccade L	1	4	2327665463	2327685333	19870	947.48	384.39	810.33	441.30	1.08	150.18	1.00	54.60	3436.25	-3708.49	2821.85
Saccade R	1	4	2327665463	2327685333	19870	947.48	384.39	810.33	441.30	1.08	150.18	1.00	54.60	3436.25	-3708.49	2821.85
Fixation L	1	5	2327685333	2327904198	218865	799.07	495.55	17	77	-1	13.71	13.71
Fixation R	1	5	2327685333	2327904198	218865	799.07	495.55	17	77	-1	12.62	12.62
Saccade L	1	5	2327904198	2328003571	99373	794.14	518.37	970.18	520.54	2.66	97.27	1.00	26.79	2399.59	-2317.26	1245.30
Saccade R	1	5	2327904198	2328003571	99373	794.14	518.37	970.18	520.54	2.66	97.27	1.00	26.79	2399.59	-2317.26	1245.30
Fixation L	1	6	2328003571	2328441172	437601	975.74	514.27	11	65	-1	13.42	13.42
Fixation R	1	6	2328003571	2328441172	437601	975.74	514.27	11	65	-1	12.44	12.44
