[BeGaze]
Converted from:	C:\Documents and Settings\iViewX\Desktop\EXPERIMENTATIONS\Experiments\results\finaleart\S21F22332-finaleart-1.idf
Date:	27.03.2019 15:55:49
Version:	BeGaze 2.5.77
Sample Rate:	50
Subject:	S21F22332
Description:	Cyrielle Mailart

Table Header for Fixations:
Event Type	Trial	Number	Start	End	Duration	Location X	Location Y	Dispersion X	Dispersion Y	Plane	Avg. Pupil Size X	Avg. Pupil Size Y

Table Header for Saccades:
Event Type	Trial	Number	Start	End	Duration	Start Loc.X	Start Loc.Y	End Loc.X	End Loc.Y	Amplitude	Peak Speed	Peak Speed At	Average Speed	Peak Accel.	Peak Decel.	Average Accel.

Table Header for Blinks:
Event Type	Trial	Number	Start	End	Duration

Table Header for User Events:
Event Type	Trial	Number	Start	Description

UserEvent	1	1	2821011200	# Message: void.jpg
Fixation L	1	1	2821015523	2821433245	417722	1602.14	569.05	27	72	-1	11.52	11.52
Fixation R	1	1	2821015523	2821433245	417722	1602.14	569.05	27	72	-1	10.39	10.39
Saccade L	1	1	2821433245	2821453115	19870	1615.22	536.75	1633.28	539.93	8.56	1689.48	1.00	430.79	42028.53	-463.86	14262.36
Saccade R	1	1	2821433245	2821453115	19870	1615.22	536.75	1633.28	539.93	8.56	1689.48	1.00	430.79	42028.53	-463.86	14262.36
Blink L	1	1	2821453115	2821890728	437613
Blink R	1	1	2821453115	2821890728	437613
Blink R	1	2	2821890728	2821970218	79490
Fixation L	1	2	2821930473	2822368067	437594	1134.28	543.15	28	70	-1	13.21	13.21
Fixation R	1	2	2821970218	2822626679	656461	1126.41	540.38	33	33	-1	11.91	11.91
Saccade L	1	2	2822368067	2822387943	19876	1127.30	537.58	1125.17	535.08	0.05	4.18	0.00	2.45	71.82	-58.36	46.54
Fixation L	1	3	2822387943	2822626679	238736	1116.76	539.07	14	29	-1	12.76	12.76
Saccade L	1	3	2822626679	2822646553	19874	1110.73	559.66	1032.49	561.61	0.55	79.17	1.00	27.70	1894.29	-1607.54	1307.78
Saccade R	1	2	2822626679	2822646553	19874	1110.73	559.66	1032.49	561.61	0.55	79.17	1.00	27.70	1894.29	-1607.54	1307.78
Fixation L	1	4	2822646553	2823004538	357985	1032.80	598.03	23	52	-1	12.29	12.29
Fixation R	1	3	2822646553	2823004538	357985	1032.80	598.03	23	52	-1	11.64	11.64
