[BeGaze]
Converted from:	C:\Documents and Settings\iViewX\Desktop\EXPERIMENTATIONS\Experiments\results\finaleart\S21F22332-finaleart-1.idf
Date:	27.03.2019 15:54:45
Version:	BeGaze 2.5.77
Sample Rate:	50
Subject:	S21F22332
Description:	Cyrielle Mailart

Table Header for Fixations:
Event Type	Trial	Number	Start	End	Duration	Location X	Location Y	Dispersion X	Dispersion Y	Plane	Avg. Pupil Size X	Avg. Pupil Size Y

Table Header for Saccades:
Event Type	Trial	Number	Start	End	Duration	Start Loc.X	Start Loc.Y	End Loc.X	End Loc.Y	Amplitude	Peak Speed	Peak Speed At	Average Speed	Peak Accel.	Peak Decel.	Average Accel.

Table Header for Blinks:
Event Type	Trial	Number	Start	End	Duration

Table Header for User Events:
Event Type	Trial	Number	Start	Description

UserEvent	1	1	2242904458	# Message: REJECTED_landscape_cross_0.jpg
Fixation L	1	1	2242914510	2243073610	159100	948.90	511.13	3	32	-1	13.56	13.56
Fixation R	1	1	2242914510	2243073610	159100	948.90	511.13	3	32	-1	12.64	12.64
Saccade L	1	1	2243073610	2243093498	19888	950.25	485.57	950.43	411.13	0.64	75.30	1.00	32.24	1826.44	-1785.86	1295.72
Saccade R	1	1	2243073610	2243093498	19888	950.25	485.57	950.43	411.13	0.64	75.30	1.00	32.24	1826.44	-1785.86	1295.72
Fixation L	1	2	2243093498	2243371862	278364	957.89	449.40	12	54	-1	14.06	14.06
Fixation R	1	2	2243093498	2243371862	278364	957.89	449.40	12	54	-1	13.11	13.11
Saccade L	1	2	2243371862	2243411738	39876	962.51	448.39	644.75	437.18	2.66	243.95	1.00	66.66	5947.65	-5002.62	3671.60
Saccade R	1	2	2243371862	2243411738	39876	962.51	448.39	644.75	437.18	2.66	243.95	1.00	66.66	5947.65	-5002.62	3671.60
Fixation L	1	3	2243411738	2243570848	159110	627.53	398.33	24	66	-1	12.67	12.67
Fixation R	1	3	2243411738	2243570848	159110	627.53	398.33	24	66	-1	11.88	11.88
Saccade L	1	3	2243570848	2243630478	59630	624.92	400.27	517.56	330.80	3.68	120.90	0.33	61.67	2765.95	-1824.05	1901.26
Saccade R	1	3	2243570848	2243630478	59630	624.92	400.27	517.56	330.80	3.68	120.90	0.33	61.67	2765.95	-1824.05	1901.26
Fixation L	1	4	2243630478	2243729965	99487	507.36	298.07	14	61	-1	11.33	11.33
Fixation R	1	4	2243630478	2243729965	99487	507.36	298.07	14	61	-1	10.89	10.89
Saccade L	1	4	2243729965	2243749840	19875	502.92	269.24	458.44	61.70	1.22	214.62	1.00	61.22	5340.77	-4954.40	3582.59
Saccade R	1	4	2243729965	2243749840	19875	502.92	269.24	458.44	61.70	1.22	214.62	1.00	61.22	5340.77	-4954.40	3582.59
Fixation L	1	5	2243749840	2243948728	198888	469.17	101.47	21	67	-1	10.94	10.94
Fixation R	1	5	2243749840	2243948728	198888	469.17	101.47	21	67	-1	10.55	10.55
Saccade L	1	5	2243948728	2244008454	59726	468.40	120.75	473.70	769.01	6.71	343.11	0.67	112.41	8366.70	-8426.58	5126.98
Saccade R	1	5	2243948728	2244008454	59726	468.40	120.75	473.70	769.01	6.71	343.11	0.67	112.41	8366.70	-8426.58	5126.98
Fixation L	1	6	2244008454	2244306683	298229	484.71	766.29	16	8	-1	12.13	12.13
Fixation R	1	6	2244008454	2244306683	298229	484.71	766.29	16	8	-1	11.95	11.95
Saccade L	1	6	2244306683	2244346563	39880	488.19	771.49	484.76	550.33	1.93	120.47	0.50	48.29	2934.41	-2664.02	2650.41
Saccade R	1	6	2244306683	2244346563	39880	488.19	771.49	484.76	550.33	1.93	120.47	0.50	48.29	2934.41	-2664.02	2650.41
Fixation L	1	7	2244346563	2244644911	298348	480.79	567.38	6	25	-1	11.72	11.72
Fixation R	1	7	2244346563	2244644911	298348	480.79	567.38	6	25	-1	11.56	11.56
Saccade L	1	7	2244644911	2244684667	39756	483.98	558.20	501.28	287.88	2.34	208.51	0.50	58.95	5189.18	-5073.14	3021.78
Saccade R	1	7	2244644911	2244684667	39756	483.98	558.20	501.28	287.88	2.34	208.51	0.50	58.95	5189.18	-5073.14	3021.78
Fixation L	1	8	2244684667	2244823914	139247	509.83	258.32	19	63	-1	11.40	11.40
Fixation R	1	8	2244684667	2244823914	139247	509.83	258.32	19	63	-1	11.29	11.29
Saccade L	1	8	2244823914	2244983030	159116	518.91	234.60	521.68	110.77	11.60	172.76	1.00	72.88	4122.87	-4103.88	1882.61
Saccade R	1	8	2244823914	2244983030	159116	518.91	234.60	521.68	110.77	11.60	172.76	1.00	72.88	4122.87	-4103.88	1882.61
Fixation L	1	9	2244983030	2245082394	99364	531.17	121.32	16	26	-1	11.58	11.58
Fixation R	1	9	2244983030	2245082394	99364	531.17	121.32	16	26	-1	11.60	11.60
Saccade L	1	9	2245082394	2245102395	20001	536.59	109.19	529.18	-4.12	0.85	114.85	1.00	42.35	2545.17	-2672.22	1841.87
Saccade R	1	9	2245082394	2245102395	20001	536.59	109.19	529.18	-4.12	0.85	114.85	1.00	42.35	2545.17	-2672.22	1841.87
Fixation L	1	10	2245102395	2245201760	99365	525.26	6.75	9	82	-1	11.27	11.27
Fixation R	1	10	2245102395	2245201760	99365	525.26	6.75	9	82	-1	11.57	11.57
Saccade L	1	10	2245201760	2245321126	119366	525.44	-25.23	818.12	358.72	10.04	351.55	1.00	84.13	7500.65	-8468.55	2661.91
Saccade R	1	10	2245201760	2245321126	119366	525.44	-25.23	818.12	358.72	10.04	351.55	1.00	84.13	7500.65	-8468.55	2661.91
Fixation L	1	11	2245321126	2245480247	159121	841.93	367.99	33	15	-1	12.15	12.15
Fixation R	1	11	2245321126	2245480247	159121	841.93	367.99	33	15	-1	11.98	11.98
Saccade L	1	11	2245480247	2245519994	39747	851.68	374.53	1097.60	707.96	3.60	272.60	0.50	90.68	6736.80	-6513.70	5120.05
Saccade R	1	11	2245480247	2245519994	39747	851.68	374.53	1097.60	707.96	3.60	272.60	0.50	90.68	6736.80	-6513.70	5120.05
Fixation L	1	12	2245519994	2245758742	238748	1118.12	693.58	29	23	-1	12.34	12.34
Fixation R	1	12	2245519994	2245758742	238748	1118.12	693.58	29	23	-1	11.78	11.78
Saccade L	1	12	2245758742	2245778612	19870	1127.37	684.37	1389.60	820.80	1.72	298.77	1.00	86.61	7418.97	-7047.26	5131.36
Saccade R	1	12	2245758742	2245778612	19870	1127.37	684.37	1389.60	820.80	1.72	298.77	1.00	86.61	7418.97	-7047.26	5131.36
Fixation L	1	13	2245778612	2245997350	218738	1445.00	815.41	71	11	-1	11.95	11.95
Fixation R	1	13	2245778612	2245997350	218738	1445.00	815.41	71	11	-1	11.09	11.09
Saccade L	1	13	2245997350	2246037213	39863	1450.73	819.06	1606.46	921.65	2.23	123.44	0.50	55.99	3035.49	-1980.78	2369.28
Saccade R	1	13	2245997350	2246037213	39863	1450.73	819.06	1606.46	921.65	2.23	123.44	0.50	55.99	3035.49	-1980.78	2369.28
Fixation L	1	14	2246037213	2246216215	179002	1629.73	899.07	28	41	-1	11.81	11.81
Fixation R	1	14	2246037213	2246216215	179002	1629.73	899.07	28	41	-1	10.50	10.50
Saccade L	1	14	2246216215	2246236078	19863	1633.69	899.24	1637.85	792.90	0.70	107.64	1.00	35.32	2591.17	-2323.77	1851.83
Saccade R	1	14	2246216215	2246236078	19863	1633.69	899.24	1637.85	792.90	0.70	107.64	1.00	35.32	2591.17	-2323.77	1851.83
Fixation L	1	15	2246236078	2246415078	179000	1649.74	753.36	25	48	-1	12.22	12.22
Fixation R	1	15	2246236078	2246415078	179000	1649.74	753.36	25	48	-1	10.80	10.80
Saccade L	1	15	2246415078	2246454831	39753	1663.63	747.81	1667.39	371.52	3.18	233.52	1.00	80.12	5683.03	-5782.45	4617.81
Saccade R	1	15	2246415078	2246454831	39753	1663.63	747.81	1667.39	371.52	3.18	233.52	1.00	80.12	5683.03	-5782.45	4617.81
Fixation L	1	16	2246454831	2246673682	218851	1667.09	383.10	11	15	-1	12.46	12.46
Fixation R	1	16	2246454831	2246673682	218851	1667.09	383.10	11	15	-1	11.22	11.22
Saccade L	1	16	2246673682	2246693567	19885	1662.59	385.28	1727.89	195.52	1.25	202.93	1.00	62.70	5039.61	-4586.44	3559.79
Saccade R	1	16	2246673682	2246693567	19885	1662.59	385.28	1727.89	195.52	1.25	202.93	1.00	62.70	5039.61	-4586.44	3559.79
Fixation L	1	17	2246693567	2246832800	139233	1726.68	179.80	16	55	-1	12.25	12.25
Fixation R	1	17	2246693567	2246832800	139233	1726.68	179.80	16	55	-1	10.97	10.97
