[BeGaze]
Converted from:	C:\Documents and Settings\iViewX\Desktop\EXPERIMENTATIONS\Experiments\results\finaleart\S21F22332-finaleart-1.idf
Date:	27.03.2019 15:55:31
Version:	BeGaze 2.5.77
Sample Rate:	50
Subject:	S21F22332
Description:	Cyrielle Mailart

Table Header for Fixations:
Event Type	Trial	Number	Start	End	Duration	Location X	Location Y	Dispersion X	Dispersion Y	Plane	Avg. Pupil Size X	Avg. Pupil Size Y

Table Header for Saccades:
Event Type	Trial	Number	Start	End	Duration	Start Loc.X	Start Loc.Y	End Loc.X	End Loc.Y	Amplitude	Peak Speed	Peak Speed At	Average Speed	Peak Accel.	Peak Decel.	Average Accel.

Table Header for Blinks:
Event Type	Trial	Number	Start	End	Duration

Table Header for User Events:
Event Type	Trial	Number	Start	Description

UserEvent	1	1	2632888737	# Message: void.jpg
Saccade L	1	1	2632900188	2633039477	139289	747.32	834.26	457.20	686.11	6.26	152.19	1.00	44.92	2932.06	-3658.44	1472.62
Saccade R	1	1	2632900188	2633039477	139289	747.32	834.26	457.20	686.11	6.26	152.19	1.00	44.92	2932.06	-3658.44	1472.62
Fixation L	1	1	2633039477	2633278061	238584	432.52	683.36	37	46	-1	12.31	12.31
Fixation R	1	1	2633039477	2633278061	238584	432.52	683.36	37	46	-1	11.42	11.42
Saccade L	1	2	2633278061	2633357549	79488	436.75	722.38	480.04	775.66	11.75	914.94	1.00	147.78	22391.72	-1030.23	4169.82
Saccade R	1	2	2633278061	2633357549	79488	436.75	722.38	480.04	775.66	11.75	914.94	1.00	147.78	22391.72	-1030.23	4169.82
Blink L	1	1	2633357549	2633854890	497341
Blink R	1	1	2633357549	2633934382	576833
Fixation L	1	2	2633934382	2634133251	198869	875.06	530.24	10	9	-1	13.71	13.71
Fixation R	1	2	2633934382	2634133251	198869	875.06	530.24	10	9	-1	12.90	12.90
Blink L	1	2	2634133251	2634312362	179111
Blink R	1	2	2634133251	2634312362	179111
Fixation L	1	3	2634312362	2634411730	99368	1122.74	541.81	8	80	-1	15.72	15.72
Fixation R	1	3	2634312362	2634411730	99368	1122.74	541.81	8	80	-1	12.50	12.50
Saccade L	1	3	2634411730	2634491359	79629	1124.90	519.21	953.44	551.31	3.51	166.18	1.00	44.12	3312.71	-3580.54	1435.79
Saccade R	1	3	2634411730	2634491359	79629	1124.90	519.21	953.44	551.31	3.51	166.18	1.00	44.12	3312.71	-3580.54	1435.79
Fixation L	1	4	2634491359	2634869212	377853	952.26	573.47	18	48	-1	16.53	16.53
Fixation R	1	4	2634491359	2634869212	377853	952.26	573.47	18	48	-1	12.86	12.86
