[BeGaze]
Converted from:	C:\Documents and Settings\iViewX\Desktop\EXPERIMENTATIONS\Experiments\results\finaleart\S21F22332-finaleart-1.idf
Date:	27.03.2019 15:54:30
Version:	BeGaze 2.5.77
Sample Rate:	50
Subject:	S21F22332
Description:	Cyrielle Mailart

Table Header for Fixations:
Event Type	Trial	Number	Start	End	Duration	Location X	Location Y	Dispersion X	Dispersion Y	Plane	Avg. Pupil Size X	Avg. Pupil Size Y

Table Header for Saccades:
Event Type	Trial	Number	Start	End	Duration	Start Loc.X	Start Loc.Y	End Loc.X	End Loc.Y	Amplitude	Peak Speed	Peak Speed At	Average Speed	Peak Accel.	Peak Decel.	Average Accel.

Table Header for Blinks:
Event Type	Trial	Number	Start	End	Duration

Table Header for User Events:
Event Type	Trial	Number	Start	Description

UserEvent	1	1	1726343434	# Message: chase-a-study-in-curves-1890.jpg
Fixation L	1	1	1726354590	1726752457	397867	1009.22	507.08	9	15	-1	18.30	18.30
Fixation R	1	1	1726354590	1726752457	397867	1009.22	507.08	9	15	-1	16.58	16.58
Saccade L	1	1	1726752457	1726812074	59617	1005.66	508.21	486.63	535.30	5.39	259.96	0.67	90.38	6481.47	-6257.00	4283.69
Saccade R	1	1	1726752457	1726812074	59617	1005.66	508.21	486.63	535.30	5.39	259.96	0.67	90.38	6481.47	-6257.00	4283.69
Fixation L	1	2	1726812074	1726971184	159110	490.08	539.43	18	19	-1	18.12	18.12
Fixation R	1	2	1726812074	1726971184	159110	490.08	539.43	18	19	-1	16.89	16.89
Saccade L	1	2	1726971184	1726991052	19868	477.30	554.84	298.04	543.19	1.08	181.66	1.00	54.22	4382.63	-4366.23	2947.44
Saccade R	1	2	1726971184	1726991052	19868	477.30	554.84	298.04	543.19	1.08	181.66	1.00	54.22	4382.63	-4366.23	2947.44
Fixation L	1	3	1726991052	1727249664	258612	302.34	560.58	6	27	-1	17.38	17.38
Fixation R	1	3	1726991052	1727249664	258612	302.34	560.58	6	27	-1	16.35	16.35
Saccade L	1	3	1727249664	1727269535	19871	304.93	568.43	130.80	536.11	0.97	179.11	1.00	49.02	4387.97	-4324.57	2957.76
Saccade R	1	3	1727249664	1727269535	19871	304.93	568.43	130.80	536.11	0.97	179.11	1.00	49.02	4387.97	-4324.57	2957.76
Fixation L	1	4	1727269535	1727428655	159120	135.06	543.89	6	15	-1	17.05	17.05
Fixation R	1	4	1727269535	1727428655	159120	135.06	543.89	6	15	-1	16.19	16.19
Saccade L	1	4	1727428655	1727468403	39748	137.73	540.33	510.47	890.12	4.40	341.63	1.00	110.70	8481.01	-8106.77	6144.96
Saccade R	1	4	1727428655	1727468403	39748	137.73	540.33	510.47	890.12	4.40	341.63	1.00	110.70	8481.01	-8106.77	6144.96
Fixation L	1	5	1727468403	1727866263	397860	548.17	922.95	52	39	-1	17.47	17.47
Fixation R	1	5	1727468403	1727866263	397860	548.17	922.95	52	39	-1	17.09	17.09
Saccade L	1	5	1727866263	1727886134	19871	562.96	928.57	562.55	953.50	0.20	25.22	1.00	10.01	583.63	-571.02	429.40
Saccade R	1	5	1727866263	1727886134	19871	562.96	928.57	562.55	953.50	0.20	25.22	1.00	10.01	583.63	-571.02	429.40
Fixation L	1	6	1727886134	1728045270	159136	566.60	967.27	11	22	-1	17.97	17.97
Fixation R	1	6	1727886134	1728045270	159136	566.60	967.27	11	22	-1	17.04	17.04
Saccade L	1	6	1728045270	1728104867	59597	572.52	975.66	1031.93	719.99	5.60	350.41	0.67	94.04	8713.24	-8485.82	4416.36
Saccade R	1	6	1728045270	1728104867	59597	572.52	975.66	1031.93	719.99	5.60	350.41	0.67	94.04	8713.24	-8485.82	4416.36
Fixation L	1	7	1728104867	1728323739	218872	1051.67	704.93	35	21	-1	18.72	18.72
Fixation R	1	7	1728104867	1728323739	218872	1051.67	704.93	35	21	-1	17.53	17.53
Saccade L	1	7	1728323739	1728343609	19870	1067.92	698.48	1177.92	693.71	0.67	111.36	1.00	33.51	2732.84	-2726.98	1871.93
Saccade R	1	7	1728323739	1728343609	19870	1067.92	698.48	1177.92	693.71	0.67	111.36	1.00	33.51	2732.84	-2726.98	1871.93
Fixation L	1	8	1728343609	1728482857	139248	1193.64	692.21	65	5	-1	18.89	18.89
Fixation R	1	8	1728343609	1728482857	139248	1193.64	692.21	65	5	-1	17.37	17.37
Saccade L	1	8	1728482857	1728502725	19868	1243.02	689.12	1561.42	528.69	2.13	360.20	1.00	107.32	8944.95	-8627.25	6194.12
Saccade R	1	8	1728482857	1728502725	19868	1243.02	689.12	1561.42	528.69	2.13	360.20	1.00	107.32	8944.95	-8627.25	6194.12
Fixation L	1	9	1728502725	1728741345	238620	1549.97	535.50	16	29	-1	18.29	18.29
Fixation R	1	9	1728502725	1728741345	238620	1549.97	535.50	16	29	-1	16.38	16.38
Saccade L	1	9	1728741345	1728781211	39866	1549.99	538.55	1748.31	527.31	1.78	116.53	1.00	44.76	2761.16	-2784.13	2340.61
Saccade R	1	9	1728741345	1728781211	39866	1549.99	538.55	1748.31	527.31	1.78	116.53	1.00	44.76	2761.16	-2784.13	2340.61
Fixation L	1	10	1728781211	1729079569	298358	1714.69	523.70	54	33	-1	18.25	18.25
Fixation R	1	10	1728781211	1729079569	298358	1714.69	523.70	54	33	-1	16.00	16.00
Saccade L	1	10	1729079569	1729099438	19869	1700.64	541.30	1705.37	700.93	1.02	161.51	1.00	51.30	3814.19	-3671.71	2666.52
Saccade R	1	10	1729079569	1729099438	19869	1700.64	541.30	1705.37	700.93	1.02	161.51	1.00	51.30	3814.19	-3671.71	2666.52
Fixation L	1	11	1729099438	1729318180	218742	1737.15	684.29	46	24	-1	18.78	18.78
Fixation R	1	11	1729099438	1729318180	218742	1737.15	684.29	46	24	-1	16.59	16.59
Saccade L	1	11	1729318180	1729357930	39750	1751.78	685.64	1780.93	692.13	1.67	110.49	0.50	41.98	2647.33	-2465.06	2205.82
Saccade R	1	11	1729318180	1729357930	39750	1751.78	685.64	1780.93	692.13	1.67	110.49	0.50	41.98	2647.33	-2465.06	2205.82
Fixation L	1	12	1729357930	1729457425	99495	1789.89	704.69	22	27	-1	19.08	19.08
Fixation R	1	12	1729357930	1729457425	99495	1789.89	704.69	22	27	-1	16.85	16.85
Saccade L	1	12	1729457425	1729537045	79620	1782.21	719.88	590.04	590.47	14.16	411.99	0.50	177.79	10086.50	-8675.52	6258.18
Saccade R	1	12	1729457425	1729537045	79620	1782.21	719.88	590.04	590.47	14.16	411.99	0.50	177.79	10086.50	-8675.52	6258.18
Fixation L	1	13	1729537045	1729676161	139116	581.77	579.30	18	19	-1	18.86	18.86
Fixation R	1	13	1729537045	1729676161	139116	581.77	579.30	18	19	-1	17.10	17.10
Saccade L	1	13	1729676161	1729696164	20003	571.84	579.15	309.60	584.82	1.42	265.16	1.00	71.17	6531.31	-6306.03	4300.94
Saccade R	1	13	1729676161	1729696164	20003	571.84	579.15	309.60	584.82	1.42	265.16	1.00	71.17	6531.31	-6306.03	4300.94
Fixation L	1	14	1729696164	1730332626	636462	321.37	601.00	48	27	-1	17.72	17.72
Fixation R	1	14	1729696164	1730332626	636462	321.37	601.00	48	27	-1	16.75	16.75
