[BeGaze]
Converted from:	C:\Documents and Settings\iViewX\Desktop\EXPERIMENTATIONS\Experiments\results\finaleart\S21F22332-finaleart-1.idf
Date:	27.03.2019 15:54:29
Version:	BeGaze 2.5.77
Sample Rate:	50
Subject:	S21F22332
Description:	Cyrielle Mailart

Table Header for Fixations:
Event Type	Trial	Number	Start	End	Duration	Location X	Location Y	Dispersion X	Dispersion Y	Plane	Avg. Pupil Size X	Avg. Pupil Size Y

Table Header for Saccades:
Event Type	Trial	Number	Start	End	Duration	Start Loc.X	Start Loc.Y	End Loc.X	End Loc.Y	Amplitude	Peak Speed	Peak Speed At	Average Speed	Peak Accel.	Peak Decel.	Average Accel.

Table Header for Blinks:
Event Type	Trial	Number	Start	End	Duration

Table Header for User Events:
Event Type	Trial	Number	Start	Description

UserEvent	1	1	1720259923	# Message: Le_Chemin_De_Fer_Berlin_Potsdam_Menzel_1847.jpg
Fixation L	1	1	1720268291	1720427405	159114	854.38	538.45	20	64	-1	18.67	18.67
Fixation R	1	1	1720268291	1720427405	159114	854.38	538.45	20	64	-1	17.16	17.16
Blink L	1	1	1720427405	1720606377	178972
Blink R	1	1	1720427405	1720606377	178972
Fixation L	1	2	1720606377	1720845124	238747	829.41	441.49	5	51	-1	18.10	18.10
Fixation R	1	2	1720606377	1720845124	238747	829.41	441.49	5	51	-1	16.61	16.61
Saccade L	1	1	1720845124	1720865001	19877	827.65	436.15	749.68	461.08	0.60	82.81	1.00	30.20	1567.65	-1732.48	1201.96
Saccade R	1	1	1720845124	1720865001	19877	827.65	436.15	749.68	461.08	0.60	82.81	1.00	30.20	1567.65	-1732.48	1201.96
Fixation L	1	3	1720865001	1721242855	377854	727.45	490.38	45	50	-1	18.00	18.00
Fixation R	1	3	1720865001	1721242855	377854	727.45	490.38	45	50	-1	16.51	16.51
Saccade L	1	2	1721242855	1721262727	19872	704.21	511.76	696.39	516.67	0.21	23.12	0.00	10.53	132.18	-463.42	233.80
Saccade R	1	2	1721242855	1721262727	19872	704.21	511.76	696.39	516.67	0.21	23.12	0.00	10.53	132.18	-463.42	233.80
Fixation L	1	4	1721262727	1721401963	139236	684.24	522.70	24	29	-1	18.30	18.30
Fixation R	1	4	1721262727	1721401963	139236	684.24	522.70	24	29	-1	17.07	17.07
Saccade L	1	3	1721401963	1721441838	39875	672.08	525.22	906.52	684.53	2.61	190.45	1.00	65.50	4399.60	-4586.13	3286.53
Saccade R	1	3	1721401963	1721441838	39875	672.08	525.22	906.52	684.53	2.61	190.45	1.00	65.50	4399.60	-4586.13	3286.53
Fixation L	1	5	1721441838	1721640705	198867	904.08	678.53	16	16	-1	18.87	18.87
Fixation R	1	5	1721441838	1721640705	198867	904.08	678.53	16	16	-1	17.68	17.68
Saccade L	1	4	1721640705	1721660583	19878	890.51	678.82	713.30	620.15	1.21	188.77	1.00	60.90	4704.69	-4274.37	3179.46
Saccade R	1	4	1721640705	1721660583	19878	890.51	678.82	713.30	620.15	1.21	188.77	1.00	60.90	4704.69	-4274.37	3179.46
Fixation L	1	6	1721660583	1721879315	218732	681.71	584.59	39	50	-1	18.92	18.92
Fixation R	1	6	1721660583	1721879315	218732	681.71	584.59	39	50	-1	17.39	17.39
Saccade L	1	5	1721879315	1721919198	39883	679.77	579.34	601.48	935.44	3.03	207.56	1.00	75.98	5159.25	-5010.90	4520.40
Saccade R	1	5	1721879315	1721919198	39883	679.77	579.34	601.48	935.44	3.03	207.56	1.00	75.98	5159.25	-5010.90	4520.40
Fixation L	1	7	1721919198	1722157803	238605	586.07	943.13	25	11	-1	18.49	18.49
Fixation R	1	7	1721919198	1722157803	238605	586.07	943.13	25	11	-1	17.57	17.57
Saccade L	1	6	1722157803	1722177685	19882	576.46	941.29	536.65	908.30	0.50	52.30	1.00	25.17	1268.68	-531.69	967.13
Saccade R	1	6	1722157803	1722177685	19882	576.46	941.29	536.65	908.30	0.50	52.30	1.00	25.17	1268.68	-531.69	967.13
Fixation L	1	8	1722177685	1722316928	139243	516.99	889.45	31	32	-1	18.88	18.88
Fixation R	1	8	1722177685	1722316928	139243	516.99	889.45	31	32	-1	17.71	17.71
Saccade L	1	7	1722316928	1722336798	19870	514.05	883.03	801.99	949.48	1.59	298.67	1.00	79.97	7363.73	-7259.52	4970.73
Saccade R	1	7	1722316928	1722336798	19870	514.05	883.03	801.99	949.48	1.59	298.67	1.00	79.97	7363.73	-7259.52	4970.73
Fixation L	1	9	1722336798	1722694907	358109	808.21	984.00	10	86	-1	18.91	18.91
Fixation R	1	9	1722336798	1722694907	358109	808.21	984.00	10	86	-1	17.98	17.98
Saccade L	1	8	1722694907	1722714775	19868	805.53	1036.32	803.95	1041.00	0.19	21.58	0.00	9.81	-14.21	-362.23	153.74
Saccade R	1	8	1722694907	1722714775	19868	805.53	1036.32	803.95	1041.00	0.19	21.58	0.00	9.81	-14.21	-362.23	153.74
Fixation L	1	10	1722714775	1722854023	139248	808.15	1044.06	10	8	-1	19.20	19.20
Fixation R	1	10	1722714775	1722854023	139248	808.15	1044.06	10	8	-1	18.13	18.13
Saccade L	1	9	1722854023	1722873893	19870	814.90	1044.52	1046.58	914.35	1.53	268.64	1.00	77.16	6673.57	-6375.06	4596.79
Saccade R	1	9	1722854023	1722873893	19870	814.90	1044.52	1046.58	914.35	1.53	268.64	1.00	77.16	6673.57	-6375.06	4596.79
Fixation L	1	11	1722873893	1723092634	218741	1068.03	877.83	29	47	-1	19.36	19.36
Fixation R	1	11	1722873893	1723092634	218741	1068.03	877.83	29	47	-1	18.00	18.00
Saccade L	1	10	1723092634	1723112504	19870	1075.76	867.28	1219.51	649.58	1.48	263.71	1.00	74.56	6560.71	-6505.93	4534.92
Saccade R	1	10	1723092634	1723112504	19870	1075.76	867.28	1219.51	649.58	1.48	263.71	1.00	74.56	6560.71	-6505.93	4534.92
Fixation L	1	12	1723112504	1723351255	238751	1212.69	669.39	32	61	-1	18.64	18.64
Fixation R	1	12	1723112504	1723351255	238751	1212.69	669.39	32	61	-1	17.01	17.01
Saccade L	1	11	1723351255	1723371119	19864	1237.34	625.13	1241.63	606.85	0.45	26.75	1.00	22.81	197.39	-194.00	172.49
Saccade R	1	11	1723351255	1723371119	19864	1237.34	625.13	1241.63	606.85	0.45	26.75	1.00	22.81	197.39	-194.00	172.49
Fixation L	1	13	1723371119	1723550103	178984	1255.04	601.39	23	33	-1	18.08	18.08
Fixation R	1	13	1723371119	1723550103	178984	1255.04	601.39	23	33	-1	15.99	15.99
Saccade L	1	12	1723550103	1723569997	19894	1258.06	594.14	1110.01	440.09	1.22	216.05	1.00	61.10	5349.74	-5068.64	3579.36
Saccade R	1	12	1723550103	1723569997	19894	1258.06	594.14	1110.01	440.09	1.22	216.05	1.00	61.10	5349.74	-5068.64	3579.36
Fixation L	1	14	1723569997	1723908087	338090	1073.49	427.05	46	45	-1	17.52	17.52
Fixation R	1	14	1723569997	1723908087	338090	1073.49	427.05	46	45	-1	15.77	15.77
Saccade L	1	13	1723908087	1723947966	39879	1063.25	400.35	1274.14	402.95	1.96	213.30	1.00	49.14	5114.36	-4739.27	2527.50
Saccade R	1	13	1723908087	1723947966	39879	1063.25	400.35	1274.14	402.95	1.96	213.30	1.00	49.14	5114.36	-4739.27	2527.50
Fixation L	1	15	1723947966	1724166704	218738	1305.19	405.42	42	17	-1	17.87	17.87
Fixation R	1	15	1723947966	1724166704	218738	1305.19	405.42	42	17	-1	15.92	15.92
Saccade L	1	14	1724166704	1724246323	79619	1310.73	415.95	1479.55	481.54	2.80	107.52	0.50	35.23	2670.15	-2168.50	1667.26
Saccade R	1	14	1724166704	1724246323	79619	1310.73	415.95	1479.55	481.54	2.80	107.52	0.50	35.23	2670.15	-2168.50	1667.26
