[BeGaze]
Converted from:	C:\Documents and Settings\iViewX\Desktop\EXPERIMENTATIONS\Experiments\results\finaleart\S21F22332-finaleart-1.idf
Date:	27.03.2019 15:54:54
Version:	BeGaze 2.5.77
Sample Rate:	50
Subject:	S21F22332
Description:	Cyrielle Mailart

Table Header for Fixations:
Event Type	Trial	Number	Start	End	Duration	Location X	Location Y	Dispersion X	Dispersion Y	Plane	Avg. Pupil Size X	Avg. Pupil Size Y

Table Header for Saccades:
Event Type	Trial	Number	Start	End	Duration	Start Loc.X	Start Loc.Y	End Loc.X	End Loc.Y	Amplitude	Peak Speed	Peak Speed At	Average Speed	Peak Accel.	Peak Decel.	Average Accel.

Table Header for Blinks:
Event Type	Trial	Number	Start	End	Duration

Table Header for User Events:
Event Type	Trial	Number	Start	Description

UserEvent	1	1	2308081854	# Message: void.jpg
Saccade L	1	1	2308093863	2308193233	99370	306.43	824.03	649.55	542.77	8.25	271.14	1.00	82.99	6770.03	-6432.84	3551.46
Saccade R	1	1	2308093863	2308193233	99370	306.43	824.03	649.55	542.77	8.25	271.14	1.00	82.99	6770.03	-6432.84	3551.46
Fixation L	1	1	2308193233	2308551339	358106	667.03	498.18	27	59	-1	13.12	13.12
Fixation R	1	1	2308193233	2308551339	358106	667.03	498.18	27	59	-1	13.30	13.30
Blink L	1	1	2308551339	2308849575	298236
Blink R	1	1	2308551339	2308849575	298236
Fixation L	1	2	2308849575	2309207680	358105	894.91	316.22	7	31	-1	14.70	14.70
Fixation R	1	2	2308849575	2309207680	358105	894.91	316.22	7	31	-1	13.72	13.72
Blink L	1	2	2309207680	2309406539	198859
Blink R	1	2	2309207680	2309406539	198859
Fixation L	1	3	2309406539	2309744651	338112	1031.99	463.06	20	35	-1	15.63	15.63
Fixation R	1	3	2309406539	2309744651	338112	1031.99	463.06	20	35	-1	14.03	14.03
Saccade L	1	2	2309744651	2309784402	39751	1021.06	479.33	981.95	537.48	1.56	101.57	0.50	39.27	2458.96	-2014.34	1830.13
Saccade R	1	2	2309744651	2309784402	39751	1021.06	479.33	981.95	537.48	1.56	101.57	0.50	39.27	2458.96	-2014.34	1830.13
Fixation L	1	4	2309784402	2310082763	298361	955.92	573.09	32	46	-1	14.51	14.51
Fixation R	1	4	2309784402	2310082763	298361	955.92	573.09	32	46	-1	13.03	13.03
