[BeGaze]
Converted from:	C:\Documents and Settings\iViewX\Desktop\EXPERIMENTATIONS\Experiments\results\finaleart\S21F22332-finaleart-1.idf
Date:	27.03.2019 15:56:19
Version:	BeGaze 2.5.77
Sample Rate:	50
Subject:	S21F22332
Description:	Cyrielle Mailart

Table Header for Fixations:
Event Type	Trial	Number	Start	End	Duration	Location X	Location Y	Dispersion X	Dispersion Y	Plane	Avg. Pupil Size X	Avg. Pupil Size Y

Table Header for Saccades:
Event Type	Trial	Number	Start	End	Duration	Start Loc.X	Start Loc.Y	End Loc.X	End Loc.Y	Amplitude	Peak Speed	Peak Speed At	Average Speed	Peak Accel.	Peak Decel.	Average Accel.

Table Header for Blinks:
Event Type	Trial	Number	Start	End	Duration

Table Header for User Events:
Event Type	Trial	Number	Start	Description

UserEvent	1	1	3140206743	# Message: Nature_Morte_Aux_Raisins_Sur_Un_Plat_Derain_1944.jpg
Fixation L	1	1	3140208033	3140665499	457466	880.52	480.08	51	46	-1	14.17	14.17
Fixation R	1	1	3140208033	3140665499	457466	880.52	480.08	51	46	-1	13.59	13.59
Saccade L	1	1	3140665499	3140705245	39746	860.30	506.07	691.26	469.74	1.90	136.02	1.00	47.81	3333.65	-3097.08	1971.69
Saccade R	1	1	3140665499	3140705245	39746	860.30	506.07	691.26	469.74	1.90	136.02	1.00	47.81	3333.65	-3097.08	1971.69
Fixation L	1	2	3140705245	3140864363	159118	681.18	416.11	12	69	-1	13.57	13.57
Fixation R	1	2	3140705245	3140864363	159118	681.18	416.11	12	69	-1	12.83	12.83
Saccade L	1	2	3140864363	3140943977	79614	679.63	411.21	646.72	152.06	4.92	223.61	0.50	61.80	5438.50	-4499.59	2282.72
Saccade R	1	2	3140864363	3140943977	79614	679.63	411.21	646.72	152.06	4.92	223.61	0.50	61.80	5438.50	-4499.59	2282.72
Fixation L	1	3	3140943977	3141142847	198870	628.69	115.79	28	66	-1	12.23	12.23
Fixation R	1	3	3140943977	3141142847	198870	628.69	115.79	28	66	-1	11.67	11.67
Saccade L	1	3	3141142847	3141242344	99497	617.92	85.49	850.46	318.62	5.58	306.98	1.00	56.12	7286.79	-7524.85	2391.68
Saccade R	1	3	3141142847	3141242344	99497	617.92	85.49	850.46	318.62	5.58	306.98	1.00	56.12	7286.79	-7524.85	2391.68
Fixation L	1	4	3141242344	3141421335	178991	873.42	341.84	35	46	-1	12.40	12.40
Fixation R	1	4	3141242344	3141421335	178991	873.42	341.84	35	46	-1	12.25	12.25
Saccade L	1	4	3141421335	3141441210	19875	884.91	354.23	1043.66	517.45	1.50	230.22	1.00	75.51	5456.03	-5402.52	3936.85
Saccade R	1	4	3141421335	3141441210	19875	884.91	354.23	1043.66	517.45	1.50	230.22	1.00	75.51	5456.03	-5402.52	3936.85
Fixation L	1	5	3141441210	3141560582	119372	1062.05	566.38	26	71	-1	12.45	12.45
Fixation R	1	5	3141441210	3141560582	119372	1062.05	566.38	26	71	-1	12.27	12.27
Saccade L	1	5	3141560582	3141640078	79496	1069.19	586.94	871.99	707.19	3.24	220.87	1.00	40.82	5463.16	-4861.77	1862.98
Saccade R	1	5	3141560582	3141640078	79496	1069.19	586.94	871.99	707.19	3.24	220.87	1.00	40.82	5463.16	-4861.77	1862.98
Fixation L	1	6	3141640078	3141838945	198867	889.10	709.54	27	39	-1	12.18	12.18
Fixation R	1	6	3141640078	3141838945	198867	889.10	709.54	27	39	-1	11.70	11.70
Saccade L	1	6	3141838945	3141878814	39869	899.08	716.18	1426.20	980.91	5.04	390.86	0.50	126.37	9581.45	-9398.70	7122.71
Saccade R	1	6	3141838945	3141878814	39869	899.08	716.18	1426.20	980.91	5.04	390.86	0.50	126.37	9581.45	-9398.70	7122.71
Fixation L	1	7	3141878814	3142117425	238611	1441.36	1003.55	20	41	-1	12.12	12.12
Fixation R	1	7	3141878814	3142117425	238611	1441.36	1003.55	20	41	-1	11.45	11.45
Saccade L	1	7	3142117425	3142137292	19867	1430.89	975.74	1422.94	841.40	0.95	136.11	1.00	47.76	3321.23	-3115.62	2452.50
Saccade R	1	7	3142117425	3142137292	19867	1430.89	975.74	1422.94	841.40	0.95	136.11	1.00	47.76	3321.23	-3115.62	2452.50
Fixation L	1	8	3142137292	3142236791	99499	1408.29	839.06	24	13	-1	12.12	12.12
Fixation R	1	8	3142137292	3142236791	99499	1408.29	839.06	24	13	-1	11.20	11.20
Saccade L	1	8	3142236791	3142276534	39743	1398.91	839.14	1256.00	574.30	2.69	197.85	0.50	67.65	4661.05	-4734.29	3773.36
Saccade R	1	8	3142236791	3142276534	39743	1398.91	839.14	1256.00	574.30	2.69	197.85	0.50	67.65	4661.05	-4734.29	3773.36
Fixation L	1	9	3142276534	3142515278	238744	1235.52	585.28	29	31	-1	11.91	11.91
Fixation R	1	9	3142276534	3142515278	238744	1235.52	585.28	29	31	-1	10.64	10.64
Saccade L	1	9	3142515278	3142535152	19874	1226.70	594.25	1224.45	437.19	1.24	158.86	1.00	62.38	3759.44	-3121.49	2882.34
Saccade R	1	9	3142515278	3142535152	19874	1226.70	594.25	1224.45	437.19	1.24	158.86	1.00	62.38	3759.44	-3121.49	2882.34
Fixation L	1	10	3142535152	3142694280	159128	1221.86	475.36	5	75	-1	11.74	11.74
Fixation R	1	10	3142535152	3142694280	159128	1221.86	475.36	5	75	-1	10.78	10.78
Saccade L	1	10	3142694280	3142734019	39739	1218.62	467.69	1187.00	263.69	1.80	142.47	1.00	45.35	3459.56	-3205.13	2420.62
Saccade R	1	10	3142694280	3142734019	39739	1218.62	467.69	1187.00	263.69	1.80	142.47	1.00	45.35	3459.56	-3205.13	2420.62
Fixation L	1	11	3142734019	3142932874	198855	1169.54	253.24	27	23	-1	11.73	11.73
Fixation R	1	11	3142734019	3142932874	198855	1169.54	253.24	27	23	-1	10.73	10.73
Saccade L	1	11	3142932874	3142972755	39881	1159.78	243.97	847.42	226.72	2.71	201.30	0.50	67.90	4956.69	-4680.67	3726.85
Saccade R	1	11	3142932874	3142972755	39881	1159.78	243.97	847.42	226.72	2.71	201.30	0.50	67.90	4956.69	-4680.67	3726.85
Fixation L	1	12	3142972755	3143251111	278356	814.81	201.88	47	42	-1	11.79	11.79
Fixation R	1	12	3142972755	3143251111	278356	814.81	201.88	47	42	-1	11.15	11.15
Saccade L	1	12	3143251111	3143271114	20003	800.25	191.81	592.75	176.53	1.14	210.38	1.00	57.08	5192.64	-5081.28	3460.01
Saccade R	1	12	3143251111	3143271114	20003	800.25	191.81	592.75	176.53	1.14	210.38	1.00	57.08	5192.64	-5081.28	3460.01
Fixation L	1	13	3143271114	3143509724	238610	591.68	200.26	5	36	-1	11.95	11.95
Fixation R	1	13	3143271114	3143509724	238610	591.68	200.26	5	36	-1	11.92	11.92
Saccade L	1	13	3143509724	3143569346	59622	590.22	206.90	467.26	850.72	6.89	391.56	0.33	115.63	9704.89	-7306.10	5648.15
Saccade R	1	13	3143509724	3143569346	59622	590.22	206.90	467.26	850.72	6.89	391.56	0.33	115.63	9704.89	-7306.10	5648.15
Fixation L	1	14	3143569346	3143788212	218866	480.51	848.98	17	15	-1	12.72	12.72
Fixation R	1	14	3143569346	3143788212	218866	480.51	848.98	17	15	-1	12.79	12.79
Saccade L	1	14	3143788212	3143827963	39751	485.09	840.78	459.22	640.31	1.71	118.79	0.50	43.14	2957.81	-2803.63	2421.00
Saccade R	1	14	3143788212	3143827963	39751	485.09	840.78	459.22	640.31	1.71	118.79	0.50	43.14	2957.81	-2803.63	2421.00
Fixation L	1	15	3143827963	3144046823	218860	437.68	630.47	34	23	-1	12.12	12.12
Fixation R	1	15	3143827963	3144046823	218860	437.68	630.47	34	23	-1	12.15	12.15
Saccade L	1	15	3144046823	3144086582	39759	425.94	625.32	839.52	993.06	4.60	390.43	0.50	115.76	9712.97	-9578.69	6999.93
Saccade R	1	15	3144046823	3144086582	39759	425.94	625.32	839.52	993.06	4.60	390.43	0.50	115.76	9712.97	-9578.69	6999.93
Fixation L	1	16	3144086582	3144205945	119363	843.42	986.90	6	11	-1	11.86	11.86
Fixation R	1	16	3144086582	3144205945	119363	843.42	986.90	6	11	-1	12.17	12.17
