[BeGaze]
Converted from:	C:\Documents and Settings\iViewX\Desktop\EXPERIMENTATIONS\Experiments\results\finaleart\S21F22332-finaleart-1.idf
Date:	27.03.2019 15:56:13
Version:	BeGaze 2.5.77
Sample Rate:	50
Subject:	S21F22332
Description:	Cyrielle Mailart

Table Header for Fixations:
Event Type	Trial	Number	Start	End	Duration	Location X	Location Y	Dispersion X	Dispersion Y	Plane	Avg. Pupil Size X	Avg. Pupil Size Y

Table Header for Saccades:
Event Type	Trial	Number	Start	End	Duration	Start Loc.X	Start Loc.Y	End Loc.X	End Loc.Y	Amplitude	Peak Speed	Peak Speed At	Average Speed	Peak Accel.	Peak Decel.	Average Accel.

Table Header for Blinks:
Event Type	Trial	Number	Start	End	Duration

Table Header for User Events:
Event Type	Trial	Number	Start	Description

UserEvent	1	1	3036339900	# Message: void.jpg
Saccade L	1	1	3036358060	3036437683	79623	1576.96	401.29	1519.28	72.13	7.59	388.88	0.75	95.31	9577.18	-9198.59	3910.71
Saccade R	1	1	3036358060	3036437683	79623	1576.96	401.29	1519.28	72.13	7.59	388.88	0.75	95.31	9577.18	-9198.59	3910.71
Fixation L	1	1	3036437683	3036656407	218724	1483.21	73.49	53	27	-1	12.44	12.44
Fixation R	1	1	3036437683	3036656407	218724	1483.21	73.49	53	27	-1	10.93	10.93
Saccade L	1	2	3036656407	3036676319	19912	1465.77	85.55	1281.78	85.19	1.39	186.07	1.00	69.76	4496.01	-4359.19	3461.93
Saccade R	1	2	3036656407	3036676319	19912	1465.77	85.55	1281.78	85.19	1.39	186.07	1.00	69.76	4496.01	-4359.19	3461.93
Fixation L	1	2	3036676319	3036815523	139204	1336.68	92.84	73	17	-1	12.22	12.22
Fixation R	1	2	3036676319	3036815523	139204	1336.68	92.84	73	17	-1	11.12	11.12
Blink L	1	1	3036815523	3036915019	99496
Blink R	1	1	3036815523	3036915019	99496
Blink R	1	2	3036974644	3037074131	99487
Saccade L	1	3	3037074131	3037094001	19870	725.24	312.64	728.52	194.51	4.59	791.25	1.00	230.86	166.20	-16792.85	6574.28
Saccade R	1	3	3037074131	3037094001	19870	725.24	312.64	728.52	194.51	4.59	791.25	1.00	230.86	166.20	-16792.85	6574.28
Fixation L	1	3	3037094001	3037273004	179003	726.88	175.04	11	40	-1	13.66	13.66
Fixation R	1	3	3037094001	3037273004	179003	726.88	175.04	11	40	-1	12.62	12.62
Saccade L	1	4	3037273004	3037292888	19884	720.12	153.76	726.47	-28.27	1.18	184.20	1.00	59.48	4467.46	-4440.37	3141.04
Saccade R	1	4	3037273004	3037292888	19884	720.12	153.76	726.47	-28.27	1.18	184.20	1.00	59.48	4467.46	-4440.37	3141.04
Fixation L	1	4	3037292888	3037392375	99487	737.02	-51.22	27	69	-1	13.78	13.78
Fixation R	1	4	3037292888	3037392375	99487	737.02	-51.22	27	69	-1	12.81	12.81
Saccade L	1	5	3037392375	3037412253	19878	754.06	-69.30	0.00	-21.23	4.04	759.89	1.00	203.29	18663.35	-18910.98	12760.65
Saccade R	1	5	3037392375	3037412253	19878	754.06	-69.30	0.00	-21.23	4.04	759.89	1.00	203.29	18663.35	-18910.98	12760.65
Fixation L	1	5	3037412253	3037611119	198866	0.00	-7.40	0	21	-1	13.40	13.40
Fixation R	1	5	3037412253	3037611119	198866	0.00	-7.40	0	21	-1	12.10	12.10
Blink L	1	2	3037611119	3038088458	477339
Blink R	1	3	3037611119	3038088458	477339
Fixation L	1	6	3038088458	3038227698	139240	956.03	482.02	5	10	-1	12.49	12.49
Fixation R	1	6	3038088458	3038227698	139240	956.03	482.02	5	10	-1	12.10	12.10
Saccade L	1	6	3038227698	3038327077	99379	956.29	477.65	874.68	384.06	2.52	111.18	0.20	25.32	2702.55	-2351.25	1151.57
Saccade R	1	6	3038227698	3038327077	99379	956.29	477.65	874.68	384.06	2.52	111.18	0.20	25.32	2702.55	-2351.25	1151.57
