[BeGaze]
Converted from:	C:\Documents and Settings\iViewX\Desktop\EXPERIMENTATIONS\Experiments\results\finaleart\S21F22332-finaleart-1.idf
Date:	27.03.2019 15:55:13
Version:	BeGaze 2.5.77
Sample Rate:	50
Subject:	S21F22332
Description:	Cyrielle Mailart

Table Header for Fixations:
Event Type	Trial	Number	Start	End	Duration	Location X	Location Y	Dispersion X	Dispersion Y	Plane	Avg. Pupil Size X	Avg. Pupil Size Y

Table Header for Saccades:
Event Type	Trial	Number	Start	End	Duration	Start Loc.X	Start Loc.Y	End Loc.X	End Loc.Y	Amplitude	Peak Speed	Peak Speed At	Average Speed	Peak Accel.	Peak Decel.	Average Accel.

Table Header for Blinks:
Event Type	Trial	Number	Start	End	Duration

Table Header for User Events:
Event Type	Trial	Number	Start	Description

UserEvent	1	1	2506614867	# Message: still-life-with-a-puro-(II)_matisse_1904.jpg
Fixation L	1	1	2506624527	2507042263	417736	951.15	445.65	71	23	-1	13.86	13.86
Fixation R	1	1	2506624527	2507042263	417736	951.15	445.65	71	23	-1	12.87	12.87
Saccade L	1	1	2507042263	2507081990	39727	917.25	449.93	500.02	458.11	3.67	266.29	0.50	92.45	6453.07	-6086.74	5048.90
Saccade R	1	1	2507042263	2507081990	39727	917.25	449.93	500.02	458.11	3.67	266.29	0.50	92.45	6453.07	-6086.74	5048.90
Fixation L	1	2	2507081990	2507241109	159119	496.93	481.67	5	36	-1	12.75	12.75
Fixation R	1	2	2507081990	2507241109	159119	496.93	481.67	5	36	-1	11.89	11.89
Saccade L	1	2	2507241109	2507260979	19870	496.45	488.61	505.39	326.82	0.87	163.87	1.00	43.93	4048.34	-3509.10	2581.09
Saccade R	1	2	2507241109	2507260979	19870	496.45	488.61	505.39	326.82	0.87	163.87	1.00	43.93	4048.34	-3509.10	2581.09
Fixation L	1	3	2507260979	2507380362	119383	502.39	295.77	4	46	-1	11.21	11.21
Fixation R	1	3	2507260979	2507380362	119383	502.39	295.77	4	46	-1	10.66	10.66
Saccade L	1	3	2507380362	2507439985	59623	500.71	283.62	1147.64	-22.74	7.51	466.01	0.67	126.00	11561.68	-11358.35	6028.28
Saccade R	1	3	2507380362	2507439985	59623	500.71	283.62	1147.64	-22.74	7.51	466.01	0.67	126.00	11561.68	-11358.35	6028.28
Fixation L	1	4	2507439985	2507817959	377974	1153.76	-47.57	23	76	-1	10.37	10.37
Fixation R	1	4	2507439985	2507817959	377974	1153.76	-47.57	23	76	-1	10.21	10.21
Saccade L	1	4	2507817959	2507837832	19873	1170.68	-44.16	1171.34	-46.46	0.39	54.02	1.00	19.68	1217.05	-19.83	703.67
Saccade R	1	4	2507817959	2507837832	19873	1170.68	-44.16	1171.34	-46.46	0.39	54.02	1.00	19.68	1217.05	-19.83	703.67
Fixation L	1	5	2507837832	2507957190	119358	1172.20	-38.14	4	60	-1	10.86	10.86
Fixation R	1	5	2507837832	2507957190	119358	1172.20	-38.14	4	60	-1	10.32	10.32
Saccade L	1	5	2507957190	2508016811	59621	1172.13	-43.88	1045.79	673.98	7.56	435.97	0.67	126.74	10656.54	-10861.90	6028.49
Saccade R	1	5	2507957190	2508016811	59621	1172.13	-43.88	1045.79	673.98	7.56	435.97	0.67	126.74	10656.54	-10861.90	6028.49
Fixation L	1	6	2508016811	2508315179	298368	1033.31	666.61	24	58	-1	11.65	11.65
Fixation R	1	6	2508016811	2508315179	298368	1033.31	666.61	24	58	-1	11.12	11.12
Saccade L	1	6	2508315179	2508335047	19868	1021.37	624.81	1016.26	586.65	0.42	38.94	1.00	21.21	754.52	-737.99	736.38
Saccade R	1	6	2508315179	2508335047	19868	1021.37	624.81	1016.26	586.65	0.42	38.94	1.00	21.21	754.52	-737.99	736.38
Fixation L	1	7	2508335047	2508553788	218741	1014.06	540.21	15	63	-1	11.43	11.43
Fixation R	1	7	2508335047	2508553788	218741	1014.06	540.21	15	63	-1	10.84	10.84
Saccade L	1	7	2508553788	2508573791	20003	1024.48	556.74	1187.50	818.60	1.79	311.74	1.00	89.41	7733.72	-7556.43	5345.67
Saccade R	1	7	2508553788	2508573791	20003	1024.48	556.74	1187.50	818.60	1.79	311.74	1.00	89.41	7733.72	-7556.43	5345.67
Fixation L	1	8	2508573791	2508732908	159117	1204.46	823.85	26	11	-1	11.50	11.50
Fixation R	1	8	2508573791	2508732908	159117	1204.46	823.85	26	11	-1	10.79	10.79
Saccade L	1	8	2508732908	2508752784	19876	1213.96	827.50	1383.56	843.31	0.99	172.26	1.00	49.75	4220.14	-4135.26	2888.06
Saccade R	1	8	2508732908	2508752784	19876	1213.96	827.50	1383.56	843.31	0.99	172.26	1.00	49.75	4220.14	-4135.26	2888.06
Fixation L	1	9	2508752784	2509031267	278483	1365.12	864.12	29	33	-1	11.51	11.51
Fixation R	1	9	2508752784	2509031267	278483	1365.12	864.12	29	33	-1	10.85	10.85
Saccade L	1	9	2509031267	2509110757	79490	1366.90	873.95	1081.38	810.29	3.80	187.65	1.00	47.83	4557.77	-4406.62	2455.20
Saccade R	1	9	2509031267	2509110757	79490	1366.90	873.95	1081.38	810.29	3.80	187.65	1.00	47.83	4557.77	-4406.62	2455.20
Fixation L	1	10	2509110757	2509269898	159141	1104.25	814.63	28	12	-1	12.07	12.07
Fixation R	1	10	2509110757	2509269898	159141	1104.25	814.63	28	12	-1	10.94	10.94
Saccade L	1	10	2509269898	2509289755	19857	1109.98	813.56	1408.91	875.66	1.73	308.56	1.00	87.35	7671.29	-7014.78	5167.37
Saccade R	1	10	2509269898	2509289755	19857	1109.98	813.56	1408.91	875.66	1.73	308.56	1.00	87.35	7671.29	-7014.78	5167.37
Fixation L	1	11	2509289755	2509568233	278478	1403.51	870.55	13	35	-1	12.10	12.10
Fixation R	1	11	2509289755	2509568233	278478	1403.51	870.55	13	35	-1	10.97	10.97
Saccade L	1	11	2509568233	2509607988	39755	1409.26	877.82	923.71	872.33	4.07	259.68	1.00	102.27	6460.61	-5976.70	5882.27
Saccade R	1	11	2509568233	2509607988	39755	1409.26	877.82	923.71	872.33	4.07	259.68	1.00	102.27	6460.61	-5976.70	5882.27
Fixation L	1	12	2509607988	2509707483	99495	890.77	860.62	58	33	-1	12.49	12.49
Fixation R	1	12	2509607988	2509707483	99495	890.77	860.62	58	33	-1	11.51	11.51
Saccade L	1	12	2509707483	2509727349	19866	865.27	842.18	870.99	819.67	0.39	28.07	1.00	19.82	405.79	-476.12	357.65
Saccade R	1	12	2509707483	2509727349	19866	865.27	842.18	870.99	819.67	0.39	28.07	1.00	19.82	405.79	-476.12	357.65
Fixation L	1	13	2509727349	2509846719	119370	867.40	839.11	7	27	-1	12.03	12.03
Fixation R	1	13	2509727349	2509846719	119370	867.40	839.11	7	27	-1	11.28	11.28
Saccade L	1	13	2509846719	2509866599	19880	863.29	842.72	615.35	834.56	1.46	250.80	1.00	73.54	6256.99	-6013.43	4355.21
Saccade R	1	13	2509846719	2509866599	19880	863.29	842.72	615.35	834.56	1.46	250.80	1.00	73.54	6256.99	-6013.43	4355.21
Fixation L	1	14	2509866599	2510065454	198855	563.59	834.73	66	33	-1	11.58	11.58
Fixation R	1	14	2509866599	2510065454	198855	563.59	834.73	66	33	-1	10.87	10.87
Saccade L	1	14	2510065454	2510105212	39758	549.29	816.54	446.84	762.28	2.23	187.61	0.50	56.03	4516.76	-4489.89	3026.92
Saccade R	1	14	2510065454	2510105212	39758	549.29	816.54	446.84	762.28	2.23	187.61	0.50	56.03	4516.76	-4489.89	3026.92
Fixation L	1	15	2510105212	2510343947	238735	459.96	744.97	30	40	-1	11.38	11.38
Fixation R	1	15	2510105212	2510343947	238735	459.96	744.97	30	40	-1	11.02	11.02
Saccade L	1	15	2510343947	2510383689	39742	469.33	740.43	477.73	329.08	3.47	268.08	1.00	87.26	6627.81	-6364.95	4989.55
Saccade R	1	15	2510343947	2510383689	39742	469.33	740.43	477.73	329.08	3.47	268.08	1.00	87.26	6627.81	-6364.95	4989.55
Fixation L	1	16	2510383689	2510602558	218869	499.78	337.23	38	27	-1	11.03	11.03
Fixation R	1	16	2510383689	2510602558	218869	499.78	337.23	38	27	-1	10.85	10.85
Saccade L	1	16	2510602558	2510622434	19876	516.07	350.92	787.68	517.10	2.23	321.78	1.00	112.26	7745.34	0.00	3872.67
Saccade R	1	16	2510602558	2510622434	19876	516.07	350.92	787.68	517.10	2.23	321.78	1.00	112.26	7745.34	0.00	3872.67
