[BeGaze]
Converted from:	C:\Documents and Settings\iViewX\Desktop\EXPERIMENTATIONS\Experiments\results\finaleart\S21F22332-finaleart-1.idf
Date:	27.03.2019 15:54:56
Version:	BeGaze 2.5.77
Sample Rate:	50
Subject:	S21F22332
Description:	Cyrielle Mailart

Table Header for Fixations:
Event Type	Trial	Number	Start	End	Duration	Location X	Location Y	Dispersion X	Dispersion Y	Plane	Avg. Pupil Size X	Avg. Pupil Size Y

Table Header for Saccades:
Event Type	Trial	Number	Start	End	Duration	Start Loc.X	Start Loc.Y	End Loc.X	End Loc.Y	Amplitude	Peak Speed	Peak Speed At	Average Speed	Peak Accel.	Peak Decel.	Average Accel.

Table Header for Blinks:
Event Type	Trial	Number	Start	End	Duration

Table Header for User Events:
Event Type	Trial	Number	Start	Description

UserEvent	1	1	2320304118	# Message: void.jpg
Fixation L	1	1	2320306227	2320405735	99508	1611.72	724.88	6	0	-1	14.09	14.09
Fixation R	1	1	2320306227	2320405735	99508	1611.72	724.88	6	0	-1	12.45	12.45
Saccade L	1	1	2320405735	2320425622	19887	1612.98	725.38	1613.99	969.74	1.36	247.05	1.00	68.37	6139.97	-5929.62	4219.96
Saccade R	1	1	2320405735	2320425622	19887	1612.98	725.38	1613.99	969.74	1.36	247.05	1.00	68.37	6139.97	-5929.62	4219.96
Fixation L	1	2	2320425622	2320763701	338079	1608.11	947.69	11	33	-1	13.92	13.92
Fixation R	1	2	2320425622	2320763701	338079	1608.11	947.69	11	33	-1	11.73	11.73
Blink L	1	1	2320763701	2321022324	258623
Blink R	1	1	2320763701	2321022324	258623
Fixation L	1	3	2321022324	2321400171	377847	954.98	448.01	18	16	-1	14.28	14.28
Fixation R	1	3	2321022324	2321400171	377847	954.98	448.01	18	16	-1	12.86	12.86
Saccade L	1	2	2321400171	2321439927	39756	949.74	452.26	891.50	559.83	1.37	75.41	0.50	34.34	1857.20	-924.53	1176.33
Saccade R	1	2	2321400171	2321439927	39756	949.74	452.26	891.50	559.83	1.37	75.41	0.50	34.34	1857.20	-924.53	1176.33
Fixation L	1	4	2321439927	2321937266	497339	872.86	596.08	30	57	-1	14.39	14.39
Fixation R	1	4	2321439927	2321937266	497339	872.86	596.08	30	57	-1	13.29	13.29
Saccade L	1	3	2321937266	2321957141	19875	892.98	576.64	954.68	552.71	0.49	66.94	1.00	24.50	1591.60	-1500.70	1044.12
Saccade R	1	3	2321937266	2321957141	19875	892.98	576.64	954.68	552.71	0.49	66.94	1.00	24.50	1591.60	-1500.70	1044.12
Fixation L	1	5	2321957141	2322056511	99370	954.54	535.19	20	32	-1	14.50	14.50
Fixation R	1	5	2321957141	2322056511	99370	954.54	535.19	20	32	-1	13.31	13.31
Blink L	1	2	2322056511	2322275371	218860
Blink R	1	2	2322056511	2322275371	218860
Saccade L	1	4	2322275371	2322315124	39753	907.78	447.65	906.45	451.52	4.90	481.20	1.00	123.37	0.00	-11956.06	4030.06
Saccade R	1	4	2322275371	2322315124	39753	907.78	447.65	906.45	451.52	4.90	481.20	1.00	123.37	0.00	-11956.06	4030.06
