[BeGaze]
Converted from:	C:\Documents and Settings\iViewX\Desktop\EXPERIMENTATIONS\Experiments\results\finaleart\S21F22332-finaleart-1.idf
Date:	27.03.2019 15:55:34
Version:	BeGaze 2.5.77
Sample Rate:	50
Subject:	S21F22332
Description:	Cyrielle Mailart

Table Header for Fixations:
Event Type	Trial	Number	Start	End	Duration	Location X	Location Y	Dispersion X	Dispersion Y	Plane	Avg. Pupil Size X	Avg. Pupil Size Y

Table Header for Saccades:
Event Type	Trial	Number	Start	End	Duration	Start Loc.X	Start Loc.Y	End Loc.X	End Loc.Y	Amplitude	Peak Speed	Peak Speed At	Average Speed	Peak Accel.	Peak Decel.	Average Accel.

Table Header for Blinks:
Event Type	Trial	Number	Start	End	Duration

Table Header for User Events:
Event Type	Trial	Number	Start	Description

UserEvent	1	1	2723324023	# Message: void.jpg
Fixation L	1	1	2723327133	2723545970	218837	1702.42	456.45	34	63	-1	11.50	11.50
Fixation R	1	1	2723327133	2723545970	218837	1702.42	456.45	34	63	-1	10.33	10.33
Saccade L	1	1	2723545970	2723625463	79493	1685.64	433.61	1794.81	504.58	2.25	141.43	1.00	28.35	3423.30	-3186.25	1247.56
Saccade R	1	1	2723545970	2723625463	79493	1685.64	433.61	1794.81	504.58	2.25	141.43	1.00	28.35	3423.30	-3186.25	1247.56
Fixation L	1	2	2723625463	2723804441	178978	1791.65	511.63	5	56	-1	11.36	11.36
Fixation R	1	2	2723625463	2723804441	178978	1791.65	511.63	5	56	-1	10.33	10.33
Blink L	1	1	2723804441	2724182435	377994
Blink R	1	1	2723804441	2724182435	377994
Fixation L	1	3	2724182435	2724341552	159117	943.37	495.39	10	18	-1	13.44	13.44
Fixation R	1	3	2724182435	2724341552	159117	943.37	495.39	10	18	-1	12.67	12.67
Blink L	1	2	2724341552	2724600157	258605
Blink R	1	2	2724341552	2724600157	258605
Fixation L	1	4	2724600157	2724699529	99372	1115.40	384.63	12	29	-1	13.78	13.78
Fixation R	1	4	2724600157	2724699529	99372	1115.40	384.63	12	29	-1	12.47	12.47
Saccade L	1	2	2724699529	2724739288	39759	1111.72	400.40	977.02	499.59	1.53	103.38	1.00	38.50	2344.21	-2262.31	1968.13
Saccade R	1	2	2724699529	2724739288	39759	1111.72	400.40	977.02	499.59	1.53	103.38	1.00	38.50	2344.21	-2262.31	1968.13
Fixation L	1	5	2724739288	2725336008	596720	967.17	504.19	13	19	-1	13.62	13.62
Fixation R	1	5	2724739288	2725336008	596720	967.17	504.19	13	19	-1	12.49	12.49
