[BeGaze]
Converted from:	C:\Documents and Settings\iViewX\Desktop\EXPERIMENTATIONS\Experiments\results\finaleart\S21F22332-finaleart-1.idf
Date:	27.03.2019 15:55:02
Version:	BeGaze 2.5.77
Sample Rate:	50
Subject:	S21F22332
Description:	Cyrielle Mailart

Table Header for Fixations:
Event Type	Trial	Number	Start	End	Duration	Location X	Location Y	Dispersion X	Dispersion Y	Plane	Avg. Pupil Size X	Avg. Pupil Size Y

Table Header for Saccades:
Event Type	Trial	Number	Start	End	Duration	Start Loc.X	Start Loc.Y	End Loc.X	End Loc.Y	Amplitude	Peak Speed	Peak Speed At	Average Speed	Peak Accel.	Peak Decel.	Average Accel.

Table Header for Blinks:
Event Type	Trial	Number	Start	End	Duration

Table Header for User Events:
Event Type	Trial	Number	Start	Description

UserEvent	1	1	2363316470	# Message: void.jpg
Fixation L	1	1	2363328236	2363546974	218738	717.11	65.19	6	92	-1	14.76	14.76
Fixation R	1	1	2363328236	2363546974	218738	717.11	65.19	6	92	-1	14.25	14.25
Saccade L	1	1	2363546974	2363566847	19873	715.07	16.71	714.43	-0.86	0.39	29.03	0.00	19.75	613.77	-34.96	326.59
Saccade R	1	1	2363546974	2363566847	19873	715.07	16.71	714.43	-0.86	0.39	29.03	0.00	19.75	613.77	-34.96	326.59
Fixation L	1	2	2363566847	2363805576	238729	697.31	3.97	26	72	-1	14.79	14.79
Fixation R	1	2	2363566847	2363805576	238729	697.31	3.97	26	72	-1	14.07	14.07
Saccade L	1	2	2363805576	2363825455	19879	687.73	29.62	687.51	43.70	0.46	76.14	1.00	23.31	18831.64	292.56	7006.87
Saccade R	1	2	2363805576	2363825455	19879	687.73	29.62	687.51	43.70	0.46	76.14	1.00	23.31	18831.64	292.56	7006.87
Blink L	1	1	2363825455	2364024336	198881
Blink R	1	1	2363825455	2363924822	99367
Saccade R	1	3	2363924822	2363944827	20005	0.00	12.24	0.00	9.08	0.05	3.19	1.00	2.26	34.40	-31.43	31.87
Saccade R	1	4	2363964692	2364004446	39754	0.00	6.50	0.00	2.81	0.09	3.19	1.00	2.26	33675.67	-31.43	8432.96
Blink L	1	2	2364024336	2364183438	159102
Blink R	1	2	2364024336	2364183438	159102
Fixation L	1	3	2364183438	2364302804	119366	1033.57	299.25	40	55	-1	13.39	13.39
Fixation R	1	3	2364183438	2364302804	119366	1033.57	299.25	40	55	-1	12.45	12.45
Saccade L	1	3	2364302804	2364322680	19876	1037.31	310.16	1033.89	320.97	0.18	11.46	1.00	9.05	93.76	48.42	66.98
Saccade R	1	5	2364302804	2364322680	19876	1037.31	310.16	1033.89	320.97	0.18	11.46	1.00	9.05	93.76	48.42	66.98
Fixation L	1	4	2364322680	2364621043	298363	1022.42	329.95	18	26	-1	13.82	13.82
Fixation R	1	4	2364322680	2364621043	298363	1022.42	329.95	18	26	-1	12.70	12.70
Blink L	1	3	2364621043	2364819903	198860
Blink R	1	3	2364621043	2364819903	198860
Fixation L	1	5	2364819903	2365297253	477350	916.36	378.01	10	59	-1	14.15	14.15
Fixation R	1	5	2364819903	2365297253	477350	916.36	378.01	10	59	-1	12.95	12.95
