[BeGaze]
Converted from:	C:\Documents and Settings\iViewX\Desktop\EXPERIMENTATIONS\Experiments\results\finaleart\S21F22332-finaleart-1.idf
Date:	27.03.2019 15:55:04
Version:	BeGaze 2.5.77
Sample Rate:	50
Subject:	S21F22332
Description:	Cyrielle Mailart

Table Header for Fixations:
Event Type	Trial	Number	Start	End	Duration	Location X	Location Y	Dispersion X	Dispersion Y	Plane	Avg. Pupil Size X	Avg. Pupil Size Y

Table Header for Saccades:
Event Type	Trial	Number	Start	End	Duration	Start Loc.X	Start Loc.Y	End Loc.X	End Loc.Y	Amplitude	Peak Speed	Peak Speed At	Average Speed	Peak Accel.	Peak Decel.	Average Accel.

Table Header for Blinks:
Event Type	Trial	Number	Start	End	Duration

Table Header for User Events:
Event Type	Trial	Number	Start	Description

UserEvent	1	1	2375605071	# Message: void.jpg
Fixation L	1	1	2375620216	2375721045	100829	755.45	848.07	78	13	-1	14.08	14.08
Fixation R	1	1	2375620216	2375721045	100829	755.45	848.07	78	13	-1	13.19	13.19
Saccade L	1	1	2375721045	2375739475	18430	819.29	840.54	872.44	742.52	1.08	112.79	1.00	58.64	2605.39	-2541.37	2052.67
Saccade R	1	1	2375721045	2375739475	18430	819.29	840.54	872.44	742.52	1.08	112.79	1.00	58.64	2605.39	-2541.37	2052.67
Fixation L	1	2	2375739475	2376097565	358090	895.67	752.27	29	36	-1	13.20	13.20
Fixation R	1	2	2375739475	2376097565	358090	895.67	752.27	29	36	-1	12.32	12.32
Blink L	1	1	2376097565	2376296432	198867
Blink R	1	1	2376097565	2376296432	198867
Fixation L	1	3	2376296432	2376435677	139245	915.90	534.14	13	86	-1	13.18	13.18
Fixation R	1	3	2376296432	2376435677	139245	915.90	534.14	13	86	-1	12.24	12.24
Saccade L	1	2	2376435677	2376455551	19874	921.57	513.61	920.24	509.23	0.09	7.17	1.00	4.46	-12.56	-63.50	43.38
Saccade R	1	2	2376435677	2376455551	19874	921.57	513.61	920.24	509.23	0.09	7.17	1.00	4.46	-12.56	-63.50	43.38
Fixation L	1	4	2376455551	2376753905	298354	923.06	503.76	8	10	-1	14.00	14.00
Fixation R	1	4	2376455551	2376753905	298354	923.06	503.76	8	10	-1	12.94	12.94
Blink L	1	2	2376753905	2376972649	218744
Blink R	1	2	2376753905	2376972649	218744
Fixation L	1	5	2376972649	2377529618	556969	1037.70	537.16	8	43	-1	14.57	14.57
Fixation R	1	5	2376972649	2377529618	556969	1037.70	537.16	8	43	-1	12.78	12.78
Saccade L	1	3	2377529618	2377609117	79499	1041.86	557.22	931.71	535.28	1.99	122.92	0.25	25.06	3050.33	-2837.82	1199.06
Saccade R	1	3	2377529618	2377609117	79499	1041.86	557.22	931.71	535.28	1.99	122.92	0.25	25.06	3050.33	-2837.82	1199.06
