[BeGaze]
Converted from:	C:\Documents and Settings\iViewX\Desktop\EXPERIMENTATIONS\Experiments\results\finaleart\S21F22332-finaleart-1.idf
Date:	27.03.2019 15:54:43
Version:	BeGaze 2.5.77
Sample Rate:	50
Subject:	S21F22332
Description:	Cyrielle Mailart

Table Header for Fixations:
Event Type	Trial	Number	Start	End	Duration	Location X	Location Y	Dispersion X	Dispersion Y	Plane	Avg. Pupil Size X	Avg. Pupil Size Y

Table Header for Saccades:
Event Type	Trial	Number	Start	End	Duration	Start Loc.X	Start Loc.Y	End Loc.X	End Loc.Y	Amplitude	Peak Speed	Peak Speed At	Average Speed	Peak Accel.	Peak Decel.	Average Accel.

Table Header for Blinks:
Event Type	Trial	Number	Start	End	Duration

Table Header for User Events:
Event Type	Trial	Number	Start	Description

UserEvent	1	1	1822680163	# Message: void.jpg
Saccade L	1	1	1822681561	1822721307	39746	582.43	868.98	514.97	758.71	1.60	122.58	1.00	40.14	3064.46	-2975.77	1588.98
Saccade R	1	1	1822681561	1822721307	39746	582.43	868.98	514.97	758.71	1.60	122.58	1.00	40.14	3064.46	-2975.77	1588.98
Fixation L	1	1	1822721307	1822940163	218856	486.13	763.57	39	10	-1	16.20	16.20
Fixation R	1	1	1822721307	1822940163	218856	486.13	763.57	39	10	-1	15.29	15.29
Saccade L	1	2	1822940163	1822960044	19881	479.15	761.91	693.81	757.52	1.19	217.10	1.00	59.97	5375.08	-5399.08	3695.12
Saccade R	1	2	1822940163	1822960044	19881	479.15	761.91	693.81	757.52	1.19	217.10	1.00	59.97	5375.08	-5399.08	3695.12
Fixation L	1	2	1822960044	1823158916	198872	674.95	755.25	24	13	-1	15.83	15.83
Fixation R	1	2	1822960044	1823158916	198872	674.95	755.25	24	13	-1	15.44	15.44
Blink L	1	1	1823158916	1823417514	258598
Blink R	1	1	1823158916	1823417514	258598
Fixation L	1	3	1823417514	1823835247	417733	916.06	432.99	9	16	-1	16.21	16.21
Fixation R	1	3	1823417514	1823835247	417733	916.06	432.99	9	16	-1	15.23	15.23
Blink L	1	2	1823835247	1824073858	238611
Blink R	1	2	1823835247	1824073858	238611
Fixation L	1	4	1824073858	1824411971	338113	933.97	541.86	13	82	-1	17.61	17.61
Fixation R	1	4	1824073858	1824411971	338113	933.97	541.86	13	82	-1	15.54	15.54
Saccade L	1	3	1824411971	1824670578	258607	931.16	555.35	938.81	520.00	74.14	1470.92	0.69	286.70	33222.97	-28926.49	9056.61
Saccade R	1	3	1824411971	1824670578	258607	931.16	555.35	938.81	520.00	74.14	1470.92	0.69	286.70	33222.97	-28926.49	9056.61
