[BeGaze]
Converted from:	C:\Documents and Settings\iViewX\Desktop\EXPERIMENTATIONS\Experiments\results\finaleart\S21F22332-finaleart-1.idf
Date:	27.03.2019 15:55:14
Version:	BeGaze 2.5.77
Sample Rate:	50
Subject:	S21F22332
Description:	Cyrielle Mailart

Table Header for Fixations:
Event Type	Trial	Number	Start	End	Duration	Location X	Location Y	Dispersion X	Dispersion Y	Plane	Avg. Pupil Size X	Avg. Pupil Size Y

Table Header for Saccades:
Event Type	Trial	Number	Start	End	Duration	Start Loc.X	Start Loc.Y	End Loc.X	End Loc.Y	Amplitude	Peak Speed	Peak Speed At	Average Speed	Peak Accel.	Peak Decel.	Average Accel.

Table Header for Blinks:
Event Type	Trial	Number	Start	End	Duration

Table Header for User Events:
Event Type	Trial	Number	Start	Description

UserEvent	1	1	2518915570	# Message: courbet-female-nude-with-a-dog-portrait-of-leotine-renaude-1866.jpg
Saccade L	1	1	2518916512	2519035883	119371	882.57	478.10	908.98	450.76	4.03	113.93	0.83	33.76	2665.29	-2087.15	1137.18
Saccade R	1	1	2518916512	2519035883	119371	882.57	478.10	908.98	450.76	4.03	113.93	0.83	33.76	2665.29	-2087.15	1137.18
Fixation L	1	1	2519035883	2519373975	338092	957.64	455.49	57	22	-1	14.82	14.82
Fixation R	1	1	2519035883	2519373975	338092	957.64	455.49	57	22	-1	14.11	14.11
Saccade L	1	2	2519373975	2519393858	19883	963.10	447.83	958.39	286.58	1.15	163.15	1.00	57.77	3971.87	-3726.58	2757.91
Saccade R	1	2	2519373975	2519393858	19883	963.10	447.83	958.39	286.58	1.15	163.15	1.00	57.77	3971.87	-3726.58	2757.91
Fixation L	1	2	2519393858	2519712091	318233	949.94	295.27	11	51	-1	13.94	13.94
Fixation R	1	2	2519393858	2519712091	318233	949.94	295.27	11	51	-1	13.25	13.25
Saccade L	1	3	2519712091	2519731964	19873	950.47	287.20	1018.92	307.99	0.47	72.36	1.00	23.53	1805.29	-680.72	896.88
Saccade R	1	3	2519712091	2519731964	19873	950.47	287.20	1018.92	307.99	0.47	72.36	1.00	23.53	1805.29	-680.72	896.88
Fixation L	1	3	2519731964	2520189427	457463	1023.50	350.66	32	65	-1	14.51	14.51
Fixation R	1	3	2519731964	2520189427	457463	1023.50	350.66	32	65	-1	13.83	13.83
Saccade L	1	4	2520189427	2520308803	119376	1036.70	357.34	1082.59	479.89	2.49	72.51	0.83	20.90	1588.86	-1524.31	727.42
Saccade R	1	4	2520189427	2520308803	119376	1036.70	357.34	1082.59	479.89	2.49	72.51	0.83	20.90	1588.86	-1524.31	727.42
Fixation L	1	4	2520308803	2520726534	417731	1105.77	495.27	30	35	-1	15.29	15.29
Fixation R	1	4	2520308803	2520726534	417731	1105.77	495.27	30	35	-1	14.55	14.55
Saccade L	1	5	2520726534	2520746406	19872	1103.53	479.35	1310.44	692.77	1.65	300.44	1.00	82.88	7357.62	-7126.61	4995.45
Saccade R	1	5	2520726534	2520746406	19872	1103.53	479.35	1310.44	692.77	1.65	300.44	1.00	82.88	7357.62	-7126.61	4995.45
Fixation L	1	5	2520746406	2520965148	218742	1340.98	715.51	38	32	-1	15.21	15.21
Fixation R	1	5	2520746406	2520965148	218742	1340.98	715.51	38	32	-1	14.80	14.80
Saccade L	1	6	2520965148	2520985016	19868	1349.20	724.53	1473.90	740.54	0.69	127.16	1.00	34.50	3068.33	-3070.66	2074.77
Saccade R	1	6	2520965148	2520985016	19868	1349.20	724.53	1473.90	740.54	0.69	127.16	1.00	34.50	3068.33	-3070.66	2074.77
Fixation L	1	6	2520985016	2521243637	258621	1474.42	762.89	4	37	-1	14.87	14.87
Fixation R	1	6	2520985016	2521243637	258621	1474.42	762.89	4	37	-1	14.05	14.05
Saccade L	1	7	2521243637	2521263503	19866	1476.36	777.62	1471.01	959.37	1.03	183.88	1.00	51.77	4550.27	-4591.03	3162.44
Saccade R	1	7	2521243637	2521263503	19866	1476.36	777.62	1471.01	959.37	1.03	183.88	1.00	51.77	4550.27	-4591.03	3162.44
Fixation L	1	7	2521263503	2521422626	159123	1455.64	944.66	27	17	-1	14.97	14.97
Fixation R	1	7	2521263503	2521422626	159123	1455.64	944.66	27	17	-1	13.71	13.71
Saccade L	1	8	2521422626	2521442490	19864	1443.08	943.32	1230.08	948.58	1.14	215.44	1.00	57.53	5348.22	-5169.64	3576.42
Saccade R	1	8	2521422626	2521442490	19864	1443.08	943.32	1230.08	948.58	1.14	215.44	1.00	57.53	5348.22	-5169.64	3576.42
Fixation L	1	8	2521442490	2521740856	298366	1228.47	947.88	17	10	-1	15.27	15.27
Fixation R	1	8	2521442490	2521740856	298366	1228.47	947.88	17	10	-1	13.77	13.77
Saccade L	1	9	2521740856	2521780600	39744	1222.69	942.53	1460.93	940.21	1.96	131.07	0.50	49.34	3211.07	-3234.76	2954.65
Saccade R	1	9	2521740856	2521780600	39744	1222.69	942.53	1460.93	940.21	1.96	131.07	0.50	49.34	3211.07	-3234.76	2954.65
Fixation L	1	9	2521780600	2522118837	338237	1475.29	931.98	37	14	-1	15.15	15.15
Fixation R	1	9	2521780600	2522118837	338237	1475.29	931.98	37	14	-1	13.68	13.68
Saccade L	1	10	2522118837	2522138704	19867	1446.09	931.76	1232.75	936.50	1.28	215.76	1.00	64.26	5357.03	-5311.69	3836.48
Saccade R	1	10	2522118837	2522138704	19867	1446.09	931.76	1232.75	936.50	1.28	215.76	1.00	64.26	5357.03	-5311.69	3836.48
Fixation L	1	10	2522138704	2522456945	318241	1222.78	941.91	19	7	-1	15.43	15.43
Fixation R	1	10	2522138704	2522456945	318241	1222.78	941.91	19	7	-1	13.89	13.89
Saccade L	1	11	2522456945	2522496688	39743	1215.29	943.52	752.47	810.00	4.19	339.63	0.50	105.44	8431.25	-7657.99	5802.48
Saccade R	1	11	2522456945	2522496688	39743	1215.29	943.52	752.47	810.00	4.19	339.63	0.50	105.44	8431.25	-7657.99	5802.48
Fixation L	1	11	2522496688	2522695560	198872	738.46	776.93	30	56	-1	15.22	15.22
Fixation R	1	11	2522496688	2522695560	198872	738.46	776.93	30	56	-1	13.57	13.57
Saccade L	1	12	2522695560	2522715429	19869	721.93	753.30	679.96	623.58	0.86	137.90	1.00	43.40	3411.65	-3044.54	2166.99
Saccade R	1	12	2522695560	2522715429	19869	721.93	753.30	679.96	623.58	0.86	137.90	1.00	43.40	3411.65	-3044.54	2166.99
Fixation L	1	12	2522715429	2522914428	198999	669.51	649.62	23	36	-1	14.64	14.64
Fixation R	1	12	2522715429	2522914428	198999	669.51	649.62	23	36	-1	13.19	13.19
