[BeGaze]
Converted from:	C:\Documents and Settings\iViewX\Desktop\EXPERIMENTATIONS\Experiments\results\finaleart\S21F22332-finaleart-1.idf
Date:	27.03.2019 15:55:38
Version:	BeGaze 2.5.77
Sample Rate:	50
Subject:	S21F22332
Description:	Cyrielle Mailart

Table Header for Fixations:
Event Type	Trial	Number	Start	End	Duration	Location X	Location Y	Dispersion X	Dispersion Y	Plane	Avg. Pupil Size X	Avg. Pupil Size Y

Table Header for Saccades:
Event Type	Trial	Number	Start	End	Duration	Start Loc.X	Start Loc.Y	End Loc.X	End Loc.Y	Amplitude	Peak Speed	Peak Speed At	Average Speed	Peak Accel.	Peak Decel.	Average Accel.

Table Header for Blinks:
Event Type	Trial	Number	Start	End	Duration

Table Header for User Events:
Event Type	Trial	Number	Start	Description

UserEvent	1	1	2747735647	# Message: void.jpg
Fixation L	1	1	2747737975	2747877241	139266	1626.41	575.44	20	23	-1	12.63	12.63
Fixation R	1	1	2747737975	2747877241	139266	1626.41	575.44	20	23	-1	11.39	11.39
Saccade L	1	1	2747877241	2747916944	39703	1638.57	585.66	1271.38	305.40	4.06	303.59	0.50	102.26	7234.23	-7185.28	5601.15
Saccade R	1	1	2747877241	2747916944	39703	1638.57	585.66	1271.38	305.40	4.06	303.59	0.50	102.26	7234.23	-7185.28	5601.15
Fixation L	1	2	2747916944	2748215300	298356	1260.30	287.52	20	74	-1	13.09	13.09
Fixation R	1	2	2747916944	2748215300	298356	1260.30	287.52	20	74	-1	11.99	11.99
Blink L	1	1	2748215300	2748473813	258513
Blink R	1	1	2748215300	2748473813	258513
Fixation L	1	3	2748473813	2749150136	676323	988.79	323.74	13	55	-1	14.00	14.00
Fixation R	1	3	2748473813	2749150136	676323	988.79	323.74	13	55	-1	13.56	13.56
Saccade L	1	2	2749150136	2749170003	19867	994.74	334.56	973.77	462.35	0.86	130.98	1.00	43.42	3265.68	-2853.44	2359.05
Saccade R	1	2	2749150136	2749170003	19867	994.74	334.56	973.77	462.35	0.86	130.98	1.00	43.42	3265.68	-2853.44	2359.05
Fixation L	1	4	2749170003	2749587612	417609	963.54	506.19	30	55	-1	14.06	14.06
Fixation R	1	4	2749170003	2749587612	417609	963.54	506.19	30	55	-1	13.82	13.82
Saccade L	1	3	2749587612	2749607608	19996	958.51	515.72	940.90	499.49	0.18	24.23	1.00	9.03	547.63	-486.53	365.19
Saccade R	1	3	2749587612	2749607608	19996	958.51	515.72	940.90	499.49	0.18	24.23	1.00	9.03	547.63	-486.53	365.19
Fixation L	1	5	2749607608	2749726872	119264	944.57	497.98	6	23	-1	13.61	13.61
Fixation R	1	5	2749607608	2749726872	119264	944.57	497.98	6	23	-1	13.53	13.53
