[BeGaze]
Converted from:	C:\Documents and Settings\iViewX\Desktop\EXPERIMENTATIONS\Experiments\results\finaleart\S21F22332-finaleart-1.idf
Date:	27.03.2019 15:56:01
Version:	BeGaze 2.5.77
Sample Rate:	50
Subject:	S21F22332
Description:	Cyrielle Mailart

Table Header for Fixations:
Event Type	Trial	Number	Start	End	Duration	Location X	Location Y	Dispersion X	Dispersion Y	Plane	Avg. Pupil Size X	Avg. Pupil Size Y

Table Header for Saccades:
Event Type	Trial	Number	Start	End	Duration	Start Loc.X	Start Loc.Y	End Loc.X	End Loc.Y	Amplitude	Peak Speed	Peak Speed At	Average Speed	Peak Accel.	Peak Decel.	Average Accel.

Table Header for Blinks:
Event Type	Trial	Number	Start	End	Duration

Table Header for User Events:
Event Type	Trial	Number	Start	Description

UserEvent	1	1	2958805483	# Message: wright-vesuvius-from-posillipo-1774.jpg
Fixation L	1	1	2958807106	2959045837	238731	877.91	527.25	80	13	-1	13.46	13.46
Fixation R	1	1	2958807106	2959045837	238731	877.91	527.25	80	13	-1	11.44	11.44
Saccade L	1	1	2959045837	2959065699	19862	949.23	522.23	960.99	521.92	0.50	76.99	0.00	25.18	200.03	-1727.01	720.40
Saccade R	1	1	2959045837	2959065699	19862	949.23	522.23	960.99	521.92	0.50	76.99	0.00	25.18	200.03	-1727.01	720.40
Fixation L	1	2	2959065699	2959304439	238740	955.06	531.91	10	19	-1	13.49	13.49
Fixation R	1	2	2959065699	2959304439	238740	955.06	531.91	10	19	-1	11.58	11.58
Saccade L	1	2	2959304439	2959344201	39762	952.37	540.99	810.36	224.52	3.29	278.41	0.50	82.78	6786.59	-5926.47	3767.31
Saccade R	1	2	2959304439	2959344201	39762	952.37	540.99	810.36	224.52	3.29	278.41	0.50	82.78	6786.59	-5926.47	3767.31
Fixation L	1	3	2959344201	2959483435	139234	793.37	218.56	26	69	-1	13.68	13.68
Fixation R	1	3	2959344201	2959483435	139234	793.37	218.56	26	69	-1	11.92	11.92
Saccade L	1	3	2959483435	2959503307	19872	788.11	214.93	792.59	174.05	0.43	41.59	1.00	21.47	898.46	-989.65	631.22
Saccade R	1	3	2959483435	2959503307	19872	788.11	214.93	792.59	174.05	0.43	41.59	1.00	21.47	898.46	-989.65	631.22
Fixation L	1	4	2959503307	2960040275	536968	810.17	157.73	28	41	-1	14.01	14.01
Fixation R	1	4	2959503307	2960040275	536968	810.17	157.73	28	41	-1	12.33	12.33
Saccade L	1	4	2960040275	2960100022	59747	817.39	132.32	1280.29	644.20	7.06	285.03	0.67	118.18	7074.55	-6953.99	5565.51
Saccade R	1	4	2960040275	2960100022	59747	817.39	132.32	1280.29	644.20	7.06	285.03	0.67	118.18	7074.55	-6953.99	5565.51
Fixation L	1	5	2960100022	2960259153	159131	1284.13	648.64	9	20	-1	14.58	14.58
Fixation R	1	5	2960100022	2960259153	159131	1284.13	648.64	9	20	-1	12.85	12.85
Saccade L	1	5	2960259153	2960279016	19863	1279.16	662.11	1441.97	812.30	1.28	223.98	1.00	64.23	5390.64	-5317.81	3710.48
Saccade R	1	5	2960259153	2960279016	19863	1279.16	662.11	1441.97	812.30	1.28	223.98	1.00	64.23	5390.64	-5317.81	3710.48
Fixation L	1	6	2960279016	2960458008	178992	1445.31	789.46	13	28	-1	14.38	14.38
Fixation R	1	6	2960279016	2960458008	178992	1445.31	789.46	13	28	-1	12.39	12.39
Saccade L	1	6	2960458008	2960477877	19869	1449.14	786.39	1583.10	769.96	0.78	136.50	1.00	39.45	3372.35	-3237.46	2344.16
Saccade R	1	6	2960458008	2960477877	19869	1449.14	786.39	1583.10	769.96	0.78	136.50	1.00	39.45	3372.35	-3237.46	2344.16
Fixation L	1	7	2960477877	2961094470	616593	1569.27	729.04	27	66	-1	13.57	13.57
Fixation R	1	7	2960477877	2961094470	616593	1569.27	729.04	27	66	-1	11.33	11.33
Saccade L	1	7	2961094470	2961114344	19874	1583.52	717.56	1469.16	830.92	1.22	162.85	1.00	61.50	3920.52	-2663.38	2820.93
Saccade R	1	7	2961094470	2961114344	19874	1583.52	717.56	1469.16	830.92	1.22	162.85	1.00	61.50	3920.52	-2663.38	2820.93
Fixation L	1	8	2961114344	2961333202	218858	1488.72	802.74	27	71	-1	13.38	13.38
Fixation R	1	8	2961114344	2961333202	218858	1488.72	802.74	27	71	-1	11.06	11.06
Saccade L	1	8	2961333202	2961432576	99374	1496.54	797.62	933.77	784.59	7.70	336.97	0.80	77.51	8330.86	-7561.43	3902.41
Saccade R	1	8	2961333202	2961432576	99374	1496.54	797.62	933.77	784.59	7.70	336.97	0.80	77.51	8330.86	-7561.43	3902.41
Fixation L	1	9	2961432576	2961551944	119368	909.69	748.33	37	59	-1	13.48	13.48
Fixation R	1	9	2961432576	2961551944	119368	909.69	748.33	37	59	-1	11.51	11.51
Saccade L	1	9	2961551944	2961651437	99493	901.60	725.40	590.18	669.16	4.50	202.68	0.80	45.25	4969.37	-4814.22	2241.13
Saccade R	1	9	2961551944	2961651437	99493	901.60	725.40	590.18	669.16	4.50	202.68	0.80	45.25	4969.37	-4814.22	2241.13
Fixation L	1	10	2961651437	2961929802	278365	588.54	653.62	10	35	-1	13.59	13.59
Fixation R	1	10	2961651437	2961929802	278365	588.54	653.62	10	35	-1	11.72	11.72
Saccade L	1	10	2961929802	2961949801	19999	584.22	651.22	492.04	646.10	0.66	93.38	1.00	32.94	2271.28	-2165.48	1739.64
Saccade R	1	10	2961929802	2961949801	19999	584.22	651.22	492.04	646.10	0.66	93.38	1.00	32.94	2271.28	-2165.48	1739.64
Fixation L	1	11	2961949801	2962268040	318239	445.42	638.09	56	15	-1	13.90	13.90
Fixation R	1	11	2961949801	2962268040	318239	445.42	638.09	56	15	-1	12.30	12.30
Saccade L	1	11	2962268040	2962287910	19870	452.74	630.32	522.32	626.63	0.45	70.49	1.00	22.77	1734.57	-1510.37	1137.28
Saccade R	1	11	2962268040	2962287910	19870	452.74	630.32	522.32	626.63	0.45	70.49	1.00	22.77	1734.57	-1510.37	1137.28
Fixation L	1	12	2962287910	2962447025	159115	533.10	616.39	24	15	-1	14.70	14.70
Fixation R	1	12	2962287910	2962447025	159115	533.10	616.39	24	15	-1	12.83	12.83
Saccade L	1	12	2962447025	2962486777	39752	544.28	611.95	694.00	395.45	2.26	144.67	0.50	56.76	3545.89	-3381.91	3256.50
Saccade R	1	12	2962447025	2962486777	39752	544.28	611.95	694.00	395.45	2.26	144.67	0.50	56.76	3545.89	-3381.91	3256.50
Fixation L	1	13	2962486777	2962606141	119364	687.82	404.24	10	24	-1	14.76	14.76
Fixation R	1	13	2962486777	2962606141	119364	687.82	404.24	10	24	-1	12.94	12.94
Saccade L	1	13	2962606141	2962645892	39751	688.28	419.41	813.48	186.89	2.41	186.42	0.50	60.51	4318.46	-4386.71	3209.35
Saccade R	1	13	2962606141	2962645892	39751	688.28	419.41	813.48	186.89	2.41	186.42	0.50	60.51	4318.46	-4386.71	3209.35
Fixation L	1	14	2962645892	2962805012	159120	817.72	182.93	10	28	-1	14.47	14.47
Fixation R	1	14	2962645892	2962805012	159120	817.72	182.93	10	28	-1	12.85	12.85
