[BeGaze]
Converted from:	C:\Documents and Settings\iViewX\Desktop\EXPERIMENTATIONS\Experiments\results\finaleart\S21F22332-finaleart-1.idf
Date:	27.03.2019 15:54:40
Version:	BeGaze 2.5.77
Sample Rate:	50
Subject:	S21F22332
Description:	Cyrielle Mailart

Table Header for Fixations:
Event Type	Trial	Number	Start	End	Duration	Location X	Location Y	Dispersion X	Dispersion Y	Plane	Avg. Pupil Size X	Avg. Pupil Size Y

Table Header for Saccades:
Event Type	Trial	Number	Start	End	Duration	Start Loc.X	Start Loc.Y	End Loc.X	End Loc.Y	Amplitude	Peak Speed	Peak Speed At	Average Speed	Peak Accel.	Peak Decel.	Average Accel.

Table Header for Blinks:
Event Type	Trial	Number	Start	End	Duration

Table Header for User Events:
Event Type	Trial	Number	Start	Description

UserEvent	1	1	1797914690	# Message: void.jpg
Saccade L	1	1	1797918616	1797938478	19862	738.74	785.93	561.74	864.47	1.55	195.81	1.00	78.26	974.46	-4549.69	1841.38
Saccade R	1	1	1797918616	1797938478	19862	738.74	785.93	561.74	864.47	1.55	195.81	1.00	78.26	974.46	-4549.69	1841.38
Fixation L	1	1	1797938478	1798117460	178982	581.68	855.84	59	34	-1	14.74	14.74
Fixation R	1	1	1797938478	1798117460	178982	581.68	855.84	59	34	-1	14.01	14.01
Saccade L	1	2	1798117460	1798137345	19885	621.48	852.88	773.16	660.91	1.51	247.35	1.00	75.75	6031.33	-6063.22	4290.12
Saccade R	1	2	1798117460	1798137345	19885	621.48	852.88	773.16	660.91	1.51	247.35	1.00	75.75	6031.33	-6063.22	4290.12
Fixation L	1	2	1798137345	1798415822	278477	779.87	647.84	9	21	-1	14.81	14.81
Fixation R	1	2	1798137345	1798415822	278477	779.87	647.84	9	21	-1	14.11	14.11
Blink L	1	1	1798415822	1798674435	258613
Blink R	1	1	1798415822	1798674435	258613
Fixation L	1	3	1798674435	1799131914	457479	929.45	453.02	9	44	-1	16.62	16.62
Fixation R	1	3	1798674435	1799131914	457479	929.45	453.02	9	44	-1	15.11	15.11
Blink L	1	2	1799131914	1799310900	178986
Blink R	1	2	1799131914	1799310900	178986
Saccade L	1	3	1799310900	1799350651	39751	923.12	433.45	938.32	446.84	10.10	1010.00	1.00	254.03	2344.66	-22218.18	7252.76
Saccade R	1	3	1799310900	1799350651	39751	923.12	433.45	938.32	446.84	10.10	1010.00	1.00	254.03	2344.66	-22218.18	7252.76
Fixation L	1	4	1799350651	1799907618	556967	923.67	479.97	24	54	-1	16.64	16.64
Fixation R	1	4	1799350651	1799907618	556967	923.67	479.97	24	54	-1	15.10	15.10
