[BeGaze]
Converted from:	C:\Documents and Settings\iViewX\Desktop\EXPERIMENTATIONS\Experiments\results\finaleart\S21F22332-finaleart-1.idf
Date:	27.03.2019 15:55:18
Version:	BeGaze 2.5.77
Sample Rate:	50
Subject:	S21F22332
Description:	Cyrielle Mailart

Table Header for Fixations:
Event Type	Trial	Number	Start	End	Duration	Location X	Location Y	Dispersion X	Dispersion Y	Plane	Avg. Pupil Size X	Avg. Pupil Size Y

Table Header for Saccades:
Event Type	Trial	Number	Start	End	Duration	Start Loc.X	Start Loc.Y	End Loc.X	End Loc.Y	Amplitude	Peak Speed	Peak Speed At	Average Speed	Peak Accel.	Peak Decel.	Average Accel.

Table Header for Blinks:
Event Type	Trial	Number	Start	End	Duration

Table Header for User Events:
Event Type	Trial	Number	Start	Description

UserEvent	1	1	2543288059	# Message: The_Augustan_Bridge_at_Narni_Corot_1826.jpg
Fixation L	1	1	2543301613	2543898337	596724	953.04	599.44	10	41	-1	13.70	13.70
Fixation R	1	1	2543301613	2543898337	596724	953.04	599.44	10	41	-1	12.67	12.67
Saccade L	1	1	2543898337	2543918208	19871	955.94	581.66	1136.29	574.41	1.01	182.53	1.00	50.60	4402.27	-4343.67	2927.30
Saccade R	1	1	2543898337	2543918208	19871	955.94	581.66	1136.29	574.41	1.01	182.53	1.00	50.60	4402.27	-4343.67	2927.30
Fixation L	1	2	2543918208	2544176683	258475	1158.02	558.77	41	57	-1	11.06	11.06
Fixation R	1	2	2543918208	2544176683	258475	1158.02	558.77	41	57	-1	10.23	10.23
Saccade L	1	2	2544176683	2544196693	20010	1177.47	517.03	1181.42	508.03	0.34	42.28	1.00	17.01	-28.91	-808.44	313.77
Saccade R	1	2	2544176683	2544196693	20010	1177.47	517.03	1181.42	508.03	0.34	42.28	1.00	17.01	-28.91	-808.44	313.77
Fixation L	1	3	2544196693	2544634152	437459	1177.96	493.27	61	22	-1	10.94	10.94
Fixation R	1	3	2544196693	2544634152	437459	1177.96	493.27	61	22	-1	10.15	10.15
Saccade L	1	3	2544634152	2544674035	39883	1153.93	494.91	1301.42	968.94	4.32	407.64	0.50	108.40	10112.12	-9980.59	6133.06
Saccade R	1	3	2544634152	2544674035	39883	1153.93	494.91	1301.42	968.94	4.32	407.64	0.50	108.40	10112.12	-9980.59	6133.06
Fixation L	1	4	2544674035	2544833152	159117	1304.47	976.42	6	13	-1	11.38	11.38
Fixation R	1	4	2544674035	2544833152	159117	1304.47	976.42	6	13	-1	10.38	10.38
Saccade L	1	4	2544833152	2544872901	39749	1307.73	982.50	1019.48	977.92	2.67	177.57	1.00	67.14	4382.70	-3932.70	3242.25
Saccade R	1	4	2544833152	2544872901	39749	1307.73	982.50	1019.48	977.92	2.67	177.57	1.00	67.14	4382.70	-3932.70	3242.25
Fixation L	1	5	2544872901	2544972272	99371	977.66	956.15	56	41	-1	11.48	11.48
Fixation R	1	5	2544872901	2544972272	99371	977.66	956.15	56	41	-1	10.52	10.52
Saccade L	1	5	2544972272	2545111505	139233	966.06	936.60	769.54	680.07	5.62	236.19	0.86	40.35	5750.75	-5562.84	1878.34
Saccade R	1	5	2544972272	2545111505	139233	966.06	936.60	769.54	680.07	5.62	236.19	0.86	40.35	5750.75	-5562.84	1878.34
Fixation L	1	6	2545111505	2545310501	198996	749.64	659.63	24	37	-1	11.84	11.84
Fixation R	1	6	2545111505	2545310501	198996	749.64	659.63	24	37	-1	10.94	10.94
Saccade L	1	6	2545310501	2545350277	39776	746.01	646.31	446.31	618.46	2.51	214.50	1.00	63.17	5330.58	-5172.15	3689.15
Saccade R	1	6	2545310501	2545350277	39776	746.01	646.31	446.31	618.46	2.51	214.50	1.00	63.17	5330.58	-5172.15	3689.15
Fixation L	1	7	2545350277	2545847473	497196	434.36	601.56	32	43	-1	11.22	11.22
Fixation R	1	7	2545350277	2545847473	497196	434.36	601.56	32	43	-1	10.53	10.53
Saccade L	1	7	2545847473	2545887223	39750	420.45	589.16	288.95	576.59	1.13	98.81	1.00	28.50	2431.13	-2256.76	1561.61
Saccade R	1	7	2545847473	2545887223	39750	420.45	589.16	288.95	576.59	1.13	98.81	1.00	28.50	2431.13	-2256.76	1561.61
Fixation L	1	8	2545887223	2546125959	238736	287.80	561.70	21	22	-1	10.98	10.98
Fixation R	1	8	2545887223	2546125959	238736	287.80	561.70	21	22	-1	11.05	11.05
Saccade L	1	8	2546125959	2546145831	19872	304.08	557.87	427.55	554.77	0.74	124.92	1.00	37.41	3037.40	-2922.57	2045.48
Saccade R	1	8	2546125959	2546145831	19872	304.08	557.87	427.55	554.77	0.74	124.92	1.00	37.41	3037.40	-2922.57	2045.48
Fixation L	1	9	2546145831	2546523684	377853	443.41	560.64	46	17	-1	11.67	11.67
Fixation R	1	9	2546145831	2546523684	377853	443.41	560.64	46	17	-1	11.42	11.42
Saccade L	1	9	2546523684	2546543686	20002	474.31	558.12	460.37	514.27	0.54	46.54	1.00	27.18	878.82	-656.07	739.98
Saccade R	1	9	2546523684	2546543686	20002	474.31	558.12	460.37	514.27	0.54	46.54	1.00	27.18	878.82	-656.07	739.98
Fixation L	1	10	2546543686	2546662933	119247	469.72	534.98	13	37	-1	11.49	11.49
Fixation R	1	10	2546543686	2546662933	119247	469.72	534.98	13	37	-1	11.56	11.56
Saccade L	1	10	2546662933	2546702805	39872	474.26	534.25	617.25	402.87	1.99	134.78	0.50	50.03	3165.78	-3237.30	2707.18
Saccade R	1	10	2546662933	2546702805	39872	474.26	534.25	617.25	402.87	1.99	134.78	0.50	50.03	3165.78	-3237.30	2707.18
Fixation L	1	11	2546702805	2546921544	218739	628.11	419.54	19	50	-1	11.70	11.70
Fixation R	1	11	2546702805	2546921544	218739	628.11	419.54	19	50	-1	11.51	11.51
Saccade L	1	11	2546921544	2546961292	39748	637.09	450.57	875.33	575.70	2.37	148.10	1.00	59.60	3468.01	-3535.48	3323.73
Saccade R	1	11	2546921544	2546961292	39748	637.09	450.57	875.33	575.70	2.37	148.10	1.00	59.60	3468.01	-3535.48	3323.73
Fixation L	1	12	2546961292	2547140280	178988	873.73	598.31	2	38	-1	12.20	12.20
Fixation R	1	12	2546961292	2547140280	178988	873.73	598.31	2	38	-1	11.80	11.80
Saccade L	1	12	2547140280	2547180166	39886	873.37	603.34	871.61	294.73	2.59	187.49	0.50	64.89	4676.60	-4583.97	3814.25
Saccade R	1	12	2547140280	2547180166	39886	873.37	603.34	871.61	294.73	2.59	187.49	0.50	64.89	4676.60	-4583.97	3814.25
Fixation L	1	13	2547180166	2547279523	99357	868.84	294.21	6	10	-1	11.90	11.90
Fixation R	1	13	2547180166	2547279523	99357	868.84	294.21	6	10	-1	11.41	11.41
