[BeGaze]
Converted from:	C:\Documents and Settings\iViewX\Desktop\EXPERIMENTATIONS\Experiments\results\finaleart\S21F22332-finaleart-1.idf
Date:	27.03.2019 15:55:59
Version:	BeGaze 2.5.77
Sample Rate:	50
Subject:	S21F22332
Description:	Cyrielle Mailart

Table Header for Fixations:
Event Type	Trial	Number	Start	End	Duration	Location X	Location Y	Dispersion X	Dispersion Y	Plane	Avg. Pupil Size X	Avg. Pupil Size Y

Table Header for Saccades:
Event Type	Trial	Number	Start	End	Duration	Start Loc.X	Start Loc.Y	End Loc.X	End Loc.Y	Amplitude	Peak Speed	Peak Speed At	Average Speed	Peak Accel.	Peak Decel.	Average Accel.

Table Header for Blinks:
Event Type	Trial	Number	Start	End	Duration

Table Header for User Events:
Event Type	Trial	Number	Start	Description

UserEvent	1	1	2944501548	# Message: void.jpg
Fixation L	1	1	2944506226	2944625605	119379	657.35	285.37	32	7	-1	15.62	15.62
Fixation R	1	1	2944506226	2944625605	119379	657.35	285.37	32	7	-1	15.33	15.33
Saccade L	1	1	2944625605	2944645461	19856	670.48	286.11	893.81	319.05	1.36	228.24	1.00	68.27	5548.11	-5380.86	3767.79
Saccade R	1	1	2944625605	2944645461	19856	670.48	286.11	893.81	319.05	1.36	228.24	1.00	68.27	5548.11	-5380.86	3767.79
Fixation L	1	2	2944645461	2944963680	318219	899.15	342.28	19	68	-1	15.72	15.72
Fixation R	1	2	2944645461	2944963680	318219	899.15	342.28	19	68	-1	15.07	15.07
Blink L	1	1	2944963680	2945361533	397853
Blink R	1	1	2944963680	2945361533	397853
Fixation L	1	3	2945361533	2945500788	139255	808.47	339.67	13	12	-1	12.65	12.65
Fixation R	1	3	2945361533	2945500788	139255	808.47	339.67	13	12	-1	11.83	11.83
Blink L	1	2	2945500788	2945759266	258478
Blink R	1	2	2945500788	2945759266	258478
Fixation L	1	4	2945759266	2945998003	238737	992.21	419.56	19	80	-1	13.37	13.37
Fixation R	1	4	2945759266	2945998003	238737	992.21	419.56	19	80	-1	12.36	12.36
Saccade L	1	2	2945998003	2946017876	19873	986.41	426.23	985.48	428.77	0.04	3.33	0.00	2.14	20.64	-69.14	43.30
Saccade R	1	2	2945998003	2946017876	19873	986.41	426.23	985.48	428.77	0.04	3.33	0.00	2.14	20.64	-69.14	43.30
Fixation L	1	5	2946017876	2946196872	178996	982.17	431.74	6	5	-1	13.08	13.08
Fixation R	1	5	2946017876	2946196872	178996	982.17	431.74	6	5	-1	12.16	12.16
