[BeGaze]
Converted from:	C:\Documents and Settings\iViewX\Desktop\EXPERIMENTATIONS\Experiments\results\finaleart\S21F22332-finaleart-1.idf
Date:	27.03.2019 15:56:32
Version:	BeGaze 2.5.77
Sample Rate:	50
Subject:	S21F22332
Description:	Cyrielle Mailart

Table Header for Fixations:
Event Type	Trial	Number	Start	End	Duration	Location X	Location Y	Dispersion X	Dispersion Y	Plane	Avg. Pupil Size X	Avg. Pupil Size Y

Table Header for Saccades:
Event Type	Trial	Number	Start	End	Duration	Start Loc.X	Start Loc.Y	End Loc.X	End Loc.Y	Amplitude	Peak Speed	Peak Speed At	Average Speed	Peak Accel.	Peak Decel.	Average Accel.

Table Header for Blinks:
Event Type	Trial	Number	Start	End	Duration

Table Header for User Events:
Event Type	Trial	Number	Start	Description

UserEvent	1	1	3225921964	# Message: L-Heure_Embrasee_Rysselberghe_1897.jpg
Fixation L	1	1	3225933695	3226331569	397874	1019.88	464.87	9	24	-1	14.36	14.36
Fixation R	1	1	3225933695	3226331569	397874	1019.88	464.87	9	24	-1	13.02	13.02
Saccade L	1	1	3226331569	3226371286	39717	1014.56	472.18	851.73	589.44	1.96	149.82	1.00	49.27	3725.26	-3397.68	2213.56
Saccade R	1	1	3226331569	3226371286	39717	1014.56	472.18	851.73	589.44	1.96	149.82	1.00	49.27	3725.26	-3397.68	2213.56
Fixation L	1	2	3226371286	3226490657	119371	859.39	565.18	13	49	-1	13.57	13.57
Fixation R	1	2	3226371286	3226490657	119371	859.39	565.18	13	49	-1	12.59	12.59
Saccade L	1	2	3226490657	3226530398	39741	859.45	566.09	576.88	465.31	2.62	232.78	1.00	65.82	5714.88	-5402.10	3631.46
Saccade R	1	2	3226490657	3226530398	39741	859.45	566.09	576.88	465.31	2.62	232.78	1.00	65.82	5714.88	-5402.10	3631.46
Fixation L	1	3	3226530398	3226669649	139251	556.25	444.89	31	31	-1	11.39	11.39
Fixation R	1	3	3226530398	3226669649	139251	556.25	444.89	31	31	-1	10.44	10.44
Saccade L	1	3	3226669649	3226709391	39742	545.86	434.25	414.51	410.31	1.16	76.69	1.00	29.15	1850.84	-1604.60	1547.77
Saccade R	1	3	3226669649	3226709391	39742	545.86	434.25	414.51	410.31	1.16	76.69	1.00	29.15	1850.84	-1604.60	1547.77
Fixation L	1	4	3226709391	3226948127	238736	426.73	384.21	42	56	-1	9.94	9.94
Fixation R	1	4	3226709391	3226948127	238736	426.73	384.21	42	56	-1	9.57	9.57
Saccade L	1	4	3226948127	3226968003	19876	455.01	367.86	461.97	377.03	0.22	16.11	0.00	10.85	169.96	-133.36	141.46
Saccade R	1	4	3226948127	3226968003	19876	455.01	367.86	461.97	377.03	0.22	16.11	0.00	10.85	169.96	-133.36	141.46
Fixation L	1	5	3226968003	3227146996	178993	468.71	357.53	29	51	-1	9.33	9.33
Fixation R	1	5	3226968003	3227146996	178993	468.71	357.53	29	51	-1	9.20	9.20
Saccade L	1	5	3227146996	3227166874	19878	491.58	325.51	645.21	109.71	1.82	267.78	1.00	91.46	5948.88	-6397.71	4222.61
Saccade R	1	5	3227146996	3227166874	19878	491.58	325.51	645.21	109.71	1.82	267.78	1.00	91.46	5948.88	-6397.71	4222.61
Fixation L	1	6	3227166874	3227345859	178985	676.57	116.24	43	23	-1	9.42	9.42
Fixation R	1	6	3227166874	3227345859	178985	676.57	116.24	43	23	-1	9.30	9.30
Saccade L	1	6	3227345859	3227385606	39747	688.70	123.67	1165.62	239.91	4.15	345.26	0.50	104.40	8595.02	-8464.52	6160.48
Saccade R	1	6	3227345859	3227385606	39747	688.70	123.67	1165.62	239.91	4.15	345.26	0.50	104.40	8595.02	-8464.52	6160.48
Fixation L	1	7	3227385606	3227604468	218862	1164.94	245.06	3	39	-1	9.92	9.92
Fixation R	1	7	3227385606	3227604468	218862	1164.94	245.06	3	39	-1	9.07	9.07
Saccade L	1	7	3227604468	3227644223	39755	1165.01	267.17	1306.00	177.59	2.54	204.42	0.50	63.93	4750.52	-4177.75	2883.67
Saccade R	1	7	3227604468	3227644223	39755	1165.01	267.17	1306.00	177.59	2.54	204.42	0.50	63.93	4750.52	-4177.75	2883.67
Fixation L	1	8	3227644223	3227843086	198863	1317.93	199.37	22	39	-1	9.68	9.68
Fixation R	1	8	3227644223	3227843086	198863	1317.93	199.37	22	39	-1	9.02	9.02
Saccade L	1	8	3227843086	3227863087	20001	1328.92	186.34	1447.84	119.62	1.06	137.92	1.00	52.88	3285.09	-1949.67	2015.65
Saccade R	1	8	3227843086	3227863087	20001	1328.92	186.34	1447.84	119.62	1.06	137.92	1.00	52.88	3285.09	-1949.67	2015.65
Fixation L	1	9	3227863087	3228081823	218736	1452.27	121.25	6	59	-1	10.02	10.02
Fixation R	1	9	3227863087	3228081823	218736	1452.27	121.25	6	59	-1	9.19	9.19
Saccade L	1	9	3228081823	3228101694	19871	1451.41	125.48	1344.96	180.79	0.80	121.35	1.00	40.33	3030.44	-2311.94	2011.94
Saccade R	1	9	3228081823	3228101694	19871	1451.41	125.48	1344.96	180.79	0.80	121.35	1.00	40.33	3030.44	-2311.94	2011.94
Fixation L	1	10	3228101694	3228400055	298361	1332.31	238.43	18	77	-1	11.07	11.07
Fixation R	1	10	3228101694	3228400055	298361	1332.31	238.43	18	77	-1	9.92	9.92
Saccade L	1	10	3228400055	3228419928	19873	1339.92	212.96	1444.18	149.36	0.89	123.53	1.00	44.94	3027.01	-2969.78	2068.74
Saccade R	1	10	3228400055	3228419928	19873	1339.92	212.96	1444.18	149.36	0.89	123.53	1.00	44.94	3027.01	-2969.78	2068.74
Fixation L	1	11	3228419928	3228678542	258614	1445.93	130.09	8	91	-1	11.05	11.05
Fixation R	1	11	3228419928	3228678542	258614	1445.93	130.09	8	91	-1	10.30	10.30
Saccade L	1	11	3228678542	3228718289	39747	1443.32	197.43	1580.94	489.35	3.46	193.95	1.00	87.12	3852.06	-4419.61	3462.25
Saccade R	1	11	3228678542	3228718289	39747	1443.32	197.43	1580.94	489.35	3.46	193.95	1.00	87.12	3852.06	-4419.61	3462.25
Fixation L	1	12	3228718289	3228996769	278480	1579.39	520.82	8	40	-1	11.63	11.63
Fixation R	1	12	3228718289	3228996769	278480	1579.39	520.82	8	40	-1	10.50	10.50
Saccade L	1	12	3228996769	3229036527	39758	1582.88	527.65	1429.03	809.03	2.89	245.55	1.00	72.57	6083.87	-5978.41	3814.87
Saccade R	1	12	3228996769	3229036527	39758	1582.88	527.65	1429.03	809.03	2.89	245.55	1.00	72.57	6083.87	-5978.41	3814.87
Fixation L	1	13	3229036527	3229175768	139241	1444.46	777.53	21	42	-1	12.22	12.22
Fixation R	1	13	3229036527	3229175768	139241	1444.46	777.53	21	42	-1	10.64	10.64
Saccade L	1	13	3229175768	3229195646	19878	1444.72	766.38	1439.36	667.21	0.59	100.46	1.00	29.72	2464.69	-2280.92	1613.48
Saccade R	1	13	3229175768	3229195646	19878	1444.72	766.38	1439.36	667.21	0.59	100.46	1.00	29.72	2464.69	-2280.92	1613.48
Fixation L	1	14	3229195646	3229474130	278484	1416.53	676.83	54	18	-1	12.13	12.13
Fixation R	1	14	3229195646	3229474130	278484	1416.53	676.83	54	18	-1	10.57	10.57
Saccade L	1	14	3229474130	3229513882	39752	1384.59	674.14	1050.69	697.49	2.89	301.73	1.00	72.62	7476.93	-7242.61	3999.82
Saccade R	1	14	3229474130	3229513882	39752	1384.59	674.14	1050.69	697.49	2.89	301.73	1.00	72.62	7476.93	-7242.61	3999.82
Fixation L	1	15	3229513882	3229672992	159110	1042.82	715.23	28	27	-1	11.95	11.95
Fixation R	1	15	3229513882	3229672992	159110	1042.82	715.23	28	27	-1	10.55	10.55
Saccade L	1	15	3229672992	3229692864	19872	1028.32	714.81	988.95	622.80	0.63	101.23	1.00	31.63	2478.85	-2425.24	1640.74
Saccade R	1	15	3229672992	3229692864	19872	1028.32	714.81	988.95	622.80	0.63	101.23	1.00	31.63	2478.85	-2425.24	1640.74
Fixation L	1	16	3229692864	3229871852	178988	970.81	614.23	25	17	-1	11.80	11.80
Fixation R	1	16	3229692864	3229871852	178988	970.81	614.23	25	17	-1	10.54	10.54
Saccade L	1	16	3229871852	3229911727	39875	966.24	608.54	1182.39	709.30	2.96	264.86	0.50	74.25	6526.31	0.00	2344.86
Saccade R	1	16	3229871852	3229911727	39875	966.24	608.54	1182.39	709.30	2.96	264.86	0.50	74.25	6526.31	0.00	2344.86
