[BeGaze]
Converted from:	C:\Documents and Settings\iViewX\Desktop\EXPERIMENTATIONS\Experiments\results\finaleart\S21F22332-finaleart-1.idf
Date:	27.03.2019 15:55:53
Version:	BeGaze 2.5.77
Sample Rate:	50
Subject:	S21F22332
Description:	Cyrielle Mailart

Table Header for Fixations:
Event Type	Trial	Number	Start	End	Duration	Location X	Location Y	Dispersion X	Dispersion Y	Plane	Avg. Pupil Size X	Avg. Pupil Size Y

Table Header for Saccades:
Event Type	Trial	Number	Start	End	Duration	Start Loc.X	Start Loc.Y	End Loc.X	End Loc.Y	Amplitude	Peak Speed	Peak Speed At	Average Speed	Peak Accel.	Peak Decel.	Average Accel.

Table Header for Blinks:
Event Type	Trial	Number	Start	End	Duration

Table Header for User Events:
Event Type	Trial	Number	Start	Description

UserEvent	1	1	2853742867	# Message: reclining-nude_bazille_1860.jpg
Fixation L	1	1	2853754318	2854152158	397840	936.41	511.35	9	21	-1	13.22	13.22
Fixation R	1	1	2853754318	2854152158	397840	936.41	511.35	9	21	-1	12.53	12.53
Saccade L	1	1	2854152158	2854172030	19872	933.63	520.31	647.73	676.07	1.81	329.00	1.00	90.92	8186.66	-7974.66	5476.58
Saccade R	1	1	2854152158	2854172030	19872	933.63	520.31	647.73	676.07	1.81	329.00	1.00	90.92	8186.66	-7974.66	5476.58
Fixation L	1	2	2854172030	2854311279	139249	647.15	678.28	7	21	-1	13.73	13.73
Fixation R	1	2	2854172030	2854311279	139249	647.15	678.28	7	21	-1	13.26	13.26
Saccade L	1	2	2854311279	2854331151	19872	643.70	687.20	453.63	683.04	1.07	192.26	1.00	53.86	4754.56	-4480.43	3187.53
Saccade R	1	2	2854311279	2854331151	19872	643.70	687.20	453.63	683.04	1.07	192.26	1.00	53.86	4754.56	-4480.43	3187.53
Fixation L	1	3	2854331151	2854709139	377988	427.96	667.86	37	41	-1	13.05	13.05
Fixation R	1	3	2854331151	2854709139	377988	427.96	667.86	37	41	-1	12.84	12.84
Saccade L	1	3	2854709139	2854729017	19878	451.91	655.97	687.59	731.52	1.45	250.22	1.00	72.96	6018.24	-5686.48	4026.75
Saccade R	1	3	2854709139	2854729017	19878	451.91	655.97	687.59	731.52	1.45	250.22	1.00	72.96	6018.24	-5686.48	4026.75
Fixation L	1	4	2854729017	2854947754	218737	723.95	739.83	44	18	-1	13.14	13.14
Fixation R	1	4	2854729017	2854947754	218737	723.95	739.83	44	18	-1	13.14	13.14
Saccade L	1	4	2854947754	2854987497	39743	731.61	730.96	892.15	653.30	1.62	134.99	1.00	40.87	3314.95	-3141.44	2136.47
Saccade R	1	4	2854947754	2854987497	39743	731.61	730.96	892.15	653.30	1.62	134.99	1.00	40.87	3314.95	-3141.44	2136.47
Fixation L	1	5	2854987497	2855206361	218864	897.53	631.72	19	37	-1	13.80	13.80
Fixation R	1	5	2854987497	2855206361	218864	897.53	631.72	19	37	-1	13.27	13.27
Saccade L	1	5	2855206361	2855226234	19873	909.74	629.91	1206.37	737.50	1.74	318.88	1.00	87.80	7900.27	-7410.42	5248.84
Saccade R	1	5	2855206361	2855226234	19873	909.74	629.91	1206.37	737.50	1.74	318.88	1.00	87.80	7900.27	-7410.42	5248.84
Fixation L	1	6	2855226234	2855385353	159119	1218.04	738.95	17	40	-1	13.64	13.64
Fixation R	1	6	2855226234	2855385353	159119	1218.04	738.95	17	40	-1	13.02	13.02
Saccade L	1	6	2855385353	2855405225	19872	1224.27	736.31	1528.17	740.96	1.79	307.17	1.00	90.26	7468.24	-6979.01	4945.38
Saccade R	1	6	2855385353	2855405225	19872	1224.27	736.31	1528.17	740.96	1.79	307.17	1.00	90.26	7468.24	-6979.01	4945.38
Fixation L	1	7	2855405225	2855584215	178990	1573.92	732.82	56	12	-1	13.20	13.20
Fixation R	1	7	2855405225	2855584215	178990	1573.92	732.82	56	12	-1	12.34	12.34
Saccade L	1	7	2855584215	2855604092	19877	1581.17	728.34	1670.00	733.65	0.62	90.01	1.00	31.08	2124.42	-1892.35	1505.47
Saccade R	1	7	2855584215	2855604092	19877	1581.17	728.34	1670.00	733.65	0.62	90.01	1.00	31.08	2124.42	-1892.35	1505.47
Fixation L	1	8	2855604092	2855882574	278482	1707.94	762.25	57	34	-1	13.07	13.07
Fixation R	1	8	2855604092	2855882574	278482	1707.94	762.25	57	34	-1	12.12	12.12
Saccade L	1	8	2855882574	2855902447	19873	1727.54	767.76	1790.98	817.05	0.47	81.27	1.00	23.41	1996.84	-1800.77	1293.53
Saccade R	1	8	2855882574	2855902447	19873	1727.54	767.76	1790.98	817.05	0.47	81.27	1.00	23.41	1996.84	-1800.77	1293.53
Fixation L	1	9	2855902447	2856519042	616595	1799.05	827.23	64	28	-1	13.99	13.99
Fixation R	1	9	2855902447	2856519042	616595	1799.05	827.23	64	28	-1	12.61	12.61
Saccade L	1	9	2856519042	2856538913	19871	1742.13	845.45	1727.53	860.66	0.51	49.84	1.00	25.72	-377.36	-712.81	508.24
Saccade R	1	9	2856519042	2856538913	19871	1742.13	845.45	1727.53	860.66	0.51	49.84	1.00	25.72	-377.36	-712.81	508.24
Fixation L	1	10	2856538913	2856996390	457477	1726.56	873.86	31	21	-1	14.48	14.48
Fixation R	1	10	2856538913	2856996390	457477	1726.56	873.86	31	21	-1	12.78	12.78
Saccade L	1	10	2856996390	2857016262	19872	1715.68	881.99	1458.54	935.55	1.63	265.52	1.00	81.87	6447.25	-6389.15	4438.67
Saccade R	1	10	2856996390	2857016262	19872	1715.68	881.99	1458.54	935.55	1.63	265.52	1.00	81.87	6447.25	-6389.15	4438.67
Fixation L	1	11	2857016262	2857195386	179124	1469.21	929.47	15	13	-1	14.47	14.47
Fixation R	1	11	2857016262	2857195386	179124	1469.21	929.47	15	13	-1	12.84	12.84
Saccade L	1	11	2857195386	2857255005	59619	1471.42	930.31	546.05	933.86	9.40	369.60	0.33	157.74	9216.53	-8290.84	6920.63
Saccade R	1	11	2857195386	2857255005	59619	1471.42	930.31	546.05	933.86	9.40	369.60	0.33	157.74	9216.53	-8290.84	6920.63
Fixation L	1	12	2857255005	2857414131	159126	524.48	925.83	29	10	-1	14.25	14.25
Fixation R	1	12	2857255005	2857414131	159126	524.48	925.83	29	10	-1	12.93	12.93
Saccade L	1	12	2857414131	2857453871	39740	516.05	924.67	248.78	905.42	2.28	141.82	1.00	57.40	3511.80	-3335.37	3243.09
Saccade R	1	12	2857414131	2857453871	39740	516.05	924.67	248.78	905.42	2.28	141.82	1.00	57.40	3511.80	-3335.37	3243.09
Fixation L	1	13	2857453871	2857732348	278477	253.71	873.24	11	48	-1	13.33	13.33
Fixation R	1	13	2857453871	2857732348	278477	253.71	873.24	11	48	-1	12.48	12.48
