[BeGaze]
Converted from:	C:\Documents and Settings\iViewX\Desktop\EXPERIMENTATIONS\Experiments\results\finaleart\S21F22332-finaleart-1.idf
Date:	27.03.2019 15:54:37
Version:	BeGaze 2.5.77
Sample Rate:	50
Subject:	S21F22332
Description:	Cyrielle Mailart

Table Header for Fixations:
Event Type	Trial	Number	Start	End	Duration	Location X	Location Y	Dispersion X	Dispersion Y	Plane	Avg. Pupil Size X	Avg. Pupil Size Y

Table Header for Saccades:
Event Type	Trial	Number	Start	End	Duration	Start Loc.X	Start Loc.Y	End Loc.X	End Loc.Y	Amplitude	Peak Speed	Peak Speed At	Average Speed	Peak Accel.	Peak Decel.	Average Accel.

Table Header for Blinks:
Event Type	Trial	Number	Start	End	Duration

Table Header for User Events:
Event Type	Trial	Number	Start	Description

UserEvent	1	1	1779573050	# Message: void.jpg
Fixation L	1	1	1779580182	1779719734	139552	264.17	470.87	3	1	-1	15.44	15.44
Fixation R	1	1	1779580182	1779719734	139552	264.17	470.87	3	1	-1	14.34	14.34
Saccade L	1	1	1779719734	1779759171	39437	265.34	470.74	258.63	929.42	3.74	285.98	1.00	94.88	7119.73	-6829.23	5652.39
Saccade R	1	1	1779719734	1779759171	39437	265.34	470.74	258.63	929.42	3.74	285.98	1.00	94.88	7119.73	-6829.23	5652.39
Fixation L	1	2	1779759171	1780017656	258485	236.99	932.38	34	15	-1	15.40	15.40
Fixation R	1	2	1779759171	1780017656	258485	236.99	932.38	34	15	-1	15.11	15.11
Blink L	1	1	1780017656	1780156940	139284
Blink R	1	1	1780017656	1780117155	99499
Saccade R	1	2	1780117155	1780137029	19874	3.00	0.00	2.26	0.00	0.03	3.86	1.00	1.63	-10.85	-77.72	37.59
Saccade L	1	2	1780156940	1780276336	119396	1.80	0.00	850.36	445.42	21.34	1005.36	0.50	178.70	25125.90	-19394.02	7945.16
Saccade R	1	3	1780156940	1780176782	19842	1.80	0.00	1.48	0.00	0.01	0.75	1.00	0.44	25125.90	-10.85	8380.86
Saccade R	1	4	1780196790	1780276336	79546	1.25	0.00	850.36	445.42	18.26	1005.36	0.25	229.59	25125.90	-19394.02	10590.77
Fixation L	1	3	1780276336	1780773495	497159	856.62	424.48	17	43	-1	16.93	16.93
Fixation R	1	3	1780276336	1780773495	497159	856.62	424.48	17	43	-1	15.22	15.22
Blink L	1	2	1780773495	1780892874	119379
Blink R	1	2	1780773495	1780892874	119379
Fixation L	1	4	1780912736	1781310588	397852	848.53	540.44	24	75	-1	16.84	16.84
Fixation R	1	4	1780912736	1781310588	397852	848.53	540.44	24	75	-1	15.66	15.66
Saccade L	1	3	1781310588	1781409953	99365	839.09	546.25	1020.19	502.82	2.97	180.83	1.00	29.92	4341.46	-3984.08	1297.02
Saccade R	1	5	1781310588	1781409953	99365	839.09	546.25	1020.19	502.82	2.97	180.83	1.00	29.92	4341.46	-3984.08	1297.02
Fixation L	1	5	1781409953	1781569076	159123	1052.63	493.52	45	32	-1	16.52	16.52
Fixation R	1	5	1781409953	1781569076	159123	1052.63	493.52	45	32	-1	15.01	15.01
