[BeGaze]
Converted from:	C:\Documents and Settings\iViewX\Desktop\EXPERIMENTATIONS\Experiments\results\finaleart\S21F22332-finaleart-1.idf
Date:	27.03.2019 15:55:29
Version:	BeGaze 2.5.77
Sample Rate:	50
Subject:	S21F22332
Description:	Cyrielle Mailart

Table Header for Fixations:
Event Type	Trial	Number	Start	End	Duration	Location X	Location Y	Dispersion X	Dispersion Y	Plane	Avg. Pupil Size X	Avg. Pupil Size Y

Table Header for Saccades:
Event Type	Trial	Number	Start	End	Duration	Start Loc.X	Start Loc.Y	End Loc.X	End Loc.Y	Amplitude	Peak Speed	Peak Speed At	Average Speed	Peak Accel.	Peak Decel.	Average Accel.

Table Header for Blinks:
Event Type	Trial	Number	Start	End	Duration

Table Header for User Events:
Event Type	Trial	Number	Start	Description

UserEvent	1	1	2622719729	# Message: landschaft_mit_dem_ondregenbogen_caspar_david_friedrich_1810.jpg
Fixation L	1	1	2622736349	2622895600	159251	966.49	511.76	4	6	-1	14.42	14.42
Fixation R	1	1	2622736349	2622895600	159251	966.49	511.76	4	6	-1	13.44	13.44
Blink L	1	1	2622895600	2623054576	158976
Blink R	1	1	2622895600	2623054576	158976
Fixation L	1	2	2623054576	2623213694	159118	988.75	453.43	12	26	-1	14.96	14.96
Fixation R	1	2	2623054576	2623213694	159118	988.75	453.43	12	26	-1	13.90	13.90
Saccade L	1	1	2623213694	2623253576	39882	989.79	461.80	994.47	883.73	3.58	255.59	0.50	89.79	6365.46	-5989.87	5123.02
Saccade R	1	1	2623213694	2623253576	39882	989.79	461.80	994.47	883.73	3.58	255.59	0.50	89.79	6365.46	-5989.87	5123.02
Fixation L	1	3	2623253576	2623392685	139109	1004.57	881.03	36	31	-1	15.30	15.30
Fixation R	1	3	2623253576	2623392685	139109	1004.57	881.03	36	31	-1	14.67	14.67
Saccade L	1	2	2623392685	2623412682	19997	977.41	856.63	763.23	573.93	2.09	358.33	1.00	104.27	8889.41	-8502.84	6115.83
Saccade R	1	2	2623392685	2623412682	19997	977.41	856.63	763.23	573.93	2.09	358.33	1.00	104.27	8889.41	-8502.84	6115.83
Fixation L	1	4	2623412682	2623571796	159114	750.17	561.58	29	33	-1	15.48	15.48
Fixation R	1	4	2623412682	2623571796	159114	750.17	561.58	29	33	-1	14.69	14.69
Saccade L	1	3	2623571796	2623591692	19896	733.42	546.72	655.11	466.48	0.73	113.41	1.00	36.91	2699.90	-2595.14	1795.80
Saccade R	1	3	2623571796	2623591692	19896	733.42	546.72	655.11	466.48	0.73	113.41	1.00	36.91	2699.90	-2595.14	1795.80
Fixation L	1	5	2623591692	2623790537	198845	643.98	463.06	15	29	-1	15.42	15.42
Fixation R	1	5	2623591692	2623790537	198845	643.98	463.06	15	29	-1	14.79	14.79
Saccade L	1	4	2623790537	2623810434	19897	640.69	446.01	851.96	337.89	1.44	239.95	1.00	72.32	5924.64	-5657.04	3971.15
Saccade R	1	4	2623790537	2623810434	19897	640.69	446.01	851.96	337.89	1.44	239.95	1.00	72.32	5924.64	-5657.04	3971.15
Fixation L	1	6	2623810434	2624009280	198846	893.90	316.88	54	28	-1	15.08	15.08
Fixation R	1	6	2623810434	2624009280	198846	893.90	316.88	54	28	-1	14.83	14.83
Saccade L	1	5	2624009280	2624049146	39866	906.89	309.62	1406.90	466.57	4.40	277.88	1.00	110.27	6932.50	-6749.22	6597.41
Saccade R	1	5	2624009280	2624049146	39866	906.89	309.62	1406.90	466.57	4.40	277.88	1.00	110.27	6932.50	-6749.22	6597.41
Fixation L	1	7	2624049146	2624188394	139248	1414.53	470.91	24	7	-1	15.24	15.24
Fixation R	1	7	2624049146	2624188394	139248	1414.53	470.91	24	7	-1	14.48	14.48
Saccade L	1	6	2624188394	2624208262	19868	1422.78	472.90	1628.22	652.35	1.44	275.74	1.00	72.58	6770.20	-6739.24	4546.17
Saccade R	1	6	2624188394	2624208262	19868	1422.78	472.90	1628.22	652.35	1.44	275.74	1.00	72.58	6770.20	-6739.24	4546.17
Fixation L	1	8	2624208262	2624427010	218748	1619.60	682.00	26	66	-1	14.50	14.50
Fixation R	1	8	2624208262	2624427010	218748	1619.60	682.00	26	66	-1	13.68	13.68
Saccade L	1	7	2624427010	2624466755	39745	1601.66	718.62	1069.02	1071.97	5.47	491.54	0.50	137.53	12267.92	-12093.97	7830.93
Saccade R	1	7	2624427010	2624466755	39745	1601.66	718.62	1069.02	1071.97	5.47	491.54	0.50	137.53	12267.92	-12093.97	7830.93
Fixation L	1	9	2624466755	2624705482	238727	1080.23	1084.69	56	19	-1	14.59	14.59
Fixation R	1	9	2624466755	2624705482	238727	1080.23	1084.69	56	19	-1	13.45	13.45
Saccade L	1	8	2624705482	2624824867	119385	1123.47	1071.67	1010.00	1042.50	3.35	133.78	1.00	28.08	3232.12	-2915.55	1055.47
Saccade R	1	8	2624705482	2624824867	119385	1123.47	1071.67	1010.00	1042.50	3.35	133.78	1.00	28.08	3232.12	-2915.55	1055.47
Fixation L	1	10	2624824867	2625103225	278358	1065.19	1039.04	88	7	-1	15.40	15.40
Fixation R	1	10	2624824867	2625103225	278358	1065.19	1039.04	88	7	-1	14.30	14.30
Saccade L	1	9	2625103225	2625123219	19994	1055.21	1036.75	1057.58	1027.07	0.17	13.98	0.00	8.39	153.31	-210.95	131.34
Saccade R	1	9	2625103225	2625123219	19994	1055.21	1036.75	1057.58	1027.07	0.17	13.98	0.00	8.39	153.31	-210.95	131.34
Fixation L	1	11	2625123219	2625441455	318236	1062.49	1037.67	27	50	-1	15.29	15.29
Fixation R	1	11	2625123219	2625441455	318236	1062.49	1037.67	27	50	-1	14.63	14.63
Saccade L	1	10	2625441455	2625461323	19868	1063.66	1043.32	971.09	645.04	2.30	412.94	1.00	115.89	10215.34	-9961.16	6748.72
Saccade R	1	10	2625441455	2625461323	19868	1063.66	1043.32	971.09	645.04	2.30	412.94	1.00	115.89	10215.34	-9961.16	6748.72
Fixation L	1	12	2625461323	2625739690	278367	972.98	645.40	29	52	-1	15.39	15.39
Fixation R	1	12	2625461323	2625739690	278367	972.98	645.40	29	52	-1	14.68	14.68
Saccade L	1	11	2625739690	2625759686	19996	953.38	650.20	872.91	625.93	1.10	85.02	1.00	55.04	1388.24	-1868.36	1417.01
Saccade R	1	11	2625739690	2625759686	19996	953.38	650.20	872.91	625.93	1.10	85.02	1.00	55.04	1388.24	-1868.36	1417.01
Fixation L	1	13	2625759686	2625938675	178989	922.15	630.68	69	24	-1	15.25	15.25
Fixation R	1	13	2625759686	2625938675	178989	922.15	630.68	69	24	-1	14.14	14.14
Saccade L	1	12	2625938675	2625958564	19889	918.58	622.37	945.99	617.44	0.33	28.18	1.00	16.57	630.67	-637.95	590.95
Saccade R	1	12	2625938675	2625958564	19889	918.58	622.37	945.99	617.44	0.33	28.18	1.00	16.57	630.67	-637.95	590.95
Fixation L	1	14	2625958564	2626674640	716076	949.12	612.37	43	31	-1	15.87	15.87
Fixation R	1	14	2625958564	2626674640	716076	949.12	612.37	43	31	-1	15.07	15.07
Saccade L	1	13	2626674640	2626714390	39750	959.95	619.66	802.41	856.92	2.98	190.35	1.00	75.08	4725.97	0.00	2440.30
Saccade R	1	13	2626674640	2626714390	39750	959.95	619.66	802.41	856.92	2.98	190.35	1.00	75.08	4725.97	0.00	2440.30
