[BeGaze]
Converted from:	C:\Documents and Settings\iViewX\Desktop\EXPERIMENTATIONS\Experiments\results\finaleart\S21F22332-finaleart-1.idf
Date:	27.03.2019 15:54:22
Version:	BeGaze 2.5.77
Sample Rate:	50
Subject:	S21F22332
Description:	Cyrielle Mailart

Table Header for Fixations:
Event Type	Trial	Number	Start	End	Duration	Location X	Location Y	Dispersion X	Dispersion Y	Plane	Avg. Pupil Size X	Avg. Pupil Size Y

Table Header for Saccades:
Event Type	Trial	Number	Start	End	Duration	Start Loc.X	Start Loc.Y	End Loc.X	End Loc.Y	Amplitude	Peak Speed	Peak Speed At	Average Speed	Peak Accel.	Peak Decel.	Average Accel.

Table Header for Blinks:
Event Type	Trial	Number	Start	End	Duration

Table Header for User Events:
Event Type	Trial	Number	Start	Description

UserEvent	1	1	1677466540	# Message: Naked_man_reversed_on_the_ground_Gericault_1817.jpg
Fixation L	1	1	1677485016	1677763504	278488	954.70	608.32	46	32	-1	18.87	18.87
Fixation R	1	1	1677485016	1677763504	278488	954.70	608.32	46	32	-1	17.92	17.92
Blink L	1	1	1677763504	1677922623	159119
Blink R	1	1	1677763504	1677922623	159119
Fixation L	1	2	1677922623	1678161227	238604	922.21	528.08	13	27	-1	17.78	17.78
Fixation R	1	2	1677922623	1678161227	238604	922.21	528.08	13	27	-1	15.92	15.92
Saccade L	1	1	1678161227	1678200984	39757	919.24	524.76	686.71	651.39	2.45	185.25	1.00	61.52	4599.70	-4438.56	3370.71
Saccade R	1	1	1678161227	1678200984	39757	919.24	524.76	686.71	651.39	2.45	185.25	1.00	61.52	4599.70	-4438.56	3370.71
Fixation L	1	3	1678200984	1678499339	298355	690.74	633.01	40	34	-1	16.27	16.27
Fixation R	1	3	1678200984	1678499339	298355	690.74	633.01	40	34	-1	14.76	14.76
Saccade L	1	2	1678499339	1678539216	39877	714.90	642.46	548.48	143.52	4.50	403.13	1.00	112.82	9737.48	-9874.39	6489.65
Saccade R	1	2	1678499339	1678539216	39877	714.90	642.46	548.48	143.52	4.50	403.13	1.00	112.82	9737.48	-9874.39	6489.65
Fixation L	1	4	1678539216	1678757950	218734	546.16	146.81	15	19	-1	16.80	16.80
Fixation R	1	4	1678539216	1678757950	218734	546.16	146.81	15	19	-1	15.41	15.41
Saccade L	1	3	1678757950	1678777823	19873	545.65	148.19	406.40	124.09	1.21	142.94	1.00	60.97	3439.20	-3501.67	3020.54
Saccade R	1	3	1678757950	1678777823	19873	545.65	148.19	406.40	124.09	1.21	142.94	1.00	60.97	3439.20	-3501.67	3020.54
Fixation L	1	5	1678777823	1679036435	258612	474.84	122.99	89	5	-1	16.98	16.98
Fixation R	1	5	1678777823	1679036435	258612	474.84	122.99	89	5	-1	16.37	16.37
Saccade L	1	4	1679036435	1679056300	19865	472.04	122.40	477.04	139.44	0.17	17.96	1.00	8.40	333.05	-262.93	207.21
Saccade R	1	4	1679036435	1679056300	19865	472.04	122.40	477.04	139.44	0.17	17.96	1.00	8.40	333.05	-262.93	207.21
Fixation L	1	6	1679056300	1679314922	258622	464.11	135.92	24	15	-1	17.54	17.54
Fixation R	1	6	1679056300	1679314922	258622	464.11	135.92	24	15	-1	16.78	16.78
Saccade L	1	5	1679314922	1679354668	39746	458.30	145.61	802.64	548.89	4.84	361.73	0.50	121.66	8922.27	-7871.33	6460.04
Saccade R	1	5	1679314922	1679354668	39746	458.30	145.61	802.64	548.89	4.84	361.73	0.50	121.66	8922.27	-7871.33	6460.04
Fixation L	1	7	1679354668	1679533659	178991	815.21	591.45	18	50	-1	18.56	18.56
Fixation R	1	7	1679354668	1679533659	178991	815.21	591.45	18	50	-1	17.77	17.77
Saccade L	1	6	1679533659	1679573410	39751	820.63	599.17	694.92	702.14	1.68	107.57	1.00	42.20	2645.39	-2466.27	2146.43
Saccade R	1	6	1679533659	1679573410	39751	820.63	599.17	694.92	702.14	1.68	107.57	1.00	42.20	2645.39	-2466.27	2146.43
Fixation L	1	8	1679573410	1679931390	357980	687.50	699.56	43	49	-1	18.74	18.74
Fixation R	1	8	1679573410	1679931390	357980	687.50	699.56	43	49	-1	17.53	17.53
Saccade L	1	7	1679931390	1680090636	159246	716.87	671.35	1042.98	643.23	5.27	199.07	0.75	33.09	4842.06	-4668.20	1504.46
Saccade R	1	7	1679931390	1680090636	159246	716.87	671.35	1042.98	643.23	5.27	199.07	0.75	33.09	4842.06	-4668.20	1504.46
Fixation L	1	9	1680090636	1680209895	119259	1051.59	604.76	13	85	-1	18.99	18.99
Fixation R	1	9	1680090636	1680209895	119259	1051.59	604.76	13	85	-1	17.84	17.84
Saccade L	1	8	1680209895	1680229749	19854	1056.62	567.35	1058.15	548.60	0.22	19.03	1.00	11.09	333.36	-9.82	134.07
Saccade R	1	8	1680209895	1680229749	19854	1056.62	567.35	1058.15	548.60	0.22	19.03	1.00	11.09	333.36	-9.82	134.07
Fixation L	1	10	1680229749	1680329236	99487	1062.73	576.48	22	56	-1	19.07	19.07
Fixation R	1	10	1680229749	1680329236	99487	1062.73	576.48	22	56	-1	17.85	17.85
Saccade L	1	9	1680329236	1680349116	19880	1079.20	583.10	1110.13	589.20	0.44	31.89	1.00	21.94	313.77	-700.18	347.51
Saccade R	1	9	1680329236	1680349116	19880	1079.20	583.10	1110.13	589.20	0.44	31.89	1.00	21.94	313.77	-700.18	347.51
Fixation L	1	11	1680349116	1680488363	139247	1126.19	602.80	34	18	-1	19.12	19.12
Fixation R	1	11	1680349116	1680488363	139247	1126.19	602.80	34	18	-1	17.56	17.56
Saccade L	1	10	1680488363	1680508232	19869	1144.72	607.21	1305.26	617.01	0.97	162.67	1.00	48.78	4009.89	-3953.40	2709.54
Saccade R	1	10	1680488363	1680508232	19869	1144.72	607.21	1305.26	617.01	0.97	162.67	1.00	48.78	4009.89	-3953.40	2709.54
Fixation L	1	12	1680508232	1680866340	358108	1291.50	647.30	44	48	-1	19.05	19.05
Fixation R	1	12	1680508232	1680866340	358108	1291.50	647.30	44	48	-1	17.35	17.35
Saccade L	1	11	1680866340	1680886214	19874	1320.61	638.58	1330.53	634.98	0.13	11.24	1.00	6.55	-10.87	-166.13	63.72
Saccade R	1	11	1680866340	1680886214	19874	1320.61	638.58	1330.53	634.98	0.13	11.24	1.00	6.55	-10.87	-166.13	63.72
Fixation L	1	13	1680886214	1681244194	357980	1343.70	619.04	30	31	-1	18.49	18.49
Fixation R	1	13	1680886214	1681244194	357980	1343.70	619.04	30	31	-1	16.64	16.64
Saccade L	1	12	1681244194	1681283948	39754	1356.28	612.10	1034.46	396.48	3.45	244.72	0.50	86.86	6002.70	-5326.05	4588.37
Saccade R	1	12	1681244194	1681283948	39754	1356.28	612.10	1034.46	396.48	3.45	244.72	0.50	86.86	6002.70	-5326.05	4588.37
Fixation L	1	14	1681283948	1681462935	178987	1033.33	387.03	3	32	-1	17.94	17.94
Fixation R	1	14	1681283948	1681462935	178987	1033.33	387.03	3	32	-1	15.65	15.65
