[BeGaze]
Converted from:	C:\Documents and Settings\iViewX\Desktop\EXPERIMENTATIONS\Experiments\results\finaleart\S21F22332-finaleart-1.idf
Date:	27.03.2019 15:55:14
Version:	BeGaze 2.5.77
Sample Rate:	50
Subject:	S21F22332
Description:	Cyrielle Mailart

Table Header for Fixations:
Event Type	Trial	Number	Start	End	Duration	Location X	Location Y	Dispersion X	Dispersion Y	Plane	Avg. Pupil Size X	Avg. Pupil Size Y

Table Header for Saccades:
Event Type	Trial	Number	Start	End	Duration	Start Loc.X	Start Loc.Y	End Loc.X	End Loc.Y	Amplitude	Peak Speed	Peak Speed At	Average Speed	Peak Accel.	Peak Decel.	Average Accel.

Table Header for Blinks:
Event Type	Trial	Number	Start	End	Duration

Table Header for User Events:
Event Type	Trial	Number	Start	Description

UserEvent	1	1	2516872977	# Message: void.jpg
Fixation L	1	1	2516887738	2517007094	119356	697.49	151.46	10	77	-1	16.20	16.20
Fixation R	1	1	2516887738	2517007094	119356	697.49	151.46	10	77	-1	14.69	14.69
Saccade L	1	1	2517007094	2517046851	39757	704.80	205.37	747.94	300.11	2.85	163.70	0.50	71.59	3825.93	-2562.93	1968.22
Saccade R	1	1	2517007094	2517046851	39757	704.80	205.37	747.94	300.11	2.85	163.70	0.50	71.59	3825.93	-2562.93	1968.22
Fixation L	1	2	2517046851	2517265587	218736	770.33	324.10	30	66	-1	16.26	16.26
Fixation R	1	2	2517046851	2517265587	218736	770.33	324.10	30	66	-1	14.85	14.85
Blink L	1	1	2517265587	2517365072	99485
Blink R	1	1	2517265587	2517365072	99485
Saccade L	1	2	2517365072	2517384955	19883	-4.95	0.00	-3.81	0.00	6.02	1207.63	1.00	302.90	-15.80	-30162.14	10070.36
Saccade R	1	2	2517365072	2517384955	19883	-4.95	0.00	-3.81	0.00	6.02	1207.63	1.00	302.90	-15.80	-30162.14	10070.36
Blink R	1	2	2517384955	2517583814	198859
Saccade L	1	3	2517424699	2517444702	20003	-2.58	0.00	-2.20	0.00	0.01	0.74	1.00	0.48	29083.57	-8.81	9699.27
Blink L	1	2	2517444702	2517583814	139112
Fixation L	1	3	2517583814	2518359526	775712	883.66	429.99	53	41	-1	14.64	14.64
Fixation R	1	3	2517583814	2518359526	775712	883.66	429.99	53	41	-1	13.65	13.65
Saccade L	1	4	2518359526	2518379523	19997	929.31	455.54	930.99	459.14	0.07	6.03	0.00	3.45	72.31	-113.19	76.59
Saccade R	1	3	2518359526	2518379523	19997	929.31	455.54	930.99	459.14	0.07	6.03	0.00	3.45	72.31	-113.19	76.59
Fixation L	1	4	2518379523	2518856878	477355	918.39	477.67	54	27	-1	14.33	14.33
Fixation R	1	4	2518379523	2518856878	477355	918.39	477.67	54	27	-1	13.33	13.33
