[BeGaze]
Converted from:	C:\Documents and Settings\iViewX\Desktop\EXPERIMENTATIONS\Experiments\results\finaleart\S11H21112-finaleart-1.idf
Date:	27.03.2019 15:39:43
Version:	BeGaze 2.5.77
Sample Rate:	50
Subject:	S11H21112
Description:	Clement legrand-Duchenne

Table Header for Fixations:
Event Type	Trial	Number	Start	End	Duration	Location X	Location Y	Dispersion X	Dispersion Y	Plane	Avg. Pupil Size X	Avg. Pupil Size Y

Table Header for Saccades:
Event Type	Trial	Number	Start	End	Duration	Start Loc.X	Start Loc.Y	End Loc.X	End Loc.Y	Amplitude	Peak Speed	Peak Speed At	Average Speed	Peak Accel.	Peak Decel.	Average Accel.

Table Header for Blinks:
Event Type	Trial	Number	Start	End	Duration

Table Header for User Events:
Event Type	Trial	Number	Start	Description

UserEvent	1	1	6165891886	# Message: The_Luxembourg_Gardens_Matisse_1901.jpg
Fixation L	1	1	6165911477	6167045162	1133685	944.51	542.27	55	30	-1	12.23	12.23
Fixation R	1	1	6165911477	6167045162	1133685	944.51	542.27	55	30	-1	14.00	14.00
Saccade L	1	1	6167045162	6167065040	19878	918.56	555.33	896.49	564.94	0.36	24.34	1.00	17.87	306.35	-378.05	265.04
Saccade R	1	1	6167045162	6167065040	19878	918.56	555.33	896.49	564.94	0.36	24.34	1.00	17.87	306.35	-378.05	265.04
Fixation L	1	2	6167065040	6167462773	397733	878.34	591.32	24	47	-1	12.11	12.11
Fixation R	1	2	6167065040	6167462773	397733	878.34	591.32	24	47	-1	14.13	14.13
Saccade L	1	2	6167462773	6167482771	19998	873.96	603.78	955.98	596.53	0.68	83.29	1.00	33.76	1784.22	-1678.61	1339.02
Saccade R	1	2	6167462773	6167482771	19998	873.96	603.78	955.98	596.53	0.68	83.29	1.00	33.76	1784.22	-1678.61	1339.02
Fixation L	1	3	6167482771	6167801003	318232	997.16	576.69	49	33	-1	12.22	12.22
Fixation R	1	3	6167482771	6167801003	318232	997.16	576.69	49	33	-1	14.19	14.19
Saccade L	1	3	6167801003	6167840755	39752	998.21	570.35	1236.68	569.37	2.49	198.75	1.00	62.61	4911.86	-4882.14	2852.47
Saccade R	1	3	6167801003	6167840755	39752	998.21	570.35	1236.68	569.37	2.49	198.75	1.00	62.61	4911.86	-4882.14	2852.47
Fixation L	1	4	6167840755	6168337981	497226	1302.88	557.46	75	19	-1	12.14	12.14
Fixation R	1	4	6167840755	6168337981	497226	1302.88	557.46	75	19	-1	14.32	14.32
Saccade L	1	4	6168337981	6168357863	19882	1300.49	556.51	1408.69	556.42	0.84	109.44	1.00	42.21	2660.66	-2431.00	2076.36
Saccade R	1	4	6168337981	6168357863	19882	1300.49	556.51	1408.69	556.42	0.84	109.44	1.00	42.21	2660.66	-2431.00	2076.36
Fixation L	1	5	6168357863	6168954585	596722	1453.54	590.58	50	48	-1	12.12	12.12
Fixation R	1	5	6168357863	6168954585	596722	1453.54	590.58	50	48	-1	13.96	13.96
Saccade L	1	5	6168954585	6169034081	79496	1458.81	598.07	954.98	583.21	6.12	307.00	0.75	76.96	7531.93	-7209.16	3573.51
Saccade R	1	5	6168954585	6169034081	79496	1458.81	598.07	954.98	583.21	6.12	307.00	0.75	76.96	7531.93	-7209.16	3573.51
Fixation L	1	6	6169034081	6169173328	139247	958.98	532.09	6	72	-1	11.80	11.80
Fixation R	1	6	6169034081	6169173328	139247	958.98	532.09	6	72	-1	13.61	13.61
Saccade L	1	6	6169173328	6169193198	19870	958.93	511.62	932.66	516.88	0.34	39.20	1.00	17.25	940.63	-326.43	638.87
Saccade R	1	6	6169173328	6169193198	19870	958.93	511.62	932.66	516.88	0.34	39.20	1.00	17.25	940.63	-326.43	638.87
Fixation L	1	7	6169193198	6169411936	218738	880.91	528.38	65	24	-1	11.57	11.57
Fixation R	1	7	6169193198	6169411936	218738	880.91	528.38	65	24	-1	13.39	13.39
Saccade L	1	7	6169411936	6169451814	39878	867.64	540.48	805.21	665.78	1.22	93.49	1.00	30.52	2222.95	-2246.40	1714.88
Saccade R	1	7	6169411936	6169451814	39878	867.64	540.48	805.21	665.78	1.22	93.49	1.00	30.52	2222.95	-2246.40	1714.88
Fixation L	1	8	6169451814	6169610931	159117	802.09	659.14	7	21	-1	11.38	11.38
Fixation R	1	8	6169451814	6169610931	159117	802.09	659.14	7	21	-1	12.86	12.86
Saccade L	1	8	6169610931	6169630802	19871	799.06	646.30	978.86	635.87	1.12	182.13	1.00	56.33	4525.00	-4168.04	3034.80
Saccade R	1	8	6169610931	6169630802	19871	799.06	646.30	978.86	635.87	1.12	182.13	1.00	56.33	4525.00	-4168.04	3034.80
Fixation L	1	9	6169630802	6169789921	159119	1011.46	640.96	43	48	-1	11.32	11.32
Fixation R	1	9	6169630802	6169789921	159119	1011.46	640.96	43	48	-1	12.95	12.95
Saccade L	1	9	6169789921	6169889296	99375	992.10	677.80	881.88	784.08	3.36	128.67	0.20	33.85	2990.05	-2989.17	1202.63
Saccade R	1	9	6169789921	6169889296	99375	992.10	677.80	881.88	784.08	3.36	128.67	0.20	33.85	2990.05	-2989.17	1202.63
