[BeGaze]
Converted from:	C:\Documents and Settings\iViewX\Desktop\EXPERIMENTATIONS\Experiments\results\finaleart\S11H21112-finaleart-1.idf
Date:	27.03.2019 15:39:18
Version:	BeGaze 2.5.77
Sample Rate:	50
Subject:	S11H21112
Description:	Clement legrand-Duchenne

Table Header for Fixations:
Event Type	Trial	Number	Start	End	Duration	Location X	Location Y	Dispersion X	Dispersion Y	Plane	Avg. Pupil Size X	Avg. Pupil Size Y

Table Header for Saccades:
Event Type	Trial	Number	Start	End	Duration	Start Loc.X	Start Loc.Y	End Loc.X	End Loc.Y	Amplitude	Peak Speed	Peak Speed At	Average Speed	Peak Accel.	Peak Decel.	Average Accel.

Table Header for Blinks:
Event Type	Trial	Number	Start	End	Duration

Table Header for User Events:
Event Type	Trial	Number	Start	Description

UserEvent	1	1	5311577369	# Message: Paysage_a_La_Ciotat_(La_Pointe_du-Capucin)_friesz_1907.jpg
Fixation L	1	1	5311596780	5311696308	99528	734.72	737.57	72	22	-1	13.73	13.73
Fixation R	1	1	5311596780	5311696308	99528	734.72	737.57	72	22	-1	16.65	16.65
Saccade L	1	1	5311696308	5311716175	19867	793.94	731.87	838.07	682.31	0.89	71.71	0.00	45.01	1638.68	-1438.55	1293.29
Saccade R	1	1	5311696308	5311716175	19867	793.94	731.87	838.07	682.31	0.89	71.71	0.00	45.01	1638.68	-1438.55	1293.29
Fixation L	1	2	5311716175	5311895261	179086	867.91	661.43	47	39	-1	13.49	13.49
Fixation R	1	2	5311716175	5311895261	179086	867.91	661.43	47	39	-1	16.66	16.66
Saccade L	1	2	5311895261	5311915263	20002	885.38	651.91	898.45	644.99	0.21	16.22	0.00	10.29	298.48	-270.21	266.71
Saccade R	1	2	5311895261	5311915263	20002	885.38	651.91	898.45	644.99	0.21	16.22	0.00	10.29	298.48	-270.21	266.71
Fixation L	1	3	5311915263	5312054512	139249	902.58	636.18	21	28	-1	13.43	13.43
Fixation R	1	3	5311915263	5312054512	139249	902.58	636.18	21	28	-1	16.40	16.40
Saccade L	1	3	5312054512	5312074496	19984	915.06	644.66	1062.83	623.41	1.09	150.99	1.00	54.78	3385.73	-3281.39	2292.60
Saccade R	1	3	5312054512	5312074496	19984	915.06	644.66	1062.83	623.41	1.09	150.99	1.00	54.78	3385.73	-3281.39	2292.60
Fixation L	1	4	5312074496	5312333269	258773	1105.77	612.15	61	28	-1	12.55	12.55
Fixation R	1	4	5312074496	5312333269	258773	1105.77	612.15	61	28	-1	14.87	14.87
Saccade L	1	4	5312333269	5312472483	139214	1124.33	601.02	952.12	410.23	4.42	189.39	1.00	31.77	4613.17	-4649.47	1554.72
Saccade R	1	4	5312333269	5312472483	139214	1124.33	601.02	952.12	410.23	4.42	189.39	1.00	31.77	4613.17	-4649.47	1554.72
Fixation L	1	5	5312472483	5313208950	736467	936.40	424.15	29	69	-1	10.15	10.15
Fixation R	1	5	5312472483	5313208950	736467	936.40	424.15	29	69	-1	12.17	12.17
Saccade L	1	5	5313208950	5313248830	39880	922.52	470.66	633.48	723.21	3.77	242.80	0.50	94.55	5779.01	-5772.21	4586.28
Saccade R	1	5	5313208950	5313248830	39880	922.52	470.66	633.48	723.21	3.77	242.80	0.50	94.55	5779.01	-5772.21	4586.28
Fixation L	1	6	5313248830	5315099873	1851043	620.94	727.57	24	60	-1	11.60	11.60
Fixation R	1	6	5313248830	5315099873	1851043	620.94	727.57	24	60	-1	13.81	13.81
Blink L	1	1	5315219234	5315438360	219126
Blink R	1	1	5315219234	5315438360	219126
Fixation L	1	7	5315438360	5315577718	139358	930.98	654.61	19	52	-1	14.27	14.27
Fixation R	1	7	5315438360	5315577718	139358	930.98	654.61	19	52	-1	15.75	15.75
