[BeGaze]
Converted from:	C:\Documents and Settings\iViewX\Desktop\EXPERIMENTATIONS\Experiments\results\finaleart\S11H21112-finaleart-1.idf
Date:	27.03.2019 15:38:36
Version:	BeGaze 2.5.77
Sample Rate:	50
Subject:	S11H21112
Description:	Clement legrand-Duchenne

Table Header for Fixations:
Event Type	Trial	Number	Start	End	Duration	Location X	Location Y	Dispersion X	Dispersion Y	Plane	Avg. Pupil Size X	Avg. Pupil Size Y

Table Header for Saccades:
Event Type	Trial	Number	Start	End	Duration	Start Loc.X	Start Loc.Y	End Loc.X	End Loc.Y	Amplitude	Peak Speed	Peak Speed At	Average Speed	Peak Accel.	Peak Decel.	Average Accel.

Table Header for Blinks:
Event Type	Trial	Number	Start	End	Duration

Table Header for User Events:
Event Type	Trial	Number	Start	Description

UserEvent	1	1	3960846337	# Message: void.jpg
Fixation L	1	1	3960851962	3961050829	198867	810.70	245.81	7	78	-1	17.29	17.29
Fixation R	1	1	3960851962	3961050829	198867	810.70	245.81	7	78	-1	20.17	20.17
Saccade L	1	1	3961050829	3961070706	19877	806.47	303.57	804.37	559.81	1.75	259.06	1.00	88.14	6165.89	-6318.84	4812.40
Saccade R	1	1	3961050829	3961070706	19877	806.47	303.57	804.37	559.81	1.75	259.06	1.00	88.14	6165.89	-6318.84	4812.40
Fixation L	1	2	3961070706	3961627672	556966	791.31	551.49	23	21	-1	17.89	17.89
Fixation R	1	2	3961070706	3961627672	556966	791.31	551.49	23	21	-1	20.88	20.88
Saccade L	1	2	3961627672	3961647546	19874	794.11	555.62	931.02	560.19	1.11	138.55	1.00	55.75	3326.49	311.92	1711.69
Blink R	1	1	3961627672	3961945924	318252
Blink L	1	1	3961647546	3961945924	298378
Fixation L	1	3	3961945924	3962184651	238727	1478.48	347.23	35	64	-1	16.32	16.32
Fixation R	1	3	3961945924	3962184651	238727	1478.48	347.23	35	64	-1	19.56	19.56
Saccade L	1	3	3962184651	3962204517	19866	1492.41	355.17	1498.30	356.65	0.28	26.20	1.00	14.23	290.29	-95.86	205.46
Saccade R	1	2	3962184651	3962204517	19866	1492.41	355.17	1498.30	356.65	0.28	26.20	1.00	14.23	290.29	-95.86	205.46
Fixation L	1	4	3962204517	3962363643	159126	1488.40	371.76	38	36	-1	14.54	14.54
Fixation R	1	4	3962204517	3962363643	159126	1488.40	371.76	38	36	-1	18.03	18.03
Blink L	1	2	3962363643	3962522762	159119
Saccade R	1	3	3962363643	3962502901	139258	1496.59	358.27	1490.02	338.18	7.98	152.54	0.57	57.27	3039.83	-3039.97	1735.85
Fixation R	1	5	3962502901	3962701756	198855	1496.61	327.26	22	65	-1	17.53	17.53
Fixation L	1	5	3962522762	3962701756	178994	1497.27	326.17	22	65	-1	17.10	17.10
Saccade L	1	4	3962701756	3962721628	19872	1495.14	348.42	1511.66	285.34	0.89	65.96	1.00	44.79	434.02	-1437.59	636.59
Saccade R	1	4	3962701756	3962721628	19872	1495.14	348.42	1511.66	285.34	0.89	65.96	1.00	44.79	434.02	-1437.59	636.59
Fixation L	1	6	3962721628	3962821118	99490	1509.66	319.51	11	70	-1	17.17	17.17
Fixation R	1	6	3962721628	3962821118	99490	1509.66	319.51	11	70	-1	17.87	17.87
Saccade L	1	5	3962821118	3962840994	19876	1505.89	320.18	1537.90	235.78	1.04	91.31	1.00	52.42	1542.20	0.00	771.10
Saccade R	1	5	3962821118	3962840994	19876	1505.89	320.18	1537.90	235.78	1.04	91.31	1.00	52.42	1542.20	0.00	771.10
