[BeGaze]
Converted from:	C:\Documents and Settings\iViewX\Desktop\EXPERIMENTATIONS\Experiments\results\finaleart\S11H21112-finaleart-1.idf
Date:	27.03.2019 15:38:34
Version:	BeGaze 2.5.77
Sample Rate:	50
Subject:	S11H21112
Description:	Clement legrand-Duchenne

Table Header for Fixations:
Event Type	Trial	Number	Start	End	Duration	Location X	Location Y	Dispersion X	Dispersion Y	Plane	Avg. Pupil Size X	Avg. Pupil Size Y

Table Header for Saccades:
Event Type	Trial	Number	Start	End	Duration	Start Loc.X	Start Loc.Y	End Loc.X	End Loc.Y	Amplitude	Peak Speed	Peak Speed At	Average Speed	Peak Accel.	Peak Decel.	Average Accel.

Table Header for Blinks:
Event Type	Trial	Number	Start	End	Duration

Table Header for User Events:
Event Type	Trial	Number	Start	Description

UserEvent	1	1	3938466930	# Message: L-Heure_Embrasee_Rysselberghe_1897.jpg
Fixation L	1	1	3938475573	3938833687	358114	120.67	885.58	33	14	-1	16.74	16.74
Fixation R	1	1	3938475573	3938833687	358114	120.67	885.58	33	14	-1	19.92	19.92
Saccade L	1	1	3938833687	3938893340	59653	140.52	886.70	782.56	673.41	7.14	320.51	0.67	119.61	7826.36	-7779.02	5611.51
Saccade R	1	1	3938833687	3938893340	59653	140.52	886.70	782.56	673.41	7.14	320.51	0.67	119.61	7826.36	-7779.02	5611.51
Fixation L	1	2	3938893340	3939211533	318193	787.08	639.26	8	47	-1	17.47	17.47
Fixation R	1	2	3938893340	3939211533	318193	787.08	639.26	8	47	-1	19.64	19.64
Saccade L	1	2	3939211533	3939251282	39749	788.01	629.86	572.05	446.05	2.50	160.46	1.00	62.85	3881.85	-3568.44	3379.73
Saccade R	1	2	3939211533	3939251282	39749	788.01	629.86	572.05	446.05	2.50	160.46	1.00	62.85	3881.85	-3568.44	3379.73
Fixation L	1	3	3939251282	3939549642	298360	575.91	474.66	33	42	-1	14.15	14.15
Fixation R	1	3	3939251282	3939549642	298360	575.91	474.66	33	42	-1	16.49	16.49
Saccade L	1	3	3939549642	3939609387	59745	591.22	479.48	1340.38	460.75	7.81	337.41	0.67	130.64	8325.04	-8099.88	6463.54
Saccade R	1	3	3939549642	3939609387	59745	591.22	479.48	1340.38	460.75	7.81	337.41	0.67	130.64	8325.04	-8099.88	6463.54
Fixation L	1	4	3939609387	3939867873	258486	1332.41	433.54	11	40	-1	13.27	13.27
Fixation R	1	4	3939609387	3939867873	258486	1332.41	433.54	11	40	-1	14.80	14.80
Saccade L	1	4	3939867873	3939907630	39757	1331.28	420.12	1326.46	764.04	2.96	225.20	1.00	74.39	5579.40	-5444.54	4151.63
Saccade R	1	4	3939867873	3939907630	39757	1331.28	420.12	1326.46	764.04	2.96	225.20	1.00	74.39	5579.40	-5444.54	4151.63
Fixation L	1	5	3939907630	3940166242	258612	1318.58	776.24	13	25	-1	13.19	13.19
Fixation R	1	5	3939907630	3940166242	258612	1318.58	776.24	13	25	-1	14.79	14.79
Saccade L	1	5	3940166242	3940186110	19868	1312.93	766.46	1202.78	763.13	0.65	111.47	1.00	32.48	2747.63	-2642.11	1873.17
Saccade R	1	5	3940166242	3940186110	19868	1312.93	766.46	1202.78	763.13	0.65	111.47	1.00	32.48	2747.63	-2642.11	1873.17
Fixation L	1	6	3940186110	3940544224	358114	1205.42	734.48	29	53	-1	13.05	13.05
Fixation R	1	6	3940186110	3940544224	358114	1205.42	734.48	29	53	-1	14.41	14.41
Saccade L	1	6	3940544224	3940583972	39748	1181.45	709.35	1129.28	347.80	3.25	275.31	0.50	81.65	6848.60	-6737.14	4394.11
Saccade R	1	6	3940544224	3940583972	39748	1181.45	709.35	1129.28	347.80	3.25	275.31	0.50	81.65	6848.60	-6737.14	4394.11
Fixation L	1	7	3940583972	3940802714	218742	1109.85	359.75	36	38	-1	12.70	12.70
Fixation R	1	7	3940583972	3940802714	218742	1109.85	359.75	36	38	-1	13.84	13.84
Saccade L	1	7	3940802714	3940842466	39752	1092.73	381.84	801.78	435.52	2.73	208.44	1.00	68.57	5051.98	-4916.41	3394.26
Saccade R	1	7	3940802714	3940842466	39752	1092.73	381.84	801.78	435.52	2.73	208.44	1.00	68.57	5051.98	-4916.41	3394.26
Fixation L	1	8	3940842466	3941180696	338230	772.75	450.56	35	26	-1	12.53	12.53
Fixation R	1	8	3940842466	3941180696	338230	772.75	450.56	35	26	-1	13.20	13.20
Saccade L	1	8	3941180696	3941220438	39742	767.42	461.86	483.71	477.89	2.40	147.47	0.50	60.28	3652.83	-3456.66	3468.56
Saccade R	1	8	3941180696	3941220438	39742	767.42	461.86	483.71	477.89	2.40	147.47	0.50	60.28	3652.83	-3456.66	3468.56
Fixation L	1	9	3941220438	3941479054	258616	491.60	489.49	39	51	-1	11.89	11.89
Fixation R	1	9	3941220438	3941479054	258616	491.60	489.49	39	51	-1	13.38	13.38
Saccade L	1	9	3941479054	3941498932	19878	462.96	525.85	454.27	528.36	0.39	28.59	1.00	19.62	198.11	-485.97	304.24
Saccade R	1	9	3941479054	3941498932	19878	462.96	525.85	454.27	528.36	0.39	28.59	1.00	19.62	198.11	-485.97	304.24
Fixation L	1	10	3941498932	3941916534	417602	438.33	562.56	33	53	-1	12.22	12.22
Fixation R	1	10	3941498932	3941916534	417602	438.33	562.56	33	53	-1	13.54	13.54
Saccade L	1	10	3941916534	3941976277	59743	421.25	581.93	965.89	323.60	6.45	337.13	0.67	107.98	8368.52	-7685.18	4757.72
Saccade R	1	10	3941916534	3941976277	59743	421.25	581.93	965.89	323.60	6.45	337.13	0.67	107.98	8368.52	-7685.18	4757.72
Fixation L	1	11	3941976277	3942453635	477358	985.25	316.88	43	26	-1	11.92	11.92
Fixation R	1	11	3941976277	3942453635	477358	985.25	316.88	43	26	-1	12.93	12.93
