[BeGaze]
Converted from:	C:\Documents and Settings\iViewX\Desktop\EXPERIMENTATIONS\Experiments\results\finaleart\S11H21112-finaleart-1.idf
Date:	27.03.2019 15:39:27
Version:	BeGaze 2.5.77
Sample Rate:	50
Subject:	S11H21112
Description:	Clement legrand-Duchenne

Table Header for Fixations:
Event Type	Trial	Number	Start	End	Duration	Location X	Location Y	Dispersion X	Dispersion Y	Plane	Avg. Pupil Size X	Avg. Pupil Size Y

Table Header for Saccades:
Event Type	Trial	Number	Start	End	Duration	Start Loc.X	Start Loc.Y	End Loc.X	End Loc.Y	Amplitude	Peak Speed	Peak Speed At	Average Speed	Peak Accel.	Peak Decel.	Average Accel.

Table Header for Blinks:
Event Type	Trial	Number	Start	End	Duration

Table Header for User Events:
Event Type	Trial	Number	Start	Description

UserEvent	1	1	5525673659	# Message: void.jpg
Fixation L	1	1	5525686806	5526024949	338143	1195.92	878.03	85	13	-1	17.25	17.25
Fixation R	1	1	5525686806	5526024949	338143	1195.92	878.03	85	13	-1	18.47	18.47
Saccade L	1	1	5526024949	5526044778	19829	1208.99	874.93	1210.00	875.21	0.03	1.99	0.00	1.39	76.25	-26.57	38.38
Saccade R	1	1	5526024949	5526044778	19829	1208.99	874.93	1210.00	875.21	0.03	1.99	0.00	1.39	76.25	-26.57	38.38
Fixation L	1	2	5526044778	5526144265	99487	1209.21	876.92	2	3	-1	16.88	16.88
Fixation R	1	2	5526044778	5526144265	99487	1209.21	876.92	2	3	-1	18.05	18.05
Saccade L	1	2	5526144265	5526184039	39774	1209.68	877.87	1050.96	700.23	2.15	136.35	1.00	54.03	3393.69	-3381.72	3227.54
Saccade R	1	2	5526144265	5526184039	39774	1209.68	877.87	1050.96	700.23	2.15	136.35	1.00	54.03	3393.69	-3381.72	3227.54
Fixation L	1	3	5526184039	5526422638	238599	1050.34	702.39	8	18	-1	15.70	15.70
Fixation R	1	3	5526184039	5526422638	238599	1050.34	702.39	8	18	-1	17.24	17.24
Saccade L	1	3	5526422638	5526482392	59754	1047.14	702.05	544.29	887.05	5.94	192.97	0.33	99.47	4636.14	-4047.32	3526.29
Saccade R	1	3	5526422638	5526482392	59754	1047.14	702.05	544.29	887.05	5.94	192.97	0.33	99.47	4636.14	-4047.32	3526.29
Fixation L	1	4	5526482392	5526840491	358099	558.86	909.39	29	27	-1	14.04	14.04
Fixation R	1	4	5526482392	5526840491	358099	558.86	909.39	29	27	-1	15.89	15.89
Saccade L	1	4	5526840491	5526880246	39755	573.77	913.58	906.02	883.47	2.89	210.66	0.50	72.76	5209.32	-5052.78	3964.30
Saccade R	1	4	5526840491	5526880246	39755	573.77	913.58	906.02	883.47	2.89	210.66	0.50	72.76	5209.32	-5052.78	3964.30
Fixation L	1	5	5526880246	5527676210	795964	900.90	885.97	24	58	-1	14.24	14.24
Fixation R	1	5	5526880246	5527676210	795964	900.90	885.97	24	58	-1	16.37	16.37
