[BeGaze]
Converted from:	C:\Documents and Settings\iViewX\Desktop\EXPERIMENTATIONS\Experiments\results\finaleart\S11H21112-finaleart-1.idf
Date:	27.03.2019 15:39:30
Version:	BeGaze 2.5.77
Sample Rate:	50
Subject:	S11H21112
Description:	Clement legrand-Duchenne

Table Header for Fixations:
Event Type	Trial	Number	Start	End	Duration	Location X	Location Y	Dispersion X	Dispersion Y	Plane	Avg. Pupil Size X	Avg. Pupil Size Y

Table Header for Saccades:
Event Type	Trial	Number	Start	End	Duration	Start Loc.X	Start Loc.Y	End Loc.X	End Loc.Y	Amplitude	Peak Speed	Peak Speed At	Average Speed	Peak Accel.	Peak Decel.	Average Accel.

Table Header for Blinks:
Event Type	Trial	Number	Start	End	Duration

Table Header for User Events:
Event Type	Trial	Number	Start	Description

UserEvent	1	1	5558204144	# Message: Un_Jardin_Maison_Baptiste_Butler_1895.jpg
Fixation L	1	1	5558206887	5558863732	656845	966.97	601.38	53	29	-1	9.16	9.16
Fixation R	1	1	5558246626	5559102587	855961	972.49	597.64	49	46	-1	12.28	12.28
Fixation L	1	2	5558883727	5559361451	477724	1004.12	579.70	69	28	-1	10.31	10.31
Saccade R	1	1	5559102587	5559122584	19997	1003.71	570.06	1010.95	572.32	0.13	11.63	1.00	6.45	-59.27	-109.53	89.19
Fixation R	1	2	5559122584	5559600308	477724	1034.71	581.00	41	22	-1	11.51	11.51
Saccade L	1	1	5559361451	5559381325	19874	1041.94	580.63	1047.37	582.80	0.09	7.05	1.00	4.35	-28.18	-97.64	52.58
Fixation L	1	3	5559381325	5559600308	218983	1047.21	588.86	31	10	-1	10.37	10.37
Saccade L	1	2	5559600308	5559620189	19881	1020.65	590.85	910.92	619.59	0.73	114.74	1.00	36.81	2813.15	-2503.28	1994.90
Saccade R	1	2	5559600308	5559620189	19881	1020.65	590.85	910.92	619.59	0.73	114.74	1.00	36.81	2813.15	-2503.28	1994.90
Fixation L	1	4	5559620189	5559898918	278729	905.60	633.76	14	23	-1	10.67	10.67
Fixation R	1	3	5559620189	5559898918	278729	905.60	633.76	14	23	-1	11.70	11.70
Saccade L	1	3	5559898918	5559938672	39754	896.81	638.31	768.55	707.50	1.86	142.37	0.50	46.85	3505.35	-2547.31	1924.29
Saccade R	1	3	5559898918	5559938672	39754	896.81	638.31	768.55	707.50	1.86	142.37	0.50	46.85	3505.35	-2547.31	1924.29
Fixation L	1	5	5559938672	5560157660	218988	767.29	759.04	11	81	-1	11.17	11.17
Fixation R	1	4	5559938672	5560157660	218988	767.29	759.04	11	81	-1	12.42	12.42
Saccade L	1	4	5560157660	5560217407	59747	763.76	777.57	1094.35	742.19	3.63	226.18	0.67	60.70	5335.36	-5411.36	2863.29
Saccade R	1	4	5560157660	5560217407	59747	763.76	777.57	1094.35	742.19	3.63	226.18	0.67	60.70	5335.36	-5411.36	2863.29
Fixation L	1	6	5560217407	5560376659	159252	1103.42	731.00	10	19	-1	11.28	11.28
Fixation R	1	5	5560217407	5560376659	159252	1103.42	731.00	10	19	-1	12.90	12.90
Saccade L	1	5	5560376659	5560416524	39865	1105.30	723.90	1322.61	521.29	2.55	188.89	0.50	63.86	4597.83	-4422.01	3582.65
Saccade R	1	5	5560376659	5560416524	39865	1105.30	723.90	1322.61	521.29	2.55	188.89	0.50	63.86	4597.83	-4422.01	3582.65
Fixation L	1	7	5560416524	5560615514	198990	1334.48	517.24	23	22	-1	11.53	11.53
Fixation R	1	6	5560416524	5560615514	198990	1334.48	517.24	23	22	-1	12.98	12.98
Saccade L	1	6	5560615514	5560655392	39878	1320.26	522.54	1005.00	371.31	3.31	272.27	0.50	82.98	6629.57	-6590.05	4442.16
Saccade R	1	6	5560615514	5560655392	39878	1320.26	522.54	1005.00	371.31	3.31	272.27	0.50	82.98	6629.57	-6590.05	4442.16
Fixation L	1	8	5560655392	5561013633	358241	1001.54	370.62	69	15	-1	11.36	11.36
Fixation R	1	7	5560655392	5561013633	358241	1001.54	370.62	69	15	-1	13.03	13.03
Saccade L	1	7	5561013633	5561033622	19989	939.04	371.70	822.89	371.43	0.99	117.48	1.00	49.49	2878.91	-2830.40	2418.15
Saccade R	1	7	5561013633	5561033622	19989	939.04	371.70	822.89	371.43	0.99	117.48	1.00	49.49	2878.91	-2830.40	2418.15
Fixation L	1	9	5561033622	5561710344	676722	842.98	384.23	35	20	-1	11.46	11.46
Fixation R	1	8	5561033622	5561710344	676722	842.98	384.23	35	20	-1	12.97	12.97
Saccade L	1	8	5561710344	5561730347	20003	858.35	386.56	1013.80	386.08	0.99	157.22	1.00	49.41	3883.32	-3659.14	2631.38
Saccade R	1	8	5561710344	5561730347	20003	858.35	386.56	1013.80	386.08	0.99	157.22	1.00	49.41	3883.32	-3659.14	2631.38
Fixation L	1	10	5561730347	5561869593	139246	1031.38	360.34	26	44	-1	11.39	11.39
Fixation R	1	9	5561730347	5561869593	139246	1031.38	360.34	26	44	-1	13.17	13.17
Saccade L	1	9	5561869593	5561929348	59755	1040.55	341.42	1440.87	294.02	4.25	227.53	0.67	71.14	5441.51	-5566.13	3196.84
Saccade R	1	9	5561869593	5561929348	59755	1040.55	341.42	1440.87	294.02	4.25	227.53	0.67	71.14	5441.51	-5566.13	3196.84
Fixation L	1	11	5561929348	5562208078	278730	1412.25	307.70	43	35	-1	11.63	11.63
Fixation R	1	10	5561929348	5562208078	278730	1412.25	307.70	43	35	-1	12.86	12.86
