[BeGaze]
Converted from:	C:\Documents and Settings\iViewX\Desktop\EXPERIMENTATIONS\Experiments\results\finaleart\S11H21112-finaleart-1.idf
Date:	27.03.2019 15:39:25
Version:	BeGaze 2.5.77
Sample Rate:	50
Subject:	S11H21112
Description:	Clement legrand-Duchenne

Table Header for Fixations:
Event Type	Trial	Number	Start	End	Duration	Location X	Location Y	Dispersion X	Dispersion Y	Plane	Avg. Pupil Size X	Avg. Pupil Size Y

Table Header for Saccades:
Event Type	Trial	Number	Start	End	Duration	Start Loc.X	Start Loc.Y	End Loc.X	End Loc.Y	Amplitude	Peak Speed	Peak Speed At	Average Speed	Peak Accel.	Peak Decel.	Average Accel.

Table Header for Blinks:
Event Type	Trial	Number	Start	End	Duration

Table Header for User Events:
Event Type	Trial	Number	Start	Description

UserEvent	1	1	5503288484	# Message: Delacroix-odalisque-1825.jpg
Fixation L	1	1	5503298655	5503537682	239027	12.10	442.38	42	28	-1	12.77	12.77
Fixation R	1	1	5503298655	5503537682	239027	12.10	442.38	42	28	-1	12.72	12.72
Saccade L	1	1	5503537682	5503597379	59697	33.31	441.68	80.25	447.22	3.51	102.96	1.00	58.76	2089.32	-631.97	993.50
Saccade R	1	1	5503537682	5503597379	59697	33.31	441.68	80.25	447.22	3.51	102.96	1.00	58.76	2089.32	-631.97	993.50
Fixation L	1	2	5503597379	5503697005	99626	45.56	435.47	77	20	-1	13.05	13.05
Fixation R	1	2	5503597379	5503697005	99626	45.56	435.47	77	20	-1	12.98	12.98
Saccade L	1	2	5503697005	5503776629	79624	55.52	441.65	711.06	620.79	8.65	451.31	0.50	108.68	10522.02	-5985.84	3883.55
Saccade R	1	2	5503697005	5503776629	79624	55.52	441.65	711.06	620.79	8.65	451.31	0.50	108.68	10522.02	-5985.84	3883.55
Fixation L	1	3	5503776629	5503995744	219115	724.22	612.85	33	29	-1	13.77	13.77
Fixation R	1	3	5503776629	5503995744	219115	724.22	612.85	33	29	-1	15.45	15.45
Saccade L	1	3	5503995744	5504015620	19876	744.61	599.97	894.43	572.76	0.97	154.00	1.00	48.69	3503.67	-2985.79	2276.16
Saccade R	1	3	5503995744	5504015620	19876	744.61	599.97	894.43	572.76	0.97	154.00	1.00	48.69	3503.67	-2985.79	2276.16
Fixation L	1	4	5504015620	5504234603	218983	890.78	541.95	5	52	-1	13.78	13.78
Fixation R	1	4	5504015620	5504234603	218983	890.78	541.95	5	52	-1	14.74	14.74
Saccade L	1	4	5504234603	5504274479	39876	889.26	526.54	428.41	464.34	3.89	278.50	0.50	97.65	6959.67	-6540.58	5716.32
Saccade R	1	4	5504234603	5504274479	39876	889.26	526.54	428.41	464.34	3.89	278.50	0.50	97.65	6959.67	-6540.58	5716.32
Fixation L	1	5	5504274479	5504891577	617098	436.29	467.87	26	35	-1	13.93	13.93
Fixation R	1	5	5504274479	5504891577	617098	436.29	467.87	26	35	-1	15.42	15.42
Saccade L	1	5	5504891577	5504911447	19870	446.45	473.63	643.03	470.23	1.06	198.81	1.00	53.52	4839.00	-4834.59	3239.05
Saccade R	1	5	5504891577	5504911447	19870	446.45	473.63	643.03	470.23	1.06	198.81	1.00	53.52	4839.00	-4834.59	3239.05
Fixation L	1	6	5504911447	5505409177	497730	644.51	469.74	31	63	-1	14.04	14.04
Fixation R	1	6	5504911447	5505409177	497730	644.51	469.74	31	63	-1	15.84	15.84
Saccade L	1	6	5505409177	5505429053	19876	663.99	519.53	666.13	522.85	0.16	12.36	1.00	7.81	-9.08	-209.28	80.99
Saccade R	1	6	5505409177	5505429053	19876	663.99	519.53	666.13	522.85	0.16	12.36	1.00	7.81	-9.08	-209.28	80.99
Fixation L	1	7	5505429053	5505568422	139369	669.32	544.19	26	53	-1	13.96	13.96
Fixation R	1	7	5505429053	5505568422	139369	669.32	544.19	26	53	-1	15.77	15.77
Saccade L	1	7	5505568422	5505588321	19899	656.67	576.44	652.60	595.07	0.20	19.29	1.00	10.12	310.83	-211.63	181.71
Saccade R	1	7	5505568422	5505588321	19899	656.67	576.44	652.60	595.07	0.20	19.29	1.00	10.12	310.83	-211.63	181.71
Fixation L	1	8	5505588321	5505727663	139342	640.86	602.31	18	12	-1	14.05	14.05
Fixation R	1	8	5505588321	5505727663	139342	640.86	602.31	18	12	-1	15.55	15.55
Saccade L	1	8	5505727663	5505747541	19878	633.72	601.19	546.68	598.45	0.63	88.08	1.00	31.90	2033.04	-1833.73	1501.01
Saccade R	1	8	5505727663	5505747541	19878	633.72	601.19	546.68	598.45	0.63	88.08	1.00	31.90	2033.04	-1833.73	1501.01
Fixation L	1	9	5505747541	5506344763	597222	554.49	587.13	45	20	-1	13.84	13.84
Fixation R	1	9	5505747541	5506344763	597222	554.49	587.13	45	20	-1	15.48	15.48
Saccade L	1	9	5506344763	5506384512	39749	592.35	590.22	1091.27	717.11	5.03	278.91	0.50	126.56	6955.29	-6005.24	5795.22
Saccade R	1	9	5506344763	5506384512	39749	592.35	590.22	1091.27	717.11	5.03	278.91	0.50	126.56	6955.29	-6005.24	5795.22
Fixation L	1	10	5506384512	5506663247	278735	1158.97	721.31	77	14	-1	14.68	14.68
Fixation R	1	10	5506384512	5506663247	278735	1158.97	721.31	77	14	-1	15.63	15.63
Saccade L	1	10	5506663247	5506683123	19876	1168.94	714.68	1170.47	707.08	0.11	7.84	1.00	5.70	139.75	-55.55	89.57
Saccade R	1	10	5506663247	5506683123	19876	1168.94	714.68	1170.47	707.08	0.11	7.84	1.00	5.70	139.75	-55.55	89.57
Fixation L	1	11	5506683123	5506921984	238861	1167.37	720.17	8	23	-1	14.70	14.70
Fixation R	1	11	5506683123	5506921984	238861	1167.37	720.17	8	23	-1	15.49	15.49
Saccade L	1	11	5506921984	5506941994	20010	1163.07	730.52	1166.19	609.84	0.71	122.10	1.00	35.25	2939.30	-2922.17	2051.17
Saccade R	1	11	5506921984	5506941994	20010	1163.07	730.52	1166.19	609.84	0.71	122.10	1.00	35.25	2939.30	-2922.17	2051.17
Fixation L	1	12	5506941994	5507140984	198990	1164.59	585.48	23	37	-1	14.77	14.77
Fixation R	1	12	5506941994	5507140984	198990	1164.59	585.48	23	37	-1	15.40	15.40
Saccade L	1	12	5507140984	5507160853	19869	1145.92	572.79	973.90	519.91	1.15	181.99	1.00	57.89	4460.00	-4206.47	2907.56
Saccade R	1	12	5507140984	5507160853	19869	1145.92	572.79	973.90	519.91	1.15	181.99	1.00	57.89	4460.00	-4206.47	2907.56
Fixation L	1	13	5507160853	5507280347	119494	977.04	528.16	5	25	-1	14.53	14.53
Fixation R	1	13	5507160853	5507280347	119494	977.04	528.16	5	25	-1	15.30	15.30
