[BeGaze]
Converted from:	C:\Documents and Settings\iViewX\Desktop\EXPERIMENTATIONS\Experiments\results\finaleart\S11H21112-finaleart-1.idf
Date:	27.03.2019 15:39:23
Version:	BeGaze 2.5.77
Sample Rate:	50
Subject:	S11H21112
Description:	Clement legrand-Duchenne

Table Header for Fixations:
Event Type	Trial	Number	Start	End	Duration	Location X	Location Y	Dispersion X	Dispersion Y	Plane	Avg. Pupil Size X	Avg. Pupil Size Y

Table Header for Saccades:
Event Type	Trial	Number	Start	End	Duration	Start Loc.X	Start Loc.Y	End Loc.X	End Loc.Y	Amplitude	Peak Speed	Peak Speed At	Average Speed	Peak Accel.	Peak Decel.	Average Accel.

Table Header for Blinks:
Event Type	Trial	Number	Start	End	Duration

Table Header for User Events:
Event Type	Trial	Number	Start	Description

UserEvent	1	1	5370592085	# Message: void.jpg
Fixation L	1	1	5370604706	5370763951	159245	832.94	100.84	45	48	-1	12.30	12.30
Fixation R	1	1	5370604706	5370763951	159245	832.94	100.84	45	48	-1	13.93	13.93
Saccade L	1	1	5370763951	5370863561	99610	802.93	71.72	797.55	63.67	3.88	115.73	1.00	38.92	2209.62	-2781.65	1449.03
Saccade R	1	1	5370763951	5370863561	99610	802.93	71.72	797.55	63.67	3.88	115.73	1.00	38.92	2209.62	-2781.65	1449.03
Fixation L	1	2	5370863561	5370983053	119492	789.60	55.15	12	12	-1	11.91	11.91
Fixation R	1	2	5370863561	5370983053	119492	789.60	55.15	12	12	-1	13.43	13.43
Saccade L	1	2	5370983053	5371022796	39743	785.55	51.29	783.47	52.65	2.30	141.32	0.50	57.90	3437.03	-3498.09	3450.52
Saccade R	1	2	5370983053	5371022796	39743	785.55	51.29	783.47	52.65	2.30	141.32	0.50	57.90	3437.03	-3498.09	3450.52
Fixation L	1	3	5371022796	5371241915	219119	783.77	61.30	3	25	-1	12.13	12.13
Fixation R	1	3	5371022796	5371241915	219119	783.77	61.30	3	25	-1	13.54	13.54
Saccade L	1	3	5371241915	5371341412	99497	784.73	76.65	799.28	88.71	4.80	134.37	1.00	48.22	3199.55	-2725.13	2299.26
Saccade R	1	3	5371241915	5371341412	99497	784.73	76.65	799.28	88.71	4.80	134.37	1.00	48.22	3199.55	-2725.13	2299.26
Blink L	1	1	5371341412	5371580403	238991
Blink R	1	1	5371341412	5371421168	79756
Saccade R	1	4	5371421168	5371441033	19865	0.00	3.84	0.00	2.47	10.25	1120.80	1.00	515.91	27884.53	-23365.59	18859.75
Blink R	1	2	5371441033	5371580403	139370
Saccade L	1	4	5371580403	5371660020	79617	986.03	240.23	885.81	380.11	4.18	150.50	1.00	52.45	3506.24	-3463.46	1781.72
Saccade R	1	5	5371580403	5371660020	79617	986.03	240.23	885.81	380.11	4.18	150.50	1.00	52.45	3506.24	-3463.46	1781.72
Fixation L	1	4	5371660020	5372356995	696975	889.14	371.10	15	49	-1	14.36	14.36
Fixation R	1	4	5371660020	5372356995	696975	889.14	371.10	15	49	-1	15.82	15.82
Saccade L	1	5	5372356995	5372376870	19875	892.60	396.39	784.64	378.44	0.76	110.70	1.00	38.18	2493.82	-2537.78	1745.10
Saccade R	1	6	5372356995	5372376870	19875	892.60	396.39	784.64	378.44	0.76	110.70	1.00	38.18	2493.82	-2537.78	1745.10
Fixation L	1	5	5372376870	5372496362	119492	774.70	335.81	17	72	-1	13.87	13.87
Fixation R	1	5	5372376870	5372496362	119492	774.70	335.81	17	72	-1	15.67	15.67
Saccade L	1	6	5372496362	5372576106	79744	766.70	306.26	758.16	280.87	0.86	19.23	0.75	10.73	172.16	0.00	99.23
Saccade R	1	7	5372496362	5372576106	79744	766.70	306.26	758.16	280.87	0.86	19.23	0.75	10.73	172.16	0.00	99.23
