[BeGaze]
Converted from:	C:\Documents and Settings\iViewX\Desktop\EXPERIMENTATIONS\Experiments\results\finaleart\S11H21112-finaleart-1.idf
Date:	27.03.2019 15:39:46
Version:	BeGaze 2.5.77
Sample Rate:	50
Subject:	S11H21112
Description:	Clement legrand-Duchenne

Table Header for Fixations:
Event Type	Trial	Number	Start	End	Duration	Location X	Location Y	Dispersion X	Dispersion Y	Plane	Avg. Pupil Size X	Avg. Pupil Size Y

Table Header for Saccades:
Event Type	Trial	Number	Start	End	Duration	Start Loc.X	Start Loc.Y	End Loc.X	End Loc.Y	Amplitude	Peak Speed	Peak Speed At	Average Speed	Peak Accel.	Peak Decel.	Average Accel.

Table Header for Blinks:
Event Type	Trial	Number	Start	End	Duration

Table Header for User Events:
Event Type	Trial	Number	Start	Description

UserEvent	1	1	6206512417	# Message: void.jpg
Fixation L	1	1	6206525453	6206664845	139392	987.08	606.14	77	17	-1	13.07	13.07
Fixation R	1	1	6206525453	6206664845	139392	987.08	606.14	77	17	-1	13.83	13.83
Saccade L	1	1	6206664845	6206684577	19732	920.79	594.66	829.38	584.60	0.92	93.02	1.00	46.72	2280.67	-2173.71	2058.19
Saccade R	1	1	6206664845	6206684577	19732	920.79	594.66	829.38	584.60	0.92	93.02	1.00	46.72	2280.67	-2173.71	2058.19
Fixation L	1	2	6206684577	6207142297	457720	833.13	556.95	36	55	-1	12.44	12.44
Fixation R	1	2	6206684577	6207142297	457720	833.13	556.95	36	55	-1	13.34	13.34
Saccade L	1	2	6207142297	6207560143	417846	863.20	539.41	1503.23	22.13	29.11	250.46	0.76	69.67	5209.97	-4772.75	1896.73
Saccade R	1	2	6207142297	6207480529	338232	863.20	539.41	1494.64	74.58	22.87	250.46	0.94	67.61	5209.97	-4772.75	1862.51
Saccade R	1	3	6207540150	6207560143	19993	1386.25	139.11	1503.23	22.13	1.60	167.31	1.00	79.98	1939.95	-4081.68	2343.41
Fixation L	1	3	6207560143	6207679512	119369	1519.11	5.86	25	67	-1	12.12	12.12
Fixation R	1	3	6207560143	6207679512	119369	1519.11	5.86	25	67	-1	14.53	14.53
Saccade L	1	3	6207679512	6208017755	338243	1528.39	-21.09	1362.58	14.36	30.64	223.44	0.82	90.60	4147.36	-3911.37	2145.81
Saccade R	1	4	6207679512	6208017755	338243	1528.39	-21.09	1362.58	14.36	30.64	223.44	0.82	90.60	4147.36	-3911.37	2145.81
Fixation L	1	4	6208017755	6208137119	119364	1351.19	6.73	22	64	-1	11.91	11.91
Fixation R	1	4	6208017755	6208137119	119364	1351.19	6.73	22	64	-1	14.78	14.78
Saccade L	1	4	6208137119	6208196864	59745	1342.34	-1.53	974.81	297.65	5.59	208.26	0.33	93.60	3753.98	-3509.34	2979.34
Saccade R	1	5	6208137119	6208196864	59745	1342.34	-1.53	974.81	297.65	5.59	208.26	0.33	93.60	3753.98	-3509.34	2979.34
Fixation L	1	5	6208196864	6208336140	139276	990.07	277.67	41	55	-1	12.21	12.21
Fixation R	1	5	6208196864	6208336140	139276	990.07	277.67	41	55	-1	15.54	15.54
Saccade L	1	5	6208336140	6208495357	159217	1003.91	246.47	881.29	330.11	4.17	114.47	0.75	26.21	2557.18	-2543.07	790.19
Saccade R	1	6	6208336140	6208495357	159217	1003.91	246.47	881.29	330.11	4.17	114.47	0.75	26.21	2557.18	-2543.07	790.19
