[BeGaze]
Converted from:	C:\Documents and Settings\iViewX\Desktop\EXPERIMENTATIONS\Experiments\results\finaleart\S11H21112-finaleart-1.idf
Date:	27.03.2019 15:38:57
Version:	BeGaze 2.5.77
Sample Rate:	50
Subject:	S11H21112
Description:	Clement legrand-Duchenne

Table Header for Fixations:
Event Type	Trial	Number	Start	End	Duration	Location X	Location Y	Dispersion X	Dispersion Y	Plane	Avg. Pupil Size X	Avg. Pupil Size Y

Table Header for Saccades:
Event Type	Trial	Number	Start	End	Duration	Start Loc.X	Start Loc.Y	End Loc.X	End Loc.Y	Amplitude	Peak Speed	Peak Speed At	Average Speed	Peak Accel.	Peak Decel.	Average Accel.

Table Header for Blinks:
Event Type	Trial	Number	Start	End	Duration

Table Header for User Events:
Event Type	Trial	Number	Start	Description

UserEvent	1	1	4397893052	# Message: void.jpg
Fixation L	1	1	4397909473	4398406690	497217	480.57	812.61	16	20	-1	12.33	12.33
Fixation R	1	1	4397909473	4398406690	497217	480.57	812.61	16	20	-1	15.77	15.77
Blink L	1	1	4398406690	4398705054	298364
Blink R	1	1	4398406690	4398545943	139253
Blink R	1	2	4398565939	4398705054	139115
Saccade L	1	1	4398705054	4398844291	139237	1470.94	52.96	1498.27	39.56	4.36	58.36	1.00	31.28	639.48	-1032.35	553.72
Saccade R	1	1	4398705054	4398844291	139237	1470.94	52.96	1498.27	39.56	4.36	58.36	1.00	31.28	639.48	-1032.35	553.72
Fixation L	1	2	4398844291	4399023288	178997	1504.81	72.29	33	57	-1	12.55	12.55
Fixation R	1	2	4398844291	4399023288	178997	1504.81	72.29	33	57	-1	14.46	14.46
Saccade L	1	2	4399023288	4399142661	119373	1501.90	97.23	1613.34	126.13	7.91	158.95	0.17	66.30	3232.73	-2838.01	1410.13
Saccade R	1	2	4399023288	4399142661	119373	1501.90	97.23	1613.34	126.13	7.91	158.95	0.17	66.30	3232.73	-2838.01	1410.13
Fixation L	1	3	4399142661	4399242033	99372	1600.85	156.93	41	56	-1	12.40	12.40
Fixation R	1	3	4399142661	4399242033	99372	1600.85	156.93	41	56	-1	14.52	14.52
Saccade L	1	3	4399242033	4399401275	159242	1596.23	167.84	1578.05	190.63	9.49	117.19	0.38	59.57	2614.55	-2547.24	1721.42
Saccade R	1	3	4399242033	4399401275	159242	1596.23	167.84	1578.05	190.63	9.49	117.19	0.38	59.57	2614.55	-2547.24	1721.42
Fixation L	1	4	4399401275	4399679634	278359	1583.91	168.92	53	33	-1	12.38	12.38
Fixation R	1	4	4399401275	4399679634	278359	1583.91	168.92	53	33	-1	14.40	14.40
Saccade L	1	4	4399679634	4399759252	79618	1546.23	157.46	1343.83	150.66	3.98	122.46	0.50	50.01	2767.35	-2779.06	1677.66
Saccade R	1	4	4399679634	4399759252	79618	1546.23	157.46	1343.83	150.66	3.98	122.46	0.50	50.01	2767.35	-2779.06	1677.66
Fixation L	1	5	4399759252	4399878626	119374	1358.82	144.55	33	44	-1	12.57	12.57
Fixation R	1	5	4399759252	4399878626	119374	1358.82	144.55	33	44	-1	14.85	14.85
