[BeGaze]
Converted from:	C:\Documents and Settings\iViewX\Desktop\EXPERIMENTATIONS\Experiments\results\finaleart\S11H21112-finaleart-1.idf
Date:	27.03.2019 15:39:04
Version:	BeGaze 2.5.77
Sample Rate:	50
Subject:	S11H21112
Description:	Clement legrand-Duchenne

Table Header for Fixations:
Event Type	Trial	Number	Start	End	Duration	Location X	Location Y	Dispersion X	Dispersion Y	Plane	Avg. Pupil Size X	Avg. Pupil Size Y

Table Header for Saccades:
Event Type	Trial	Number	Start	End	Duration	Start Loc.X	Start Loc.Y	End Loc.X	End Loc.Y	Amplitude	Peak Speed	Peak Speed At	Average Speed	Peak Accel.	Peak Decel.	Average Accel.

Table Header for Blinks:
Event Type	Trial	Number	Start	End	Duration

Table Header for User Events:
Event Type	Trial	Number	Start	Description

UserEvent	1	1	5098806288	# Message: void.jpg
Fixation L	1	1	5098815834	5099094437	278603	1180.33	635.90	7	54	-1	15.77	15.77
Fixation R	1	1	5098815834	5099094437	278603	1180.33	635.90	7	54	-1	15.42	15.42
Saccade L	1	1	5099094437	5099114307	19870	1176.32	649.01	987.12	644.20	1.04	191.40	1.00	52.49	4690.94	-4496.00	3081.44
Saccade R	1	1	5099094437	5099114307	19870	1176.32	649.01	987.12	644.20	1.04	191.40	1.00	52.49	4690.94	-4496.00	3081.44
Fixation L	1	2	5099114307	5099472422	358115	958.28	658.24	42	32	-1	15.86	15.86
Fixation R	1	2	5099114307	5099472422	358115	958.28	658.24	42	32	-1	15.85	15.85
Saccade L	1	2	5099472422	5099492417	19995	949.49	668.44	961.38	582.23	0.77	88.03	1.00	38.57	2033.60	1360.10	1738.33
Blink R	1	1	5099472422	5099631671	159249
Blink L	1	1	5099492417	5099631671	139254
Blink L	1	2	5099671412	5099810779	139367
Fixation R	1	3	5099790786	5099890283	99497	1677.54	172.83	67	27	-1	16.85	16.85
Fixation L	1	3	5099810779	5099910272	99493	1672.03	166.82	67	22	-1	15.30	15.30
Saccade R	1	2	5099890283	5099950021	59738	1646.74	169.96	1743.00	164.33	2.02	108.28	1.00	33.82	2232.52	-2552.08	1159.03
Saccade L	1	3	5099910272	5099950021	39749	1653.31	152.39	1743.00	164.33	1.51	108.28	1.00	38.08	2232.52	-2552.08	1408.44
Fixation L	1	4	5099950021	5100049521	99500	1754.73	186.01	50	43	-1	14.44	14.44
Fixation R	1	4	5099950021	5100049521	99500	1754.73	186.01	50	43	-1	16.18	16.18
Saccade L	1	4	5100049521	5100069390	19869	1735.79	208.05	1703.09	213.56	0.62	54.65	0.00	31.41	33.10	-1235.41	432.69
Saccade R	1	3	5100049521	5100069390	19869	1735.79	208.05	1703.09	213.56	0.62	54.65	0.00	31.41	33.10	-1235.41	432.69
Fixation L	1	5	5100069390	5100168892	99502	1704.13	221.45	38	28	-1	14.55	14.55
Fixation R	1	5	5100069390	5100168892	99502	1704.13	221.45	38	28	-1	15.32	15.32
Saccade L	1	5	5100168892	5100188770	19878	1693.33	234.70	1692.89	311.13	0.76	77.32	1.00	38.33	1559.52	-1557.22	1506.29
Saccade R	1	4	5100168892	5100188770	19878	1693.33	234.70	1692.89	311.13	0.76	77.32	1.00	38.33	1559.52	-1557.22	1506.29
Fixation L	1	6	5100188770	5100507125	318355	1701.56	281.94	27	67	-1	14.78	14.78
Fixation R	1	6	5100188770	5100507125	318355	1701.56	281.94	27	67	-1	15.71	15.71
Saccade L	1	6	5100507125	5100527128	20003	1697.51	299.72	1671.29	316.67	0.39	31.59	1.00	19.33	357.70	-666.28	427.31
Saccade R	1	5	5100507125	5100527128	20003	1697.51	299.72	1671.29	316.67	0.39	31.59	1.00	19.33	357.70	-666.28	427.31
Fixation L	1	7	5100527128	5100805609	278481	1687.91	306.57	21	38	-1	14.98	14.98
Fixation R	1	7	5100527128	5100805609	278481	1687.91	306.57	21	38	-1	15.66	15.66
