[BeGaze]
Converted from:	C:\Documents and Settings\iViewX\Desktop\EXPERIMENTATIONS\Experiments\results\finaleart\S11H21112-finaleart-1.idf
Date:	27.03.2019 15:39:09
Version:	BeGaze 2.5.77
Sample Rate:	50
Subject:	S11H21112
Description:	Clement legrand-Duchenne

Table Header for Fixations:
Event Type	Trial	Number	Start	End	Duration	Location X	Location Y	Dispersion X	Dispersion Y	Plane	Avg. Pupil Size X	Avg. Pupil Size Y

Table Header for Saccades:
Event Type	Trial	Number	Start	End	Duration	Start Loc.X	Start Loc.Y	End Loc.X	End Loc.Y	Amplitude	Peak Speed	Peak Speed At	Average Speed	Peak Accel.	Peak Decel.	Average Accel.

Table Header for Blinks:
Event Type	Trial	Number	Start	End	Duration

Table Header for User Events:
Event Type	Trial	Number	Start	Description

UserEvent	1	1	5159933217	# Message: void.jpg
Fixation L	1	1	5159941038	5160140144	199106	1306.74	542.95	40	27	-1	13.99	13.99
Fixation R	1	1	5159941038	5160140144	199106	1306.74	542.95	40	27	-1	16.03	16.03
Saccade L	1	1	5160140144	5160160156	20012	1278.72	549.97	1146.54	556.14	0.85	133.83	1.00	42.23	3243.91	-3258.87	2278.45
Saccade R	1	1	5160140144	5160160156	20012	1278.72	549.97	1146.54	556.14	0.85	133.83	1.00	42.23	3243.91	-3258.87	2278.45
Fixation L	1	2	5160160156	5160717616	557460	1148.34	552.40	28	32	-1	13.79	13.79
Fixation R	1	2	5160160156	5160717616	557460	1148.34	552.40	28	32	-1	15.74	15.74
Saccade L	1	2	5160717616	5160996482	278866	1162.72	551.94	1743.45	757.71	14.59	219.60	0.14	52.32	5431.25	-3445.74	1339.63
Saccade R	1	2	5160717616	5160996482	278866	1162.72	551.94	1743.45	757.71	14.59	219.60	0.14	52.32	5431.25	-3445.74	1339.63
Fixation L	1	3	5160996482	5161275216	278734	1777.25	765.84	46	53	-1	12.86	12.86
Fixation R	1	3	5160996482	5161275216	278734	1777.25	765.84	46	53	-1	14.92	14.92
Saccade L	1	3	5161275216	5161334962	59746	1775.74	764.39	1348.26	1011.36	5.76	234.91	0.67	96.42	5194.35	-5662.46	3580.74
Saccade R	1	3	5161275216	5161334962	59746	1775.74	764.39	1348.26	1011.36	5.76	234.91	0.67	96.42	5194.35	-5662.46	3580.74
Fixation L	1	4	5161334962	5161553958	218996	1365.03	999.03	26	29	-1	13.42	13.42
Fixation R	1	4	5161334962	5161553958	218996	1365.03	999.03	26	29	-1	14.73	14.73
Saccade L	1	4	5161553958	5161593818	39860	1367.91	981.96	1071.22	719.52	3.67	214.57	0.50	92.04	5287.45	-4603.72	4653.52
Saccade R	1	4	5161553958	5161593818	39860	1367.91	981.96	1071.22	719.52	3.67	214.57	0.50	92.04	5287.45	-4603.72	4653.52
Fixation L	1	5	5161593818	5161792943	199125	1049.36	690.91	29	53	-1	13.51	13.51
Fixation R	1	5	5161593818	5161792943	199125	1049.36	690.91	29	53	-1	14.62	14.62
Saccade L	1	5	5161792943	5161932318	139375	1047.27	666.15	971.04	379.80	5.03	142.28	0.29	36.09	3263.10	-3460.46	1611.80
Saccade R	1	5	5161792943	5161932318	139375	1047.27	666.15	971.04	379.80	5.03	142.28	0.29	36.09	3263.10	-3460.46	1611.80
