[BeGaze]
Converted from:	C:\Documents and Settings\iViewX\Desktop\EXPERIMENTATIONS\Experiments\results\finaleart\S11H21112-finaleart-1.idf
Date:	27.03.2019 15:38:47
Version:	BeGaze 2.5.77
Sample Rate:	50
Subject:	S11H21112
Description:	Clement legrand-Duchenne

Table Header for Fixations:
Event Type	Trial	Number	Start	End	Duration	Location X	Location Y	Dispersion X	Dispersion Y	Plane	Avg. Pupil Size X	Avg. Pupil Size Y

Table Header for Saccades:
Event Type	Trial	Number	Start	End	Duration	Start Loc.X	Start Loc.Y	End Loc.X	End Loc.Y	Amplitude	Peak Speed	Peak Speed At	Average Speed	Peak Accel.	Peak Decel.	Average Accel.

Table Header for Blinks:
Event Type	Trial	Number	Start	End	Duration

Table Header for User Events:
Event Type	Trial	Number	Start	Description

UserEvent	1	1	4265651231	# Message: still-life-fruits-on-a-table_manet_1864.jpg
Blink L	1	1	4265768271	4266595093	826822
Blink R	1	1	4265768271	4266595093	826822
Fixation L	1	1	4266595093	4266734325	139232	759.63	491.12	8	30	-1	13.71	13.71
Fixation R	1	1	4266595093	4266734325	139232	759.63	491.12	8	30	-1	16.28	16.28
Saccade R	1	1	4266734325	4266774071	39746	754.43	486.72	757.33	487.34	5.45	329.28	1.00	137.18	7882.10	-8179.32	7994.70
Fixation R	1	2	4266774071	4266933194	159123	754.62	488.38	15	33	-1	15.72	15.72
Fixation L	1	2	4266793952	4266893444	99492	753.11	490.96	10	19	-1	13.57	13.57
Blink L	1	2	4266893444	4266992831	99387
Saccade R	1	2	4266933194	4267052566	119372	761.48	492.99	664.51	528.77	4.91	98.32	1.00	41.11	2198.47	-2336.93	1257.31
Saccade L	1	1	4266992831	4267052566	59735	749.81	474.92	664.51	528.77	2.42	98.32	1.00	40.49	2198.47	-2336.93	1405.27
Fixation L	1	3	4267052566	4267271307	218741	648.52	587.45	19	70	-1	13.77	13.77
Fixation R	1	3	4267052566	4267271307	218741	648.52	587.45	19	70	-1	16.03	16.03
Saccade L	1	2	4267271307	4267291172	19865	645.68	599.77	657.80	611.16	0.14	16.83	1.00	6.95	397.84	-18.80	140.85
Saccade R	1	3	4267271307	4267291172	19865	645.68	599.77	657.80	611.16	0.14	16.83	1.00	6.95	397.84	-18.80	140.85
Fixation L	1	4	4267291172	4267490046	198874	674.46	633.30	25	41	-1	13.69	13.69
Fixation R	1	4	4267291172	4267490046	198874	674.46	633.30	25	41	-1	15.91	15.91
Saccade L	1	3	4267490046	4267529928	39882	679.45	652.19	284.98	765.38	3.48	245.95	0.50	87.28	6015.72	-6073.36	5124.36
Saccade R	1	4	4267490046	4267529928	39882	679.45	652.19	284.98	765.38	3.48	245.95	0.50	87.28	6015.72	-6073.36	5124.36
Fixation L	1	5	4267529928	4267768529	238601	299.56	755.54	27	19	-1	13.30	13.30
Fixation R	1	5	4267529928	4267768529	238601	299.56	755.54	27	19	-1	15.50	15.50
Saccade L	1	4	4267768529	4267848157	79628	312.74	754.05	1222.69	803.90	10.64	343.56	0.50	133.60	8494.55	-7642.01	5377.67
Saccade R	1	5	4267768529	4267848157	79628	312.74	754.05	1222.69	803.90	10.64	343.56	0.50	133.60	8494.55	-7642.01	5377.67
Fixation L	1	6	4267848157	4268027148	178991	1218.36	810.81	61	28	-1	13.35	13.35
Fixation R	1	6	4267848157	4268027148	178991	1218.36	810.81	61	28	-1	15.41	15.41
Saccade L	1	5	4268027148	4268047015	19867	1268.41	826.97	1302.25	841.87	0.56	59.72	0.00	28.14	865.08	-1176.59	970.44
Saccade R	1	6	4268027148	4268047015	19867	1268.41	826.97	1302.25	841.87	0.56	59.72	0.00	28.14	865.08	-1176.59	970.44
Fixation L	1	7	4268047015	4268424876	377861	1306.93	872.56	21	78	-1	12.89	12.89
Fixation R	1	7	4268047015	4268424876	377861	1306.93	872.56	21	78	-1	14.78	14.78
Saccade L	1	6	4268424876	4268444882	20006	1296.73	909.08	1296.47	919.02	0.12	11.17	1.00	5.75	-4.77	-232.93	88.46
Saccade R	1	7	4268424876	4268444882	20006	1296.73	909.08	1296.47	919.02	0.12	11.17	1.00	5.75	-4.77	-232.93	88.46
Fixation L	1	8	4268444882	4268763118	318236	1290.83	923.60	16	14	-1	12.71	12.71
Fixation R	1	8	4268444882	4268763118	318236	1290.83	923.60	16	14	-1	14.64	14.64
Saccade L	1	7	4268763118	4268802857	39739	1284.57	916.34	1294.49	588.61	2.80	239.87	0.50	70.37	5930.23	-5941.90	3975.52
Saccade R	1	8	4268763118	4268802857	39739	1284.57	916.34	1294.49	588.61	2.80	239.87	0.50	70.37	5930.23	-5941.90	3975.52
Fixation L	1	9	4268802857	4268942101	139244	1299.44	592.46	33	7	-1	12.73	12.73
Fixation R	1	9	4268802857	4268942101	139244	1299.44	592.46	33	7	-1	14.27	14.27
Saccade L	1	8	4268942101	4268981860	39759	1278.88	596.52	849.67	483.82	4.13	285.21	0.50	103.86	6983.10	-6695.95	5256.87
Saccade R	1	9	4268942101	4268981860	39759	1278.88	596.52	849.67	483.82	4.13	285.21	0.50	103.86	6983.10	-6695.95	5256.87
Fixation L	1	10	4268981860	4269220591	238731	855.48	483.56	17	30	-1	12.29	12.29
Fixation R	1	10	4268981860	4269220591	238731	855.48	483.56	17	30	-1	14.02	14.02
Saccade L	1	9	4269220591	4269240461	19870	865.21	479.53	761.26	457.63	0.74	107.46	1.00	37.16	2586.83	-2341.17	1864.99
Saccade R	1	10	4269220591	4269240461	19870	865.21	479.53	761.26	457.63	0.74	107.46	1.00	37.16	2586.83	-2341.17	1864.99
Fixation L	1	11	4269240461	4269419461	179000	751.71	415.86	17	55	-1	12.38	12.38
Fixation R	1	11	4269240461	4269419461	179000	751.71	415.86	17	55	-1	13.81	13.81
Saccade L	1	10	4269419461	4269439334	19873	751.94	410.60	746.29	566.17	1.12	157.45	1.00	56.53	3833.21	-3500.85	2909.62
Saccade R	1	11	4269419461	4269439334	19873	751.94	410.60	746.29	566.17	1.12	157.45	1.00	56.53	3833.21	-3500.85	2909.62
Fixation L	1	12	4269439334	4269558706	119372	730.26	624.01	28	70	-1	12.60	12.60
Fixation R	1	12	4269439334	4269558706	119372	730.26	624.01	28	70	-1	14.39	14.39
Saccade L	1	11	4269558706	4269638203	79497	717.64	636.99	711.38	629.41	0.47	13.76	1.00	5.96	58.10	-206.18	64.39
Saccade R	1	12	4269558706	4269638203	79497	717.64	636.99	711.38	629.41	0.47	13.76	1.00	5.96	58.10	-206.18	64.39
