[BeGaze]
Converted from:	C:\Documents and Settings\iViewX\Desktop\EXPERIMENTATIONS\Experiments\results\finaleart\S11H21112-finaleart-1.idf
Date:	27.03.2019 15:38:35
Version:	BeGaze 2.5.77
Sample Rate:	50
Subject:	S11H21112
Description:	Clement legrand-Duchenne

Table Header for Fixations:
Event Type	Trial	Number	Start	End	Duration	Location X	Location Y	Dispersion X	Dispersion Y	Plane	Avg. Pupil Size X	Avg. Pupil Size Y

Table Header for Saccades:
Event Type	Trial	Number	Start	End	Duration	Start Loc.X	Start Loc.Y	End Loc.X	End Loc.Y	Amplitude	Peak Speed	Peak Speed At	Average Speed	Peak Accel.	Peak Decel.	Average Accel.

Table Header for Blinks:
Event Type	Trial	Number	Start	End	Duration

Table Header for User Events:
Event Type	Trial	Number	Start	Description

UserEvent	1	1	3944577188	# Message: Still-life-of-Sheep-s-Ribs-and-Head-The-Butchers-conter_Goya_1812.jpg
Fixation L	1	1	3944581816	3945039272	457456	976.81	506.83	22	38	-1	16.11	16.11
Fixation R	1	1	3944581816	3945039272	457456	976.81	506.83	22	38	-1	17.73	17.73
Saccade L	1	1	3945039272	3945059275	20003	965.66	522.60	942.98	639.49	0.70	120.43	1.00	35.04	2984.28	-2776.65	2050.72
Saccade R	1	1	3945039272	3945059275	20003	965.66	522.60	942.98	639.49	0.70	120.43	1.00	35.04	2984.28	-2776.65	2050.72
Fixation L	1	2	3945059275	3945238263	178988	923.68	662.49	28	41	-1	16.56	16.56
Fixation R	1	2	3945059275	3945238263	178988	923.68	662.49	28	41	-1	18.63	18.63
Saccade L	1	2	3945238263	3945278022	39759	914.92	680.58	685.58	685.70	2.25	132.45	0.50	56.53	2753.38	-3195.93	2543.44
Saccade R	1	2	3945238263	3945278022	39759	914.92	680.58	685.58	685.70	2.25	132.45	0.50	56.53	2753.38	-3195.93	2543.44
Fixation L	1	3	3945278022	3945417255	139233	679.87	681.85	11	10	-1	16.45	16.45
Fixation R	1	3	3945278022	3945417255	139233	679.87	681.85	11	10	-1	18.20	18.20
Saccade L	1	3	3945417255	3945457007	39752	675.79	678.28	975.98	680.51	2.86	187.02	1.00	71.93	4616.09	-4485.37	3413.70
Saccade R	1	3	3945417255	3945457007	39752	675.79	678.28	975.98	680.51	2.86	187.02	1.00	71.93	4616.09	-4485.37	3413.70
Fixation L	1	4	3945457007	3945735501	278494	1009.87	672.85	49	20	-1	16.79	16.79
Fixation R	1	4	3945457007	3945735501	278494	1009.87	672.85	49	20	-1	18.38	18.38
Saccade L	1	4	3945735501	3945775264	39763	1000.44	672.10	525.52	683.59	4.03	255.68	0.50	101.26	6361.14	-6094.67	5821.18
Saccade R	1	4	3945735501	3945775264	39763	1000.44	672.10	525.52	683.59	4.03	255.68	0.50	101.26	6361.14	-6094.67	5821.18
Fixation L	1	5	3945775264	3946093484	318220	522.75	696.98	24	38	-1	16.71	16.71
Fixation R	1	5	3945775264	3946093484	318220	522.75	696.98	24	38	-1	18.67	18.67
Saccade L	1	5	3946093484	3946133231	39747	536.09	713.01	613.57	800.83	1.19	88.57	1.00	29.93	2181.44	-2052.18	1315.13
Saccade R	1	5	3946093484	3946133231	39747	536.09	713.01	613.57	800.83	1.19	88.57	1.00	29.93	2181.44	-2052.18	1315.13
Fixation L	1	6	3946133231	3946610708	477477	617.52	796.37	42	56	-1	17.34	17.34
Fixation R	1	6	3946133231	3946610708	477477	617.52	796.37	42	56	-1	19.22	19.22
Saccade L	1	6	3946610708	3946630586	19878	646.15	832.59	650.62	843.02	0.17	15.07	0.00	8.65	147.53	-315.08	181.55
Saccade R	1	6	3946610708	3946630586	19878	646.15	832.59	650.62	843.02	0.17	15.07	0.00	8.65	147.53	-315.08	181.55
Fixation L	1	7	3946630586	3946789700	159114	657.69	847.76	11	12	-1	18.04	18.04
Fixation R	1	7	3946630586	3946789700	159114	657.69	847.76	11	12	-1	19.79	19.79
Saccade L	1	7	3946789700	3946849326	59626	660.98	852.82	1242.05	840.74	6.07	302.73	0.67	101.73	7536.76	-7065.20	4334.80
Saccade R	1	7	3946789700	3946849326	59626	660.98	852.82	1242.05	840.74	6.07	302.73	0.67	101.73	7536.76	-7065.20	4334.80
Fixation L	1	8	3946849326	3947127814	278488	1223.42	827.66	25	26	-1	18.45	18.45
Fixation R	1	8	3946849326	3947127814	278488	1223.42	827.66	25	26	-1	19.17	19.17
Saccade L	1	8	3947127814	3947147687	19873	1217.89	818.89	1145.78	817.90	0.62	72.95	1.00	31.33	1733.73	-1176.70	1295.66
Saccade R	1	8	3947127814	3947147687	19873	1217.89	818.89	1145.78	817.90	0.62	72.95	1.00	31.33	1733.73	-1176.70	1295.66
Fixation L	1	9	3947147687	3947346554	198867	1109.42	791.32	45	47	-1	18.21	18.21
Fixation R	1	9	3947147687	3947346554	198867	1109.42	791.32	45	47	-1	19.53	19.53
Saccade L	1	9	3947346554	3947386301	39747	1107.38	770.26	1113.20	629.21	1.26	91.89	1.00	31.77	2176.32	-2188.56	1659.80
Saccade R	1	9	3947346554	3947386301	39747	1107.38	770.26	1113.20	629.21	1.26	91.89	1.00	31.77	2176.32	-2188.56	1659.80
Fixation L	1	10	3947386301	3947943275	556974	1121.62	631.68	13	29	-1	17.17	17.17
Fixation R	1	10	3947386301	3947943275	556974	1121.62	631.68	13	29	-1	18.53	18.53
Saccade L	1	10	3947943275	3947983035	39760	1121.15	641.00	1281.88	754.37	1.72	115.84	1.00	43.15	2802.60	-2718.88	2340.01
Saccade R	1	10	3947943275	3947983035	39760	1121.15	641.00	1281.88	754.37	1.72	115.84	1.00	43.15	2802.60	-2718.88	2340.01
Fixation L	1	11	3947983035	3948559876	576841	1302.09	771.54	38	57	-1	16.57	16.57
Fixation R	1	11	3947983035	3948559876	576841	1302.09	771.54	38	57	-1	17.89	17.89
