[BeGaze]
Converted from:	C:\Documents and Settings\iViewX\Desktop\EXPERIMENTATIONS\Experiments\results\finaleart\S11H21112-finaleart-1.idf
Date:	27.03.2019 15:39:13
Version:	BeGaze 2.5.77
Sample Rate:	50
Subject:	S11H21112
Description:	Clement legrand-Duchenne

Table Header for Fixations:
Event Type	Trial	Number	Start	End	Duration	Location X	Location Y	Dispersion X	Dispersion Y	Plane	Avg. Pupil Size X	Avg. Pupil Size Y

Table Header for Saccades:
Event Type	Trial	Number	Start	End	Duration	Start Loc.X	Start Loc.Y	End Loc.X	End Loc.Y	Amplitude	Peak Speed	Peak Speed At	Average Speed	Peak Accel.	Peak Decel.	Average Accel.

Table Header for Blinks:
Event Type	Trial	Number	Start	End	Duration

Table Header for User Events:
Event Type	Trial	Number	Start	Description

UserEvent	1	1	5244432398	# Message: L'Ile_de_La_Grande_Jatte_Seurat_1884.jpg
Fixation L	1	1	5244441211	5244719698	278487	980.78	77.04	12	70	-1	10.83	10.83
Fixation R	1	1	5244441211	5244719698	278487	980.78	77.04	12	70	-1	12.60	12.60
Saccade L	1	1	5244719698	5244878813	159115	974.12	75.20	950.90	323.68	9.75	228.93	1.00	61.29	4662.53	-5442.22	1881.23
Saccade R	1	1	5244719698	5244878813	159115	974.12	75.20	950.90	323.68	9.75	228.93	1.00	61.29	4662.53	-5442.22	1881.23
Fixation L	1	2	5244878813	5245077686	198873	922.18	315.35	40	17	-1	10.86	10.86
Fixation R	1	2	5244878813	5245077686	198873	922.18	315.35	40	17	-1	12.82	12.82
Saccade L	1	2	5245077686	5245097553	19867	914.54	309.72	1032.86	332.45	0.72	121.86	1.00	36.11	2934.10	-2915.38	2046.41
Saccade R	1	2	5245077686	5245097553	19867	914.54	309.72	1032.86	332.45	0.72	121.86	1.00	36.11	2934.10	-2915.38	2046.41
Fixation L	1	3	5245097553	5245495412	397859	1031.82	332.46	19	36	-1	10.32	10.32
Fixation R	1	3	5245097553	5245495412	397859	1031.82	332.46	19	36	-1	12.10	12.10
Saccade L	1	3	5245495412	5245535167	39755	1033.38	336.97	733.27	341.04	2.54	191.18	1.00	63.77	4609.78	-4552.54	3641.97
Saccade R	1	3	5245495412	5245535167	39755	1033.38	336.97	733.27	341.04	2.54	191.18	1.00	63.77	4609.78	-4552.54	3641.97
Fixation L	1	4	5245535167	5245773771	238604	733.96	346.50	11	39	-1	9.85	9.85
Fixation R	1	4	5245535167	5245773771	238604	733.96	346.50	11	39	-1	11.88	11.88
Saccade L	1	4	5245773771	5245813653	39882	729.06	346.78	555.33	350.68	2.00	106.52	0.50	50.24	2369.09	-1992.35	1803.34
Saccade R	1	4	5245773771	5245813653	39882	729.06	346.78	555.33	350.68	2.00	106.52	0.50	50.24	2369.09	-1992.35	1803.34
Fixation L	1	5	5245813653	5245972770	159117	564.82	338.18	26	33	-1	10.02	10.02
Fixation R	1	5	5245813653	5245972770	159117	564.82	338.18	26	33	-1	11.87	11.87
Saccade L	1	5	5245972770	5246032386	59616	562.09	323.47	972.92	748.38	6.39	336.90	0.67	107.23	8008.70	-8054.98	5011.41
Saccade R	1	5	5245972770	5246032386	59616	562.09	323.47	972.92	748.38	6.39	336.90	0.67	107.23	8008.70	-8054.98	5011.41
Fixation L	1	6	5246032386	5246251128	218742	974.41	760.21	9	81	-1	10.49	10.49
Fixation R	1	6	5246032386	5246251128	218742	974.41	760.21	9	81	-1	12.27	12.27
Saccade L	1	6	5246251128	5246271008	19880	971.92	830.22	1016.72	918.63	0.92	100.26	1.00	46.12	2479.50	-2211.77	2132.81
Saccade R	1	6	5246251128	5246271008	19880	971.92	830.22	1016.72	918.63	0.92	100.26	1.00	46.12	2479.50	-2211.77	2132.81
Fixation L	1	7	5246271008	5246748364	477356	1029.44	920.47	21	37	-1	11.15	11.15
Fixation R	1	7	5246271008	5246748364	477356	1029.44	920.47	21	37	-1	12.87	12.87
Saccade L	1	7	5246748364	5246788236	39872	1037.82	908.13	1166.29	534.83	3.50	223.08	1.00	87.70	5380.39	-5299.08	4757.41
Saccade R	1	7	5246748364	5246788236	39872	1037.82	908.13	1166.29	534.83	3.50	223.08	1.00	87.70	5380.39	-5299.08	4757.41
Fixation L	1	8	5246788236	5247364956	576720	1182.12	534.31	25	48	-1	11.13	11.13
Fixation R	1	8	5246788236	5247364956	576720	1182.12	534.31	25	48	-1	12.68	12.68
Saccade L	1	8	5247364956	5247384830	19874	1188.52	526.52	1189.24	381.83	0.95	146.34	1.00	47.74	3371.90	-3589.53	2407.71
Saccade R	1	8	5247364956	5247384830	19874	1188.52	526.52	1189.24	381.83	0.95	146.34	1.00	47.74	3371.90	-3589.53	2407.71
Fixation L	1	9	5247384830	5247703073	318243	1188.80	394.37	9	27	-1	11.16	11.16
Fixation R	1	9	5247384830	5247703073	318243	1188.80	394.37	9	27	-1	12.33	12.33
Saccade L	1	9	5247703073	5247722936	19863	1183.86	405.14	1094.55	368.32	0.71	97.72	1.00	35.70	2385.21	-1804.88	1685.04
Saccade R	1	9	5247703073	5247722936	19863	1183.86	405.14	1094.55	368.32	0.71	97.72	1.00	35.70	2385.21	-1804.88	1685.04
Fixation L	1	10	5247722936	5247822436	99500	1069.08	369.15	36	53	-1	10.84	10.84
Fixation R	1	10	5247722936	5247822436	99500	1069.08	369.15	36	53	-1	12.62	12.62
Saccade L	1	10	5247822436	5247842311	19875	1057.92	347.14	1056.81	334.19	0.26	21.39	1.00	12.85	214.44	-206.10	205.25
Saccade R	1	10	5247822436	5247842311	19875	1057.92	347.14	1056.81	334.19	0.26	21.39	1.00	12.85	214.44	-206.10	205.25
Fixation L	1	11	5247842311	5248061052	218741	1060.83	343.36	10	24	-1	10.79	10.79
Fixation R	1	11	5247842311	5248061052	218741	1060.83	343.36	10	24	-1	12.39	12.39
Saccade L	1	11	5248061052	5248081053	20001	1063.32	358.55	941.67	344.12	0.78	123.91	1.00	39.16	2980.22	-2813.05	1934.98
Saccade R	1	11	5248061052	5248081053	20001	1063.32	358.55	941.67	344.12	0.78	123.91	1.00	39.16	2980.22	-2813.05	1934.98
Fixation L	1	12	5248081053	5248299789	218736	938.81	315.46	7	60	-1	10.85	10.85
Fixation R	1	12	5248081053	5248299789	218736	938.81	315.46	7	60	-1	12.71	12.71
Saccade L	1	12	5248299789	5248419159	119370	939.21	283.67	542.25	312.40	6.73	279.28	0.33	56.41	6678.04	-6748.14	2431.94
Saccade R	1	12	5248299789	5248419159	119370	939.21	283.67	542.25	312.40	6.73	279.28	0.33	56.41	6678.04	-6748.14	2431.94
