[BeGaze]
Converted from:	C:\Documents and Settings\iViewX\Desktop\EXPERIMENTATIONS\Experiments\results\finaleart\S11H21112-finaleart-1.idf
Date:	27.03.2019 15:39:22
Version:	BeGaze 2.5.77
Sample Rate:	50
Subject:	S11H21112
Description:	Clement legrand-Duchenne

Table Header for Fixations:
Event Type	Trial	Number	Start	End	Duration	Location X	Location Y	Dispersion X	Dispersion Y	Plane	Avg. Pupil Size X	Avg. Pupil Size Y

Table Header for Saccades:
Event Type	Trial	Number	Start	End	Duration	Start Loc.X	Start Loc.Y	End Loc.X	End Loc.Y	Amplitude	Peak Speed	Peak Speed At	Average Speed	Peak Accel.	Peak Decel.	Average Accel.

Table Header for Blinks:
Event Type	Trial	Number	Start	End	Duration

Table Header for User Events:
Event Type	Trial	Number	Start	Description

UserEvent	1	1	5358397311	# Message: void.jpg
Fixation L	1	1	5358398477	5358557848	159371	630.17	669.09	2	5	-1	11.14	11.14
Fixation R	1	1	5358398477	5358557848	159371	630.17	669.09	2	5	-1	13.19	13.19
Saccade L	1	1	5358557848	5358597598	39750	631.54	667.11	996.44	650.85	3.13	214.55	0.50	78.80	5295.19	-4957.45	4391.26
Saccade R	1	1	5358557848	5358597598	39750	631.54	667.11	996.44	650.85	3.13	214.55	0.50	78.80	5295.19	-4957.45	4391.26
Fixation L	1	2	5358597598	5358995960	398362	994.64	616.04	3	51	-1	11.51	11.51
Fixation R	1	2	5358597598	5358995960	398362	994.64	616.04	3	51	-1	13.13	13.13
Blink L	1	1	5358995960	5359314571	318611
Blink R	1	1	5358995960	5359314571	318611
Saccade L	1	2	5359314571	5359354314	39743	1531.56	299.37	1458.27	249.95	5.35	510.42	1.00	134.65	462.22	-10881.30	3348.18
Saccade R	1	2	5359314571	5359354314	39743	1531.56	299.37	1458.27	249.95	5.35	510.42	1.00	134.65	462.22	-10881.30	3348.18
Fixation L	1	3	5359354314	5359473805	119491	1429.43	268.73	43	54	-1	12.54	12.54
Fixation R	1	3	5359354314	5359473805	119491	1429.43	268.73	43	54	-1	14.26	14.26
Saccade L	1	3	5359473805	5359493675	19870	1422.11	263.09	1401.73	273.85	0.34	29.73	0.00	17.30	337.99	-584.76	401.47
Saccade R	1	3	5359473805	5359493675	19870	1422.11	263.09	1401.73	273.85	0.34	29.73	0.00	17.30	337.99	-584.76	401.47
Fixation L	1	4	5359493675	5359653045	159370	1387.01	273.39	37	26	-1	11.92	11.92
Fixation R	1	4	5359493675	5359653045	159370	1387.01	273.39	37	26	-1	13.50	13.50
Saccade L	1	4	5359653045	5359772566	119521	1366.91	273.28	1371.52	298.52	4.55	101.34	0.17	38.09	2166.71	-2324.75	1210.35
Fixation R	1	5	5359712802	5359812288	99486	1374.77	280.32	9	37	-1	15.29	15.29
Blink L	1	2	5359772566	5359872037	99471
Saccade R	1	4	5359812288	5359832294	20006	1374.72	295.05	1382.63	191.11	1.16	105.44	1.00	57.95	1656.19	-2507.02	1529.48
Fixation R	1	6	5359832294	5359991529	159235	1376.59	249.96	15	81	-1	15.20	15.20
Fixation L	1	5	5359872037	5359991529	119492	1374.86	259.42	13	24	-1	13.33	13.33
Saccade L	1	5	5359991529	5360011405	19876	1367.65	251.88	1280.94	281.50	0.83	92.69	1.00	41.99	1741.79	-1889.26	1609.72
Saccade R	1	5	5359991529	5360011405	19876	1367.65	251.88	1280.94	281.50	0.83	92.69	1.00	41.99	1741.79	-1889.26	1609.72
Fixation L	1	6	5360011405	5360389766	378361	1241.46	278.05	48	33	-1	13.19	13.19
Fixation R	1	7	5360011405	5360389766	378361	1241.46	278.05	48	33	-1	15.20	15.20
