[BeGaze]
Converted from:	C:\Documents and Settings\iViewX\Desktop\EXPERIMENTATIONS\Experiments\results\finaleart\S11H21112-finaleart-1.idf
Date:	27.03.2019 15:38:50
Version:	BeGaze 2.5.77
Sample Rate:	50
Subject:	S11H21112
Description:	Clement legrand-Duchenne

Table Header for Fixations:
Event Type	Trial	Number	Start	End	Duration	Location X	Location Y	Dispersion X	Dispersion Y	Plane	Avg. Pupil Size X	Avg. Pupil Size Y

Table Header for Saccades:
Event Type	Trial	Number	Start	End	Duration	Start Loc.X	Start Loc.Y	End Loc.X	End Loc.Y	Amplitude	Peak Speed	Peak Speed At	Average Speed	Peak Accel.	Peak Decel.	Average Accel.

Table Header for Blinks:
Event Type	Trial	Number	Start	End	Duration

Table Header for User Events:
Event Type	Trial	Number	Start	Description

UserEvent	1	1	4314479596	# Message: delacroix-still-life-with-lobsters-1827.jpg
Fixation L	1	1	4314490373	4314888109	397736	894.23	303.50	19	20	-1	14.21	14.21
Fixation R	1	1	4314490373	4314888109	397736	894.23	303.50	19	20	-1	15.43	15.43
Saccade L	1	1	4314888109	4314907964	19855	885.58	314.69	883.27	480.27	1.23	167.48	1.00	62.05	4078.37	-3852.57	3176.03
Saccade R	1	1	4314888109	4314907964	19855	885.58	314.69	883.27	480.27	1.23	167.48	1.00	62.05	4078.37	-3852.57	3176.03
Fixation L	1	2	4314907964	4315047226	139262	894.25	528.66	23	70	-1	14.62	14.62
Fixation R	1	2	4314907964	4315047226	139262	894.25	528.66	23	70	-1	15.81	15.81
Saccade L	1	2	4315047226	4315067086	19860	906.35	550.97	1060.50	753.13	1.58	257.01	1.00	79.31	5929.73	-6328.21	4307.35
Saccade R	1	2	4315047226	4315067086	19860	906.35	550.97	1060.50	753.13	1.58	257.01	1.00	79.31	5929.73	-6328.21	4307.35
Fixation L	1	3	4315067086	4315445067	377981	1084.85	754.67	49	44	-1	14.05	14.05
Fixation R	1	3	4315067086	4315445067	377981	1084.85	754.67	49	44	-1	15.25	15.25
Saccade L	1	3	4315445067	4315464953	19886	1109.53	783.90	1111.04	789.12	0.07	5.49	1.00	3.48	98.58	-76.79	62.94
Saccade R	1	3	4315445067	4315464953	19886	1109.53	783.90	1111.04	789.12	0.07	5.49	1.00	3.48	98.58	-76.79	62.94
Fixation L	1	4	4315464953	4315822930	357977	1098.12	805.56	35	27	-1	13.93	13.93
Fixation R	1	4	4315464953	4315822930	357977	1098.12	805.56	35	27	-1	15.00	15.00
Saccade L	1	4	4315822930	4315862680	39750	1080.35	814.19	811.88	815.08	2.22	137.30	0.50	55.80	3395.39	-3352.72	3300.47
Saccade R	1	4	4315822930	4315862680	39750	1080.35	814.19	811.88	815.08	2.22	137.30	0.50	55.80	3395.39	-3352.72	3300.47
Fixation L	1	5	4315862680	4316220783	358103	806.81	814.07	76	22	-1	14.39	14.39
Fixation R	1	5	4315862680	4316220783	358103	806.81	814.07	76	22	-1	15.59	15.59
Saccade L	1	5	4316220783	4316240658	19875	738.59	798.84	731.51	800.54	0.44	72.03	0.00	22.25	87.86	-1657.56	629.98
Saccade R	1	5	4316220783	4316240658	19875	738.59	798.84	731.51	800.54	0.44	72.03	0.00	22.25	87.86	-1657.56	629.98
Fixation L	1	6	4316240658	4316499275	258617	725.10	787.62	12	29	-1	14.43	14.43
Fixation R	1	6	4316240658	4316499275	258617	725.10	787.62	12	29	-1	15.90	15.90
Saccade L	1	6	4316499275	4316519145	19870	719.18	770.56	713.55	682.22	0.57	89.54	1.00	28.51	2223.84	-2095.26	1477.53
Saccade R	1	6	4316499275	4316519145	19870	719.18	770.56	713.55	682.22	0.57	89.54	1.00	28.51	2223.84	-2095.26	1477.53
Fixation L	1	7	4316519145	4316857252	338107	693.74	674.11	26	14	-1	14.29	14.29
Fixation R	1	7	4316519145	4316857252	338107	693.74	674.11	26	14	-1	15.73	15.73
Saccade L	1	7	4316857252	4316877152	19900	688.66	668.10	620.00	651.90	0.69	71.37	1.00	34.47	1746.30	-1680.95	1509.55
Saccade R	1	7	4316857252	4316877152	19900	688.66	668.10	620.00	651.90	0.69	71.37	1.00	34.47	1746.30	-1680.95	1509.55
Fixation L	1	8	4316877152	4317215370	338218	572.76	623.52	51	34	-1	13.66	13.66
Fixation R	1	8	4316877152	4317215370	338218	572.76	623.52	51	34	-1	15.77	15.77
Saccade L	1	8	4317215370	4317235238	19868	570.21	622.47	572.25	600.67	0.21	22.16	1.00	10.47	528.52	-135.41	349.65
Saccade R	1	8	4317215370	4317235238	19868	570.21	622.47	572.25	600.67	0.21	22.16	1.00	10.47	528.52	-135.41	349.65
Fixation L	1	9	4317235238	4317453980	218742	575.70	579.40	8	36	-1	13.89	13.89
Fixation R	1	9	4317235238	4317453980	218742	575.70	579.40	8	36	-1	15.67	15.67
Saccade L	1	9	4317453980	4317473856	19876	580.82	564.45	616.38	496.43	0.66	77.64	1.00	32.96	1894.90	-1391.93	1403.27
Saccade R	1	9	4317453980	4317473856	19876	580.82	564.45	616.38	496.43	0.66	77.64	1.00	32.96	1894.90	-1391.93	1403.27
Fixation L	1	10	4317473856	4317573371	99515	662.10	489.53	59	30	-1	13.62	13.62
Fixation R	1	10	4317473856	4317573371	99515	662.10	489.53	59	30	-1	15.57	15.57
Saccade L	1	10	4317573371	4317593224	19853	675.37	476.91	673.19	464.92	0.14	12.33	1.00	6.96	190.99	-245.46	176.04
Saccade R	1	10	4317573371	4317593224	19853	675.37	476.91	673.19	464.92	0.14	12.33	1.00	6.96	190.99	-245.46	176.04
Fixation L	1	11	4317593224	4317811961	218737	669.47	465.08	9	62	-1	13.90	13.90
Fixation R	1	11	4317593224	4317811961	218737	669.47	465.08	9	62	-1	15.49	15.49
Saccade L	1	11	4317811961	4317831965	20004	663.66	519.35	666.73	569.08	0.63	61.53	0.00	31.32	1212.52	-1252.05	1203.94
Saccade R	1	11	4317811961	4317831965	20004	663.66	519.35	666.73	569.08	0.63	61.53	0.00	31.32	1212.52	-1252.05	1203.94
Fixation L	1	12	4317831965	4318050704	218739	673.83	565.67	17	14	-1	14.23	14.23
Fixation R	1	12	4317831965	4318050704	218739	673.83	565.67	17	14	-1	15.97	15.97
Saccade L	1	12	4318050704	4318070583	19879	677.90	571.76	619.75	606.67	0.54	68.61	1.00	27.00	1655.76	-1384.24	1245.96
Saccade R	1	12	4318050704	4318070583	19879	677.90	571.76	619.75	606.67	0.54	68.61	1.00	27.00	1655.76	-1384.24	1245.96
Fixation L	1	13	4318070583	4318269452	198869	592.94	623.75	32	36	-1	14.48	14.48
Fixation R	1	13	4318070583	4318269452	198869	592.94	623.75	32	36	-1	16.10	16.10
Saccade L	1	13	4318269452	4318309316	39864	587.50	634.84	956.57	642.21	3.38	200.73	0.50	84.90	4963.13	-4260.61	4333.07
Saccade R	1	13	4318269452	4318309316	39864	587.50	634.84	956.57	642.21	3.38	200.73	0.50	84.90	4963.13	-4260.61	4333.07
Fixation L	1	14	4318309316	4318468434	159118	996.89	647.52	48	12	-1	15.23	15.23
Fixation R	1	14	4318309316	4318468434	159118	996.89	647.52	48	12	-1	16.32	16.32
