[BeGaze]
Converted from:	C:\Documents and Settings\iViewX\Desktop\EXPERIMENTATIONS\Experiments\results\finaleart\S11H21112-finaleart-1.idf
Date:	27.03.2019 15:39:44
Version:	BeGaze 2.5.77
Sample Rate:	50
Subject:	S11H21112
Description:	Clement legrand-Duchenne

Table Header for Fixations:
Event Type	Trial	Number	Start	End	Duration	Location X	Location Y	Dispersion X	Dispersion Y	Plane	Avg. Pupil Size X	Avg. Pupil Size Y

Table Header for Saccades:
Event Type	Trial	Number	Start	End	Duration	Start Loc.X	Start Loc.Y	End Loc.X	End Loc.Y	Amplitude	Peak Speed	Peak Speed At	Average Speed	Peak Accel.	Peak Decel.	Average Accel.

Table Header for Blinks:
Event Type	Trial	Number	Start	End	Duration

Table Header for User Events:
Event Type	Trial	Number	Start	Description

UserEvent	1	1	6178083935	# Message: still-life_matisse_0.jpg
Fixation L	1	1	6178084578	6178243908	159330	941.92	548.30	64	33	-1	11.69	11.69
Fixation R	1	1	6178084578	6178243908	159330	941.92	548.30	64	33	-1	12.69	12.69
Saccade L	1	1	6178243908	6178263673	19765	966.60	541.75	964.02	524.99	0.18	17.15	1.00	9.19	215.97	-189.67	175.29
Saccade R	1	1	6178243908	6178263673	19765	966.60	541.75	964.02	524.99	0.18	17.15	1.00	9.19	215.97	-189.67	175.29
Fixation L	1	2	6178263673	6178761551	497878	952.75	538.26	17	30	-1	11.44	11.44
Fixation R	1	2	6178263673	6178761551	497878	952.75	538.26	17	30	-1	12.64	12.64
Saccade L	1	2	6178761551	6178781411	19860	949.80	544.41	797.85	519.97	0.90	155.65	1.00	45.10	3834.19	-3491.31	2601.02
Saccade R	1	2	6178761551	6178781411	19860	949.80	544.41	797.85	519.97	0.90	155.65	1.00	45.10	3834.19	-3491.31	2601.02
Fixation L	1	3	6178781411	6179199631	418220	770.24	530.42	32	20	-1	11.21	11.21
Fixation R	1	3	6178781411	6179199631	418220	770.24	530.42	32	20	-1	12.52	12.52
Saccade L	1	3	6179199631	6179239508	39877	766.53	531.50	982.51	534.11	1.85	125.21	0.50	46.47	2972.54	-3015.93	2635.26
Saccade R	1	3	6179199631	6179239508	39877	766.53	531.50	982.51	534.11	1.85	125.21	0.50	46.47	2972.54	-3015.93	2635.26
Fixation L	1	4	6179239508	6179578006	338498	990.07	525.37	61	26	-1	11.40	11.40
Fixation R	1	4	6179239508	6179578006	338498	990.07	525.37	61	26	-1	13.12	13.12
Saccade L	1	4	6179578006	6179597866	19860	1043.94	513.87	1085.59	532.22	0.57	54.70	0.00	28.57	1064.00	-1116.12	935.12
Saccade R	1	4	6179578006	6179597866	19860	1043.94	513.87	1085.59	532.22	0.57	54.70	0.00	28.57	1064.00	-1116.12	935.12
Fixation L	1	5	6179597866	6179976221	378355	1095.28	572.48	14	55	-1	12.10	12.10
Fixation R	1	5	6179597866	6179976221	378355	1095.28	572.48	14	55	-1	13.68	13.68
Saccade L	1	5	6179976221	6179996102	19881	1098.89	584.09	1166.24	580.45	0.54	68.22	1.00	27.09	1653.38	-1559.66	1334.29
Saccade R	1	5	6179976221	6179996102	19881	1098.89	584.09	1166.24	580.45	0.54	68.22	1.00	27.09	1653.38	-1559.66	1334.29
Fixation L	1	6	6179996102	6180633316	637214	1206.29	565.19	65	33	-1	12.53	12.53
Fixation R	1	6	6179996102	6180633316	637214	1206.29	565.19	65	33	-1	14.06	14.06
Saccade L	1	6	6180633316	6180653200	19884	1154.54	575.33	1151.36	576.46	0.11	10.64	1.00	5.77	35.15	-180.66	84.12
Saccade R	1	6	6180633316	6180653200	19884	1154.54	575.33	1151.36	576.46	0.11	10.64	1.00	5.77	35.15	-180.66	84.12
Fixation L	1	7	6180653200	6180792694	139494	1140.96	572.02	68	11	-1	12.55	12.55
Fixation R	1	7	6180653200	6180792694	139494	1140.96	572.02	68	11	-1	13.95	13.95
Saccade L	1	7	6180792694	6180812564	19870	1084.33	573.23	997.10	577.97	0.81	88.36	1.00	40.92	2060.13	-2094.50	1887.34
Saccade R	1	7	6180792694	6180812564	19870	1084.33	573.23	997.10	577.97	0.81	88.36	1.00	40.92	2060.13	-2094.50	1887.34
Fixation L	1	8	6180812564	6180971807	159243	1000.54	586.32	6	16	-1	12.66	12.66
Fixation R	1	8	6180812564	6180971807	159243	1000.54	586.32	6	16	-1	14.22	14.22
Saccade L	1	8	6180971807	6181011682	39875	1000.66	594.22	709.53	528.75	2.68	200.25	0.50	67.12	4769.05	-4655.66	3629.33
Saccade R	1	8	6180971807	6181011682	39875	1000.66	594.22	709.53	528.75	2.68	200.25	0.50	67.12	4769.05	-4655.66	3629.33
Fixation L	1	9	6181011682	6181469663	457981	709.19	524.95	64	27	-1	12.22	12.22
Fixation R	1	9	6181011682	6181469663	457981	709.19	524.95	64	27	-1	14.06	14.06
Saccade L	1	9	6181469663	6181489531	19868	764.42	516.76	916.75	523.40	1.16	154.21	1.00	58.31	3803.57	-3303.23	2818.61
Saccade R	1	9	6181469663	6181489531	19868	764.42	516.76	916.75	523.40	1.16	154.21	1.00	58.31	3803.57	-3303.23	2818.61
Fixation L	1	10	6181489531	6181887891	398360	917.85	559.68	23	63	-1	12.13	12.13
Fixation R	1	10	6181489531	6181887891	398360	917.85	559.68	23	63	-1	13.84	13.84
Saccade L	1	10	6181887891	6181927647	39756	907.69	584.49	1082.49	552.64	1.75	94.11	1.00	44.03	2298.81	-2099.69	1967.85
Saccade R	1	10	6181887891	6181927647	39756	907.69	584.49	1082.49	552.64	1.75	94.11	1.00	44.03	2298.81	-2099.69	1967.85
Fixation L	1	11	6181927647	6182067007	139360	1083.24	530.57	2	30	-1	12.52	12.52
Fixation R	1	11	6181927647	6182067007	139360	1083.24	530.57	2	30	-1	13.94	13.94
