[BeGaze]
Converted from:	C:\Documents and Settings\iViewX\Desktop\EXPERIMENTATIONS\Experiments\results\finaleart\S11H21112-finaleart-1.idf
Date:	27.03.2019 15:39:29
Version:	BeGaze 2.5.77
Sample Rate:	50
Subject:	S11H21112
Description:	Clement legrand-Duchenne

Table Header for Fixations:
Event Type	Trial	Number	Start	End	Duration	Location X	Location Y	Dispersion X	Dispersion Y	Plane	Avg. Pupil Size X	Avg. Pupil Size Y

Table Header for Saccades:
Event Type	Trial	Number	Start	End	Duration	Start Loc.X	Start Loc.Y	End Loc.X	End Loc.Y	Amplitude	Peak Speed	Peak Speed At	Average Speed	Peak Accel.	Peak Decel.	Average Accel.

Table Header for Blinks:
Event Type	Trial	Number	Start	End	Duration

Table Header for User Events:
Event Type	Trial	Number	Start	Description

UserEvent	1	1	5556165470	# Message: void.jpg
Saccade L	1	1	5556171595	5556211453	39858	1236.57	643.47	1380.09	550.95	1.85	160.99	1.00	46.45	4024.86	-3978.56	2003.95
Saccade R	1	1	5556171595	5556211453	39858	1236.57	643.47	1380.09	550.95	1.85	160.99	1.00	46.45	4024.86	-3978.56	2003.95
Fixation L	1	1	5556211453	5556689187	477734	1376.26	557.01	14	35	-1	12.92	12.92
Fixation R	1	1	5556211453	5556689187	477734	1376.26	557.01	14	35	-1	14.12	14.12
Saccade L	1	2	5556689187	5556768833	79646	1375.50	534.07	1389.94	388.15	18.45	1429.48	1.00	231.71	34685.20	-1242.47	8398.68
Saccade R	1	2	5556689187	5556768833	79646	1375.50	534.07	1389.94	388.15	18.45	1429.48	1.00	231.71	34685.20	-1242.47	8398.68
Blink L	1	1	5556768833	5556868306	99473
Blink R	1	1	5556768833	5556868306	99473
Blink L	1	2	5556888216	5557609651	721435
Blink R	1	2	5556888216	5557609651	721435
Fixation L	1	2	5557609651	5557768888	159237	951.17	579.72	8	33	-1	11.30	11.30
Fixation R	1	2	5557609651	5557768888	159237	951.17	579.72	8	33	-1	11.57	11.57
Blink L	1	3	5557768888	5557848510	79622
Blink R	1	3	5557768888	5557848510	79622
Fixation L	1	3	5557848510	5558166992	318482	962.29	563.21	18	57	-1	10.69	10.69
Fixation R	1	3	5557848510	5558166992	318482	962.29	563.21	18	57	-1	11.86	11.86
