[BeGaze]
Converted from:	C:\Documents and Settings\iViewX\Desktop\EXPERIMENTATIONS\Experiments\results\finaleart\S11H21112-finaleart-1.idf
Date:	27.03.2019 15:38:34
Version:	BeGaze 2.5.77
Sample Rate:	50
Subject:	S11H21112
Description:	Clement legrand-Duchenne

Table Header for Fixations:
Event Type	Trial	Number	Start	End	Duration	Location X	Location Y	Dispersion X	Dispersion Y	Plane	Avg. Pupil Size X	Avg. Pupil Size Y

Table Header for Saccades:
Event Type	Trial	Number	Start	End	Duration	Start Loc.X	Start Loc.Y	End Loc.X	End Loc.Y	Amplitude	Peak Speed	Peak Speed At	Average Speed	Peak Accel.	Peak Decel.	Average Accel.

Table Header for Blinks:
Event Type	Trial	Number	Start	End	Duration

Table Header for User Events:
Event Type	Trial	Number	Start	Description

UserEvent	1	1	3936424917	# Message: void.jpg
Saccade L	1	1	3936426959	3936466646	39687	1384.58	393.41	936.97	887.16	7.41	404.54	0.50	186.61	6725.65	-8291.26	5409.18
Saccade R	1	1	3936426959	3936466646	39687	1384.58	393.41	936.97	887.16	7.41	404.54	0.50	186.61	6725.65	-8291.26	5409.18
Fixation L	1	1	3936466646	3937242366	775720	935.11	947.57	8	76	-1	16.17	16.17
Fixation R	1	1	3936466646	3937242366	775720	935.11	947.57	8	76	-1	18.37	18.37
Saccade L	1	2	3937242366	3937282243	39877	934.26	957.39	805.81	877.31	1.58	107.25	0.50	39.53	2619.15	-2247.49	2031.35
Saccade R	1	2	3937242366	3937282243	39877	934.26	957.39	805.81	877.31	1.58	107.25	0.50	39.53	2619.15	-2247.49	2031.35
Fixation L	1	2	3937282243	3937739594	457351	789.86	839.06	20	49	-1	16.47	16.47
Fixation R	1	2	3937282243	3937739594	457351	789.86	839.06	20	49	-1	18.57	18.57
Saccade L	1	3	3937739594	3937759597	20003	788.13	836.96	711.76	825.28	0.62	78.15	1.00	30.88	1797.63	-1766.77	1448.09
Saccade R	1	3	3937739594	3937759597	20003	788.13	836.96	711.76	825.28	0.62	78.15	1.00	30.88	1797.63	-1766.77	1448.09
Fixation L	1	3	3937759597	3938018088	258491	675.58	798.28	42	35	-1	16.85	16.85
Fixation R	1	3	3937759597	3938018088	258491	675.58	798.28	42	35	-1	19.43	19.43
Saccade L	1	4	3938018088	3938077825	59737	670.37	801.87	306.65	846.44	3.96	185.27	0.67	66.33	4422.33	-4346.89	2662.85
Saccade R	1	4	3938018088	3938077825	59737	670.37	801.87	306.65	846.44	3.96	185.27	0.67	66.33	4422.33	-4346.89	2662.85
Fixation L	1	4	3938077825	3938296573	218748	305.01	856.58	53	32	-1	17.08	17.08
Fixation R	1	4	3938077825	3938296573	218748	305.01	856.58	53	32	-1	19.92	19.92
Saccade L	1	5	3938296573	3938316455	19882	259.69	869.34	131.53	871.18	1.02	129.64	1.00	51.12	3199.54	-3128.12	2402.49
Saccade R	1	5	3938296573	3938316455	19882	259.69	869.34	131.53	871.18	1.02	129.64	1.00	51.12	3199.54	-3128.12	2402.49
Fixation L	1	5	3938316455	3938415934	99479	120.20	877.51	22	14	-1	17.04	17.04
Fixation R	1	5	3938316455	3938415934	99479	120.20	877.51	22	14	-1	19.66	19.66
