[BeGaze]
Converted from:	C:\Documents and Settings\iViewX\Desktop\EXPERIMENTATIONS\Experiments\results\finaleart\S11H21112-finaleart-1.idf
Date:	27.03.2019 15:39:37
Version:	BeGaze 2.5.77
Sample Rate:	50
Subject:	S11H21112
Description:	Clement legrand-Duchenne

Table Header for Fixations:
Event Type	Trial	Number	Start	End	Duration	Location X	Location Y	Dispersion X	Dispersion Y	Plane	Avg. Pupil Size X	Avg. Pupil Size Y

Table Header for Saccades:
Event Type	Trial	Number	Start	End	Duration	Start Loc.X	Start Loc.Y	End Loc.X	End Loc.Y	Amplitude	Peak Speed	Peak Speed At	Average Speed	Peak Accel.	Peak Decel.	Average Accel.

Table Header for Blinks:
Event Type	Trial	Number	Start	End	Duration

Table Header for User Events:
Event Type	Trial	Number	Start	Description

UserEvent	1	1	6086575352	# Message: chase-a-study-in-curves-1890.jpg
Fixation L	1	1	6086594812	6086753928	159116	994.17	379.63	14	35	-1	16.38	16.38
Fixation R	1	1	6086594812	6086753928	159116	994.17	379.63	14	35	-1	18.30	18.30
Saccade L	1	1	6086753928	6086773810	19882	983.52	392.23	923.32	387.23	0.52	61.10	1.00	25.94	1088.25	-1144.81	911.96
Saccade R	1	1	6086753928	6086773810	19882	983.52	392.23	923.32	387.23	0.52	61.10	1.00	25.94	1088.25	-1144.81	911.96
Fixation L	1	2	6086773810	6087032530	258720	909.57	398.53	19	33	-1	16.49	16.49
Fixation R	1	2	6086773810	6087032530	258720	909.57	398.53	19	33	-1	18.45	18.45
Saccade L	1	2	6087032530	6087072278	39748	909.43	410.38	752.41	582.63	2.11	166.25	1.00	53.00	3843.26	-3943.59	2767.87
Saccade R	1	2	6087032530	6087072278	39748	909.43	410.38	752.41	582.63	2.11	166.25	1.00	53.00	3843.26	-3943.59	2767.87
Fixation L	1	3	6087072278	6087370777	298499	750.49	575.06	17	28	-1	17.04	17.04
Fixation R	1	3	6087072278	6087370777	298499	750.49	575.06	17	28	-1	18.82	18.82
Saccade L	1	3	6087370777	6087390642	19865	742.88	556.98	629.31	559.44	1.01	114.91	1.00	50.80	2639.50	-2807.49	2464.17
Saccade R	1	3	6087370777	6087390642	19865	742.88	556.98	629.31	559.44	1.01	114.91	1.00	50.80	2639.50	-2807.49	2464.17
Fixation L	1	4	6087390642	6087530011	139369	572.43	562.69	77	8	-1	16.43	16.43
Fixation R	1	4	6087390642	6087530011	139369	572.43	562.69	77	8	-1	18.37	18.37
Saccade L	1	4	6087530011	6087629507	99496	568.21	566.91	327.44	611.48	4.25	229.78	1.00	42.72	5367.95	-5609.90	1663.79
Saccade R	1	4	6087530011	6087629507	99496	568.21	566.91	327.44	611.48	4.25	229.78	1.00	42.72	5367.95	-5609.90	1663.79
Fixation L	1	5	6087629507	6088146859	517352	338.35	644.84	38	51	-1	15.28	15.28
Fixation R	1	5	6087629507	6088146859	517352	338.35	644.84	38	51	-1	16.92	16.92
Saccade L	1	5	6088146859	6088186615	39756	362.89	663.23	549.25	500.95	2.16	228.74	1.00	54.34	5599.54	-5269.75	2887.40
Saccade R	1	5	6088146859	6088186615	39756	362.89	663.23	549.25	500.95	2.16	228.74	1.00	54.34	5599.54	-5269.75	2887.40
Fixation L	1	6	6088186615	6088703979	517364	554.09	509.20	36	46	-1	13.89	13.89
Fixation R	1	6	6088186615	6088703979	517364	554.09	509.20	36	46	-1	16.06	16.06
Saccade L	1	6	6088703979	6088743710	39731	565.18	489.47	513.93	628.47	1.81	120.99	0.50	45.56	2765.59	-1866.31	1634.81
Saccade R	1	6	6088703979	6088743710	39731	565.18	489.47	513.93	628.47	1.81	120.99	0.50	45.56	2765.59	-1866.31	1634.81
Fixation L	1	7	6088743710	6089101947	358237	500.47	681.80	17	73	-1	14.15	14.15
Fixation R	1	7	6088743710	6089101947	358237	500.47	681.80	17	73	-1	15.67	15.67
Saccade L	1	7	6089101947	6089121819	19872	499.95	633.78	538.99	503.10	1.03	137.94	1.00	52.00	3296.23	-3244.80	2419.20
Saccade R	1	7	6089101947	6089121819	19872	499.95	633.78	538.99	503.10	1.03	137.94	1.00	52.00	3296.23	-3244.80	2419.20
Fixation L	1	8	6089121819	6089340689	218870	565.54	489.11	40	24	-1	13.54	13.54
Fixation R	1	8	6089121819	6089340689	218870	565.54	489.11	40	24	-1	15.29	15.29
Saccade L	1	8	6089340689	6089380554	39865	579.93	481.35	960.00	503.65	3.27	274.66	0.50	82.07	6752.86	-6655.21	4616.78
Saccade R	1	8	6089340689	6089380554	39865	579.93	481.35	960.00	503.65	3.27	274.66	0.50	82.07	6752.86	-6655.21	4616.78
Fixation L	1	9	6089380554	6089659047	278493	952.84	514.72	13	43	-1	13.66	13.66
Fixation R	1	9	6089380554	6089659047	278493	952.84	514.72	13	43	-1	15.01	15.01
Saccade L	1	9	6089659047	6089678919	19872	951.22	531.67	986.97	623.54	0.79	99.72	1.00	40.00	2450.24	-2034.46	1869.44
Saccade R	1	9	6089659047	6089678919	19872	951.22	531.67	986.97	623.54	0.79	99.72	1.00	40.00	2450.24	-2034.46	1869.44
Fixation L	1	10	6089678919	6090236148	557229	1019.55	663.43	41	57	-1	14.05	14.05
Fixation R	1	10	6089678919	6090236148	557229	1019.55	663.43	41	57	-1	15.07	15.07
Saccade L	1	10	6090236148	6090256021	19873	1013.37	651.98	1000.20	679.91	0.27	31.24	1.00	13.50	628.78	-113.23	260.34
Saccade R	1	10	6090236148	6090256021	19873	1013.37	651.98	1000.20	679.91	0.27	31.24	1.00	13.50	628.78	-113.23	260.34
Fixation L	1	11	6090256021	6090534627	278606	987.88	669.82	55	36	-1	14.11	14.11
Fixation R	1	11	6090256021	6090534627	278606	987.88	669.82	55	36	-1	14.94	14.94
Saccade L	1	11	6090534627	6090574381	39754	1031.74	655.11	1364.01	467.37	4.46	286.98	0.50	112.20	7080.53	0.00	2694.26
Saccade R	1	11	6090534627	6090574381	39754	1031.74	655.11	1364.01	467.37	4.46	286.98	0.50	112.20	7080.53	0.00	2694.26
