[BeGaze]
Converted from:	C:\Documents and Settings\iViewX\Desktop\EXPERIMENTATIONS\Experiments\results\finaleart\S11H21112-finaleart-1.idf
Date:	27.03.2019 15:39:29
Version:	BeGaze 2.5.77
Sample Rate:	50
Subject:	S11H21112
Description:	Clement legrand-Duchenne

Table Header for Fixations:
Event Type	Trial	Number	Start	End	Duration	Location X	Location Y	Dispersion X	Dispersion Y	Plane	Avg. Pupil Size X	Avg. Pupil Size Y

Table Header for Saccades:
Event Type	Trial	Number	Start	End	Duration	Start Loc.X	Start Loc.Y	End Loc.X	End Loc.Y	Amplitude	Peak Speed	Peak Speed At	Average Speed	Peak Accel.	Peak Decel.	Average Accel.

Table Header for Blinks:
Event Type	Trial	Number	Start	End	Duration

Table Header for User Events:
Event Type	Trial	Number	Start	Description

UserEvent	1	1	5550072903	# Message: void.jpg
Fixation L	1	1	5550081365	5550200858	119493	1097.72	850.30	6	27	-1	10.34	10.34
Fixation R	1	1	5550081365	5550200858	119493	1097.72	850.30	6	27	-1	11.59	11.59
Saccade L	1	1	5550200858	5550240601	39743	1099.87	837.35	1345.89	934.81	2.21	144.69	1.00	55.53	3520.02	-3409.95	3265.00
Saccade R	1	1	5550200858	5550240601	39743	1099.87	837.35	1345.89	934.81	2.21	144.69	1.00	55.53	3520.02	-3409.95	3265.00
Fixation L	1	2	5550240601	5550558960	318359	1347.42	946.58	2	20	-1	10.37	10.37
Fixation R	1	2	5550240601	5550558960	318359	1347.42	946.58	2	20	-1	11.49	11.49
Blink L	1	1	5550558960	5550976832	417872
Blink R	1	1	5550558960	5550976832	417872
Fixation L	1	3	5550976832	5551096183	119351	1407.66	332.14	22	39	-1	10.50	10.50
Fixation R	1	3	5550976832	5551096183	119351	1407.66	332.14	22	39	-1	11.81	11.81
Blink L	1	2	5551096183	5551454420	358237
Blink R	1	2	5551096183	5551454420	358237
Saccade L	1	2	5551454420	5551494164	39744	1924.01	-14.12	0.00	3.24	18.69	2010.98	1.00	470.14	49807.19	-50272.37	26061.09
Saccade R	1	2	5551454420	5551494164	39744	1924.01	-14.12	0.00	3.24	18.69	2010.98	1.00	470.14	49807.19	-50272.37	26061.09
Fixation L	1	4	5551494164	5551693285	199121	0.00	2.13	0	3	-1	10.45	10.45
Fixation R	1	4	5551494164	5551693285	199121	0.00	2.13	0	3	-1	13.35	13.35
Blink L	1	3	5551693285	5551852398	159113
Blink R	1	3	5551693285	5551852398	159113
Saccade L	1	3	5551852398	5551892145	39747	1027.77	422.82	1024.86	423.59	2.20	125.20	1.00	55.39	899.39	-2807.36	1318.88
Saccade R	1	3	5551852398	5551892145	39747	1027.77	422.82	1024.86	423.59	2.20	125.20	1.00	55.39	899.39	-2807.36	1318.88
Fixation R	1	5	5551892145	5551991646	99501	979.37	448.78	64	33	-1	13.37	13.37
Fixation L	1	5	5551932025	5552071265	139240	954.80	457.87	65	19	-1	11.80	11.80
Saccade R	1	4	5551991646	5552071265	79619	968.22	451.32	909.74	467.57	1.39	41.77	0.75	17.44	723.69	0.00	264.97
