[BeGaze]
Converted from:	C:\Documents and Settings\iViewX\Desktop\EXPERIMENTATIONS\Experiments\results\finaleart\S11H21112-finaleart-1.idf
Date:	27.03.2019 15:39:13
Version:	BeGaze 2.5.77
Sample Rate:	50
Subject:	S11H21112
Description:	Clement legrand-Duchenne

Table Header for Fixations:
Event Type	Trial	Number	Start	End	Duration	Location X	Location Y	Dispersion X	Dispersion Y	Plane	Avg. Pupil Size X	Avg. Pupil Size Y

Table Header for Saccades:
Event Type	Trial	Number	Start	End	Duration	Start Loc.X	Start Loc.Y	End Loc.X	End Loc.Y	Amplitude	Peak Speed	Peak Speed At	Average Speed	Peak Accel.	Peak Decel.	Average Accel.

Table Header for Blinks:
Event Type	Trial	Number	Start	End	Duration

Table Header for User Events:
Event Type	Trial	Number	Start	Description

UserEvent	1	1	5248477055	# Message: void.jpg
Fixation L	1	1	5248478790	5248956135	477345	552.14	343.78	14	42	-1	10.75	10.75
Fixation R	1	1	5248478790	5248956135	477345	552.14	343.78	14	42	-1	13.20	13.20
Blink L	1	1	5248956135	5249413614	457479
Blink R	1	1	5248956135	5249413614	457479
Saccade L	1	1	5249413614	5249592604	178990	1599.07	219.17	1697.43	257.85	14.47	334.34	1.00	80.84	2436.43	-7889.61	1780.50
Saccade R	1	1	5249413614	5249592604	178990	1599.07	219.17	1697.43	257.85	14.47	334.34	1.00	80.84	2436.43	-7889.61	1780.50
Fixation L	1	2	5249592604	5249751730	159126	1681.59	289.05	54	44	-1	11.61	11.61
Fixation R	1	2	5249592604	5249751730	159126	1681.59	289.05	54	44	-1	14.06	14.06
Saccade L	1	2	5249751730	5249771601	19871	1676.95	298.58	1678.45	316.72	0.25	18.72	1.00	12.36	216.30	-193.89	139.24
Saccade R	1	2	5249751730	5249771601	19871	1676.95	298.58	1678.45	316.72	0.25	18.72	1.00	12.36	216.30	-193.89	139.24
Fixation L	1	3	5249771601	5250308576	536975	1669.11	294.71	40	55	-1	11.45	11.45
Fixation R	1	3	5249771601	5250308576	536975	1669.11	294.71	40	55	-1	13.73	13.73
Saccade L	1	3	5250308576	5250328468	19892	1647.13	321.68	1648.06	330.89	0.24	22.87	1.00	11.88	469.30	-195.58	236.83
Saccade R	1	3	5250308576	5250328468	19892	1647.13	321.68	1648.06	330.89	0.24	22.87	1.00	11.88	469.30	-195.58	236.83
Fixation L	1	4	5250328468	5250467696	139228	1648.95	307.44	12	70	-1	11.69	11.69
Fixation R	1	4	5250328468	5250467696	139228	1648.95	307.44	12	70	-1	13.51	13.51
