[BeGaze]
Converted from:	C:\Documents and Settings\iViewX\Desktop\EXPERIMENTATIONS\Experiments\results\finaleart\S11H21112-finaleart-1.idf
Date:	27.03.2019 15:38:49
Version:	BeGaze 2.5.77
Sample Rate:	50
Subject:	S11H21112
Description:	Clement legrand-Duchenne

Table Header for Fixations:
Event Type	Trial	Number	Start	End	Duration	Location X	Location Y	Dispersion X	Dispersion Y	Plane	Avg. Pupil Size X	Avg. Pupil Size Y

Table Header for Saccades:
Event Type	Trial	Number	Start	End	Duration	Start Loc.X	Start Loc.Y	End Loc.X	End Loc.Y	Amplitude	Peak Speed	Peak Speed At	Average Speed	Peak Accel.	Peak Decel.	Average Accel.

Table Header for Blinks:
Event Type	Trial	Number	Start	End	Duration

Table Header for User Events:
Event Type	Trial	Number	Start	Description

UserEvent	1	1	4294099827	# Message: void.jpg
Fixation L	1	1	4294103026	4294222397	119371	1065.19	886.85	1	6	-1	14.05	14.05
Fixation R	1	1	4294103026	4294222397	119371	1065.19	886.85	1	6	-1	15.54	15.54
Saccade L	1	1	4294222397	4294262306	39909	1065.03	888.56	945.76	612.17	2.77	193.85	1.00	69.46	4825.18	-4665.57	3922.59
Saccade R	1	1	4294222397	4294262306	39909	1065.03	888.56	945.76	612.17	2.77	193.85	1.00	69.46	4825.18	-4665.57	3922.59
Fixation L	1	2	4294262306	4294679846	417540	926.93	619.26	23	32	-1	14.17	14.17
Fixation R	1	2	4294262306	4294679846	417540	926.93	619.26	23	32	-1	15.92	15.92
Blink L	1	1	4294679846	4294838970	159124
Blink R	1	1	4294679846	4294838970	159124
Saccade L	1	2	4294838970	4294858873	19903	1275.97	18.11	1219.33	114.07	2.87	434.61	1.00	144.11	661.22	-8047.51	3787.72
Saccade R	1	2	4294838970	4294858873	19903	1275.97	18.11	1219.33	114.07	2.87	434.61	1.00	144.11	661.22	-8047.51	3787.72
Fixation L	1	3	4294858873	4294998083	139210	1207.52	154.62	21	63	-1	14.54	14.54
Fixation R	1	3	4294858873	4294998083	139210	1207.52	154.62	21	63	-1	16.91	16.91
Saccade L	1	3	4294998083	4295017964	19881	1198.02	177.87	1186.30	185.42	0.28	26.39	1.00	14.22	378.01	147.95	250.27
Saccade R	1	3	4294998083	4295017964	19881	1198.02	177.87	1186.30	185.42	0.28	26.39	1.00	14.22	378.01	147.95	250.27
Fixation L	1	4	4295017964	4295216953	198989	1168.17	204.08	32	30	-1	13.84	13.84
Fixation R	1	4	4295017964	4295216953	198989	1168.17	204.08	32	30	-1	16.56	16.56
Saccade L	1	4	4295216953	4295236826	19873	1154.27	215.72	1050.34	234.48	0.84	106.83	1.00	42.08	2503.49	-2262.95	2015.34
Saccade R	1	4	4295216953	4295236826	19873	1154.27	215.72	1050.34	234.48	0.84	106.83	1.00	42.08	2503.49	-2262.95	2015.34
Fixation L	1	5	4295236826	4295395947	159121	1008.08	251.89	52	35	-1	13.44	13.44
Fixation R	1	5	4295236826	4295395947	159121	1008.08	251.89	52	35	-1	16.34	16.34
Saccade L	1	5	4295395947	4295674313	278366	998.92	258.47	1.89	0.13	25.31	390.50	0.21	90.93	8041.34	-6716.53	2610.95
Saccade R	1	5	4295395947	4295674313	278366	998.92	258.47	1.89	0.13	25.31	390.50	0.21	90.93	8041.34	-6716.53	2610.95
Blink L	1	2	4295873298	4296052180	178882
Blink R	1	2	4295873298	4296052180	178882
Saccade L	1	6	4296052180	4296092039	39859	514.04	105.94	519.89	110.60	0.93	45.74	1.00	23.42	96.92	-639.51	245.48
Saccade R	1	6	4296052180	4296092039	39859	514.04	105.94	519.89	110.60	0.93	45.74	1.00	23.42	96.92	-639.51	245.48
