[BeGaze]
Converted from:	C:\Documents and Settings\iViewX\Desktop\EXPERIMENTATIONS\Experiments\results\finaleart\S11H21112-finaleart-1.idf
Date:	27.03.2019 15:39:21
Version:	BeGaze 2.5.77
Sample Rate:	50
Subject:	S11H21112
Description:	Clement legrand-Duchenne

Table Header for Fixations:
Event Type	Trial	Number	Start	End	Duration	Location X	Location Y	Dispersion X	Dispersion Y	Plane	Avg. Pupil Size X	Avg. Pupil Size Y

Table Header for Saccades:
Event Type	Trial	Number	Start	End	Duration	Start Loc.X	Start Loc.Y	End Loc.X	End Loc.Y	Amplitude	Peak Speed	Peak Speed At	Average Speed	Peak Accel.	Peak Decel.	Average Accel.

Table Header for Blinks:
Event Type	Trial	Number	Start	End	Duration

Table Header for User Events:
Event Type	Trial	Number	Start	Description

UserEvent	1	1	5342076625	# Message: nasturtiums-dahlias-in-a-basket_gauguin_1884.jpg
Saccade L	1	1	5342094195	5342114057	19862	956.05	245.48	963.53	238.22	0.61	81.51	1.00	30.69	2037.70	0.00	1235.91
Saccade R	1	1	5342094195	5342114057	19862	956.05	245.48	963.53	238.22	0.61	81.51	1.00	30.69	2037.70	0.00	1235.91
Fixation L	1	1	5342114057	5342253437	139380	949.92	217.35	19	79	-1	11.30	11.30
Fixation R	1	1	5342114057	5342253437	139380	949.92	217.35	19	79	-1	12.79	12.79
Saccade L	1	2	5342253437	5342273305	19868	943.83	226.70	943.06	224.82	0.06	6.03	1.00	3.11	773.99	-4.94	292.26
Saccade R	1	2	5342253437	5342273305	19868	943.83	226.70	943.06	224.82	0.06	6.03	1.00	3.11	773.99	-4.94	292.26
Fixation L	1	2	5342273305	5342432548	159243	960.69	266.00	31	68	-1	11.05	11.05
Fixation R	1	2	5342273305	5342432548	159243	960.69	266.00	31	68	-1	12.78	12.78
Saccade L	1	3	5342432548	5342512173	79625	974.35	273.90	974.67	452.30	2.74	132.44	1.00	34.37	3094.38	-2947.13	1240.32
Saccade R	1	3	5342432548	5342512173	79625	974.35	273.90	974.67	452.30	2.74	132.44	1.00	34.37	3094.38	-2947.13	1240.32
Fixation L	1	3	5342512173	5342751039	238866	948.05	440.55	64	22	-1	11.56	11.56
Fixation R	1	3	5342512173	5342751039	238866	948.05	440.55	64	22	-1	13.28	13.28
Saccade L	1	4	5342751039	5342770921	19882	910.00	441.93	867.50	453.38	0.41	44.53	1.00	20.79	1095.11	-843.13	915.67
Saccade R	1	4	5342751039	5342770921	19882	910.00	441.93	867.50	453.38	0.41	44.53	1.00	20.79	1095.11	-843.13	915.67
Fixation L	1	4	5342770921	5343288386	517465	869.10	472.93	32	63	-1	11.67	11.67
Fixation R	1	4	5342770921	5343288386	517465	869.10	472.93	32	63	-1	13.25	13.25
Saccade L	1	5	5343288386	5343308262	19876	890.35	507.52	897.44	512.00	0.15	10.22	1.00	7.35	49.67	-43.37	44.57
Saccade R	1	5	5343288386	5343308262	19876	890.35	507.52	897.44	512.00	0.15	10.22	1.00	7.35	49.67	-43.37	44.57
Fixation L	1	5	5343308262	5344044728	736466	913.44	511.17	31	24	-1	12.09	12.09
Fixation R	1	5	5343308262	5344044728	736466	913.44	511.17	31	24	-1	14.01	14.01
Saccade L	1	6	5344044728	5344064608	19880	923.63	513.20	986.25	520.94	0.47	63.83	1.00	23.50	1572.58	-1207.02	1022.00
Saccade R	1	6	5344044728	5344064608	19880	923.63	513.20	986.25	520.94	0.47	63.83	1.00	23.50	1572.58	-1207.02	1022.00
Fixation L	1	6	5344064608	5344223851	159243	1001.80	552.08	22	65	-1	13.06	13.06
Fixation R	1	6	5344064608	5344223851	159243	1001.80	552.08	22	65	-1	15.21	15.21
Saccade L	1	7	5344223851	5344243844	19993	1008.50	586.20	1122.25	641.68	1.02	128.01	1.00	50.89	2797.88	-3148.02	2164.73
Saccade R	1	7	5344223851	5344243844	19993	1008.50	586.20	1122.25	641.68	1.02	128.01	1.00	50.89	2797.88	-3148.02	2164.73
Fixation L	1	7	5344243844	5344641834	397990	1123.10	636.67	11	31	-1	13.92	13.92
Fixation R	1	7	5344243844	5344641834	397990	1123.10	636.67	11	31	-1	15.48	15.48
Saccade L	1	8	5344641834	5344701588	59754	1117.03	634.58	544.06	211.55	7.79	363.15	0.33	130.38	9035.96	-6808.78	6004.12
Saccade R	1	8	5344641834	5344701588	59754	1117.03	634.58	544.06	211.55	7.79	363.15	0.33	130.38	9035.96	-6808.78	6004.12
Fixation L	1	8	5344701588	5344860821	159233	570.57	209.50	40	48	-1	13.12	13.12
Fixation R	1	8	5344701588	5344860821	159233	570.57	209.50	40	48	-1	15.52	15.52
Saccade L	1	9	5344860821	5344900567	39746	580.77	233.26	405.30	52.41	2.64	174.87	1.00	66.51	3979.14	-3919.53	3054.06
Saccade R	1	9	5344860821	5344900567	39746	580.77	233.26	405.30	52.41	2.64	174.87	1.00	66.51	3979.14	-3919.53	3054.06
Fixation L	1	9	5344900567	5345000188	99621	426.63	61.05	33	32	-1	13.28	13.28
Fixation R	1	9	5344900567	5345000188	99621	426.63	61.05	33	32	-1	15.29	15.29
Saccade L	1	10	5345000188	5345159431	159243	438.78	76.46	376.57	236.05	7.38	156.19	0.75	46.32	3326.07	-2778.92	1267.67
Saccade R	1	10	5345000188	5345159431	159243	438.78	76.46	376.57	236.05	7.38	156.19	0.75	46.32	3326.07	-2778.92	1267.67
Fixation L	1	10	5345159431	5345298673	139242	369.23	234.74	44	44	-1	12.24	12.24
Fixation R	1	10	5345159431	5345298673	139242	369.23	234.74	44	44	-1	14.93	14.93
Saccade L	1	11	5345298673	5345318554	19881	361.65	232.42	348.04	201.68	0.56	38.58	1.00	28.33	-114.05	-771.35	338.39
Saccade R	1	11	5345298673	5345318554	19881	361.65	232.42	348.04	201.68	0.56	38.58	1.00	28.33	-114.05	-771.35	338.39
Fixation L	1	11	5345318554	5345537538	218984	351.81	208.26	36	44	-1	11.63	11.63
Fixation R	1	11	5345318554	5345537538	218984	351.81	208.26	36	44	-1	14.62	14.62
Saccade L	1	12	5345537538	5345557410	19872	327.27	201.20	306.42	173.85	0.48	36.46	1.00	24.02	641.55	-226.98	462.36
Saccade R	1	12	5345537538	5345557410	19872	327.27	201.20	306.42	173.85	0.48	36.46	1.00	24.02	641.55	-226.98	462.36
Fixation L	1	12	5345557410	5345736670	179260	320.33	196.82	24	38	-1	11.73	11.73
Fixation R	1	12	5345557410	5345736670	179260	320.33	196.82	24	38	-1	14.35	14.35
Saccade L	1	13	5345736670	5345816284	79614	316.10	189.67	1011.59	801.04	11.74	324.67	0.50	147.47	7624.18	-5510.28	4469.61
Saccade R	1	13	5345736670	5345816284	79614	316.10	189.67	1011.59	801.04	11.74	324.67	0.50	147.47	7624.18	-5510.28	4469.61
Fixation L	1	13	5345816284	5346075015	258731	1018.40	807.85	12	48	-1	12.91	12.91
Fixation R	1	13	5345816284	5346075015	258731	1018.40	807.85	12	48	-1	15.00	15.00
