[BeGaze]
Converted from:	C:\Documents and Settings\iViewX\Desktop\EXPERIMENTATIONS\Experiments\results\finaleart\S11H21112-finaleart-1.idf
Date:	27.03.2019 15:38:56
Version:	BeGaze 2.5.77
Sample Rate:	50
Subject:	S11H21112
Description:	Clement legrand-Duchenne

Table Header for Fixations:
Event Type	Trial	Number	Start	End	Duration	Location X	Location Y	Dispersion X	Dispersion Y	Plane	Avg. Pupil Size X	Avg. Pupil Size Y

Table Header for Saccades:
Event Type	Trial	Number	Start	End	Duration	Start Loc.X	Start Loc.Y	End Loc.X	End Loc.Y	Amplitude	Peak Speed	Peak Speed At	Average Speed	Peak Accel.	Peak Decel.	Average Accel.

Table Header for Blinks:
Event Type	Trial	Number	Start	End	Duration

Table Header for User Events:
Event Type	Trial	Number	Start	Description

UserEvent	1	1	4381632910	# Message: flowers-and-fruit-a-melon_fantin-latour_1865.jpg
Fixation L	1	1	4381639441	4381738798	99357	128.09	790.74	33	30	-1	10.84	10.84
Fixation R	1	1	4381639441	4381738798	99357	128.09	790.74	33	30	-1	15.22	15.22
Saccade L	1	1	4381738798	4381758817	20019	105.17	802.01	49.36	820.04	0.61	59.33	1.00	30.32	1165.72	-660.08	791.77
Saccade R	1	1	4381738798	4381758817	20019	105.17	802.01	49.36	820.04	0.61	59.33	1.00	30.32	1165.72	-660.08	791.77
Fixation L	1	2	4381758817	4381977543	218726	28.34	854.89	38	60	-1	10.74	10.74
Fixation R	1	2	4381758817	4381977543	218726	28.34	854.89	38	60	-1	15.30	15.30
Blink L	1	1	4381977543	4382116780	139237
Saccade R	1	2	4381977543	4382077034	99491	12.09	876.78	777.05	832.13	11.42	398.40	0.60	114.80	8547.66	-8196.49	4396.38
Fixation R	1	3	4382077034	4382355398	278364	787.16	792.32	12	45	-1	15.59	15.59
Fixation L	1	3	4382116780	4382355398	238618	788.25	789.45	3	9	-1	14.02	14.02
Saccade L	1	2	4382355398	4382395269	39871	788.90	787.24	514.75	686.25	2.47	163.17	0.50	61.91	4041.52	-4046.44	3784.05
Saccade R	1	3	4382355398	4382395269	39871	788.90	787.24	514.75	686.25	2.47	163.17	0.50	61.91	4041.52	-4046.44	3784.05
Fixation L	1	4	4382395269	4382932248	536979	512.49	676.88	44	31	-1	13.72	13.72
Fixation R	1	4	4382395269	4382932248	536979	512.49	676.88	44	31	-1	14.84	14.84
Saccade L	1	3	4382932248	4382971993	39745	486.49	656.54	900.15	553.08	3.86	254.74	1.00	97.03	6064.78	-6172.64	5060.90
Saccade R	1	4	4382932248	4382971993	39745	486.49	656.54	900.15	553.08	3.86	254.74	1.00	97.03	6064.78	-6172.64	5060.90
Fixation L	1	5	4382971993	4383150985	178992	933.85	532.03	42	29	-1	13.87	13.87
Fixation R	1	5	4382971993	4383150985	178992	933.85	532.03	42	29	-1	14.63	14.63
Saccade L	1	4	4383150985	4383190857	39872	943.13	526.80	586.41	610.76	3.56	231.36	1.00	89.36	5552.95	-5551.54	4115.34
Saccade R	1	5	4383150985	4383190857	39872	943.13	526.80	586.41	610.76	3.56	231.36	1.00	89.36	5552.95	-5551.54	4115.34
Fixation L	1	6	4383190857	4383528965	338108	527.49	622.34	71	28	-1	13.69	13.69
Fixation R	1	6	4383190857	4383528965	338108	527.49	622.34	71	28	-1	15.04	15.04
Saccade L	1	5	4383528965	4383668209	139244	515.14	634.13	897.27	781.23	6.41	298.88	1.00	46.00	7387.05	-7260.98	2286.41
Saccade R	1	6	4383528965	4383668209	139244	515.14	634.13	897.27	781.23	6.41	298.88	1.00	46.00	7387.05	-7260.98	2286.41
Fixation L	1	7	4383668209	4383926699	258490	923.22	775.45	72	21	-1	14.35	14.35
Fixation R	1	7	4383668209	4383926699	258490	923.22	775.45	72	21	-1	15.37	15.37
Saccade L	1	6	4383926699	4383946691	19992	969.52	779.14	976.34	786.88	0.29	39.90	1.00	14.33	-78.45	-736.53	325.89
Saccade R	1	7	4383926699	4383946691	19992	969.52	779.14	976.34	786.88	0.29	39.90	1.00	14.33	-78.45	-736.53	325.89
Fixation L	1	8	4383946691	4384145566	198875	979.52	787.83	9	13	-1	14.12	14.12
Fixation R	1	8	4383946691	4384145566	198875	979.52	787.83	9	13	-1	15.58	15.58
Saccade L	1	7	4384145566	4384165435	19869	973.20	794.61	854.86	806.13	0.73	120.26	1.00	36.67	2940.37	-2731.11	1891.45
Saccade R	1	8	4384145566	4384165435	19869	973.20	794.61	854.86	806.13	0.73	120.26	1.00	36.67	2940.37	-2731.11	1891.45
Fixation L	1	9	4384165435	4384563298	397863	847.46	790.87	13	24	-1	14.59	14.59
Fixation R	1	9	4384165435	4384563298	397863	847.46	790.87	13	24	-1	16.00	16.00
Saccade L	1	8	4384563298	4384603041	39743	850.02	782.59	1067.86	549.95	2.72	184.55	0.50	68.48	4539.54	-4430.43	3821.20
Saccade R	1	9	4384563298	4384603041	39743	850.02	782.59	1067.86	549.95	2.72	184.55	0.50	68.48	4539.54	-4430.43	3821.20
Fixation L	1	10	4384603041	4384801905	198864	1066.89	570.27	7	27	-1	14.73	14.73
Fixation R	1	10	4384603041	4384801905	198864	1066.89	570.27	7	27	-1	15.27	15.27
Saccade L	1	9	4384801905	4384821787	19882	1070.07	576.75	1080.21	486.85	0.51	91.52	1.00	25.51	2154.00	-2223.89	1483.82
Saccade R	1	10	4384801905	4384821787	19882	1070.07	576.75	1080.21	486.85	0.51	91.52	1.00	25.51	2154.00	-2223.89	1483.82
Fixation L	1	11	4384821787	4385219645	397858	1093.81	500.02	22	33	-1	14.50	14.50
Fixation R	1	11	4384821787	4385219645	397858	1093.81	500.02	22	33	-1	15.19	15.19
Saccade L	1	10	4385219645	4385259418	39773	1097.20	520.76	1330.94	778.79	3.33	222.57	0.50	83.75	5520.56	-4158.97	3875.88
Saccade R	1	11	4385219645	4385259418	39773	1097.20	520.76	1330.94	778.79	3.33	222.57	0.50	83.75	5520.56	-4158.97	3875.88
Fixation L	1	12	4385259418	4385537879	278461	1333.28	808.08	4	55	-1	14.67	14.67
Fixation R	1	12	4385259418	4385537879	278461	1333.28	808.08	4	55	-1	15.11	15.11
Saccade L	1	11	4385537879	4385617382	79503	1334.95	808.11	1337.15	878.56	1.93	88.45	0.25	24.27	2177.77	-1881.15	1130.33
Saccade R	1	12	4385537879	4385617382	79503	1334.95	808.11	1337.15	878.56	1.93	88.45	0.25	24.27	2177.77	-1881.15	1130.33
