[BeGaze]
Converted from:	C:\Documents and Settings\iViewX\Desktop\EXPERIMENTATIONS\Experiments\results\finaleart\S11H21112-finaleart-1.idf
Date:	27.03.2019 15:38:56
Version:	BeGaze 2.5.77
Sample Rate:	50
Subject:	S11H21112
Description:	Clement legrand-Duchenne

Table Header for Fixations:
Event Type	Trial	Number	Start	End	Duration	Location X	Location Y	Dispersion X	Dispersion Y	Plane	Avg. Pupil Size X	Avg. Pupil Size Y

Table Header for Saccades:
Event Type	Trial	Number	Start	End	Duration	Start Loc.X	Start Loc.Y	End Loc.X	End Loc.Y	Amplitude	Peak Speed	Peak Speed At	Average Speed	Peak Accel.	Peak Decel.	Average Accel.

Table Header for Blinks:
Event Type	Trial	Number	Start	End	Duration

Table Header for User Events:
Event Type	Trial	Number	Start	Description

UserEvent	1	1	4385684953	# Message: void.jpg
Fixation L	1	1	4385697008	4386353341	656333	1346.23	872.48	41	25	-1	14.98	14.98
Fixation R	1	1	4385697008	4386353341	656333	1346.23	872.48	41	25	-1	14.91	14.91
Saccade L	1	1	4386353341	4386393091	39750	1311.49	856.60	1170.22	739.29	2.01	133.54	0.50	50.64	3215.71	-2824.84	1921.68
Saccade R	1	1	4386353341	4386393091	39750	1311.49	856.60	1170.22	739.29	2.01	133.54	0.50	50.64	3215.71	-2824.84	1921.68
Fixation L	1	2	4386393091	4386552211	159120	1144.25	722.80	32	24	-1	15.05	15.05
Fixation R	1	2	4386393091	4386552211	159120	1144.25	722.80	32	24	-1	15.03	15.03
Saccade L	1	2	4386552211	4386592085	39874	1139.53	715.00	1256.14	987.21	2.60	222.38	1.00	65.21	5466.89	-4358.55	3357.26
Saccade R	1	2	4386552211	4386592085	39874	1139.53	715.00	1256.14	987.21	2.60	222.38	1.00	65.21	5466.89	-4358.55	3357.26
Fixation L	1	3	4386592085	4386711336	119251	1271.92	1036.75	26	70	-1	15.11	15.11
Fixation R	1	3	4386592085	4386711336	119251	1271.92	1036.75	26	70	-1	14.82	14.82
Saccade L	1	3	4386711336	4386731201	19865	1281.21	1056.63	1288.83	1060.35	0.14	9.48	1.00	6.96	150.53	-22.72	65.21
Saccade R	1	3	4386711336	4386731201	19865	1281.21	1056.63	1288.83	1060.35	0.14	9.48	1.00	6.96	150.53	-22.72	65.21
Fixation L	1	4	4386731201	4387069436	338235	1278.65	1067.65	15	17	-1	15.43	15.43
Fixation R	1	4	4386731201	4387069436	338235	1278.65	1067.65	15	17	-1	15.29	15.29
Blink L	1	1	4387069436	4387327929	258493
Blink R	1	1	4387069436	4387327929	258493
