[BeGaze]
Converted from:	C:\Documents and Settings\iViewX\Desktop\EXPERIMENTATIONS\Experiments\results\finaleart\S11H21112-finaleart-1.idf
Date:	27.03.2019 15:39:36
Version:	BeGaze 2.5.77
Sample Rate:	50
Subject:	S11H21112
Description:	Clement legrand-Duchenne

Table Header for Fixations:
Event Type	Trial	Number	Start	End	Duration	Location X	Location Y	Dispersion X	Dispersion Y	Plane	Avg. Pupil Size X	Avg. Pupil Size Y

Table Header for Saccades:
Event Type	Trial	Number	Start	End	Duration	Start Loc.X	Start Loc.Y	End Loc.X	End Loc.Y	Amplitude	Peak Speed	Peak Speed At	Average Speed	Peak Accel.	Peak Decel.	Average Accel.

Table Header for Blinks:
Event Type	Trial	Number	Start	End	Duration

Table Header for User Events:
Event Type	Trial	Number	Start	Description

UserEvent	1	1	6074324840	# Message: REJECTED_landscape_cross_0.jpg
Fixation L	1	1	6074338097	6074855203	517106	904.99	455.49	11	73	-1	14.65	14.65
Fixation R	1	1	6074338097	6074855203	517106	904.99	455.49	11	73	-1	16.57	16.57
Saccade L	1	1	6074855203	6074875061	19858	902.90	499.08	901.12	622.82	1.04	125.17	1.00	52.24	2578.97	-2797.29	2146.07
Saccade R	1	1	6074855203	6074875061	19858	902.90	499.08	901.12	622.82	1.04	125.17	1.00	52.24	2578.97	-2797.29	2146.07
Fixation L	1	2	6074875061	6075074063	199002	896.10	607.00	20	43	-1	14.25	14.25
Fixation R	1	2	6074875061	6075074063	199002	896.10	607.00	20	43	-1	15.92	15.92
Saccade L	1	2	6075074063	6075093930	19867	881.34	588.97	701.49	583.52	1.25	181.96	1.00	62.91	4368.28	-4330.93	3196.38
Saccade R	1	2	6075074063	6075093930	19867	881.34	588.97	701.49	583.52	1.25	181.96	1.00	62.91	4368.28	-4330.93	3196.38
Fixation L	1	3	6075093930	6075272920	178990	659.16	583.60	53	25	-1	12.70	12.70
Fixation R	1	3	6075093930	6075272920	178990	659.16	583.60	53	25	-1	15.00	15.00
Saccade L	1	3	6075272920	6075312669	39749	653.87	572.55	484.59	568.58	1.67	140.08	1.00	42.02	3431.17	-3144.91	1812.86
Saccade R	1	3	6075272920	6075312669	39749	653.87	572.55	484.59	568.58	1.67	140.08	1.00	42.02	3431.17	-3144.91	1812.86
Fixation L	1	4	6075312669	6075551409	238740	506.75	563.98	38	29	-1	12.05	12.05
Fixation R	1	4	6075312669	6075551409	238740	506.75	563.98	38	29	-1	14.24	14.24
Saccade L	1	4	6075551409	6075591152	39743	523.32	569.33	968.00	809.85	4.36	287.55	0.50	109.58	6822.43	-7114.46	6193.73
Saccade R	1	4	6075551409	6075591152	39743	523.32	569.33	968.00	809.85	4.36	287.55	0.50	109.58	6822.43	-7114.46	6193.73
Fixation L	1	5	6075591152	6075889649	298497	958.63	797.35	16	23	-1	12.26	12.26
Fixation R	1	5	6075591152	6075889649	298497	958.63	797.35	16	23	-1	13.94	13.94
Saccade L	1	5	6075889649	6075909515	19866	960.58	802.54	1085.49	802.85	0.73	126.34	1.00	36.85	3075.89	-2906.80	2029.52
Saccade R	1	5	6075889649	6075909515	19866	960.58	802.54	1085.49	802.85	0.73	126.34	1.00	36.85	3075.89	-2906.80	2029.52
Fixation L	1	6	6075909515	6076188143	278628	1095.50	824.65	15	31	-1	12.23	12.23
Fixation R	1	6	6075909515	6076188143	278628	1095.50	824.65	15	31	-1	13.90	13.90
Saccade L	1	6	6076188143	6076208010	19867	1101.00	823.21	1223.91	822.79	0.76	124.32	1.00	38.28	3081.34	-3000.73	2066.29
Saccade R	1	6	6076188143	6076208010	19867	1101.00	823.21	1223.91	822.79	0.76	124.32	1.00	38.28	3081.34	-3000.73	2066.29
Fixation L	1	7	6076208010	6076526368	318358	1242.91	811.19	25	18	-1	12.27	12.27
Fixation R	1	7	6076208010	6076526368	318358	1242.91	811.19	25	18	-1	13.79	13.79
Saccade L	1	7	6076526368	6076566118	39750	1240.22	812.67	1012.26	656.29	2.67	196.17	1.00	67.09	4870.96	-4801.89	3345.52
Saccade R	1	7	6076526368	6076566118	39750	1240.22	812.67	1012.26	656.29	2.67	196.17	1.00	67.09	4870.96	-4801.89	3345.52
Fixation L	1	8	6076566118	6076784984	218866	998.55	628.37	35	52	-1	12.19	12.19
Fixation R	1	8	6076566118	6076784984	218866	998.55	628.37	35	52	-1	13.61	13.61
Saccade L	1	8	6076784984	6076804986	20002	977.24	603.97	842.38	534.65	0.99	153.36	1.00	49.36	3786.97	-3336.28	2634.62
Saccade R	1	8	6076784984	6076804986	20002	977.24	603.97	842.38	534.65	0.99	153.36	1.00	49.36	3786.97	-3336.28	2634.62
Fixation L	1	9	6076804986	6077023841	218855	851.02	530.64	13	47	-1	11.83	11.83
Fixation R	1	9	6076804986	6077023841	218855	851.02	530.64	13	47	-1	13.30	13.30
Saccade L	1	9	6077023841	6077043728	19887	855.95	504.07	853.81	298.89	1.51	207.49	1.00	76.01	5032.41	-4241.24	3374.40
Saccade R	1	9	6077023841	6077043728	19887	855.95	504.07	853.81	298.89	1.51	207.49	1.00	76.01	5032.41	-4241.24	3374.40
Fixation L	1	10	6077043728	6077202842	159114	846.87	267.86	14	61	-1	11.29	11.29
Fixation R	1	10	6077043728	6077202842	159114	846.87	267.86	14	61	-1	12.86	12.86
Saccade L	1	10	6077202842	6077282457	79615	839.42	255.98	576.76	63.52	6.58	202.66	0.25	82.63	4682.31	-4631.28	2830.43
Saccade R	1	10	6077202842	6077282457	79615	839.42	255.98	576.76	63.52	6.58	202.66	0.25	82.63	4682.31	-4631.28	2830.43
Fixation L	1	11	6077282457	6077461583	179126	597.34	93.69	36	54	-1	10.90	10.90
Fixation R	1	11	6077282457	6077461583	179126	597.34	93.69	36	54	-1	12.34	12.34
Saccade L	1	11	6077461583	6077580951	119368	605.58	101.62	856.81	312.83	6.14	237.22	0.83	51.40	4825.52	-5613.04	1992.00
Saccade R	1	11	6077461583	6077580951	119368	605.58	101.62	856.81	312.83	6.14	237.22	0.83	51.40	4825.52	-5613.04	1992.00
Fixation L	1	12	6077580951	6077959057	378106	836.60	267.17	30	66	-1	11.17	11.17
Fixation R	1	12	6077580951	6077959057	378106	836.60	267.17	30	66	-1	12.89	12.89
Saccade L	1	12	6077959057	6077978928	19871	846.83	249.55	992.16	254.59	0.85	147.08	1.00	42.69	3575.13	-3589.85	2544.12
Saccade R	1	12	6077959057	6077978928	19871	846.83	249.55	992.16	254.59	0.85	147.08	1.00	42.69	3575.13	-3589.85	2544.12
Fixation L	1	13	6077978928	6078317168	338240	998.43	243.68	15	30	-1	11.17	11.17
Fixation R	1	13	6077978928	6078317168	338240	998.43	243.68	15	30	-1	13.09	13.09
