[BeGaze]
Converted from:	C:\Documents and Settings\iViewX\Desktop\EXPERIMENTATIONS\Experiments\results\finaleart\S11H21112-finaleart-1.idf
Date:	27.03.2019 15:39:12
Version:	BeGaze 2.5.77
Sample Rate:	50
Subject:	S11H21112
Description:	Clement legrand-Duchenne

Table Header for Fixations:
Event Type	Trial	Number	Start	End	Duration	Location X	Location Y	Dispersion X	Dispersion Y	Plane	Avg. Pupil Size X	Avg. Pupil Size Y

Table Header for Saccades:
Event Type	Trial	Number	Start	End	Duration	Start Loc.X	Start Loc.Y	End Loc.X	End Loc.Y	Amplitude	Peak Speed	Peak Speed At	Average Speed	Peak Accel.	Peak Decel.	Average Accel.

Table Header for Blinks:
Event Type	Trial	Number	Start	End	Duration

Table Header for User Events:
Event Type	Trial	Number	Start	Description

UserEvent	1	1	5232216526	# Message: Hayet-Nature-morte-1888.jpg
Fixation L	1	1	5232229129	5232447871	218742	916.41	426.81	35	52	-1	12.55	12.55
Fixation R	1	1	5232229129	5232447871	218742	916.41	426.81	35	52	-1	14.99	14.99
Blink L	1	1	5232447871	5232726359	278488
Blink R	1	1	5232447871	5232726359	278488
Fixation L	1	2	5232726359	5233104201	377842	937.27	591.03	23	43	-1	14.50	14.50
Fixation R	1	2	5232726359	5233104201	377842	937.27	591.03	23	43	-1	16.30	16.30
Saccade L	1	1	5233104201	5233124074	19873	954.83	593.00	1079.83	597.99	0.73	126.54	1.00	36.81	3091.62	-3138.22	2145.35
Saccade R	1	1	5233104201	5233124074	19873	954.83	593.00	1079.83	597.99	0.73	126.54	1.00	36.81	3091.62	-3138.22	2145.35
Fixation L	1	3	5233124074	5233303073	178999	1071.24	600.56	63	15	-1	14.11	14.11
Fixation R	1	3	5233124074	5233303073	178999	1071.24	600.56	63	15	-1	15.26	15.26
Saccade L	1	2	5233303073	5233362824	59751	1018.01	595.18	1051.65	618.53	3.22	106.91	1.00	53.81	2580.22	-2194.71	1198.49
Saccade R	1	2	5233303073	5233362824	59751	1018.01	595.18	1051.65	618.53	3.22	106.91	1.00	53.81	2580.22	-2194.71	1198.49
Fixation L	1	4	5233362824	5233601433	238609	1066.06	635.96	21	33	-1	13.72	13.72
Fixation R	1	4	5233362824	5233601433	238609	1066.06	635.96	21	33	-1	14.96	14.96
Saccade L	1	3	5233601433	5233621306	19873	1071.23	634.70	949.10	623.42	0.82	124.05	1.00	41.49	3042.69	-2789.98	2225.72
Saccade R	1	3	5233601433	5233621306	19873	1071.23	634.70	949.10	623.42	0.82	124.05	1.00	41.49	3042.69	-2789.98	2225.72
Fixation L	1	5	5233621306	5233820174	198868	913.19	617.32	42	21	-1	13.34	13.34
Fixation R	1	5	5233621306	5233820174	198868	913.19	617.32	42	21	-1	15.03	15.03
Saccade L	1	4	5233820174	5233860048	39874	906.57	613.36	730.94	537.05	1.62	110.43	0.50	40.69	2677.74	-2649.95	2362.57
Saccade R	1	4	5233820174	5233860048	39874	906.57	613.36	730.94	537.05	1.62	110.43	0.50	40.69	2677.74	-2649.95	2362.57
Fixation L	1	6	5233860048	5234078790	218742	727.72	538.16	53	9	-1	12.82	12.82
Fixation R	1	6	5233860048	5234078790	218742	727.72	538.16	53	9	-1	14.93	14.93
Saccade L	1	5	5234078790	5234098658	19868	683.89	538.31	517.44	539.23	1.19	168.33	1.00	60.04	4151.02	-4029.06	3041.40
Saccade R	1	5	5234078790	5234098658	19868	683.89	538.31	517.44	539.23	1.19	168.33	1.00	60.04	4151.02	-4029.06	3041.40
Fixation L	1	7	5234098658	5234357273	258615	500.51	532.86	21	12	-1	12.51	12.51
Fixation R	1	7	5234098658	5234357273	258615	500.51	532.86	21	12	-1	14.80	14.80
Saccade L	1	6	5234357273	5234416896	59623	497.71	538.70	1012.68	546.61	5.37	245.09	0.67	90.04	5993.89	-5894.29	3891.77
Saccade R	1	6	5234357273	5234416896	59623	497.71	538.70	1012.68	546.61	5.37	245.09	0.67	90.04	5993.89	-5894.29	3891.77
Fixation L	1	8	5234416896	5234576017	159121	1014.21	557.90	3	18	-1	12.69	12.69
Fixation R	1	8	5234416896	5234576017	159121	1014.21	557.90	3	18	-1	14.11	14.11
Saccade L	1	7	5234576017	5234595891	19874	1015.70	560.71	1163.20	559.23	0.83	149.19	1.00	42.00	3630.62	-3654.57	2527.10
Saccade R	1	7	5234576017	5234595891	19874	1015.70	560.71	1163.20	559.23	0.83	149.19	1.00	42.00	3630.62	-3654.57	2527.10
Fixation L	1	9	5234595891	5234834629	238738	1176.86	550.74	18	16	-1	12.23	12.23
Fixation R	1	9	5234595891	5234834629	238738	1176.86	550.74	18	16	-1	13.75	13.75
Saccade L	1	8	5234834629	5234874386	39757	1181.23	548.88	1620.78	432.77	4.03	243.08	0.50	101.47	6032.64	-5194.27	5398.25
Saccade R	1	8	5234834629	5234874386	39757	1181.23	548.88	1620.78	432.77	4.03	243.08	0.50	101.47	6032.64	-5194.27	5398.25
Fixation L	1	10	5234874386	5234973880	99494	1649.30	449.96	44	45	-1	11.66	11.66
Fixation R	1	10	5234874386	5234973880	99494	1649.30	449.96	44	45	-1	13.23	13.23
Saccade L	1	9	5234973880	5234993747	19867	1634.04	478.72	1631.46	505.41	0.43	29.05	0.00	21.83	194.54	-640.00	421.80
Saccade R	1	9	5234973880	5234993747	19867	1634.04	478.72	1631.46	505.41	0.43	29.05	0.00	21.83	194.54	-640.00	421.80
Fixation L	1	11	5234993747	5235192614	198867	1617.62	510.05	31	29	-1	11.69	11.69
Fixation R	1	11	5234993747	5235192614	198867	1617.62	510.05	31	29	-1	13.10	13.10
Saccade L	1	10	5235192614	5235311986	119372	1601.90	520.32	1662.13	273.19	4.31	107.19	0.17	36.13	2434.25	-2141.89	1204.56
Saccade R	1	10	5235192614	5235311986	119372	1601.90	520.32	1662.13	273.19	4.31	107.19	0.17	36.13	2434.25	-2141.89	1204.56
Fixation L	1	12	5235311986	5235431229	119243	1682.93	241.69	44	43	-1	11.62	11.62
Fixation R	1	12	5235311986	5235431229	119243	1682.93	241.69	44	43	-1	12.79	12.79
Saccade L	1	11	5235431229	5235471104	39875	1674.02	229.49	1342.84	336.84	3.39	303.68	1.00	84.96	7410.38	-7152.88	4046.32
Saccade R	1	11	5235431229	5235471104	39875	1674.02	229.49	1342.84	336.84	3.39	303.68	1.00	84.96	7410.38	-7152.88	4046.32
Fixation L	1	13	5235471104	5235689842	218738	1331.70	306.79	50	44	-1	11.69	11.69
Fixation R	1	13	5235471104	5235689842	218738	1331.70	306.79	50	44	-1	12.79	12.79
Saccade L	1	12	5235689842	5235709724	19882	1292.51	304.83	1180.57	301.03	0.90	113.30	1.00	45.43	2430.56	-2522.25	1977.17
Saccade R	1	12	5235689842	5235709724	19882	1292.51	304.83	1180.57	301.03	0.90	113.30	1.00	45.43	2430.56	-2522.25	1977.17
Fixation L	1	14	5235709724	5235868833	159109	1182.96	273.77	4	43	-1	11.64	11.64
Fixation R	1	14	5235709724	5235868833	159109	1182.96	273.77	4	43	-1	12.87	12.87
Saccade L	1	13	5235868833	5235928457	59624	1182.77	259.40	803.23	131.60	4.35	202.71	0.67	73.01	4981.97	-4552.09	2969.78
Saccade R	1	13	5235868833	5235928457	59624	1182.77	259.40	803.23	131.60	4.35	202.71	0.67	73.01	4981.97	-4552.09	2969.78
Fixation L	1	15	5235928457	5236206943	278486	801.33	152.03	7	38	-1	11.75	11.75
Fixation R	1	15	5235928457	5236206943	278486	801.33	152.03	7	38	-1	12.97	12.97
