[BeGaze]
Converted from:	C:\Documents and Settings\iViewX\Desktop\EXPERIMENTATIONS\Experiments\results\finaleart\S11H21112-finaleart-1.idf
Date:	27.03.2019 15:38:50
Version:	BeGaze 2.5.77
Sample Rate:	50
Subject:	S11H21112
Description:	Clement legrand-Duchenne

Table Header for Fixations:
Event Type	Trial	Number	Start	End	Duration	Location X	Location Y	Dispersion X	Dispersion Y	Plane	Avg. Pupil Size X	Avg. Pupil Size Y

Table Header for Saccades:
Event Type	Trial	Number	Start	End	Duration	Start Loc.X	Start Loc.Y	End Loc.X	End Loc.Y	Amplitude	Peak Speed	Peak Speed At	Average Speed	Peak Accel.	Peak Decel.	Average Accel.

Table Header for Blinks:
Event Type	Trial	Number	Start	End	Duration

Table Header for User Events:
Event Type	Trial	Number	Start	Description

UserEvent	1	1	4302256289	# Message: plate-of-peaches-Fantin-Latour-1862.jpg
Fixation L	1	1	4302257909	4302655763	397854	1031.47	393.27	40	46	-1	14.20	14.20
Fixation R	1	1	4302257909	4302655763	397854	1031.47	393.27	40	46	-1	14.41	14.41
Saccade L	1	1	4302655763	4302675682	19919	998.37	429.36	880.60	542.05	1.15	164.84	1.00	57.97	4034.83	-4008.51	3120.51
Saccade R	1	1	4302655763	4302675682	19919	998.37	429.36	880.60	542.05	1.15	164.84	1.00	57.97	4034.83	-4008.51	3120.51
Fixation L	1	2	4302675682	4303013758	338076	875.67	521.75	8	36	-1	14.73	14.73
Fixation R	1	2	4302675682	4303013758	338076	875.67	521.75	8	36	-1	14.86	14.86
Saccade L	1	2	4303013758	4303033615	19857	876.80	530.88	1029.49	515.78	0.88	155.18	1.00	44.32	3580.77	-3650.50	2465.70
Saccade R	1	2	4303013758	4303033615	19857	876.80	530.88	1029.49	515.78	0.88	155.18	1.00	44.32	3580.77	-3650.50	2465.70
Fixation L	1	3	4303033615	4303351846	318231	1047.55	515.13	24	16	-1	14.74	14.74
Fixation R	1	3	4303033615	4303351846	318231	1047.55	515.13	24	16	-1	15.19	15.19
Saccade L	1	3	4303351846	4303391725	39879	1047.02	521.05	895.91	409.80	1.91	105.91	0.50	47.78	2556.70	-1869.92	2097.55
Saccade R	1	3	4303351846	4303391725	39879	1047.02	521.05	895.91	409.80	1.91	105.91	0.50	47.78	2556.70	-1869.92	2097.55
Fixation L	1	4	4303391725	4303888955	497230	908.95	431.74	22	42	-1	14.37	14.37
Fixation R	1	4	4303391725	4303888955	497230	908.95	431.74	22	42	-1	15.34	15.34
Saccade L	1	4	4303888955	4303908820	19865	918.40	437.43	791.58	577.48	1.25	191.06	1.00	63.01	4639.13	-4639.88	3454.85
Saccade R	1	4	4303888955	4303908820	19865	918.40	437.43	791.58	577.48	1.25	191.06	1.00	63.01	4639.13	-4639.88	3454.85
Fixation L	1	5	4303908820	4304008194	99374	783.55	624.48	12	64	-1	15.11	15.11
Fixation R	1	5	4303908820	4304008194	99374	783.55	624.48	12	64	-1	16.61	16.61
Saccade L	1	5	4304008194	4304028192	19998	783.05	642.41	772.78	693.32	0.62	64.77	1.00	31.24	1531.56	-1190.61	1310.62
Saccade R	1	5	4304008194	4304028192	19998	783.05	642.41	772.78	693.32	0.62	64.77	1.00	31.24	1531.56	-1190.61	1310.62
Fixation L	1	6	4304028192	4304207186	178994	752.77	741.07	34	63	-1	15.30	15.30
Fixation R	1	6	4304028192	4304207186	178994	752.77	741.07	34	63	-1	16.86	16.86
Saccade L	1	6	4304207186	4304286678	79492	737.90	747.77	1159.82	810.40	5.45	268.61	0.75	68.53	6632.93	-6067.13	2873.44
Saccade R	1	6	4304207186	4304286678	79492	737.90	747.77	1159.82	810.40	5.45	268.61	0.75	68.53	6632.93	-6067.13	2873.44
Fixation L	1	7	4304286678	4304485676	198998	1166.32	828.68	41	30	-1	15.16	15.16
Fixation R	1	7	4304286678	4304485676	198998	1166.32	828.68	41	30	-1	16.18	16.18
Saccade L	1	7	4304485676	4304525430	39754	1196.99	824.58	1447.84	670.45	3.02	228.37	0.50	75.92	5643.31	-5030.46	3505.92
Saccade R	1	7	4304485676	4304525430	39754	1196.99	824.58	1447.84	670.45	3.02	228.37	0.50	75.92	5643.31	-5030.46	3505.92
Fixation L	1	8	4304525430	4304943026	417596	1451.20	667.13	52	44	-1	14.71	14.71
Fixation R	1	8	4304525430	4304943026	417596	1451.20	667.13	52	44	-1	14.74	14.74
Saccade L	1	8	4304943026	4304963030	20004	1410.54	679.95	1217.70	599.71	1.38	211.20	1.00	68.89	5117.95	-5083.42	3562.56
Saccade R	1	8	4304943026	4304963030	20004	1410.54	679.95	1217.70	599.71	1.38	211.20	1.00	68.89	5117.95	-5083.42	3562.56
Fixation L	1	9	4304963030	4305798364	835334	1195.40	581.73	31	28	-1	14.95	14.95
Fixation R	1	9	4304963030	4305798364	835334	1195.40	581.73	31	28	-1	15.16	15.16
Saccade L	1	9	4305798364	4305838116	39752	1191.82	584.19	1025.84	579.48	1.57	91.26	0.50	39.38	2192.26	-1733.74	1859.29
Saccade R	1	9	4305798364	4305838116	39752	1191.82	584.19	1025.84	579.48	1.57	91.26	0.50	39.38	2192.26	-1733.74	1859.29
Fixation L	1	10	4305838116	4306017107	178991	1006.58	572.68	23	27	-1	14.66	14.66
Fixation R	1	10	4305838116	4306017107	178991	1006.58	572.68	23	27	-1	15.13	15.13
Saccade L	1	10	4306017107	4306056978	39871	1006.29	557.80	778.73	565.87	1.97	117.26	0.50	49.46	2869.95	-2779.34	2715.36
Saccade R	1	10	4306017107	4306056978	39871	1006.29	557.80	778.73	565.87	1.97	117.26	0.50	49.46	2869.95	-2779.34	2715.36
Fixation L	1	11	4306056978	4306255842	198864	770.89	584.28	11	38	-1	15.10	15.10
Fixation R	1	11	4306056978	4306255842	198864	770.89	584.28	11	38	-1	15.29	15.29
