[BeGaze]
Converted from:	C:\Documents and Settings\iViewX\Desktop\EXPERIMENTATIONS\Experiments\results\finaleart\S11H21112-finaleart-1.idf
Date:	27.03.2019 15:38:42
Version:	BeGaze 2.5.77
Sample Rate:	50
Subject:	S11H21112
Description:	Clement legrand-Duchenne

Table Header for Fixations:
Event Type	Trial	Number	Start	End	Duration	Location X	Location Y	Dispersion X	Dispersion Y	Plane	Avg. Pupil Size X	Avg. Pupil Size Y

Table Header for Saccades:
Event Type	Trial	Number	Start	End	Duration	Start Loc.X	Start Loc.Y	End Loc.X	End Loc.Y	Amplitude	Peak Speed	Peak Speed At	Average Speed	Peak Accel.	Peak Decel.	Average Accel.

Table Header for Blinks:
Event Type	Trial	Number	Start	End	Duration

Table Header for User Events:
Event Type	Trial	Number	Start	Description

UserEvent	1	1	4037721466	# Message: courbet-female-nude-with-a-dog-portrait-of-leotine-renaude-1866.jpg
Saccade L	1	1	4037727230	4038144968	417738	1624.80	-29.72	940.57	448.42	187.69	1628.44	0.29	449.30	40494.70	-39473.44	13912.69
Saccade R	1	1	4037727230	4038144968	417738	1624.80	-29.72	940.57	448.42	187.69	1628.44	0.29	449.30	40494.70	-39473.44	13912.69
Fixation L	1	1	4038144968	4038423316	278348	938.94	459.43	23	25	-1	14.90	14.90
Fixation R	1	1	4038144968	4038423316	278348	938.94	459.43	23	25	-1	18.90	18.90
Saccade L	1	2	4038423316	4038443185	19869	922.56	474.23	910.10	552.76	0.59	80.44	1.00	29.52	1921.21	-1634.45	1284.22
Saccade R	1	2	4038423316	4038443185	19869	922.56	474.23	910.10	552.76	0.59	80.44	1.00	29.52	1921.21	-1634.45	1284.22
Fixation L	1	2	4038443185	4038662051	218866	890.05	547.14	44	40	-1	14.99	14.99
Fixation R	1	2	4038443185	4038662051	218866	890.05	547.14	44	40	-1	19.32	19.32
Saccade L	1	3	4038662051	4038681932	19881	867.66	575.44	850.21	584.79	0.43	26.11	0.00	21.43	25.35	-420.35	194.84
Saccade R	1	3	4038662051	4038681932	19881	867.66	575.44	850.21	584.79	0.43	26.11	0.00	21.43	25.35	-420.35	194.84
Fixation L	1	3	4038681932	4038821174	139242	843.52	579.56	18	27	-1	15.17	15.17
Fixation R	1	3	4038681932	4038821174	139242	843.52	579.56	18	27	-1	19.30	19.30
Saccade L	1	4	4038821174	4038841043	19869	840.73	586.11	1043.49	577.82	1.51	205.20	1.00	76.24	4864.24	-5026.40	3919.48
Saccade R	1	4	4038821174	4038841043	19869	840.73	586.11	1043.49	577.82	1.51	205.20	1.00	76.24	4864.24	-5026.40	3919.48
Fixation L	1	4	4038841043	4039557136	716093	1108.17	576.56	81	16	-1	15.45	15.45
Fixation R	1	4	4038841043	4039557136	716093	1108.17	576.56	81	16	-1	19.20	19.20
Saccade L	1	5	4039557136	4039577013	19877	1092.48	566.01	1072.50	538.01	0.30	34.80	1.00	15.08	837.55	-545.54	514.56
Saccade R	1	5	4039557136	4039577013	19877	1092.48	566.01	1072.50	538.01	0.30	34.80	1.00	15.08	837.55	-545.54	514.56
Fixation L	1	5	4039577013	4040034497	457484	1042.78	512.05	42	40	-1	14.92	14.92
Fixation R	1	5	4039577013	4040034497	457484	1042.78	512.05	42	40	-1	18.73	18.73
Saccade L	1	6	4040034497	4040074238	39741	1030.63	516.32	709.20	693.58	3.11	232.22	1.00	78.34	5652.77	-5592.59	4471.10
Saccade R	1	6	4040034497	4040074238	39741	1030.63	516.32	709.20	693.58	3.11	232.22	1.00	78.34	5652.77	-5592.59	4471.10
Fixation L	1	6	4040074238	4040352736	278498	695.58	693.02	16	11	-1	15.16	15.16
Fixation R	1	6	4040074238	4040352736	278498	695.58	693.02	16	11	-1	19.13	19.13
Saccade L	1	7	4040352736	4040372609	19873	696.05	699.42	624.00	889.56	1.16	205.61	1.00	58.57	5029.03	-4840.41	3448.53
Saccade R	1	7	4040352736	4040372609	19873	696.05	699.42	624.00	889.56	1.16	205.61	1.00	58.57	5029.03	-4840.41	3448.53
Fixation L	1	7	4040372609	4040611349	238740	616.06	906.08	22	22	-1	15.27	15.27
Fixation R	1	7	4040372609	4040611349	238740	616.06	906.08	22	22	-1	19.22	19.22
Saccade L	1	8	4040611349	4040670964	59615	610.04	900.80	1266.91	907.20	6.69	313.73	0.67	112.20	7743.90	-7757.94	5058.82
Saccade R	1	8	4040611349	4040670964	59615	610.04	900.80	1266.91	907.20	6.69	313.73	0.67	112.20	7743.90	-7757.94	5058.82
Fixation L	1	8	4040670964	4040889702	218738	1255.69	917.11	17	15	-1	15.62	15.62
Fixation R	1	8	4040670964	4040889702	218738	1255.69	917.11	17	15	-1	18.78	18.78
Saccade L	1	9	4040889702	4040909585	19883	1249.88	923.02	1276.96	783.50	0.81	143.74	1.00	40.65	3540.72	-3245.61	2339.77
Saccade R	1	9	4040889702	4040909585	19883	1249.88	923.02	1276.96	783.50	0.81	143.74	1.00	40.65	3540.72	-3245.61	2339.77
Fixation L	1	9	4040909585	4041068845	159260	1287.18	780.72	21	24	-1	15.39	15.39
Fixation R	1	9	4040909585	4041068845	159260	1287.18	780.72	21	24	-1	18.97	18.97
Saccade L	1	10	4041068845	4041108579	39734	1298.08	779.25	1092.15	575.86	2.57	156.86	1.00	64.56	3716.58	-3802.56	3586.25
Saccade R	1	10	4041068845	4041108579	39734	1298.08	779.25	1092.15	575.86	2.57	156.86	1.00	64.56	3716.58	-3802.56	3586.25
Fixation L	1	10	4041108579	4041725183	616604	1098.26	568.75	46	12	-1	15.39	15.39
Fixation R	1	10	4041108579	4041725183	616604	1098.26	568.75	46	12	-1	18.55	18.55
