[BeGaze]
Converted from:	C:\Documents and Settings\iViewX\Desktop\EXPERIMENTATIONS\Experiments\results\finaleart\S11H21112-finaleart-1.idf
Date:	27.03.2019 15:39:41
Version:	BeGaze 2.5.77
Sample Rate:	50
Subject:	S11H21112
Description:	Clement legrand-Duchenne

Table Header for Fixations:
Event Type	Trial	Number	Start	End	Duration	Location X	Location Y	Dispersion X	Dispersion Y	Plane	Avg. Pupil Size X	Avg. Pupil Size Y

Table Header for Saccades:
Event Type	Trial	Number	Start	End	Duration	Start Loc.X	Start Loc.Y	End Loc.X	End Loc.Y	Amplitude	Peak Speed	Peak Speed At	Average Speed	Peak Accel.	Peak Decel.	Average Accel.

Table Header for Blinks:
Event Type	Trial	Number	Start	End	Duration

Table Header for User Events:
Event Type	Trial	Number	Start	Description

UserEvent	1	1	6147622315	# Message: The_Lying_Nude_Matisse_1906.jpg
Fixation L	1	1	6147623013	6148239728	616715	974.24	146.96	11	35	-1	9.78	9.78
Fixation R	1	1	6147623013	6148239728	616715	974.24	146.96	11	35	-1	12.02	12.02
Saccade L	1	1	6148239728	6148279620	39892	973.86	146.57	733.03	252.14	2.44	159.87	0.50	61.09	3952.90	-3883.20	3358.51
Saccade R	1	1	6148239728	6148279620	39892	973.86	146.57	733.03	252.14	2.44	159.87	0.50	61.09	3952.90	-3883.20	3358.51
Fixation L	1	2	6148279620	6148558222	278602	710.03	246.54	32	37	-1	9.36	9.36
Fixation R	1	2	6148279620	6148558222	278602	710.03	246.54	32	37	-1	11.72	11.72
Saccade L	1	2	6148558222	6148597970	39748	703.67	226.05	437.15	328.24	2.79	241.00	1.00	70.18	5829.60	-5278.22	3093.32
Saccade R	1	2	6148558222	6148597970	39748	703.67	226.05	437.15	328.24	2.79	241.00	1.00	70.18	5829.60	-5278.22	3093.32
Fixation L	1	3	6148597970	6148896463	298493	454.09	368.89	27	69	-1	9.01	9.01
Fixation R	1	3	6148597970	6148896463	298493	454.09	368.89	27	69	-1	11.62	11.62
Saccade L	1	3	6148896463	6148916330	19867	455.20	393.95	457.74	408.39	0.27	18.52	1.00	13.73	360.44	-223.86	216.73
Saccade R	1	3	6148896463	6148916330	19867	455.20	393.95	457.74	408.39	0.27	18.52	1.00	13.73	360.44	-223.86	216.73
Fixation L	1	4	6148916330	6149314329	397999	464.79	438.78	15	54	-1	9.28	9.28
Fixation R	1	4	6148916330	6149314329	397999	464.79	438.78	15	54	-1	11.70	11.70
Saccade L	1	4	6149314329	6149354064	39735	470.48	463.30	794.35	461.72	2.77	209.11	0.50	69.79	5148.75	-4926.56	3911.77
Saccade R	1	4	6149314329	6149354064	39735	470.48	463.30	794.35	461.72	2.77	209.11	0.50	69.79	5148.75	-4926.56	3911.77
Fixation L	1	5	6149354064	6149612798	258734	802.15	430.22	11	51	-1	9.26	9.26
Fixation R	1	5	6149354064	6149612798	258734	802.15	430.22	11	51	-1	11.71	11.71
Saccade L	1	5	6149612798	6149652548	39750	805.58	410.68	1067.31	449.52	2.25	166.06	0.50	56.62	4127.92	-3964.85	3233.99
Saccade R	1	5	6149612798	6149652548	39750	805.58	410.68	1067.31	449.52	2.25	166.06	0.50	56.62	4127.92	-3964.85	3233.99
Fixation L	1	6	6149652548	6149891297	238749	1063.56	452.16	12	31	-1	9.74	9.74
Fixation R	1	6	6149652548	6149891297	238749	1063.56	452.16	12	31	-1	11.87	11.87
Saccade L	1	6	6149891297	6149911288	19991	1057.79	468.15	1129.08	464.40	0.51	72.22	1.00	25.42	1735.88	-1559.90	1240.36
Saccade R	1	6	6149891297	6149911288	19991	1057.79	468.15	1129.08	464.40	0.51	72.22	1.00	25.42	1735.88	-1559.90	1240.36
Fixation L	1	7	6149911288	6150428640	517352	1150.73	473.94	29	37	-1	9.91	9.91
Fixation R	1	7	6149911288	6150428640	517352	1150.73	473.94	29	37	-1	11.67	11.67
Saccade L	1	7	6150428640	6150468391	39751	1150.30	497.24	1067.90	680.78	1.90	118.22	0.50	47.74	2813.85	-2719.36	2511.29
Saccade R	1	7	6150428640	6150468391	39751	1150.30	497.24	1067.90	680.78	1.90	118.22	0.50	47.74	2813.85	-2719.36	2511.29
Fixation L	1	8	6150468391	6150667377	198986	1057.18	682.27	30	17	-1	10.35	10.35
Fixation R	1	8	6150468391	6150667377	198986	1057.18	682.27	30	17	-1	12.31	12.31
Saccade L	1	8	6150667377	6150707132	39755	1037.79	683.06	724.88	863.63	3.46	264.03	0.50	87.04	6468.07	-5546.27	4121.86
Saccade R	1	8	6150667377	6150707132	39755	1037.79	683.06	724.88	863.63	3.46	264.03	0.50	87.04	6468.07	-5546.27	4121.86
Fixation L	1	9	6150707132	6150946003	238871	730.15	839.52	19	52	-1	10.55	10.55
Fixation R	1	9	6150707132	6150946003	238871	730.15	839.52	19	52	-1	12.85	12.85
Saccade L	1	9	6150946003	6150965864	19861	737.09	841.31	697.62	873.15	0.65	51.30	1.00	32.87	908.86	-922.84	778.54
Saccade R	1	9	6150946003	6150965864	19861	737.09	841.31	697.62	873.15	0.65	51.30	1.00	32.87	908.86	-922.84	778.54
Fixation L	1	10	6150965864	6151065368	99504	672.10	912.18	37	52	-1	10.54	10.54
Fixation R	1	10	6150965864	6151065368	99504	672.10	912.18	37	52	-1	12.82	12.82
Saccade L	1	10	6151065368	6151085242	19874	663.19	922.79	663.50	936.64	0.13	14.02	1.00	6.49	183.33	-145.33	135.57
Saccade R	1	10	6151065368	6151085242	19874	663.19	922.79	663.50	936.64	0.13	14.02	1.00	6.49	183.33	-145.33	135.57
Fixation L	1	11	6151085242	6151622459	537217	658.90	946.31	12	17	-1	10.62	10.62
Fixation R	1	11	6151085242	6151622459	537217	658.90	946.31	12	17	-1	12.95	12.95
