[BeGaze]
Converted from:	C:\Documents and Settings\iViewX\Desktop\EXPERIMENTATIONS\Experiments\results\finaleart\S11H21112-finaleart-1.idf
Date:	27.03.2019 15:38:39
Version:	BeGaze 2.5.77
Sample Rate:	50
Subject:	S11H21112
Description:	Clement legrand-Duchenne

Table Header for Fixations:
Event Type	Trial	Number	Start	End	Duration	Location X	Location Y	Dispersion X	Dispersion Y	Plane	Avg. Pupil Size X	Avg. Pupil Size Y

Table Header for Saccades:
Event Type	Trial	Number	Start	End	Duration	Start Loc.X	Start Loc.Y	End Loc.X	End Loc.Y	Amplitude	Peak Speed	Peak Speed At	Average Speed	Peak Accel.	Peak Decel.	Average Accel.

Table Header for Blinks:
Event Type	Trial	Number	Start	End	Duration

Table Header for User Events:
Event Type	Trial	Number	Start	Description

UserEvent	1	1	4000971286	# Message: huisje_aan_een_sloot_mauve_1888.jpg
Fixation L	1	1	4000990203	4001268691	278488	1738.50	298.46	29	53	-1	15.25	15.25
Fixation R	1	1	4000990203	4001268691	278488	1738.50	298.46	29	53	-1	17.49	17.49
Saccade L	1	1	4001268691	4001288569	19878	1724.49	303.70	1702.59	309.83	0.59	42.61	1.00	29.53	-418.51	-500.93	469.87
Saccade R	1	1	4001268691	4001288569	19878	1724.49	303.70	1702.59	309.83	0.59	42.61	1.00	29.53	-418.51	-500.93	469.87
Fixation L	1	2	4001288569	4001388067	99498	1696.78	296.74	41	19	-1	15.31	15.31
Fixation R	1	2	4001288569	4001388067	99498	1696.78	296.74	41	19	-1	17.61	17.61
Saccade L	1	2	4001388067	4001447689	59622	1673.99	292.41	954.65	779.82	9.51	357.13	0.33	159.46	8638.52	-7601.11	6446.31
Saccade R	1	2	4001388067	4001447689	59622	1673.99	292.41	954.65	779.82	9.51	357.13	0.33	159.46	8638.52	-7601.11	6446.31
Fixation L	1	3	4001447689	4001765919	318230	964.06	776.51	16	55	-1	16.43	16.43
Fixation R	1	3	4001447689	4001765919	318230	964.06	776.51	16	55	-1	19.76	19.76
Saccade L	1	3	4001765919	4001785797	19878	959.61	757.51	867.97	755.66	0.57	92.72	1.00	28.50	2258.38	-2012.99	1505.33
Saccade R	1	3	4001765919	4001785797	19878	959.61	757.51	867.97	755.66	0.57	92.72	1.00	28.50	2258.38	-2012.99	1505.33
Fixation L	1	4	4001785797	4002143782	357985	865.20	730.92	19	71	-1	14.57	14.57
Fixation R	1	4	4001785797	4002143782	357985	865.20	730.92	19	71	-1	17.49	17.49
Saccade L	1	4	4002143782	4002163774	19992	849.06	685.40	828.09	695.36	0.38	25.14	0.00	19.12	318.18	-249.34	256.13
Saccade R	1	4	4002143782	4002163774	19992	849.06	685.40	828.09	695.36	0.38	25.14	0.00	19.12	318.18	-249.34	256.13
Fixation L	1	5	4002163774	4003018989	855215	806.21	682.13	63	35	-1	13.35	13.35
Fixation R	1	5	4002163774	4003018989	855215	806.21	682.13	63	35	-1	16.40	16.40
Saccade L	1	5	4003018989	4003038875	19886	780.76	698.27	922.99	716.66	0.98	145.04	1.00	49.15	3601.99	-3512.73	2514.01
Saccade R	1	5	4003018989	4003038875	19886	780.76	698.27	922.99	716.66	0.98	145.04	1.00	49.15	3601.99	-3512.73	2514.01
Fixation L	1	6	4003038875	4003575969	537094	930.62	769.96	13	78	-1	13.55	13.55
Fixation R	1	6	4003038875	4003575969	537094	930.62	769.96	13	78	-1	16.16	16.16
Saccade L	1	6	4003575969	4003615707	39738	928.22	789.22	1051.08	879.17	1.44	103.13	1.00	36.15	2428.84	-2441.76	1725.38
Saccade R	1	6	4003575969	4003615707	39738	928.22	789.22	1051.08	879.17	1.44	103.13	1.00	36.15	2428.84	-2441.76	1725.38
Fixation L	1	7	4003615707	4004451051	835344	1051.77	898.36	30	61	-1	13.87	13.87
Fixation R	1	7	4003615707	4004451051	835344	1051.77	898.36	30	61	-1	16.48	16.48
Saccade L	1	7	4004451051	4004470940	19889	1038.47	935.19	1248.60	821.05	1.39	241.77	1.00	69.81	5974.94	-5504.45	3979.57
Saccade R	1	7	4004451051	4004470940	19889	1038.47	935.19	1248.60	821.05	1.39	241.77	1.00	69.81	5974.94	-5504.45	3979.57
Fixation L	1	8	4004470940	4004749423	278483	1259.26	792.71	44	51	-1	13.78	13.78
Fixation R	1	8	4004470940	4004749423	278483	1259.26	792.71	44	51	-1	16.25	16.25
Saccade L	1	8	4004749423	4004769288	19865	1293.05	769.95	1361.56	729.85	0.75	80.30	1.00	37.61	1986.95	-1937.56	1487.47
Saccade R	1	8	4004749423	4004769288	19865	1293.05	769.95	1361.56	729.85	0.75	80.30	1.00	37.61	1986.95	-1937.56	1487.47
Fixation L	1	9	4004769288	4004968278	198990	1371.72	705.97	15	36	-1	13.69	13.69
Fixation R	1	9	4004769288	4004968278	198990	1371.72	705.97	15	36	-1	16.09	16.09
