[BeGaze]
Converted from:	C:\Documents and Settings\iViewX\Desktop\EXPERIMENTATIONS\Experiments\results\finaleart\S11H21112-finaleart-1.idf
Date:	27.03.2019 15:39:47
Version:	BeGaze 2.5.77
Sample Rate:	50
Subject:	S11H21112
Description:	Clement legrand-Duchenne

Table Header for Fixations:
Event Type	Trial	Number	Start	End	Duration	Location X	Location Y	Dispersion X	Dispersion Y	Plane	Avg. Pupil Size X	Avg. Pupil Size Y

Table Header for Saccades:
Event Type	Trial	Number	Start	End	Duration	Start Loc.X	Start Loc.Y	End Loc.X	End Loc.Y	Amplitude	Peak Speed	Peak Speed At	Average Speed	Peak Accel.	Peak Decel.	Average Accel.

Table Header for Blinks:
Event Type	Trial	Number	Start	End	Duration

Table Header for User Events:
Event Type	Trial	Number	Start	Description

UserEvent	1	1	6220766413	# Message: pears-and-grapes_gauguin_1875.jpg
Fixation L	1	1	6220772457	6221230058	457601	581.91	921.89	13	8	-1	14.99	14.99
Fixation R	1	1	6220772457	6221230058	457601	581.91	921.89	13	8	-1	17.00	17.00
Saccade L	1	1	6221230058	6221289803	59745	583.16	926.03	1064.21	914.19	6.05	247.59	0.33	101.23	6117.15	-4208.59	4185.30
Saccade R	1	1	6221230058	6221289803	59745	583.16	926.03	1064.21	914.19	6.05	247.59	0.33	101.23	6117.15	-4208.59	4185.30
Fixation L	1	2	6221289803	6222384127	1094324	1072.10	848.71	23	75	-1	14.64	14.64
Fixation R	1	2	6221289803	6222384127	1094324	1072.10	848.71	23	75	-1	16.14	16.14
Saccade L	1	2	6222384127	6222403993	19866	1058.15	857.07	1056.33	859.84	0.08	6.44	1.00	4.05	56.19	34.13	46.94
Saccade R	1	2	6222384127	6222403993	19866	1058.15	857.07	1056.33	859.84	0.08	6.44	1.00	4.05	56.19	34.13	46.94
Fixation L	1	3	6222403993	6222861726	457733	1052.14	875.18	9	34	-1	15.22	15.22
Fixation R	1	3	6222403993	6222861726	457733	1052.14	875.18	9	34	-1	16.34	16.34
Saccade L	1	3	6222861726	6222901480	39754	1048.52	886.56	614.86	802.75	3.70	255.27	1.00	93.00	6335.54	-6315.68	5546.08
Saccade R	1	3	6222861726	6222901480	39754	1048.52	886.56	614.86	802.75	3.70	255.27	1.00	93.00	6335.54	-6315.68	5546.08
Fixation L	1	4	6222901480	6223398950	497470	623.62	821.19	12	30	-1	15.45	15.45
Fixation R	1	4	6222901480	6223398950	497470	623.62	821.19	12	30	-1	16.73	16.73
Saccade L	1	4	6223398950	6223438703	39753	627.14	831.69	1008.70	830.96	3.55	244.89	1.00	89.37	6040.76	-5937.50	4401.70
Saccade R	1	4	6223398950	6223438703	39753	627.14	831.69	1008.70	830.96	3.55	244.89	1.00	89.37	6040.76	-5937.50	4401.70
Fixation L	1	5	6223438703	6223777061	338358	1055.18	832.55	54	9	-1	15.38	15.38
Fixation R	1	5	6223438703	6223777061	338358	1055.18	832.55	54	9	-1	17.12	17.12
Saccade L	1	5	6223777061	6223816811	39750	1031.95	834.54	635.98	860.97	3.44	272.58	0.50	86.49	6721.78	-6662.77	4796.37
Saccade R	1	5	6223777061	6223816811	39750	1031.95	834.54	635.98	860.97	3.44	272.58	0.50	86.49	6721.78	-6662.77	4796.37
Fixation L	1	6	6223816811	6224115302	298491	646.44	871.94	15	21	-1	15.37	15.37
Fixation R	1	6	6223816811	6224115302	298491	646.44	871.94	15	21	-1	17.41	17.41
Saccade L	1	6	6224115302	6224155053	39751	650.86	874.16	987.05	873.17	3.21	228.31	1.00	80.70	5661.86	-5682.22	3852.05
Saccade R	1	6	6224115302	6224155053	39751	650.86	874.16	987.05	873.17	3.21	228.31	1.00	80.70	5661.86	-5682.22	3852.05
Fixation L	1	7	6224155053	6224314284	159231	1041.00	854.29	63	33	-1	15.99	15.99
Fixation R	1	7	6224155053	6224314284	159231	1041.00	854.29	63	33	-1	17.89	17.89
Saccade L	1	7	6224314284	6224334165	19881	1050.72	839.88	1051.26	835.61	0.11	9.60	1.00	5.69	112.22	16.44	54.82
Saccade R	1	7	6224314284	6224334165	19881	1050.72	839.88	1051.26	835.61	0.11	9.60	1.00	5.69	112.22	16.44	54.82
Fixation L	1	8	6224334165	6224572902	238737	1044.30	826.89	76	15	-1	15.90	15.90
Fixation R	1	8	6224334165	6224572902	238737	1044.30	826.89	76	15	-1	17.77	17.77
Saccade L	1	8	6224572902	6224592781	19879	975.22	820.74	796.64	673.75	1.76	233.85	1.00	88.45	5756.62	-5575.02	4007.65
Saccade R	1	8	6224572902	6224592781	19879	975.22	820.74	796.64	673.75	1.76	233.85	1.00	88.45	5756.62	-5575.02	4007.65
Fixation L	1	9	6224592781	6224752026	159245	761.36	652.07	40	28	-1	15.59	15.59
Fixation R	1	9	6224592781	6224752026	159245	761.36	652.07	40	28	-1	17.54	17.54
