[BeGaze]
Converted from:	C:\Documents and Settings\iViewX\Desktop\EXPERIMENTATIONS\Experiments\results\finaleart\S11H21112-finaleart-1.idf
Date:	27.03.2019 15:38:50
Version:	BeGaze 2.5.77
Sample Rate:	50
Subject:	S11H21112
Description:	Clement legrand-Duchenne

Table Header for Fixations:
Event Type	Trial	Number	Start	End	Duration	Location X	Location Y	Dispersion X	Dispersion Y	Plane	Avg. Pupil Size X	Avg. Pupil Size Y

Table Header for Saccades:
Event Type	Trial	Number	Start	End	Duration	Start Loc.X	Start Loc.Y	End Loc.X	End Loc.Y	Amplitude	Peak Speed	Peak Speed At	Average Speed	Peak Accel.	Peak Decel.	Average Accel.

Table Header for Blinks:
Event Type	Trial	Number	Start	End	Duration

Table Header for User Events:
Event Type	Trial	Number	Start	Description

UserEvent	1	1	4306319716	# Message: void.jpg
Fixation L	1	1	4306335346	4306534353	199007	768.56	582.41	5	22	-1	15.04	15.04
Fixation R	1	1	4306335346	4306534353	199007	768.56	582.41	5	22	-1	15.22	15.22
Saccade L	1	1	4306534353	4306554250	19897	765.73	575.09	893.75	572.59	0.92	129.51	1.00	46.18	3188.36	-2266.88	2237.04
Saccade R	1	1	4306534353	4306554250	19897	765.73	575.09	893.75	572.59	0.92	129.51	1.00	46.18	3188.36	-2266.88	2237.04
Fixation L	1	2	4306554250	4306971958	417708	915.67	538.91	42	50	-1	15.19	15.19
Fixation R	1	2	4306554250	4306971958	417708	915.67	538.91	42	50	-1	15.53	15.53
Saccade L	1	2	4306971958	4306991816	19858	936.63	522.56	980.56	518.53	0.46	44.63	1.00	23.08	959.41	-823.76	698.51
Saccade R	1	2	4306971958	4306991816	19858	936.63	522.56	980.56	518.53	0.46	44.63	1.00	23.08	959.41	-823.76	698.51
Fixation L	1	3	4306991816	4307807282	815466	994.51	538.52	24	37	-1	14.33	14.33
Fixation R	1	3	4306991816	4307807282	815466	994.51	538.52	24	37	-1	15.14	15.14
Saccade L	1	3	4307807282	4307847026	39744	983.34	545.12	761.30	587.34	2.20	123.99	1.00	55.26	2920.11	-2527.92	2416.81
Saccade R	1	3	4307807282	4307847026	39744	983.34	545.12	761.30	587.34	2.20	123.99	1.00	55.26	2920.11	-2527.92	2416.81
Fixation L	1	4	4307847026	4307986269	139243	758.01	626.99	5	50	-1	15.28	15.28
Fixation R	1	4	4307847026	4307986269	139243	758.01	626.99	5	50	-1	16.01	16.01
Saccade L	1	4	4307986269	4308165261	178992	756.14	637.48	241.86	698.57	9.46	182.21	0.22	52.83	4390.91	-4138.83	1556.88
Saccade R	1	4	4307986269	4308165261	178992	756.14	637.48	241.86	698.57	9.46	182.21	0.22	52.83	4390.91	-4138.83	1556.88
Fixation L	1	5	4308165261	4308304514	139253	259.03	702.82	29	15	-1	15.11	15.11
Fixation R	1	5	4308165261	4308304514	139253	259.03	702.82	29	15	-1	16.83	16.83
