[BeGaze]
Converted from:	C:\Documents and Settings\iViewX\Desktop\EXPERIMENTATIONS\Experiments\results\finaleart\S11H21112-finaleart-1.idf
Date:	27.03.2019 15:39:07
Version:	BeGaze 2.5.77
Sample Rate:	50
Subject:	S11H21112
Description:	Clement legrand-Duchenne

Table Header for Fixations:
Event Type	Trial	Number	Start	End	Duration	Location X	Location Y	Dispersion X	Dispersion Y	Plane	Avg. Pupil Size X	Avg. Pupil Size Y

Table Header for Saccades:
Event Type	Trial	Number	Start	End	Duration	Start Loc.X	Start Loc.Y	End Loc.X	End Loc.Y	Amplitude	Peak Speed	Peak Speed At	Average Speed	Peak Accel.	Peak Decel.	Average Accel.

Table Header for Blinks:
Event Type	Trial	Number	Start	End	Duration

Table Header for User Events:
Event Type	Trial	Number	Start	Description

UserEvent	1	1	5131417342	# Message: Bank_Of_A_Lake_Pechstein_1910.jpg
Fixation L	1	1	5131426034	5131684898	258864	1029.41	592.41	83	14	-1	12.43	12.43
Fixation R	1	1	5131426034	5131684898	258864	1029.41	592.41	83	14	-1	14.26	14.26
Saccade L	1	1	5131684898	5131704890	19992	964.32	591.36	959.92	587.17	0.17	12.61	1.00	8.55	-23.18	-243.50	142.73
Saccade R	1	1	5131684898	5131704890	19992	964.32	591.36	959.92	587.17	0.17	12.61	1.00	8.55	-23.18	-243.50	142.73
Fixation L	1	2	5131704890	5131923883	218993	957.05	584.73	7	6	-1	12.55	12.55
Fixation R	1	2	5131704890	5131923883	218993	957.05	584.73	7	6	-1	14.63	14.63
Saccade L	1	2	5131923883	5131963756	39873	954.72	587.07	736.76	298.59	3.14	197.12	1.00	78.81	4903.21	-4889.40	4473.16
Saccade R	1	2	5131923883	5131963756	39873	954.72	587.07	736.76	298.59	3.14	197.12	1.00	78.81	4903.21	-4889.40	4473.16
Fixation L	1	3	5131963756	5132322109	358353	745.70	318.56	15	40	-1	11.88	11.88
Fixation R	1	3	5131963756	5132322109	358353	745.70	318.56	15	40	-1	13.77	13.77
Saccade L	1	3	5132322109	5132342008	19899	748.81	316.08	748.52	196.55	1.00	120.90	1.00	50.49	2913.86	-2537.65	2359.63
Saccade R	1	3	5132322109	5132342008	19899	748.81	316.08	748.52	196.55	1.00	120.90	1.00	50.49	2913.86	-2537.65	2359.63
Fixation L	1	4	5132342008	5133038952	696944	738.26	136.33	17	78	-1	10.36	10.36
Fixation R	1	4	5132342008	5133038952	696944	738.26	136.33	17	78	-1	11.96	11.96
Saccade L	1	4	5133038952	5133118575	79623	737.40	118.29	1401.98	549.89	9.60	387.99	0.50	120.62	9605.77	-6951.93	5346.04
Saccade R	1	4	5133038952	5133118575	79623	737.40	118.29	1401.98	549.89	9.60	387.99	0.50	120.62	9605.77	-6951.93	5346.04
Fixation L	1	5	5133118575	5133337689	219114	1376.10	574.94	34	35	-1	10.97	10.97
Fixation R	1	5	5133118575	5133337689	219114	1376.10	574.94	34	35	-1	12.44	12.44
Saccade L	1	5	5133337689	5133357567	19878	1371.50	581.47	1514.65	579.95	0.84	144.79	1.00	42.05	3509.30	-3550.04	2459.95
Saccade R	1	5	5133337689	5133357567	19878	1371.50	581.47	1514.65	579.95	0.84	144.79	1.00	42.05	3509.30	-3550.04	2459.95
Fixation L	1	6	5133357567	5133556699	199132	1522.35	578.76	51	5	-1	11.09	11.09
Fixation R	1	6	5133357567	5133556699	199132	1522.35	578.76	51	5	-1	12.46	12.46
Saccade L	1	6	5133556699	5133576678	19979	1479.10	581.11	1181.53	593.92	1.92	301.03	1.00	96.13	7474.07	-7322.68	5079.72
Saccade R	1	6	5133556699	5133576678	19979	1479.10	581.11	1181.53	593.92	1.92	301.03	1.00	96.13	7474.07	-7322.68	5079.72
Fixation L	1	7	5133576678	5134014678	438000	1162.77	590.22	27	50	-1	11.46	11.46
Fixation R	1	7	5133576678	5134014678	438000	1162.77	590.22	27	50	-1	12.67	12.67
Saccade L	1	7	5134014678	5134054533	39855	1164.85	562.00	1476.91	580.75	2.79	189.22	1.00	69.95	4659.01	-4577.47	3706.95
Saccade R	1	7	5134014678	5134054533	39855	1164.85	562.00	1476.91	580.75	2.79	189.22	1.00	69.95	4659.01	-4577.47	3706.95
Fixation L	1	8	5134054533	5134213772	159239	1494.56	606.54	33	36	-1	11.27	11.27
Fixation R	1	8	5134054533	5134213772	159239	1494.56	606.54	33	36	-1	12.37	12.37
Saccade L	1	8	5134213772	5134233780	20008	1510.04	604.11	1554.07	607.39	0.39	44.66	1.00	19.48	1060.94	-946.86	769.34
Saccade R	1	8	5134213772	5134233780	20008	1510.04	604.11	1554.07	607.39	0.39	44.66	1.00	19.48	1060.94	-946.86	769.34
Fixation L	1	9	5134233780	5134452764	218984	1564.07	607.33	13	9	-1	11.52	11.52
Fixation R	1	9	5134233780	5134452764	218984	1564.07	607.33	13	9	-1	12.69	12.69
Saccade L	1	9	5134452764	5134492639	39875	1565.88	606.89	1128.21	604.64	3.64	244.03	0.50	91.41	6028.83	-5853.25	5422.87
Saccade R	1	9	5134452764	5134492639	39875	1565.88	606.89	1128.21	604.64	3.64	244.03	0.50	91.41	6028.83	-5853.25	5422.87
Fixation L	1	10	5134492639	5134870996	378357	1135.65	567.92	23	53	-1	11.49	11.49
Fixation R	1	10	5134492639	5134870996	378357	1135.65	567.92	23	53	-1	12.55	12.55
Saccade L	1	10	5134870996	5134910750	39754	1143.91	573.23	744.62	569.01	3.42	208.74	1.00	85.96	4954.79	-5139.53	4867.47
Saccade R	1	10	5134870996	5134910750	39754	1143.91	573.23	744.62	569.01	3.42	208.74	1.00	85.96	4954.79	-5139.53	4867.47
Fixation L	1	11	5134910750	5135249233	338483	730.34	571.17	29	27	-1	11.35	11.35
Fixation R	1	11	5134910750	5135249233	338483	730.34	571.17	29	27	-1	12.71	12.71
Saccade L	1	11	5135249233	5135289108	39875	715.33	583.71	359.53	821.22	4.01	286.42	0.50	100.56	7048.05	-6237.91	4939.62
Saccade R	1	11	5135249233	5135289108	39875	715.33	583.71	359.53	821.22	4.01	286.42	0.50	100.56	7048.05	-6237.91	4939.62
Fixation L	1	12	5135289108	5135408596	119488	361.37	855.44	11	58	-1	11.33	11.33
Fixation R	1	12	5135289108	5135408596	119488	361.37	855.44	11	58	-1	12.88	12.88
