[BeGaze]
Converted from:	C:\Documents and Settings\iViewX\Desktop\EXPERIMENTATIONS\Experiments\results\finaleart\S11H21112-finaleart-1.idf
Date:	27.03.2019 15:39:14
Version:	BeGaze 2.5.77
Sample Rate:	50
Subject:	S11H21112
Description:	Clement legrand-Duchenne

Table Header for Fixations:
Event Type	Trial	Number	Start	End	Duration	Location X	Location Y	Dispersion X	Dispersion Y	Plane	Avg. Pupil Size X	Avg. Pupil Size Y

Table Header for Saccades:
Event Type	Trial	Number	Start	End	Duration	Start Loc.X	Start Loc.Y	End Loc.X	End Loc.Y	Amplitude	Peak Speed	Peak Speed At	Average Speed	Peak Accel.	Peak Decel.	Average Accel.

Table Header for Blinks:
Event Type	Trial	Number	Start	End	Duration

Table Header for User Events:
Event Type	Trial	Number	Start	Description

UserEvent	1	1	5256622247	# Message: goya-Bodegones-con-pargos-dorados-1812.jpg
Fixation L	1	1	5256635803	5256854539	218736	844.42	402.21	72	16	-1	13.09	13.09
Fixation R	1	1	5256635803	5256854539	218736	844.42	402.21	72	16	-1	13.29	13.29
Saccade L	1	1	5256854539	5256874427	19888	854.91	394.58	855.77	380.34	0.53	60.31	1.00	26.71	307.18	-1146.80	544.23
Saccade R	1	1	5256854539	5256874427	19888	854.91	394.58	855.77	380.34	0.53	60.31	1.00	26.71	307.18	-1146.80	544.23
Fixation L	1	2	5256874427	5257013669	139242	864.29	346.14	14	49	-1	13.21	13.21
Fixation R	1	2	5256874427	5257013669	139242	864.29	346.14	14	49	-1	13.53	13.53
Saccade L	1	2	5257013669	5257053402	39733	870.20	331.05	943.02	527.96	1.77	124.26	0.50	44.57	3032.65	-3032.13	2560.62
Saccade R	1	2	5257013669	5257053402	39733	870.20	331.05	943.02	527.96	1.77	124.26	0.50	44.57	3032.65	-3032.13	2560.62
Fixation L	1	3	5257053402	5257232395	178993	949.77	533.09	34	24	-1	13.18	13.18
Fixation R	1	3	5257053402	5257232395	178993	949.77	533.09	34	24	-1	13.34	13.34
Saccade L	1	3	5257232395	5257252277	19882	922.63	551.83	863.77	569.19	0.59	62.08	1.00	29.70	1421.34	-1303.80	1092.16
Saccade R	1	3	5257232395	5257252277	19882	922.63	551.83	863.77	569.19	0.59	62.08	1.00	29.70	1421.34	-1303.80	1092.16
Fixation L	1	4	5257252277	5257868869	616592	846.20	573.69	32	61	-1	13.89	13.89
Fixation R	1	4	5257252277	5257868869	616592	846.20	573.69	32	61	-1	13.82	13.82
Saccade L	1	4	5257868869	5257908746	39877	836.00	544.66	585.67	605.81	2.43	148.68	0.50	61.01	3619.32	-2824.19	2901.74
Saccade R	1	4	5257868869	5257908746	39877	836.00	544.66	585.67	605.81	2.43	148.68	0.50	61.01	3619.32	-2824.19	2901.74
Fixation L	1	5	5257908746	5258226983	318237	585.20	596.30	13	34	-1	13.67	13.67
Fixation R	1	5	5257908746	5258226983	318237	585.20	596.30	13	34	-1	14.24	14.24
Saccade L	1	5	5258226983	5258266742	39759	583.98	598.26	582.82	797.57	1.78	111.48	1.00	44.87	2781.20	-2258.25	2246.53
Saccade R	1	5	5258226983	5258266742	39759	583.98	598.26	582.82	797.57	1.78	111.48	1.00	44.87	2781.20	-2258.25	2246.53
Fixation L	1	6	5258266742	5258863329	596587	592.43	834.53	15	77	-1	14.06	14.06
Fixation R	1	6	5258266742	5258863329	596587	592.43	834.53	15	77	-1	14.26	14.26
Saccade L	1	6	5258863329	5258923080	59751	597.89	846.63	1071.45	856.51	4.89	185.27	0.67	81.91	4543.72	-4494.55	3547.27
Saccade R	1	6	5258863329	5258923080	59751	597.89	846.63	1071.45	856.51	4.89	185.27	0.67	81.91	4543.72	-4494.55	3547.27
Fixation L	1	7	5258923080	5259400430	477350	1099.52	849.89	63	23	-1	14.11	14.11
Fixation R	1	7	5258923080	5259400430	477350	1099.52	849.89	63	23	-1	14.10	14.10
Saccade L	1	7	5259400430	5259420300	19870	1134.80	840.98	1271.03	842.25	1.09	137.79	1.00	55.09	3372.71	-3394.94	2874.93
Saccade R	1	7	5259400430	5259420300	19870	1134.80	840.98	1271.03	842.25	1.09	137.79	1.00	55.09	3372.71	-3394.94	2874.93
Fixation L	1	8	5259420300	5259718675	298375	1344.91	851.69	83	14	-1	14.14	14.14
Fixation R	1	8	5259420300	5259718675	298375	1344.91	851.69	83	14	-1	14.03	14.03
Saccade L	1	8	5259718675	5259738537	19862	1346.57	855.50	1344.35	864.61	0.09	9.48	1.00	4.40	186.47	69.15	131.63
Saccade R	1	8	5259718675	5259738537	19862	1346.57	855.50	1344.35	864.61	0.09	9.48	1.00	4.40	186.47	69.15	131.63
Fixation L	1	9	5259738537	5259857908	119371	1342.29	859.16	5	25	-1	14.26	14.26
Fixation R	1	9	5259738537	5259857908	119371	1342.29	859.16	5	25	-1	14.12	14.12
Saccade L	1	9	5259857908	5259877786	19878	1341.31	844.81	1353.59	696.82	0.90	150.19	1.00	45.20	3698.08	-3157.91	2307.69
Saccade R	1	9	5259857908	5259877786	19878	1341.31	844.81	1353.59	696.82	0.90	150.19	1.00	45.20	3698.08	-3157.91	2307.69
Fixation L	1	10	5259877786	5260613625	735839	1383.67	695.06	57	34	-1	14.64	14.64
Fixation R	1	10	5259877786	5260613625	735839	1383.67	695.06	57	34	-1	14.46	14.46
