[BeGaze]
Converted from:	C:\Documents and Settings\iViewX\Desktop\EXPERIMENTATIONS\Experiments\results\finaleart\S11H21112-finaleart-1.idf
Date:	27.03.2019 15:39:32
Version:	BeGaze 2.5.77
Sample Rate:	50
Subject:	S11H21112
Description:	Clement legrand-Duchenne

Table Header for Fixations:
Event Type	Trial	Number	Start	End	Duration	Location X	Location Y	Dispersion X	Dispersion Y	Plane	Avg. Pupil Size X	Avg. Pupil Size Y

Table Header for Saccades:
Event Type	Trial	Number	Start	End	Duration	Start Loc.X	Start Loc.Y	End Loc.X	End Loc.Y	Amplitude	Peak Speed	Peak Speed At	Average Speed	Peak Accel.	Peak Decel.	Average Accel.

Table Header for Blinks:
Event Type	Trial	Number	Start	End	Duration

Table Header for User Events:
Event Type	Trial	Number	Start	Description

UserEvent	1	1	5592754199	# Message: void.jpg
Fixation L	1	1	5592754997	5592854494	99497	732.09	334.58	43	15	-1	11.49	11.49
Fixation R	1	1	5592754997	5592854494	99497	732.09	334.58	43	15	-1	13.64	13.64
Saccade L	1	1	5592854494	5592874385	19891	765.60	329.42	870.52	309.29	0.82	108.06	1.00	41.16	2600.72	-2372.43	1903.30
Saccade R	1	1	5592854494	5592874385	19891	765.60	329.42	870.52	309.29	0.82	108.06	1.00	41.16	2600.72	-2372.43	1903.30
Fixation L	1	2	5592874385	5593312086	437701	868.78	299.78	8	20	-1	11.24	11.24
Fixation R	1	2	5592874385	5593312086	437701	868.78	299.78	8	20	-1	13.45	13.45
Blink L	1	1	5593312086	5593769816	457730
Blink R	1	1	5593312086	5593769816	457730
Blink L	1	2	5593789692	5594008560	218868
Blink R	1	2	5593789692	5594008560	218868
Fixation L	1	3	5594008560	5594167676	159116	1032.54	380.80	13	8	-1	13.03	13.03
Fixation R	1	3	5594008560	5594167676	159116	1032.54	380.80	13	8	-1	15.18	15.18
Saccade L	1	2	5594167676	5594207429	39753	1030.28	383.24	1025.62	388.48	2.71	164.23	0.50	68.27	3962.04	-3965.56	3880.06
Saccade R	1	2	5594167676	5594227295	59619	1030.28	383.24	1020.90	391.39	3.51	164.23	0.33	58.84	3962.04	-3965.56	3113.38
Fixation L	1	4	5594207429	5594744401	536972	1029.97	384.45	17	12	-1	12.75	12.75
Fixation R	1	4	5594247175	5594744401	497226	1030.49	384.03	17	10	-1	14.98	14.98
