[BeGaze]
Converted from:	C:\Documents and Settings\iViewX\Desktop\EXPERIMENTATIONS\Experiments\results\finaleart\S11H21112-finaleart-1.idf
Date:	27.03.2019 15:39:07
Version:	BeGaze 2.5.77
Sample Rate:	50
Subject:	S11H21112
Description:	Clement legrand-Duchenne

Table Header for Fixations:
Event Type	Trial	Number	Start	End	Duration	Location X	Location Y	Dispersion X	Dispersion Y	Plane	Avg. Pupil Size X	Avg. Pupil Size Y

Table Header for Saccades:
Event Type	Trial	Number	Start	End	Duration	Start Loc.X	Start Loc.Y	End Loc.X	End Loc.Y	Amplitude	Peak Speed	Peak Speed At	Average Speed	Peak Accel.	Peak Decel.	Average Accel.

Table Header for Blinks:
Event Type	Trial	Number	Start	End	Duration

Table Header for User Events:
Event Type	Trial	Number	Start	Description

UserEvent	1	1	5135487444	# Message: void.jpg
Saccade L	1	1	5135488222	5135587861	99639	368.05	888.71	688.03	511.50	7.52	311.53	0.80	75.46	7746.49	-7457.25	2964.10
Saccade R	1	1	5135488222	5135587861	99639	368.05	888.71	688.03	511.50	7.52	311.53	0.80	75.46	7746.49	-7457.25	2964.10
Fixation L	1	1	5135587861	5135786960	199099	707.45	508.94	25	40	-1	11.07	11.07
Fixation R	1	1	5135587861	5135786960	199099	707.45	508.94	25	40	-1	12.77	12.77
Saccade L	1	2	5135786960	5135806838	19878	712.21	477.98	717.10	144.20	1.92	337.31	1.00	96.78	8286.78	-8309.90	5849.76
Saccade R	1	2	5135786960	5135806838	19878	712.21	477.98	717.10	144.20	1.92	337.31	1.00	96.78	8286.78	-8309.90	5849.76
Fixation L	1	2	5135806838	5136045842	239004	721.93	131.87	9	28	-1	10.78	10.78
Fixation R	1	2	5135806838	5136045842	239004	721.93	131.87	9	28	-1	12.52	12.52
Blink L	1	1	5136045842	5136205070	159228
Blink R	1	1	5136045842	5136165340	119498
Fixation R	1	3	5136165340	5136264816	99476	0.00	6.46	0	6	-1	10.77	10.77
Saccade L	1	3	5136205070	5136225067	19997	0.00	6.44	0.00	5.32	0.03	2.60	1.00	1.55	-12.18	-36.79	22.98
Saccade L	1	4	5136244945	5136264816	19871	0.00	4.50	0.00	3.87	0.02	1.13	1.00	0.78	10.07	-12.18	10.09
Blink L	1	2	5136264816	5136444055	179239
Saccade R	1	3	5136284822	5136304697	19875	0.00	3.36	0.00	2.33	9.39	1888.39	1.00	472.65	47212.47	10.07	31473.21
Blink R	1	2	5136304697	5136483933	179236
Saccade L	1	5	5136444055	5136663049	218994	1539.05	-43.27	1215.41	288.54	80.58	1583.29	1.00	367.97	34567.33	-35296.08	8899.48
Saccade R	1	4	5136483933	5136663049	179116	1475.00	-67.43	1215.41	288.54	52.09	1520.76	1.00	290.82	2662.33	-35296.08	7232.95
Fixation L	1	3	5136663049	5136782543	119494	1168.09	306.31	70	22	-1	12.33	12.33
Fixation R	1	4	5136663049	5136782543	119494	1168.09	306.31	70	22	-1	13.98	13.98
Saccade L	1	6	5136782543	5136802537	19994	1145.40	311.53	1053.62	315.63	0.67	92.93	1.00	33.71	2098.30	-1916.21	1508.19
Saccade R	1	5	5136782543	5136802537	19994	1145.40	311.53	1053.62	315.63	0.67	92.93	1.00	33.71	2098.30	-1916.21	1508.19
Fixation L	1	4	5136802537	5137061402	258865	1013.75	335.04	54	39	-1	12.58	12.58
Fixation R	1	5	5136802537	5137061402	258865	1013.75	335.04	54	39	-1	14.27	14.27
Saccade L	1	7	5137061402	5137081283	19881	1024.13	340.25	1044.29	368.29	0.44	34.93	1.00	22.33	567.22	-414.83	458.35
Saccade R	1	6	5137061402	5137081283	19881	1024.13	340.25	1044.29	368.29	0.44	34.93	1.00	22.33	567.22	-414.83	458.35
Fixation L	1	5	5137081283	5137260537	179254	1063.91	385.88	27	26	-1	12.79	12.79
Fixation R	1	6	5137081283	5137260537	179254	1063.91	385.88	27	26	-1	14.52	14.52
Saccade L	1	8	5137260537	5137280394	19857	1068.54	390.33	1139.98	393.95	0.67	72.36	1.00	33.79	1597.43	-1341.26	1348.24
Saccade R	1	7	5137260537	5137280394	19857	1068.54	390.33	1139.98	393.95	0.67	72.36	1.00	33.79	1597.43	-1341.26	1348.24
Fixation L	1	6	5137280394	5137479517	199123	1162.54	400.80	47	45	-1	12.82	12.82
Fixation R	1	7	5137280394	5137479517	199123	1162.54	400.80	47	45	-1	14.73	14.73
