[BeGaze]
Converted from:	C:\Documents and Settings\iViewX\Desktop\EXPERIMENTATIONS\Experiments\results\finaleart\S11H21112-finaleart-1.idf
Date:	27.03.2019 15:39:33
Version:	BeGaze 2.5.77
Sample Rate:	50
Subject:	S11H21112
Description:	Clement legrand-Duchenne

Table Header for Fixations:
Event Type	Trial	Number	Start	End	Duration	Location X	Location Y	Dispersion X	Dispersion Y	Plane	Avg. Pupil Size X	Avg. Pupil Size Y

Table Header for Saccades:
Event Type	Trial	Number	Start	End	Duration	Start Loc.X	Start Loc.Y	End Loc.X	End Loc.Y	Amplitude	Peak Speed	Peak Speed At	Average Speed	Peak Accel.	Peak Decel.	Average Accel.

Table Header for Blinks:
Event Type	Trial	Number	Start	End	Duration

Table Header for User Events:
Event Type	Trial	Number	Start	Description

UserEvent	1	1	5600893588	# Message: the-wood_cross_907.jpg
Blink L	1	1	5600910639	5601557792	647153
Blink R	1	1	5600910639	5601557792	647153
Fixation L	1	1	5601557792	5601677100	119308	952.39	598.69	7	57	-1	11.67	11.67
Fixation R	1	1	5601557792	5601677100	119308	952.39	598.69	7	57	-1	13.42	13.42
Saccade R	1	1	5601677100	5601716849	39749	952.13	572.40	953.26	561.39	9.95	617.60	0.50	250.21	15294.69	-15322.93	15121.71
Fixation R	1	2	5601716849	5601836219	119370	951.24	554.72	7	72	-1	13.32	13.32
Fixation L	1	2	5601736717	5601836219	99502	950.91	553.61	7	72	-1	11.71	11.71
Saccade L	1	1	5601836219	5601856086	19867	954.11	605.30	952.99	700.83	0.96	96.64	1.00	48.42	2213.33	-2314.80	1996.95
Saccade R	1	2	5601836219	5601856086	19867	954.11	605.30	952.99	700.83	0.96	96.64	1.00	48.42	2213.33	-2314.80	1996.95
Fixation L	1	3	5601856086	5601955580	99494	952.95	699.59	5	44	-1	8.93	8.93
Fixation R	1	3	5601856086	5601995467	139381	953.23	700.52	5	44	-1	10.58	10.58
Fixation L	1	4	5601995467	5602293971	298504	956.90	725.44	6	38	-1	12.10	12.10
Fixation R	1	4	5602015330	5602293971	278641	957.18	726.75	3	38	-1	13.71	13.71
Saccade L	1	2	5602293971	5602313820	19849	956.91	744.42	1081.06	732.11	0.81	126.19	1.00	40.75	3012.41	-2876.85	2202.02
Saccade R	1	3	5602293971	5602313820	19849	956.91	744.42	1081.06	732.11	0.81	126.19	1.00	40.75	3012.41	-2876.85	2202.02
Fixation L	1	5	5602313820	5603030168	716348	1097.42	685.37	30	67	-1	11.86	11.86
Fixation R	1	5	5602313820	5603030168	716348	1097.42	685.37	30	67	-1	13.13	13.13
Saccade L	1	3	5603030168	5603069913	39745	1110.26	690.27	891.71	472.86	2.88	178.46	1.00	72.39	4431.14	-4256.35	3883.71
Saccade R	1	4	5603030168	5603069913	39745	1110.26	690.27	891.71	472.86	2.88	178.46	1.00	72.39	4431.14	-4256.35	3883.71
Fixation L	1	6	5603069913	5603647007	577094	873.20	478.32	27	14	-1	11.10	11.10
Fixation R	1	6	5603069913	5603647007	577094	873.20	478.32	27	14	-1	12.35	12.35
Saccade L	1	4	5603647007	5603666907	19900	867.04	479.41	1030.46	465.31	0.95	165.88	1.00	47.53	4111.14	-3526.65	2661.55
Saccade R	1	5	5603647007	5603666907	19900	867.04	479.41	1030.46	465.31	0.95	165.88	1.00	47.53	4111.14	-3526.65	2661.55
Fixation L	1	7	5603666907	5604005138	338231	1051.22	425.56	26	59	-1	11.25	11.25
Fixation R	1	7	5603666907	5604005138	338231	1051.22	425.56	26	59	-1	12.69	12.69
Saccade L	1	5	5604005138	5604024994	19856	1049.39	428.29	1108.37	406.69	0.41	63.54	1.00	20.55	1545.36	-1155.76	949.14
Saccade R	1	6	5604005138	5604024994	19856	1049.39	428.29	1108.37	406.69	0.41	63.54	1.00	20.55	1545.36	-1155.76	949.14
Fixation L	1	8	5604024994	5604422982	397988	1116.86	394.61	25	17	-1	11.84	11.84
Fixation R	1	8	5604024994	5604422982	397988	1116.86	394.61	25	17	-1	13.47	13.47
Saccade L	1	6	5604422982	5604442847	19865	1100.83	398.64	965.79	433.50	0.92	141.06	1.00	46.52	3494.32	-2490.20	2016.29
Saccade R	1	7	5604422982	5604442847	19865	1100.83	398.64	965.79	433.50	0.92	141.06	1.00	46.52	3494.32	-2490.20	2016.29
Fixation L	1	9	5604442847	5604781217	338370	956.44	445.99	12	51	-1	12.24	12.24
Fixation R	1	9	5604442847	5604781217	338370	956.44	445.99	12	51	-1	13.97	13.97
Saccade L	1	7	5604781217	5604880591	99374	957.83	453.45	795.38	437.26	2.50	125.11	0.20	25.14	3080.99	-2664.37	1127.97
Saccade R	1	8	5604781217	5604880591	99374	957.83	453.45	795.38	437.26	2.50	125.11	0.20	25.14	3080.99	-2664.37	1127.97
