[BeGaze]
Converted from:	C:\Documents and Settings\iViewX\Desktop\EXPERIMENTATIONS\Experiments\results\finaleart\S11H21112-finaleart-1.idf
Date:	27.03.2019 15:38:58
Version:	BeGaze 2.5.77
Sample Rate:	50
Subject:	S11H21112
Description:	Clement legrand-Duchenne

Table Header for Fixations:
Event Type	Trial	Number	Start	End	Duration	Location X	Location Y	Dispersion X	Dispersion Y	Plane	Avg. Pupil Size X	Avg. Pupil Size Y

Table Header for Saccades:
Event Type	Trial	Number	Start	End	Duration	Start Loc.X	Start Loc.Y	End Loc.X	End Loc.Y	Amplitude	Peak Speed	Peak Speed At	Average Speed	Peak Accel.	Peak Decel.	Average Accel.

Table Header for Blinks:
Event Type	Trial	Number	Start	End	Duration

Table Header for User Events:
Event Type	Trial	Number	Start	Description

UserEvent	1	1	4416216247	# Message: void.jpg
Saccade L	1	1	4416228297	4416367743	139446	1390.25	628.64	877.40	645.33	8.22	213.00	0.86	58.98	5312.80	-5290.67	2108.22
Saccade R	1	1	4416228297	4416367743	139446	1390.25	628.64	877.40	645.33	8.22	213.00	0.86	58.98	5312.80	-5290.67	2108.22
Fixation L	1	1	4416367743	4416825016	457273	889.17	636.06	23	40	-1	12.69	12.69
Fixation R	1	1	4416367743	4416825016	457273	889.17	636.06	23	40	-1	14.65	14.65
Blink L	1	1	4416825016	4417143250	318234
Blink R	1	1	4416825016	4417143250	318234
Fixation L	1	2	4417143250	4417322239	178989	1591.33	54.09	35	46	-1	12.71	12.71
Fixation R	1	2	4417143250	4417322239	178989	1591.33	54.09	35	46	-1	14.51	14.51
Saccade L	1	2	4417322239	4417342111	19872	1584.98	59.61	1557.52	87.49	0.44	39.58	1.00	22.19	864.06	-683.21	587.17
Saccade R	1	2	4417322239	4417342111	19872	1584.98	59.61	1557.52	87.49	0.44	39.58	1.00	22.19	864.06	-683.21	587.17
Fixation L	1	3	4417342111	4417640482	298371	1557.44	85.76	50	45	-1	12.60	12.60
Fixation R	1	3	4417342111	4417640482	298371	1557.44	85.76	50	45	-1	14.54	14.54
Saccade L	1	3	4417640482	4417660346	19864	1530.69	64.96	1523.14	70.33	0.35	38.43	1.00	17.41	447.69	-726.68	414.65
Saccade R	1	3	4417640482	4417660346	19864	1530.69	64.96	1523.14	70.33	0.35	38.43	1.00	17.41	447.69	-726.68	414.65
Fixation L	1	4	4417660346	4418058209	397863	1501.76	72.11	51	45	-1	13.32	13.32
Fixation R	1	4	4417660346	4418058209	397863	1501.76	72.11	51	45	-1	15.22	15.22
Saccade L	1	4	4418058209	4418078083	19874	1503.78	58.83	1455.33	128.73	0.80	86.03	1.00	40.48	1582.13	-2050.64	1289.39
Saccade R	1	4	4418058209	4418078083	19874	1503.78	58.83	1455.33	128.73	0.80	86.03	1.00	40.48	1582.13	-2050.64	1289.39
Fixation L	1	5	4418078083	4418217352	139269	1473.63	89.78	35	58	-1	13.47	13.47
Fixation R	1	5	4418078083	4418217352	139269	1473.63	89.78	35	58	-1	15.26	15.26
