[BeGaze]
Converted from:	C:\Documents and Settings\iViewX\Desktop\EXPERIMENTATIONS\Experiments\results\finaleart\S11H21112-finaleart-1.idf
Date:	27.03.2019 15:39:02
Version:	BeGaze 2.5.77
Sample Rate:	50
Subject:	S11H21112
Description:	Clement legrand-Duchenne

Table Header for Fixations:
Event Type	Trial	Number	Start	End	Duration	Location X	Location Y	Dispersion X	Dispersion Y	Plane	Avg. Pupil Size X	Avg. Pupil Size Y

Table Header for Saccades:
Event Type	Trial	Number	Start	End	Duration	Start Loc.X	Start Loc.Y	End Loc.X	End Loc.Y	Amplitude	Peak Speed	Peak Speed At	Average Speed	Peak Accel.	Peak Decel.	Average Accel.

Table Header for Blinks:
Event Type	Trial	Number	Start	End	Duration

Table Header for User Events:
Event Type	Trial	Number	Start	Description

UserEvent	1	1	5068231654	# Message: void.jpg
Saccade L	1	1	5068232058	5068271909	39851	618.12	728.40	462.08	786.39	1.76	140.25	1.00	44.24	3506.13	-3341.63	1835.73
Saccade R	1	1	5068232058	5068271909	39851	618.12	728.40	462.08	786.39	1.76	140.25	1.00	44.24	3506.13	-3341.63	1835.73
Fixation L	1	1	5068271909	5068490774	218865	450.55	789.20	27	57	-1	15.03	15.03
Fixation R	1	1	5068271909	5068490774	218865	450.55	789.20	27	57	-1	18.20	18.20
Saccade L	1	2	5068490774	5068510648	19874	434.99	832.91	390.32	816.76	0.65	49.82	0.00	32.51	1115.39	-1031.72	891.34
Saccade R	1	2	5068490774	5068510648	19874	434.99	832.91	390.32	816.76	0.65	49.82	0.00	32.51	1115.39	-1031.72	891.34
Fixation L	1	2	5068510648	5068848882	338234	371.00	841.14	28	47	-1	14.85	14.85
Fixation R	1	2	5068510648	5068848882	338234	371.00	841.14	28	47	-1	18.10	18.10
Blink L	1	1	5068848882	5069207119	358237
Blink R	1	1	5068848882	5069226995	378113
Fixation L	1	3	5069207119	5069326504	119385	958.71	112.59	26	58	-1	14.26	14.26
Fixation R	1	3	5069226995	5069326504	99509	955.95	117.44	13	57	-1	16.11	16.11
Saccade L	1	3	5069326504	5069366235	39731	953.02	142.17	838.53	377.19	2.40	212.60	1.00	60.50	4982.36	-5137.66	3026.22
Saccade R	1	3	5069326504	5069366235	39731	953.02	142.17	838.53	377.19	2.40	212.60	1.00	60.50	4982.36	-5137.66	3026.22
Fixation L	1	4	5069366235	5069505605	139370	841.45	364.84	8	31	-1	13.63	13.63
Fixation R	1	4	5069366235	5069505605	139370	841.45	364.84	8	31	-1	15.38	15.38
Saccade L	1	4	5069505605	5069585108	79503	838.71	345.78	219.88	193.31	8.39	252.23	0.50	105.56	5947.21	-4182.03	3698.13
Saccade R	1	4	5069505605	5069585108	79503	838.71	345.78	219.88	193.31	8.39	252.23	0.50	105.56	5947.21	-4182.03	3698.13
Fixation L	1	5	5069585108	5069724477	139369	237.43	196.16	34	12	-1	13.08	13.08
Fixation R	1	5	5069585108	5069724477	139369	237.43	196.16	34	12	-1	15.23	15.23
Saccade L	1	5	5069724477	5069744345	19868	237.80	193.03	238.96	259.97	0.73	67.73	1.00	36.68	1498.64	-454.61	1078.88
Saccade R	1	5	5069724477	5069744345	19868	237.80	193.03	238.96	259.97	0.73	67.73	1.00	36.68	1498.64	-454.61	1078.88
Fixation L	1	6	5069744345	5069863722	119377	243.01	244.64	14	83	-1	12.96	12.96
Fixation R	1	6	5069744345	5069863722	119377	243.01	244.64	14	83	-1	15.04	15.04
Saccade L	1	6	5069863722	5069903465	39743	246.75	208.02	448.55	218.82	2.84	165.16	1.00	71.38	3344.47	-3742.00	2026.06
Saccade R	1	6	5069863722	5069903465	39743	246.75	208.02	448.55	218.82	2.84	165.16	1.00	71.38	3344.47	-3742.00	2026.06
Fixation L	1	7	5069903465	5070221829	318364	455.96	257.74	12	74	-1	12.65	12.65
Fixation R	1	7	5069903465	5070221829	318364	455.96	257.74	12	74	-1	15.10	15.10
