[BeGaze]
Converted from:	C:\Documents and Settings\iViewX\Desktop\EXPERIMENTATIONS\Experiments\results\finaleart\S11H21112-finaleart-1.idf
Date:	27.03.2019 15:39:06
Version:	BeGaze 2.5.77
Sample Rate:	50
Subject:	S11H21112
Description:	Clement legrand-Duchenne

Table Header for Fixations:
Event Type	Trial	Number	Start	End	Duration	Location X	Location Y	Dispersion X	Dispersion Y	Plane	Avg. Pupil Size X	Avg. Pupil Size Y

Table Header for Saccades:
Event Type	Trial	Number	Start	End	Duration	Start Loc.X	Start Loc.Y	End Loc.X	End Loc.Y	Amplitude	Peak Speed	Peak Speed At	Average Speed	Peak Accel.	Peak Decel.	Average Accel.

Table Header for Blinks:
Event Type	Trial	Number	Start	End	Duration

Table Header for User Events:
Event Type	Trial	Number	Start	Description

UserEvent	1	1	5123262345	# Message: void.jpg
Fixation L	1	1	5123267655	5123904491	636836	1144.87	495.45	12	38	-1	11.98	11.98
Fixation R	1	1	5123267655	5123924365	656710	1144.65	493.83	12	68	-1	13.14	13.14
Blink L	1	1	5123904491	5124202840	298349
Saccade R	1	1	5123924365	5124242716	318351	1137.29	440.10	1345.46	63.88	65.15	1348.53	0.56	204.65	33710.57	-33014.70	8080.92
Saccade L	1	1	5124202840	5124242716	39876	1338.96	74.21	1345.46	63.88	2.11	90.42	1.00	52.93	879.26	-693.71	639.27
Fixation L	1	2	5124242716	5124342210	99494	1340.37	95.24	23	71	-1	13.24	13.24
Fixation R	1	2	5124242716	5124342210	99494	1340.37	95.24	23	71	-1	14.49	14.49
Saccade L	1	2	5124342210	5124401830	59620	1329.27	134.98	1127.23	204.53	3.10	126.17	0.67	52.04	2644.20	-2933.14	2037.92
Saccade R	1	2	5124342210	5124401830	59620	1329.27	134.98	1127.23	204.53	3.10	126.17	0.67	52.04	2644.20	-2933.14	2037.92
Fixation L	1	3	5124401830	5124541199	139369	1111.77	212.18	43	33	-1	12.74	12.74
Fixation R	1	3	5124401830	5124541199	139369	1111.77	212.18	43	33	-1	13.98	13.98
Saccade L	1	3	5124541199	5124561072	19873	1083.30	231.56	997.05	381.79	1.22	175.19	1.00	61.27	4360.94	-3569.52	2723.58
Saccade R	1	3	5124541199	5124561072	19873	1083.30	231.56	997.05	381.79	1.22	175.19	1.00	61.27	4360.94	-3569.52	2723.58
Fixation L	1	4	5124561072	5125257548	696476	967.83	409.31	37	57	-1	12.99	12.99
Fixation R	1	4	5124561072	5125257548	696476	967.83	409.31	37	57	-1	14.68	14.68
