[BeGaze]
Converted from:	C:\Documents and Settings\iViewX\Desktop\EXPERIMENTATIONS\Experiments\results\finaleart\S11H21112-finaleart-1.idf
Date:	27.03.2019 15:39:15
Version:	BeGaze 2.5.77
Sample Rate:	50
Subject:	S11H21112
Description:	Clement legrand-Duchenne

Table Header for Fixations:
Event Type	Trial	Number	Start	End	Duration	Location X	Location Y	Dispersion X	Dispersion Y	Plane	Avg. Pupil Size X	Avg. Pupil Size Y

Table Header for Saccades:
Event Type	Trial	Number	Start	End	Duration	Start Loc.X	Start Loc.Y	End Loc.X	End Loc.Y	Amplitude	Peak Speed	Peak Speed At	Average Speed	Peak Accel.	Peak Decel.	Average Accel.

Table Header for Blinks:
Event Type	Trial	Number	Start	End	Duration

Table Header for User Events:
Event Type	Trial	Number	Start	Description

UserEvent	1	1	5266777443	# Message: void.jpg
Fixation L	1	1	5266782991	5267061721	278730	463.27	607.06	62	31	-1	14.18	14.18
Fixation R	1	1	5266782991	5267061721	278730	463.27	607.06	62	31	-1	15.11	15.11
Saccade L	1	1	5267061721	5267081593	19872	501.98	594.77	508.67	596.47	0.08	6.98	1.00	4.01	105.38	-101.54	77.10
Saccade R	1	1	5267061721	5267081593	19872	501.98	594.77	508.67	596.47	0.08	6.98	1.00	4.01	105.38	-101.54	77.10
Fixation L	1	2	5267081593	5267280836	199243	517.37	597.78	15	9	-1	14.86	14.86
Fixation R	1	2	5267081593	5267280836	199243	517.37	597.78	15	9	-1	15.76	15.76
Blink L	1	1	5267280836	5267579447	298611
Blink R	1	1	5267280836	5267579447	298611
Saccade L	1	2	5267579447	5267838076	258629	1393.42	91.30	1374.61	120.15	11.40	115.85	0.31	44.06	2580.97	-2422.97	1013.55
Saccade R	1	2	5267579447	5267838076	258629	1393.42	91.30	1374.61	120.15	11.40	115.85	0.31	44.06	2580.97	-2422.97	1013.55
Fixation L	1	3	5267838076	5267997175	159099	1368.71	100.94	10	88	-1	13.65	13.65
Fixation R	1	3	5267838076	5267997175	159099	1368.71	100.94	10	88	-1	15.06	15.06
Saccade L	1	3	5267997175	5268017053	19878	1363.97	77.01	1363.02	84.58	0.33	33.75	1.00	16.52	687.34	-650.67	495.64
Saccade R	1	3	5267997175	5268017053	19878	1363.97	77.01	1363.02	84.58	0.33	33.75	1.00	16.52	687.34	-650.67	495.64
Fixation L	1	4	5268017053	5268116422	99369	1360.20	97.31	4	43	-1	14.04	14.04
Fixation R	1	4	5268017053	5268116422	99369	1360.20	97.31	4	43	-1	15.38	15.38
Saccade L	1	4	5268116422	5268434671	318249	1359.99	84.44	1343.19	42.62	19.69	142.67	0.69	61.87	3525.31	-2195.00	1254.96
Saccade R	1	4	5268116422	5268434671	318249	1359.99	84.44	1343.19	42.62	19.69	142.67	0.69	61.87	3525.31	-2195.00	1254.96
Fixation L	1	5	5268434671	5268693291	258620	1353.31	43.69	25	62	-1	14.46	14.46
Fixation R	1	5	5268434671	5268693291	258620	1353.31	43.69	25	62	-1	15.30	15.30
Saccade L	1	5	5268693291	5268772773	79482	1351.79	59.34	1239.63	96.08	2.90	115.28	0.25	36.55	2429.74	-2590.44	1071.07
Saccade R	1	5	5268693291	5268772773	79482	1351.79	59.34	1239.63	96.08	2.90	115.28	0.25	36.55	2429.74	-2590.44	1071.07
