[BeGaze]
Converted from:	C:\Documents and Settings\iViewX\Desktop\EXPERIMENTATIONS\Experiments\results\finaleart\S3121421-finaleart-1.idf
Date:	27.03.2019 15:33:48
Version:	BeGaze 2.5.77
Sample Rate:	50
Subject:	S3121421
Description:	Jean Jouve

Table Header for Fixations:
Event Type	Trial	Number	Start	End	Duration	Location X	Location Y	Dispersion X	Dispersion Y	Plane	Avg. Pupil Size X	Avg. Pupil Size Y

Table Header for Saccades:
Event Type	Trial	Number	Start	End	Duration	Start Loc.X	Start Loc.Y	End Loc.X	End Loc.Y	Amplitude	Peak Speed	Peak Speed At	Average Speed	Peak Accel.	Peak Decel.	Average Accel.

Table Header for Blinks:
Event Type	Trial	Number	Start	End	Duration

Table Header for User Events:
Event Type	Trial	Number	Start	Description

UserEvent	1	1	3903790042	# Message: metzinger-nature-morte-1905.jpg
Fixation L	1	1	3903808830	3904266314	457484	841.65	362.24	10	66	-1	13.43	13.43
Fixation R	1	1	3903808830	3904266314	457484	841.65	362.24	10	66	-1	14.86	14.86
Saccade L	1	1	3904266314	3904286185	19871	847.59	414.68	938.21	541.07	1.15	157.29	1.00	57.98	3850.38	-3561.91	2834.43
Saccade R	1	1	3904266314	3904286185	19871	847.59	414.68	938.21	541.07	1.15	157.29	1.00	57.98	3850.38	-3561.91	2834.43
Fixation L	1	2	3904286185	3904425421	139236	946.55	567.33	12	43	-1	13.81	13.81
Fixation R	1	2	3904286185	3904425421	139236	946.55	567.33	12	43	-1	14.48	14.48
Blink L	1	1	3904425421	3904584535	159114
Blink R	1	1	3904425421	3904584535	159114
Fixation L	1	3	3904584535	3904962380	377845	960.40	630.50	12	82	-1	12.34	12.34
Fixation R	1	3	3904584535	3904962380	377845	960.40	630.50	12	82	-1	13.43	13.43
Saccade L	1	2	3904962380	3905002142	39762	960.78	636.78	742.52	387.50	3.42	217.78	1.00	85.98	5262.52	-5269.91	3752.36
Saccade R	1	2	3904962380	3905002142	39762	960.78	636.78	742.52	387.50	3.42	217.78	1.00	85.98	5262.52	-5269.91	3752.36
Fixation L	1	4	3905002142	3905260744	258602	728.28	315.98	18	80	-1	11.54	11.54
Fixation R	1	4	3905002142	3905260744	258602	728.28	315.98	18	80	-1	13.01	13.01
Saccade L	1	3	3905260744	3905320364	59620	724.32	307.72	1213.25	280.20	5.12	254.86	0.67	85.84	6337.42	-5976.66	4122.18
Saccade R	1	3	3905260744	3905320364	59620	724.32	307.72	1213.25	280.20	5.12	254.86	0.67	85.84	6337.42	-5976.66	4122.18
Fixation L	1	5	3905320364	3905439731	119367	1199.66	287.36	22	16	-1	11.46	11.46
Fixation R	1	5	3905320364	3905439731	119367	1199.66	287.36	22	16	-1	12.55	12.55
Blink L	1	2	3905439731	3905598852	159121
Blink R	1	2	3905439731	3905598852	159121
Fixation L	1	6	3905598852	3905777836	178984	1251.55	306.15	9	9	-1	10.91	10.91
Fixation R	1	6	3905598852	3905777836	178984	1251.55	306.15	9	9	-1	11.59	11.59
Saccade L	1	4	3905777836	3905837580	59744	1249.01	306.85	665.93	824.52	8.17	319.51	0.67	136.69	7946.14	-7345.02	5248.96
Saccade R	1	4	3905777836	3905837580	59744	1249.01	306.85	665.93	824.52	8.17	319.51	0.67	136.69	7946.14	-7345.02	5248.96
Fixation L	1	7	3905837580	3905976701	139121	654.14	864.15	18	67	-1	10.55	10.55
Fixation R	1	7	3905837580	3905976701	139121	654.14	864.15	18	67	-1	11.27	11.27
Saccade L	1	5	3905976701	3905996704	20003	650.20	892.08	655.49	906.52	0.38	28.66	0.00	18.88	56.76	-265.40	193.70
Saccade R	1	5	3905976701	3905996704	20003	650.20	892.08	655.49	906.52	0.38	28.66	0.00	18.88	56.76	-265.40	193.70
Fixation L	1	8	3905996704	3906115950	119246	655.94	904.72	17	67	-1	10.69	10.69
Fixation R	1	8	3905996704	3906115950	119246	655.94	904.72	17	67	-1	11.62	11.62
Saccade L	1	6	3906115950	3906275081	159131	662.51	948.64	690.04	1016.70	6.81	89.13	0.38	42.77	29897.29	-1365.37	3652.21
Saccade R	1	6	3906115950	3906275081	159131	662.51	948.64	690.04	1016.70	6.81	89.13	0.38	42.77	29897.29	-1365.37	3652.21
Blink L	1	3	3906275081	3906474041	198960
Blink R	1	3	3906275081	3906474041	198960
Fixation L	1	9	3906474041	3906613410	139369	716.81	1001.20	20	17	-1	11.87	11.87
Fixation R	1	9	3906474041	3906613410	139369	716.81	1001.20	20	17	-1	11.43	11.43
Saccade L	1	7	3906613410	3906713032	99622	708.95	1009.55	1069.36	1065.24	7.72	227.11	0.20	77.51	5583.64	-5166.18	2933.24
Saccade R	1	7	3906613410	3906713032	99622	708.95	1009.55	1069.36	1065.24	7.72	227.11	0.20	77.51	5583.64	-5166.18	2933.24
Fixation L	1	10	3906713032	3906952021	238989	1069.34	1089.13	4	87	-1	11.97	11.97
Fixation R	1	10	3906713032	3906952021	238989	1069.34	1089.13	4	87	-1	10.81	10.81
Saccade L	1	8	3906952021	3906991768	39747	1070.93	1101.89	1133.05	895.58	2.44	160.92	1.00	61.40	3525.91	-3181.57	1981.32
Saccade R	1	8	3906952021	3906991768	39747	1070.93	1101.89	1133.05	895.58	2.44	160.92	1.00	61.40	3525.91	-3181.57	1981.32
Fixation L	1	11	3906991768	3907111262	119494	1139.77	866.40	20	64	-1	12.13	12.13
Fixation R	1	11	3906991768	3907111262	119494	1139.77	866.40	20	64	-1	11.11	11.11
Saccade L	1	9	3907111262	3907131134	19872	1145.46	831.44	1150.78	812.07	0.59	42.45	0.00	29.94	-130.02	-462.21	303.02
Saccade R	1	9	3907111262	3907131134	19872	1145.46	831.44	1150.78	812.07	0.59	42.45	0.00	29.94	-130.02	-462.21	303.02
Fixation L	1	12	3907131134	3907270501	139367	1148.93	826.01	6	37	-1	12.07	12.07
Fixation R	1	12	3907131134	3907270501	139367	1148.93	826.01	6	37	-1	10.81	10.81
Saccade L	1	10	3907270501	3907290497	19996	1150.03	819.96	1119.49	691.92	1.03	133.13	1.00	51.68	2696.80	-2783.82	1930.16
Saccade R	1	10	3907270501	3907290497	19996	1150.03	819.96	1119.49	691.92	1.03	133.13	1.00	51.68	2696.80	-2783.82	1930.16
Fixation L	1	13	3907290497	3907529355	238858	1091.37	662.83	37	43	-1	11.90	11.90
Fixation R	1	13	3907290497	3907529355	238858	1091.37	662.83	37	43	-1	11.21	11.21
Saccade L	1	11	3907529355	3907549364	20009	1081.73	653.18	1058.62	495.10	1.02	161.57	1.00	50.75	4005.67	-3667.19	2783.53
Saccade R	1	11	3907529355	3907549364	20009	1081.73	653.18	1058.62	495.10	1.02	161.57	1.00	50.75	4005.67	-3667.19	2783.53
Fixation L	1	14	3907549364	3907708594	159230	1027.18	457.42	48	49	-1	11.71	11.71
Fixation R	1	14	3907549364	3907708594	159230	1027.18	457.42	48	49	-1	11.15	11.15
Saccade L	1	12	3907708594	3907808217	99623	1011.72	452.46	624.41	262.39	6.83	208.91	0.40	68.58	5076.38	-4984.49	3052.01
Saccade R	1	12	3907708594	3907808217	99623	1011.72	452.46	624.41	262.39	6.83	208.91	0.40	68.58	5076.38	-4984.49	3052.01
