[BeGaze]
Converted from:	C:\Documents and Settings\iViewX\Desktop\EXPERIMENTATIONS\Experiments\results\finaleart\S3121421-finaleart-1.idf
Date:	27.03.2019 15:33:52
Version:	BeGaze 2.5.77
Sample Rate:	50
Subject:	S3121421
Description:	Jean Jouve

Table Header for Fixations:
Event Type	Trial	Number	Start	End	Duration	Location X	Location Y	Dispersion X	Dispersion Y	Plane	Avg. Pupil Size X	Avg. Pupil Size Y

Table Header for Saccades:
Event Type	Trial	Number	Start	End	Duration	Start Loc.X	Start Loc.Y	End Loc.X	End Loc.Y	Amplitude	Peak Speed	Peak Speed At	Average Speed	Peak Accel.	Peak Decel.	Average Accel.

Table Header for Blinks:
Event Type	Trial	Number	Start	End	Duration

Table Header for User Events:
Event Type	Trial	Number	Start	Description

UserEvent	1	1	4039162460	# Message: still-life_matisse_0.jpg
Fixation L	1	1	4039179771	4039677620	497849	1041.50	461.94	19	59	-1	13.27	13.27
Fixation R	1	1	4039179771	4039677620	497849	1041.50	461.94	19	59	-1	12.02	12.02
Saccade L	1	1	4039677620	4039697499	19879	1046.09	495.66	1057.46	516.29	0.62	52.73	0.00	31.36	-170.28	-861.98	517.74
Saccade R	1	1	4039677620	4039697499	19879	1046.09	495.66	1057.46	516.29	0.62	52.73	0.00	31.36	-170.28	-861.98	517.74
Fixation L	1	2	4039697499	4040255072	557573	1086.44	546.88	49	44	-1	12.99	12.99
Fixation R	1	2	4039697499	4040255072	557573	1086.44	546.88	49	44	-1	11.39	11.39
Saccade L	1	2	4040255072	4040274957	19885	1106.81	557.82	1228.68	546.42	1.06	123.80	1.00	53.12	2994.21	-2838.93	2367.79
Saccade R	1	2	4040255072	4040274957	19885	1106.81	557.82	1228.68	546.42	1.06	123.80	1.00	53.12	2994.21	-2838.93	2367.79
Fixation L	1	3	4040274957	4040394445	119488	1283.37	542.33	74	21	-1	12.70	12.70
Fixation R	1	3	4040274957	4040394445	119488	1283.37	542.33	74	21	-1	10.95	10.95
Saccade L	1	3	4040394445	4040414446	20001	1285.09	529.86	1272.20	524.66	0.21	14.06	1.00	10.42	131.37	-72.03	104.13
Saccade R	1	3	4040394445	4040414446	20001	1285.09	529.86	1272.20	524.66	0.21	14.06	1.00	10.42	131.37	-72.03	104.13
Fixation L	1	4	4040414446	4040553810	139364	1276.04	520.30	14	20	-1	12.60	12.60
Fixation R	1	4	4040414446	4040553810	139364	1276.04	520.30	14	20	-1	11.03	11.03
Saccade L	1	4	4040553810	4040593558	39748	1269.41	513.52	1605.45	358.40	3.35	231.54	0.50	84.26	5661.18	-4867.27	4235.51
Saccade R	1	4	4040553810	4040593558	39748	1269.41	513.52	1605.45	358.40	3.35	231.54	0.50	84.26	5661.18	-4867.27	4235.51
Fixation L	1	5	4040593558	4040693178	99620	1598.86	347.66	23	38	-1	12.64	12.64
Fixation R	1	5	4040593558	4040693178	99620	1598.86	347.66	23	38	-1	10.60	10.60
Saccade L	1	5	4040693178	4040713048	19870	1581.96	347.04	1559.60	376.32	0.54	37.58	1.00	27.15	620.43	-101.77	376.31
Saccade R	1	5	4040693178	4040713048	19870	1581.96	347.04	1559.60	376.32	0.54	37.58	1.00	27.15	620.43	-101.77	376.31
Fixation L	1	6	4040713048	4040912165	199117	1536.01	395.20	34	33	-1	12.87	12.87
Fixation R	1	6	4040713048	4040912165	199117	1536.01	395.20	34	33	-1	10.93	10.93
Saccade L	1	6	4040912165	4040952055	39890	1525.53	407.75	1207.63	390.36	2.90	185.44	1.00	72.61	4471.41	-4070.71	3632.04
Saccade R	1	6	4040912165	4040952055	39890	1525.53	407.75	1207.63	390.36	2.90	185.44	1.00	72.61	4471.41	-4070.71	3632.04
Fixation L	1	7	4040952055	4041230774	278719	1173.78	368.66	50	45	-1	12.49	12.49
Fixation R	1	7	4040952055	4041230774	278719	1173.78	368.66	50	45	-1	11.09	11.09
Saccade L	1	7	4041230774	4041250648	19874	1167.00	358.61	1160.06	462.61	0.65	105.43	1.00	32.55	2359.97	-2172.72	1578.13
Saccade R	1	7	4041230774	4041250648	19874	1167.00	358.61	1160.06	462.61	0.65	105.43	1.00	32.55	2359.97	-2172.72	1578.13
Fixation L	1	8	4041250648	4041509631	258983	1172.81	457.81	19	25	-1	13.12	13.12
Fixation R	1	8	4041250648	4041509631	258983	1172.81	457.81	19	25	-1	11.51	11.51
Saccade L	1	8	4041509631	4041569246	59615	1179.23	454.86	670.63	456.44	6.65	327.88	0.67	111.49	8039.45	-8038.50	5201.56
Saccade R	1	8	4041509631	4041569246	59615	1179.23	454.86	670.63	456.44	6.65	327.88	0.67	111.49	8039.45	-8038.50	5201.56
Fixation L	1	9	4041569246	4041967592	398346	684.82	470.88	18	31	-1	12.57	12.57
Fixation R	1	9	4041569246	4041967592	398346	684.82	470.88	18	31	-1	11.81	11.81
Blink L	1	1	4041967592	4042106971	139379
Blink R	1	1	4041967592	4042106971	139379
Fixation L	1	10	4042106971	4042564945	457974	615.83	518.97	26	23	-1	12.33	12.33
Fixation R	1	10	4042106971	4042564945	457974	615.83	518.97	26	23	-1	11.99	11.99
Saccade L	1	9	4042564945	4042584809	19864	622.69	520.67	531.38	653.15	1.07	162.73	1.00	53.86	4013.88	-3974.61	3058.45
Saccade R	1	9	4042564945	4042584809	19864	622.69	520.67	531.38	653.15	1.07	162.73	1.00	53.86	4013.88	-3974.61	3058.45
Fixation L	1	11	4042584809	4042724187	139378	502.42	698.63	37	60	-1	12.56	12.56
Fixation R	1	11	4042584809	4042724187	139378	502.42	698.63	37	60	-1	11.89	11.89
Saccade L	1	10	4042724187	4042744177	19990	494.02	704.21	490.53	690.60	0.22	14.21	1.00	10.96	149.66	-321.33	186.88
Saccade R	1	10	4042724187	4042744177	19990	494.02	704.21	490.53	690.60	0.22	14.21	1.00	10.96	149.66	-321.33	186.88
Fixation L	1	12	4042744177	4043102527	358350	491.08	701.93	5	14	-1	12.40	12.40
Fixation R	1	12	4042744177	4043102527	358350	491.08	701.93	5	14	-1	11.85	11.85
Saccade L	1	11	4043102527	4043162282	59755	487.37	703.43	1086.60	412.73	8.37	234.25	0.33	140.12	5779.34	-156.20	2915.09
Saccade R	1	11	4043102527	4043162282	59755	487.37	703.43	1086.60	412.73	8.37	234.25	0.33	140.12	5779.34	-156.20	2915.09
