[BeGaze]
Converted from:	C:\Documents and Settings\iViewX\Desktop\EXPERIMENTATIONS\Experiments\results\finaleart\S3121421-finaleart-1.idf
Date:	27.03.2019 15:33:54
Version:	BeGaze 2.5.77
Sample Rate:	50
Subject:	S3121421
Description:	Jean Jouve

Table Header for Fixations:
Event Type	Trial	Number	Start	End	Duration	Location X	Location Y	Dispersion X	Dispersion Y	Plane	Avg. Pupil Size X	Avg. Pupil Size Y

Table Header for Saccades:
Event Type	Trial	Number	Start	End	Duration	Start Loc.X	Start Loc.Y	End Loc.X	End Loc.Y	Amplitude	Peak Speed	Peak Speed At	Average Speed	Peak Accel.	Peak Decel.	Average Accel.

Table Header for Blinks:
Event Type	Trial	Number	Start	End	Duration

Table Header for User Events:
Event Type	Trial	Number	Start	Description

UserEvent	1	1	4292185214	# Message: the-reclining-shepherdess_morisot_1891.jpg
Fixation L	1	1	4292200475	4292618130	417655	953.67	364.45	47	51	-1	12.03	12.03
Fixation R	1	1	4292200475	4292618130	417655	953.67	364.45	47	51	-1	12.93	12.93
Saccade L	1	1	4292618130	4292657950	39820	995.88	400.73	1321.65	463.64	3.14	220.35	0.50	78.92	5400.10	-5479.96	3894.50
Saccade R	1	1	4292618130	4292657950	39820	995.88	400.73	1321.65	463.64	3.14	220.35	0.50	78.92	5400.10	-5479.96	3894.50
Fixation L	1	2	4292657950	4292896561	238611	1335.75	458.11	24	14	-1	12.39	12.39
Fixation R	1	2	4292657950	4292896561	238611	1335.75	458.11	24	14	-1	12.12	12.12
Saccade L	1	2	4292896561	4292916442	19881	1343.00	456.79	1464.95	436.00	0.76	125.13	1.00	38.24	3027.47	-3030.50	2071.64
Saccade R	1	2	4292896561	4292916442	19881	1343.00	456.79	1464.95	436.00	0.76	125.13	1.00	38.24	3027.47	-3030.50	2071.64
Fixation L	1	3	4292916442	4293175035	258593	1458.49	427.44	9	37	-1	11.47	11.47
Fixation R	1	3	4292916442	4293175035	258593	1458.49	427.44	9	37	-1	11.15	11.15
Saccade L	1	3	4293175035	4293214781	39746	1456.61	414.77	1287.13	609.52	2.24	185.67	0.50	56.29	4505.19	-4377.76	3121.21
Saccade R	1	3	4293175035	4293214781	39746	1456.61	414.77	1287.13	609.52	2.24	185.67	0.50	56.29	4505.19	-4377.76	3121.21
Fixation L	1	4	4293214781	4293513147	298366	1284.99	599.61	18	31	-1	11.03	11.03
Fixation R	1	4	4293214781	4293513147	298366	1284.99	599.61	18	31	-1	10.56	10.56
Saccade L	1	4	4293513147	4293572767	59620	1290.04	594.41	736.64	671.33	6.33	277.09	0.67	106.15	6746.83	-5485.57	3961.69
Saccade R	1	4	4293513147	4293572767	59620	1290.04	594.41	736.64	671.33	6.33	277.09	0.67	106.15	6746.83	-5485.57	3961.69
Fixation L	1	5	4293572767	4293791633	218866	751.06	670.40	20	72	-1	10.50	10.50
Fixation R	1	5	4293572767	4293791633	218866	751.06	670.40	20	72	-1	10.61	10.61
Saccade L	1	5	4293791633	4293811508	19875	757.27	674.10	759.47	722.03	0.50	48.54	1.00	24.91	1090.07	-1156.80	880.59
Saccade R	1	5	4293791633	4293811508	19875	757.27	674.10	759.47	722.03	0.50	48.54	1.00	24.91	1090.07	-1156.80	880.59
Fixation L	1	6	4293811508	4294030234	218726	757.44	693.21	40	52	-1	10.39	10.39
Fixation R	1	6	4293811508	4294030234	218726	757.44	693.21	40	52	-1	10.84	10.84
Saccade L	1	6	4294030234	4294069987	39753	728.75	688.69	324.36	742.28	3.89	298.80	0.50	97.86	7037.06	-7195.06	4518.81
Saccade R	1	6	4294030234	4294069987	39753	728.75	688.69	324.36	742.28	3.89	298.80	0.50	97.86	7037.06	-7195.06	4518.81
Fixation L	1	7	4294069987	4294348457	278470	363.68	763.16	52	44	-1	10.16	10.16
Fixation R	1	7	4294069987	4294348457	278470	363.68	763.16	52	44	-1	11.20	11.20
Saccade L	1	7	4294348457	4294447961	99504	376.88	778.19	1383.36	405.27	13.90	415.74	0.40	139.66	10385.67	-7545.91	4842.49
Saccade R	1	7	4294348457	4294447961	99504	376.88	778.19	1383.36	405.27	13.90	415.74	0.40	139.66	10385.67	-7545.91	4842.49
Fixation L	1	8	4294447961	4294626952	178991	1402.18	415.89	24	21	-1	10.51	10.51
Fixation R	1	8	4294447961	4294626952	178991	1402.18	415.89	24	21	-1	11.02	11.02
Saccade L	1	8	4294626952	4294646827	19875	1406.39	424.53	1470.97	422.08	0.43	65.38	1.00	21.85	1568.03	-1408.33	1125.02
Saccade R	1	8	4294626952	4294646827	19875	1406.39	424.53	1470.97	422.08	0.43	65.38	1.00	21.85	1568.03	-1408.33	1125.02
Fixation L	1	9	4294646827	4294905313	258486	1471.74	404.34	37	46	-1	10.48	10.48
Fixation R	1	9	4294646827	4294905313	258486	1471.74	404.34	37	46	-1	11.01	11.01
Saccade L	1	9	4294905313	4294945173	39860	1472.22	380.31	1231.59	114.90	3.07	243.04	0.50	76.98	5984.84	-5797.06	4391.52
Saccade R	1	9	4294905313	4294945173	39860	1472.22	380.31	1231.59	114.90	3.07	243.04	0.50	76.98	5984.84	-5797.06	4391.52
Fixation L	1	10	4294945173	4295223539	278366	1212.68	131.24	36	39	-1	10.17	10.17
Fixation R	1	10	4294945173	4295223539	278366	1212.68	131.24	36	39	-1	10.45	10.45
Saccade L	1	10	4295223539	4295283288	59749	1195.65	150.19	628.30	338.38	6.89	353.33	0.67	115.24	8721.32	-7481.58	5090.14
Saccade R	1	10	4295223539	4295283288	59749	1195.65	150.19	628.30	338.38	6.89	353.33	0.67	115.24	8721.32	-7481.58	5090.14
Fixation L	1	11	4295283288	4295541770	258482	582.01	335.39	58	20	-1	9.89	9.89
Fixation R	1	11	4295283288	4295541770	258482	582.01	335.39	58	20	-1	10.63	10.63
Saccade L	1	11	4295541770	4295601506	59736	578.72	342.48	875.79	679.26	4.96	258.53	0.67	83.07	6301.07	-6251.12	3590.87
Saccade R	1	11	4295541770	4295601506	59736	578.72	342.48	875.79	679.26	4.96	258.53	0.67	83.07	6301.07	-6251.12	3590.87
Fixation L	1	12	4295601506	4295879864	278358	890.91	676.09	21	52	-1	10.62	10.62
Fixation R	1	12	4295601506	4295879864	278358	890.91	676.09	21	52	-1	11.34	11.34
Saccade L	1	12	4295879864	4295919747	39883	883.96	711.30	1027.86	597.90	2.07	102.36	0.50	51.87	2403.77	-1928.90	1847.40
Saccade R	1	12	4295879864	4295919747	39883	883.96	711.30	1027.86	597.90	2.07	102.36	0.50	51.87	2403.77	-1928.90	1847.40
Fixation L	1	13	4295919747	4296158378	238631	1050.02	620.74	31	56	-1	11.15	11.15
Fixation R	1	13	4295919747	4296158378	238631	1050.02	620.74	31	56	-1	11.48	11.48
Saccade L	1	13	4296158378	4296178222	19844	1058.83	612.14	1130.11	608.50	0.55	72.20	1.00	27.62	1633.24	0.00	816.62
Saccade R	1	13	4296158378	4296178222	19844	1058.83	612.14	1130.11	608.50	0.55	72.20	1.00	27.62	1633.24	0.00	816.62
