[BeGaze]
Converted from:	C:\Documents and Settings\iViewX\Desktop\EXPERIMENTATIONS\Experiments\results\finaleart\S3121421-finaleart-1.idf
Date:	27.03.2019 15:33:54
Version:	BeGaze 2.5.77
Sample Rate:	50
Subject:	S3121421
Description:	Jean Jouve

Table Header for Fixations:
Event Type	Trial	Number	Start	End	Duration	Location X	Location Y	Dispersion X	Dispersion Y	Plane	Avg. Pupil Size X	Avg. Pupil Size Y

Table Header for Saccades:
Event Type	Trial	Number	Start	End	Duration	Start Loc.X	Start Loc.Y	End Loc.X	End Loc.Y	Amplitude	Peak Speed	Peak Speed At	Average Speed	Peak Accel.	Peak Decel.	Average Accel.

Table Header for Blinks:
Event Type	Trial	Number	Start	End	Duration

Table Header for User Events:
Event Type	Trial	Number	Start	Description

UserEvent	1	1	4271781940	# Message: void.jpg
Fixation L	1	1	4271794218	4272032815	238597	977.04	632.54	23	36	-1	10.66	10.66
Fixation R	1	1	4271794218	4272032815	238597	977.04	632.54	23	36	-1	11.01	11.01
Saccade L	1	1	4272032815	4272072562	39747	983.46	650.16	793.39	322.18	3.52	203.86	1.00	88.58	4540.71	-4836.03	4447.26
Saccade R	1	1	4272032815	4272072562	39747	983.46	650.16	793.39	322.18	3.52	203.86	1.00	88.58	4540.71	-4836.03	4447.26
Fixation L	1	2	4272072562	4272351041	278479	789.06	314.33	62	37	-1	9.96	9.96
Fixation R	1	2	4272072562	4272351041	278479	789.06	314.33	62	37	-1	11.19	11.19
Saccade L	1	2	4272351041	4272410672	59631	841.38	330.75	914.11	334.60	1.73	47.02	0.00	29.00	25038.08	-689.57	5489.99
Saccade R	1	2	4272351041	4272410672	59631	841.38	330.75	914.11	334.60	1.73	47.02	0.00	29.00	25038.08	-689.57	5489.99
Blink L	1	1	4272410672	4272669280	258608
Blink R	1	1	4272410672	4272669280	258608
Fixation L	1	3	4272669280	4273564346	895066	954.51	474.99	19	54	-1	10.95	10.95
Fixation R	1	3	4272669280	4273564346	895066	954.51	474.99	19	54	-1	10.90	10.90
Saccade L	1	3	4273564346	4273584224	19878	950.39	478.06	844.07	450.53	0.65	111.08	1.00	32.57	2633.40	-2693.32	1825.20
Saccade R	1	3	4273564346	4273584224	19878	950.39	478.06	844.07	450.53	0.65	111.08	1.00	32.57	2633.40	-2693.32	1825.20
Fixation L	1	4	4273584224	4273763208	178984	849.45	425.03	9	42	-1	10.84	10.84
Fixation R	1	4	4273584224	4273763208	178984	849.45	425.03	9	42	-1	11.01	11.01
