[BeGaze]
Converted from:	C:\Documents and Settings\iViewX\Desktop\EXPERIMENTATIONS\Experiments\results\finaleart\S3121421-finaleart-1.idf
Date:	27.03.2019 15:33:56
Version:	BeGaze 2.5.77
Sample Rate:	50
Subject:	S3121421
Description:	Jean Jouve

Table Header for Fixations:
Event Type	Trial	Number	Start	End	Duration	Location X	Location Y	Dispersion X	Dispersion Y	Plane	Avg. Pupil Size X	Avg. Pupil Size Y

Table Header for Saccades:
Event Type	Trial	Number	Start	End	Duration	Start Loc.X	Start Loc.Y	End Loc.X	End Loc.Y	Amplitude	Peak Speed	Peak Speed At	Average Speed	Peak Accel.	Peak Decel.	Average Accel.

Table Header for Blinks:
Event Type	Trial	Number	Start	End	Duration

Table Header for User Events:
Event Type	Trial	Number	Start	Description

UserEvent	1	1	4329036609	# Message: sargent-reclining-nude.jpg
Fixation L	1	1	4329055118	4329492600	437482	917.87	370.20	32	14	-1	10.41	10.41
Fixation R	1	1	4329055118	4329492600	437482	917.87	370.20	32	14	-1	11.16	11.16
Saccade L	1	1	4329492600	4329532336	39736	913.78	365.42	593.88	153.49	3.37	213.76	1.00	84.70	5247.98	-5265.47	4751.42
Saccade R	1	1	4329492600	4329532336	39736	913.78	365.42	593.88	153.49	3.37	213.76	1.00	84.70	5247.98	-5265.47	4751.42
Fixation L	1	2	4329532336	4329711454	179118	587.53	170.62	9	23	-1	9.88	9.88
Fixation R	1	2	4329532336	4329711454	179118	587.53	170.62	9	23	-1	10.77	10.77
Saccade L	1	2	4329711454	4329751201	39747	588.70	177.07	932.83	363.94	3.33	214.33	0.50	83.79	5224.96	-4966.96	4788.72
Saccade R	1	2	4329711454	4329751201	39747	588.70	177.07	932.83	363.94	3.33	214.33	0.50	83.79	5224.96	-4966.96	4788.72
Fixation L	1	3	4329751201	4329930190	178989	956.28	360.99	47	9	-1	9.19	9.19
Fixation R	1	3	4329751201	4329930190	178989	956.28	360.99	47	9	-1	9.23	9.23
Saccade L	1	3	4329930190	4329950055	19865	980.69	362.78	1137.32	361.21	1.04	158.41	1.00	52.41	3875.37	-3925.30	2635.88
Saccade R	1	3	4329930190	4329950055	19865	980.69	362.78	1137.32	361.21	1.04	158.41	1.00	52.41	3875.37	-3925.30	2635.88
Fixation L	1	4	4329950055	4330984249	1034194	1137.05	394.29	24	73	-1	9.57	9.57
Fixation R	1	4	4329950055	4330984249	1034194	1137.05	394.29	24	73	-1	9.69	9.69
Saccade L	1	4	4330984249	4331044005	59756	1125.83	435.12	617.37	125.47	6.67	334.36	0.67	111.63	8249.09	-7024.77	5397.12
Saccade R	1	4	4330984249	4331044005	59756	1125.83	435.12	617.37	125.47	6.67	334.36	0.67	111.63	8249.09	-7024.77	5397.12
Fixation L	1	5	4331044005	4331183233	139228	591.26	173.02	36	61	-1	10.28	10.28
Fixation R	1	5	4331044005	4331183233	139228	591.26	173.02	36	61	-1	10.97	10.97
Saccade L	1	5	4331183233	4331203104	19871	588.83	186.69	587.67	189.63	0.07	4.45	1.00	3.27	167.56	-31.57	69.57
Saccade R	1	5	4331183233	4331203104	19871	588.83	186.69	587.67	189.63	0.07	4.45	1.00	3.27	167.56	-31.57	69.57
Fixation L	1	6	4331203104	4332058307	855203	591.24	147.92	33	64	-1	9.71	9.71
Fixation R	1	6	4331203104	4332058307	855203	591.24	147.92	33	64	-1	10.61	10.61
Saccade L	1	6	4332058307	4332078188	19881	607.62	150.49	617.32	149.45	0.16	9.87	1.00	7.85	29.52	-134.49	90.53
Saccade R	1	6	4332058307	4332078188	19881	607.62	150.49	617.32	149.45	0.16	9.87	1.00	7.85	29.52	-134.49	90.53
Fixation L	1	7	4332078188	4332535656	457468	579.71	144.47	65	32	-1	9.35	9.35
Fixation R	1	7	4332078188	4332535656	457468	579.71	144.47	65	32	-1	10.55	10.55
Saccade L	1	7	4332535656	4332555534	19878	554.47	137.46	547.82	133.68	0.13	9.18	1.00	6.74	-19.48	-149.15	68.25
Saccade R	1	7	4332535656	4332555534	19878	554.47	137.46	547.82	133.68	0.13	9.18	1.00	6.74	-19.48	-149.15	68.25
Fixation L	1	8	4332555534	4333032876	477342	547.63	141.83	41	44	-1	9.58	9.58
Fixation R	1	8	4332555534	4333032876	477342	547.63	141.83	41	44	-1	10.66	10.66
