[BeGaze]
Converted from:	C:\Documents and Settings\iViewX\Desktop\EXPERIMENTATIONS\Experiments\results\finaleart\S3121421-finaleart-1.idf
Date:	27.03.2019 15:33:50
Version:	BeGaze 2.5.77
Sample Rate:	50
Subject:	S3121421
Description:	Jean Jouve

Table Header for Fixations:
Event Type	Trial	Number	Start	End	Duration	Location X	Location Y	Dispersion X	Dispersion Y	Plane	Avg. Pupil Size X	Avg. Pupil Size Y

Table Header for Saccades:
Event Type	Trial	Number	Start	End	Duration	Start Loc.X	Start Loc.Y	End Loc.X	End Loc.Y	Amplitude	Peak Speed	Peak Speed At	Average Speed	Peak Accel.	Peak Decel.	Average Accel.

Table Header for Blinks:
Event Type	Trial	Number	Start	End	Duration

Table Header for User Events:
Event Type	Trial	Number	Start	Description

UserEvent	1	1	3969425524	# Message: void.jpg
Fixation L	1	1	3969433997	3969672845	238848	678.19	343.51	38	58	-1	10.88	10.88
Fixation R	1	1	3969433997	3969672845	238848	678.19	343.51	38	58	-1	12.05	12.05
Saccade L	1	1	3969672845	3969692845	20000	649.11	388.86	621.48	490.52	1.05	106.56	1.00	52.63	2374.57	-2079.26	1624.71
Saccade R	1	1	3969672845	3969692845	20000	649.11	388.86	621.48	490.52	1.05	106.56	1.00	52.63	2374.57	-2079.26	1624.71
Fixation L	1	2	3969692845	3970051198	358353	592.63	453.23	40	57	-1	11.34	11.34
Fixation R	1	2	3969692845	3970051198	358353	592.63	453.23	40	57	-1	12.90	12.90
Saccade L	1	2	3970051198	3970170698	119500	580.87	439.97	1153.50	771.05	9.60	159.94	0.17	80.30	3940.41	-2480.68	1794.07
Saccade R	1	2	3970051198	3970170698	119500	580.87	439.97	1153.50	771.05	9.60	159.94	0.17	80.30	3940.41	-2480.68	1794.07
Fixation L	1	3	3970170698	3970568919	398221	1158.38	741.72	14	53	-1	12.21	12.21
Fixation R	1	3	3970170698	3970568919	398221	1158.38	741.72	14	53	-1	12.96	12.96
Saccade L	1	3	3970568919	3970887531	318612	1153.08	779.41	1754.41	1177.08	25.07	309.59	0.06	78.68	7597.45	-3574.35	2115.36
Saccade R	1	3	3970568919	3970887531	318612	1153.08	779.41	1754.41	1177.08	25.07	309.59	0.06	78.68	7597.45	-3574.35	2115.36
Blink L	1	1	3970887531	3971086633	199102
Blink R	1	1	3970887531	3971086633	199102
Fixation L	1	4	3971245998	3971425126	179128	1183.66	480.40	27	25	-1	12.31	12.31
Fixation R	1	4	3971245998	3971425126	179128	1183.66	480.40	27	25	-1	13.02	13.02
