[BeGaze]
Converted from:	C:\Documents and Settings\iViewX\Desktop\EXPERIMENTATIONS\Experiments\results\finaleart\S3121421-finaleart-1.idf
Date:	27.03.2019 15:34:15
Version:	BeGaze 2.5.77
Sample Rate:	50
Subject:	S3121421
Description:	Jean Jouve

Table Header for Fixations:
Event Type	Trial	Number	Start	End	Duration	Location X	Location Y	Dispersion X	Dispersion Y	Plane	Avg. Pupil Size X	Avg. Pupil Size Y

Table Header for Saccades:
Event Type	Trial	Number	Start	End	Duration	Start Loc.X	Start Loc.Y	End Loc.X	End Loc.Y	Amplitude	Peak Speed	Peak Speed At	Average Speed	Peak Accel.	Peak Decel.	Average Accel.

Table Header for Blinks:
Event Type	Trial	Number	Start	End	Duration

Table Header for User Events:
Event Type	Trial	Number	Start	Description

UserEvent	1	1	5582934044	# Message: reclining-nude_bazille_1860.jpg
Fixation L	1	1	5582945504	5583403095	457591	602.16	573.19	28	29	-1	11.68	11.68
Fixation R	1	1	5582945504	5583403095	457591	602.16	573.19	28	29	-1	12.50	12.50
Saccade L	1	1	5583403095	5583442862	39767	618.90	585.23	867.51	634.19	2.29	135.81	0.50	57.63	3235.92	-2870.41	2954.43
Saccade R	1	1	5583403095	5583442862	39767	618.90	585.23	867.51	634.19	2.29	135.81	0.50	57.63	3235.92	-2870.41	2954.43
Fixation L	1	2	5583442862	5583820942	378080	862.99	670.83	7	51	-1	11.95	11.95
Fixation R	1	2	5583442862	5583820942	378080	862.99	670.83	7	51	-1	12.49	12.49
Saccade L	1	2	5583820942	5583860690	39748	860.42	682.77	426.56	612.65	3.71	249.33	0.50	93.29	6178.01	-5947.61	5270.78
Saccade R	1	2	5583820942	5583860690	39748	860.42	682.77	426.56	612.65	3.71	249.33	0.50	93.29	6178.01	-5947.61	5270.78
Fixation L	1	3	5583860690	5584258665	397975	446.51	600.22	31	67	-1	10.95	10.95
Fixation R	1	3	5583860690	5584258665	397975	446.51	600.22	31	67	-1	11.74	11.74
Saccade L	1	3	5584258665	5584278551	19886	428.49	579.84	434.81	572.86	0.17	10.28	1.00	8.64	24.84	-18.98	17.68
Saccade R	1	3	5584258665	5584278551	19886	428.49	579.84	434.81	572.86	0.17	10.28	1.00	8.64	24.84	-18.98	17.68
Fixation L	1	4	5584278551	5584417906	139355	464.96	584.02	61	28	-1	10.59	10.59
Fixation R	1	4	5584278551	5584417906	139355	464.96	584.02	61	28	-1	11.46	11.46
Saccade L	1	4	5584417906	5584437792	19886	496.42	601.68	504.06	616.66	0.29	19.37	0.00	14.81	184.71	-229.74	189.17
Saccade R	1	4	5584417906	5584437792	19886	496.42	601.68	504.06	616.66	0.29	19.37	0.00	14.81	184.71	-229.74	189.17
Fixation L	1	5	5584437792	5584696395	258603	507.67	619.71	27	21	-1	10.42	10.42
Fixation R	1	5	5584437792	5584696395	258603	507.67	619.71	27	21	-1	11.49	11.49
Saccade L	1	5	5584696395	5584736265	39870	521.88	622.89	826.35	656.61	2.84	262.04	0.50	71.30	6474.29	-5978.89	3660.93
Saccade R	1	5	5584696395	5584736265	39870	521.88	622.89	826.35	656.61	2.84	262.04	0.50	71.30	6474.29	-5978.89	3660.93
Fixation L	1	6	5584736265	5585014755	278490	855.26	670.95	35	22	-1	10.48	10.48
Fixation R	1	6	5584736265	5585014755	278490	855.26	670.95	35	22	-1	11.32	11.32
Saccade L	1	6	5585014755	5585054611	39856	861.41	667.31	573.60	770.98	2.72	166.91	0.50	68.33	4112.53	-3746.05	3759.01
Saccade R	1	6	5585014755	5585054611	39856	861.41	667.31	573.60	770.98	2.72	166.91	0.50	68.33	4112.53	-3746.05	3759.01
Fixation L	1	7	5585054611	5585850579	795968	572.93	750.24	30	35	-1	10.31	10.31
Fixation R	1	7	5585054611	5585850579	795968	572.93	750.24	30	35	-1	11.28	11.28
Saccade L	1	7	5585850579	5585949948	99369	589.52	740.66	803.48	780.97	4.84	224.73	0.20	48.74	5597.80	-5468.04	2225.35
Saccade R	1	7	5585850579	5585949948	99369	589.52	740.66	803.48	780.97	4.84	224.73	0.20	48.74	5597.80	-5468.04	2225.35
Fixation L	1	8	5585949948	5586069435	119487	810.89	761.16	11	51	-1	10.94	10.94
Fixation R	1	8	5585949948	5586069435	119487	810.89	761.16	11	51	-1	11.89	11.89
Saccade L	1	8	5586069435	5586129064	59629	813.16	763.49	1461.87	747.47	7.69	242.21	0.33	128.93	5067.38	-4906.14	4056.69
Saccade R	1	8	5586069435	5586129064	59629	813.16	763.49	1461.87	747.47	7.69	242.21	0.33	128.93	5067.38	-4906.14	4056.69
Fixation L	1	9	5586129064	5586447416	318352	1502.13	754.61	60	26	-1	11.26	11.26
Fixation R	1	9	5586129064	5586447416	318352	1502.13	754.61	60	26	-1	11.15	11.15
Saccade L	1	9	5586447416	5586467289	19873	1493.29	766.08	1628.93	849.24	1.13	160.92	1.00	56.95	3959.13	-3323.64	2919.68
Saccade R	1	9	5586447416	5586467289	19873	1493.29	766.08	1628.93	849.24	1.13	160.92	1.00	56.95	3959.13	-3323.64	2919.68
Fixation L	1	10	5586467289	5586745646	278357	1662.75	862.21	74	18	-1	11.19	11.19
Fixation R	1	10	5586467289	5586745646	278357	1662.75	862.21	74	18	-1	10.51	10.51
Saccade L	1	10	5586745646	5586765656	20010	1703.26	865.52	1724.66	864.04	0.40	46.53	0.00	20.19	464.91	-928.14	609.14
Saccade R	1	10	5586745646	5586765656	20010	1703.26	865.52	1724.66	864.04	0.40	46.53	0.00	20.19	464.91	-928.14	609.14
Fixation L	1	11	5586765656	5586924770	159114	1739.20	868.79	20	7	-1	11.25	11.25
Fixation R	1	11	5586765656	5586924770	159114	1739.20	868.79	20	7	-1	10.19	10.19
