[BeGaze]
Converted from:	C:\Documents and Settings\iViewX\Desktop\EXPERIMENTATIONS\Experiments\results\finaleart\S3121421-finaleart-1.idf
Date:	27.03.2019 15:33:51
Version:	BeGaze 2.5.77
Sample Rate:	50
Subject:	S3121421
Description:	Jean Jouve

Table Header for Fixations:
Event Type	Trial	Number	Start	End	Duration	Location X	Location Y	Dispersion X	Dispersion Y	Plane	Avg. Pupil Size X	Avg. Pupil Size Y

Table Header for Saccades:
Event Type	Trial	Number	Start	End	Duration	Start Loc.X	Start Loc.Y	End Loc.X	End Loc.Y	Amplitude	Peak Speed	Peak Speed At	Average Speed	Peak Accel.	Peak Decel.	Average Accel.

Table Header for Blinks:
Event Type	Trial	Number	Start	End	Duration

Table Header for User Events:
Event Type	Trial	Number	Start	Description

UserEvent	1	1	4018605405	# Message: void.jpg
Fixation L	1	1	4018610392	4018849250	238858	1045.84	145.24	3	9	-1	12.44	12.44
Fixation R	1	1	4018610392	4018849250	238858	1045.84	145.24	3	9	-1	11.94	11.94
Saccade L	1	1	4018849250	4018889131	39881	1044.19	145.60	1457.53	142.49	3.45	218.29	1.00	86.55	5399.29	-4857.57	4982.36
Saccade R	1	1	4018849250	4018889131	39881	1044.19	145.60	1457.53	142.49	3.45	218.29	1.00	86.55	5399.29	-4857.57	4982.36
Fixation L	1	2	4018889131	4019088237	199106	1463.22	139.03	31	25	-1	13.04	13.04
Fixation R	1	2	4018889131	4019088237	199106	1463.22	139.03	31	25	-1	11.94	11.94
Saccade L	1	2	4019088237	4019307217	218980	1456.20	139.30	877.64	447.06	12.70	130.31	0.09	57.98	2752.51	-1394.95	789.46
Saccade R	1	2	4019088237	4019307217	218980	1456.20	139.30	877.64	447.06	12.70	130.31	0.09	57.98	2752.51	-1394.95	789.46
Fixation L	1	3	4019307217	4020024056	716839	846.31	478.58	46	52	-1	12.41	12.41
Fixation R	1	3	4019307217	4020024056	716839	846.31	478.58	46	52	-1	11.34	11.34
Saccade L	1	3	4020024056	4020044062	20006	861.20	493.84	859.25	517.14	0.23	23.66	1.00	11.50	497.05	-434.96	330.11
Saccade R	1	3	4020024056	4020044062	20006	861.20	493.84	859.25	517.14	0.23	23.66	1.00	11.50	497.05	-434.96	330.11
Fixation L	1	4	4020044062	4020601518	557456	866.32	496.96	13	41	-1	12.41	12.41
Fixation R	1	4	4020044062	4020601518	557456	866.32	496.96	13	41	-1	11.61	11.61
