[BeGaze]
Converted from:	C:\Documents and Settings\iViewX\Desktop\EXPERIMENTATIONS\Experiments\results\finaleart\S3121421-finaleart-1.idf
Date:	27.03.2019 15:34:07
Version:	BeGaze 2.5.77
Sample Rate:	50
Subject:	S3121421
Description:	Jean Jouve

Table Header for Fixations:
Event Type	Trial	Number	Start	End	Duration	Location X	Location Y	Dispersion X	Dispersion Y	Plane	Avg. Pupil Size X	Avg. Pupil Size Y

Table Header for Saccades:
Event Type	Trial	Number	Start	End	Duration	Start Loc.X	Start Loc.Y	End Loc.X	End Loc.Y	Amplitude	Peak Speed	Peak Speed At	Average Speed	Peak Accel.	Peak Decel.	Average Accel.

Table Header for Blinks:
Event Type	Trial	Number	Start	End	Duration

Table Header for User Events:
Event Type	Trial	Number	Start	Description

UserEvent	1	1	5226855827	# Message: garlic-cloves-and-knife-on-the-corner-of-a-table_caillebotte_1871.jpg
Fixation L	1	1	5226872012	5227309861	437849	843.93	558.23	11	29	-1	12.15	12.15
Fixation R	1	1	5226872012	5227309861	437849	843.93	558.23	11	29	-1	12.45	12.45
Saccade L	1	1	5227309861	5227349598	39737	847.87	536.30	1180.88	695.32	3.24	279.31	0.50	81.42	6777.84	-6776.40	4598.07
Saccade R	1	1	5227309861	5227349598	39737	847.87	536.30	1180.88	695.32	3.24	279.31	0.50	81.42	6777.84	-6776.40	4598.07
Fixation L	1	2	5227349598	5227548593	198995	1180.11	693.12	14	8	-1	12.41	12.41
Fixation R	1	2	5227349598	5227548593	198995	1180.11	693.12	14	8	-1	11.64	11.64
Saccade L	1	2	5227548593	5227588381	39788	1183.67	693.83	782.00	719.51	3.51	258.20	1.00	88.33	6360.87	-6246.36	4818.72
Saccade R	1	2	5227548593	5227588381	39788	1183.67	693.83	782.00	719.51	3.51	258.20	1.00	88.33	6360.87	-6246.36	4818.72
Fixation L	1	3	5227588381	5228065928	477547	771.77	755.25	26	63	-1	12.28	12.28
Fixation R	1	3	5227588381	5228065928	477547	771.77	755.25	26	63	-1	12.10	12.10
Saccade L	1	3	5228065928	5228085813	19885	765.96	735.14	567.09	731.53	1.12	201.13	1.00	56.45	4849.90	-4722.92	3225.83
Saccade R	1	3	5228065928	5228085813	19885	765.96	735.14	567.09	731.53	1.12	201.13	1.00	56.45	4849.90	-4722.92	3225.83
Fixation L	1	4	5228085813	5228802137	716324	559.02	730.28	20	56	-1	12.21	12.21
Fixation R	1	4	5228085813	5228802137	716324	559.02	730.28	20	56	-1	12.38	12.38
Saccade L	1	4	5228802137	5228822019	19882	567.01	693.43	740.76	712.53	1.19	176.77	1.00	60.00	4176.83	-4037.36	2820.57
Saccade R	1	4	5228802137	5228822019	19882	567.01	693.43	740.76	712.53	1.19	176.77	1.00	60.00	4176.83	-4037.36	2820.57
Fixation L	1	5	5228822019	5229040880	218861	753.88	714.68	19	13	-1	12.01	12.01
Fixation R	1	5	5228822019	5229040880	218861	753.88	714.68	19	13	-1	12.27	12.27
Saccade L	1	5	5229040880	5229100625	59745	755.41	715.35	1252.42	678.32	5.36	227.46	0.67	89.68	5607.19	-5055.65	3891.62
Saccade R	1	5	5229040880	5229100625	59745	755.41	715.35	1252.42	678.32	5.36	227.46	0.67	89.68	5607.19	-5055.65	3891.62
Fixation L	1	6	5229100625	5230135326	1034701	1237.63	670.43	42	45	-1	11.68	11.68
Fixation R	1	6	5229100625	5230135326	1034701	1237.63	670.43	42	45	-1	10.81	10.81
Saccade L	1	6	5230135326	5230155188	19862	1256.32	659.37	1365.03	659.31	0.79	109.97	1.00	39.80	2706.49	-1941.65	1929.94
Saccade R	1	6	5230135326	5230155188	19862	1256.32	659.37	1365.03	659.31	0.79	109.97	1.00	39.80	2706.49	-1941.65	1929.94
Fixation L	1	7	5230155188	5230612788	457600	1390.49	634.40	44	40	-1	11.20	11.20
Fixation R	1	7	5230155188	5230612788	457600	1390.49	634.40	44	40	-1	10.26	10.26
Saccade L	1	7	5230612788	5230652647	39859	1401.36	622.28	1253.56	628.13	1.33	87.36	1.00	33.33	2073.95	-2149.12	1755.29
Saccade R	1	7	5230612788	5230652647	39859	1401.36	622.28	1253.56	628.13	1.33	87.36	1.00	33.33	2073.95	-2149.12	1755.29
Fixation L	1	8	5230652647	5230851642	198995	1250.30	632.85	5	11	-1	11.66	11.66
Fixation R	1	8	5230652647	5230851642	198995	1250.30	632.85	5	11	-1	10.61	10.61
