[BeGaze]
Converted from:	C:\Documents and Settings\iViewX\Desktop\EXPERIMENTATIONS\Experiments\results\finaleart\S3121421-finaleart-1.idf
Date:	27.03.2019 15:34:01
Version:	BeGaze 2.5.77
Sample Rate:	50
Subject:	S3121421
Description:	Jean Jouve

Table Header for Fixations:
Event Type	Trial	Number	Start	End	Duration	Location X	Location Y	Dispersion X	Dispersion Y	Plane	Avg. Pupil Size X	Avg. Pupil Size Y

Table Header for Saccades:
Event Type	Trial	Number	Start	End	Duration	Start Loc.X	Start Loc.Y	End Loc.X	End Loc.Y	Amplitude	Peak Speed	Peak Speed At	Average Speed	Peak Accel.	Peak Decel.	Average Accel.

Table Header for Blinks:
Event Type	Trial	Number	Start	End	Duration

Table Header for User Events:
Event Type	Trial	Number	Start	Description

UserEvent	1	1	4675234657	# Message: void.jpg
Fixation L	1	1	4675253951	4675691544	437593	1505.18	458.24	41	47	-1	10.26	10.26
Fixation R	1	1	4675253951	4675691544	437593	1505.18	458.24	41	47	-1	10.48	10.48
Saccade L	1	1	4675691544	4675711418	19874	1492.83	437.06	1447.83	440.59	0.80	105.21	1.00	40.14	2439.21	339.64	1289.89
Saccade R	1	1	4675691544	4675711418	19874	1492.83	437.06	1447.83	440.59	0.80	105.21	1.00	40.14	2439.21	339.64	1289.89
Blink L	1	1	4675711418	4676029668	318250
Blink R	1	1	4675711418	4676029668	318250
Fixation L	1	2	4676029668	4676845104	815436	884.93	389.83	13	58	-1	9.89	9.89
Fixation R	1	2	4676029668	4676845104	815436	884.93	389.83	13	58	-1	10.75	10.75
Saccade L	1	2	4676845104	4676864975	19871	887.35	381.20	888.17	318.22	0.55	63.72	1.00	27.76	1500.96	-1450.43	1154.91
Saccade R	1	2	4676845104	4676864975	19871	887.35	381.20	888.17	318.22	0.55	63.72	1.00	27.76	1500.96	-1450.43	1154.91
Fixation L	1	3	4676864975	4677004218	139243	900.05	331.03	24	60	-1	9.93	9.93
Fixation R	1	3	4676864975	4677004218	139243	900.05	331.03	24	60	-1	11.22	11.22
Saccade L	1	3	4677004218	4677024098	19880	911.45	316.76	909.46	296.68	0.22	20.41	1.00	10.90	282.78	-224.09	173.46
Saccade R	1	3	4677004218	4677024098	19880	911.45	316.76	909.46	296.68	0.22	20.41	1.00	10.90	282.78	-224.09	173.46
Fixation L	1	4	4677024098	4677222961	198863	914.03	293.40	8	18	-1	9.77	9.77
Fixation R	1	4	4677024098	4677222961	198863	914.03	293.40	8	18	-1	11.23	11.23
