[BeGaze]
Converted from:	C:\Documents and Settings\iViewX\Desktop\EXPERIMENTATIONS\Experiments\results\finaleart\S3121421-finaleart-1.idf
Date:	27.03.2019 15:33:55
Version:	BeGaze 2.5.77
Sample Rate:	50
Subject:	S3121421
Description:	Jean Jouve

Table Header for Fixations:
Event Type	Trial	Number	Start	End	Duration	Location X	Location Y	Dispersion X	Dispersion Y	Plane	Avg. Pupil Size X	Avg. Pupil Size Y

Table Header for Saccades:
Event Type	Trial	Number	Start	End	Duration	Start Loc.X	Start Loc.Y	End Loc.X	End Loc.Y	Amplitude	Peak Speed	Peak Speed At	Average Speed	Peak Accel.	Peak Decel.	Average Accel.

Table Header for Blinks:
Event Type	Trial	Number	Start	End	Duration

Table Header for User Events:
Event Type	Trial	Number	Start	Description

UserEvent	1	1	4302379441	# Message: void.jpg
Saccade L	1	1	4302383740	4302443349	59609	616.78	611.88	706.70	653.35	4.14	128.93	0.33	69.40	2602.13	-1699.80	1308.28
Saccade R	1	1	4302383740	4302443349	59609	616.78	611.88	706.70	653.35	4.14	128.93	0.33	69.40	2602.13	-1699.80	1308.28
Fixation L	1	1	4302443349	4302801332	357983	699.08	660.53	28	41	-1	11.33	11.33
Fixation R	1	1	4302443349	4302801332	357983	699.08	660.53	28	41	-1	11.55	11.55
Saccade L	1	2	4302801332	4302940571	139239	704.25	673.51	1338.97	539.02	10.44	141.21	0.57	74.98	2799.56	-2196.60	1370.64
Saccade R	1	2	4302801332	4302940571	139239	704.25	673.51	1338.97	539.02	10.44	141.21	0.57	74.98	2799.56	-2196.60	1370.64
Fixation L	1	2	4302940571	4303775920	835349	1360.41	498.62	42	56	-1	11.01	11.01
Fixation R	1	2	4302940571	4303775920	835349	1360.41	498.62	42	56	-1	10.56	10.56
Saccade L	1	3	4303775920	4303795774	19854	1334.39	518.19	1331.35	523.33	0.09	6.04	1.00	4.68	33.42	-79.32	39.57
Saccade R	1	3	4303775920	4303795774	19854	1334.39	518.19	1331.35	523.33	0.09	6.04	1.00	4.68	33.42	-79.32	39.57
Fixation L	1	3	4303795774	4304213492	417718	1334.85	518.65	16	49	-1	11.78	11.78
Fixation R	1	3	4303795774	4304213492	417718	1334.85	518.65	16	49	-1	11.10	11.10
Saccade L	1	4	4304213492	4304253247	39755	1330.78	517.93	1032.78	559.23	3.11	188.90	0.50	78.17	4583.22	-3522.36	3050.30
Saccade R	1	4	4304213492	4304253247	39755	1330.78	517.93	1032.78	559.23	3.11	188.90	0.50	78.17	4583.22	-3522.36	3050.30
Fixation L	1	4	4304253247	4304432240	178993	1009.19	540.76	33	46	-1	12.05	12.05
Fixation R	1	4	4304253247	4304432240	178993	1009.19	540.76	33	46	-1	11.63	11.63
