[BeGaze]
Converted from:	C:\Documents and Settings\iViewX\Desktop\EXPERIMENTATIONS\Experiments\results\finaleart\S3121421-finaleart-1.idf
Date:	27.03.2019 15:33:58
Version:	BeGaze 2.5.77
Sample Rate:	50
Subject:	S3121421
Description:	Jean Jouve

Table Header for Fixations:
Event Type	Trial	Number	Start	End	Duration	Location X	Location Y	Dispersion X	Dispersion Y	Plane	Avg. Pupil Size X	Avg. Pupil Size Y

Table Header for Saccades:
Event Type	Trial	Number	Start	End	Duration	Start Loc.X	Start Loc.Y	End Loc.X	End Loc.Y	Amplitude	Peak Speed	Peak Speed At	Average Speed	Peak Accel.	Peak Decel.	Average Accel.

Table Header for Blinks:
Event Type	Trial	Number	Start	End	Duration

Table Header for User Events:
Event Type	Trial	Number	Start	Description

UserEvent	1	1	4572684332	# Message: void.jpg
Fixation L	1	1	4572701773	4572960508	258735	750.09	142.33	13	48	-1	10.69	10.69
Fixation R	1	1	4572701773	4572960508	258735	750.09	142.33	13	48	-1	12.01	12.01
Saccade L	1	1	4572960508	4573099751	139243	743.31	113.70	211.29	167.89	11.43	266.17	0.29	82.09	6368.24	-5972.10	2433.43
Saccade R	1	1	4572960508	4573099751	139243	743.31	113.70	211.29	167.89	11.43	266.17	0.29	82.09	6368.24	-5972.10	2433.43
Fixation L	1	2	4573099751	4573219107	119356	231.43	206.97	33	64	-1	10.37	10.37
Fixation R	1	2	4573099751	4573219107	119356	231.43	206.97	33	64	-1	12.34	12.34
Saccade L	1	2	4573219107	4573238985	19878	242.25	232.64	246.88	237.75	0.12	7.39	1.00	6.20	82.63	-61.92	51.59
Saccade R	1	2	4573219107	4573238985	19878	242.25	232.64	246.88	237.75	0.12	7.39	1.00	6.20	82.63	-61.92	51.59
Fixation L	1	3	4573238985	4573895707	656722	255.75	228.67	23	38	-1	10.95	10.95
Fixation R	1	3	4573238985	4573895707	656722	255.75	228.67	23	38	-1	12.69	12.69
Saccade L	1	3	4573895707	4574015060	119353	246.54	205.75	957.22	425.23	11.35	240.48	0.33	95.14	6000.00	-2788.31	2407.41
Saccade R	1	3	4573895707	4574015060	119353	246.54	205.75	957.22	425.23	11.35	240.48	0.33	95.14	6000.00	-2788.31	2407.41
Fixation L	1	4	4574015060	4574651777	636717	998.83	441.60	63	34	-1	13.27	13.27
Fixation R	1	4	4574015060	4574651777	636717	998.83	441.60	63	34	-1	13.43	13.43
Saccade L	1	4	4574651777	4574671649	19872	1020.62	450.34	1022.95	465.39	0.19	15.41	1.00	9.53	312.47	0.00	156.23
Saccade R	1	4	4574651777	4574671649	19872	1020.62	450.34	1022.95	465.39	0.19	15.41	1.00	9.53	312.47	0.00	156.23
