[BeGaze]
Converted from:	C:\Documents and Settings\iViewX\Desktop\EXPERIMENTATIONS\Experiments\results\finaleart\S3121421-finaleart-1.idf
Date:	27.03.2019 15:34:09
Version:	BeGaze 2.5.77
Sample Rate:	50
Subject:	S3121421
Description:	Jean Jouve

Table Header for Fixations:
Event Type	Trial	Number	Start	End	Duration	Location X	Location Y	Dispersion X	Dispersion Y	Plane	Avg. Pupil Size X	Avg. Pupil Size Y

Table Header for Saccades:
Event Type	Trial	Number	Start	End	Duration	Start Loc.X	Start Loc.Y	End Loc.X	End Loc.Y	Amplitude	Peak Speed	Peak Speed At	Average Speed	Peak Accel.	Peak Decel.	Average Accel.

Table Header for Blinks:
Event Type	Trial	Number	Start	End	Duration

Table Header for User Events:
Event Type	Trial	Number	Start	Description

UserEvent	1	1	5312795177	# Message: courbet-female-nude-with-a-dog-portrait-of-leotine-renaude-1866.jpg
Fixation L	1	1	5312804322	5313281958	477636	999.49	431.96	76	12	-1	11.05	11.05
Fixation R	1	1	5312804322	5313281958	477636	999.49	431.96	76	12	-1	11.35	11.35
Saccade L	1	1	5313281958	5313301806	19848	1063.83	437.86	1152.40	442.49	0.91	89.72	1.00	45.63	2178.24	-1416.44	1643.14
Saccade R	1	1	5313281958	5313301806	19848	1063.83	437.86	1152.40	442.49	0.91	89.72	1.00	45.63	2178.24	-1416.44	1643.14
Fixation L	1	2	5313301806	5313640010	338204	1138.47	487.03	21	74	-1	11.71	11.71
Fixation R	1	2	5313301806	5313640010	338204	1138.47	487.03	21	74	-1	11.49	11.49
Saccade L	1	2	5313640010	5313659900	19890	1138.08	485.76	1124.93	501.86	0.18	21.03	1.00	9.10	385.60	-361.09	311.46
Saccade R	1	2	5313640010	5313659900	19890	1138.08	485.76	1124.93	501.86	0.18	21.03	1.00	9.10	385.60	-361.09	311.46
Fixation L	1	3	5313659900	5313978241	318341	1105.72	525.68	30	37	-1	11.62	11.62
Fixation R	1	3	5313659900	5313978241	318341	1105.72	525.68	30	37	-1	11.22	11.22
Saccade L	1	3	5313978241	5314018121	39880	1094.87	539.06	1459.68	645.26	3.54	199.43	1.00	88.71	4912.58	-4482.06	4407.85
Saccade R	1	3	5313978241	5314018121	39880	1094.87	539.06	1459.68	645.26	3.54	199.43	1.00	88.71	4912.58	-4482.06	4407.85
Fixation L	1	4	5314018121	5314177242	159121	1464.96	688.57	11	67	-1	11.78	11.78
Fixation R	1	4	5314018121	5314177242	159121	1464.96	688.57	11	67	-1	10.81	10.81
Saccade L	1	4	5314177242	5314236986	59744	1464.18	709.49	971.94	417.14	6.35	282.35	0.67	106.23	6977.23	-6809.87	4424.06
Saccade R	1	4	5314177242	5314236986	59744	1464.18	709.49	971.94	417.14	6.35	282.35	0.67	106.23	6977.23	-6809.87	4424.06
Fixation L	1	5	5314236986	5314694585	457599	985.05	413.52	57	16	-1	11.59	11.59
Fixation R	1	5	5314236986	5314694585	457599	985.05	413.52	57	16	-1	11.19	11.19
Saccade L	1	5	5314694585	5314714472	19887	1014.47	405.50	1052.87	401.27	0.30	39.08	1.00	14.93	843.48	-585.33	577.40
Saccade R	1	5	5314694585	5314714472	19887	1014.47	405.50	1052.87	401.27	0.30	39.08	1.00	14.93	843.48	-585.33	577.40
Fixation L	1	6	5314714472	5315032810	318338	1036.86	413.53	27	18	-1	11.62	11.62
Fixation R	1	6	5314714472	5315032810	318338	1036.86	413.53	27	18	-1	11.43	11.43
Saccade L	1	6	5315032810	5315072675	39865	1025.41	419.89	845.47	541.93	2.18	171.62	0.50	54.58	4259.10	-4120.49	2986.98
Saccade R	1	6	5315032810	5315072675	39865	1025.41	419.89	845.47	541.93	2.18	171.62	0.50	54.58	4259.10	-4120.49	2986.98
Fixation L	1	7	5315072675	5315749129	676454	841.26	543.56	15	52	-1	11.51	11.51
Fixation R	1	7	5315072675	5315749129	676454	841.26	543.56	15	52	-1	11.68	11.68
Saccade L	1	7	5315749129	5315808876	59747	838.90	585.14	932.30	816.84	3.34	109.27	1.00	55.85	2571.15	-2476.48	1193.63
Saccade R	1	7	5315749129	5315808876	59747	838.90	585.14	932.30	816.84	3.34	109.27	1.00	55.85	2571.15	-2476.48	1193.63
Fixation L	1	8	5315808876	5315908380	99504	965.38	804.62	47	18	-1	11.28	11.28
Fixation R	1	8	5315808876	5315908380	99504	965.38	804.62	47	18	-1	10.92	10.92
Saccade L	1	8	5315908380	5315988004	79624	979.53	798.34	1272.27	956.76	5.14	208.45	0.50	64.54	5078.50	-2788.98	2032.86
Saccade R	1	8	5315908380	5315988004	79624	979.53	798.34	1272.27	956.76	5.14	208.45	0.50	64.54	5078.50	-2788.98	2032.86
Fixation L	1	9	5315988004	5316425722	437718	1269.93	927.46	8	37	-1	11.26	11.26
Fixation R	1	9	5315988004	5316425722	437718	1269.93	927.46	8	37	-1	10.33	10.33
Saccade L	1	9	5316425722	5316465473	39751	1275.46	941.63	1472.09	975.36	2.05	131.62	0.50	51.49	3282.24	-2318.33	1984.73
Saccade R	1	9	5316425722	5316465473	39751	1275.46	941.63	1472.09	975.36	2.05	131.62	0.50	51.49	3282.24	-2318.33	1984.73
Fixation L	1	10	5316465473	5316684338	218865	1460.30	1005.12	32	43	-1	11.45	11.45
Fixation R	1	10	5316465473	5316684338	218865	1460.30	1005.12	32	43	-1	10.23	10.23
Saccade L	1	10	5316684338	5316783822	99484	1461.52	978.84	1461.65	897.09	1.90	77.29	0.20	19.12	1782.69	-1740.70	742.61
Saccade R	1	10	5316684338	5316783822	99484	1461.52	978.84	1461.65	897.09	1.90	77.29	0.20	19.12	1782.69	-1740.70	742.61
