[BeGaze]
Converted from:	C:\Documents and Settings\iViewX\Desktop\EXPERIMENTATIONS\Experiments\results\finaleart\S3121421-finaleart-1.idf
Date:	27.03.2019 15:34:16
Version:	BeGaze 2.5.77
Sample Rate:	50
Subject:	S3121421
Description:	Jean Jouve

Table Header for Fixations:
Event Type	Trial	Number	Start	End	Duration	Location X	Location Y	Dispersion X	Dispersion Y	Plane	Avg. Pupil Size X	Avg. Pupil Size Y

Table Header for Saccades:
Event Type	Trial	Number	Start	End	Duration	Start Loc.X	Start Loc.Y	End Loc.X	End Loc.Y	Amplitude	Peak Speed	Peak Speed At	Average Speed	Peak Accel.	Peak Decel.	Average Accel.

Table Header for Blinks:
Event Type	Trial	Number	Start	End	Duration

Table Header for User Events:
Event Type	Trial	Number	Start	Description

UserEvent	1	1	5613655894	# Message: still-life-fruits-on-a-table_manet_1864.jpg
Fixation L	1	1	5613664904	5614242362	577458	971.81	522.59	50	27	-1	12.47	12.47
Fixation R	1	1	5613664904	5614242362	577458	971.81	522.59	50	27	-1	12.95	12.95
Saccade L	1	1	5614242362	5614282234	39872	972.66	535.68	772.39	399.86	2.24	158.43	0.50	56.12	3944.05	-3324.75	2783.64
Saccade R	1	1	5614242362	5614282234	39872	972.66	535.68	772.39	399.86	2.24	158.43	0.50	56.12	3944.05	-3324.75	2783.64
Fixation L	1	2	5614282234	5614481344	199110	756.21	414.21	23	21	-1	11.71	11.71
Fixation R	1	2	5614282234	5614481344	199110	756.21	414.21	23	21	-1	11.74	11.74
Saccade L	1	2	5614481344	5614521229	39885	760.69	414.51	572.28	714.70	3.05	216.98	0.50	76.35	5224.89	-5387.98	4470.09
Saccade R	1	2	5614481344	5614521229	39885	760.69	414.51	572.28	714.70	3.05	216.98	0.50	76.35	5224.89	-5387.98	4470.09
Fixation L	1	3	5614521229	5614660583	139354	559.14	689.96	30	56	-1	10.78	10.78
Fixation R	1	3	5614521229	5614660583	139354	559.14	689.96	30	56	-1	11.69	11.69
Saccade L	1	3	5614660583	5614740206	79623	542.20	682.56	1365.14	871.78	10.41	364.86	0.50	130.73	8499.30	-7271.63	5291.67
Saccade R	1	3	5614660583	5614740206	79623	542.20	682.56	1365.14	871.78	10.41	364.86	0.50	130.73	8499.30	-7271.63	5291.67
Fixation L	1	4	5614740206	5614999068	258862	1367.68	875.02	44	27	-1	11.38	11.38
Fixation R	1	4	5614740206	5614999068	258862	1367.68	875.02	44	27	-1	10.87	10.87
Saccade L	1	4	5614999068	5615018933	19865	1330.84	896.21	1300.84	904.13	0.52	44.08	0.00	26.34	687.85	-652.91	597.60
Saccade R	1	4	5614999068	5615018933	19865	1330.84	896.21	1300.84	904.13	0.52	44.08	0.00	26.34	687.85	-652.91	597.60
Fixation L	1	5	5615018933	5615297801	278868	1291.61	928.00	44	37	-1	10.98	10.98
Fixation R	1	5	5615018933	5615297801	278868	1291.61	928.00	44	37	-1	10.41	10.41
Saccade L	1	5	5615297801	5615317661	19860	1328.32	920.59	1445.49	871.74	1.19	128.40	1.00	60.14	2770.23	-2866.28	1924.02
Saccade R	1	5	5615297801	5615317661	19860	1328.32	920.59	1445.49	871.74	1.19	128.40	1.00	60.14	2770.23	-2866.28	1924.02
Fixation L	1	6	5615317661	5615576531	258870	1459.29	811.98	21	72	-1	10.68	10.68
Fixation R	1	6	5615317661	5615576531	258870	1459.29	811.98	21	72	-1	10.28	10.28
Saccade L	1	6	5615576531	5615596409	19878	1467.42	799.08	1470.18	789.40	0.13	11.07	0.00	6.30	248.95	-204.91	212.53
Saccade R	1	6	5615576531	5615596409	19878	1467.42	799.08	1470.18	789.40	0.13	11.07	0.00	6.30	248.95	-204.91	212.53
Fixation L	1	7	5615596409	5615715898	119489	1478.18	782.60	16	17	-1	10.48	10.48
Fixation R	1	7	5615596409	5615715898	119489	1478.18	782.60	16	17	-1	10.21	10.21
Saccade L	1	7	5615715898	5615755775	39877	1486.84	771.75	1327.02	895.38	2.03	129.92	1.00	50.83	3007.29	-2101.43	2000.07
Saccade R	1	7	5615715898	5615755775	39877	1486.84	771.75	1327.02	895.38	2.03	129.92	1.00	50.83	3007.29	-2101.43	2000.07
Fixation L	1	8	5615755775	5616134112	378337	1316.50	915.21	41	57	-1	10.42	10.42
Fixation R	1	8	5615755775	5616134112	378337	1316.50	915.21	41	57	-1	10.23	10.23
Saccade L	1	8	5616134112	5616153996	19884	1293.24	927.78	1272.18	944.34	0.37	27.22	1.00	18.61	445.93	-119.93	325.04
Saccade R	1	8	5616134112	5616153996	19884	1293.24	927.78	1272.18	944.34	0.37	27.22	1.00	18.61	445.93	-119.93	325.04
Fixation L	1	9	5616153996	5616512348	358352	1273.93	947.33	62	24	-1	10.65	10.65
Fixation R	1	9	5616153996	5616512348	358352	1273.93	947.33	62	24	-1	10.41	10.41
Saccade L	1	9	5616512348	5616532351	20003	1326.43	930.86	1340.29	921.22	0.44	48.91	0.00	22.07	42.24	-1050.37	488.32
Saccade R	1	9	5616512348	5616532351	20003	1326.43	930.86	1340.29	921.22	0.44	48.91	0.00	22.07	42.24	-1050.37	488.32
Fixation L	1	10	5616532351	5617050060	517709	1344.01	901.75	63	34	-1	10.53	10.53
Fixation R	1	10	5616532351	5617050060	517709	1344.01	901.75	63	34	-1	10.24	10.24
Saccade L	1	10	5617050060	5617069943	19883	1305.88	918.98	1292.38	942.08	0.29	27.07	1.00	14.45	259.58	-537.48	271.81
Saccade R	1	10	5617050060	5617069943	19883	1305.88	918.98	1292.38	942.08	0.29	27.07	1.00	14.45	259.58	-537.48	271.81
Fixation L	1	11	5617069943	5617269072	199129	1284.38	950.46	14	13	-1	10.38	10.38
Fixation R	1	11	5617069943	5617269072	199129	1284.38	950.46	14	13	-1	10.13	10.13
Saccade L	1	11	5617269072	5617308927	39855	1280.91	953.26	1515.12	728.51	2.92	196.33	1.00	73.30	4825.56	-4781.03	3840.19
Saccade R	1	11	5617269072	5617308927	39855	1280.91	953.26	1515.12	728.51	2.92	196.33	1.00	73.30	4825.56	-4781.03	3840.19
Fixation L	1	12	5617308927	5617647399	338472	1509.67	752.66	15	29	-1	10.63	10.63
Fixation R	1	12	5617308927	5617647399	338472	1509.67	752.66	15	29	-1	10.32	10.32
