[BeGaze]
Converted from:	C:\Documents and Settings\iViewX\Desktop\EXPERIMENTATIONS\Experiments\results\finaleart\S3121421-finaleart-1.idf
Date:	27.03.2019 15:33:51
Version:	BeGaze 2.5.77
Sample Rate:	50
Subject:	S3121421
Description:	Jean Jouve

Table Header for Fixations:
Event Type	Trial	Number	Start	End	Duration	Location X	Location Y	Dispersion X	Dispersion Y	Plane	Avg. Pupil Size X	Avg. Pupil Size Y

Table Header for Saccades:
Event Type	Trial	Number	Start	End	Duration	Start Loc.X	Start Loc.Y	End Loc.X	End Loc.Y	Amplitude	Peak Speed	Peak Speed At	Average Speed	Peak Accel.	Peak Decel.	Average Accel.

Table Header for Blinks:
Event Type	Trial	Number	Start	End	Duration

Table Header for User Events:
Event Type	Trial	Number	Start	Description

UserEvent	1	1	4006354641	# Message: void.jpg
Saccade L	1	1	4006364261	4006503621	139360	235.63	968.47	994.41	682.97	13.31	303.75	0.71	95.51	7397.18	-6691.14	3032.99
Saccade R	1	1	4006364261	4006503621	139360	235.63	968.47	994.41	682.97	13.31	303.75	0.71	95.51	7397.18	-6691.14	3032.99
Fixation L	1	1	4006503621	4006782355	278734	999.62	666.93	17	56	-1	12.82	12.82
Fixation R	1	1	4006503621	4006782355	278734	999.62	666.93	17	56	-1	13.56	13.56
Blink L	1	1	4006782355	4007081100	298745
Blink R	1	1	4006782355	4007081100	298745
Fixation L	1	2	4007081100	4007260340	179240	991.73	382.44	46	47	-1	11.45	11.45
Fixation R	1	2	4007081100	4007260340	179240	991.73	382.44	46	47	-1	11.85	11.85
Saccade L	1	2	4007260340	4007280192	19852	1020.12	355.95	1027.14	354.92	0.23	22.64	1.00	11.64	380.62	-7.46	240.88
Saccade R	1	2	4007260340	4007280192	19852	1020.12	355.95	1027.14	354.92	0.23	22.64	1.00	11.64	380.62	-7.46	240.88
Fixation L	1	3	4007280192	4007618672	338480	1038.44	344.27	39	29	-1	11.37	11.37
Fixation R	1	3	4007280192	4007618672	338480	1038.44	344.27	39	29	-1	11.60	11.60
Saccade L	1	3	4007618672	4007638543	19871	1040.09	354.29	1041.42	276.96	0.47	78.23	1.00	23.74	1767.21	-1615.66	1190.62
Saccade R	1	3	4007618672	4007638543	19871	1040.09	354.29	1041.42	276.96	0.47	78.23	1.00	23.74	1767.21	-1615.66	1190.62
Fixation L	1	4	4007638543	4008355512	716969	1034.57	287.33	14	65	-1	11.62	11.62
Fixation R	1	4	4007638543	4008355512	716969	1034.57	287.33	14	65	-1	11.92	11.92
