[BeGaze]
Converted from:	C:\Documents and Settings\iViewX\Desktop\EXPERIMENTATIONS\Experiments\results\finaleart\S3121421-finaleart-1.idf
Date:	27.03.2019 15:34:05
Version:	BeGaze 2.5.77
Sample Rate:	50
Subject:	S3121421
Description:	Jean Jouve

Table Header for Fixations:
Event Type	Trial	Number	Start	End	Duration	Location X	Location Y	Dispersion X	Dispersion Y	Plane	Avg. Pupil Size X	Avg. Pupil Size Y

Table Header for Saccades:
Event Type	Trial	Number	Start	End	Duration	Start Loc.X	Start Loc.Y	End Loc.X	End Loc.Y	Amplitude	Peak Speed	Peak Speed At	Average Speed	Peak Accel.	Peak Decel.	Average Accel.

Table Header for Blinks:
Event Type	Trial	Number	Start	End	Duration

Table Header for User Events:
Event Type	Trial	Number	Start	Description

UserEvent	1	1	4965378926	# Message: nature_morte_aux_oranges_Vlaminck_1909.jpg
Fixation L	1	1	4965391680	4967798290	2406610	920.09	473.09	28	70	-1	10.00	10.00
Fixation R	1	1	4965391680	4967798290	2406610	920.09	473.09	28	70	-1	10.35	10.35
Saccade L	1	1	4967798290	4967818146	19856	932.47	509.81	933.34	511.72	0.18	23.39	0.00	9.18	227.81	-446.71	254.59
Saccade R	1	1	4967798290	4967818146	19856	932.47	509.81	933.34	511.72	0.18	23.39	0.00	9.18	227.81	-446.71	254.59
Fixation L	1	2	4967818146	4968752962	934816	942.23	521.51	23	60	-1	11.23	11.23
Fixation R	1	2	4967818146	4968752962	934816	942.23	521.51	23	60	-1	11.68	11.68
Saccade L	1	2	4968752962	4968812589	59627	941.08	522.97	688.90	892.65	6.04	311.23	0.67	101.32	7269.90	-6063.60	4201.60
Saccade R	1	2	4968752962	4968812589	59627	941.08	522.97	688.90	892.65	6.04	311.23	0.67	101.32	7269.90	-6063.60	4201.60
Fixation L	1	3	4968812589	4968971709	159120	688.60	923.00	9	73	-1	11.13	11.13
Fixation R	1	3	4968812589	4968971709	159120	688.60	923.00	9	73	-1	11.09	11.09
Saccade L	1	3	4968971709	4968991583	19874	691.71	887.30	691.82	991.05	1.23	104.95	1.00	61.84	1859.62	-1149.38	1522.51
Saccade R	1	3	4968971709	4968991583	19874	691.71	887.30	691.82	991.05	1.23	104.95	1.00	61.84	1859.62	-1149.38	1522.51
Fixation L	1	4	4968991583	4969110943	119360	692.67	942.90	5	89	-1	11.06	11.06
Fixation R	1	4	4968991583	4969110943	119360	692.67	942.90	5	89	-1	11.43	11.43
Saccade L	1	4	4969110943	4969130817	19874	696.59	970.35	695.26	894.62	0.94	76.62	1.00	47.38	1101.49	-1538.75	1378.03
Saccade R	1	4	4969110943	4969130817	19874	696.59	970.35	695.26	894.62	0.94	76.62	1.00	47.38	1101.49	-1538.75	1378.03
Fixation L	1	5	4969130817	4969389436	258619	694.17	920.94	6	90	-1	10.57	10.57
Fixation R	1	5	4969130817	4969389436	258619	694.17	920.94	6	90	-1	11.17	11.17
