[BeGaze]
Converted from:	C:\Documents and Settings\iViewX\Desktop\EXPERIMENTATIONS\Experiments\results\finaleart\S3121421-finaleart-1.idf
Date:	27.03.2019 15:34:01
Version:	BeGaze 2.5.77
Sample Rate:	50
Subject:	S3121421
Description:	Jean Jouve

Table Header for Fixations:
Event Type	Trial	Number	Start	End	Duration	Location X	Location Y	Dispersion X	Dispersion Y	Plane	Avg. Pupil Size X	Avg. Pupil Size Y

Table Header for Saccades:
Event Type	Trial	Number	Start	End	Duration	Start Loc.X	Start Loc.Y	End Loc.X	End Loc.Y	Amplitude	Peak Speed	Peak Speed At	Average Speed	Peak Accel.	Peak Decel.	Average Accel.

Table Header for Blinks:
Event Type	Trial	Number	Start	End	Duration

Table Header for User Events:
Event Type	Trial	Number	Start	Description

UserEvent	1	1	4652785694	# Message: avenue_of_trees_in_a_small_town_sisley_1866.jpg
Fixation L	1	1	4652799062	4653375897	576835	1079.07	439.92	36	58	-1	12.48	12.48
Fixation R	1	1	4652799062	4653375897	576835	1079.07	439.92	36	58	-1	12.74	12.74
Saccade L	1	1	4653375897	4653415644	39747	1066.25	455.05	1043.06	686.96	2.27	120.74	0.50	57.21	2874.96	-2487.77	2538.16
Saccade R	1	1	4653375897	4653415644	39747	1066.25	455.05	1043.06	686.96	2.27	120.74	0.50	57.21	2874.96	-2487.77	2538.16
Fixation L	1	2	4653415644	4653614514	198870	1035.20	643.81	16	69	-1	12.10	12.10
Fixation R	1	2	4653415644	4653614514	198870	1035.20	643.81	16	69	-1	11.82	11.82
Saccade L	1	2	4653614514	4653713998	99484	1026.54	621.77	760.48	650.34	7.05	131.77	0.40	70.86	3040.20	-2936.79	1954.97
Saccade R	1	2	4653614514	4653713998	99484	1026.54	621.77	760.48	650.34	7.05	131.77	0.40	70.86	3040.20	-2936.79	1954.97
Fixation L	1	3	4653713998	4653892993	178995	751.99	698.97	15	81	-1	10.88	10.88
Fixation R	1	3	4653713998	4653892993	178995	751.99	698.97	15	81	-1	11.76	11.76
Saccade L	1	3	4653892993	4654091851	198858	745.95	702.35	403.15	817.81	9.35	236.49	0.60	47.03	5701.50	-5160.23	1707.81
Saccade R	1	3	4653892993	4654091851	198858	745.95	702.35	403.15	817.81	9.35	236.49	0.60	47.03	5701.50	-5160.23	1707.81
Fixation L	1	4	4654091851	4654231094	139243	413.47	878.95	19	78	-1	10.59	10.59
Fixation R	1	4	4654091851	4654231094	139243	413.47	878.95	19	78	-1	11.45	11.45
Saccade L	1	4	4654231094	4654290712	59618	421.29	895.91	761.25	451.27	5.99	223.64	0.67	100.55	5509.74	-5401.84	3858.58
Saccade R	1	4	4654231094	4654290712	59618	421.29	895.91	761.25	451.27	5.99	223.64	0.67	100.55	5509.74	-5401.84	3858.58
Fixation L	1	5	4654290712	4654569196	278484	745.74	447.27	30	23	-1	11.10	11.10
Fixation R	1	5	4654290712	4654569196	278484	745.74	447.27	30	23	-1	11.99	11.99
Saccade L	1	5	4654569196	4654608947	39751	744.89	434.53	888.04	334.95	1.77	89.49	0.50	44.64	2141.34	-1962.85	1868.97
Saccade R	1	5	4654569196	4654608947	39751	744.89	434.53	888.04	334.95	1.77	89.49	0.50	44.64	2141.34	-1962.85	1868.97
Fixation L	1	6	4654608947	4654827801	218854	874.42	307.65	16	38	-1	11.14	11.14
Fixation R	1	6	4654608947	4654827801	218854	874.42	307.65	16	38	-1	11.89	11.89
Saccade L	1	6	4654827801	4654887427	59626	871.96	296.38	1503.34	114.95	6.81	276.82	0.67	114.23	6862.15	-6711.00	4738.11
Saccade R	1	6	4654827801	4654887427	59626	871.96	296.38	1503.34	114.95	6.81	276.82	0.67	114.23	6862.15	-6711.00	4738.11
Fixation L	1	7	4654887427	4655126164	238737	1490.38	144.86	31	57	-1	11.22	11.22
Fixation R	1	7	4654887427	4655126164	238737	1490.38	144.86	31	57	-1	11.36	11.36
Saccade L	1	7	4655126164	4655146043	19879	1472.67	172.78	1465.58	183.28	0.19	13.83	1.00	9.72	-25.42	-249.57	149.02
Saccade R	1	7	4655126164	4655146043	19879	1472.67	172.78	1465.58	183.28	0.19	13.83	1.00	9.72	-25.42	-249.57	149.02
Fixation L	1	8	4655146043	4655444399	298356	1462.45	181.30	7	33	-1	11.32	11.32
Fixation R	1	8	4655146043	4655444399	298356	1462.45	181.30	7	33	-1	11.27	11.27
Saccade L	1	8	4655444399	4655504023	59624	1465.79	204.61	1601.49	655.60	6.81	346.05	0.33	114.27	8609.21	-4321.15	4635.41
Saccade R	1	8	4655444399	4655504023	59624	1465.79	204.61	1601.49	655.60	6.81	346.05	0.33	114.27	8609.21	-4321.15	4635.41
Fixation L	1	9	4655504023	4655802397	298374	1607.92	637.74	21	29	-1	12.18	12.18
Fixation R	1	9	4655504023	4655802397	298374	1607.92	637.74	21	29	-1	11.51	11.51
Saccade L	1	9	4655802397	4655861983	59586	1617.08	632.59	1043.92	809.85	6.48	299.09	0.67	108.83	7412.05	-6449.08	4620.29
Saccade R	1	9	4655802397	4655861983	59586	1617.08	632.59	1043.92	809.85	6.48	299.09	0.67	108.83	7412.05	-6449.08	4620.29
Fixation L	1	10	4655861983	4656100752	238769	1018.44	789.56	33	39	-1	12.45	12.45
Fixation R	1	10	4655861983	4656100752	238769	1018.44	789.56	33	39	-1	12.08	12.08
Blink L	1	1	4656100752	4656319482	218730
Blink R	1	1	4656100752	4656319482	218730
Fixation L	1	11	4656319482	4656776936	457454	1052.92	393.99	24	69	-1	11.49	11.49
Fixation R	1	11	4656319482	4656776936	457454	1052.92	393.99	24	69	-1	11.85	11.85
