[BeGaze]
Converted from:	C:\Documents and Settings\iViewX\Desktop\EXPERIMENTATIONS\Experiments\results\finaleart\S3121421-finaleart-1.idf
Date:	27.03.2019 15:33:57
Version:	BeGaze 2.5.77
Sample Rate:	50
Subject:	S3121421
Description:	Jean Jouve

Table Header for Fixations:
Event Type	Trial	Number	Start	End	Duration	Location X	Location Y	Dispersion X	Dispersion Y	Plane	Avg. Pupil Size X	Avg. Pupil Size Y

Table Header for Saccades:
Event Type	Trial	Number	Start	End	Duration	Start Loc.X	Start Loc.Y	End Loc.X	End Loc.Y	Amplitude	Peak Speed	Peak Speed At	Average Speed	Peak Accel.	Peak Decel.	Average Accel.

Table Header for Blinks:
Event Type	Trial	Number	Start	End	Duration

Table Header for User Events:
Event Type	Trial	Number	Start	Description

UserEvent	1	1	4531819751	# Message: bowl_of_fruits_Fantin-Latour_1857.jpg
Fixation L	1	1	4531831869	4532488577	656708	962.19	473.28	23	18	-1	11.54	11.54
Fixation R	1	1	4531831869	4532488577	656708	962.19	473.28	23	18	-1	11.93	11.93
Saccade L	1	1	4532488577	4532528326	39749	963.49	471.95	711.17	335.34	2.75	181.40	0.50	69.15	4439.34	-4496.39	3977.58
Saccade R	1	1	4532488577	4532528326	39749	963.49	471.95	711.17	335.34	2.75	181.40	0.50	69.15	4439.34	-4496.39	3977.58
Fixation L	1	2	4532528326	4532747184	218858	718.99	332.33	16	12	-1	11.17	11.17
Fixation R	1	2	4532528326	4532747184	218858	718.99	332.33	16	12	-1	11.77	11.77
Saccade L	1	2	4532747184	4532806938	59754	723.96	335.16	147.66	331.57	5.99	293.03	0.67	100.32	7235.37	-7121.73	4857.80
Saccade R	1	2	4532747184	4532806938	59754	723.96	335.16	147.66	331.57	5.99	293.03	0.67	100.32	7235.37	-7121.73	4857.80
Fixation L	1	3	4532806938	4532966039	159101	170.86	357.60	40	57	-1	10.52	10.52
Fixation R	1	3	4532806938	4532966039	159101	170.86	357.60	40	57	-1	11.46	11.46
Saccade L	1	3	4532966039	4532985923	19884	185.54	386.56	200.81	397.62	0.21	19.07	1.00	10.43	152.64	-278.84	162.61
Saccade R	1	3	4532966039	4532985923	19884	185.54	386.56	200.81	397.62	0.21	19.07	1.00	10.43	152.64	-278.84	162.61
Fixation L	1	4	4532985923	4533224777	238854	214.63	412.92	20	24	-1	10.58	10.58
Fixation R	1	4	4532985923	4533224777	238854	214.63	412.92	20	24	-1	11.98	11.98
Saccade L	1	4	4533224777	4533284399	59622	219.36	413.07	487.04	949.09	6.43	337.24	0.67	107.77	8412.84	-8393.82	4918.49
Saccade R	1	4	4533224777	4533284399	59622	219.36	413.07	487.04	949.09	6.43	337.24	0.67	107.77	8412.84	-8393.82	4918.49
Fixation L	1	5	4533284399	4533483385	198986	473.77	922.11	28	50	-1	11.36	11.36
Fixation R	1	5	4533284399	4533483385	198986	473.77	922.11	28	50	-1	12.50	12.50
Saccade L	1	5	4533483385	4533543131	59746	459.68	898.98	1213.06	900.39	7.92	284.14	0.33	132.52	6886.98	-6775.69	5468.47
Saccade R	1	5	4533483385	4533543131	59746	459.68	898.98	1213.06	900.39	7.92	284.14	0.33	132.52	6886.98	-6775.69	5468.47
Fixation L	1	6	4533543131	4533821632	278501	1228.21	911.76	42	50	-1	12.56	12.56
Fixation R	1	6	4533543131	4533821632	278501	1228.21	911.76	42	50	-1	11.61	11.61
Saccade L	1	6	4533821632	4533881366	59734	1239.19	921.69	1494.29	524.60	5.41	255.25	0.67	90.64	5753.51	-5550.27	3547.42
Saccade R	1	6	4533821632	4533881366	59734	1239.19	921.69	1494.29	524.60	5.41	255.25	0.67	90.64	5753.51	-5550.27	3547.42
Fixation L	1	7	4533881366	4533980864	99498	1467.74	554.67	39	51	-1	11.98	11.98
Fixation R	1	7	4533881366	4533980864	99498	1467.74	554.67	39	51	-1	11.60	11.60
Saccade L	1	7	4533980864	4534000739	19875	1454.49	575.85	1445.38	585.33	0.25	15.77	1.00	12.65	148.78	-101.59	96.63
Saccade R	1	7	4533980864	4534000739	19875	1454.49	575.85	1445.38	585.33	0.25	15.77	1.00	12.65	148.78	-101.59	96.63
Fixation L	1	8	4534000739	4534378826	378087	1452.57	581.56	54	28	-1	11.76	11.76
Fixation R	1	8	4534000739	4534378826	378087	1452.57	581.56	54	28	-1	11.29	11.29
Saccade L	1	8	4534378826	4534418576	39750	1404.44	566.48	1160.57	375.56	3.31	273.79	0.50	83.32	6660.93	-6049.73	3505.48
Saccade R	1	8	4534378826	4534418576	39750	1404.44	566.48	1160.57	375.56	3.31	273.79	0.50	83.32	6660.93	-6049.73	3505.48
Fixation L	1	9	4534418576	4534736932	318356	1137.10	361.87	34	29	-1	11.22	11.22
Fixation R	1	9	4534418576	4534736932	318356	1137.10	361.87	34	29	-1	11.01	11.01
Saccade L	1	9	4534736932	4534756813	19881	1159.98	365.71	1336.23	397.04	1.24	181.03	1.00	62.39	4487.44	-3871.89	2954.48
Saccade R	1	9	4534736932	4534756813	19881	1159.98	365.71	1336.23	397.04	1.24	181.03	1.00	62.39	4487.44	-3871.89	2954.48
Fixation L	1	10	4534756813	4534896176	139363	1327.40	454.75	14	75	-1	11.22	11.22
Fixation R	1	10	4534756813	4534896176	139363	1327.40	454.75	14	75	-1	10.89	10.89
Saccade L	1	10	4534896176	4534916053	19877	1321.60	472.61	1319.20	480.59	0.08	8.43	1.00	4.11	163.69	-143.57	128.89
Saccade R	1	10	4534896176	4534916053	19877	1321.60	472.61	1319.20	480.59	0.08	8.43	1.00	4.11	163.69	-143.57	128.89
Fixation L	1	11	4534916053	4535632382	716329	1329.44	477.87	22	31	-1	11.76	11.76
Fixation R	1	11	4534916053	4535632382	716329	1329.44	477.87	22	31	-1	11.48	11.48
Saccade L	1	11	4535632382	4535672141	39759	1331.81	468.92	1613.06	486.94	2.49	169.90	1.00	62.52	4180.02	-3731.11	3261.63
Saccade R	1	11	4535632382	4535672141	39759	1331.81	468.92	1613.06	486.94	2.49	169.90	1.00	62.52	4180.02	-3731.11	3261.63
Fixation L	1	12	4535672141	4535831385	159244	1577.99	508.09	47	34	-1	12.17	12.17
Fixation R	1	12	4535672141	4535831385	159244	1577.99	508.09	47	34	-1	11.50	11.50
