[BeGaze]
Converted from:	C:\Documents and Settings\iViewX\Desktop\EXPERIMENTATIONS\Experiments\results\finaleart\S3121421-finaleart-1.idf
Date:	27.03.2019 15:34:06
Version:	BeGaze 2.5.77
Sample Rate:	50
Subject:	S3121421
Description:	Jean Jouve

Table Header for Fixations:
Event Type	Trial	Number	Start	End	Duration	Location X	Location Y	Dispersion X	Dispersion Y	Plane	Avg. Pupil Size X	Avg. Pupil Size Y

Table Header for Saccades:
Event Type	Trial	Number	Start	End	Duration	Start Loc.X	Start Loc.Y	End Loc.X	End Loc.Y	Amplitude	Peak Speed	Peak Speed At	Average Speed	Peak Accel.	Peak Decel.	Average Accel.

Table Header for Blinks:
Event Type	Trial	Number	Start	End	Duration

Table Header for User Events:
Event Type	Trial	Number	Start	Description

UserEvent	1	1	4977632023	# Message: manet-the-salmon-1868.jpg
Fixation L	1	1	4977643690	4978141156	497466	1017.23	455.09	10	27	-1	10.85	10.85
Fixation R	1	1	4977643690	4978141156	497466	1017.23	455.09	10	27	-1	10.87	10.87
Blink L	1	1	4978141156	4978320143	178987
Blink R	1	1	4978141156	4978320143	178987
Fixation L	1	2	4978320143	4978439636	119493	749.58	683.92	8	32	-1	11.28	11.28
Fixation R	1	2	4978320143	4978439636	119493	749.58	683.92	8	32	-1	11.94	11.94
Saccade L	1	1	4978439636	4978479383	39747	750.82	689.88	1150.54	655.61	3.71	230.50	0.50	93.29	5364.24	-4829.39	4577.32
Saccade R	1	1	4978439636	4978479383	39747	750.82	689.88	1150.54	655.61	3.71	230.50	0.50	93.29	5364.24	-4829.39	4577.32
Fixation L	1	3	4978479383	4978737991	258608	1124.90	682.53	34	53	-1	10.81	10.81
Fixation R	1	3	4978479383	4978737991	258608	1124.90	682.53	34	53	-1	12.03	12.03
Saccade L	1	2	4978737991	4978777866	39875	1121.17	684.56	978.22	580.07	1.67	94.02	1.00	41.95	2191.48	-2235.01	2092.40
Saccade R	1	2	4978737991	4978777866	39875	1121.17	684.56	978.22	580.07	1.67	94.02	1.00	41.95	2191.48	-2235.01	2092.40
Fixation L	1	4	4978777866	4979076337	298471	985.19	573.30	44	38	-1	10.80	10.80
Fixation R	1	4	4978777866	4979076337	298471	985.19	573.30	44	38	-1	11.39	11.39
Saccade L	1	3	4979076337	4979116089	39752	984.73	549.26	766.02	594.47	2.27	117.81	1.00	57.04	2638.83	-2460.37	2348.17
Saccade R	1	3	4979076337	4979116089	39752	984.73	549.26	766.02	594.47	2.27	117.81	1.00	57.04	2638.83	-2460.37	2348.17
Fixation L	1	5	4979116089	4979514072	397983	724.06	590.55	47	28	-1	9.76	9.76
Fixation R	1	5	4979116089	4979514072	397983	724.06	590.55	47	28	-1	11.15	11.15
Saccade L	1	4	4979514072	4979533938	19866	718.61	596.86	716.27	718.22	0.77	122.77	1.00	38.97	3018.21	-949.88	1496.64
Saccade R	1	4	4979514072	4979533938	19866	718.61	596.86	716.27	718.22	0.77	122.77	1.00	38.97	3018.21	-949.88	1496.64
Fixation L	1	6	4979533938	4979693171	159233	707.63	736.02	14	84	-1	9.74	9.74
Fixation R	1	6	4979533938	4979693171	159233	707.63	736.02	14	84	-1	10.96	10.96
Saccade L	1	5	4979693171	4979713056	19885	702.17	752.06	698.30	777.39	0.31	25.93	1.00	15.55	592.65	-423.34	403.48
Saccade R	1	5	4979693171	4979713056	19885	702.17	752.06	698.30	777.39	0.31	25.93	1.00	15.55	592.65	-423.34	403.48
Fixation L	1	7	4979713056	4979812547	99491	702.13	756.29	22	73	-1	9.95	9.95
Fixation R	1	7	4979713056	4979812547	99491	702.13	756.29	22	73	-1	11.19	11.19
Saccade L	1	6	4979812547	4979832430	19883	719.93	703.81	722.92	670.37	0.68	59.28	0.00	34.39	420.13	-803.04	449.09
Saccade R	1	6	4979812547	4979832430	19883	719.93	703.81	722.92	670.37	0.68	59.28	0.00	34.39	420.13	-803.04	449.09
Fixation L	1	8	4979832430	4980031418	198988	738.75	690.00	31	68	-1	9.86	9.86
Fixation R	1	8	4979832430	4980031418	198988	738.75	690.00	31	68	-1	11.13	11.13
Saccade L	1	7	4980031418	4980071160	39742	750.35	733.30	751.94	659.79	1.30	84.33	1.00	32.59	1314.37	-1982.16	944.97
Saccade R	1	7	4980031418	4980071160	39742	750.35	733.30	751.94	659.79	1.30	84.33	1.00	32.59	1314.37	-1982.16	944.97
Fixation L	1	9	4980071160	4980170654	99494	750.60	647.04	3	33	-1	9.74	9.74
Fixation R	1	9	4980071160	4980170654	99494	750.60	647.04	3	33	-1	10.63	10.63
Saccade L	1	8	4980170654	4980210530	39876	748.57	626.23	950.06	649.21	2.18	113.67	0.50	54.71	2650.90	-2050.65	2096.36
Saccade R	1	8	4980170654	4980210530	39876	748.57	626.23	950.06	649.21	2.18	113.67	0.50	54.71	2650.90	-2050.65	2096.36
Fixation L	1	10	4980210530	4980329896	119366	982.91	627.72	42	55	-1	9.89	9.89
Fixation R	1	10	4980210530	4980329896	119366	982.91	627.72	42	55	-1	11.04	11.04
Saccade L	1	9	4980329896	4980349770	19874	992.41	597.65	994.95	597.79	0.35	50.01	0.00	17.70	223.12	-950.81	421.74
Saccade R	1	9	4980329896	4980349770	19874	992.41	597.65	994.95	597.79	0.35	50.01	0.00	17.70	223.12	-950.81	421.74
Fixation L	1	11	4980349770	4980608377	258607	1005.09	622.98	32	48	-1	9.85	9.85
Fixation R	1	11	4980349770	4980608377	258607	1005.09	622.98	32	48	-1	11.31	11.31
Saccade L	1	10	4980608377	4980628381	20004	1027.05	625.11	1123.56	634.05	0.74	98.04	1.00	36.84	2066.71	-2438.04	1608.37
Saccade R	1	10	4980608377	4980628381	20004	1027.05	625.11	1123.56	634.05	0.74	98.04	1.00	36.84	2066.71	-2438.04	1608.37
Fixation L	1	12	4980628381	4981026221	397840	1121.14	612.29	25	56	-1	10.09	10.09
Fixation R	1	12	4980628381	4981026221	397840	1121.14	612.29	25	56	-1	11.12	11.12
Saccade L	1	11	4981026221	4981046227	20006	1109.48	577.79	971.61	584.13	1.00	139.59	1.00	49.86	3256.16	-2923.75	2134.80
Saccade R	1	11	4981026221	4981046227	20006	1109.48	577.79	971.61	584.13	1.00	139.59	1.00	49.86	3256.16	-2923.75	2134.80
Fixation L	1	13	4981046227	4981444072	397845	953.93	559.01	28	36	-1	9.86	9.86
Fixation R	1	13	4981046227	4981444072	397845	953.93	559.01	28	36	-1	11.08	11.08
Saccade L	1	12	4981444072	4981464091	20019	952.98	558.74	842.99	551.35	0.88	111.51	1.00	43.85	2758.61	-2206.34	2129.86
Saccade R	1	12	4981444072	4981464091	20019	952.98	558.74	842.99	551.35	0.88	111.51	1.00	43.85	2758.61	-2206.34	2129.86
Fixation L	1	14	4981464091	4981623210	159119	799.09	568.15	57	24	-1	10.13	10.13
Fixation R	1	14	4981464091	4981623210	159119	799.09	568.15	57	24	-1	11.00	11.00
