[BeGaze]
Converted from:	C:\Documents and Settings\iViewX\Desktop\EXPERIMENTATIONS\Experiments\results\finaleart\S3121421-finaleart-1.idf
Date:	27.03.2019 15:33:59
Version:	BeGaze 2.5.77
Sample Rate:	50
Subject:	S3121421
Description:	Jean Jouve

Table Header for Fixations:
Event Type	Trial	Number	Start	End	Duration	Location X	Location Y	Dispersion X	Dispersion Y	Plane	Avg. Pupil Size X	Avg. Pupil Size Y

Table Header for Saccades:
Event Type	Trial	Number	Start	End	Duration	Start Loc.X	Start Loc.Y	End Loc.X	End Loc.Y	Amplitude	Peak Speed	Peak Speed At	Average Speed	Peak Accel.	Peak Decel.	Average Accel.

Table Header for Blinks:
Event Type	Trial	Number	Start	End	Duration

Table Header for User Events:
Event Type	Trial	Number	Start	Description

UserEvent	1	1	4593106309	# Message: study_of_a_reclining_nude_Delacroix_1824.jpg
Fixation L	1	1	4593116916	4593534772	417856	909.16	430.18	3	48	-1	11.88	11.88
Fixation R	1	1	4593116916	4593534772	417856	909.16	430.18	3	48	-1	13.26	13.26
Saccade L	1	1	4593534772	4593594390	59618	910.84	431.08	1386.62	302.62	5.59	300.39	0.67	93.72	7440.72	-7027.72	4083.96
Saccade R	1	1	4593534772	4593594390	59618	910.84	431.08	1386.62	302.62	5.59	300.39	0.67	93.72	7440.72	-7027.72	4083.96
Fixation L	1	2	4593594390	4594231091	636701	1380.86	328.80	11	40	-1	12.04	12.04
Fixation R	1	2	4593594390	4594231091	636701	1380.86	328.80	11	40	-1	12.99	12.99
Saccade L	1	2	4594231091	4594270962	39871	1378.85	326.63	1066.34	627.47	3.59	294.76	0.50	90.13	7325.57	-7232.19	5420.39
Saccade R	1	2	4594231091	4594270962	39871	1378.85	326.63	1066.34	627.47	3.59	294.76	0.50	90.13	7325.57	-7232.19	5420.39
Fixation L	1	3	4594270962	4594668935	397973	1069.29	594.02	5	58	-1	12.09	12.09
Fixation R	1	3	4594270962	4594668935	397973	1069.29	594.02	5	58	-1	13.51	13.51
Saccade L	1	3	4594668935	4594728556	59621	1066.31	594.05	559.13	767.04	5.73	264.02	0.33	96.13	6508.19	-4903.09	4561.59
Saccade R	1	3	4594668935	4594728556	59621	1066.31	594.05	559.13	767.04	5.73	264.02	0.33	96.13	6508.19	-4903.09	4561.59
Fixation L	1	4	4594728556	4594987296	258740	560.40	794.04	12	59	-1	11.58	11.58
Fixation R	1	4	4594728556	4594987296	258740	560.40	794.04	12	59	-1	13.08	13.08
Saccade L	1	4	4594987296	4595027038	39742	564.06	801.07	417.13	849.23	1.62	103.68	1.00	40.67	2460.23	-2497.74	1642.77
Saccade R	1	4	4594987296	4595027038	39742	564.06	801.07	417.13	849.23	1.62	103.68	1.00	40.67	2460.23	-2497.74	1642.77
Fixation L	1	5	4595027038	4595226033	198995	423.39	876.51	9	42	-1	11.09	11.09
Fixation R	1	5	4595027038	4595226033	198995	423.39	876.51	9	42	-1	13.01	13.01
Saccade L	1	5	4595226033	4595265783	39750	420.49	883.02	513.36	978.18	1.37	69.46	0.50	34.51	1703.23	-1285.46	1383.01
Saccade R	1	5	4595226033	4595265783	39750	420.49	883.02	513.36	978.18	1.37	69.46	0.50	34.51	1703.23	-1285.46	1383.01
Fixation L	1	6	4595265783	4595663756	397973	531.29	1001.96	36	34	-1	11.45	11.45
Fixation R	1	6	4595265783	4595663756	397973	531.29	1001.96	36	34	-1	13.21	13.21
Saccade L	1	6	4595663756	4595763253	99497	534.56	1004.32	1379.98	353.29	13.83	340.45	0.40	139.00	8413.96	-5429.21	4360.60
Saccade R	1	6	4595663756	4595763253	99497	534.56	1004.32	1379.98	353.29	13.83	340.45	0.40	139.00	8413.96	-5429.21	4360.60
Fixation L	1	7	4595763253	4596101478	338225	1374.97	367.93	11	44	-1	12.33	12.33
Fixation R	1	7	4595763253	4596101478	338225	1374.97	367.93	11	44	-1	12.99	12.99
Saccade L	1	7	4596101478	4596121484	20006	1373.15	381.30	1397.74	239.89	0.81	145.18	1.00	40.60	3594.12	-3380.40	2416.46
Saccade R	1	7	4596101478	4596121484	20006	1373.15	381.30	1397.74	239.89	0.81	145.18	1.00	40.60	3594.12	-3380.40	2416.46
Fixation L	1	8	4596121484	4596439864	318380	1399.86	253.13	17	63	-1	11.80	11.80
Fixation R	1	8	4596121484	4596439864	318380	1399.86	253.13	17	63	-1	12.13	12.13
Saccade L	1	8	4596439864	4596459709	19845	1393.35	284.89	1384.75	303.86	0.15	21.07	1.00	7.60	447.24	-240.87	238.82
Saccade R	1	8	4596439864	4596459709	19845	1393.35	284.89	1384.75	303.86	0.15	21.07	1.00	7.60	447.24	-240.87	238.82
Fixation L	1	9	4596459709	4596718320	258611	1384.96	298.41	6	28	-1	11.72	11.72
Fixation R	1	9	4596459709	4596718320	258611	1384.96	298.41	6	28	-1	11.90	11.90
Saccade L	1	9	4596718320	4596817818	99498	1386.03	287.29	1522.46	124.06	5.42	176.40	0.40	54.49	4322.69	-3945.25	2497.02
Saccade R	1	9	4596718320	4596817818	99498	1386.03	287.29	1522.46	124.06	5.42	176.40	0.40	54.49	4322.69	-3945.25	2497.02
Fixation L	1	10	4596817818	4597036676	218858	1499.89	155.19	32	55	-1	11.69	11.69
Fixation R	1	10	4596817818	4597036676	218858	1499.89	155.19	32	55	-1	11.91	11.91
Saccade L	1	10	4597036676	4597096417	59741	1490.09	177.20	1480.60	194.99	0.87	27.31	0.33	14.57	440.93	-391.41	307.01
Saccade R	1	10	4597036676	4597096417	59741	1490.09	177.20	1480.60	194.99	0.87	27.31	0.33	14.57	440.93	-391.41	307.01
