[BeGaze]
Converted from:	C:\Documents and Settings\iViewX\Desktop\EXPERIMENTATIONS\Experiments\results\finaleart\S3121421-finaleart-1.idf
Date:	27.03.2019 15:34:07
Version:	BeGaze 2.5.77
Sample Rate:	50
Subject:	S3121421
Description:	Jean Jouve

Table Header for Fixations:
Event Type	Trial	Number	Start	End	Duration	Location X	Location Y	Dispersion X	Dispersion Y	Plane	Avg. Pupil Size X	Avg. Pupil Size Y

Table Header for Saccades:
Event Type	Trial	Number	Start	End	Duration	Start Loc.X	Start Loc.Y	End Loc.X	End Loc.Y	Amplitude	Peak Speed	Peak Speed At	Average Speed	Peak Accel.	Peak Decel.	Average Accel.

Table Header for Blinks:
Event Type	Trial	Number	Start	End	Duration

Table Header for User Events:
Event Type	Trial	Number	Start	Description

UserEvent	1	1	5245279464	# Message: the_three_skulls_gericault_1814.jpg
Fixation L	1	1	5245297396	5245774877	477481	869.60	617.06	57	24	-1	12.51	12.51
Fixation R	1	1	5245297396	5245774877	477481	869.60	617.06	57	24	-1	13.09	13.09
Saccade L	1	1	5245774877	5245794750	19873	922.34	620.10	1068.90	623.10	1.08	148.27	1.00	54.11	3499.71	-3647.69	2733.43
Saccade R	1	1	5245774877	5245794750	19873	922.34	620.10	1068.90	623.10	1.08	148.27	1.00	54.11	3499.71	-3647.69	2733.43
Fixation L	1	2	5245794750	5246491202	696452	1058.64	620.60	22	66	-1	12.58	12.58
Fixation R	1	2	5245794750	5246491202	696452	1058.64	620.60	22	66	-1	12.62	12.62
Saccade L	1	2	5246491202	5246531071	39869	1046.71	576.35	1411.60	511.86	3.27	247.73	1.00	82.04	6104.93	-5956.58	4409.81
Saccade R	1	2	5246491202	5246531071	39869	1046.71	576.35	1411.60	511.86	3.27	247.73	1.00	82.04	6104.93	-5956.58	4409.81
Fixation L	1	3	5246531071	5247088169	557098	1424.76	519.96	35	63	-1	13.01	13.01
Fixation R	1	3	5246531071	5247088169	557098	1424.76	519.96	35	63	-1	12.63	12.63
Saccade L	1	3	5247088169	5247167779	79610	1405.46	553.39	530.29	510.95	10.45	299.16	0.50	131.29	7389.64	-5905.49	4405.89
Saccade R	1	3	5247088169	5247167779	79610	1405.46	553.39	530.29	510.95	10.45	299.16	0.50	131.29	7389.64	-5905.49	4405.89
Fixation L	1	4	5247167779	5247645245	477466	494.27	476.65	47	47	-1	12.84	12.84
Fixation R	1	4	5247167779	5247645245	477466	494.27	476.65	47	47	-1	13.73	13.73
Saccade L	1	4	5247645245	5247665128	19883	482.85	463.55	380.22	462.94	0.74	103.82	1.00	37.33	2527.68	-2241.21	1754.06
Saccade R	1	4	5247645245	5247665128	19883	482.85	463.55	380.22	462.94	0.74	103.82	1.00	37.33	2527.68	-2241.21	1754.06
Fixation L	1	5	5247665128	5247923856	258728	399.89	472.52	30	27	-1	12.60	12.60
Fixation R	1	5	5247665128	5247923856	258728	399.89	472.52	30	27	-1	13.16	13.16
Saccade L	1	5	5247923856	5247963607	39751	409.91	486.75	1004.54	601.41	5.30	328.37	0.50	133.35	8130.35	-7586.60	7311.62
Saccade R	1	5	5247923856	5247963607	39751	409.91	486.75	1004.54	601.41	5.30	328.37	0.50	133.35	8130.35	-7586.60	7311.62
Fixation L	1	6	5247963607	5248461083	497476	1031.46	608.73	51	42	-1	12.94	12.94
Fixation R	1	6	5247963607	5248461083	497476	1031.46	608.73	51	42	-1	13.20	13.20
Saccade L	1	6	5248461083	5248480957	19874	1056.00	583.95	1070.34	568.51	0.32	29.54	0.00	16.27	487.08	-428.86	403.23
Saccade R	1	6	5248461083	5248480957	19874	1056.00	583.95	1070.34	568.51	0.32	29.54	0.00	16.27	487.08	-428.86	403.23
Fixation L	1	7	5248480957	5248679941	198984	1079.10	566.95	15	32	-1	13.11	13.11
Fixation R	1	7	5248480957	5248679941	198984	1079.10	566.95	15	32	-1	12.87	12.87
Saccade L	1	7	5248679941	5248719819	39878	1081.75	554.18	1385.34	542.55	3.09	236.74	1.00	77.59	5654.60	-5253.50	3172.70
Saccade R	1	7	5248679941	5248719819	39878	1081.75	554.18	1385.34	542.55	3.09	236.74	1.00	77.59	5654.60	-5253.50	3172.70
Fixation L	1	8	5248719819	5249077914	358095	1433.06	533.83	73	24	-1	12.68	12.68
Fixation R	1	8	5248719819	5249077914	358095	1433.06	533.83	73	24	-1	12.30	12.30
Saccade L	1	8	5249077914	5249117660	39746	1428.63	542.30	1464.94	628.16	1.08	78.98	1.00	27.06	1854.42	-1858.27	1060.16
Saccade R	1	8	5249077914	5249117660	39746	1428.63	542.30	1464.94	628.16	1.08	78.98	1.00	27.06	1854.42	-1858.27	1060.16
Fixation L	1	9	5249117660	5249257032	139372	1478.92	609.25	22	25	-1	12.83	12.83
Fixation R	1	9	5249117660	5249257032	139372	1478.92	609.25	22	25	-1	12.36	12.36
Saccade L	1	9	5249257032	5249276896	19864	1482.60	609.48	1148.88	611.33	2.29	337.21	1.00	115.35	8302.18	0.00	4151.09
Saccade R	1	9	5249257032	5249276896	19864	1482.60	609.48	1148.88	611.33	2.29	337.21	1.00	115.35	8302.18	0.00	4151.09
