[BeGaze]
Converted from:	C:\Documents and Settings\iViewX\Desktop\EXPERIMENTATIONS\Experiments\results\finaleart\S3121421-finaleart-1.idf
Date:	27.03.2019 15:34:06
Version:	BeGaze 2.5.77
Sample Rate:	50
Subject:	S3121421
Description:	Jean Jouve

Table Header for Fixations:
Event Type	Trial	Number	Start	End	Duration	Location X	Location Y	Dispersion X	Dispersion Y	Plane	Avg. Pupil Size X	Avg. Pupil Size Y

Table Header for Saccades:
Event Type	Trial	Number	Start	End	Duration	Start Loc.X	Start Loc.Y	End Loc.X	End Loc.Y	Amplitude	Peak Speed	Peak Speed At	Average Speed	Peak Accel.	Peak Decel.	Average Accel.

Table Header for Blinks:
Event Type	Trial	Number	Start	End	Duration

Table Header for User Events:
Event Type	Trial	Number	Start	Description

UserEvent	1	1	4981695014	# Message: void.jpg
Saccade L	1	1	4981702814	4981782434	79620	785.51	566.34	603.47	547.64	3.20	131.13	0.75	40.20	3221.24	-2023.29	1227.51
Saccade R	1	1	4981702814	4981782434	79620	785.51	566.34	603.47	547.64	3.20	131.13	0.75	40.20	3221.24	-2023.29	1227.51
Fixation L	1	1	4981782434	4982080919	298485	605.88	522.97	17	49	-1	9.98	9.98
Fixation R	1	1	4981782434	4982080919	298485	605.88	522.97	17	49	-1	11.51	11.51
Blink L	1	1	4982080919	4982379268	298349
Blink R	1	1	4982080919	4982379268	298349
Saccade L	1	2	4982379268	4982399259	19991	1002.88	453.84	1005.30	489.32	6.08	1097.45	1.00	304.31	1314.13	-26536.81	9561.46
Saccade R	1	2	4982379268	4982399259	19991	1002.88	453.84	1005.30	489.32	6.08	1097.45	1.00	304.31	1314.13	-26536.81	9561.46
Fixation L	1	2	4982399259	4983135485	736226	992.67	535.12	22	69	-1	10.21	10.21
Fixation R	1	2	4982399259	4983135485	736226	992.67	535.12	22	69	-1	10.38	10.38
Saccade L	1	3	4983135485	4983155358	19873	991.89	531.80	1020.08	511.88	0.31	34.92	1.00	15.35	791.80	-457.34	578.31
Saccade R	1	3	4983135485	4983155358	19873	991.89	531.80	1020.08	511.88	0.31	34.92	1.00	15.35	791.80	-457.34	578.31
Fixation L	1	3	4983155358	4983692559	537201	1056.87	491.15	48	35	-1	10.45	10.45
Fixation R	1	3	4983155358	4983692559	537201	1056.87	491.15	48	35	-1	10.58	10.58
