[BeGaze]
Converted from:	C:\Documents and Settings\iViewX\Desktop\EXPERIMENTATIONS\Experiments\results\finaleart\S3121421-finaleart-1.idf
Date:	27.03.2019 15:33:54
Version:	BeGaze 2.5.77
Sample Rate:	50
Subject:	S3121421
Description:	Jean Jouve

Table Header for Fixations:
Event Type	Trial	Number	Start	End	Duration	Location X	Location Y	Dispersion X	Dispersion Y	Plane	Avg. Pupil Size X	Avg. Pupil Size Y

Table Header for Saccades:
Event Type	Trial	Number	Start	End	Duration	Start Loc.X	Start Loc.Y	End Loc.X	End Loc.Y	Amplitude	Peak Speed	Peak Speed At	Average Speed	Peak Accel.	Peak Decel.	Average Accel.

Table Header for Blinks:
Event Type	Trial	Number	Start	End	Duration

Table Header for User Events:
Event Type	Trial	Number	Start	Description

UserEvent	1	1	4273835557	# Message: chase-a-study-in-curves-1890.jpg
Fixation L	1	1	4273842709	4274300181	457472	866.31	419.07	22	51	-1	11.28	11.28
Fixation R	1	1	4273842709	4274300181	457472	866.31	419.07	22	51	-1	11.40	11.40
Saccade L	1	1	4274300181	4274339925	39744	873.04	445.23	458.92	554.07	4.20	286.61	1.00	105.66	6383.49	-6989.60	5303.62
Saccade R	1	1	4274300181	4274339925	39744	873.04	445.23	458.92	554.07	4.20	286.61	1.00	105.66	6383.49	-6989.60	5303.62
Fixation L	1	2	4274339925	4274658162	318237	437.96	566.43	24	24	-1	11.43	11.43
Fixation R	1	2	4274339925	4274658162	318237	437.96	566.43	24	24	-1	11.56	11.56
Saccade L	1	2	4274658162	4274698031	39869	437.40	575.36	863.74	577.57	3.51	230.81	0.50	88.04	5765.06	-5724.60	5173.42
Saccade R	1	2	4274658162	4274698031	39869	437.40	575.36	863.74	577.57	3.51	230.81	0.50	88.04	5765.06	-5724.60	5173.42
Fixation L	1	3	4274698031	4274877021	178990	858.36	599.88	10	42	-1	11.56	11.56
Fixation R	1	3	4274698031	4274877021	178990	858.36	599.88	10	42	-1	11.27	11.27
Blink L	1	1	4274877021	4275036132	159111
Blink R	1	1	4274877021	4275036132	159111
Fixation L	1	4	4275036132	4275254875	218743	806.85	531.70	38	54	-1	12.08	12.08
Fixation R	1	4	4275036132	4275254875	218743	806.85	531.70	38	54	-1	12.93	12.93
Saccade L	1	3	4275254875	4275274747	19872	776.98	499.29	608.11	532.50	1.32	174.05	1.00	66.33	4190.93	-3796.38	3026.38
Saccade R	1	3	4275254875	4275274747	19872	776.98	499.29	608.11	532.50	1.32	174.05	1.00	66.33	4190.93	-3796.38	3026.38
Fixation L	1	5	4275274747	4275652599	377852	575.62	540.24	42	31	-1	11.62	11.62
Fixation R	1	5	4275274747	4275652599	377852	575.62	540.24	42	31	-1	11.97	11.97
Saccade L	1	4	4275652599	4275672602	20003	565.44	537.30	341.67	532.43	1.29	226.31	1.00	64.69	5639.64	-5361.08	3734.27
Saccade R	1	4	4275652599	4275672602	20003	565.44	537.30	341.67	532.43	1.29	226.31	1.00	64.69	5639.64	-5361.08	3734.27
Fixation L	1	6	4275672602	4275931072	258470	340.24	568.96	20	69	-1	11.49	11.49
Fixation R	1	6	4275672602	4275931072	258470	340.24	568.96	20	69	-1	12.41	12.41
Saccade L	1	5	4275931072	4275950954	19882	351.91	602.25	356.26	608.17	0.11	7.43	1.00	5.68	41.30	-82.48	46.15
Saccade R	1	5	4275931072	4275950954	19882	351.91	602.25	356.26	608.17	0.11	7.43	1.00	5.68	41.30	-82.48	46.15
Fixation L	1	7	4275950954	4276428307	477353	358.12	617.81	10	17	-1	11.34	11.34
Fixation R	1	7	4275950954	4276428307	477353	358.12	617.81	10	17	-1	12.54	12.54
Saccade L	1	6	4276428307	4276527789	99482	361.80	625.50	1585.26	494.99	15.73	344.31	0.40	158.07	8598.71	-5388.56	4196.76
Saccade R	1	6	4276428307	4276527789	99482	361.80	625.50	1585.26	494.99	15.73	344.31	0.40	158.07	8598.71	-5388.56	4196.76
Fixation L	1	8	4276527789	4276766421	238632	1553.93	524.16	52	46	-1	11.94	11.94
Fixation R	1	8	4276527789	4276766421	238632	1553.93	524.16	52	46	-1	12.19	12.19
Saccade L	1	7	4276766421	4276885774	119353	1532.77	539.21	1692.55	511.64	2.67	164.84	1.00	22.37	3979.19	-3927.43	1045.40
Saccade R	1	7	4276766421	4276885774	119353	1532.77	539.21	1692.55	511.64	2.67	164.84	1.00	22.37	3979.19	-3927.43	1045.40
Fixation L	1	9	4276885774	4277522242	636468	1673.53	508.91	38	32	-1	12.34	12.34
Fixation R	1	9	4276885774	4277522242	636468	1673.53	508.91	38	32	-1	12.06	12.06
Saccade L	1	8	4277522242	4277581855	59613	1674.25	512.88	1362.35	387.37	4.02	187.55	0.67	67.41	4633.46	-4548.00	2996.14
Saccade R	1	8	4277522242	4277581855	59613	1674.25	512.88	1362.35	387.37	4.02	187.55	0.67	67.41	4633.46	-4548.00	2996.14
Fixation L	1	10	4277581855	4277820582	238727	1381.64	371.49	42	40	-1	12.66	12.66
Fixation R	1	10	4277581855	4277820582	238727	1381.64	371.49	42	40	-1	12.76	12.76
