[BeGaze]
Converted from:	C:\Documents and Settings\iViewX\Desktop\EXPERIMENTATIONS\Experiments\results\finaleart\S3121421-finaleart-1.idf
Date:	27.03.2019 15:34:03
Version:	BeGaze 2.5.77
Sample Rate:	50
Subject:	S3121421
Description:	Jean Jouve

Table Header for Fixations:
Event Type	Trial	Number	Start	End	Duration	Location X	Location Y	Dispersion X	Dispersion Y	Plane	Avg. Pupil Size X	Avg. Pupil Size Y

Table Header for Saccades:
Event Type	Trial	Number	Start	End	Duration	Start Loc.X	Start Loc.Y	End Loc.X	End Loc.Y	Amplitude	Peak Speed	Peak Speed At	Average Speed	Peak Accel.	Peak Decel.	Average Accel.

Table Header for Blinks:
Event Type	Trial	Number	Start	End	Duration

Table Header for User Events:
Event Type	Trial	Number	Start	Description

UserEvent	1	1	4873114295	# Message: Matejko-Akt-meski.jpg
Fixation L	1	1	4873125870	4873543482	417612	1078.02	673.23	5	37	-1	11.49	11.49
Fixation R	1	1	4873125870	4873543482	417612	1078.02	673.23	5	37	-1	11.35	11.35
Saccade L	1	1	4873543482	4873603227	59745	1077.46	680.60	785.13	315.97	5.15	253.08	0.67	86.18	6122.11	-5672.24	3919.67
Saccade R	1	1	4873543482	4873603227	59745	1077.46	680.60	785.13	315.97	5.15	253.08	0.67	86.18	6122.11	-5672.24	3919.67
Fixation L	1	2	4873603227	4874160077	556850	782.63	280.00	23	72	-1	10.93	10.93
Fixation R	1	2	4873603227	4874160077	556850	782.63	280.00	23	72	-1	11.41	11.41
Saccade L	1	2	4874160077	4874179930	19853	798.79	244.89	803.20	242.63	0.12	7.35	1.00	6.09	112.37	-58.47	61.99
Saccade R	1	2	4874160077	4874179930	19853	798.79	244.89	803.20	242.63	0.12	7.35	1.00	6.09	112.37	-58.47	61.99
Fixation L	1	3	4874179930	4875731329	1551399	811.73	245.10	30	43	-1	11.49	11.49
Fixation R	1	3	4874179930	4875731329	1551399	811.73	245.10	30	43	-1	11.90	11.90
Saccade L	1	3	4875731329	4875790968	59639	828.46	262.85	1420.56	619.78	7.15	281.32	0.33	119.91	6995.16	-5701.56	5080.30
Saccade R	1	3	4875731329	4875790968	59639	828.46	262.85	1420.56	619.78	7.15	281.32	0.33	119.91	6995.16	-5701.56	5080.30
Fixation L	1	4	4875790968	4877063876	1272908	1434.89	634.44	33	50	-1	12.66	12.66
Fixation R	1	4	4875790968	4877063876	1272908	1434.89	634.44	33	50	-1	12.23	12.23
Saccade L	1	4	4877063876	4877123510	59634	1438.94	628.35	711.52	322.05	10.23	354.10	0.67	171.46	8260.63	0.00	3348.60
Saccade R	1	4	4877063876	4877123510	59634	1438.94	628.35	711.52	322.05	10.23	354.10	0.67	171.46	8260.63	0.00	3348.60
