[BeGaze]
Converted from:	C:\Documents and Settings\iViewX\Desktop\EXPERIMENTATIONS\Experiments\results\finaleart\S3121421-finaleart-1.idf
Date:	27.03.2019 15:34:02
Version:	BeGaze 2.5.77
Sample Rate:	50
Subject:	S3121421
Description:	Jean Jouve

Table Header for Fixations:
Event Type	Trial	Number	Start	End	Duration	Location X	Location Y	Dispersion X	Dispersion Y	Plane	Avg. Pupil Size X	Avg. Pupil Size Y

Table Header for Saccades:
Event Type	Trial	Number	Start	End	Duration	Start Loc.X	Start Loc.Y	End Loc.X	End Loc.Y	Amplitude	Peak Speed	Peak Speed At	Average Speed	Peak Accel.	Peak Decel.	Average Accel.

Table Header for Blinks:
Event Type	Trial	Number	Start	End	Duration

Table Header for User Events:
Event Type	Trial	Number	Start	Description

UserEvent	1	1	4683462928	# Message: les-deux-amies_marevna_0.jpg
Fixation L	1	1	4683468207	4683925679	457472	952.56	413.43	15	17	-1	12.27	12.27
Fixation R	1	1	4683468207	4683925679	457472	952.56	413.43	15	17	-1	13.35	13.35
Saccade L	1	1	4683925679	4683965421	39742	964.90	412.64	1339.74	353.36	3.38	324.22	0.50	85.12	8030.68	-7483.99	4552.49
Saccade R	1	1	4683925679	4683965421	39742	964.90	412.64	1339.74	353.36	3.38	324.22	0.50	85.12	8030.68	-7483.99	4552.49
Fixation L	1	2	4683965421	4684164287	198866	1359.58	337.98	25	22	-1	12.01	12.01
Fixation R	1	2	4683965421	4684164287	198866	1359.58	337.98	25	22	-1	12.80	12.80
Saccade L	1	2	4684164287	4684184155	19868	1361.47	330.65	1445.31	315.48	0.60	86.19	1.00	30.25	2116.45	-2087.52	1644.70
Saccade R	1	2	4684164287	4684184155	19868	1361.47	330.65	1445.31	315.48	0.60	86.19	1.00	30.25	2116.45	-2087.52	1644.70
Fixation L	1	3	4684184155	4684383063	198908	1475.82	327.42	53	22	-1	11.14	11.14
Fixation R	1	3	4684184155	4684383063	198908	1475.82	327.42	53	22	-1	11.81	11.81
Saccade L	1	3	4684383063	4684403031	19968	1498.74	316.35	1507.22	443.92	1.11	129.32	1.00	55.55	3012.55	-2970.29	2427.47
Saccade R	1	3	4684383063	4684403031	19968	1498.74	316.35	1507.22	443.92	1.11	129.32	1.00	55.55	3012.55	-2970.29	2427.47
Fixation L	1	4	4684403031	4684522252	119221	1518.54	509.51	15	82	-1	10.74	10.74
Fixation R	1	4	4684403031	4684522252	119221	1518.54	509.51	15	82	-1	11.41	11.41
Saccade L	1	4	4684522252	4684542129	19877	1518.38	526.08	1521.82	532.34	0.09	7.23	1.00	4.58	103.41	-128.30	100.77
Saccade R	1	4	4684522252	4684542129	19877	1518.38	526.08	1521.82	532.34	0.09	7.23	1.00	4.58	103.41	-128.30	100.77
Fixation L	1	5	4684542129	4684900242	358113	1514.06	553.06	15	31	-1	10.86	10.86
Fixation R	1	5	4684542129	4684900242	358113	1514.06	553.06	15	31	-1	11.05	11.05
Saccade L	1	5	4684900242	4684939979	39737	1517.71	560.68	1429.23	366.27	1.88	133.48	0.50	47.32	3290.76	-3092.16	2466.13
Saccade R	1	5	4684900242	4684939979	39737	1517.71	560.68	1429.23	366.27	1.88	133.48	0.50	47.32	3290.76	-3092.16	2466.13
Fixation L	1	6	4684939979	4685158713	218734	1419.12	348.21	38	25	-1	10.63	10.63
Fixation R	1	6	4684939979	4685158713	218734	1419.12	348.21	38	25	-1	10.86	10.86
Saccade L	1	6	4685158713	4685198473	39760	1403.29	346.62	1183.61	361.49	2.00	173.71	0.50	50.35	4160.18	-4174.00	2821.56
Saccade R	1	6	4685158713	4685198473	39760	1403.29	346.62	1183.61	361.49	2.00	173.71	0.50	50.35	4160.18	-4174.00	2821.56
Fixation L	1	7	4685198473	4685317837	119364	1180.66	361.58	8	18	-1	10.24	10.24
Fixation R	1	7	4685198473	4685317837	119364	1180.66	361.58	8	18	-1	11.06	11.06
Saccade L	1	7	4685317837	4685377579	59742	1178.26	357.03	445.66	185.60	8.42	306.18	0.67	140.89	7414.95	-7001.84	5439.33
Saccade R	1	7	4685317837	4685377579	59742	1178.26	357.03	445.66	185.60	8.42	306.18	0.67	140.89	7414.95	-7001.84	5439.33
Fixation L	1	8	4685377579	4685775307	397728	423.15	179.55	42	54	-1	9.74	9.74
Fixation R	1	8	4685377579	4685775307	397728	423.15	179.55	42	54	-1	11.23	11.23
Saccade L	1	8	4685775307	4685795181	19874	404.73	141.86	393.52	108.68	0.36	35.43	1.00	18.07	452.73	-676.98	463.88
Saccade R	1	8	4685775307	4685795181	19874	404.73	141.86	393.52	108.68	0.36	35.43	1.00	18.07	452.73	-676.98	463.88
Fixation L	1	9	4685795181	4687426084	1630903	400.23	111.28	34	64	-1	10.47	10.47
Fixation R	1	9	4685795181	4687426084	1630903	400.23	111.28	34	64	-1	11.99	11.99
Saccade L	1	9	4687426084	4687465837	39753	420.24	145.26	422.44	144.93	0.12	3.84	0.50	3.11	45.14	0.00	20.41
Saccade R	1	9	4687426084	4687465837	39753	420.24	145.26	422.44	144.93	0.12	3.84	0.50	3.11	45.14	0.00	20.41
