[BeGaze]
Converted from:	C:\Documents and Settings\iViewX\Desktop\EXPERIMENTATIONS\Experiments\results\finaleart\S3121421-finaleart-1.idf
Date:	27.03.2019 15:33:56
Version:	BeGaze 2.5.77
Sample Rate:	50
Subject:	S3121421
Description:	Jean Jouve

Table Header for Fixations:
Event Type	Trial	Number	Start	End	Duration	Location X	Location Y	Dispersion X	Dispersion Y	Plane	Avg. Pupil Size X	Avg. Pupil Size Y

Table Header for Saccades:
Event Type	Trial	Number	Start	End	Duration	Start Loc.X	Start Loc.Y	End Loc.X	End Loc.Y	Amplitude	Peak Speed	Peak Speed At	Average Speed	Peak Accel.	Peak Decel.	Average Accel.

Table Header for Blinks:
Event Type	Trial	Number	Start	End	Duration

Table Header for User Events:
Event Type	Trial	Number	Start	Description

UserEvent	1	1	4339207143	# Message: void.jpg
Saccade L	1	1	4339218389	4339337851	119462	616.87	123.87	1090.25	182.30	7.43	189.84	0.84	62.23	4667.91	-4600.29	2239.69
Saccade R	1	1	4339218389	4339337851	119462	616.87	123.87	1090.25	182.30	7.43	189.84	0.84	62.23	4667.91	-4600.29	2239.69
Fixation L	1	1	4339337851	4339695717	357866	1090.83	193.13	5	42	-1	10.14	10.14
Fixation R	1	1	4339337851	4339695717	357866	1090.83	193.13	5	42	-1	10.45	10.45
Saccade L	1	2	4339695717	4339854840	159123	1087.62	224.53	991.91	506.38	6.04	83.07	0.12	37.95	1964.81	-1217.94	745.69
Saccade R	1	2	4339695717	4339854840	159123	1087.62	224.53	991.91	506.38	6.04	83.07	0.12	37.95	1964.81	-1217.94	745.69
Fixation L	1	2	4339854840	4340153201	298361	987.02	560.02	17	80	-1	10.88	10.88
Fixation R	1	2	4339854840	4340153201	298361	987.02	560.02	17	80	-1	11.25	11.25
Saccade L	1	3	4340153201	4340173074	19873	980.65	587.23	984.36	590.69	0.15	11.49	1.00	7.74	175.68	-96.81	142.25
Saccade R	1	3	4340153201	4340173074	19873	980.65	587.23	984.36	590.69	0.15	11.49	1.00	7.74	175.68	-96.81	142.25
Fixation L	1	3	4340173074	4340471422	298348	978.76	597.18	12	54	-1	11.47	11.47
Fixation R	1	3	4340173074	4340471422	298348	978.76	597.18	12	54	-1	11.83	11.83
Saccade L	1	4	4340471422	4340531045	59623	983.11	593.33	1233.82	522.70	3.31	160.62	0.33	55.56	3921.67	-2965.57	1779.07
Saccade R	1	4	4340471422	4340531045	59623	983.11	593.33	1233.82	522.70	3.31	160.62	0.33	55.56	3921.67	-2965.57	1779.07
Fixation L	1	4	4340531045	4340988526	457481	1240.18	470.77	14	71	-1	11.71	11.71
Fixation R	1	4	4340531045	4340988526	457481	1240.18	470.77	14	71	-1	12.00	12.00
Saccade L	1	5	4340988526	4341028392	39866	1235.13	464.66	1065.16	480.01	1.68	115.60	0.50	42.26	2829.44	-2049.35	1836.31
Saccade R	1	5	4340988526	4341028392	39866	1235.13	464.66	1065.16	480.01	1.68	115.60	0.50	42.26	2829.44	-2049.35	1836.31
Fixation L	1	5	4341028392	4341207386	178994	1032.95	478.66	40	16	-1	11.69	11.69
Fixation R	1	5	4341028392	4341207386	178994	1032.95	478.66	40	16	-1	12.40	12.40
