[BeGaze]
Converted from:	C:\Documents and Settings\iViewX\Desktop\EXPERIMENTATIONS\Experiments\results\finaleart\S3121421-finaleart-1.idf
Date:	27.03.2019 15:33:48
Version:	BeGaze 2.5.77
Sample Rate:	50
Subject:	S3121421
Description:	Jean Jouve

Table Header for Fixations:
Event Type	Trial	Number	Start	End	Duration	Location X	Location Y	Dispersion X	Dispersion Y	Plane	Avg. Pupil Size X	Avg. Pupil Size Y

Table Header for Saccades:
Event Type	Trial	Number	Start	End	Duration	Start Loc.X	Start Loc.Y	End Loc.X	End Loc.Y	Amplitude	Peak Speed	Peak Speed At	Average Speed	Peak Accel.	Peak Decel.	Average Accel.

Table Header for Blinks:
Event Type	Trial	Number	Start	End	Duration

Table Header for User Events:
Event Type	Trial	Number	Start	Description

UserEvent	1	1	3922395659	# Message: Nature_morte_a_la_cafetiere_rouge_Vlaminck.jpg
Fixation L	1	1	3922396804	3922834811	438007	972.34	467.32	10	73	-1	14.10	14.10
Fixation R	1	1	3922396804	3922834811	438007	972.34	467.32	10	73	-1	14.52	14.52
Saccade L	1	1	3922834811	3922854698	19887	966.07	497.82	934.07	497.23	0.26	32.38	1.00	12.88	741.52	-776.71	566.84
Saccade R	1	1	3922834811	3922854698	19887	966.07	497.82	934.07	497.23	0.26	32.38	1.00	12.88	741.52	-776.71	566.84
Fixation L	1	2	3922854698	3923133543	278845	922.89	502.71	17	33	-1	12.92	12.92
Fixation R	1	2	3922854698	3923133543	278845	922.89	502.71	17	33	-1	13.15	13.15
Blink L	1	1	3923133543	3923392388	258845
Blink R	1	1	3923133543	3923392388	258845
Fixation L	1	3	3923392388	3923531768	139380	574.82	503.26	23	12	-1	15.16	15.16
Fixation R	1	3	3923392388	3923531768	139380	574.82	503.26	23	12	-1	12.14	12.14
Saccade L	1	2	3923531768	3923571642	39874	563.48	496.53	513.68	797.03	2.82	215.62	1.00	70.80	5070.79	-4876.46	3472.04
Saccade R	1	2	3923531768	3923571642	39874	563.48	496.53	513.68	797.03	2.82	215.62	1.00	70.80	5070.79	-4876.46	3472.04
Fixation L	1	4	3923571642	3923711011	139369	516.76	824.23	23	49	-1	13.71	13.71
Fixation R	1	4	3923571642	3923711011	139369	516.76	824.23	23	49	-1	11.56	11.56
Saccade L	1	3	3923711011	3923730881	19870	510.74	846.98	515.74	879.21	0.31	33.00	1.00	15.65	672.95	-128.51	319.47
Saccade R	1	3	3923711011	3923730881	19870	510.74	846.98	515.74	879.21	0.31	33.00	1.00	15.65	672.95	-128.51	319.47
Fixation L	1	5	3923730881	3923870250	139369	510.55	858.92	7	46	-1	13.83	13.83
Fixation R	1	5	3923730881	3923870250	139369	510.55	858.92	7	46	-1	11.60	11.60
Saccade L	1	4	3923870250	3923969861	99611	514.11	839.26	525.00	719.42	5.60	122.51	0.20	56.25	2468.84	-2415.15	1689.21
Saccade R	1	4	3923870250	3923969861	99611	514.11	839.26	525.00	719.42	5.60	122.51	0.20	56.25	2468.84	-2415.15	1689.21
Fixation L	1	6	3923969861	3924089361	119500	539.62	748.85	20	42	-1	13.43	13.43
Fixation R	1	6	3923969861	3924089361	119500	539.62	748.85	20	42	-1	11.37	11.37
Saccade L	1	5	3924089361	3924129107	39746	545.81	755.50	430.04	938.63	2.09	162.51	0.50	52.56	3953.67	-3920.43	2930.17
Saccade R	1	5	3924089361	3924129107	39746	545.81	755.50	430.04	938.63	2.09	162.51	0.50	52.56	3953.67	-3920.43	2930.17
Fixation L	1	7	3924129107	3924527331	398224	455.76	957.40	31	52	-1	13.48	13.48
Fixation R	1	7	3924129107	3924527331	398224	455.76	957.40	31	52	-1	11.56	11.56
Saccade L	1	6	3924527331	3924547330	19999	458.53	975.45	304.97	1046.81	1.10	171.24	1.00	54.80	3898.25	-3971.43	2888.75
Saccade R	1	6	3924527331	3924547330	19999	458.53	975.45	304.97	1046.81	1.10	171.24	1.00	54.80	3898.25	-3971.43	2888.75
Fixation L	1	8	3924547330	3924845940	298610	321.58	1083.11	25	54	-1	13.24	13.24
Fixation R	1	8	3924547330	3924845940	298610	321.58	1083.11	25	54	-1	11.56	11.56
Saccade L	1	7	3924845940	3924925556	79616	322.56	1092.06	1080.90	851.39	9.75	322.93	0.75	122.50	7611.52	-7226.17	4924.01
Saccade R	1	7	3924845940	3924925556	79616	322.56	1092.06	1080.90	851.39	9.75	322.93	0.75	122.50	7611.52	-7226.17	4924.01
Fixation L	1	9	3924925556	3925065134	139578	1084.32	833.76	42	54	-1	14.69	14.69
Fixation R	1	9	3924925556	3925065134	139578	1084.32	833.76	42	54	-1	11.66	11.66
Saccade L	1	8	3925065134	3925084920	19786	1070.87	841.79	1066.92	846.41	0.38	45.02	1.00	19.35	597.64	-971.80	551.65
Saccade R	1	8	3925065134	3925084920	19786	1070.87	841.79	1066.92	846.41	0.38	45.02	1.00	19.35	597.64	-971.80	551.65
Fixation L	1	10	3925084920	3925184532	99612	1080.51	833.44	22	36	-1	14.94	14.94
Fixation R	1	10	3925084920	3925184532	99612	1080.51	833.44	22	36	-1	11.83	11.83
Saccade L	1	9	3925184532	3925244172	59640	1081.75	845.09	1517.92	669.19	5.63	223.60	0.67	94.46	4704.79	-4819.79	3529.80
Saccade R	1	9	3925184532	3925244172	59640	1081.75	845.09	1517.92	669.19	5.63	223.60	0.67	94.46	4704.79	-4819.79	3529.80
Fixation L	1	11	3925244172	3925562792	318620	1518.06	652.57	30	35	-1	14.96	14.96
Fixation R	1	11	3925244172	3925562792	318620	1518.06	652.57	30	35	-1	11.45	11.45
Saccade L	1	10	3925562792	3925602660	39868	1505.20	650.55	1094.24	756.99	3.67	244.75	0.50	92.17	5910.07	-5626.17	5091.74
Saccade R	1	10	3925562792	3925602660	39868	1505.20	650.55	1094.24	756.99	3.67	244.75	0.50	92.17	5910.07	-5626.17	5091.74
Fixation L	1	12	3925602660	3926000862	398202	1103.08	793.27	13	60	-1	14.74	14.74
Fixation R	1	12	3925602660	3926000862	398202	1103.08	793.27	13	60	-1	11.20	11.20
Saccade L	1	11	3926000862	3926100493	99631	1104.53	777.29	1240.11	520.29	6.00	180.53	0.20	60.26	4329.84	-4444.05	1945.37
Saccade R	1	11	3926000862	3926100493	99631	1104.53	777.29	1240.11	520.29	6.00	180.53	0.20	60.26	4329.84	-4444.05	1945.37
Fixation L	1	13	3926100493	3926239846	139353	1248.12	546.07	15	80	-1	14.24	14.24
Fixation R	1	13	3926100493	3926239846	139353	1248.12	546.07	15	80	-1	11.05	11.05
Saccade L	1	12	3926239846	3926279594	39748	1251.71	550.96	1340.11	373.70	2.29	195.52	1.00	57.53	4647.93	-4492.25	2603.33
Saccade R	1	12	3926239846	3926279594	39748	1251.71	550.96	1340.11	373.70	2.29	195.52	1.00	57.53	4647.93	-4492.25	2603.33
Fixation L	1	14	3926279594	3926399133	119539	1392.85	360.26	64	26	-1	13.82	13.82
Fixation R	1	14	3926279594	3926399133	119539	1392.85	360.26	64	26	-1	10.94	10.94
