[BeGaze]
Converted from:	C:\Documents and Settings\iViewX\Desktop\EXPERIMENTATIONS\Experiments\results\finaleart\S3121421-finaleart-1.idf
Date:	27.03.2019 15:34:12
Version:	BeGaze 2.5.77
Sample Rate:	50
Subject:	S3121421
Description:	Jean Jouve

Table Header for Fixations:
Event Type	Trial	Number	Start	End	Duration	Location X	Location Y	Dispersion X	Dispersion Y	Plane	Avg. Pupil Size X	Avg. Pupil Size Y

Table Header for Saccades:
Event Type	Trial	Number	Start	End	Duration	Start Loc.X	Start Loc.Y	End Loc.X	End Loc.Y	Amplitude	Peak Speed	Peak Speed At	Average Speed	Peak Accel.	Peak Decel.	Average Accel.

Table Header for Blinks:
Event Type	Trial	Number	Start	End	Duration

Table Header for User Events:
Event Type	Trial	Number	Start	Description

UserEvent	1	1	5500692397	# Message: void.jpg
Saccade L	1	1	5500707472	5500826961	119489	1067.17	644.73	778.54	642.36	5.29	168.66	1.00	44.24	4090.38	-3429.35	1568.30
Saccade R	1	1	5500707472	5500826961	119489	1067.17	644.73	778.54	642.36	5.29	168.66	1.00	44.24	4090.38	-3429.35	1568.30
Fixation L	1	1	5500826961	5500986072	159111	732.04	632.82	55	43	-1	9.10	9.10
Fixation R	1	1	5500826961	5500986072	159111	732.04	632.82	55	43	-1	10.06	10.06
Saccade L	1	2	5500986072	5501165188	179116	728.85	642.73	737.55	406.54	5.39	121.09	0.89	30.07	20876.96	-2326.99	2650.68
Saccade R	1	2	5500986072	5501165188	179116	728.85	642.73	737.55	406.54	5.39	121.09	0.89	30.07	20876.96	-2326.99	2650.68
Blink L	1	1	5501165188	5501483546	318358
Blink R	1	1	5501165188	5501483546	318358
Fixation L	1	2	5501483546	5502000634	517088	973.74	492.09	39	55	-1	8.82	8.82
Fixation R	1	2	5501483546	5502000634	517088	973.74	492.09	39	55	-1	9.36	9.36
Saccade L	1	3	5502000634	5502020518	19884	983.77	499.78	979.03	529.32	0.25	30.26	1.00	12.62	695.82	-266.81	462.29
Saccade R	1	3	5502000634	5502020518	19884	983.77	499.78	979.03	529.32	0.25	30.26	1.00	12.62	695.82	-266.81	462.29
Fixation L	1	3	5502020518	5502597342	576824	967.14	535.93	17	78	-1	8.63	8.63
Fixation R	1	3	5502020518	5502597342	576824	967.14	535.93	17	78	-1	9.14	9.14
Saccade L	1	4	5502597342	5502676849	79507	973.39	485.43	963.30	398.88	2.24	96.34	0.50	28.24	2058.49	-2295.72	976.09
Saccade R	1	4	5502597342	5502676849	79507	973.39	485.43	963.30	398.88	2.24	96.34	0.50	28.24	2058.49	-2295.72	976.09
