[BeGaze]
Converted from:	C:\Documents and Settings\iViewX\Desktop\EXPERIMENTATIONS\Experiments\results\finaleart\S3121421-finaleart-1.idf
Date:	27.03.2019 15:34:16
Version:	BeGaze 2.5.77
Sample Rate:	50
Subject:	S3121421
Description:	Jean Jouve

Table Header for Fixations:
Event Type	Trial	Number	Start	End	Duration	Location X	Location Y	Dispersion X	Dispersion Y	Plane	Avg. Pupil Size X	Avg. Pupil Size Y

Table Header for Saccades:
Event Type	Trial	Number	Start	End	Duration	Start Loc.X	Start Loc.Y	End Loc.X	End Loc.Y	Amplitude	Peak Speed	Peak Speed At	Average Speed	Peak Accel.	Peak Decel.	Average Accel.

Table Header for Blinks:
Event Type	Trial	Number	Start	End	Duration

Table Header for User Events:
Event Type	Trial	Number	Start	Description

UserEvent	1	1	5632228791	# Message: reclining-nude_renoir_1883.jpg
Fixation L	1	1	5632247150	5632386411	139261	523.08	1230.62	18	22	-1	11.29	11.29
Fixation R	1	1	5632247150	5632386411	139261	523.08	1230.62	18	22	-1	13.42	13.42
Saccade L	1	1	5632386411	5632465879	79468	528.22	1215.80	925.06	521.41	9.66	332.55	0.25	121.56	7970.02	-5487.93	5051.28
Saccade R	1	1	5632386411	5632465879	79468	528.22	1215.80	925.06	521.41	9.66	332.55	0.25	121.56	7970.02	-5487.93	5051.28
Fixation L	1	2	5632465879	5632605129	139250	940.14	521.41	26	15	-1	12.43	12.43
Fixation R	1	2	5632465879	5632605129	139250	940.14	521.41	26	15	-1	14.01	14.01
Saccade L	1	2	5632605129	5632664867	59738	951.43	510.90	747.41	352.72	3.35	127.24	0.67	56.13	2794.96	-2909.31	2003.16
Saccade R	1	2	5632605129	5632664867	59738	951.43	510.90	747.41	352.72	3.35	127.24	0.67	56.13	2794.96	-2909.31	2003.16
Fixation L	1	3	5632664867	5633520072	855205	752.90	321.87	30	42	-1	11.23	11.23
Fixation R	1	3	5632664867	5633520072	855205	752.90	321.87	30	42	-1	12.68	12.68
Saccade L	1	3	5633520072	5633539948	19876	753.44	315.31	706.90	345.21	0.38	55.96	1.00	19.34	1379.19	-1024.62	826.50
Saccade R	1	3	5633520072	5633539948	19876	753.44	315.31	706.90	345.21	0.38	55.96	1.00	19.34	1379.19	-1024.62	826.50
Fixation L	1	4	5633539948	5634037168	497220	701.76	362.00	18	26	-1	10.96	10.96
Fixation R	1	4	5633539948	5634037168	497220	701.76	362.00	18	26	-1	12.26	12.26
Saccade L	1	4	5634037168	5634057032	19864	702.24	356.87	692.31	258.55	0.59	99.96	1.00	29.95	2456.13	-2301.98	1700.96
Saccade R	1	4	5634037168	5634057032	19864	702.24	356.87	692.31	258.55	0.59	99.96	1.00	29.95	2456.13	-2301.98	1700.96
Fixation L	1	5	5634057032	5634514500	457468	663.09	237.45	36	28	-1	11.04	11.04
Fixation R	1	5	5634057032	5634514500	457468	663.09	237.45	36	28	-1	12.52	12.52
Saccade L	1	5	5634514500	5634594124	79624	658.14	245.65	1360.14	660.25	9.69	272.47	0.50	121.74	6794.95	-6023.76	4300.33
Saccade R	1	5	5634514500	5634594124	79624	658.14	245.65	1360.14	660.25	9.69	272.47	0.50	121.74	6794.95	-6023.76	4300.33
Fixation L	1	6	5634594124	5636225020	1630896	1354.15	670.14	16	28	-1	11.53	11.53
Fixation R	1	6	5634594124	5636225020	1630896	1354.15	670.14	16	28	-1	12.07	12.07
