[BeGaze]
Converted from:	C:\Documents and Settings\iViewX\Desktop\EXPERIMENTATIONS\Experiments\results\finaleart\S3121421-finaleart-1.idf
Date:	27.03.2019 15:34:02
Version:	BeGaze 2.5.77
Sample Rate:	50
Subject:	S3121421
Description:	Jean Jouve

Table Header for Fixations:
Event Type	Trial	Number	Start	End	Duration	Location X	Location Y	Dispersion X	Dispersion Y	Plane	Avg. Pupil Size X	Avg. Pupil Size Y

Table Header for Saccades:
Event Type	Trial	Number	Start	End	Duration	Start Loc.X	Start Loc.Y	End Loc.X	End Loc.Y	Amplitude	Peak Speed	Peak Speed At	Average Speed	Peak Accel.	Peak Decel.	Average Accel.

Table Header for Blinks:
Event Type	Trial	Number	Start	End	Duration

Table Header for User Events:
Event Type	Trial	Number	Start	Description

UserEvent	1	1	4860794318	# Message: Bank_Of_A_Lake_Pechstein_1910.jpg
Fixation L	1	1	4860813990	4861231855	417865	779.88	223.18	10	16	-1	10.32	10.32
Fixation R	1	1	4860813990	4861231855	417865	779.88	223.18	10	16	-1	9.59	9.59
Saccade L	1	1	4861231855	4861271580	39725	776.40	218.10	784.87	444.07	2.09	126.70	1.00	52.69	3095.58	-2865.80	2567.39
Saccade R	1	1	4861231855	4861271580	39725	776.40	218.10	784.87	444.07	2.09	126.70	1.00	52.69	3095.58	-2865.80	2567.39
Fixation L	1	2	4861271580	4861510328	238748	834.08	469.10	64	33	-1	10.37	10.37
Fixation R	1	2	4861271580	4861510328	238748	834.08	469.10	64	33	-1	9.27	9.27
Saccade L	1	2	4861510328	4861550189	39861	849.86	477.53	1196.30	574.95	3.67	206.11	0.50	92.05	5090.50	-3132.71	3733.02
Saccade R	1	2	4861510328	4861550189	39861	849.86	477.53	1196.30	574.95	3.67	206.11	0.50	92.05	5090.50	-3132.71	3733.02
Fixation L	1	3	4861550189	4861788923	238734	1204.13	606.18	9	82	-1	10.13	10.13
Fixation R	1	3	4861550189	4861788923	238734	1204.13	606.18	9	82	-1	7.70	7.70
Saccade L	1	3	4861788923	4861948160	159237	1202.04	615.70	1654.93	550.63	14.16	280.98	0.25	88.93	6184.72	-5877.07	3061.64
Saccade R	1	3	4861788923	4861948160	159237	1202.04	615.70	1654.93	550.63	14.16	280.98	0.25	88.93	6184.72	-5877.07	3061.64
Fixation L	1	4	4861948160	4862246405	298245	1656.61	529.55	15	63	-1	9.98	9.98
Fixation R	1	4	4861948160	4862246405	298245	1656.61	529.55	15	63	-1	8.02	8.02
Saccade L	1	4	4862246405	4862326011	79606	1659.05	547.18	692.69	201.15	12.51	357.56	0.50	157.15	8742.86	-5911.11	4993.65
Saccade R	1	4	4862246405	4862326011	79606	1659.05	547.18	692.69	201.15	12.51	357.56	0.50	157.15	8742.86	-5911.11	4993.65
Fixation L	1	5	4862326011	4863280717	954706	668.26	201.25	54	44	-1	8.82	8.82
Fixation R	1	5	4862326011	4863280717	954706	668.26	201.25	54	44	-1	7.48	7.48
Saccade L	1	5	4863280717	4863320464	39747	638.60	213.41	429.59	209.22	2.37	221.22	0.50	59.74	5387.13	-4859.46	2734.92
Saccade R	1	5	4863280717	4863320464	39747	638.60	213.41	429.59	209.22	2.37	221.22	0.50	59.74	5387.13	-4859.46	2734.92
Fixation L	1	6	4863320464	4863419954	99490	441.95	243.32	23	71	-1	8.94	8.94
Fixation R	1	6	4863320464	4863419954	99490	441.95	243.32	23	71	-1	8.17	8.17
Saccade L	1	6	4863419954	4863439826	19872	452.29	242.07	458.64	246.92	0.28	34.03	1.00	14.33	-3.09	-648.34	250.09
Saccade R	1	6	4863419954	4863439826	19872	452.29	242.07	458.64	246.92	0.28	34.03	1.00	14.33	-3.09	-648.34	250.09
Fixation L	1	7	4863439826	4863698312	258486	454.66	240.64	8	19	-1	9.27	9.27
Fixation R	1	7	4863439826	4863698312	258486	454.66	240.64	8	19	-1	9.06	9.06
Saccade L	1	7	4863698312	4863758063	59751	455.10	233.79	1040.54	381.27	6.28	268.29	0.33	105.13	6666.85	-5527.50	4829.51
Saccade R	1	7	4863698312	4863758063	59751	455.10	233.79	1040.54	381.27	6.28	268.29	0.33	105.13	6666.85	-5527.50	4829.51
Fixation L	1	8	4863758063	4863996667	238604	1015.90	385.23	38	18	-1	9.84	9.84
Fixation R	1	8	4863758063	4863996667	238604	1015.90	385.23	38	18	-1	9.21	9.21
Saccade L	1	8	4863996667	4864036538	39871	1005.32	395.37	1291.21	490.36	2.67	176.17	0.50	67.08	4379.87	-4208.99	3859.53
Saccade R	1	8	4863996667	4864036538	39871	1005.32	395.37	1291.21	490.36	2.67	176.17	0.50	67.08	4379.87	-4208.99	3859.53
Fixation L	1	9	4864036538	4864275145	238607	1299.30	512.59	12	41	-1	10.06	10.06
Fixation R	1	9	4864036538	4864275145	238607	1299.30	512.59	12	41	-1	8.59	8.59
Saccade L	1	9	4864275145	4864295028	19883	1298.49	523.42	1167.07	550.65	0.80	135.75	1.00	40.10	3208.65	-3171.30	2186.44
Saccade R	1	9	4864275145	4864295028	19883	1298.49	523.42	1167.07	550.65	0.80	135.75	1.00	40.10	3208.65	-3171.30	2186.44
Fixation L	1	10	4864295028	4864633128	338100	1150.76	575.65	50	43	-1	9.87	9.87
Fixation R	1	10	4864295028	4864633128	338100	1150.76	575.65	50	43	-1	8.32	8.32
Saccade L	1	10	4864633128	4864692876	59748	1194.67	577.74	1602.42	541.98	7.28	324.33	0.33	121.80	8032.42	-4895.95	4802.81
Saccade R	1	10	4864633128	4864692876	59748	1194.67	577.74	1602.42	541.98	7.28	324.33	0.33	121.80	8032.42	-4895.95	4802.81
Fixation L	1	11	4864692876	4864792244	99368	1614.90	534.70	24	22	-1	10.06	10.06
Fixation R	1	11	4864692876	4864792244	99368	1614.90	534.70	24	22	-1	8.18	8.18
