[BeGaze]
Converted from:	C:\Documents and Settings\iViewX\Desktop\EXPERIMENTATIONS\Experiments\results\finaleart\S3121421-finaleart-1.idf
Date:	27.03.2019 15:34:09
Version:	BeGaze 2.5.77
Sample Rate:	50
Subject:	S3121421
Description:	Jean Jouve

Table Header for Fixations:
Event Type	Trial	Number	Start	End	Duration	Location X	Location Y	Dispersion X	Dispersion Y	Plane	Avg. Pupil Size X	Avg. Pupil Size Y

Table Header for Saccades:
Event Type	Trial	Number	Start	End	Duration	Start Loc.X	Start Loc.Y	End Loc.X	End Loc.Y	Amplitude	Peak Speed	Peak Speed At	Average Speed	Peak Accel.	Peak Decel.	Average Accel.

Table Header for Blinks:
Event Type	Trial	Number	Start	End	Duration

Table Header for User Events:
Event Type	Trial	Number	Start	Description

UserEvent	1	1	5304625261	# Message: void.jpg
Fixation L	1	1	5304626322	5304865174	238852	615.85	760.90	67	29	-1	10.51	10.51
Fixation R	1	1	5304626322	5304865174	238852	615.85	760.90	67	29	-1	11.54	11.54
Saccade L	1	1	5304865174	5304885055	19881	589.67	777.46	584.98	782.27	0.10	6.80	1.00	4.89	40.12	-122.82	77.31
Saccade R	1	1	5304865174	5304885055	19881	589.67	777.46	584.98	782.27	0.10	6.80	1.00	4.89	40.12	-122.82	77.31
Fixation L	1	2	5304885055	5305183526	298471	588.56	789.23	44	21	-1	10.60	10.60
Fixation R	1	2	5304885055	5305183526	298471	588.56	789.23	44	21	-1	11.47	11.47
Saccade L	1	2	5305183526	5305283050	99524	626.72	795.82	819.86	811.30	4.38	81.05	0.20	43.97	1724.28	-1415.16	781.47
Saccade R	1	2	5305183526	5305283050	99524	626.72	795.82	819.86	811.30	4.38	81.05	0.20	43.97	1724.28	-1415.16	781.47
Fixation L	1	3	5305283050	5305521759	238709	833.77	854.45	26	70	-1	10.54	10.54
Fixation R	1	3	5305283050	5305521759	238709	833.77	854.45	26	70	-1	12.08	12.08
Saccade L	1	3	5305521759	5305541633	19874	846.67	852.40	850.85	835.37	0.23	17.73	1.00	11.65	215.01	-332.01	195.65
Saccade R	1	3	5305521759	5305541633	19874	846.67	852.40	850.85	835.37	0.23	17.73	1.00	11.65	215.01	-332.01	195.65
Fixation L	1	4	5305541633	5306536572	994939	847.97	829.24	27	53	-1	10.56	10.56
Fixation R	1	4	5305541633	5306536572	994939	847.97	829.24	27	53	-1	12.22	12.22
Saccade L	1	4	5306536572	5306636076	99504	859.27	816.66	1016.91	383.67	7.11	191.56	0.20	71.46	4619.64	-3464.18	2477.54
Saccade R	1	4	5306536572	5306636076	99504	859.27	816.66	1016.91	383.67	7.11	191.56	0.20	71.46	4619.64	-3464.18	2477.54
