[BeGaze]
Converted from:	C:\Documents and Settings\iViewX\Desktop\EXPERIMENTATIONS\Experiments\results\finaleart\S3121421-finaleart-1.idf
Date:	27.03.2019 15:34:08
Version:	BeGaze 2.5.77
Sample Rate:	50
Subject:	S3121421
Description:	Jean Jouve

Table Header for Fixations:
Event Type	Trial	Number	Start	End	Duration	Location X	Location Y	Dispersion X	Dispersion Y	Plane	Avg. Pupil Size X	Avg. Pupil Size Y

Table Header for Saccades:
Event Type	Trial	Number	Start	End	Duration	Start Loc.X	Start Loc.Y	End Loc.X	End Loc.Y	Amplitude	Peak Speed	Peak Speed At	Average Speed	Peak Accel.	Peak Decel.	Average Accel.

Table Header for Blinks:
Event Type	Trial	Number	Start	End	Duration

Table Header for User Events:
Event Type	Trial	Number	Start	Description

UserEvent	1	1	5251369597	# Message: nasturtiums-dahlias-in-a-basket_gauguin_1884.jpg
Fixation L	1	1	5251385656	5251882885	497229	963.05	412.81	11	23	-1	11.11	11.11
Fixation R	1	1	5251385656	5251882885	497229	963.05	412.81	11	23	-1	10.78	10.78
Saccade L	1	1	5251882885	5251922647	39762	962.59	425.14	903.66	553.07	1.76	100.44	1.00	44.22	2506.78	-1816.63	2039.25
Saccade R	1	1	5251882885	5251922647	39762	962.59	425.14	903.66	553.07	1.76	100.44	1.00	44.22	2506.78	-1816.63	2039.25
Fixation L	1	2	5251922647	5252161347	238700	884.01	535.87	24	39	-1	11.88	11.88
Fixation R	1	2	5251922647	5252161347	238700	884.01	535.87	24	39	-1	11.27	11.27
Saccade L	1	2	5252161347	5252260846	99499	878.73	520.66	375.04	144.45	10.19	276.06	0.40	102.37	6854.35	-6348.90	3665.66
Saccade R	1	2	5252161347	5252260846	99499	878.73	520.66	375.04	144.45	10.19	276.06	0.40	102.37	6854.35	-6348.90	3665.66
Fixation L	1	3	5252260846	5252459716	198870	393.56	159.51	33	38	-1	11.11	11.11
Fixation R	1	3	5252260846	5252459716	198870	393.56	159.51	33	38	-1	11.35	11.35
Saccade L	1	3	5252459716	5252499463	39747	408.82	180.23	750.93	520.04	4.27	291.97	0.50	107.48	7158.90	-6719.73	5893.21
Saccade R	1	3	5252459716	5252499463	39747	408.82	180.23	750.93	520.04	4.27	291.97	0.50	107.48	7158.90	-6719.73	5893.21
Fixation L	1	4	5252499463	5253354649	855186	757.79	489.45	25	48	-1	11.58	11.58
Fixation R	1	4	5252499463	5253354649	855186	757.79	489.45	25	48	-1	11.62	11.62
Saccade L	1	4	5253354649	5253394533	39884	770.33	479.96	1065.77	743.52	3.74	271.00	0.50	93.74	6635.77	-5440.25	4355.79
Saccade R	1	4	5253354649	5253394533	39884	770.33	479.96	1065.77	743.52	3.74	271.00	0.50	93.74	6635.77	-5440.25	4355.79
Fixation L	1	5	5253394533	5253613270	218737	1041.32	751.01	52	43	-1	12.26	12.26
Fixation R	1	5	5253394533	5253613270	218737	1041.32	751.01	52	43	-1	11.51	11.51
Saccade L	1	5	5253613270	5253633139	19869	1034.31	775.09	1034.77	778.78	0.15	14.85	0.00	7.38	3.75	-208.64	76.30
Saccade R	1	5	5253613270	5253633139	19869	1034.31	775.09	1034.77	778.78	0.15	14.85	0.00	7.38	3.75	-208.64	76.30
Fixation L	1	6	5253633139	5254090616	457477	1039.16	782.13	9	15	-1	12.50	12.50
Fixation R	1	6	5253633139	5254090616	457477	1039.16	782.13	9	15	-1	11.37	11.37
Saccade L	1	6	5254090616	5254150237	59621	1038.09	781.34	1294.04	1036.38	6.03	315.12	0.67	101.08	7825.98	-7717.83	4993.73
Saccade R	1	6	5254090616	5254150237	59621	1038.09	781.34	1294.04	1036.38	6.03	315.12	0.67	101.08	7825.98	-7717.83	4993.73
Fixation L	1	7	5254150237	5254349103	198866	1313.97	1029.57	37	22	-1	12.24	12.24
Fixation R	1	7	5254150237	5254349103	198866	1313.97	1029.57	37	22	-1	10.32	10.32
Saccade L	1	7	5254349103	5254488338	139235	1321.55	1028.04	1656.62	636.01	9.62	275.11	0.71	69.08	6129.14	-5257.17	2608.97
Saccade R	1	7	5254349103	5254488338	139235	1321.55	1028.04	1656.62	636.01	9.62	275.11	0.71	69.08	6129.14	-5257.17	2608.97
Fixation L	1	8	5254488338	5255085050	596712	1653.70	616.58	42	53	-1	12.17	12.17
Fixation R	1	8	5254488338	5255085050	596712	1653.70	616.58	42	53	-1	11.08	11.08
Saccade L	1	8	5255085050	5255244166	159116	1629.77	644.79	1081.89	581.62	9.41	234.07	0.75	59.17	5315.07	-3723.85	1817.83
Saccade R	1	8	5255085050	5255244166	159116	1629.77	644.79	1081.89	581.62	9.41	234.07	0.75	59.17	5315.07	-3723.85	1817.83
Fixation L	1	9	5255244166	5255363531	119365	1084.70	548.35	20	54	-1	12.51	12.51
Fixation R	1	9	5255244166	5255363531	119365	1084.70	548.35	20	54	-1	11.52	11.52
