[BeGaze]
Converted from:	C:\Documents and Settings\iViewX\Desktop\EXPERIMENTATIONS\Experiments\results\finaleart\S3121421-finaleart-1.idf
Date:	27.03.2019 15:34:06
Version:	BeGaze 2.5.77
Sample Rate:	50
Subject:	S3121421
Description:	Jean Jouve

Table Header for Fixations:
Event Type	Trial	Number	Start	End	Duration	Location X	Location Y	Dispersion X	Dispersion Y	Plane	Avg. Pupil Size X	Avg. Pupil Size Y

Table Header for Saccades:
Event Type	Trial	Number	Start	End	Duration	Start Loc.X	Start Loc.Y	End Loc.X	End Loc.Y	Amplitude	Peak Speed	Peak Speed At	Average Speed	Peak Accel.	Peak Decel.	Average Accel.

Table Header for Blinks:
Event Type	Trial	Number	Start	End	Duration

Table Header for User Events:
Event Type	Trial	Number	Start	Description

UserEvent	1	1	4983912204	# Message: still-life-with-bottle-of-wind_cross_1904.jpg
Fixation L	1	1	4983931309	4984309425	378116	1045.11	489.21	55	43	-1	10.56	10.56
Fixation R	1	1	4983931309	4984309425	378116	1045.11	489.21	55	43	-1	10.82	10.82
Saccade L	1	1	4984309425	4984329285	19860	1092.60	515.66	1151.87	670.94	1.38	168.09	1.00	69.44	4125.06	-3757.33	2894.50
Saccade R	1	1	4984309425	4984329285	19860	1092.60	515.66	1151.87	670.94	1.38	168.09	1.00	69.44	4125.06	-3757.33	2894.50
Fixation L	1	2	4984329285	4984548141	218856	1154.66	639.83	22	54	-1	10.42	10.42
Fixation R	1	2	4984329285	4984548141	218856	1154.66	639.83	22	54	-1	10.13	10.13
Saccade L	1	2	4984548141	4984607890	59749	1155.41	651.50	916.17	779.25	4.41	246.08	0.33	73.86	5902.36	-4435.52	2838.42
Saccade R	1	2	4984548141	4984607890	59749	1155.41	651.50	916.17	779.25	4.41	246.08	0.33	73.86	5902.36	-4435.52	2838.42
Fixation L	1	3	4984607890	4984906368	298478	912.87	769.76	11	85	-1	9.44	9.44
Fixation R	1	3	4984607890	4984906368	298478	912.87	769.76	11	85	-1	8.40	8.40
Saccade L	1	3	4984906368	4984946119	39751	909.83	764.54	905.62	557.84	1.86	110.89	0.50	46.78	2659.93	-2592.53	2446.63
Saccade R	1	3	4984906368	4984946119	39751	909.83	764.54	905.62	557.84	1.86	110.89	0.50	46.78	2659.93	-2592.53	2446.63
Fixation L	1	4	4984946119	4985403832	457713	905.06	583.41	9	42	-1	9.12	9.12
Fixation R	1	4	4984946119	4985403832	457713	905.06	583.41	9	42	-1	9.23	9.23
Saccade L	1	4	4985403832	4985463457	59625	911.11	580.33	1466.72	591.81	5.69	263.09	0.67	95.49	6524.02	-6415.99	4629.41
Saccade R	1	4	4985403832	4985463457	59625	911.11	580.33	1466.72	591.81	5.69	263.09	0.67	95.49	6524.02	-6415.99	4629.41
Fixation L	1	5	4985463457	4985761943	298486	1463.51	571.19	16	46	-1	9.33	9.33
Fixation R	1	5	4985463457	4985761943	298486	1463.51	571.19	16	46	-1	9.09	9.09
Saccade L	1	5	4985761943	4985801693	39750	1454.95	546.39	1237.13	330.45	2.99	207.21	0.50	75.17	4803.74	-5041.38	3538.91
Saccade R	1	5	4985761943	4985801693	39750	1454.95	546.39	1237.13	330.45	2.99	207.21	0.50	75.17	4803.74	-5041.38	3538.91
Fixation L	1	6	4985801693	4986299152	497459	1234.62	332.64	35	17	-1	9.54	9.54
Fixation R	1	6	4985801693	4986299152	497459	1234.62	332.64	35	17	-1	9.49	9.49
Saccade L	1	6	4986299152	4986319037	19885	1263.48	321.73	1422.67	225.87	1.23	187.92	1.00	61.95	4601.60	-4555.56	3076.69
Saccade R	1	6	4986299152	4986319037	19885	1263.48	321.73	1422.67	225.87	1.23	187.92	1.00	61.95	4601.60	-4555.56	3076.69
Fixation L	1	7	4986319037	4986697144	378107	1424.59	217.81	33	29	-1	9.68	9.68
Fixation R	1	7	4986319037	4986697144	378107	1424.59	217.81	33	29	-1	9.50	9.50
Saccade L	1	7	4986697144	4986816506	119362	1427.66	232.49	489.33	666.15	14.67	303.47	0.33	122.87	7405.29	-5127.36	3330.91
Saccade R	1	7	4986697144	4986816506	119362	1427.66	232.49	489.33	666.15	14.67	303.47	0.33	122.87	7405.29	-5127.36	3330.91
Fixation L	1	8	4986816506	4987095106	278600	486.10	715.32	13	84	-1	9.86	9.86
Fixation R	1	8	4986816506	4987095106	278600	486.10	715.32	13	84	-1	10.08	10.08
Saccade L	1	8	4987095106	4987134858	39752	493.12	729.55	701.30	843.28	2.18	167.59	0.50	54.81	4119.40	-3780.79	2652.34
Saccade R	1	8	4987095106	4987134858	39752	493.12	729.55	701.30	843.28	2.18	167.59	0.50	54.81	4119.40	-3780.79	2652.34
Fixation L	1	9	4987134858	4987353717	218859	705.04	852.76	7	88	-1	9.99	9.99
Fixation R	1	9	4987134858	4987353717	218859	705.04	852.76	7	88	-1	9.95	9.95
Saccade L	1	9	4987353717	4987373598	19881	701.25	856.25	695.98	859.48	0.31	33.47	1.00	15.39	348.11	-680.37	392.06
Saccade R	1	9	4987353717	4987373598	19881	701.25	856.25	695.98	859.48	0.31	33.47	1.00	15.39	348.11	-680.37	392.06
Fixation L	1	10	4987373598	4987532825	159227	698.26	882.23	5	70	-1	10.00	10.00
Fixation R	1	10	4987373598	4987532825	159227	698.26	882.23	5	70	-1	10.04	10.04
Saccade L	1	10	4987532825	4987572579	39754	701.88	916.88	1104.33	885.27	3.81	249.41	0.50	95.90	5305.25	-5722.14	4588.12
Saccade R	1	10	4987532825	4987572579	39754	701.88	916.88	1104.33	885.27	3.81	249.41	0.50	95.90	5305.25	-5722.14	4588.12
Fixation L	1	11	4987572579	4987831317	258738	1086.73	904.84	26	48	-1	10.13	10.13
Fixation R	1	11	4987572579	4987831317	258738	1086.73	904.84	26	48	-1	9.28	9.28
Saccade L	1	11	4987831317	4987910942	79625	1081.68	903.74	1054.88	882.76	3.77	85.41	1.00	47.35	1207.87	-195.39	643.15
Saccade R	1	11	4987831317	4987910942	79625	1081.68	903.74	1054.88	882.76	3.77	85.41	1.00	47.35	1207.87	-195.39	643.15
