[BeGaze]
Converted from:	C:\Documents and Settings\iViewX\Desktop\EXPERIMENTATIONS\Experiments\results\finaleart\S3121421-finaleart-1.idf
Date:	27.03.2019 15:34:03
Version:	BeGaze 2.5.77
Sample Rate:	50
Subject:	S3121421
Description:	Jean Jouve

Table Header for Fixations:
Event Type	Trial	Number	Start	End	Duration	Location X	Location Y	Dispersion X	Dispersion Y	Plane	Avg. Pupil Size X	Avg. Pupil Size Y

Table Header for Saccades:
Event Type	Trial	Number	Start	End	Duration	Start Loc.X	Start Loc.Y	End Loc.X	End Loc.Y	Amplitude	Peak Speed	Peak Speed At	Average Speed	Peak Accel.	Peak Decel.	Average Accel.

Table Header for Blinks:
Event Type	Trial	Number	Start	End	Duration

Table Header for User Events:
Event Type	Trial	Number	Start	Description

UserEvent	1	1	4897777437	# Message: Nature_Morte_Aux_Raisins_Sur_Un_Plat_Derain_1944.jpg
Fixation L	1	1	4897788386	4898166236	377850	1166.22	549.01	8	44	-1	11.81	11.81
Fixation R	1	1	4897788386	4898166236	377850	1166.22	549.01	8	44	-1	12.17	12.17
Saccade L	1	1	4898166236	4898206129	39893	1165.30	575.78	831.25	458.93	3.09	210.45	0.50	77.45	4898.89	-5133.70	4346.53
Saccade R	1	1	4898166236	4898206129	39893	1165.30	575.78	831.25	458.93	3.09	210.45	0.50	77.45	4898.89	-5133.70	4346.53
Fixation L	1	2	4898206129	4898703322	497193	827.17	450.52	25	26	-1	11.02	11.02
Fixation R	1	2	4898206129	4898703322	497193	827.17	450.52	25	26	-1	11.58	11.58
Saccade L	1	2	4898703322	4898743081	39759	845.79	448.92	1085.57	443.15	2.70	194.17	0.50	67.98	4677.65	-3896.46	2809.92
Saccade R	1	2	4898703322	4898743081	39759	845.79	448.92	1085.57	443.15	2.70	194.17	0.50	67.98	4677.65	-3896.46	2809.92
Fixation L	1	3	4898743081	4899280044	536963	1078.25	390.07	25	73	-1	10.67	10.67
Fixation R	1	3	4898743081	4899280044	536963	1078.25	390.07	25	73	-1	11.29	11.29
Saccade L	1	3	4899280044	4899299917	19873	1077.76	370.89	1078.53	368.55	0.03	2.50	1.00	1.40	27.79	-31.89	22.88
Saccade R	1	3	4899280044	4899299917	19873	1077.76	370.89	1078.53	368.55	0.03	2.50	1.00	1.40	27.79	-31.89	22.88
Fixation L	1	4	4899299917	4900652447	1352530	1083.82	394.83	17	59	-1	11.22	11.22
Fixation R	1	4	4899299917	4900652447	1352530	1083.82	394.83	17	59	-1	12.02	12.02
Blink L	1	1	4900652447	4900771822	119375
Blink R	1	1	4900652447	4900771822	119375
Fixation L	1	5	4900771822	4901448035	676213	1067.11	502.37	23	76	-1	12.20	12.20
Fixation R	1	5	4900771822	4901448035	676213	1067.11	502.37	23	76	-1	13.32	13.32
Saccade L	1	4	4901448035	4901467903	19868	1066.84	470.57	1067.32	468.00	0.06	4.30	0.00	3.15	8.51	-23.14	16.93
Saccade R	1	4	4901448035	4901467903	19868	1066.84	470.57	1067.32	468.00	0.06	4.30	0.00	3.15	8.51	-23.14	16.93
Fixation L	1	6	4901467903	4901766270	298367	1072.71	464.18	11	18	-1	11.99	11.99
Fixation R	1	6	4901467903	4901766270	298367	1072.71	464.18	11	18	-1	12.91	12.91
