[BeGaze]
Converted from:	C:\Documents and Settings\iViewX\Desktop\EXPERIMENTATIONS\Experiments\results\finaleart\S3121421-finaleart-1.idf
Date:	27.03.2019 15:34:11
Version:	BeGaze 2.5.77
Sample Rate:	50
Subject:	S3121421
Description:	Jean Jouve

Table Header for Fixations:
Event Type	Trial	Number	Start	End	Duration	Location X	Location Y	Dispersion X	Dispersion Y	Plane	Avg. Pupil Size X	Avg. Pupil Size Y

Table Header for Saccades:
Event Type	Trial	Number	Start	End	Duration	Start Loc.X	Start Loc.Y	End Loc.X	End Loc.Y	Amplitude	Peak Speed	Peak Speed At	Average Speed	Peak Accel.	Peak Decel.	Average Accel.

Table Header for Blinks:
Event Type	Trial	Number	Start	End	Duration

Table Header for User Events:
Event Type	Trial	Number	Start	Description

UserEvent	1	1	5368200758	# Message: venice_from_porche_of_madonna_turner_1835.jpg
Fixation L	1	1	5368210978	5368549458	338480	884.23	471.06	4	11	-1	11.08	11.08
Fixation R	1	1	5368210978	5368549458	338480	884.23	471.06	4	11	-1	12.59	12.59
Saccade L	1	1	5368549458	5368589208	39750	882.03	465.90	883.38	750.23	2.69	156.78	1.00	67.78	3808.39	-3541.71	3224.90
Saccade R	1	1	5368549458	5368589208	39750	882.03	465.90	883.38	750.23	2.69	156.78	1.00	67.78	3808.39	-3541.71	3224.90
Fixation L	1	2	5368589208	5368708683	119475	924.49	769.24	59	40	-1	10.84	10.84
Fixation R	1	2	5368589208	5368708683	119475	924.49	769.24	59	40	-1	12.10	12.10
Saccade L	1	2	5368708683	5368728564	19881	925.96	790.36	943.75	775.02	0.36	23.76	1.00	18.21	97.59	-237.19	127.33
Saccade R	1	2	5368708683	5368728564	19881	925.96	790.36	943.75	775.02	0.36	23.76	1.00	18.21	97.59	-237.19	127.33
Fixation L	1	3	5368728564	5368927687	199123	941.25	772.41	26	35	-1	9.70	9.70
Fixation R	1	3	5368728564	5368927687	199123	941.25	772.41	26	35	-1	10.69	10.69
Saccade L	1	3	5368927687	5368947549	19862	920.00	772.27	835.28	776.20	0.65	85.79	1.00	32.90	1926.27	-1993.61	1446.00
Saccade R	1	3	5368927687	5368947549	19862	920.00	772.27	835.28	776.20	0.65	85.79	1.00	32.90	1926.27	-1993.61	1446.00
Fixation L	1	4	5368947549	5369345655	398106	859.03	800.38	45	52	-1	8.44	8.44
Fixation R	1	4	5368947549	5369345655	398106	859.03	800.38	45	52	-1	9.30	9.30
Saccade L	1	4	5369345655	5369365523	19868	878.45	822.68	887.18	831.14	0.23	14.82	1.00	11.49	140.40	-146.90	116.82
Saccade R	1	4	5369345655	5369365523	19868	878.45	822.68	887.18	831.14	0.23	14.82	1.00	11.49	140.40	-146.90	116.82
Fixation L	1	5	5369365523	5369763758	398235	914.48	822.62	49	44	-1	8.27	8.27
Fixation R	1	5	5369365523	5369763758	398235	914.48	822.62	49	44	-1	9.12	9.12
Saccade L	1	5	5369763758	5369783628	19870	932.28	805.63	937.05	873.72	0.79	72.59	1.00	39.88	1576.82	-1660.12	1584.65
Saccade R	1	5	5369763758	5369783628	19870	932.28	805.63	937.05	873.72	0.79	72.59	1.00	39.88	1576.82	-1660.12	1584.65
Fixation L	1	6	5369783628	5369982611	198983	931.37	820.60	14	84	-1	8.08	8.08
Fixation R	1	6	5369783628	5369982611	198983	931.37	820.60	14	84	-1	9.18	9.18
Saccade L	1	6	5369982611	5370082233	99622	923.22	822.63	1221.63	818.60	4.20	176.18	1.00	42.14	4255.47	-4276.32	2166.87
Saccade R	1	6	5369982611	5370082233	99622	923.22	822.63	1221.63	818.60	4.20	176.18	1.00	42.14	4255.47	-4276.32	2166.87
Fixation L	1	7	5370082233	5370659445	577212	1199.62	811.51	45	42	-1	8.27	8.27
Fixation R	1	7	5370082233	5370659445	577212	1199.62	811.51	45	42	-1	9.00	9.00
Saccade L	1	7	5370659445	5370699326	39881	1189.97	812.54	1503.02	759.58	2.88	165.39	1.00	72.27	4008.41	-3866.07	3860.38
Saccade R	1	7	5370659445	5370699326	39881	1189.97	812.54	1503.02	759.58	2.88	165.39	1.00	72.27	4008.41	-3866.07	3860.38
Fixation L	1	8	5370699326	5370997939	298613	1472.69	769.09	48	28	-1	8.64	8.64
Fixation R	1	8	5370699326	5370997939	298613	1472.69	769.09	48	28	-1	8.87	8.87
Saccade L	1	8	5370997939	5371017795	19856	1469.82	767.02	1360.75	792.28	0.79	113.24	1.00	39.63	2732.61	-2795.65	2012.32
Saccade R	1	8	5370997939	5371017795	19856	1469.82	767.02	1360.75	792.28	0.79	113.24	1.00	39.63	2732.61	-2795.65	2012.32
Fixation L	1	9	5371017795	5371336270	318475	1334.52	808.12	32	26	-1	8.65	8.65
Fixation R	1	9	5371017795	5371336270	318475	1334.52	808.12	32	26	-1	8.78	8.78
Saccade L	1	9	5371336270	5371396025	59755	1333.95	816.30	840.05	615.40	5.61	261.89	0.67	93.96	6480.14	-6108.00	4017.52
Saccade R	1	9	5371336270	5371396025	59755	1333.95	816.30	840.05	615.40	5.61	261.89	0.67	93.96	6480.14	-6108.00	4017.52
Fixation L	1	10	5371396025	5372013116	617091	856.31	600.73	30	60	-1	8.15	8.15
Fixation R	1	10	5371396025	5372013116	617091	856.31	600.73	30	60	-1	8.80	8.80
Saccade L	1	10	5372013116	5372072856	59740	868.34	627.78	479.07	816.13	4.64	256.25	0.67	77.60	6332.48	-5833.57	3248.20
Saccade R	1	10	5372013116	5372072856	59740	868.34	627.78	479.07	816.13	4.64	256.25	0.67	77.60	6332.48	-5833.57	3248.20
Fixation L	1	11	5372072856	5372251981	179125	494.81	817.99	26	26	-1	7.60	7.60
Fixation R	1	11	5372072856	5372251981	179125	494.81	817.99	26	26	-1	8.70	8.70
