[BeGaze]
Converted from:	C:\Documents and Settings\iViewX\Desktop\EXPERIMENTATIONS\Experiments\results\finaleart\S4120113-finaleart-1.idf
Date:	27.03.2019 15:34:24
Version:	BeGaze 2.5.77
Sample Rate:	50
Subject:	S4120113
Description:	Vidal Attias

Table Header for Fixations:
Event Type	Trial	Number	Start	End	Duration	Location X	Location Y	Dispersion X	Dispersion Y	Plane	Avg. Pupil Size X	Avg. Pupil Size Y

Table Header for Saccades:
Event Type	Trial	Number	Start	End	Duration	Start Loc.X	Start Loc.Y	End Loc.X	End Loc.Y	Amplitude	Peak Speed	Peak Speed At	Average Speed	Peak Accel.	Peak Decel.	Average Accel.

Table Header for Blinks:
Event Type	Trial	Number	Start	End	Duration

Table Header for User Events:
Event Type	Trial	Number	Start	Description

UserEvent	1	1	6587297512	# Message: The_Luxembourg_Gardens_Matisse_1901.jpg
Fixation L	1	1	6587298891	6587835949	537058	1088.47	713.34	34	46	-1	12.23	12.23
Fixation R	1	1	6587298891	6587835949	537058	1088.47	713.34	34	46	-1	12.27	12.27
Saccade L	1	1	6587835949	6587855832	19883	1062.01	747.59	886.31	600.55	1.49	231.65	1.00	74.99	5708.47	-5191.91	3844.21
Saccade R	1	1	6587835949	6587855832	19883	1062.01	747.59	886.31	600.55	1.49	231.65	1.00	74.99	5708.47	-5191.91	3844.21
Fixation L	1	2	6587855832	6588532042	676210	845.16	611.22	47	47	-1	10.80	10.80
Fixation R	1	2	6587855832	6588532042	676210	845.16	611.22	47	47	-1	10.53	10.53
Saccade L	1	2	6588532042	6588551919	19877	842.14	590.18	847.83	548.23	0.52	42.82	1.00	26.38	845.63	-932.48	819.81
Saccade R	1	2	6588532042	6588551919	19877	842.14	590.18	847.83	548.23	0.52	42.82	1.00	26.38	845.63	-932.48	819.81
Fixation L	1	3	6588551919	6588790657	238738	856.05	508.63	16	49	-1	11.12	11.12
Fixation R	1	3	6588551919	6588790657	238738	856.05	508.63	16	49	-1	11.19	11.19
Saccade L	1	3	6588790657	6588830398	39741	862.77	499.02	1135.77	479.53	2.43	141.03	0.50	61.26	3470.88	-3051.68	3192.05
Saccade R	1	3	6588790657	6588830398	39741	862.77	499.02	1135.77	479.53	2.43	141.03	0.50	61.26	3470.88	-3051.68	3192.05
Fixation L	1	4	6588830398	6589108876	278478	1160.83	449.64	32	47	-1	11.03	11.03
Fixation R	1	4	6588830398	6589108876	278478	1160.83	449.64	32	47	-1	11.04	11.04
Saccade L	1	4	6589108876	6589128756	19880	1166.85	432.15	1169.32	411.91	0.27	21.36	1.00	13.75	444.87	-64.49	262.79
Saccade R	1	4	6589108876	6589128756	19880	1166.85	432.15	1169.32	411.91	0.27	21.36	1.00	13.75	444.87	-64.49	262.79
Fixation L	1	5	6589128756	6589228236	99480	1166.91	427.79	7	28	-1	10.90	10.90
Fixation R	1	5	6589128756	6589228236	99480	1166.91	427.79	7	28	-1	10.61	10.61
Saccade L	1	5	6589228236	6589267990	39754	1163.28	440.81	1542.28	427.78	3.34	195.81	0.50	83.96	4646.26	-4636.11	4462.26
Saccade R	1	5	6589228236	6589267990	39754	1163.28	440.81	1542.28	427.78	3.34	195.81	0.50	83.96	4646.26	-4636.11	4462.26
Fixation L	1	6	6589267990	6589506749	238759	1533.64	460.82	22	72	-1	11.64	11.64
Fixation R	1	6	6589267990	6589506749	238759	1533.64	460.82	22	72	-1	11.23	11.23
Saccade L	1	6	6589506749	6589665850	159101	1520.06	490.01	748.01	739.96	13.65	419.18	0.88	85.79	10232.80	-8904.73	3105.25
Saccade R	1	6	6589506749	6589665850	159101	1520.06	490.01	748.01	739.96	13.65	419.18	0.88	85.79	10232.80	-8904.73	3105.25
Fixation L	1	7	6589665850	6589765203	99353	733.60	767.98	22	60	-1	12.01	12.01
Fixation R	1	7	6589665850	6589765203	99353	733.60	767.98	22	60	-1	11.47	11.47
Saccade L	1	7	6589765203	6589805088	39885	731.64	752.78	744.92	687.76	1.87	81.87	1.00	46.87	740.76	97.46	393.42
Saccade R	1	7	6589765203	6589805088	39885	731.64	752.78	744.92	687.76	1.87	81.87	1.00	46.87	740.76	97.46	393.42
Fixation L	1	8	6589805088	6589944218	139130	741.07	720.88	9	85	-1	11.40	11.40
Fixation R	1	8	6589805088	6589944218	139130	741.07	720.88	9	85	-1	11.56	11.56
Saccade L	1	8	6589944218	6590143183	198965	745.27	683.07	440.13	670.91	11.47	198.47	0.90	57.63	4231.32	-3725.99	1552.44
Saccade R	1	8	6589944218	6590143183	198965	745.27	683.07	440.13	670.91	11.47	198.47	0.90	57.63	4231.32	-3725.99	1552.44
Fixation L	1	9	6590143183	6590282440	139257	460.82	684.21	43	53	-1	10.29	10.29
Fixation R	1	9	6590143183	6590282440	139257	460.82	684.21	43	53	-1	11.23	11.23
Saccade L	1	9	6590282440	6590322187	39747	453.53	683.39	448.70	347.10	3.34	241.98	1.00	83.92	5597.64	-5577.29	3639.67
Saccade R	1	9	6590282440	6590322187	39747	453.53	683.39	448.70	347.10	3.34	241.98	1.00	83.92	5597.64	-5577.29	3639.67
Fixation L	1	10	6590322187	6590600665	278478	440.27	316.13	28	46	-1	9.46	9.46
Fixation R	1	10	6590322187	6590600665	278478	440.27	316.13	28	46	-1	10.45	10.45
Saccade L	1	10	6590600665	6590640417	39752	444.11	311.68	801.12	239.91	3.21	226.64	1.00	80.70	5587.63	-5601.42	4440.61
Saccade R	1	10	6590600665	6590640417	39752	444.11	311.68	801.12	239.91	3.21	226.64	1.00	80.70	5587.63	-5601.42	4440.61
Fixation L	1	11	6590640417	6590879150	238733	811.28	231.30	17	32	-1	9.24	9.24
Fixation R	1	11	6590640417	6590879150	238733	811.28	231.30	17	32	-1	9.94	9.94
Saccade L	1	11	6590879150	6590899017	19867	812.79	225.46	943.62	234.42	0.90	132.64	1.00	45.41	3177.99	-2845.37	2162.91
Saccade R	1	11	6590879150	6590899017	19867	812.79	225.46	943.62	234.42	0.90	132.64	1.00	45.41	3177.99	-2845.37	2162.91
Fixation L	1	12	6590899017	6591137634	238617	975.88	235.30	47	28	-1	9.40	9.40
Fixation R	1	12	6590899017	6591137634	238617	975.88	235.30	47	28	-1	10.36	10.36
Saccade L	1	12	6591137634	6591276880	139246	982.91	229.73	1431.42	161.71	9.34	294.73	0.29	67.10	7250.60	-7049.11	2425.65
Saccade R	1	12	6591137634	6591276880	139246	982.91	229.73	1431.42	161.71	9.34	294.73	0.29	67.10	7250.60	-7049.11	2425.65
