[BeGaze]
Converted from:	C:\Documents and Settings\iViewX\Desktop\EXPERIMENTATIONS\Experiments\results\finaleart\S4120113-finaleart-1.idf
Date:	27.03.2019 15:34:36
Version:	BeGaze 2.5.77
Sample Rate:	50
Subject:	S4120113
Description:	Vidal Attias

Table Header for Fixations:
Event Type	Trial	Number	Start	End	Duration	Location X	Location Y	Dispersion X	Dispersion Y	Plane	Avg. Pupil Size X	Avg. Pupil Size Y

Table Header for Saccades:
Event Type	Trial	Number	Start	End	Duration	Start Loc.X	Start Loc.Y	End Loc.X	End Loc.Y	Amplitude	Peak Speed	Peak Speed At	Average Speed	Peak Accel.	Peak Decel.	Average Accel.

Table Header for Blinks:
Event Type	Trial	Number	Start	End	Duration

Table Header for User Events:
Event Type	Trial	Number	Start	Description

UserEvent	1	1	7214248823	# Message: void.jpg
Fixation L	1	1	7214258144	7214536618	278474	1135.51	474.91	16	55	-1	12.53	12.53
Fixation R	1	1	7214258144	7214536618	278474	1135.51	474.91	16	55	-1	11.95	11.95
Saccade L	1	1	7214536618	7214556493	19875	1128.43	495.37	1278.69	495.07	0.99	151.97	1.00	49.80	3627.18	-3619.64	2636.97
Saccade R	1	1	7214536618	7214556493	19875	1128.43	495.37	1278.69	495.07	0.99	151.97	1.00	49.80	3627.18	-3619.64	2636.97
Fixation L	1	2	7214556493	7214775225	218732	1282.10	518.69	15	32	-1	12.64	12.64
Fixation R	1	2	7214556493	7214775225	218732	1282.10	518.69	15	32	-1	12.34	12.34
Blink L	1	1	7214775225	7215053712	278487
Blink R	1	1	7214775225	7215053712	278487
Fixation L	1	3	7215053712	7216008403	954691	1103.17	393.80	21	66	-1	12.43	12.43
Fixation R	1	3	7215053712	7216008403	954691	1103.17	393.80	21	66	-1	12.52	12.52
Saccade L	1	2	7216008403	7216048274	39871	1096.11	424.99	988.16	438.80	1.63	77.40	1.00	40.83	1851.03	-1688.61	1346.74
Saccade R	1	2	7216008403	7216048274	39871	1096.11	424.99	988.16	438.80	1.63	77.40	1.00	40.83	1851.03	-1688.61	1346.74
Fixation L	1	4	7216048274	7216167516	119242	979.03	497.61	14	83	-1	13.03	13.03
Fixation R	1	4	7216048274	7216167516	119242	979.03	497.61	14	83	-1	12.80	12.80
Saccade L	1	3	7216167516	7216267013	99497	982.46	522.22	981.79	509.65	1.44	24.82	1.00	14.45	447.56	-339.33	285.28
Saccade R	1	3	7216167516	7216267013	99497	982.46	522.22	981.79	509.65	1.44	24.82	1.00	14.45	447.56	-339.33	285.28
