[BeGaze]
Converted from:	C:\Documents and Settings\iViewX\Desktop\EXPERIMENTATIONS\Experiments\results\finaleart\S4120113-finaleart-1.idf
Date:	27.03.2019 15:34:45
Version:	BeGaze 2.5.77
Sample Rate:	50
Subject:	S4120113
Description:	Vidal Attias

Table Header for Fixations:
Event Type	Trial	Number	Start	End	Duration	Location X	Location Y	Dispersion X	Dispersion Y	Plane	Avg. Pupil Size X	Avg. Pupil Size Y

Table Header for Saccades:
Event Type	Trial	Number	Start	End	Duration	Start Loc.X	Start Loc.Y	End Loc.X	End Loc.Y	Amplitude	Peak Speed	Peak Speed At	Average Speed	Peak Accel.	Peak Decel.	Average Accel.

Table Header for Blinks:
Event Type	Trial	Number	Start	End	Duration

Table Header for User Events:
Event Type	Trial	Number	Start	Description

UserEvent	1	1	7777558363	# Message: red-mullets_monet_1869.jpg
Fixation L	1	1	7777570155	7778007841	437686	1373.48	555.61	28	22	-1	16.18	16.18
Fixation R	1	1	7777570155	7778007841	437686	1373.48	555.61	28	22	-1	15.37	15.37
Saccade L	1	1	7778007841	7778027651	19810	1354.17	564.67	1161.03	575.62	1.22	195.62	1.00	61.55	4635.92	-4874.72	3390.57
Saccade R	1	1	7778007841	7778027651	19810	1354.17	564.67	1161.03	575.62	1.22	195.62	1.00	61.55	4635.92	-4874.72	3390.57
Fixation L	1	2	7778027651	7778166863	139212	1125.91	575.79	48	10	-1	14.90	14.90
Fixation R	1	2	7778027651	7778166863	139212	1125.91	575.79	48	10	-1	14.09	14.09
Saccade L	1	2	7778166863	7778186734	19871	1112.40	573.06	966.37	573.46	0.83	147.70	1.00	41.73	3643.88	-3417.97	2412.06
Saccade R	1	2	7778166863	7778186734	19871	1112.40	573.06	966.37	573.46	0.83	147.70	1.00	41.73	3643.88	-3417.97	2412.06
Fixation L	1	3	7778186734	7780334858	2148124	958.44	609.08	25	69	-1	14.23	14.23
Fixation R	1	3	7778186734	7780334858	2148124	958.44	609.08	25	69	-1	13.86	13.86
Saccade L	1	3	7780334858	7780434221	99363	959.04	628.32	958.98	478.20	2.93	85.43	0.80	29.45	1951.46	-1320.93	956.62
Saccade R	1	3	7780334858	7780434221	99363	959.04	628.32	958.98	478.20	2.93	85.43	0.80	29.45	1951.46	-1320.93	956.62
Fixation L	1	4	7780434221	7781448674	1014453	967.61	441.47	16	75	-1	14.66	14.66
Fixation R	1	4	7780434221	7781448674	1014453	967.61	441.47	16	75	-1	14.48	14.48
Saccade L	1	4	7781448674	7781548045	99371	964.15	488.01	965.65	481.16	1.99	39.94	0.80	20.06	922.99	-561.83	464.08
Saccade R	1	4	7781448674	7781548045	99371	964.15	488.01	965.65	481.16	1.99	39.94	0.80	20.06	922.99	-561.83	464.08
