[BeGaze]
Converted from:	C:\Documents and Settings\iViewX\Desktop\EXPERIMENTATIONS\Experiments\results\finaleart\S4120113-finaleart-1.idf
Date:	27.03.2019 15:34:52
Version:	BeGaze 2.5.77
Sample Rate:	50
Subject:	S4120113
Description:	Vidal Attias

Table Header for Fixations:
Event Type	Trial	Number	Start	End	Duration	Location X	Location Y	Dispersion X	Dispersion Y	Plane	Avg. Pupil Size X	Avg. Pupil Size Y

Table Header for Saccades:
Event Type	Trial	Number	Start	End	Duration	Start Loc.X	Start Loc.Y	End Loc.X	End Loc.Y	Amplitude	Peak Speed	Peak Speed At	Average Speed	Peak Accel.	Peak Decel.	Average Accel.

Table Header for Blinks:
Event Type	Trial	Number	Start	End	Duration

Table Header for User Events:
Event Type	Trial	Number	Start	Description

UserEvent	1	1	8113384279	# Message: sargent-male-model-resting.jpg
Fixation L	1	1	8113401877	8113839481	437604	1101.82	577.67	23	13	-1	13.31	13.31
Fixation R	1	1	8113401877	8113839481	437604	1101.82	577.67	23	13	-1	13.15	13.15
Saccade L	1	1	8113839481	8113859349	19868	1101.45	578.91	1209.45	582.88	0.71	109.32	1.00	35.74	2566.82	-2581.88	1906.92
Saccade R	1	1	8113839481	8113859349	19868	1101.45	578.91	1209.45	582.88	0.71	109.32	1.00	35.74	2566.82	-2581.88	1906.92
Fixation L	1	2	8113859349	8114038340	178991	1233.67	589.49	41	21	-1	13.40	13.40
Fixation R	1	2	8113859349	8114038340	178991	1233.67	589.49	41	21	-1	12.81	12.81
Saccade L	1	2	8114038340	8114058358	20018	1250.89	581.96	1381.41	569.82	0.80	132.59	1.00	40.14	3205.04	-3026.70	2094.35
Saccade R	1	2	8114038340	8114058358	20018	1250.89	581.96	1381.41	569.82	0.80	132.59	1.00	40.14	3205.04	-3026.70	2094.35
Fixation L	1	3	8114058358	8114336701	278343	1378.73	543.07	37	52	-1	13.08	13.08
Fixation R	1	3	8114058358	8114336701	278343	1378.73	543.07	37	52	-1	12.76	12.76
Saccade L	1	3	8114336701	8114356689	19988	1393.45	517.29	1407.14	506.28	0.22	17.77	1.00	10.88	190.74	-281.02	180.50
Saccade R	1	3	8114336701	8114356689	19988	1393.45	517.29	1407.14	506.28	0.22	17.77	1.00	10.88	190.74	-281.02	180.50
Fixation L	1	4	8114356689	8115072646	715957	1422.93	485.26	31	54	-1	12.96	12.96
Fixation R	1	4	8114356689	8115072646	715957	1422.93	485.26	31	54	-1	12.33	12.33
Saccade L	1	4	8115072646	8115092530	19884	1407.53	519.49	1250.38	672.90	1.42	222.06	1.00	71.18	5080.30	-5482.37	3753.67
Saccade R	1	4	8115072646	8115092530	19884	1407.53	519.49	1250.38	672.90	1.42	222.06	1.00	71.18	5080.30	-5482.37	3753.67
Fixation L	1	5	8115092530	8115390884	298354	1251.37	661.79	9	42	-1	14.02	14.02
Fixation R	1	5	8115092530	8115390884	298354	1251.37	661.79	9	42	-1	13.32	13.32
Saccade L	1	5	8115390884	8115410762	19878	1251.66	691.10	1247.69	761.43	0.64	71.25	1.00	32.12	1430.01	-1178.02	877.28
Saccade R	1	5	8115390884	8115410762	19878	1251.66	691.10	1247.69	761.43	0.64	71.25	1.00	32.12	1430.01	-1178.02	877.28
Fixation L	1	6	8115410762	8115609731	198969	1244.80	752.25	15	21	-1	13.44	13.44
Fixation R	1	6	8115410762	8115609731	198969	1244.80	752.25	15	21	-1	13.14	13.14
Saccade L	1	6	8115609731	8115649485	39754	1243.52	753.27	879.27	755.49	3.11	249.88	0.50	78.27	6058.08	-6076.48	4322.08
Saccade R	1	6	8115609731	8115649485	39754	1243.52	753.27	879.27	755.49	3.11	249.88	0.50	78.27	6058.08	-6076.48	4322.08
Fixation L	1	7	8115649485	8116146705	497220	885.47	743.92	27	33	-1	12.43	12.43
Fixation R	1	7	8115649485	8116146705	497220	885.47	743.92	27	33	-1	12.50	12.50
Saccade L	1	7	8116146705	8116166597	19892	888.89	755.99	911.00	892.11	1.19	139.48	1.00	60.06	3243.58	-3386.28	2491.93
Saccade R	1	7	8116146705	8116166597	19892	888.89	755.99	911.00	892.11	1.19	139.48	1.00	60.06	3243.58	-3386.28	2491.93
Fixation L	1	8	8116166597	8116266075	99478	969.51	887.03	78	14	-1	12.02	12.02
Fixation R	1	8	8116166597	8116266075	99478	969.51	887.03	78	14	-1	12.30	12.30
Saccade L	1	8	8116266075	8116285959	19884	989.78	877.76	994.54	875.63	0.12	13.12	0.00	6.19	337.26	-280.53	212.56
Saccade R	1	8	8116266075	8116285959	19884	989.78	877.76	994.54	875.63	0.12	13.12	0.00	6.19	337.26	-280.53	212.56
Fixation L	1	9	8116285959	8116643943	357984	989.74	859.63	20	41	-1	12.14	12.14
Fixation R	1	9	8116285959	8116643943	357984	989.74	859.63	20	41	-1	12.55	12.55
Saccade L	1	9	8116643943	8116663806	19863	981.05	839.92	952.97	791.14	0.56	56.94	1.00	28.12	1291.50	-706.38	772.05
Saccade R	1	9	8116643943	8116663806	19863	981.05	839.92	952.97	791.14	0.56	56.94	1.00	28.12	1291.50	-706.38	772.05
Fixation L	1	10	8116663806	8116822922	159116	932.58	770.78	31	34	-1	12.60	12.60
Fixation R	1	10	8116663806	8116822922	159116	932.58	770.78	31	34	-1	13.17	13.17
Saccade L	1	10	8116822922	8116842907	19985	926.41	761.62	863.08	755.73	0.60	64.34	1.00	30.01	1137.14	-1099.87	778.07
Saccade R	1	10	8116822922	8116842907	19985	926.41	761.62	863.08	755.73	0.60	64.34	1.00	30.01	1137.14	-1099.87	778.07
Fixation L	1	11	8116842907	8116982047	139140	832.91	744.31	42	19	-1	13.00	13.00
Fixation R	1	11	8116842907	8116982047	139140	832.91	744.31	42	19	-1	13.20	13.20
Saccade L	1	11	8116982047	8117041780	59733	820.67	739.92	474.61	467.09	5.11	230.37	0.67	85.49	5555.32	-4802.05	3923.56
Saccade R	1	11	8116982047	8117041780	59733	820.67	739.92	474.61	467.09	5.11	230.37	0.67	85.49	5555.32	-4802.05	3923.56
Fixation L	1	12	8117041780	8117220764	178984	488.14	509.27	29	69	-1	11.51	11.51
Fixation R	1	12	8117041780	8117220764	178984	488.14	509.27	29	69	-1	12.23	12.23
Saccade L	1	12	8117220764	8117280387	59623	503.85	518.42	1063.39	297.34	6.79	287.96	0.67	113.82	6677.11	-6879.69	5008.66
Saccade R	1	12	8117220764	8117280387	59623	503.85	518.42	1063.39	297.34	6.79	287.96	0.67	113.82	6677.11	-6879.69	5008.66
Fixation L	1	13	8117280387	8117379879	99492	1071.35	303.36	11	15	-1	11.81	11.81
Fixation R	1	13	8117280387	8117379879	99492	1071.35	303.36	11	15	-1	11.78	11.78
