[BeGaze]
Converted from:	C:\Documents and Settings\iViewX\Desktop\EXPERIMENTATIONS\Experiments\results\finaleart\S4120113-finaleart-1.idf
Date:	27.03.2019 15:34:48
Version:	BeGaze 2.5.77
Sample Rate:	50
Subject:	S4120113
Description:	Vidal Attias

Table Header for Fixations:
Event Type	Trial	Number	Start	End	Duration	Location X	Location Y	Dispersion X	Dispersion Y	Plane	Avg. Pupil Size X	Avg. Pupil Size Y

Table Header for Saccades:
Event Type	Trial	Number	Start	End	Duration	Start Loc.X	Start Loc.Y	End Loc.X	End Loc.Y	Amplitude	Peak Speed	Peak Speed At	Average Speed	Peak Accel.	Peak Decel.	Average Accel.

Table Header for Blinks:
Event Type	Trial	Number	Start	End	Duration

Table Header for User Events:
Event Type	Trial	Number	Start	Description

UserEvent	1	1	7996438229	# Message: the-wood_cross_907.jpg
Fixation L	1	1	7996450075	7996987172	537097	1060.55	560.09	28	70	-1	13.59	13.59
Fixation R	1	1	7996450075	7996987172	537097	1060.55	560.09	28	70	-1	13.43	13.43
Saccade L	1	1	7996987172	7997007031	19859	1084.66	600.97	1076.44	632.15	0.57	56.26	1.00	28.60	165.30	-591.05	336.44
Saccade R	1	1	7996987172	7997007031	19859	1084.66	600.97	1076.44	632.15	0.57	56.26	1.00	28.60	165.30	-591.05	336.44
Fixation L	1	2	7997007031	7997186030	178999	1098.01	613.42	36	51	-1	12.25	12.25
Fixation R	1	2	7997007031	7997186030	178999	1098.01	613.42	36	51	-1	12.27	12.27
Saccade L	1	2	7997186030	7997205901	19871	1113.07	641.40	1120.95	657.49	0.54	47.70	0.00	27.01	347.21	-243.06	274.58
Saccade R	1	2	7997186030	7997205901	19871	1113.07	641.40	1120.95	657.49	0.54	47.70	0.00	27.01	347.21	-243.06	274.58
Fixation L	1	3	7997205901	7997524126	318225	1136.13	690.71	49	44	-1	11.80	11.80
Fixation R	1	3	7997205901	7997524126	318225	1136.13	690.71	49	44	-1	11.81	11.81
Saccade L	1	3	7997524126	7997543998	19872	1170.57	673.91	1373.81	692.15	1.54	206.34	1.00	77.28	4993.00	-5064.21	3503.68
Saccade R	1	3	7997524126	7997543998	19872	1170.57	673.91	1373.81	692.15	1.54	206.34	1.00	77.28	4993.00	-5064.21	3503.68
Fixation L	1	4	7997543998	7997802632	258634	1430.19	666.67	63	35	-1	12.46	12.46
Fixation R	1	4	7997543998	7997802632	258634	1430.19	666.67	63	35	-1	12.19	12.19
Saccade L	1	4	7997802632	7997842361	39729	1436.89	662.27	1434.67	476.65	1.60	178.68	1.00	40.36	4426.39	-4381.02	2271.95
Saccade R	1	4	7997802632	7997842361	39729	1436.89	662.27	1434.67	476.65	1.60	178.68	1.00	40.36	4426.39	-4381.02	2271.95
Fixation L	1	5	7997842361	7998319721	477360	1431.57	453.95	12	85	-1	12.38	12.38
Fixation R	1	5	7997842361	7998319721	477360	1431.57	453.95	12	85	-1	11.99	11.99
Saccade L	1	5	7998319721	7998339577	19856	1430.53	429.81	1357.75	400.80	0.78	79.26	1.00	39.50	1615.70	-1668.78	1209.31
Saccade R	1	5	7998319721	7998339577	19856	1430.53	429.81	1357.75	400.80	0.78	79.26	1.00	39.50	1615.70	-1668.78	1209.31
Fixation L	1	6	7998339577	7998578315	238738	1327.09	355.80	37	60	-1	12.89	12.89
Fixation R	1	6	7998339577	7998578315	238738	1327.09	355.80	37	60	-1	12.36	12.36
Saccade L	1	6	7998578315	7998598183	19868	1321.95	340.23	1323.82	337.12	0.05	3.67	1.00	2.28	75.04	-38.09	39.82
Saccade R	1	6	7998578315	7998598183	19868	1321.95	340.23	1323.82	337.12	0.05	3.67	1.00	2.28	75.04	-38.09	39.82
Fixation L	1	7	7998598183	7998717550	119367	1323.26	335.72	5	6	-1	12.92	12.92
Fixation R	1	7	7998598183	7998717550	119367	1323.26	335.72	5	6	-1	12.65	12.65
Saccade L	1	7	7998717550	7998737434	19884	1320.44	338.88	1173.15	390.51	1.05	157.85	1.00	53.04	3815.82	-2941.04	2584.21
Saccade R	1	7	7998717550	7998737434	19884	1320.44	338.88	1173.15	390.51	1.05	157.85	1.00	53.04	3815.82	-2941.04	2584.21
Fixation L	1	8	7998737434	7998896539	159105	1150.93	406.01	33	41	-1	13.17	13.17
Fixation R	1	8	7998737434	7998896539	159105	1150.93	406.01	33	41	-1	13.13	13.13
Saccade L	1	8	7998896539	7998936291	39752	1140.91	408.79	1000.81	428.18	1.51	103.16	1.00	38.08	2297.54	-2369.30	1588.01
Saccade R	1	8	7998896539	7998936291	39752	1140.91	408.79	1000.81	428.18	1.51	103.16	1.00	38.08	2297.54	-2369.30	1588.01
Fixation L	1	9	7998936291	7999433503	497212	981.93	437.51	27	37	-1	13.36	13.36
Fixation R	1	9	7998936291	7999433503	497212	981.93	437.51	27	37	-1	13.43	13.43
Saccade L	1	9	7999433503	7999493254	59751	976.61	460.63	653.05	469.90	3.61	146.82	0.67	60.40	3361.69	-3340.65	2194.50
Saccade R	1	9	7999433503	7999493254	59751	976.61	460.63	653.05	469.90	3.61	146.82	0.67	60.40	3361.69	-3340.65	2194.50
Fixation L	1	10	7999493254	7999831367	338113	663.96	481.02	16	23	-1	12.83	12.83
Fixation R	1	10	7999493254	7999831367	338113	663.96	481.02	16	23	-1	13.25	13.25
Saccade L	1	10	7999831367	7999851232	19865	658.82	463.30	562.80	327.80	1.01	167.95	1.00	50.69	4171.82	-4108.20	2849.54
Saccade R	1	10	7999831367	7999851232	19865	658.82	463.30	562.80	327.80	1.01	167.95	1.00	50.69	4171.82	-4108.20	2849.54
Fixation L	1	11	7999851232	8000089978	238746	560.12	336.90	8	14	-1	12.31	12.31
Fixation R	1	11	7999851232	8000089978	238746	560.12	336.90	8	14	-1	13.01	13.01
Saccade L	1	11	8000089978	8000109846	19868	557.82	336.50	528.52	209.25	0.82	132.07	1.00	41.19	3245.70	-3050.71	2209.75
Saccade R	1	11	8000089978	8000109846	19868	557.82	336.50	528.52	209.25	0.82	132.07	1.00	41.19	3245.70	-3050.71	2209.75
Fixation L	1	12	8000109846	8000308709	198863	514.14	219.67	21	27	-1	11.77	11.77
Fixation R	1	12	8000109846	8000308709	198863	514.14	219.67	21	27	-1	12.60	12.60
Saccade L	1	12	8000308709	8000348454	39745	511.43	224.92	813.71	225.27	2.80	185.80	0.50	70.46	4181.83	-4240.28	3399.64
Saccade R	1	12	8000308709	8000348454	39745	511.43	224.92	813.71	225.27	2.80	185.80	0.50	70.46	4181.83	-4240.28	3399.64
Fixation L	1	13	8000348454	8000447945	99491	836.42	214.45	34	26	-1	12.05	12.05
Fixation R	1	13	8000348454	8000447945	99491	836.42	214.45	34	26	-1	12.44	12.44
