[BeGaze]
Converted from:	C:\Documents and Settings\iViewX\Desktop\EXPERIMENTATIONS\Experiments\results\finaleart\S4120113-finaleart-1.idf
Date:	27.03.2019 15:34:18
Version:	BeGaze 2.5.77
Sample Rate:	50
Subject:	S4120113
Description:	Vidal Attias

Table Header for Fixations:
Event Type	Trial	Number	Start	End	Duration	Location X	Location Y	Dispersion X	Dispersion Y	Plane	Avg. Pupil Size X	Avg. Pupil Size Y

Table Header for Saccades:
Event Type	Trial	Number	Start	End	Duration	Start Loc.X	Start Loc.Y	End Loc.X	End Loc.Y	Amplitude	Peak Speed	Peak Speed At	Average Speed	Peak Accel.	Peak Decel.	Average Accel.

Table Header for Blinks:
Event Type	Trial	Number	Start	End	Duration

Table Header for User Events:
Event Type	Trial	Number	Start	Description

UserEvent	1	1	6281563838	# Message: void.jpg
Fixation L	1	1	6281575712	6281774562	198850	1437.40	796.67	20	15	-1	14.38	14.38
Fixation R	1	1	6281575712	6281774562	198850	1437.40	796.67	20	15	-1	14.26	14.26
Saccade L	1	1	6281774562	6281834305	59743	1446.51	790.05	636.30	829.87	8.25	338.30	0.67	138.10	8388.40	-8334.69	6013.85
Saccade R	1	1	6281774562	6281834305	59743	1446.51	790.05	636.30	829.87	8.25	338.30	0.67	138.10	8388.40	-8334.69	6013.85
Fixation L	1	2	6281834305	6282371277	536972	612.67	822.51	32	67	-1	13.30	13.30
Fixation R	1	2	6281834305	6282371277	536972	612.67	822.51	32	67	-1	13.94	13.94
Saccade L	1	2	6282371277	6282411023	39746	613.27	792.56	917.40	684.71	3.33	233.66	0.50	83.66	5373.02	-5581.42	3465.07
Saccade R	1	2	6282371277	6282411023	39746	613.27	792.56	917.40	684.71	3.33	233.66	0.50	83.66	5373.02	-5581.42	3465.07
Fixation L	1	3	6282411023	6282689502	278479	926.16	638.25	16	80	-1	12.93	12.93
Fixation R	1	3	6282411023	6282689502	278479	926.16	638.25	16	80	-1	13.66	13.66
Saccade L	1	3	6282689502	6282709389	19887	930.28	616.72	936.78	601.42	0.19	16.82	1.00	9.64	93.37	-230.75	134.86
Saccade R	1	3	6282689502	6282709389	19887	930.28	616.72	936.78	601.42	0.19	16.82	1.00	9.64	93.37	-230.75	134.86
Fixation L	1	4	6282709389	6283385718	676329	936.33	616.13	9	55	-1	13.35	13.35
Fixation R	1	4	6282709389	6283385718	676329	936.33	616.13	9	55	-1	13.93	13.93
Saccade L	1	4	6283385718	6283405596	19878	936.09	624.23	959.28	571.11	0.37	58.64	1.00	18.41	1404.26	-1279.17	988.69
Saccade R	1	4	6283385718	6283405596	19878	936.09	624.23	959.28	571.11	0.37	58.64	1.00	18.41	1404.26	-1279.17	988.69
Fixation L	1	5	6283405596	6283564708	159112	970.34	579.87	19	44	-1	13.63	13.63
Fixation R	1	5	6283405596	6283564708	159112	970.34	579.87	19	44	-1	14.25	14.25
