[BeGaze]
Converted from:	C:\Documents and Settings\iViewX\Desktop\EXPERIMENTATIONS\Experiments\results\finaleart\S4120113-finaleart-1.idf
Date:	27.03.2019 15:34:29
Version:	BeGaze 2.5.77
Sample Rate:	50
Subject:	S4120113
Description:	Vidal Attias

Table Header for Fixations:
Event Type	Trial	Number	Start	End	Duration	Location X	Location Y	Dispersion X	Dispersion Y	Plane	Avg. Pupil Size X	Avg. Pupil Size Y

Table Header for Saccades:
Event Type	Trial	Number	Start	End	Duration	Start Loc.X	Start Loc.Y	End Loc.X	End Loc.Y	Amplitude	Peak Speed	Peak Speed At	Average Speed	Peak Accel.	Peak Decel.	Average Accel.

Table Header for Blinks:
Event Type	Trial	Number	Start	End	Duration

Table Header for User Events:
Event Type	Trial	Number	Start	Description

UserEvent	1	1	6710622975	# Message: courbet-the-bathers-1858.jpg
Fixation L	1	1	6710635421	6711112767	477346	999.86	460.41	5	12	-1	13.37	13.37
Fixation R	1	1	6710635421	6711112767	477346	999.86	460.41	5	12	-1	13.01	13.01
Saccade L	1	1	6711112767	6711132649	19882	998.45	461.89	961.90	545.58	0.71	92.38	1.00	35.51	2265.10	-2144.65	1828.52
Saccade R	1	1	6711112767	6711132649	19882	998.45	461.89	961.90	545.58	0.71	92.38	1.00	35.51	2265.10	-2144.65	1828.52
Fixation L	1	2	6711132649	6711311619	178970	910.28	562.61	68	21	-1	14.29	14.29
Fixation R	1	2	6711132649	6711311619	178970	910.28	562.61	68	21	-1	14.02	14.02
Saccade L	1	2	6711311619	6711331616	19997	893.30	564.76	867.93	476.50	0.51	92.89	1.00	25.54	2206.46	-2132.86	1458.12
Saccade R	1	2	6711311619	6711331616	19997	893.30	564.76	867.93	476.50	0.51	92.89	1.00	25.54	2206.46	-2132.86	1458.12
Fixation L	1	3	6711331616	6711450876	119260	857.39	481.86	21	39	-1	14.48	14.48
Fixation R	1	3	6711331616	6711450876	119260	857.39	481.86	21	39	-1	14.17	14.17
Saccade L	1	3	6711450876	6711490756	39880	850.98	477.90	865.57	274.21	2.37	110.67	0.50	59.42	2283.57	-2261.08	1989.41
Saccade R	1	3	6711450876	6711490756	39880	850.98	477.90	865.57	274.21	2.37	110.67	0.50	59.42	2283.57	-2261.08	1989.41
Fixation L	1	4	6711490756	6711649862	159106	905.55	291.92	51	31	-1	14.05	14.05
Fixation R	1	4	6711490756	6711649862	159106	905.55	291.92	51	31	-1	13.35	13.35
Saccade L	1	4	6711649862	6711709484	59622	913.59	296.08	868.64	181.75	1.73	108.43	0.33	29.00	2632.45	-2004.45	1061.98
Saccade R	1	4	6711649862	6711709484	59622	913.59	296.08	868.64	181.75	1.73	108.43	0.33	29.00	2632.45	-2004.45	1061.98
Fixation L	1	5	6711709484	6712107328	397844	830.80	165.14	48	31	-1	13.54	13.54
Fixation R	1	5	6711709484	6712107328	397844	830.80	165.14	48	31	-1	13.26	13.26
Saccade L	1	5	6712107328	6712127205	19877	822.62	169.61	938.77	296.49	1.03	173.96	1.00	52.05	4175.71	-3568.42	2734.13
Saccade R	1	5	6712107328	6712127205	19877	822.62	169.61	938.77	296.49	1.03	173.96	1.00	52.05	4175.71	-3568.42	2734.13
Fixation L	1	6	6712127205	6712485179	357974	942.46	349.73	23	69	-1	14.93	14.93
Fixation R	1	6	6712127205	6712485179	357974	942.46	349.73	23	69	-1	14.60	14.60
Saccade L	1	6	6712485179	6712544799	59620	928.54	364.71	1039.22	736.19	4.21	226.41	0.67	70.64	5552.75	-5116.79	3562.51
Saccade R	1	6	6712485179	6712544799	59620	928.54	364.71	1039.22	736.19	4.21	226.41	0.67	70.64	5552.75	-5116.79	3562.51
Fixation L	1	7	6712544799	6712743788	198989	1049.14	731.18	26	47	-1	15.85	15.85
Fixation R	1	7	6712544799	6712743788	198989	1049.14	731.18	26	47	-1	15.39	15.39
Saccade L	1	7	6712743788	6712763662	19874	1053.13	736.39	1004.24	745.10	0.50	50.24	1.00	25.26	1211.16	-1115.70	871.03
Saccade R	1	7	6712743788	6712763662	19874	1053.13	736.39	1004.24	745.10	0.50	50.24	1.00	25.26	1211.16	-1115.70	871.03
Fixation L	1	8	6712763662	6713101763	338101	962.06	769.54	53	41	-1	15.07	15.07
Fixation R	1	8	6712763662	6713101763	338101	962.06	769.54	53	41	-1	14.81	14.81
Saccade L	1	8	6713101763	6713121649	19886	952.98	773.52	943.59	772.58	0.14	9.74	1.00	6.85	19.83	-4.83	14.06
Saccade R	1	8	6713101763	6713121649	19886	952.98	773.52	943.59	772.58	0.14	9.74	1.00	6.85	19.83	-4.83	14.06
Fixation L	1	9	6713121649	6713260881	139232	937.49	764.50	22	17	-1	14.60	14.60
Fixation R	1	9	6713121649	6713260881	139232	937.49	764.50	22	17	-1	14.30	14.30
Saccade L	1	9	6713260881	6713300628	39747	921.05	755.47	602.85	451.47	3.85	246.64	0.50	96.84	5917.61	-5905.56	5038.01
Saccade R	1	9	6713260881	6713300628	39747	921.05	755.47	602.85	451.47	3.85	246.64	0.50	96.84	5917.61	-5905.56	5038.01
Fixation L	1	10	6713300628	6713479618	178990	614.00	400.42	18	79	-1	14.11	14.11
Fixation R	1	10	6713300628	6713479618	178990	614.00	400.42	18	79	-1	14.05	14.05
Saccade L	1	10	6713479618	6713499509	19891	621.27	377.33	623.69	377.37	0.08	6.64	0.00	4.20	11.96	-86.91	50.61
Saccade R	1	10	6713479618	6713499509	19891	621.27	377.33	623.69	377.37	0.08	6.64	0.00	4.20	11.96	-86.91	50.61
Fixation L	1	11	6713499509	6714076338	576829	627.89	363.29	21	25	-1	13.83	13.83
Fixation R	1	11	6713499509	6714076338	576829	627.89	363.29	21	25	-1	14.04	14.04
Saccade L	1	11	6714076338	6714096217	19879	620.78	366.13	625.19	557.27	1.07	193.34	1.00	53.74	4793.30	-4786.94	3344.26
Saccade R	1	11	6714076338	6714096217	19879	620.78	366.13	625.19	557.27	1.07	193.34	1.00	53.74	4793.30	-4786.94	3344.26
Fixation L	1	12	6714096217	6714474192	377975	632.42	538.18	36	30	-1	15.47	15.47
Fixation R	1	12	6714096217	6714474192	377975	632.42	538.18	36	30	-1	15.43	15.43
Saccade L	1	12	6714474192	6714494060	19868	659.28	551.33	768.86	588.46	0.92	117.03	1.00	46.28	2904.70	-2590.75	1902.79
Saccade R	1	12	6714474192	6714494060	19868	659.28	551.33	768.86	588.46	0.92	117.03	1.00	46.28	2904.70	-2590.75	1902.79
Fixation L	1	13	6714494060	6714633302	139242	778.74	627.29	14	70	-1	15.86	15.86
Fixation R	1	13	6714494060	6714633302	139242	778.74	627.29	14	70	-1	16.00	16.00
