[BeGaze]
Converted from:	C:\Documents and Settings\iViewX\Desktop\EXPERIMENTATIONS\Experiments\results\finaleart\S4120113-finaleart-1.idf
Date:	27.03.2019 15:34:22
Version:	BeGaze 2.5.77
Sample Rate:	50
Subject:	S4120113
Description:	Vidal Attias

Table Header for Fixations:
Event Type	Trial	Number	Start	End	Duration	Location X	Location Y	Dispersion X	Dispersion Y	Plane	Avg. Pupil Size X	Avg. Pupil Size Y

Table Header for Saccades:
Event Type	Trial	Number	Start	End	Duration	Start Loc.X	Start Loc.Y	End Loc.X	End Loc.Y	Amplitude	Peak Speed	Peak Speed At	Average Speed	Peak Accel.	Peak Decel.	Average Accel.

Table Header for Blinks:
Event Type	Trial	Number	Start	End	Duration

Table Header for User Events:
Event Type	Trial	Number	Start	Description

UserEvent	1	1	6375731097	# Message: Houses_at_Chatou_Vlaminck_1905.jpg
Fixation L	1	1	6375734020	6376290853	556833	980.66	509.21	17	60	-1	12.22	12.22
Fixation R	1	1	6375734020	6376290853	556833	980.66	509.21	17	60	-1	11.40	11.40
Saccade L	1	1	6376290853	6376310734	19881	974.13	528.05	977.48	564.80	0.37	37.33	1.00	18.85	783.11	-712.73	625.74
Saccade R	1	1	6376290853	6376310734	19881	974.13	528.05	977.48	564.80	0.37	37.33	1.00	18.85	783.11	-712.73	625.74
Fixation L	1	2	6376310734	6376509716	198982	983.04	523.64	10	83	-1	10.57	10.57
Fixation R	1	2	6376310734	6376509716	198982	983.04	523.64	10	83	-1	9.96	9.96
Saccade L	1	2	6376509716	6376549462	39746	988.33	515.08	1081.21	397.66	2.02	108.51	0.50	50.89	1805.28	-1961.38	1226.22
Saccade R	1	2	6376509716	6376549462	39746	988.33	515.08	1081.21	397.66	2.02	108.51	0.50	50.89	1805.28	-1961.38	1226.22
Fixation L	1	3	6376549462	6376688702	139240	1096.07	359.25	25	72	-1	10.18	10.18
Fixation R	1	3	6376549462	6376688702	139240	1096.07	359.25	25	72	-1	9.64	9.64
Saccade L	1	3	6376688702	6376728448	39746	1106.98	325.10	1444.87	160.94	3.74	222.92	0.50	94.02	5003.75	-4392.22	4106.55
Saccade R	1	3	6376688702	6376728448	39746	1106.98	325.10	1444.87	160.94	3.74	222.92	0.50	94.02	5003.75	-4392.22	4106.55
Fixation L	1	4	6376728448	6376967183	238735	1449.31	204.28	15	73	-1	9.93	9.93
Fixation R	1	4	6376728448	6376967183	238735	1449.31	204.28	15	73	-1	9.22	9.22
Saccade L	1	4	6376967183	6376987070	19887	1440.07	218.40	1425.79	278.34	0.74	64.32	1.00	37.27	1414.47	-519.68	1041.77
Saccade R	1	4	6376967183	6376987070	19887	1440.07	218.40	1425.79	278.34	0.74	64.32	1.00	37.27	1414.47	-519.68	1041.77
Fixation L	1	5	6376987070	6377106434	119364	1427.87	250.29	24	61	-1	10.30	10.30
Fixation R	1	5	6376987070	6377106434	119364	1427.87	250.29	24	61	-1	9.30	9.30
Saccade L	1	5	6377106434	6377146180	39746	1419.78	251.84	1588.41	254.27	1.62	125.62	1.00	40.71	2987.52	-3026.99	1937.28
Saccade R	1	5	6377106434	6377146180	39746	1419.78	251.84	1588.41	254.27	1.62	125.62	1.00	40.71	2987.52	-3026.99	1937.28
Fixation L	1	6	6377146180	6377464418	318238	1597.94	287.46	20	76	-1	11.09	11.09
Fixation R	1	6	6377146180	6377464418	318238	1597.94	287.46	20	76	-1	10.16	10.16
Saccade L	1	6	6377464418	6377484276	19858	1591.05	314.93	1584.92	317.48	0.11	6.71	1.00	5.41	99.61	-92.46	72.86
Saccade R	1	6	6377464418	6377484276	19858	1591.05	314.93	1584.92	317.48	0.11	6.71	1.00	5.41	99.61	-92.46	72.86
Fixation L	1	7	6377484276	6377603644	119368	1573.93	318.87	18	9	-1	11.89	11.89
Fixation R	1	7	6377484276	6377603644	119368	1573.93	318.87	18	9	-1	10.79	10.79
Saccade L	1	7	6377603644	6377643390	39746	1567.80	318.79	1448.99	607.60	2.84	220.96	1.00	71.41	5345.36	-5304.00	3709.55
Saccade R	1	7	6377603644	6377643390	39746	1567.80	318.79	1448.99	607.60	2.84	220.96	1.00	71.41	5345.36	-5304.00	3709.55
Fixation L	1	8	6377643390	6377902010	258620	1456.20	604.68	28	45	-1	12.24	12.24
Fixation R	1	8	6377643390	6377902010	258620	1456.20	604.68	28	45	-1	11.65	11.65
Saccade L	1	8	6377902010	6377921883	19873	1459.03	605.18	1474.69	771.67	1.04	169.11	1.00	52.24	4102.73	-3903.15	2715.27
Saccade R	1	8	6377902010	6377921883	19873	1459.03	605.18	1474.69	771.67	1.04	169.11	1.00	52.24	4102.73	-3903.15	2715.27
Fixation L	1	9	6377921883	6378080993	159110	1472.25	764.12	30	32	-1	12.35	12.35
Fixation R	1	9	6377921883	6378080993	159110	1472.25	764.12	30	32	-1	11.04	11.04
Saccade L	1	9	6378080993	6378220241	139248	1469.64	777.99	1353.87	676.16	6.52	108.93	0.29	46.81	2267.17	-2477.28	1649.33
Saccade R	1	9	6378080993	6378220241	139248	1469.64	777.99	1353.87	676.16	6.52	108.93	0.29	46.81	2267.17	-2477.28	1649.33
Fixation L	1	10	6378220241	6378637842	417601	1339.42	690.44	22	72	-1	12.22	12.22
Fixation R	1	10	6378220241	6378637842	417601	1339.42	690.44	22	72	-1	11.35	11.35
Saccade L	1	10	6378637842	6378697589	59747	1331.19	701.81	733.84	702.07	6.14	349.74	0.67	102.73	8675.88	-8644.81	5430.70
Saccade R	1	10	6378637842	6378697589	59747	1331.19	701.81	733.84	702.07	6.14	349.74	0.67	102.73	8675.88	-8644.81	5430.70
Fixation L	1	11	6378697589	6379135184	437595	745.89	728.07	21	64	-1	12.07	12.07
Fixation R	1	11	6378697589	6379135184	437595	745.89	728.07	21	64	-1	11.79	11.79
Saccade L	1	11	6379135184	6379552774	417590	746.82	725.75	587.52	719.25	34.28	298.91	0.95	82.08	6088.64	-7186.52	2638.94
Saccade R	1	11	6379135184	6379552774	417590	746.82	725.75	587.52	719.25	34.28	298.91	0.95	82.08	6088.64	-7186.52	2638.94
Fixation L	1	12	6379552774	6379731774	179000	585.99	703.91	8	29	-1	11.07	11.07
Fixation R	1	12	6379552774	6379731774	179000	585.99	703.91	8	29	-1	11.40	11.40
