[BeGaze]
Converted from:	C:\Documents and Settings\iViewX\Desktop\EXPERIMENTATIONS\Experiments\results\finaleart\S4120113-finaleart-1.idf
Date:	27.03.2019 15:34:40
Version:	BeGaze 2.5.77
Sample Rate:	50
Subject:	S4120113
Description:	Vidal Attias

Table Header for Fixations:
Event Type	Trial	Number	Start	End	Duration	Location X	Location Y	Dispersion X	Dispersion Y	Plane	Avg. Pupil Size X	Avg. Pupil Size Y

Table Header for Saccades:
Event Type	Trial	Number	Start	End	Duration	Start Loc.X	Start Loc.Y	End Loc.X	End Loc.Y	Amplitude	Peak Speed	Peak Speed At	Average Speed	Peak Accel.	Peak Decel.	Average Accel.

Table Header for Blinks:
Event Type	Trial	Number	Start	End	Duration

Table Header for User Events:
Event Type	Trial	Number	Start	Description

UserEvent	1	1	7346172908	# Message: the-large-bathers_renoir_1887.jpg
Fixation L	1	1	7346184809	7346741634	556825	924.57	513.35	16	11	-1	13.42	13.42
Fixation R	1	1	7346184809	7346741634	556825	924.57	513.35	16	11	-1	13.31	13.31
Saccade L	1	1	7346741634	7346781384	39750	930.53	509.68	837.93	447.43	1.18	95.47	0.50	29.60	2298.91	-2139.77	1370.89
Saccade R	1	1	7346741634	7346781384	39750	930.53	509.68	837.93	447.43	1.18	95.47	0.50	29.60	2298.91	-2139.77	1370.89
Fixation L	1	2	7346781384	7347099752	318368	845.62	394.23	31	66	-1	9.43	9.43
Fixation R	1	2	7346781384	7347099752	318368	845.62	394.23	31	66	-1	9.52	9.52
Saccade L	1	2	7347099752	7347119612	19860	868.73	395.58	887.01	410.81	0.31	25.10	0.00	15.42	518.54	-402.83	439.85
Saccade R	1	2	7347099752	7347119612	19860	868.73	395.58	887.01	410.81	0.31	25.10	0.00	15.42	518.54	-402.83	439.85
Fixation L	1	3	7347119612	7347298606	178994	899.90	393.88	23	40	-1	8.60	8.60
Fixation R	1	3	7347119612	7347298606	178994	899.90	393.88	23	40	-1	8.84	8.84
Saccade L	1	3	7347298606	7347358225	59619	907.24	370.06	1484.18	505.45	6.38	306.00	0.67	106.96	7203.17	-7343.66	5015.76
Saccade R	1	3	7347298606	7347358225	59619	907.24	370.06	1484.18	505.45	6.38	306.00	0.67	106.96	7203.17	-7343.66	5015.76
Fixation L	1	4	7347358225	7347616835	258610	1470.03	545.61	22	76	-1	9.78	9.78
Fixation R	1	4	7347358225	7347616835	258610	1470.03	545.61	22	76	-1	9.47	9.47
Saccade L	1	4	7347616835	7347656584	39749	1469.44	569.09	1629.96	838.39	2.77	208.02	0.50	69.58	5104.95	-5088.50	4163.17
Saccade R	1	4	7347616835	7347656584	39749	1469.44	569.09	1629.96	838.39	2.77	208.02	0.50	69.58	5104.95	-5088.50	4163.17
Fixation L	1	5	7347656584	7348054435	397851	1616.63	841.23	57	23	-1	10.68	10.68
Fixation R	1	5	7347656584	7348054435	397851	1616.63	841.23	57	23	-1	10.06	10.06
Saccade L	1	5	7348054435	7348094182	39747	1572.79	850.06	1409.92	578.97	3.05	256.72	0.50	76.70	6326.83	-6264.69	3482.38
Saccade R	1	5	7348054435	7348094182	39747	1572.79	850.06	1409.92	578.97	3.05	256.72	0.50	76.70	6326.83	-6264.69	3482.38
Fixation L	1	6	7348094182	7348233440	139258	1416.48	543.22	28	65	-1	10.79	10.79
Fixation R	1	6	7348094182	7348233440	139258	1416.48	543.22	28	65	-1	10.13	10.13
Saccade L	1	6	7348233440	7348253298	19858	1430.67	513.53	1383.92	528.37	0.37	49.62	1.00	18.53	1040.20	-1093.87	734.69
Saccade R	1	6	7348233440	7348253298	19858	1430.67	513.53	1383.92	528.37	0.37	49.62	1.00	18.53	1040.20	-1093.87	734.69
Fixation L	1	7	7348253298	7348671026	417728	1385.28	530.13	19	29	-1	10.65	10.65
Fixation R	1	7	7348253298	7348671026	417728	1385.28	530.13	19	29	-1	10.19	10.19
Saccade L	1	7	7348671026	7348690900	19874	1390.95	547.58	1632.22	503.10	1.39	248.04	1.00	69.76	6080.43	-5970.81	4111.21
Saccade R	1	7	7348671026	7348690900	19874	1390.95	547.58	1632.22	503.10	1.39	248.04	1.00	69.76	6080.43	-5970.81	4111.21
Fixation L	1	8	7348690900	7349148363	457463	1642.20	520.42	21	35	-1	11.06	11.06
Fixation R	1	8	7348690900	7349148363	457463	1642.20	520.42	21	35	-1	10.70	10.70
Saccade L	1	8	7349148363	7349188115	39752	1636.51	537.20	1691.33	621.90	1.50	85.36	1.00	37.72	2027.43	-1688.26	1729.07
Saccade R	1	8	7349148363	7349188115	39752	1636.51	537.20	1691.33	621.90	1.50	85.36	1.00	37.72	2027.43	-1688.26	1729.07
Fixation L	1	9	7349188115	7349327356	139241	1684.41	629.77	41	13	-1	11.75	11.75
Fixation R	1	9	7349188115	7349327356	139241	1684.41	629.77	41	13	-1	10.61	10.61
Saccade L	1	9	7349327356	7349347233	19877	1686.76	634.23	1543.77	738.11	1.28	178.73	1.00	64.36	4269.68	-3645.24	2981.12
Saccade R	1	9	7349327356	7349347233	19877	1686.76	634.23	1543.77	738.11	1.28	178.73	1.00	64.36	4269.68	-3645.24	2981.12
Fixation L	1	10	7349347233	7349486475	139242	1536.81	723.77	44	41	-1	11.94	11.94
Fixation R	1	10	7349347233	7349486475	139242	1536.81	723.77	44	41	-1	11.06	11.06
Saccade L	1	10	7349486475	7349546099	59624	1542.43	725.50	692.81	733.68	9.17	337.85	0.67	153.79	8399.13	-7450.04	6278.33
Saccade R	1	10	7349486475	7349546099	59624	1542.43	725.50	692.81	733.68	9.17	337.85	0.67	153.79	8399.13	-7450.04	6278.33
Fixation L	1	11	7349546099	7349804708	258609	688.72	778.14	29	65	-1	11.23	11.23
Fixation R	1	11	7349546099	7349804708	258609	688.72	778.14	29	65	-1	11.45	11.45
Saccade L	1	11	7349804708	7349824581	19873	672.84	740.47	539.69	685.11	1.01	145.85	1.00	50.71	3459.91	-3060.48	2501.54
Saccade R	1	11	7349804708	7349824581	19873	672.84	740.47	539.69	685.11	1.01	145.85	1.00	50.71	3459.91	-3060.48	2501.54
Fixation L	1	12	7349824581	7350003571	178990	531.37	651.32	15	55	-1	10.09	10.09
Fixation R	1	12	7349824581	7350003571	178990	531.37	651.32	15	55	-1	11.01	11.01
Saccade L	1	12	7350003571	7350063315	59744	524.00	629.59	499.96	600.82	2.49	78.70	0.67	41.68	1764.41	-1689.84	1163.36
Saccade R	1	12	7350003571	7350063315	59744	524.00	629.59	499.96	600.82	2.49	78.70	0.67	41.68	1764.41	-1689.84	1163.36
Fixation L	1	13	7350063315	7350162680	99365	476.54	562.49	35	57	-1	10.14	10.14
Fixation R	1	13	7350063315	7350162680	99365	476.54	562.49	35	57	-1	11.06	11.06
