[BeGaze]
Converted from:	C:\Documents and Settings\iViewX\Desktop\EXPERIMENTATIONS\Experiments\results\finaleart\S4120113-finaleart-1.idf
Date:	27.03.2019 15:34:18
Version:	BeGaze 2.5.77
Sample Rate:	50
Subject:	S4120113
Description:	Vidal Attias

Table Header for Fixations:
Event Type	Trial	Number	Start	End	Duration	Location X	Location Y	Dispersion X	Dispersion Y	Plane	Avg. Pupil Size X	Avg. Pupil Size Y

Table Header for Saccades:
Event Type	Trial	Number	Start	End	Duration	Start Loc.X	Start Loc.Y	End Loc.X	End Loc.Y	Amplitude	Peak Speed	Peak Speed At	Average Speed	Peak Accel.	Peak Decel.	Average Accel.

Table Header for Blinks:
Event Type	Trial	Number	Start	End	Duration

Table Header for User Events:
Event Type	Trial	Number	Start	Description

UserEvent	1	1	6259116244	# Message: Ma_Maison_Martin_XXXX.jpg
Fixation L	1	1	6259120058	6259716773	596715	1074.39	574.12	46	53	-1	12.90	12.90
Fixation R	1	1	6259120058	6259716773	596715	1074.39	574.12	46	53	-1	12.71	12.71
Saccade L	1	1	6259716773	6259736636	19863	1100.49	548.14	1102.06	536.63	0.13	11.75	1.00	6.40	116.24	-89.91	68.80
Saccade R	1	1	6259716773	6259736636	19863	1100.49	548.14	1102.06	536.63	0.13	11.75	1.00	6.40	116.24	-89.91	68.80
Fixation L	1	2	6259736636	6259935646	199010	1103.34	546.18	11	73	-1	11.23	11.23
Fixation R	1	2	6259736636	6259935646	199010	1103.34	546.18	11	73	-1	10.61	10.61
Saccade L	1	2	6259935646	6259955511	19865	1095.86	607.71	1086.27	650.48	0.68	65.78	0.00	34.37	907.18	-1161.80	969.10
Saccade R	1	2	6259935646	6259955511	19865	1095.86	607.71	1086.27	650.48	0.68	65.78	0.00	34.37	907.18	-1161.80	969.10
Fixation L	1	3	6259955511	6260154376	198865	1062.42	640.51	35	23	-1	11.00	11.00
Fixation R	1	3	6259955511	6260154376	198865	1062.42	640.51	35	23	-1	10.80	10.80
Saccade L	1	3	6260154376	6260194118	39742	1051.19	648.60	1357.19	624.15	2.78	230.48	1.00	70.02	5538.01	-5701.30	3625.83
Saccade R	1	3	6260154376	6260194118	39742	1051.19	648.60	1357.19	624.15	2.78	230.48	1.00	70.02	5538.01	-5701.30	3625.83
Fixation L	1	4	6260194118	6260432859	238741	1351.57	631.92	12	37	-1	11.87	11.87
Fixation R	1	4	6260194118	6260432859	238741	1351.57	631.92	12	37	-1	11.42	11.42
Saccade L	1	4	6260432859	6260452719	19860	1358.84	616.39	1458.06	523.22	1.24	137.66	1.00	62.50	2755.11	-2865.19	2373.94
Saccade R	1	4	6260432859	6260452719	19860	1358.84	616.39	1458.06	523.22	1.24	137.66	1.00	62.50	2755.11	-2865.19	2373.94
Fixation L	1	5	6260452719	6260631713	178994	1452.54	490.30	24	71	-1	12.18	12.18
Fixation R	1	5	6260452719	6260631713	178994	1452.54	490.30	24	71	-1	11.83	11.83
Saccade L	1	5	6260631713	6260651587	19874	1454.34	496.99	1452.52	440.06	0.64	57.62	1.00	32.39	1081.58	-916.24	897.42
Saccade R	1	5	6260631713	6260651587	19874	1454.34	496.99	1452.52	440.06	0.64	57.62	1.00	32.39	1081.58	-916.24	897.42
Fixation L	1	6	6260651587	6261308049	656462	1453.87	393.13	28	70	-1	12.18	12.18
Fixation R	1	6	6260651587	6261308049	656462	1453.87	393.13	28	70	-1	11.59	11.59
Saccade L	1	6	6261308049	6261447158	139109	1439.90	377.56	876.29	289.72	9.37	279.52	0.86	67.32	6930.57	-6036.62	2684.54
Saccade R	1	6	6261308049	6261447158	139109	1439.90	377.56	876.29	289.72	9.37	279.52	0.86	67.32	6930.57	-6036.62	2684.54
Fixation L	1	7	6261447158	6261725667	278509	877.61	307.93	8	54	-1	12.17	12.17
Fixation R	1	7	6261447158	6261725667	278509	877.61	307.93	8	54	-1	11.91	11.91
Saccade L	1	7	6261725667	6261745522	19855	875.77	299.35	773.70	278.58	0.96	105.36	1.00	48.57	1783.64	-2263.13	1353.67
Saccade R	1	7	6261725667	6261745522	19855	875.77	299.35	773.70	278.58	0.96	105.36	1.00	48.57	1783.64	-2263.13	1353.67
Fixation L	1	8	6261745522	6261944515	198993	771.68	250.86	12	41	-1	11.77	11.77
Fixation R	1	8	6261745522	6261944515	198993	771.68	250.86	12	41	-1	11.93	11.93
Saccade L	1	8	6261944515	6261964382	19867	766.19	245.42	677.78	175.86	0.95	113.79	1.00	47.71	2539.11	-2583.23	2166.78
Saccade R	1	8	6261944515	6261964382	19867	766.19	245.42	677.78	175.86	0.95	113.79	1.00	47.71	2539.11	-2583.23	2166.78
Fixation L	1	9	6261964382	6262103632	139250	619.25	162.56	73	23	-1	11.76	11.76
Fixation R	1	9	6261964382	6262103632	139250	619.25	162.56	73	23	-1	12.05	12.05
Saccade L	1	9	6262103632	6262123524	19892	604.77	155.67	602.70	123.48	0.38	32.63	1.00	19.33	618.69	-724.62	653.88
Saccade R	1	9	6262103632	6262123524	19892	604.77	155.67	602.70	123.48	0.38	32.63	1.00	19.33	618.69	-724.62	653.88
Fixation L	1	10	6262123524	6262282612	159088	599.76	142.38	17	31	-1	11.97	11.97
Fixation R	1	10	6262123524	6262282612	159088	599.76	142.38	17	31	-1	12.45	12.45
Saccade L	1	10	6262282612	6262302494	19882	588.82	145.83	574.91	233.91	0.70	90.20	1.00	35.30	2119.84	-1674.21	1445.53
Saccade R	1	10	6262282612	6262302494	19882	588.82	145.83	574.91	233.91	0.70	90.20	1.00	35.30	2119.84	-1674.21	1445.53
Fixation L	1	11	6262302494	6262541095	238601	554.05	255.16	28	32	-1	12.14	12.14
Fixation R	1	11	6262302494	6262541095	238601	554.05	255.16	28	32	-1	12.72	12.72
Saccade L	1	11	6262541095	6262580985	39890	548.19	261.75	443.99	537.02	2.65	177.53	1.00	66.36	4381.13	-3004.99	3310.68
Saccade R	1	11	6262541095	6262580985	39890	548.19	261.75	443.99	537.02	2.65	177.53	1.00	66.36	4381.13	-3004.99	3310.68
Fixation L	1	12	6262580985	6262998568	417583	434.69	566.15	17	59	-1	12.22	12.22
Fixation R	1	12	6262580985	6262998568	417583	434.69	566.15	17	59	-1	13.05	13.05
Saccade L	1	12	6262998568	6263117953	119385	430.34	566.97	756.38	892.02	8.31	328.62	0.17	69.63	8111.75	-8116.36	3228.91
Saccade R	1	12	6262998568	6263117953	119385	430.34	566.97	756.38	892.02	8.31	328.62	0.17	69.63	8111.75	-8116.36	3228.91
