[BeGaze]
Converted from:	C:\Documents and Settings\iViewX\Desktop\EXPERIMENTATIONS\Experiments\results\finaleart\S4120113-finaleart-1.idf
Date:	27.03.2019 15:34:33
Version:	BeGaze 2.5.77
Sample Rate:	50
Subject:	S4120113
Description:	Vidal Attias

Table Header for Fixations:
Event Type	Trial	Number	Start	End	Duration	Location X	Location Y	Dispersion X	Dispersion Y	Plane	Avg. Pupil Size X	Avg. Pupil Size Y

Table Header for Saccades:
Event Type	Trial	Number	Start	End	Duration	Start Loc.X	Start Loc.Y	End Loc.X	End Loc.Y	Amplitude	Peak Speed	Peak Speed At	Average Speed	Peak Accel.	Peak Decel.	Average Accel.

Table Header for Blinks:
Event Type	Trial	Number	Start	End	Duration

Table Header for User Events:
Event Type	Trial	Number	Start	Description

UserEvent	1	1	7003649251	# Message: goya-Bodegones-con-pargos-dorados-1812.jpg
Fixation L	1	1	7003652887	7004130206	477319	880.52	289.96	23	50	-1	13.22	13.22
Fixation R	1	1	7003652887	7004130206	477319	880.52	289.96	23	50	-1	12.31	12.31
Saccade L	1	1	7004130206	7004150085	19879	890.88	281.37	886.77	412.26	0.73	132.46	1.00	36.88	3206.45	-3209.31	2138.86
Saccade R	1	1	7004130206	7004150085	19879	890.88	281.37	886.77	412.26	0.73	132.46	1.00	36.88	3206.45	-3209.31	2138.86
Fixation L	1	2	7004150085	7004289315	139230	879.04	423.03	14	19	-1	13.23	13.23
Fixation R	1	2	7004150085	7004289315	139230	879.04	423.03	14	19	-1	12.67	12.67
Saccade L	1	2	7004289315	7004309187	19872	874.43	432.22	864.33	512.12	0.48	81.47	1.00	24.10	1862.72	-1783.39	1222.37
Saccade R	1	2	7004289315	7004309187	19872	874.43	432.22	864.33	512.12	0.48	81.47	1.00	24.10	1862.72	-1783.39	1222.37
Fixation L	1	3	7004309187	7004687166	377979	841.65	519.12	65	32	-1	14.05	14.05
Fixation R	1	3	7004309187	7004687166	377979	841.65	519.12	65	32	-1	13.51	13.51
Saccade L	1	3	7004687166	7004707029	19863	805.98	542.66	800.99	548.82	0.43	45.01	1.00	21.77	246.89	-924.95	471.35
Saccade R	1	3	7004687166	7004707029	19863	805.98	542.66	800.99	548.82	0.43	45.01	1.00	21.77	246.89	-924.95	471.35
Fixation L	1	4	7004707029	7005243996	536967	777.18	551.20	33	64	-1	14.37	14.37
Fixation R	1	4	7004707029	7005243996	536967	777.18	551.20	33	64	-1	14.17	14.17
Saccade L	1	4	7005243996	7005323629	79633	775.46	591.49	559.48	594.89	3.17	208.42	1.00	39.87	5076.63	-4913.14	1828.98
Saccade R	1	4	7005243996	7005323629	79633	775.46	591.49	559.48	594.89	3.17	208.42	1.00	39.87	5076.63	-4913.14	1828.98
Fixation L	1	5	7005323629	7005701485	377856	537.04	608.75	38	43	-1	13.64	13.64
Fixation R	1	5	7005323629	7005701485	377856	537.04	608.75	38	43	-1	14.30	14.30
Saccade L	1	5	7005701485	7005761229	59744	542.21	622.48	1252.03	618.51	7.32	313.30	0.67	122.50	7768.49	-7487.45	5264.77
Saccade R	1	5	7005701485	7005761229	59744	542.21	622.48	1252.03	618.51	7.32	313.30	0.67	122.50	7768.49	-7487.45	5264.77
Fixation L	1	6	7005761229	7006119191	357962	1243.68	632.76	28	29	-1	13.69	13.69
Fixation R	1	6	7005761229	7006119191	357962	1243.68	632.76	28	29	-1	13.31	13.31
Saccade L	1	6	7006119191	7006139098	19907	1234.79	625.30	1325.01	623.08	0.64	91.30	1.00	32.04	2031.63	-1736.19	1321.84
Saccade R	1	6	7006119191	7006139098	19907	1234.79	625.30	1325.01	623.08	0.64	91.30	1.00	32.04	2031.63	-1736.19	1321.84
Fixation L	1	7	7006139098	7006298192	159094	1323.84	621.56	26	37	-1	13.70	13.70
Fixation R	1	7	7006139098	7006298192	159094	1323.84	621.56	26	37	-1	13.03	13.03
Saccade L	1	7	7006298192	7006318060	19868	1334.90	607.67	1166.61	789.09	1.61	250.17	1.00	80.86	5984.13	-5929.70	4060.96
Saccade R	1	7	7006298192	7006318060	19868	1334.90	607.67	1166.61	789.09	1.61	250.17	1.00	80.86	5984.13	-5929.70	4060.96
Fixation L	1	8	7006318060	7006477173	159113	1120.44	812.09	62	33	-1	14.28	14.28
Fixation R	1	8	7006318060	7006477173	159113	1120.44	812.09	62	33	-1	13.70	13.70
Saccade L	1	8	7006477173	7006596548	119375	1113.41	820.49	1233.50	835.80	4.07	130.47	1.00	34.11	2709.26	-2896.78	1004.91
Saccade R	1	8	7006477173	7006596548	119375	1113.41	820.49	1233.50	835.80	4.07	130.47	1.00	34.11	2709.26	-2896.78	1004.91
Fixation L	1	9	7006596548	7006715920	119372	1300.85	839.91	86	12	-1	13.82	13.82
Fixation R	1	9	7006596548	7006715920	119372	1300.85	839.91	86	12	-1	12.96	12.96
Saccade L	1	9	7006715920	7006735790	19870	1319.55	833.42	1323.72	836.02	0.17	13.01	0.00	8.38	-8.71	-104.65	52.51
Saccade R	1	9	7006715920	7006735790	19870	1319.55	833.42	1323.72	836.02	0.17	13.01	0.00	8.38	-8.71	-104.65	52.51
Fixation L	1	10	7006735790	7007491620	755830	1314.29	818.51	27	68	-1	14.08	14.08
Fixation R	1	10	7006735790	7007491620	755830	1314.29	818.51	27	68	-1	12.99	12.99
Saccade L	1	10	7007491620	7007511482	19862	1321.72	840.19	1319.00	863.45	0.30	23.69	1.00	14.94	276.52	-497.34	291.11
Saccade R	1	10	7007491620	7007511482	19862	1321.72	840.19	1319.00	863.45	0.30	23.69	1.00	14.94	276.52	-497.34	291.11
Fixation L	1	11	7007511482	7007650742	139260	1330.38	853.19	18	24	-1	14.76	14.76
Fixation R	1	11	7007511482	7007650742	139260	1330.38	853.19	18	24	-1	13.45	13.45
