[BeGaze]
Converted from:	C:\Documents and Settings\iViewX\Desktop\EXPERIMENTATIONS\Experiments\results\finaleart\S4120113-finaleart-1.idf
Date:	27.03.2019 15:34:19
Version:	BeGaze 2.5.77
Sample Rate:	50
Subject:	S4120113
Description:	Vidal Attias

Table Header for Fixations:
Event Type	Trial	Number	Start	End	Duration	Location X	Location Y	Dispersion X	Dispersion Y	Plane	Avg. Pupil Size X	Avg. Pupil Size Y

Table Header for Saccades:
Event Type	Trial	Number	Start	End	Duration	Start Loc.X	Start Loc.Y	End Loc.X	End Loc.Y	Amplitude	Peak Speed	Peak Speed At	Average Speed	Peak Accel.	Peak Decel.	Average Accel.

Table Header for Blinks:
Event Type	Trial	Number	Start	End	Duration

Table Header for User Events:
Event Type	Trial	Number	Start	Description

UserEvent	1	1	6295885857	# Message: study_of_a_reclining_nude_Delacroix_1824.jpg
Fixation L	1	1	6295896343	6296115203	218860	1090.25	556.39	23	14	-1	13.05	13.05
Fixation R	1	1	6295896343	6296115203	218860	1090.25	556.39	23	14	-1	14.07	14.07
Blink L	1	1	6296115203	6296333932	218729
Blink R	1	1	6296115203	6296333932	218729
Fixation L	1	2	6296333932	6296493070	159138	1057.41	506.71	17	29	-1	14.57	14.57
Fixation R	1	2	6296333932	6296493070	159138	1057.41	506.71	17	29	-1	14.08	14.08
Saccade L	1	1	6296493070	6296512937	19867	1055.08	522.77	1051.82	611.16	0.66	89.47	1.00	33.43	2022.16	-1918.68	1314.60
Saccade R	1	1	6296493070	6296512937	19867	1055.08	522.77	1051.82	611.16	0.66	89.47	1.00	33.43	2022.16	-1918.68	1314.60
Fixation L	1	3	6296512937	6296990268	477331	1049.69	618.93	22	59	-1	14.00	14.00
Fixation R	1	3	6296512937	6296990268	477331	1049.69	618.93	22	59	-1	13.96	13.96
Saccade L	1	2	6296990268	6297030011	39743	1058.74	625.65	1276.45	522.82	2.37	207.58	0.50	59.64	5148.74	-4652.61	2791.27
Saccade R	1	2	6296990268	6297030011	39743	1058.74	625.65	1276.45	522.82	2.37	207.58	0.50	59.64	5148.74	-4652.61	2791.27
Fixation L	1	4	6297030011	6297388118	358107	1287.74	475.69	29	68	-1	13.62	13.62
Fixation R	1	4	6297030011	6297388118	358107	1287.74	475.69	29	68	-1	13.47	13.47
Saccade L	1	3	6297388118	6297507360	119242	1305.67	454.98	1331.57	348.93	3.01	91.25	1.00	25.22	2134.96	-2258.98	841.62
Saccade R	1	3	6297388118	6297507360	119242	1305.67	454.98	1331.57	348.93	3.01	91.25	1.00	25.22	2134.96	-2258.98	841.62
Fixation L	1	5	6297507360	6297666476	159116	1337.98	391.58	21	76	-1	13.85	13.85
Fixation R	1	5	6297507360	6297666476	159116	1337.98	391.58	21	76	-1	13.06	13.06
Saccade L	1	4	6297666476	6297686484	20008	1346.59	391.91	1349.37	383.65	0.23	20.84	1.00	11.59	119.09	-300.55	190.63
Saccade R	1	4	6297666476	6297686484	20008	1346.59	391.91	1349.37	383.65	0.23	20.84	1.00	11.59	119.09	-300.55	190.63
Fixation L	1	6	6297686484	6297944967	258483	1347.27	393.98	6	25	-1	14.05	14.05
Fixation R	1	6	6297686484	6297944967	258483	1347.27	393.98	6	25	-1	13.34	13.34
Saccade L	1	5	6297944967	6297984837	39870	1343.54	404.29	1036.92	685.18	3.56	250.90	0.50	89.17	6190.01	-5899.43	4989.07
Saccade R	1	5	6297944967	6297984837	39870	1343.54	404.29	1036.92	685.18	3.56	250.90	0.50	89.17	6190.01	-5899.43	4989.07
Fixation L	1	7	6297984837	6298303067	318230	1040.88	657.96	11	38	-1	14.57	14.57
Fixation R	1	7	6297984837	6298303067	318230	1040.88	657.96	11	38	-1	14.14	14.14
Saccade L	1	6	6298303067	6298322930	19863	1035.57	661.27	948.85	741.60	0.94	119.57	1.00	47.46	2940.35	-2780.41	2443.23
Saccade R	1	6	6298303067	6298322930	19863	1035.57	661.27	948.85	741.60	0.94	119.57	1.00	47.46	2940.35	-2780.41	2443.23
Fixation L	1	8	6298322930	6298541677	218747	940.15	793.13	15	73	-1	14.64	14.64
Fixation R	1	8	6298322930	6298541677	218747	940.15	793.13	15	73	-1	14.12	14.12
Saccade L	1	7	6298541677	6298581428	39751	935.63	795.29	618.79	874.68	2.94	191.99	1.00	73.89	4692.45	-4566.77	3935.74
Saccade R	1	7	6298541677	6298581428	39751	935.63	795.29	618.79	874.68	2.94	191.99	1.00	73.89	4692.45	-4566.77	3935.74
Fixation L	1	9	6298581428	6298919645	338217	633.45	872.85	17	72	-1	14.28	14.28
Fixation R	1	9	6298581428	6298919645	338217	633.45	872.85	17	72	-1	14.45	14.45
Saccade L	1	8	6298919645	6298939538	19893	633.87	897.70	469.23	872.42	1.11	168.45	1.00	55.65	4145.76	-4000.86	2888.70
Saccade R	1	8	6298919645	6298939538	19893	633.87	897.70	469.23	872.42	1.11	168.45	1.00	55.65	4145.76	-4000.86	2888.70
Fixation L	1	10	6298939538	6299217891	278353	425.75	874.72	60	28	-1	13.27	13.27
Fixation R	1	10	6298939538	6299217891	278353	425.75	874.72	60	28	-1	14.39	14.39
Saccade L	1	9	6299217891	6299277626	59735	408.94	859.24	1189.67	437.40	9.17	390.66	0.67	153.43	9548.48	-9595.60	6448.53
Saccade R	1	9	6299217891	6299277626	59735	408.94	859.24	1189.67	437.40	9.17	390.66	0.67	153.43	9548.48	-9595.60	6448.53
Fixation L	1	11	6299277626	6299556117	278491	1187.34	442.34	6	48	-1	13.79	13.79
Fixation R	1	11	6299277626	6299556117	278491	1187.34	442.34	6	48	-1	13.87	13.87
Saccade L	1	10	6299556117	6299575988	19871	1186.37	441.73	1142.84	521.33	0.60	91.78	1.00	30.39	2254.97	-2175.67	1688.84
Saccade R	1	10	6299556117	6299575988	19871	1186.37	441.73	1142.84	521.33	0.60	91.78	1.00	30.39	2254.97	-2175.67	1688.84
Fixation L	1	12	6299575988	6299814600	238612	1119.66	527.67	32	22	-1	13.57	13.57
Fixation R	1	12	6299575988	6299814600	238612	1119.66	527.67	32	22	-1	13.46	13.46
Saccade L	1	11	6299814600	6299874350	59750	1116.92	535.92	1105.21	599.08	1.45	69.81	0.33	24.25	1628.87	-1453.87	779.18
Saccade R	1	11	6299814600	6299874350	59750	1116.92	535.92	1105.21	599.08	1.45	69.81	0.33	24.25	1628.87	-1453.87	779.18
