[BeGaze]
Converted from:	C:\Documents and Settings\iViewX\Desktop\EXPERIMENTATIONS\Experiments\results\finaleart\S4120113-finaleart-1.idf
Date:	27.03.2019 15:34:26
Version:	BeGaze 2.5.77
Sample Rate:	50
Subject:	S4120113
Description:	Vidal Attias

Table Header for Fixations:
Event Type	Trial	Number	Start	End	Duration	Location X	Location Y	Dispersion X	Dispersion Y	Plane	Avg. Pupil Size X	Avg. Pupil Size Y

Table Header for Saccades:
Event Type	Trial	Number	Start	End	Duration	Start Loc.X	Start Loc.Y	End Loc.X	End Loc.Y	Amplitude	Peak Speed	Peak Speed At	Average Speed	Peak Accel.	Peak Decel.	Average Accel.

Table Header for Blinks:
Event Type	Trial	Number	Start	End	Duration

Table Header for User Events:
Event Type	Trial	Number	Start	Description

UserEvent	1	1	6640514557	# Message: void.jpg
Fixation L	1	1	6640524039	6640722899	198860	1410.63	293.70	40	49	-1	11.90	11.90
Fixation R	1	1	6640524039	6640722899	198860	1410.63	293.70	40	49	-1	9.91	9.91
Saccade L	1	1	6640722899	6640742758	19859	1440.06	292.98	1441.78	368.90	0.75	76.82	1.00	37.76	1308.99	-960.17	862.73
Saccade R	1	1	6640722899	6640742758	19859	1440.06	292.98	1441.78	368.90	0.75	76.82	1.00	37.76	1308.99	-960.17	862.73
Fixation L	1	2	6640742758	6640981490	238732	1447.12	369.52	38	28	-1	11.90	11.90
Fixation R	1	2	6640742758	6640981490	238732	1447.12	369.52	38	28	-1	9.98	9.98
Blink L	1	1	6640981490	6641319607	338117
Blink R	1	1	6640981490	6641319607	338117
Fixation L	1	3	6641319607	6641598078	278471	1082.95	783.63	21	70	-1	13.76	13.76
Fixation R	1	3	6641319607	6641598078	278471	1082.95	783.63	21	70	-1	14.51	14.51
Saccade L	1	2	6641598078	6641617960	19882	1072.01	784.09	1062.51	796.31	0.19	19.66	1.00	9.70	467.34	-68.17	288.17
Saccade R	1	2	6641598078	6641617960	19882	1072.01	784.09	1062.51	796.31	0.19	19.66	1.00	9.70	467.34	-68.17	288.17
Fixation L	1	4	6641617960	6641856565	238605	1073.52	788.90	17	66	-1	12.04	12.04
Fixation R	1	4	6641617960	6641856565	238605	1073.52	788.90	17	66	-1	12.50	12.50
Saccade L	1	3	6641856565	6641876455	19890	1080.26	741.95	1080.67	679.51	0.63	63.17	1.00	31.66	1382.62	-1252.20	1255.50
Saccade R	1	3	6641856565	6641876455	19890	1080.26	741.95	1080.67	679.51	0.63	63.17	1.00	31.66	1382.62	-1252.20	1255.50
Fixation L	1	5	6641876455	6642115182	238727	1080.35	694.85	18	25	-1	11.69	11.69
Fixation R	1	5	6641876455	6642115182	238727	1080.35	694.85	18	25	-1	12.83	12.83
Saccade L	1	4	6642115182	6642135048	19866	1064.70	694.25	1006.15	678.27	0.46	61.40	1.00	22.99	1505.40	-1030.59	874.32
Saccade R	1	4	6642115182	6642135048	19866	1064.70	694.25	1006.15	678.27	0.46	61.40	1.00	22.99	1505.40	-1030.59	874.32
Fixation L	1	6	6642135048	6642512898	377850	988.98	639.00	30	57	-1	12.19	12.19
Fixation R	1	6	6642135048	6642512898	377850	988.98	639.00	30	57	-1	13.19	13.19
