[BeGaze]
Converted from:	C:\Documents and Settings\iViewX\Desktop\EXPERIMENTATIONS\Experiments\results\finaleart\S4120113-finaleart-1.idf
Date:	27.03.2019 15:34:39
Version:	BeGaze 2.5.77
Sample Rate:	50
Subject:	S4120113
Description:	Vidal Attias

Table Header for Fixations:
Event Type	Trial	Number	Start	End	Duration	Location X	Location Y	Dispersion X	Dispersion Y	Plane	Avg. Pupil Size X	Avg. Pupil Size Y

Table Header for Saccades:
Event Type	Trial	Number	Start	End	Duration	Start Loc.X	Start Loc.Y	End Loc.X	End Loc.Y	Amplitude	Peak Speed	Peak Speed At	Average Speed	Peak Accel.	Peak Decel.	Average Accel.

Table Header for Blinks:
Event Type	Trial	Number	Start	End	Duration

Table Header for User Events:
Event Type	Trial	Number	Start	Description

UserEvent	1	1	7309003854	# Message: reclining-nude_renoir_1883.jpg
Fixation L	1	1	7309013041	7309490399	477358	1164.99	646.18	19	35	-1	13.34	13.34
Fixation R	1	1	7309013041	7309490399	477358	1164.99	646.18	19	35	-1	13.12	13.12
Saccade L	1	1	7309490399	7309510275	19876	1153.70	661.11	1034.63	663.45	1.06	120.46	1.00	53.30	2995.93	-2795.64	2624.63
Saccade R	1	1	7309490399	7309510275	19876	1153.70	661.11	1034.63	663.45	1.06	120.46	1.00	53.30	2995.93	-2795.64	2624.63
Fixation L	1	2	7309510275	7309609767	99492	965.71	664.96	86	3	-1	13.04	13.04
Fixation R	1	2	7309510275	7309609767	99492	965.71	664.96	86	3	-1	12.75	12.75
Saccade L	1	2	7309609767	7309629631	19864	949.90	664.77	951.36	651.26	0.13	13.75	1.00	6.39	266.87	-215.51	207.76
Saccade R	1	2	7309609767	7309629631	19864	949.90	664.77	951.36	651.26	0.13	13.75	1.00	6.39	266.87	-215.51	207.76
Fixation L	1	3	7309629631	7309729128	99497	948.45	653.90	13	13	-1	11.79	11.79
Fixation R	1	3	7309629631	7309729128	99497	948.45	653.90	13	13	-1	11.63	11.63
Saccade L	1	3	7309729128	7309768865	39737	937.69	646.56	769.90	444.19	2.51	184.12	0.50	63.25	4460.51	-4477.26	3353.90
Saccade R	1	3	7309729128	7309768865	39737	937.69	646.56	769.90	444.19	2.51	184.12	0.50	63.25	4460.51	-4477.26	3353.90
Fixation L	1	4	7309768865	7309987623	218758	776.97	438.63	17	79	-1	11.01	11.01
Fixation R	1	4	7309768865	7309987623	218758	776.97	438.63	17	79	-1	11.08	11.08
Saccade L	1	4	7309987623	7310007472	19849	773.88	398.52	766.82	375.52	0.31	24.34	1.00	15.44	293.66	-440.38	299.92
Saccade R	1	4	7309987623	7310007472	19849	773.88	398.52	766.82	375.52	0.31	24.34	1.00	15.44	293.66	-440.38	299.92
Fixation L	1	5	7310007472	7310464963	457491	758.62	354.89	25	46	-1	10.82	10.82
Fixation R	1	5	7310007472	7310464963	457491	758.62	354.89	25	46	-1	10.96	10.96
Saccade L	1	5	7310464963	7310524698	59735	753.26	346.82	1103.66	651.88	4.83	232.17	0.67	80.90	5720.94	-5571.86	3383.05
Saccade R	1	5	7310464963	7310524698	59735	753.26	346.82	1103.66	651.88	4.83	232.17	0.67	80.90	5720.94	-5571.86	3383.05
Fixation L	1	6	7310524698	7310723567	198869	1080.28	675.48	46	35	-1	12.23	12.23
Fixation R	1	6	7310524698	7310723567	198869	1080.28	675.48	46	35	-1	12.32	12.32
Saccade L	1	6	7310723567	7310763312	39745	1089.59	677.15	1399.97	725.98	2.88	176.86	0.50	72.38	4129.99	-3760.30	3638.11
Saccade R	1	6	7310723567	7310763312	39745	1089.59	677.15	1399.97	725.98	2.88	176.86	0.50	72.38	4129.99	-3760.30	3638.11
Fixation L	1	7	7310763312	7311618639	855327	1392.35	738.65	29	60	-1	13.04	13.04
Fixation R	1	7	7310763312	7311618639	855327	1392.35	738.65	29	60	-1	12.16	12.16
Saccade L	1	7	7311618639	7311658386	39747	1380.93	750.91	1147.12	735.42	2.13	120.84	0.50	53.71	2908.81	-2602.36	2712.23
Saccade R	1	7	7311618639	7311658386	39747	1380.93	750.91	1147.12	735.42	2.13	120.84	0.50	53.71	2908.81	-2602.36	2712.23
Fixation L	1	8	7311658386	7311916985	258599	1146.18	705.07	43	41	-1	13.59	13.59
Fixation R	1	8	7311658386	7311916985	258599	1146.18	705.07	43	41	-1	13.19	13.19
Saccade L	1	8	7311916985	7311936861	19876	1182.13	701.97	1401.71	676.22	1.48	223.54	1.00	74.64	5484.21	-5468.61	3793.91
Saccade R	1	8	7311916985	7311936861	19876	1182.13	701.97	1401.71	676.22	1.48	223.54	1.00	74.64	5484.21	-5468.61	3793.91
Fixation L	1	9	7311936861	7312314720	377859	1388.17	688.74	23	25	-1	13.30	13.30
Fixation R	1	9	7311936861	7312314720	377859	1388.17	688.74	23	25	-1	12.55	12.55
Saccade L	1	9	7312314720	7312374463	59743	1380.37	682.20	906.36	602.99	5.32	240.89	0.67	89.02	5907.48	-5372.44	3679.15
Saccade R	1	9	7312314720	7312374463	59743	1380.37	682.20	906.36	602.99	5.32	240.89	0.67	89.02	5907.48	-5372.44	3679.15
Fixation L	1	10	7312374463	7312493704	119241	896.80	583.56	13	83	-1	13.44	13.44
Fixation R	1	10	7312374463	7312493704	119241	896.80	583.56	13	83	-1	13.01	13.01
Saccade L	1	10	7312493704	7312613068	119364	892.91	576.22	667.48	461.10	4.70	163.30	1.00	39.38	3991.31	-3761.32	1462.07
Saccade R	1	10	7312493704	7312613068	119364	892.91	576.22	667.48	461.10	4.70	163.30	1.00	39.38	3991.31	-3761.32	1462.07
Fixation L	1	11	7312613068	7312792067	178999	669.10	425.59	11	49	-1	12.25	12.25
Fixation R	1	11	7312613068	7312792067	178999	669.10	425.59	11	49	-1	12.47	12.47
Saccade L	1	11	7312792067	7312811927	19860	665.93	415.16	548.52	407.46	0.81	119.02	1.00	40.99	2719.66	-2744.88	1909.62
Saccade R	1	11	7312792067	7312811927	19860	665.93	415.16	548.52	407.46	0.81	119.02	1.00	40.99	2719.66	-2744.88	1909.62
Fixation L	1	12	7312811927	7312990917	178990	525.07	378.98	34	47	-1	11.72	11.72
Fixation R	1	12	7312811927	7312990917	178990	525.07	378.98	34	47	-1	12.05	12.05
