[BeGaze]
Converted from:	C:\Documents and Settings\iViewX\Desktop\EXPERIMENTATIONS\Experiments\results\finaleart\S4120113-finaleart-1.idf
Date:	27.03.2019 15:34:50
Version:	BeGaze 2.5.77
Sample Rate:	50
Subject:	S4120113
Description:	Vidal Attias

Table Header for Fixations:
Event Type	Trial	Number	Start	End	Duration	Location X	Location Y	Dispersion X	Dispersion Y	Plane	Avg. Pupil Size X	Avg. Pupil Size Y

Table Header for Saccades:
Event Type	Trial	Number	Start	End	Duration	Start Loc.X	Start Loc.Y	End Loc.X	End Loc.Y	Amplitude	Peak Speed	Peak Speed At	Average Speed	Peak Accel.	Peak Decel.	Average Accel.

Table Header for Blinks:
Event Type	Trial	Number	Start	End	Duration

Table Header for User Events:
Event Type	Trial	Number	Start	Description

UserEvent	1	1	8043587475	# Message: void.jpg
Saccade L	1	1	8043588863	8043708225	119362	1003.08	738.68	738.81	742.59	4.32	150.54	0.83	36.20	3678.60	-3658.30	1582.36
Saccade R	1	1	8043588863	8043708225	119362	1003.08	738.68	738.81	742.59	4.32	150.54	0.83	36.20	3678.60	-3658.30	1582.36
Fixation L	1	1	8043708225	8043867325	159100	742.52	768.04	6	47	-1	12.64	12.64
Fixation R	1	1	8043708225	8043867325	159100	742.52	768.04	6	47	-1	13.12	13.12
Saccade L	1	2	8043867325	8043907077	39752	745.64	776.85	580.34	854.03	2.00	117.26	1.00	50.36	2826.09	-2758.47	1876.99
Saccade R	1	2	8043867325	8043907077	39752	745.64	776.85	580.34	854.03	2.00	117.26	1.00	50.36	2826.09	-2758.47	1876.99
Fixation L	1	2	8043907077	8044026451	119374	571.71	886.59	15	48	-1	12.34	12.34
Fixation R	1	2	8043907077	8044026451	119374	571.71	886.59	15	48	-1	13.55	13.55
Saccade L	1	3	8044026451	8044125803	99352	568.04	890.04	973.07	800.26	6.03	131.45	0.60	60.68	3142.22	-2468.53	1646.38
Saccade R	1	3	8044026451	8044125803	99352	568.04	890.04	973.07	800.26	6.03	131.45	0.60	60.68	3142.22	-2468.53	1646.38
Fixation L	1	3	8044125803	8044782274	656471	988.03	763.19	24	65	-1	11.93	11.93
Fixation R	1	3	8044125803	8044782274	656471	988.03	763.19	24	65	-1	12.51	12.51
Saccade L	1	4	8044782274	8044881646	99372	993.26	776.34	986.67	523.49	4.13	98.70	1.00	41.54	2425.57	-2354.81	1550.44
Saccade R	1	4	8044782274	8044881646	99372	993.26	776.34	986.67	523.49	4.13	98.70	1.00	41.54	2425.57	-2354.81	1550.44
Fixation L	1	4	8044881646	8045040761	159115	969.55	476.62	26	72	-1	12.85	12.85
Fixation R	1	4	8044881646	8045040761	159115	969.55	476.62	26	72	-1	13.06	13.06
Saccade L	1	5	8045040761	8045060625	19864	959.84	461.33	958.77	476.80	0.22	15.69	1.00	11.13	301.09	-1.63	137.85
Saccade R	1	5	8045040761	8045060625	19864	959.84	461.33	958.77	476.80	0.22	15.69	1.00	11.13	301.09	-1.63	137.85
Fixation L	1	5	8045060625	8045577852	517227	946.99	476.14	21	49	-1	13.13	13.13
Fixation R	1	5	8045060625	8045577852	517227	946.99	476.14	21	49	-1	13.21	13.21
