[BeGaze]
Converted from:	C:\Documents and Settings\iViewX\Desktop\EXPERIMENTATIONS\Experiments\results\finaleart\S4120113-finaleart-1.idf
Date:	27.03.2019 15:34:22
Version:	BeGaze 2.5.77
Sample Rate:	50
Subject:	S4120113
Description:	Vidal Attias

Table Header for Fixations:
Event Type	Trial	Number	Start	End	Duration	Location X	Location Y	Dispersion X	Dispersion Y	Plane	Avg. Pupil Size X	Avg. Pupil Size Y

Table Header for Saccades:
Event Type	Trial	Number	Start	End	Duration	Start Loc.X	Start Loc.Y	End Loc.X	End Loc.Y	Amplitude	Peak Speed	Peak Speed At	Average Speed	Peak Accel.	Peak Decel.	Average Accel.

Table Header for Blinks:
Event Type	Trial	Number	Start	End	Duration

Table Header for User Events:
Event Type	Trial	Number	Start	Description

UserEvent	1	1	6373620832	# Message: void.jpg
Fixation L	1	1	6373625648	6373745051	119403	836.22	822.52	17	81	-1	12.51	12.51
Fixation R	1	1	6373625648	6373745051	119403	836.22	822.52	17	81	-1	12.47	12.47
Saccade L	1	1	6373745051	6373765007	19956	827.72	874.27	818.00	877.49	0.30	23.67	1.00	15.25	8.13	-332.78	150.10
Saccade R	1	1	6373745051	6373765007	19956	827.72	874.27	818.00	877.49	0.30	23.67	1.00	15.25	8.13	-332.78	150.10
Fixation L	1	2	6373765007	6374083121	318114	799.48	884.86	26	18	-1	12.25	12.25
Fixation R	1	2	6373765007	6374083121	318114	799.48	884.86	26	18	-1	12.63	12.63
Blink L	1	1	6374083121	6374480977	397856
Blink R	1	1	6374083121	6374480977	397856
Fixation L	1	3	6374480977	6374679817	198840	999.14	545.73	26	68	-1	13.04	13.04
Fixation R	1	3	6374480977	6374679817	198840	999.14	545.73	26	68	-1	12.25	12.25
Saccade L	1	2	6374679817	6374699708	19891	990.20	541.55	983.02	568.12	0.36	27.84	1.00	18.27	319.17	-606.41	464.46
Saccade R	1	2	6374679817	6374699708	19891	990.20	541.55	983.02	568.12	0.36	27.84	1.00	18.27	319.17	-606.41	464.46
Fixation L	1	4	6374699708	6375037808	338100	984.76	531.81	7	89	-1	11.72	11.72
Fixation R	1	4	6374699708	6375037808	338100	984.76	531.81	7	89	-1	10.92	10.92
Saccade L	1	3	6375037808	6375057677	19869	986.50	499.64	987.76	471.19	0.33	28.82	1.00	16.76	600.10	-436.22	419.82
Saccade R	1	3	6375037808	6375057677	19869	986.50	499.64	987.76	471.19	0.33	28.82	1.00	16.76	600.10	-436.22	419.82
Fixation L	1	5	6375057677	6375674263	616586	986.52	495.04	11	42	-1	11.56	11.56
Fixation R	1	5	6375057677	6375674263	616586	986.52	495.04	11	42	-1	10.69	10.69
