[BeGaze]
Converted from:	C:\Documents and Settings\iViewX\Desktop\EXPERIMENTATIONS\Experiments\results\finaleart\S4120113-finaleart-1.idf
Date:	27.03.2019 15:34:52
Version:	BeGaze 2.5.77
Sample Rate:	50
Subject:	S4120113
Description:	Vidal Attias

Table Header for Fixations:
Event Type	Trial	Number	Start	End	Duration	Location X	Location Y	Dispersion X	Dispersion Y	Plane	Avg. Pupil Size X	Avg. Pupil Size Y

Table Header for Saccades:
Event Type	Trial	Number	Start	End	Duration	Start Loc.X	Start Loc.Y	End Loc.X	End Loc.Y	Amplitude	Peak Speed	Peak Speed At	Average Speed	Peak Accel.	Peak Decel.	Average Accel.

Table Header for Blinks:
Event Type	Trial	Number	Start	End	Duration

Table Header for User Events:
Event Type	Trial	Number	Start	Description

UserEvent	1	1	8107244334	# Message: Turner-snow-storm-boat-off-a-harbours-mouth-1842.jpg
Fixation L	1	1	8107256008	8107852710	596702	1035.62	493.73	17	27	-1	15.75	15.75
Fixation R	1	1	8107256008	8107852710	596702	1035.62	493.73	17	27	-1	15.31	15.31
Saccade L	1	1	8107852710	8107872585	19875	1036.77	490.44	1143.15	528.73	0.65	114.36	1.00	32.51	2749.93	-2252.44	1669.66
Saccade R	1	1	8107852710	8107872585	19875	1036.77	490.44	1143.15	528.73	0.65	114.36	1.00	32.51	2749.93	-2252.44	1669.66
Fixation L	1	2	8107872585	8108051572	178987	1146.35	557.09	14	52	-1	13.16	13.16
Fixation R	1	2	8107872585	8108051572	178987	1146.35	557.09	14	52	-1	12.72	12.72
Saccade L	1	2	8108051572	8108071453	19881	1145.51	581.37	1146.18	768.92	1.19	189.66	1.00	60.05	4545.20	-4257.93	3124.07
Saccade R	1	2	8108051572	8108071453	19881	1145.51	581.37	1146.18	768.92	1.19	189.66	1.00	60.05	4545.20	-4257.93	3124.07
Fixation L	1	3	8108071453	8108787538	716085	1146.25	740.09	12	46	-1	12.62	12.62
Fixation R	1	3	8108071453	8108787538	716085	1146.25	740.09	12	46	-1	12.06	12.06
Saccade L	1	3	8108787538	8108827282	39744	1151.56	734.87	1494.09	727.81	3.05	202.12	0.50	76.67	4947.51	-4639.45	3996.30
Saccade R	1	3	8108787538	8108827282	39744	1151.56	734.87	1494.09	727.81	3.05	202.12	0.50	76.67	4947.51	-4639.45	3996.30
Fixation L	1	4	8108827282	8109026131	198849	1471.56	720.61	30	36	-1	13.32	13.32
Fixation R	1	4	8108827282	8109026131	198849	1471.56	720.61	30	36	-1	12.24	12.24
Saccade L	1	4	8109026131	8109046023	19892	1469.55	702.05	1479.28	644.02	0.46	59.52	1.00	23.22	1327.22	-564.75	773.74
Saccade R	1	4	8109026131	8109046023	19892	1469.55	702.05	1479.28	644.02	0.46	59.52	1.00	23.22	1327.22	-564.75	773.74
Fixation L	1	5	8109046023	8109185247	139224	1489.81	625.71	17	38	-1	13.23	13.23
Fixation R	1	5	8109046023	8109185247	139224	1489.81	625.71	17	38	-1	12.30	12.30
Saccade L	1	5	8109185247	8109205134	19887	1496.40	608.90	1490.14	509.15	0.67	101.10	1.00	33.48	2408.52	-2304.70	1651.30
Saccade R	1	5	8109185247	8109205134	19887	1496.40	608.90	1490.14	509.15	0.67	101.10	1.00	33.48	2408.52	-2304.70	1651.30
Fixation L	1	6	8109205134	8109443868	238734	1492.09	491.08	22	40	-1	12.93	12.93
Fixation R	1	6	8109205134	8109443868	238734	1492.09	491.08	22	40	-1	12.08	12.08
Saccade L	1	6	8109443868	8109463738	19870	1507.87	469.02	1581.68	436.29	0.73	81.67	1.00	36.56	2014.10	-1143.40	1156.50
Saccade R	1	6	8109443868	8109463738	19870	1507.87	469.02	1581.68	436.29	0.73	81.67	1.00	36.56	2014.10	-1143.40	1156.50
Fixation L	1	7	8109463738	8109662603	198865	1584.46	412.12	49	35	-1	13.14	13.14
Fixation R	1	7	8109463738	8109662603	198865	1584.46	412.12	49	35	-1	12.23	12.23
Saccade L	1	7	8109662603	8109702473	39870	1578.56	411.52	1220.00	328.16	3.26	228.49	0.50	81.86	5647.21	-4988.99	4428.47
Saccade R	1	7	8109662603	8109702473	39870	1578.56	411.52	1220.00	328.16	3.26	228.49	0.50	81.86	5647.21	-4988.99	4428.47
Fixation L	1	8	8109702473	8109861597	159124	1204.34	300.36	23	39	-1	13.16	13.16
Fixation R	1	8	8109702473	8109861597	159124	1204.34	300.36	23	39	-1	12.24	12.24
Saccade L	1	8	8109861597	8109901350	39753	1204.55	290.18	1029.12	692.57	3.91	314.22	1.00	98.35	7698.93	-7374.77	5190.25
Saccade R	1	8	8109861597	8109901350	39753	1204.55	290.18	1029.12	692.57	3.91	314.22	1.00	98.35	7698.93	-7374.77	5190.25
Fixation L	1	9	8109901350	8110179826	278476	1033.79	665.29	11	49	-1	13.23	13.23
Fixation R	1	9	8109901350	8110179826	278476	1033.79	665.29	11	49	-1	12.80	12.80
Saccade L	1	9	8110179826	8110219570	39744	1040.40	647.02	1065.48	753.54	1.37	78.54	0.50	34.54	1756.46	-1067.78	841.06
Saccade R	1	9	8110179826	8110219570	39744	1040.40	647.02	1065.48	753.54	1.37	78.54	0.50	34.54	1756.46	-1067.78	841.06
Fixation L	1	10	8110219570	8110338953	119383	1084.62	730.51	27	71	-1	12.69	12.69
Fixation R	1	10	8110219570	8110338953	119383	1084.62	730.51	27	71	-1	12.27	12.27
Saccade L	1	10	8110338953	8110358814	19861	1083.54	746.47	1095.98	736.13	0.35	22.54	0.00	17.53	311.89	-94.95	168.00
Saccade R	1	10	8110338953	8110358814	19861	1083.54	746.47	1095.98	736.13	0.35	22.54	0.00	17.53	311.89	-94.95	168.00
Fixation L	1	11	8110358814	8110875907	517093	1087.75	744.98	17	37	-1	12.49	12.49
Fixation R	1	11	8110358814	8110875907	517093	1087.75	744.98	17	37	-1	11.97	11.97
Saccade L	1	11	8110875907	8110915651	39744	1088.55	761.04	852.67	702.97	2.22	136.70	1.00	55.86	3204.67	-3278.64	2828.43
Saccade R	1	11	8110875907	8110915651	39744	1088.55	761.04	852.67	702.97	2.22	136.70	1.00	55.86	3204.67	-3278.64	2828.43
Fixation L	1	12	8110915651	8111074765	159114	837.26	700.42	19	41	-1	12.82	12.82
Fixation R	1	12	8110915651	8111074765	159114	837.26	700.42	19	41	-1	12.44	12.44
Saccade L	1	12	8111074765	8111094772	20007	835.60	677.08	710.58	656.61	0.84	128.13	1.00	42.10	2703.03	-2796.74	1910.04
Saccade R	1	12	8111074765	8111094772	20007	835.60	677.08	710.58	656.61	0.84	128.13	1.00	42.10	2703.03	-2796.74	1910.04
Fixation L	1	13	8111094772	8111233876	139104	691.08	643.18	25	23	-1	12.55	12.55
Fixation R	1	13	8111094772	8111233876	139104	691.08	643.18	25	23	-1	12.51	12.51
