[BeGaze]
Converted from:	C:\Documents and Settings\iViewX\Desktop\EXPERIMENTATIONS\Experiments\results\finaleart\S4120113-finaleart-1.idf
Date:	27.03.2019 15:34:43
Version:	BeGaze 2.5.77
Sample Rate:	50
Subject:	S4120113
Description:	Vidal Attias

Table Header for Fixations:
Event Type	Trial	Number	Start	End	Duration	Location X	Location Y	Dispersion X	Dispersion Y	Plane	Avg. Pupil Size X	Avg. Pupil Size Y

Table Header for Saccades:
Event Type	Trial	Number	Start	End	Duration	Start Loc.X	Start Loc.Y	End Loc.X	End Loc.Y	Amplitude	Peak Speed	Peak Speed At	Average Speed	Peak Accel.	Peak Decel.	Average Accel.

Table Header for Blinks:
Event Type	Trial	Number	Start	End	Duration

Table Header for User Events:
Event Type	Trial	Number	Start	Description

UserEvent	1	1	7713994276	# Message: void.jpg
Fixation L	1	1	7714002369	7714439958	437589	1210.00	356.37	12	55	-1	12.20	12.20
Fixation R	1	1	7714002369	7714439958	437589	1210.00	356.37	12	55	-1	13.69	13.69
Blink L	1	1	7714439958	7714559331	119373
Blink R	1	1	7714439958	7714559331	119373
Saccade L	1	1	7714559331	7714599076	39745	1197.49	519.95	1201.91	401.14	11.48	1301.15	1.00	288.87	2368.40	-32129.75	9268.14
Saccade R	1	1	7714559331	7714599076	39745	1197.49	519.95	1201.91	401.14	11.48	1301.15	1.00	288.87	2368.40	-32129.75	9268.14
Fixation L	1	2	7714599076	7714996933	397857	1172.96	415.47	42	54	-1	14.21	14.21
Fixation R	1	2	7714599076	7714996933	397857	1172.96	415.47	42	54	-1	13.78	13.78
Saccade L	1	2	7714996933	7715016805	19872	1159.52	439.05	1158.38	442.80	0.08	5.85	1.00	3.87	99.99	-62.82	55.31
Saccade R	1	2	7714996933	7715016805	19872	1159.52	439.05	1158.38	442.80	0.08	5.85	1.00	3.87	99.99	-62.82	55.31
Fixation L	1	3	7715016805	7715295282	278477	1153.54	451.12	12	64	-1	13.85	13.85
Fixation R	1	3	7715016805	7715295282	278477	1153.54	451.12	12	64	-1	13.47	13.47
Saccade L	1	3	7715295282	7715315175	19893	1159.97	402.50	1178.62	387.98	0.79	67.71	1.00	39.82	314.75	-488.12	362.49
Saccade R	1	3	7715295282	7715315175	19893	1159.97	402.50	1178.62	387.98	0.79	67.71	1.00	39.82	314.75	-488.12	362.49
Fixation L	1	4	7715315175	7715494145	178970	1165.82	443.20	17	75	-1	14.49	14.49
Fixation R	1	4	7715315175	7715494145	178970	1165.82	443.20	17	75	-1	14.29	14.29
Saccade L	1	4	7715494145	7715514032	19887	1163.63	463.46	1158.31	475.10	0.16	12.95	1.00	7.84	265.58	-68.93	116.90
Saccade R	1	4	7715494145	7715514032	19887	1163.63	463.46	1158.31	475.10	0.16	12.95	1.00	7.84	265.58	-68.93	116.90
Fixation L	1	5	7715514032	7715812382	298350	1145.37	473.27	71	17	-1	15.06	15.06
Fixation R	1	5	7715514032	7715812382	298350	1145.37	473.27	71	17	-1	14.71	14.71
Saccade L	1	5	7715812382	7715832255	19873	1086.78	468.90	1002.65	470.08	0.80	85.10	1.00	40.44	2081.10	-1984.33	1788.45
Saccade R	1	5	7715812382	7715832255	19873	1086.78	468.90	1002.65	470.08	0.80	85.10	1.00	40.44	2081.10	-1984.33	1788.45
Fixation L	1	6	7715832255	7715991370	159115	1009.71	474.83	11	17	-1	15.24	15.24
Fixation R	1	6	7715832255	7715991370	159115	1009.71	474.83	11	17	-1	15.43	15.43
