[BeGaze]
Converted from:	C:\Documents and Settings\iViewX\Desktop\EXPERIMENTATIONS\Experiments\results\finaleart\S4120113-finaleart-1.idf
Date:	27.03.2019 15:34:26
Version:	BeGaze 2.5.77
Sample Rate:	50
Subject:	S4120113
Description:	Vidal Attias

Table Header for Fixations:
Event Type	Trial	Number	Start	End	Duration	Location X	Location Y	Dispersion X	Dispersion Y	Plane	Avg. Pupil Size X	Avg. Pupil Size Y

Table Header for Saccades:
Event Type	Trial	Number	Start	End	Duration	Start Loc.X	Start Loc.Y	End Loc.X	End Loc.Y	Amplitude	Peak Speed	Peak Speed At	Average Speed	Peak Accel.	Peak Decel.	Average Accel.

Table Header for Blinks:
Event Type	Trial	Number	Start	End	Duration

Table Header for User Events:
Event Type	Trial	Number	Start	Description

UserEvent	1	1	6630269092	# Message: turner-waves-breaking-against-the-wind-1830.jpg
Fixation L	1	1	6630280775	6630658653	377878	1254.13	903.70	21	17	-1	16.33	16.33
Fixation R	1	1	6630280775	6630658653	377878	1254.13	903.70	21	17	-1	15.08	15.08
Saccade L	1	1	6630658653	6630698374	39721	1248.54	902.15	963.82	743.68	3.24	231.98	1.00	81.53	5598.45	-5433.69	3772.79
Saccade R	1	1	6630658653	6630698374	39721	1248.54	902.15	963.82	743.68	3.24	231.98	1.00	81.53	5598.45	-5433.69	3772.79
Fixation L	1	2	6630698374	6630956979	258605	931.91	722.99	51	48	-1	14.46	14.46
Fixation R	1	2	6630698374	6630956979	258605	931.91	722.99	51	48	-1	14.02	14.02
Saccade L	1	2	6630956979	6630976854	19875	933.03	701.94	941.25	693.76	0.13	11.73	1.00	6.79	203.93	-82.11	95.58
Saccade R	1	2	6630956979	6630976854	19875	933.03	701.94	941.25	693.76	0.13	11.73	1.00	6.79	203.93	-82.11	95.58
Fixation L	1	3	6630976854	6631911677	934823	939.93	702.20	19	55	-1	12.52	12.52
Fixation R	1	3	6630976854	6631911677	934823	939.93	702.20	19	55	-1	12.40	12.40
Saccade L	1	3	6631911677	6631951425	39748	930.17	701.01	1099.51	680.48	1.65	89.12	1.00	41.50	2185.30	-1494.09	1771.98
Saccade R	1	3	6631911677	6631951425	39748	930.17	701.01	1099.51	680.48	1.65	89.12	1.00	41.50	2185.30	-1494.09	1771.98
Fixation L	1	4	6631951425	6632727123	775698	1116.19	644.45	25	53	-1	14.60	14.60
Fixation R	1	4	6631951425	6632727123	775698	1116.19	644.45	25	53	-1	14.07	14.07
Saccade L	1	4	6632727123	6632747119	19996	1097.06	648.47	1048.99	661.76	0.48	50.45	1.00	24.15	1049.54	-1118.72	749.69
Saccade R	1	4	6632727123	6632747119	19996	1097.06	648.47	1048.99	661.76	0.48	50.45	1.00	24.15	1049.54	-1118.72	749.69
Fixation L	1	5	6632747119	6632886233	139114	1032.85	662.28	48	32	-1	13.80	13.80
Fixation R	1	5	6632747119	6632886233	139114	1032.85	662.28	48	32	-1	13.18	13.18
Saccade L	1	5	6632886233	6632926118	39885	1067.31	686.54	1473.09	729.77	3.98	273.83	0.50	99.88	6640.17	-6409.00	4583.26
Saccade R	1	5	6632886233	6632926118	39885	1067.31	686.54	1473.09	729.77	3.98	273.83	0.50	99.88	6640.17	-6409.00	4583.26
Fixation L	1	6	6632926118	6633264223	338105	1453.87	763.86	32	50	-1	13.48	13.48
Fixation R	1	6	6632926118	6633264223	338105	1453.87	763.86	32	50	-1	12.54	12.54
Saccade L	1	6	6633264223	6633343699	79476	1444.35	774.22	457.37	651.53	11.63	323.14	0.50	146.29	7905.33	-6480.54	5099.54
Saccade R	1	6	6633264223	6633343699	79476	1444.35	774.22	457.37	651.53	11.63	323.14	0.50	146.29	7905.33	-6480.54	5099.54
Fixation L	1	7	6633343699	6633622187	278488	459.66	647.63	20	35	-1	13.11	13.11
Fixation R	1	7	6633343699	6633622187	278488	459.66	647.63	20	35	-1	13.21	13.21
Saccade L	1	7	6633622187	6633642073	19886	446.72	619.37	433.89	582.33	0.45	39.66	1.00	22.66	917.52	-421.89	459.66
Saccade R	1	7	6633622187	6633642073	19886	446.72	619.37	433.89	582.33	0.45	39.66	1.00	22.66	917.52	-421.89	459.66
Fixation L	1	8	6633642073	6633741568	99495	418.18	577.52	30	34	-1	12.03	12.03
Fixation R	1	8	6633642073	6633741568	99495	418.18	577.52	30	34	-1	12.97	12.97
Saccade L	1	8	6633741568	6633801193	59625	411.90	570.47	415.63	383.67	2.62	70.63	0.67	43.89	1561.35	-1506.30	974.02
Saccade R	1	8	6633741568	6633801193	59625	411.90	570.47	415.63	383.67	2.62	70.63	0.67	43.89	1561.35	-1506.30	974.02
Fixation L	1	9	6633801193	6634159290	358097	409.27	340.52	12	48	-1	11.78	11.78
Fixation R	1	9	6633801193	6634159290	358097	409.27	340.52	12	48	-1	12.66	12.66
Saccade L	1	9	6634159290	6634258645	99355	407.94	339.12	1000.56	425.70	8.84	268.82	0.40	88.94	6573.82	-6480.15	4072.13
Saccade R	1	9	6634159290	6634258645	99355	407.94	339.12	1000.56	425.70	8.84	268.82	0.40	88.94	6573.82	-6480.15	4072.13
