[BeGaze]
Converted from:	C:\Documents and Settings\iViewX\Desktop\EXPERIMENTATIONS\Experiments\results\finaleart\S4120113-finaleart-1.idf
Date:	27.03.2019 15:34:37
Version:	BeGaze 2.5.77
Sample Rate:	50
Subject:	S4120113
Description:	Vidal Attias

Table Header for Fixations:
Event Type	Trial	Number	Start	End	Duration	Location X	Location Y	Dispersion X	Dispersion Y	Plane	Avg. Pupil Size X	Avg. Pupil Size Y

Table Header for Saccades:
Event Type	Trial	Number	Start	End	Duration	Start Loc.X	Start Loc.Y	End Loc.X	End Loc.Y	Amplitude	Peak Speed	Peak Speed At	Average Speed	Peak Accel.	Peak Decel.	Average Accel.

Table Header for Blinks:
Event Type	Trial	Number	Start	End	Duration

Table Header for User Events:
Event Type	Trial	Number	Start	Description

UserEvent	1	1	7253130640	# Message: A_Highland_Landscape_Landseer_1830.jpg
Fixation L	1	1	7253142666	7253798997	656331	937.52	579.31	15	81	-1	14.34	14.34
Fixation R	1	1	7253142666	7253798997	656331	937.52	579.31	15	81	-1	13.81	13.81
Saccade L	1	1	7253798997	7253818868	19871	947.39	645.70	955.31	663.70	0.60	78.41	0.00	30.22	239.30	-1653.81	676.49
Saccade R	1	1	7253798997	7253818868	19871	947.39	645.70	955.31	663.70	0.60	78.41	0.00	30.22	239.30	-1653.81	676.49
Fixation L	1	2	7253818868	7254097363	278495	964.45	678.35	23	36	-1	12.69	12.69
Fixation R	1	2	7253818868	7254097363	278495	964.45	678.35	23	36	-1	12.29	12.29
Saccade L	1	2	7254097363	7254117233	19870	967.36	695.12	960.87	793.23	0.74	99.46	1.00	37.13	2399.54	-1946.59	1482.39
Saccade R	1	2	7254097363	7254117233	19870	967.36	695.12	960.87	793.23	0.74	99.46	1.00	37.13	2399.54	-1946.59	1482.39
Fixation L	1	3	7254117233	7254554833	437600	915.44	784.61	59	32	-1	12.47	12.47
Fixation R	1	3	7254117233	7254554833	437600	915.44	784.61	59	32	-1	12.39	12.39
Saccade L	1	3	7254554833	7254594581	39748	911.38	794.69	735.05	632.41	2.51	177.47	1.00	63.19	4361.88	-4181.12	2912.85
Saccade R	1	3	7254554833	7254594581	39748	911.38	794.69	735.05	632.41	2.51	177.47	1.00	63.19	4361.88	-4181.12	2912.85
Fixation L	1	4	7254594581	7254713947	119366	720.43	589.65	20	57	-1	12.98	12.98
Fixation R	1	4	7254594581	7254713947	119366	720.43	589.65	20	57	-1	12.74	12.74
Saccade L	1	4	7254713947	7254733810	19863	714.72	574.56	698.67	465.59	0.68	111.41	1.00	34.13	2778.46	-2519.06	1820.67
Saccade R	1	4	7254713947	7254733810	19863	714.72	574.56	698.67	465.59	0.68	111.41	1.00	34.13	2778.46	-2519.06	1820.67
Fixation L	1	5	7254733810	7254972554	238744	673.75	477.46	33	18	-1	12.49	12.49
Fixation R	1	5	7254733810	7254972554	238744	673.75	477.46	33	18	-1	12.66	12.66
Saccade L	1	5	7254972554	7255032178	59624	668.15	476.64	990.27	340.67	4.35	195.49	0.67	72.90	4852.70	-3756.83	2512.12
Saccade R	1	5	7254972554	7255032178	59624	668.15	476.64	990.27	340.67	4.35	195.49	0.67	72.90	4852.70	-3756.83	2512.12
Fixation L	1	6	7255032178	7255270904	238726	1005.60	338.14	24	58	-1	12.27	12.27
Fixation R	1	6	7255032178	7255270904	238726	1005.60	338.14	24	58	-1	12.12	12.12
Saccade L	1	6	7255270904	7255310659	39755	1014.71	348.33	1388.79	356.07	3.15	261.07	0.50	79.16	6502.24	-6270.26	4545.70
Saccade R	1	6	7255270904	7255310659	39755	1014.71	348.33	1388.79	356.07	3.15	261.07	0.50	79.16	6502.24	-6270.26	4545.70
Fixation L	1	7	7255310659	7255509540	198881	1376.57	397.50	23	72	-1	12.87	12.87
Fixation R	1	7	7255310659	7255509540	198881	1376.57	397.50	23	72	-1	12.45	12.45
Saccade L	1	7	7255509540	7255529389	19849	1365.28	425.89	1360.08	432.48	0.14	8.49	1.00	6.83	15.21	-127.96	62.86
Saccade R	1	7	7255509540	7255529389	19849	1365.28	425.89	1360.08	432.48	0.14	8.49	1.00	6.83	15.21	-127.96	62.86
Fixation L	1	8	7255529389	7255648755	119366	1359.85	438.36	7	14	-1	13.43	13.43
Fixation R	1	8	7255529389	7255648755	119366	1359.85	438.36	7	14	-1	12.80	12.80
Saccade L	1	8	7255648755	7255688508	39753	1363.32	447.20	1541.34	662.08	2.77	232.59	0.50	69.56	5718.87	-4926.29	3232.32
Saccade R	1	8	7255648755	7255688508	39753	1363.32	447.20	1541.34	662.08	2.77	232.59	0.50	69.56	5718.87	-4926.29	3232.32
Fixation L	1	9	7255688508	7256126096	437588	1535.68	700.31	29	63	-1	13.77	13.77
Fixation R	1	9	7255688508	7256126096	437588	1535.68	700.31	29	63	-1	12.78	12.78
Saccade L	1	9	7256126096	7256205740	79644	1538.33	683.08	1520.91	843.92	2.74	133.96	0.25	34.38	2658.47	-3118.88	1217.02
Saccade R	1	9	7256126096	7256205740	79644	1538.33	683.08	1520.91	843.92	2.74	133.96	0.25	34.38	2658.47	-3118.88	1217.02
Fixation L	1	10	7256205740	7256523966	318226	1497.47	882.90	45	53	-1	14.29	14.29
Fixation R	1	10	7256205740	7256523966	318226	1497.47	882.90	45	53	-1	13.31	13.31
Saccade L	1	10	7256523966	7256563703	39737	1513.19	867.81	1520.30	538.92	3.09	194.85	0.50	77.70	4593.61	-4014.65	3779.07
Saccade R	1	10	7256523966	7256563703	39737	1513.19	867.81	1520.30	538.92	3.09	194.85	0.50	77.70	4593.61	-4014.65	3779.07
Fixation L	1	11	7256563703	7256842193	278490	1532.83	578.25	23	55	-1	14.63	14.63
Fixation R	1	11	7256563703	7256842193	278490	1532.83	578.25	23	55	-1	13.56	13.56
Saccade L	1	11	7256842193	7256881932	39739	1527.87	578.79	1370.52	479.48	1.90	126.29	0.50	47.87	3073.27	-2657.12	2307.43
Saccade R	1	11	7256842193	7256881932	39739	1527.87	578.79	1370.52	479.48	1.90	126.29	0.50	47.87	3073.27	-2657.12	2307.43
Fixation L	1	12	7256881932	7257140552	258620	1369.02	452.62	17	41	-1	14.56	14.56
Fixation R	1	12	7256881932	7257140552	258620	1369.02	452.62	17	41	-1	14.12	14.12
