[BeGaze]
Converted from:	C:\Documents and Settings\iViewX\Desktop\EXPERIMENTATIONS\Experiments\results\finaleart\S4120113-finaleart-1.idf
Date:	27.03.2019 15:34:31
Version:	BeGaze 2.5.77
Sample Rate:	50
Subject:	S4120113
Description:	Vidal Attias

Table Header for Fixations:
Event Type	Trial	Number	Start	End	Duration	Location X	Location Y	Dispersion X	Dispersion Y	Plane	Avg. Pupil Size X	Avg. Pupil Size Y

Table Header for Saccades:
Event Type	Trial	Number	Start	End	Duration	Start Loc.X	Start Loc.Y	End Loc.X	End Loc.Y	Amplitude	Peak Speed	Peak Speed At	Average Speed	Peak Accel.	Peak Decel.	Average Accel.

Table Header for Blinks:
Event Type	Trial	Number	Start	End	Duration

Table Header for User Events:
Event Type	Trial	Number	Start	Description

UserEvent	1	1	6946286289	# Message: void.jpg
Saccade L	1	1	6946290699	6946549303	258604	784.89	709.98	534.35	224.91	13.18	254.93	0.46	50.97	6224.61	-5436.83	1497.23
Saccade R	1	1	6946290699	6946549303	258604	784.89	709.98	534.35	224.91	13.18	254.93	0.46	50.97	6224.61	-5436.83	1497.23
Fixation L	1	1	6946549303	6946708413	159110	524.93	225.65	17	50	-1	9.39	9.39
Fixation R	1	1	6946549303	6946708413	159110	524.93	225.65	17	50	-1	9.61	9.61
Blink L	1	1	6946708413	6946967037	258624
Blink R	1	1	6946708413	6946967037	258624
Fixation L	1	2	6946967037	6947344882	377845	1014.68	501.92	35	48	-1	11.32	11.32
Fixation R	1	2	6946967037	6947344882	377845	1014.68	501.92	35	48	-1	13.12	13.12
Saccade L	1	2	6947344882	6947384619	39737	1004.70	508.30	903.12	457.01	1.14	97.87	1.00	28.75	2426.94	-1099.39	1034.70
Saccade R	1	2	6947344882	6947384619	39737	1004.70	508.30	903.12	457.01	1.14	97.87	1.00	28.75	2426.94	-1099.39	1034.70
Fixation L	1	3	6947384619	6947722857	338238	895.58	403.89	16	77	-1	10.72	10.72
Fixation R	1	3	6947384619	6947722857	338238	895.58	403.89	16	77	-1	12.51	12.51
Saccade L	1	3	6947722857	6947742727	19870	897.12	397.03	892.39	349.11	0.52	48.72	1.00	26.10	1065.51	-1166.25	1083.88
Saccade R	1	3	6947722857	6947742727	19870	897.12	397.03	892.39	349.11	0.52	48.72	1.00	26.10	1065.51	-1166.25	1083.88
Fixation L	1	4	6947742727	6947921711	178984	898.26	387.90	9	49	-1	10.98	10.98
Fixation R	1	4	6947742727	6947921711	178984	898.26	387.90	9	49	-1	12.71	12.71
Saccade L	1	4	6947921711	6947941594	19883	895.98	392.98	881.89	454.25	0.59	63.59	1.00	29.89	1509.84	-1446.44	1362.50
Saccade R	1	4	6947921711	6947941594	19883	895.98	392.98	881.89	454.25	0.59	63.59	1.00	29.89	1509.84	-1446.44	1362.50
Fixation L	1	5	6947941594	6948279698	338104	891.58	413.97	16	62	-1	11.48	11.48
Fixation R	1	5	6947941594	6948279698	338104	891.58	413.97	16	62	-1	13.17	13.17
