[BeGaze]
Converted from:	C:\Documents and Settings\iViewX\Desktop\EXPERIMENTATIONS\Experiments\results\finaleart\S4120113-finaleart-1.idf
Date:	27.03.2019 15:34:40
Version:	BeGaze 2.5.77
Sample Rate:	50
Subject:	S4120113
Description:	Vidal Attias

Table Header for Fixations:
Event Type	Trial	Number	Start	End	Duration	Location X	Location Y	Dispersion X	Dispersion Y	Plane	Avg. Pupil Size X	Avg. Pupil Size Y

Table Header for Saccades:
Event Type	Trial	Number	Start	End	Duration	Start Loc.X	Start Loc.Y	End Loc.X	End Loc.Y	Amplitude	Peak Speed	Peak Speed At	Average Speed	Peak Accel.	Peak Decel.	Average Accel.

Table Header for Blinks:
Event Type	Trial	Number	Start	End	Duration

Table Header for User Events:
Event Type	Trial	Number	Start	Description

UserEvent	1	1	7344119280	# Message: void.jpg
Saccade L	1	1	7344136052	7344215666	79614	1404.47	466.95	1222.92	642.02	3.70	247.36	1.00	46.47	6120.58	-6093.08	2122.25
Saccade R	1	1	7344136052	7344215666	79614	1404.47	466.95	1222.92	642.02	3.70	247.36	1.00	46.47	6120.58	-6093.08	2122.25
Fixation L	1	1	7344215666	7344394668	179002	1206.34	623.33	22	36	-1	14.46	14.46
Fixation R	1	1	7344215666	7344394668	179002	1206.34	623.33	22	36	-1	13.65	13.65
Saccade L	1	2	7344394668	7344434398	39730	1199.93	616.53	942.74	714.54	2.58	146.13	0.50	64.96	3447.23	-3091.27	3240.93
Saccade R	1	2	7344394668	7344434398	39730	1199.93	616.53	942.74	714.54	2.58	146.13	0.50	64.96	3447.23	-3091.27	3240.93
Fixation L	1	2	7344434398	7344712884	278486	948.31	728.67	20	26	-1	13.63	13.63
Fixation R	1	2	7344434398	7344712884	278486	948.31	728.67	20	26	-1	13.63	13.63
Blink L	1	1	7344712884	7344852130	139246
Saccade R	1	3	7344712884	7344832252	119368	945.61	735.47	809.10	423.42	15.40	364.93	0.67	129.05	7325.42	-6820.18	4108.45
Fixation R	1	3	7344832252	7345031118	198866	812.01	441.51	12	58	-1	9.97	9.97
Fixation L	1	3	7344852130	7345031118	178988	812.30	443.32	12	58	-1	11.31	11.31
Saccade L	1	3	7345031118	7345050997	19879	811.59	460.95	808.49	361.99	1.08	100.14	1.00	54.18	2132.13	-2153.98	2080.79
Fixation L	1	4	7345050997	7345170366	119369	809.75	433.04	3	88	-1	9.49	9.49
Fixation R	1	4	7345090871	7346025686	934815	812.96	485.21	17	81	-1	11.90	11.90
Saccade L	1	4	7345170366	7345190235	19869	810.60	439.27	807.87	464.17	0.21	25.35	1.00	10.76	558.81	-273.21	306.62
Fixation L	1	5	7345190235	7346025686	835451	813.36	490.04	17	78	-1	11.76	11.76
Saccade L	1	5	7346025686	7346105182	79496	820.68	502.30	915.15	502.94	1.89	102.45	0.25	23.77	2341.82	-2404.53	992.30
Saccade R	1	4	7346025686	7346105182	79496	820.68	502.30	915.15	502.94	1.89	102.45	0.25	23.77	2341.82	-2404.53	992.30
