[BeGaze]
Converted from:	C:\Documents and Settings\iViewX\Desktop\EXPERIMENTATIONS\Experiments\results\finaleart\S4120113-finaleart-1.idf
Date:	27.03.2019 15:34:40
Version:	BeGaze 2.5.77
Sample Rate:	50
Subject:	S4120113
Description:	Vidal Attias

Table Header for Fixations:
Event Type	Trial	Number	Start	End	Duration	Location X	Location Y	Dispersion X	Dispersion Y	Plane	Avg. Pupil Size X	Avg. Pupil Size Y

Table Header for Saccades:
Event Type	Trial	Number	Start	End	Duration	Start Loc.X	Start Loc.Y	End Loc.X	End Loc.Y	Amplitude	Peak Speed	Peak Speed At	Average Speed	Peak Accel.	Peak Decel.	Average Accel.

Table Header for Blinks:
Event Type	Trial	Number	Start	End	Duration

Table Header for User Events:
Event Type	Trial	Number	Start	Description

UserEvent	1	1	7327663596	# Message: Rapids_on_the_Petite_Creuse_at_Fresselines_Monet_1889.jpg
Fixation L	1	1	7327667420	7328204380	536960	1126.23	539.33	22	46	-1	10.58	10.58
Fixation R	1	1	7327667420	7328204380	536960	1126.23	539.33	22	46	-1	12.38	12.38
Saccade L	1	1	7328204380	7328224252	19872	1114.50	544.11	1044.86	577.72	0.65	78.22	1.00	32.85	1465.54	-1591.44	1199.50
Saccade R	1	1	7328204380	7328224252	19872	1114.50	544.11	1044.86	577.72	0.65	78.22	1.00	32.85	1465.54	-1591.44	1199.50
Fixation L	1	2	7328224252	7328423245	198993	1042.59	547.37	30	39	-1	9.87	9.87
Fixation R	1	2	7328224252	7328423245	198993	1042.59	547.37	30	39	-1	11.71	11.71
Saccade L	1	2	7328423245	7328542486	119241	1039.19	543.99	944.06	551.28	3.77	81.73	0.17	31.64	1956.30	-862.33	755.84
Saccade R	1	2	7328423245	7328482865	59620	1039.19	543.99	950.96	508.92	1.96	81.73	0.33	32.88	1956.30	-862.33	1008.32
Fixation R	1	3	7328482865	7328681729	198864	936.08	540.90	22	56	-1	10.89	10.89
Fixation L	1	3	7328602248	7328900585	298337	929.06	557.82	17	73	-1	11.16	11.16
Saccade R	1	3	7328681729	7328701602	19873	931.19	563.97	928.99	591.86	0.53	28.29	1.00	26.50	49.61	-504.13	192.98
Fixation R	1	4	7328701602	7328900585	198983	927.68	561.40	17	53	-1	11.10	11.10
Saccade L	1	3	7328900585	7328920462	19877	917.40	538.91	818.16	542.48	0.72	100.45	1.00	35.98	2088.56	-2318.83	1626.01
Saccade R	1	4	7328900585	7328920462	19877	917.40	538.91	818.16	542.48	0.72	100.45	1.00	35.98	2088.56	-2318.83	1626.01
Fixation L	1	4	7328920462	7329497173	576711	811.30	541.61	16	44	-1	11.15	11.15
Fixation R	1	5	7328920462	7329497173	576711	811.30	541.61	16	44	-1	11.51	11.51
Saccade L	1	4	7329497173	7329517194	20021	809.57	549.77	812.93	477.17	0.65	73.52	1.00	32.52	1645.33	-1572.50	1117.46
Saccade R	1	5	7329497173	7329517194	20021	809.57	549.77	812.93	477.17	0.65	73.52	1.00	32.52	1645.33	-1572.50	1117.46
Fixation L	1	5	7329517194	7329656289	139095	812.71	448.78	5	43	-1	11.06	11.06
Fixation R	1	6	7329517194	7329656289	139095	812.71	448.78	5	43	-1	11.39	11.39
Saccade L	1	5	7329656289	7329696167	39878	815.10	448.04	955.95	369.05	2.64	148.64	1.00	66.26	3545.32	-3097.39	2875.50
Saccade R	1	6	7329656289	7329696167	39878	815.10	448.04	955.95	369.05	2.64	148.64	1.00	66.26	3545.32	-3097.39	2875.50
Fixation L	1	6	7329696167	7329895035	198868	970.73	335.98	28	62	-1	11.12	11.12
Fixation R	1	7	7329696167	7329895035	198868	970.73	335.98	28	62	-1	11.21	11.21
Saccade L	1	6	7329895035	7329914901	19866	984.20	310.10	1226.57	321.19	1.57	245.30	1.00	78.87	5463.58	-5782.43	3851.84
Saccade R	1	7	7329895035	7329914901	19866	984.20	310.10	1226.57	321.19	1.57	245.30	1.00	78.87	5463.58	-5782.43	3851.84
Fixation L	1	7	7329914901	7330093895	178994	1246.04	311.70	33	22	-1	11.12	11.12
Fixation R	1	8	7329914901	7330093895	178994	1246.04	311.70	33	22	-1	11.05	11.05
Saccade L	1	7	7330093895	7330113772	19877	1260.40	313.18	1489.84	417.70	1.55	254.89	1.00	78.11	6260.94	-6249.21	4443.83
Saccade R	1	8	7330093895	7330113772	19877	1260.40	313.18	1489.84	417.70	1.55	254.89	1.00	78.11	6260.94	-6249.21	4443.83
Fixation L	1	8	7330113772	7330233135	119363	1529.05	431.54	64	34	-1	11.35	11.35
Fixation R	1	9	7330113772	7330233135	119363	1529.05	431.54	64	34	-1	11.29	11.29
Saccade L	1	8	7330233135	7330253004	19869	1554.40	410.19	1557.87	422.20	0.31	25.03	0.00	15.53	-56.68	-387.76	219.64
Saccade R	1	9	7330233135	7330253004	19869	1554.40	410.19	1557.87	422.20	0.31	25.03	0.00	15.53	-56.68	-387.76	219.64
Fixation L	1	9	7330253004	7330809981	556977	1545.55	439.17	24	51	-1	11.82	11.82
Fixation R	1	10	7330253004	7330809981	556977	1545.55	439.17	24	51	-1	11.25	11.25
Saccade L	1	9	7330809981	7330869607	59626	1543.45	444.47	1379.48	676.36	3.44	211.86	0.67	57.66	5283.42	-3965.40	2398.14
Saccade R	1	10	7330809981	7330869607	59626	1543.45	444.47	1379.48	676.36	3.44	211.86	0.67	57.66	5283.42	-3965.40	2398.14
Fixation L	1	10	7330869607	7331108326	238719	1352.50	687.99	45	30	-1	12.39	12.39
Fixation R	1	11	7330869607	7331108326	238719	1352.50	687.99	45	30	-1	11.77	11.77
Saccade L	1	10	7331108326	7331148080	39754	1350.50	692.39	1280.57	842.60	1.96	95.59	1.00	49.32	1962.01	-2253.23	1779.19
Saccade R	1	11	7331108326	7331148080	39754	1350.50	692.39	1280.57	842.60	1.96	95.59	1.00	49.32	1962.01	-2253.23	1779.19
Fixation L	1	11	7331148080	7331665174	517094	1253.13	827.64	34	31	-1	11.97	11.97
Fixation R	1	12	7331148080	7331665174	517094	1253.13	827.64	34	31	-1	11.34	11.34
