[BeGaze]
Converted from:	C:\Documents and Settings\iViewX\Desktop\EXPERIMENTATIONS\Experiments\results\finaleart\S4120113-finaleart-1.idf
Date:	27.03.2019 15:34:45
Version:	BeGaze 2.5.77
Sample Rate:	50
Subject:	S4120113
Description:	Vidal Attias

Table Header for Fixations:
Event Type	Trial	Number	Start	End	Duration	Location X	Location Y	Dispersion X	Dispersion Y	Plane	Avg. Pupil Size X	Avg. Pupil Size Y

Table Header for Saccades:
Event Type	Trial	Number	Start	End	Duration	Start Loc.X	Start Loc.Y	End Loc.X	End Loc.Y	Amplitude	Peak Speed	Peak Speed At	Average Speed	Peak Accel.	Peak Decel.	Average Accel.

Table Header for Blinks:
Event Type	Trial	Number	Start	End	Duration

Table Header for User Events:
Event Type	Trial	Number	Start	Description

UserEvent	1	1	7771374327	# Message: the-reclining-shepherdess_morisot_1891.jpg
Fixation L	1	1	7771384406	7772020858	636452	1067.48	679.53	29	68	-1	13.88	13.88
Fixation R	1	1	7771384406	7772020858	636452	1067.48	679.53	29	68	-1	13.74	13.74
Saccade L	1	1	7772020858	7772060730	39872	1083.48	664.78	1329.20	529.21	2.72	211.06	0.50	68.15	4931.11	-4858.35	3274.52
Saccade R	1	1	7772020858	7772060730	39872	1083.48	664.78	1329.20	529.21	2.72	211.06	0.50	68.15	4931.11	-4858.35	3274.52
Fixation L	1	2	7772060730	7772736941	676211	1320.15	527.69	24	25	-1	10.96	10.96
Fixation R	1	2	7772060730	7772736941	676211	1320.15	527.69	24	25	-1	10.35	10.35
Saccade L	1	2	7772736941	7772756831	19890	1317.06	529.97	1074.19	683.42	1.78	290.37	1.00	89.64	7222.32	-7046.76	5071.88
Saccade R	1	2	7772736941	7772756831	19890	1317.06	529.97	1074.19	683.42	1.78	290.37	1.00	89.64	7222.32	-7046.76	5071.88
Fixation L	1	3	7772756831	7773075053	318222	1028.93	702.63	55	43	-1	12.10	12.10
Fixation R	1	3	7772756831	7773075053	318222	1028.93	702.63	55	43	-1	12.05	12.05
Saccade L	1	3	7773075053	7773094924	19871	1023.93	717.30	1015.78	725.59	0.19	11.75	1.00	9.79	102.47	-33.54	48.33
Saccade R	1	3	7773075053	7773094924	19871	1023.93	717.30	1015.78	725.59	0.19	11.75	1.00	9.79	102.47	-33.54	48.33
Fixation L	1	4	7773094924	7773433029	338105	1013.16	728.63	11	24	-1	12.62	12.62
Fixation R	1	4	7773094924	7773433029	338105	1013.16	728.63	11	24	-1	12.83	12.83
Saccade L	1	4	7773433029	7773472905	39876	1013.19	725.32	1361.00	500.38	3.82	244.77	1.00	95.69	5927.57	-5827.25	4789.55
Saccade R	1	4	7773433029	7773472905	39876	1013.19	725.32	1361.00	500.38	3.82	244.77	1.00	95.69	5927.57	-5827.25	4789.55
Fixation L	1	5	7773472905	7774089482	616577	1388.65	495.70	49	46	-1	12.89	12.89
Fixation R	1	5	7773472905	7774089482	616577	1388.65	495.70	49	46	-1	12.69	12.69
Saccade L	1	5	7774089482	7774109363	19881	1382.54	518.64	1247.78	713.28	1.34	239.35	1.00	67.38	5944.03	-5732.59	4055.47
Saccade R	1	5	7774089482	7774109363	19881	1382.54	518.64	1247.78	713.28	1.34	239.35	1.00	67.38	5944.03	-5732.59	4055.47
Fixation L	1	6	7774109363	7774367846	258483	1240.82	722.66	11	31	-1	13.75	13.75
Fixation R	1	6	7774109363	7774367846	258483	1240.82	722.66	11	31	-1	13.08	13.08
Saccade L	1	6	7774367846	7774427605	59759	1237.79	715.96	565.31	809.35	7.28	297.20	0.67	121.87	7106.26	-7130.73	4752.77
Saccade R	1	6	7774367846	7774427605	59759	1237.79	715.96	565.31	809.35	7.28	297.20	0.67	121.87	7106.26	-7130.73	4752.77
Fixation L	1	7	7774427605	7774825312	397707	576.43	827.71	29	30	-1	12.37	12.37
Fixation R	1	7	7774427605	7774825312	397707	576.43	827.71	29	30	-1	12.88	12.88
Saccade L	1	7	7774825312	7774885067	59755	583.82	824.82	1373.21	550.43	8.88	339.23	0.67	148.53	8285.01	-8018.10	5800.62
Saccade R	1	7	7774825312	7774885067	59755	583.82	824.82	1373.21	550.43	8.88	339.23	0.67	148.53	8285.01	-8018.10	5800.62
Fixation L	1	8	7774885067	7775064048	178981	1384.68	525.72	17	43	-1	12.12	12.12
Fixation R	1	8	7774885067	7775064048	178981	1384.68	525.72	17	43	-1	12.27	12.27
Saccade L	1	8	7775064048	7775083931	19883	1379.31	522.91	1421.14	468.96	0.55	69.05	1.00	27.46	1520.08	-1598.20	1210.21
Saccade R	1	8	7775064048	7775083931	19883	1379.31	522.91	1421.14	468.96	0.55	69.05	1.00	27.46	1520.08	-1598.20	1210.21
Fixation L	1	9	7775083931	7775402161	318230	1450.90	467.30	44	24	-1	12.21	12.21
Fixation R	1	9	7775083931	7775402161	318230	1450.90	467.30	44	24	-1	11.60	11.60
