[BeGaze]
Converted from:	C:\Documents and Settings\iViewX\Desktop\EXPERIMENTATIONS\Experiments\results\finaleart\S4120113-finaleart-1.idf
Date:	27.03.2019 15:34:24
Version:	BeGaze 2.5.77
Sample Rate:	50
Subject:	S4120113
Description:	Vidal Attias

Table Header for Fixations:
Event Type	Trial	Number	Start	End	Duration	Location X	Location Y	Dispersion X	Dispersion Y	Plane	Avg. Pupil Size X	Avg. Pupil Size Y

Table Header for Saccades:
Event Type	Trial	Number	Start	End	Duration	Start Loc.X	Start Loc.Y	End Loc.X	End Loc.Y	Amplitude	Peak Speed	Peak Speed At	Average Speed	Peak Accel.	Peak Decel.	Average Accel.

Table Header for Blinks:
Event Type	Trial	Number	Start	End	Duration

Table Header for User Events:
Event Type	Trial	Number	Start	Description

UserEvent	1	1	6574885922	# Message: cross-La-fuite-des-nymphes-1906.jpg
Fixation L	1	1	6574887760	6575404829	517069	996.98	441.48	24	59	-1	11.55	11.55
Fixation R	1	1	6574887760	6575404829	517069	996.98	441.48	24	59	-1	11.91	11.91
Saccade L	1	1	6575404829	6575424739	19910	1012.13	477.28	1034.17	491.91	0.49	31.00	0.00	24.83	105.51	-299.02	145.24
Saccade R	1	1	6575404829	6575424739	19910	1012.13	477.28	1034.17	491.91	0.49	31.00	0.00	24.83	105.51	-299.02	145.24
Fixation L	1	2	6575424739	6575663445	238706	1063.89	487.86	52	28	-1	9.78	9.78
Fixation R	1	2	6575424739	6575663445	238706	1063.89	487.86	52	28	-1	9.58	9.58
Saccade L	1	2	6575663445	6575683325	19880	1068.67	482.80	960.29	494.18	0.63	110.22	1.00	31.93	2620.48	-2276.06	1705.96
Saccade R	1	2	6575663445	6575683325	19880	1068.67	482.80	960.29	494.18	0.63	110.22	1.00	31.93	2620.48	-2276.06	1705.96
Fixation L	1	3	6575683325	6576021423	338098	958.04	522.53	16	73	-1	8.96	8.96
Fixation R	1	3	6575683325	6576021423	338098	958.04	522.53	16	73	-1	8.97	8.97
Saccade L	1	3	6576021423	6576061163	39740	954.07	564.74	585.67	546.87	3.78	189.52	1.00	95.15	3743.00	-4502.75	3961.37
Saccade R	1	3	6576021423	6576061163	39740	954.07	564.74	585.67	546.87	3.78	189.52	1.00	95.15	3743.00	-4502.75	3961.37
Fixation L	1	4	6576061163	6576478886	417723	578.09	553.09	12	57	-1	8.37	8.37
Fixation R	1	4	6576061163	6576478886	417723	578.09	553.09	12	57	-1	9.69	9.69
Saccade L	1	4	6576478886	6576498766	19880	576.65	566.65	719.36	559.96	1.09	144.50	1.00	54.61	3328.34	-2650.74	2085.84
Saccade R	1	4	6576478886	6576498766	19880	576.65	566.65	719.36	559.96	1.09	144.50	1.00	54.61	3328.34	-2650.74	2085.84
Fixation L	1	5	6576498766	6576657876	159110	739.50	528.03	25	65	-1	9.11	9.11
Fixation R	1	5	6576498766	6576657876	159110	739.50	528.03	25	65	-1	9.85	9.85
Saccade L	1	5	6576657876	6576677758	19882	739.88	500.12	740.79	478.29	0.40	22.11	1.00	19.97	182.21	-340.58	177.61
Saccade R	1	5	6576657876	6576677758	19882	739.88	500.12	740.79	478.29	0.40	22.11	1.00	19.97	182.21	-340.58	177.61
Fixation L	1	6	6576677758	6576797125	119367	744.07	504.02	25	45	-1	9.00	9.00
Fixation R	1	6	6576677758	6576797125	119367	744.07	504.02	25	45	-1	10.19	10.19
Saccade L	1	6	6576797125	6576816998	19873	763.94	523.51	956.92	671.32	1.68	245.76	1.00	84.52	5876.08	-5095.52	3742.92
Saccade R	1	6	6576797125	6576816998	19873	763.94	523.51	956.92	671.32	1.68	245.76	1.00	84.52	5876.08	-5095.52	3742.92
Fixation L	1	7	6576816998	6576956242	139244	959.81	664.46	25	62	-1	9.67	9.67
Fixation R	1	7	6576816998	6576956242	139244	959.81	664.46	25	62	-1	9.90	9.90
Saccade L	1	7	6576956242	6576976111	19869	961.54	691.18	957.71	716.40	0.51	38.48	1.00	25.77	455.34	-494.22	377.24
Saccade R	1	7	6576956242	6576976111	19869	961.54	691.18	957.71	716.40	0.51	38.48	1.00	25.77	455.34	-494.22	377.24
Fixation L	1	8	6576976111	6577294348	318237	946.04	680.51	18	78	-1	9.83	9.83
Fixation R	1	8	6576976111	6577294348	318237	946.04	680.51	18	78	-1	10.17	10.17
Saccade L	1	8	6577294348	6577314207	19859	939.26	670.37	935.42	680.77	0.14	11.21	1.00	7.05	52.51	-159.39	121.12
Saccade R	1	8	6577294348	6577314207	19859	939.26	670.37	935.42	680.77	0.14	11.21	1.00	7.05	52.51	-159.39	121.12
Fixation L	1	9	6577314207	6577592703	278496	940.44	668.22	15	37	-1	9.58	9.58
Fixation R	1	9	6577314207	6577592703	278496	940.44	668.22	15	37	-1	9.79	9.79
Saccade L	1	9	6577592703	6577632450	39747	947.41	668.32	1292.44	655.43	3.01	218.32	1.00	75.70	5282.43	-5315.40	4228.66
Saccade R	1	9	6577592703	6577632450	39747	947.41	668.32	1292.44	655.43	3.01	218.32	1.00	75.70	5282.43	-5315.40	4228.66
Fixation L	1	10	6577632450	6577791567	159117	1285.42	677.06	23	43	-1	9.55	9.55
Fixation R	1	10	6577632450	6577791567	159117	1285.42	677.06	23	43	-1	9.53	9.53
Saccade L	1	10	6577791567	6577811455	19888	1288.41	678.42	1279.72	732.52	0.48	55.42	1.00	24.12	1163.16	-1182.53	854.62
Saccade R	1	10	6577791567	6577811455	19888	1288.41	678.42	1279.72	732.52	0.48	55.42	1.00	24.12	1163.16	-1182.53	854.62
Fixation L	1	11	6577811455	6578109793	298338	1291.81	687.08	25	73	-1	9.75	9.75
Fixation R	1	11	6577811455	6578109793	298338	1291.81	687.08	25	73	-1	9.59	9.59
Saccade L	1	11	6578109793	6578129806	20013	1300.72	666.79	1302.42	656.97	0.13	10.08	1.00	6.74	31.41	-158.55	66.50
Saccade R	1	11	6578109793	6578129806	20013	1300.72	666.79	1302.42	656.97	0.13	10.08	1.00	6.74	31.41	-158.55	66.50
Fixation L	1	12	6578129806	6578249028	119222	1302.46	653.87	4	13	-1	9.80	9.80
Fixation R	1	12	6578129806	6578249028	119222	1302.46	653.87	4	13	-1	9.65	9.65
Saccade L	1	12	6578249028	6578288922	39894	1302.14	646.75	1372.14	437.78	1.93	131.89	0.50	48.31	3209.19	-3041.03	2613.86
Saccade R	1	12	6578249028	6578288922	39894	1302.14	646.75	1372.14	437.78	1.93	131.89	0.50	48.31	3209.19	-3041.03	2613.86
Fixation L	1	13	6578288922	6578607136	318214	1389.94	432.67	33	57	-1	10.18	10.18
Fixation R	1	13	6578288922	6578607136	318214	1389.94	432.67	33	57	-1	9.87	9.87
Saccade L	1	13	6578607136	6578627014	19878	1395.63	434.60	1416.05	427.38	0.45	28.88	1.00	22.42	157.43	-174.11	166.02
Saccade R	1	13	6578607136	6578627014	19878	1395.63	434.60	1416.05	427.38	0.45	28.88	1.00	22.42	157.43	-174.11	166.02
Fixation L	1	14	6578627014	6578806000	178986	1414.80	419.61	27	46	-1	10.09	10.09
Fixation R	1	14	6578627014	6578806000	178986	1414.80	419.61	27	46	-1	9.69	9.69
Saccade L	1	14	6578806000	6578885503	79503	1424.24	391.88	1432.54	244.70	3.01	161.73	0.25	37.86	3713.70	-3941.98	1674.41
Saccade R	1	14	6578806000	6578885503	79503	1424.24	391.88	1432.54	244.70	3.01	161.73	0.25	37.86	3713.70	-3941.98	1674.41
