[BeGaze]
Converted from:	C:\Documents and Settings\iViewX\Desktop\EXPERIMENTATIONS\Experiments\results\finaleart\S4120113-finaleart-1.idf
Date:	27.03.2019 15:34:50
Version:	BeGaze 2.5.77
Sample Rate:	50
Subject:	S4120113
Description:	Vidal Attias

Table Header for Fixations:
Event Type	Trial	Number	Start	End	Duration	Location X	Location Y	Dispersion X	Dispersion Y	Plane	Avg. Pupil Size X	Avg. Pupil Size Y

Table Header for Saccades:
Event Type	Trial	Number	Start	End	Duration	Start Loc.X	Start Loc.Y	End Loc.X	End Loc.Y	Amplitude	Peak Speed	Peak Speed At	Average Speed	Peak Accel.	Peak Decel.	Average Accel.

Table Header for Blinks:
Event Type	Trial	Number	Start	End	Duration

Table Header for User Events:
Event Type	Trial	Number	Start	Description

UserEvent	1	1	8051883781	# Message: stilleven-met-vis_dubois-pillet_1885.jpg
Fixation L	1	1	8051902844	8052499432	596588	1033.95	579.89	18	59	-1	13.90	13.90
Fixation R	1	1	8051902844	8052499432	596588	1033.95	579.89	18	59	-1	13.64	13.64
Saccade L	1	1	8052499432	8052519423	19991	1044.87	532.50	1171.56	496.75	1.07	133.15	1.00	53.51	3238.67	-3251.27	2248.65
Saccade R	1	1	8052499432	8052519423	19991	1044.87	532.50	1171.56	496.75	1.07	133.15	1.00	53.51	3238.67	-3251.27	2248.65
Fixation L	1	2	8052519423	8052638677	119254	1199.02	465.62	37	43	-1	10.78	10.78
Fixation R	1	2	8052519423	8052638677	119254	1199.02	465.62	37	43	-1	10.35	10.35
Saccade L	1	2	8052638677	8052678558	39881	1209.14	453.33	1219.66	701.97	2.08	157.93	1.00	52.04	3939.90	-3639.58	3017.42
Saccade R	1	2	8052638677	8052678558	39881	1209.14	453.33	1219.66	701.97	2.08	157.93	1.00	52.04	3939.90	-3639.58	3017.42
Fixation L	1	3	8052678558	8052857539	178981	1222.57	713.35	37	49	-1	10.50	10.50
Fixation R	1	3	8052678558	8052857539	178981	1222.57	713.35	37	49	-1	10.25	10.25
Saccade L	1	3	8052857539	8052877407	19868	1251.45	680.06	1251.33	658.16	0.53	46.93	0.00	26.48	382.45	-422.90	318.36
Saccade R	1	3	8052857539	8052877407	19868	1251.45	680.06	1251.33	658.16	0.53	46.93	0.00	26.48	382.45	-422.90	318.36
Fixation L	1	4	8052877407	8052996775	119368	1283.07	632.26	48	46	-1	10.77	10.77
Fixation R	1	4	8052877407	8052996775	119368	1283.07	632.26	48	46	-1	10.43	10.43
Saccade L	1	4	8052996775	8053116031	119256	1283.70	638.90	987.05	800.03	7.31	232.95	0.17	61.29	5758.79	-4589.26	2039.62
Saccade R	1	4	8052996775	8053116031	119256	1283.70	638.90	987.05	800.03	7.31	232.95	0.17	61.29	5758.79	-4589.26	2039.62
Fixation L	1	5	8053116031	8053374629	258598	971.38	828.29	25	71	-1	11.72	11.72
Fixation R	1	5	8053116031	8053374629	258598	971.38	828.29	25	71	-1	12.01	12.01
Saccade L	1	5	8053374629	8053414374	39745	965.04	827.86	1396.66	830.16	3.75	223.91	0.50	94.42	5523.95	-5079.89	5178.29
Saccade R	1	5	8053374629	8053414374	39745	965.04	827.86	1396.66	830.16	3.75	223.91	0.50	94.42	5523.95	-5079.89	5178.29
Fixation L	1	6	8053414374	8053672990	258616	1435.80	811.59	52	28	-1	12.32	12.32
Fixation R	1	6	8053414374	8053672990	258616	1435.80	811.59	52	28	-1	12.04	12.04
Saccade L	1	6	8053672990	8053732608	59618	1441.81	806.01	1313.93	319.97	5.37	273.38	0.67	90.04	6745.39	-6599.77	3996.12
Saccade R	1	6	8053672990	8053732608	59618	1441.81	806.01	1313.93	319.97	5.37	273.38	0.67	90.04	6745.39	-6599.77	3996.12
Fixation L	1	7	8053732608	8054110587	377979	1300.86	311.37	33	46	-1	12.67	12.67
Fixation R	1	7	8053732608	8054110587	377979	1300.86	311.37	33	46	-1	12.26	12.26
Saccade L	1	7	8054110587	8054170205	59618	1288.69	295.10	725.27	421.48	6.69	316.77	0.33	112.26	7804.04	-5724.79	5458.78
Saccade R	1	7	8054110587	8054170205	59618	1288.69	295.10	725.27	421.48	6.69	316.77	0.33	112.26	7804.04	-5724.79	5458.78
Fixation L	1	8	8054170205	8054508319	338114	704.68	387.11	28	53	-1	12.58	12.58
Fixation R	1	8	8054170205	8054508319	338114	704.68	387.11	28	53	-1	12.82	12.82
Saccade L	1	8	8054508319	8054568073	59754	697.90	378.15	1192.96	529.89	5.94	309.74	0.67	99.39	7529.45	-6815.23	4402.89
Saccade R	1	8	8054508319	8054568073	59754	697.90	378.15	1192.96	529.89	5.94	309.74	0.67	99.39	7529.45	-6815.23	4402.89
Fixation L	1	9	8054568073	8055184646	616573	1213.09	527.06	36	23	-1	13.52	13.52
Fixation R	1	9	8054568073	8055184646	616573	1213.09	527.06	36	23	-1	13.42	13.42
Saccade L	1	9	8055184646	8055224397	39751	1207.20	534.78	732.93	849.40	4.78	327.65	1.00	120.13	8147.00	-7895.44	7186.42
Saccade R	1	9	8055184646	8055224397	39751	1207.20	534.78	732.93	849.40	4.78	327.65	1.00	120.13	8147.00	-7895.44	7186.42
Fixation L	1	10	8055224397	8055522750	298353	724.59	848.09	26	13	-1	13.69	13.69
Fixation R	1	10	8055224397	8055522750	298353	724.59	848.09	26	13	-1	13.92	13.92
Saccade L	1	10	8055522750	8055542630	19880	721.76	842.60	493.41	847.88	1.33	230.94	1.00	66.82	5666.41	-5246.59	3724.85
Saccade R	1	10	8055522750	8055542630	19880	721.76	842.60	493.41	847.88	1.33	230.94	1.00	66.82	5666.41	-5246.59	3724.85
Fixation L	1	11	8055542630	8055801238	258608	484.76	877.49	20	43	-1	12.34	12.34
Fixation R	1	11	8055542630	8055801238	258608	484.76	877.49	20	43	-1	12.97	12.97
Saccade L	1	11	8055801238	8055880726	79488	491.31	886.34	1020.19	607.85	8.29	290.73	0.50	104.32	7249.93	-4903.27	3270.90
Saccade R	1	11	8055801238	8055880726	79488	491.31	886.34	1020.19	607.85	8.29	290.73	0.50	104.32	7249.93	-4903.27	3270.90
