[BeGaze]
Converted from:	C:\Documents and Settings\iViewX\Desktop\EXPERIMENTATIONS\Experiments\results\finaleart\S4120113-finaleart-1.idf
Date:	27.03.2019 15:34:26
Version:	BeGaze 2.5.77
Sample Rate:	50
Subject:	S4120113
Description:	Vidal Attias

Table Header for Fixations:
Event Type	Trial	Number	Start	End	Duration	Location X	Location Y	Dispersion X	Dispersion Y	Plane	Avg. Pupil Size X	Avg. Pupil Size Y

Table Header for Saccades:
Event Type	Trial	Number	Start	End	Duration	Start Loc.X	Start Loc.Y	End Loc.X	End Loc.Y	Amplitude	Peak Speed	Peak Speed At	Average Speed	Peak Accel.	Peak Decel.	Average Accel.

Table Header for Blinks:
Event Type	Trial	Number	Start	End	Duration

Table Header for User Events:
Event Type	Trial	Number	Start	Description

UserEvent	1	1	6642554613	# Message: Landscape_at_L-Estaque_Braque-1906.jpg
Fixation L	1	1	6642572690	6643209109	636419	984.93	630.11	18	40	-1	12.16	12.16
Fixation R	1	1	6642572690	6643209109	636419	984.93	630.11	18	40	-1	13.05	13.05
Saccade L	1	1	6643209109	6643248861	39752	987.81	616.06	1216.66	538.66	2.13	131.58	0.50	53.53	3039.87	-3132.11	2883.10
Saccade R	1	1	6643209109	6643248861	39752	987.81	616.06	1216.66	538.66	2.13	131.58	0.50	53.53	3039.87	-3132.11	2883.10
Fixation L	1	2	6643248861	6643487600	238739	1216.74	521.61	14	45	-1	9.72	9.72
Fixation R	1	2	6643248861	6643487600	238739	1216.74	521.61	14	45	-1	10.41	10.41
Saccade L	1	2	6643487600	6643507465	19865	1224.52	509.74	1274.47	521.08	0.45	51.81	1.00	22.79	1049.12	-565.58	711.07
Saccade R	1	2	6643487600	6643507465	19865	1224.52	509.74	1274.47	521.08	0.45	51.81	1.00	22.79	1049.12	-565.58	711.07
Fixation L	1	3	6643507465	6643845573	338108	1329.16	524.16	67	31	-1	10.11	10.11
Fixation R	1	3	6643507465	6643845573	338108	1329.16	524.16	67	31	-1	10.96	10.96
Saccade L	1	3	6643845573	6643865450	19877	1338.57	539.09	1329.34	543.42	0.12	10.31	1.00	6.14	200.50	-38.92	112.08
Saccade R	1	3	6643845573	6643865450	19877	1338.57	539.09	1329.34	543.42	0.12	10.31	1.00	6.14	200.50	-38.92	112.08
Fixation L	1	4	6643865450	6643964935	99485	1327.85	548.61	13	20	-1	10.79	10.79
Fixation R	1	4	6643865450	6643964935	99485	1327.85	548.61	13	20	-1	11.52	11.52
Saccade L	1	4	6643964935	6644004682	39747	1322.21	559.50	1116.40	665.42	2.11	127.63	0.50	53.02	2972.07	-2949.66	2769.63
Saccade R	1	4	6643964935	6644004682	39747	1322.21	559.50	1116.40	665.42	2.11	127.63	0.50	53.02	2972.07	-2949.66	2769.63
Fixation L	1	5	6644004682	6644442294	437612	1118.01	677.95	18	43	-1	11.55	11.55
Fixation R	1	5	6644004682	6644442294	437612	1118.01	677.95	18	43	-1	12.50	12.50
Saccade L	1	5	6644442294	6644462171	19877	1119.66	663.18	1104.18	621.11	0.48	45.34	1.00	23.98	827.39	-56.00	417.07
Saccade R	1	5	6644442294	6644462171	19877	1119.66	663.18	1104.18	621.11	0.48	45.34	1.00	23.98	827.39	-56.00	417.07
Fixation L	1	6	6644462171	6644561646	99475	1100.66	616.63	21	42	-1	11.80	11.80
Fixation R	1	6	6644462171	6644561646	99475	1100.66	616.63	21	42	-1	12.53	12.53
Saccade L	1	6	6644561646	6644581532	19886	1099.64	595.29	1167.99	493.75	1.12	123.81	1.00	56.07	2790.26	-3009.34	2070.25
Saccade R	1	6	6644561646	6644581532	19886	1099.64	595.29	1167.99	493.75	1.12	123.81	1.00	56.07	2790.26	-3009.34	2070.25
Fixation L	1	7	6644581532	6644780396	198864	1195.76	450.07	37	57	-1	11.21	11.21
Fixation R	1	7	6644581532	6644780396	198864	1195.76	450.07	37	57	-1	12.27	12.27
Saccade L	1	7	6644780396	6644820136	39740	1197.69	436.62	1406.84	404.33	2.52	113.81	0.50	63.40	2714.18	-1209.37	1708.34
Saccade R	1	7	6644780396	6644820136	39740	1197.69	436.62	1406.84	404.33	2.52	113.81	0.50	63.40	2714.18	-1209.37	1708.34
Fixation L	1	8	6644820136	6645178240	358104	1411.38	365.91	9	82	-1	11.43	11.43
Fixation R	1	8	6644820136	6645178240	358104	1411.38	365.91	9	82	-1	12.21	12.21
Saccade L	1	8	6645178240	6645217996	39756	1411.27	374.50	1586.19	352.90	1.57	163.43	1.00	39.54	4025.44	-3586.90	1982.29
Saccade R	1	8	6645178240	6645217996	39756	1411.27	374.50	1586.19	352.90	1.57	163.43	1.00	39.54	4025.44	-3586.90	1982.29
Fixation L	1	9	6645217996	6645377121	159125	1581.31	348.00	11	31	-1	11.66	11.66
Fixation R	1	9	6645217996	6645377121	159125	1581.31	348.00	11	31	-1	12.11	12.11
Saccade L	1	9	6645377121	6645436730	59609	1574.72	350.53	818.29	484.97	8.20	365.64	0.67	137.63	8931.83	-8581.52	5968.25
Saccade R	1	9	6645377121	6645436730	59609	1574.72	350.53	818.29	484.97	8.20	365.64	0.67	137.63	8931.83	-8581.52	5968.25
Fixation L	1	10	6645436730	6645834573	397843	825.10	489.01	18	35	-1	11.86	11.86
Fixation R	1	10	6645436730	6645834573	397843	825.10	489.01	18	35	-1	13.13	13.13
Saccade L	1	10	6645834573	6645854454	19881	816.36	470.84	611.96	430.46	1.33	210.68	1.00	66.90	4983.97	-4735.77	3391.34
Saccade R	1	10	6645834573	6645854454	19881	816.36	470.84	611.96	430.46	1.33	210.68	1.00	66.90	4983.97	-4735.77	3391.34
Fixation L	1	11	6645854454	6646093069	238615	582.28	394.73	40	57	-1	10.91	10.91
Fixation R	1	11	6645854454	6646093069	238615	582.28	394.73	40	57	-1	12.74	12.74
Saccade L	1	11	6646093069	6646113066	19997	585.48	377.19	586.60	365.65	0.12	11.73	1.00	5.85	209.86	-145.72	123.74
Saccade R	1	11	6646093069	6646113066	19997	585.48	377.19	586.60	365.65	0.12	11.73	1.00	5.85	209.86	-145.72	123.74
Fixation L	1	12	6646113066	6646371548	258482	588.75	370.51	5	25	-1	10.91	10.91
Fixation R	1	12	6646113066	6646371548	258482	588.75	370.51	5	25	-1	12.67	12.67
Saccade L	1	12	6646371548	6646411421	39873	586.68	389.50	456.62	958.21	5.42	377.89	0.50	135.93	9262.49	-8022.12	6559.40
Saccade R	1	12	6646371548	6646411421	39873	586.68	389.50	456.62	958.21	5.42	377.89	0.50	135.93	9262.49	-8022.12	6559.40
Fixation L	1	13	6646411421	6646550543	139122	449.96	956.57	11	69	-1	10.56	10.56
Fixation R	1	13	6646411421	6646550543	139122	449.96	956.57	11	69	-1	13.21	13.21
