[BeGaze]
Converted from:	C:\Documents and Settings\iViewX\Desktop\EXPERIMENTATIONS\Experiments\results\finaleart\S4120113-finaleart-1.idf
Date:	27.03.2019 15:34:19
Version:	BeGaze 2.5.77
Sample Rate:	50
Subject:	S4120113
Description:	Vidal Attias

Table Header for Fixations:
Event Type	Trial	Number	Start	End	Duration	Location X	Location Y	Dispersion X	Dispersion Y	Plane	Avg. Pupil Size X	Avg. Pupil Size Y

Table Header for Saccades:
Event Type	Trial	Number	Start	End	Duration	Start Loc.X	Start Loc.Y	End Loc.X	End Loc.Y	Amplitude	Peak Speed	Peak Speed At	Average Speed	Peak Accel.	Peak Decel.	Average Accel.

Table Header for Blinks:
Event Type	Trial	Number	Start	End	Duration

Table Header for User Events:
Event Type	Trial	Number	Start	Description

UserEvent	1	1	6289777756	# Message: Kiprensky-standing-sitter-with-a-stick-sitter-on-a-rock-1801.jpg
Fixation L	1	1	6289790217	6290227813	437596	1029.46	535.12	10	37	-1	13.58	13.58
Fixation R	1	1	6289790217	6290227813	437596	1029.46	535.12	10	37	-1	15.04	15.04
Saccade L	1	1	6290227813	6290267558	39745	1027.11	539.94	675.05	560.33	3.13	229.20	0.50	78.68	5479.02	-5500.42	4200.52
Saccade R	1	1	6290227813	6290267558	39745	1027.11	539.94	675.05	560.33	3.13	229.20	0.50	78.68	5479.02	-5500.42	4200.52
Fixation L	1	2	6290267558	6290426665	159107	669.54	559.33	47	15	-1	11.90	11.90
Fixation R	1	2	6290267558	6290426665	159107	669.54	559.33	47	15	-1	13.30	13.30
Saccade L	1	2	6290426665	6290446530	19865	629.22	551.17	586.68	560.15	0.68	49.23	0.00	34.23	937.89	-587.74	608.53
Saccade R	1	2	6290426665	6290446530	19865	629.22	551.17	586.68	560.15	0.68	49.23	0.00	34.23	937.89	-587.74	608.53
Fixation L	1	3	6290446530	6290665395	218865	604.60	567.38	33	46	-1	9.51	9.51
Fixation R	1	3	6290446530	6290665395	218865	604.60	567.38	33	46	-1	11.32	11.32
Saccade L	1	3	6290665395	6290685283	19888	603.39	601.71	466.59	605.76	0.91	138.42	1.00	45.66	3377.07	-2779.46	2201.53
Saccade R	1	3	6290665395	6290685283	19888	603.39	601.71	466.59	605.76	0.91	138.42	1.00	45.66	3377.07	-2779.46	2201.53
Fixation L	1	4	6290685283	6290904021	218738	478.43	622.98	26	28	-1	9.34	9.34
Fixation R	1	4	6290685283	6290904021	218738	478.43	622.98	26	28	-1	11.31	11.31
Saccade L	1	4	6290904021	6290963636	59615	479.77	621.34	561.72	240.03	4.14	208.20	0.67	69.48	5146.60	-5131.32	2904.51
Saccade R	1	4	6290904021	6290963636	59615	479.77	621.34	561.72	240.03	4.14	208.20	0.67	69.48	5146.60	-5131.32	2904.51
Fixation L	1	5	6290963636	6291361497	397861	579.00	265.06	24	47	-1	10.21	10.21
Fixation R	1	5	6290963636	6291361497	397861	579.00	265.06	24	47	-1	12.26	12.26
Saccade L	1	5	6291361497	6291381366	19869	585.10	286.22	653.04	273.38	0.60	69.94	1.00	30.25	1621.31	-1249.21	1103.99
Saccade R	1	5	6291361497	6291381366	19869	585.10	286.22	653.04	273.38	0.60	69.94	1.00	30.25	1621.31	-1249.21	1103.99
Fixation L	1	6	6291381366	6291480847	99481	661.39	268.54	34	25	-1	11.24	11.24
Fixation R	1	6	6291381366	6291480847	99481	661.39	268.54	34	25	-1	12.94	12.94
Saccade L	1	6	6291480847	6291540475	59628	650.27	251.18	1261.59	449.56	7.16	363.00	0.67	120.12	8688.66	-8636.56	4920.01
Saccade R	1	6	6291480847	6291540475	59628	650.27	251.18	1261.59	449.56	7.16	363.00	0.67	120.12	8688.66	-8636.56	4920.01
Fixation L	1	7	6291540475	6291799087	258612	1274.20	439.17	31	32	-1	12.55	12.55
Fixation R	1	7	6291540475	6291799087	258612	1274.20	439.17	31	32	-1	13.61	13.61
Saccade L	1	7	6291799087	6291838832	39745	1266.15	437.68	1430.82	643.39	2.39	194.25	1.00	60.23	4671.98	-3787.17	2918.68
Saccade R	1	7	6291799087	6291838832	39745	1266.15	437.68	1430.82	643.39	2.39	194.25	1.00	60.23	4671.98	-3787.17	2918.68
Fixation L	1	8	6291838832	6292057565	218733	1428.11	621.99	32	57	-1	12.07	12.07
Fixation R	1	8	6291838832	6292057565	218733	1428.11	621.99	32	57	-1	12.83	12.83
Saccade L	1	8	6292057565	6292077576	20011	1447.98	652.35	1575.42	646.00	0.94	129.06	1.00	46.83	3121.13	-2844.28	2249.77
Saccade R	1	8	6292057565	6292077576	20011	1447.98	652.35	1575.42	646.00	0.94	129.06	1.00	46.83	3121.13	-2844.28	2249.77
Fixation L	1	9	6292077576	6292535043	457467	1602.51	647.79	55	39	-1	11.88	11.88
Fixation R	1	9	6292077576	6292535043	457467	1602.51	647.79	55	39	-1	12.59	12.59
Saccade L	1	9	6292535043	6292574790	39747	1621.84	657.10	1437.57	949.96	3.00	288.67	1.00	75.56	7061.81	-7153.80	4342.41
Saccade R	1	9	6292535043	6292574790	39747	1621.84	657.10	1437.57	949.96	3.00	288.67	1.00	75.56	7061.81	-7153.80	4342.41
Fixation L	1	10	6292574790	6292813402	238612	1446.63	955.50	15	51	-1	11.85	11.85
Fixation R	1	10	6292574790	6292813402	238612	1446.63	955.50	15	51	-1	12.50	12.50
Saccade L	1	10	6292813402	6292853275	39873	1436.10	920.24	1321.91	517.28	3.82	314.97	0.50	95.78	7822.75	-7645.87	4860.65
Saccade R	1	10	6292813402	6292853275	39873	1436.10	920.24	1321.91	517.28	3.82	314.97	0.50	95.78	7822.75	-7645.87	4860.65
Fixation L	1	11	6292853275	6293131625	278350	1325.96	506.13	21	51	-1	12.15	12.15
Fixation R	1	11	6292853275	6293131625	278350	1325.96	506.13	21	51	-1	13.17	13.17
Saccade L	1	11	6293131625	6293151492	19867	1340.62	486.75	1335.95	429.13	0.57	58.48	1.00	28.77	1089.75	-1031.13	966.86
Saccade R	1	11	6293131625	6293151492	19867	1340.62	486.75	1335.95	429.13	0.57	58.48	1.00	28.77	1089.75	-1031.13	966.86
Fixation L	1	12	6293151492	6293270871	119379	1341.40	465.23	11	50	-1	12.10	12.10
Fixation R	1	12	6293151492	6293270871	119379	1341.40	465.23	11	50	-1	13.16	13.16
Saccade L	1	12	6293270871	6293330618	59747	1346.04	470.32	610.50	540.58	7.68	347.62	0.67	128.57	8483.69	-8484.75	6158.27
Saccade R	1	12	6293270871	6293330618	59747	1346.04	470.32	610.50	540.58	7.68	347.62	0.67	128.57	8483.69	-8484.75	6158.27
Fixation L	1	13	6293330618	6293748206	417588	615.89	557.64	28	64	-1	11.92	11.92
Fixation R	1	13	6293330618	6293748206	417588	615.89	557.64	28	64	-1	13.47	13.47
Saccade L	1	13	6293748206	6293768090	19884	606.90	590.43	594.67	608.04	0.24	21.69	1.00	12.02	368.04	0.00	184.02
Saccade R	1	13	6293748206	6293768090	19884	606.90	590.43	594.67	608.04	0.24	21.69	1.00	12.02	368.04	0.00	184.02
