[BeGaze]
Converted from:	C:\Documents and Settings\iViewX\Desktop\EXPERIMENTATIONS\Experiments\results\finaleart\S4120113-finaleart-1.idf
Date:	27.03.2019 15:34:49
Version:	BeGaze 2.5.77
Sample Rate:	50
Subject:	S4120113
Description:	Vidal Attias

Table Header for Fixations:
Event Type	Trial	Number	Start	End	Duration	Location X	Location Y	Dispersion X	Dispersion Y	Plane	Avg. Pupil Size X	Avg. Pupil Size Y

Table Header for Saccades:
Event Type	Trial	Number	Start	End	Duration	Start Loc.X	Start Loc.Y	End Loc.X	End Loc.Y	Amplitude	Peak Speed	Peak Speed At	Average Speed	Peak Accel.	Peak Decel.	Average Accel.

Table Header for Blinks:
Event Type	Trial	Number	Start	End	Duration

Table Header for User Events:
Event Type	Trial	Number	Start	Description

UserEvent	1	1	8031351420	# Message: void.jpg
Fixation L	1	1	8031356593	8031456096	99503	1626.21	856.81	7	32	-1	12.32	12.32
Fixation R	1	1	8031356593	8031456096	99503	1626.21	856.81	7	32	-1	11.58	11.58
Saccade L	1	1	8031456096	8031515717	59621	1626.49	866.98	1488.78	459.34	4.65	202.42	0.67	78.07	4889.28	-4731.30	3110.64
Saccade R	1	1	8031456096	8031515717	59621	1626.49	866.98	1488.78	459.34	4.65	202.42	0.67	78.07	4889.28	-4731.30	3110.64
Fixation L	1	2	8031515717	8031674810	159093	1501.63	445.69	44	46	-1	12.05	12.05
Fixation R	1	2	8031515717	8031674810	159093	1501.63	445.69	44	46	-1	11.50	11.50
Saccade L	1	2	8031674810	8031695828	21018	1532.78	413.03	1540.98	385.95	0.58	37.24	1.00	27.65	113.05	-627.42	318.59
Saccade R	1	2	8031674810	8031695828	21018	1532.78	413.03	1540.98	385.95	0.58	37.24	1.00	27.65	113.05	-627.42	318.59
Fixation L	1	3	8031695828	8031814058	118230	1543.08	394.41	24	28	-1	11.59	11.59
Fixation R	1	3	8031695828	8031814058	118230	1543.08	394.41	24	28	-1	11.10	11.10
Blink L	1	1	8031814058	8032192035	377977
Blink R	1	1	8031814058	8032192035	377977
Fixation L	1	4	8032192035	8032808625	616590	1200.32	429.17	34	38	-1	12.52	12.52
Fixation R	1	4	8032192035	8032808625	616590	1200.32	429.17	34	38	-1	12.44	12.44
Saccade L	1	3	8032808625	8032828497	19872	1176.45	425.23	1143.23	442.47	0.56	37.86	1.00	28.26	401.18	-307.87	307.69
Saccade R	1	3	8032808625	8032828497	19872	1176.45	425.23	1143.23	442.47	0.56	37.86	1.00	28.26	401.18	-307.87	307.69
Fixation L	1	5	8032828497	8033305847	477350	1146.50	429.66	43	51	-1	11.64	11.64
Fixation R	1	5	8032828497	8033305847	477350	1146.50	429.66	43	51	-1	11.43	11.43
Saccade L	1	4	8033305847	8033345583	39736	1121.51	406.33	1097.94	418.47	0.79	36.09	0.00	19.92	0.00	-521.36	209.03
Saccade R	1	4	8033305847	8033345583	39736	1121.51	406.33	1097.94	418.47	0.79	36.09	0.00	19.92	0.00	-521.36	209.03
