[BeGaze]
Converted from:	C:\Documents and Settings\iViewX\Desktop\EXPERIMENTATIONS\Experiments\results\finaleart\S4120113-finaleart-1.idf
Date:	27.03.2019 15:34:41
Version:	BeGaze 2.5.77
Sample Rate:	50
Subject:	S4120113
Description:	Vidal Attias

Table Header for Fixations:
Event Type	Trial	Number	Start	End	Duration	Location X	Location Y	Dispersion X	Dispersion Y	Plane	Avg. Pupil Size X	Avg. Pupil Size Y

Table Header for Saccades:
Event Type	Trial	Number	Start	End	Duration	Start Loc.X	Start Loc.Y	End Loc.X	End Loc.Y	Amplitude	Peak Speed	Peak Speed At	Average Speed	Peak Accel.	Peak Decel.	Average Accel.

Table Header for Blinks:
Event Type	Trial	Number	Start	End	Duration

Table Header for User Events:
Event Type	Trial	Number	Start	Description

UserEvent	1	1	7683190620	# Message: void.jpg
Saccade L	1	1	7683193224	7683292596	99372	491.46	736.81	674.63	734.40	3.07	171.52	1.00	30.88	4171.82	-3649.81	1206.02
Saccade R	1	1	7683193224	7683292596	99372	491.46	736.81	674.63	734.40	3.07	171.52	1.00	30.88	4171.82	-3649.81	1206.02
Fixation L	1	1	7683292596	7683610833	318237	689.31	748.74	17	36	-1	11.95	11.95
Fixation R	1	1	7683292596	7683610833	318237	689.31	748.74	17	36	-1	13.83	13.83
Blink L	1	1	7683610833	7683988815	377982
Blink R	1	1	7683610833	7683969019	358186
Saccade R	1	2	7683969019	7684008689	39670	1041.68	455.30	1053.54	376.12	10.96	518.70	1.00	276.38	10747.34	-12883.81	10452.11
Saccade L	1	2	7683988815	7684008689	19874	545.67	456.21	1053.54	376.12	6.52	518.70	1.00	327.83	7653.41	-12883.81	10353.70
Fixation L	1	2	7684008689	7684207533	198844	1057.23	439.77	18	77	-1	10.27	10.27
Fixation R	1	2	7684008689	7684207533	198844	1057.23	439.77	18	77	-1	9.88	9.88
Saccade L	1	3	7684207533	7684227413	19880	1051.05	453.67	1044.55	436.93	0.21	18.16	1.00	10.78	252.16	-115.13	159.39
Saccade R	1	3	7684207533	7684287160	79627	1051.05	453.67	1045.87	417.05	0.99	18.16	0.25	12.49	252.16	-115.13	126.19
Fixation L	1	3	7684227413	7684326902	99489	1042.89	434.36	6	29	-1	7.07	7.07
Fixation R	1	3	7684307034	7685042979	735945	1042.46	467.54	24	71	-1	12.19	12.19
Fixation L	1	4	7684346776	7685042979	696203	1042.53	469.13	24	71	-1	12.34	12.34
Saccade L	1	4	7685042979	7685062872	19893	1026.51	494.23	1026.48	507.20	0.18	13.12	1.00	9.06	136.50	-54.11	88.58
Saccade R	1	4	7685042979	7685062872	19893	1026.51	494.23	1026.48	507.20	0.18	13.12	1.00	9.06	136.50	-54.11	88.58
Fixation L	1	5	7685062872	7685182096	119224	1024.81	501.44	3	28	-1	13.77	13.77
Fixation R	1	4	7685062872	7685182096	119224	1024.81	501.44	3	28	-1	13.45	13.45
