[BeGaze]
Converted from:	C:\Documents and Settings\iViewX\Desktop\EXPERIMENTATIONS\Experiments\results\finaleart\S4120113-finaleart-1.idf
Date:	27.03.2019 15:34:46
Version:	BeGaze 2.5.77
Sample Rate:	50
Subject:	S4120113
Description:	Vidal Attias

Table Header for Fixations:
Event Type	Trial	Number	Start	End	Duration	Location X	Location Y	Dispersion X	Dispersion Y	Plane	Avg. Pupil Size X	Avg. Pupil Size Y

Table Header for Saccades:
Event Type	Trial	Number	Start	End	Duration	Start Loc.X	Start Loc.Y	End Loc.X	End Loc.Y	Amplitude	Peak Speed	Peak Speed At	Average Speed	Peak Accel.	Peak Decel.	Average Accel.

Table Header for Blinks:
Event Type	Trial	Number	Start	End	Duration

Table Header for User Events:
Event Type	Trial	Number	Start	Description

UserEvent	1	1	7802039872	# Message: metzinger-nature-morte-1905.jpg
Fixation L	1	1	7802049926	7802248915	198989	1025.69	492.11	28	45	-1	10.61	10.61
Fixation R	1	1	7802049926	7802248915	198989	1025.69	492.11	28	45	-1	10.06	10.06
Saccade L	1	1	7802248915	7802268787	19872	1007.60	480.38	963.10	468.59	0.64	46.57	1.00	32.31	679.15	-637.65	446.37
Saccade R	1	1	7802248915	7802268787	19872	1007.60	480.38	963.10	468.59	0.64	46.57	1.00	32.31	679.15	-637.65	446.37
Fixation L	1	2	7802268787	7802368158	99371	969.39	469.19	41	51	-1	11.04	11.04
Fixation R	1	2	7802268787	7802368158	99371	969.39	469.19	41	51	-1	10.46	10.46
Saccade L	1	2	7802368158	7802388037	19879	962.63	489.27	959.59	501.23	0.41	33.54	1.00	20.55	93.26	-526.41	367.61
Saccade R	1	2	7802368158	7802388037	19879	962.63	489.27	959.59	501.23	0.41	33.54	1.00	20.55	93.26	-526.41	367.61
Fixation L	1	3	7802388037	7802805758	417721	951.60	481.58	15	69	-1	9.93	9.93
Fixation R	1	3	7802388037	7802766004	377967	951.89	484.52	15	66	-1	9.40	9.40
Blink R	1	1	7802766004	7802865507	99503
Saccade L	1	3	7802805758	7802905254	99496	948.65	431.90	1111.65	401.99	13.53	410.65	0.40	135.97	9242.78	-9858.78	6239.84
Saccade R	1	3	7802865507	7802905254	39747	951.92	452.55	1111.65	401.99	4.83	410.65	1.00	121.58	2863.53	-9046.74	3881.22
Fixation L	1	4	7802905254	7803163732	258478	1105.32	386.34	22	25	-1	10.57	10.57
Fixation R	1	4	7802905254	7803163732	258478	1105.32	386.34	22	25	-1	9.91	9.91
Saccade L	1	4	7803163732	7803203615	39883	1108.17	382.22	1229.23	344.18	1.43	75.67	0.50	35.96	1708.66	-1420.30	1419.91
Saccade R	1	4	7803163732	7803203615	39883	1108.17	382.22	1229.23	344.18	1.43	75.67	0.50	35.96	1708.66	-1420.30	1419.91
Fixation L	1	5	7803203615	7803621204	417589	1234.70	302.64	39	59	-1	11.57	11.57
Fixation R	1	5	7803203615	7803621204	417589	1234.70	302.64	39	59	-1	11.36	11.36
Saccade L	1	5	7803621204	7803641205	20001	1209.81	311.78	1200.44	309.61	0.17	9.73	1.00	8.69	194.53	-15.42	85.41
Saccade R	1	5	7803621204	7803641205	20001	1209.81	311.78	1200.44	309.61	0.17	9.73	1.00	8.69	194.53	-15.42	85.41
Fixation L	1	6	7803641205	7803840067	198862	1199.08	320.88	18	54	-1	12.10	12.10
Fixation R	1	6	7803641205	7803840067	198862	1199.08	320.88	18	54	-1	11.92	11.92
Saccade L	1	6	7803840067	7803859949	19882	1210.44	353.33	1332.32	386.32	0.87	127.71	1.00	43.86	3082.50	-2721.29	2018.44
Saccade R	1	6	7803840067	7803859949	19882	1210.44	353.33	1332.32	386.32	0.87	127.71	1.00	43.86	3082.50	-2721.29	2018.44
Fixation L	1	7	7803859949	7804058803	198854	1324.80	396.32	12	32	-1	12.61	12.61
Fixation R	1	7	7803859949	7804058803	198854	1324.80	396.32	12	32	-1	12.47	12.47
Saccade L	1	7	7804058803	7804098554	39751	1324.84	406.71	1168.10	546.72	1.96	140.84	0.50	49.42	3330.57	-3330.40	2712.98
Saccade R	1	7	7804058803	7804098554	39751	1324.84	406.71	1168.10	546.72	1.96	140.84	0.50	49.42	3330.57	-3330.40	2712.98
Fixation L	1	8	7804098554	7804337303	238749	1167.82	565.02	10	32	-1	12.81	12.81
Fixation R	1	8	7804098554	7804337303	238749	1167.82	565.02	10	32	-1	12.91	12.91
Saccade L	1	8	7804337303	7804357164	19861	1164.07	578.89	1046.69	591.15	0.71	119.37	1.00	35.66	2893.17	-2633.20	1891.38
Saccade R	1	8	7804337303	7804357164	19861	1164.07	578.89	1046.69	591.15	0.71	119.37	1.00	35.66	2893.17	-2633.20	1891.38
Fixation L	1	9	7804357164	7804595886	238722	1043.10	626.14	19	53	-1	13.24	13.24
Fixation R	1	9	7804357164	7804595886	238722	1043.10	626.14	19	53	-1	13.38	13.38
Saccade L	1	9	7804595886	7804635638	39752	1028.98	644.21	726.61	901.78	3.46	234.47	0.50	87.05	5789.90	-5340.24	4719.28
Saccade R	1	9	7804595886	7804635638	39752	1028.98	644.21	726.61	901.78	3.46	234.47	0.50	87.05	5789.90	-5340.24	4719.28
Fixation L	1	10	7804635638	7805073235	437597	743.00	920.99	50	42	-1	12.56	12.56
Fixation R	1	10	7804635638	7805073235	437597	743.00	920.99	50	42	-1	13.32	13.32
Saccade L	1	10	7805073235	7805093137	19902	726.56	939.10	723.21	947.52	0.25	21.72	0.00	12.56	-56.46	-344.43	167.65
Saccade R	1	10	7805073235	7805093137	19902	726.56	939.10	723.21	947.52	0.25	21.72	0.00	12.56	-56.46	-344.43	167.65
Fixation L	1	11	7805093137	7805212488	119351	718.56	950.19	7	19	-1	12.31	12.31
Fixation R	1	11	7805093137	7805212488	119351	718.56	950.19	7	19	-1	12.82	12.82
Saccade L	1	11	7805212488	7805272107	59619	717.05	937.42	1108.61	965.18	4.35	193.94	0.67	73.04	4436.00	-4340.60	2761.36
Saccade R	1	11	7805212488	7805272107	59619	717.05	937.42	1108.61	965.18	4.35	193.94	0.67	73.04	4436.00	-4340.60	2761.36
Fixation L	1	12	7805272107	7805570480	298373	1108.78	974.49	48	22	-1	12.17	12.17
Fixation R	1	12	7805272107	7805570480	298373	1108.78	974.49	48	22	-1	12.36	12.36
Saccade L	1	12	7805570480	7805630087	59607	1107.07	973.17	855.78	529.00	5.43	250.40	0.67	91.14	6168.87	-5977.98	4170.29
Saccade R	1	12	7805570480	7805630087	59607	1107.07	973.17	855.78	529.00	5.43	250.40	0.67	91.14	6168.87	-5977.98	4170.29
Fixation L	1	13	7805630087	7805908567	278480	843.37	532.49	17	77	-1	12.45	12.45
Fixation R	1	13	7805630087	7805908567	278480	843.37	532.49	17	77	-1	12.39	12.39
Saccade L	1	13	7805908567	7806027934	119367	839.37	480.69	794.63	377.93	3.44	87.44	0.33	28.79	807.08	-1548.16	646.88
Saccade R	1	13	7805908567	7806027934	119367	839.37	480.69	794.63	377.93	3.44	87.44	0.33	28.79	807.08	-1548.16	646.88
