[BeGaze]
Converted from:	C:\Documents and Settings\iViewX\Desktop\EXPERIMENTATIONS\Experiments\results\finaleart\S4120113-finaleart-1.idf
Date:	27.03.2019 15:34:35
Version:	BeGaze 2.5.77
Sample Rate:	50
Subject:	S4120113
Description:	Vidal Attias

Table Header for Fixations:
Event Type	Trial	Number	Start	End	Duration	Location X	Location Y	Dispersion X	Dispersion Y	Plane	Avg. Pupil Size X	Avg. Pupil Size Y

Table Header for Saccades:
Event Type	Trial	Number	Start	End	Duration	Start Loc.X	Start Loc.Y	End Loc.X	End Loc.Y	Amplitude	Peak Speed	Peak Speed At	Average Speed	Peak Accel.	Peak Decel.	Average Accel.

Table Header for Blinks:
Event Type	Trial	Number	Start	End	Duration

Table Header for User Events:
Event Type	Trial	Number	Start	Description

UserEvent	1	1	7046663366	# Message: Naked_man_reversed_on_the_ground_Gericault_1817.jpg
Fixation L	1	1	7046674510	7047231344	556834	939.69	571.22	11	26	-1	13.07	13.07
Fixation R	1	1	7046674510	7047231344	556834	939.69	571.22	11	26	-1	12.98	12.98
Saccade L	1	1	7047231344	7047251222	19878	934.79	584.76	827.99	544.47	0.82	115.46	1.00	41.12	2508.04	-2751.72	1949.75
Saccade R	1	1	7047231344	7047251222	19878	934.79	584.76	827.99	544.47	0.82	115.46	1.00	41.12	2508.04	-2751.72	1949.75
Fixation L	1	2	7047251222	7047410338	159116	802.34	536.57	37	59	-1	12.08	12.08
Fixation R	1	2	7047251222	7047410338	159116	802.34	536.57	37	59	-1	12.02	12.02
Saccade L	1	2	7047410338	7047430321	19983	806.56	501.44	809.62	463.32	0.55	40.80	1.00	27.44	755.16	-852.26	694.05
Saccade R	1	2	7047410338	7047430321	19983	806.56	501.44	809.62	463.32	0.55	40.80	1.00	27.44	755.16	-852.26	694.05
Fixation L	1	3	7047430321	7047609335	179014	801.21	479.26	13	49	-1	11.48	11.48
Fixation R	1	3	7047430321	7047609335	179014	801.21	479.26	13	49	-1	11.16	11.16
Saccade L	1	3	7047609335	7047649070	39735	797.52	476.77	621.27	298.46	2.57	164.14	0.50	64.80	3488.91	-3645.82	2750.33
Saccade R	1	3	7047609335	7047649070	39735	797.52	476.77	621.27	298.46	2.57	164.14	0.50	64.80	3488.91	-3645.82	2750.33
Fixation L	1	4	7047649070	7048126416	477346	625.62	287.05	11	31	-1	11.18	11.18
Fixation R	1	4	7047649070	7048126416	477346	625.62	287.05	11	31	-1	11.44	11.44
Saccade L	1	4	7048126416	7048166169	39753	627.52	305.32	929.68	320.59	2.64	159.42	0.50	66.35	3887.98	-3623.42	3596.93
Saccade R	1	4	7048126416	7048166169	39753	627.52	305.32	929.68	320.59	2.64	159.42	0.50	66.35	3887.98	-3623.42	3596.93
Fixation L	1	5	7048166169	7048424773	258604	933.31	337.06	8	27	-1	12.52	12.52
Fixation R	1	5	7048166169	7048424773	258604	933.31	337.06	8	27	-1	12.30	12.30
Saccade L	1	5	7048424773	7048464516	39743	932.46	336.66	1017.69	370.37	1.23	67.23	0.50	31.01	1638.22	-1084.28	1283.32
Saccade R	1	5	7048424773	7048464516	39743	932.46	336.66	1017.69	370.37	1.23	67.23	0.50	31.01	1638.22	-1084.28	1283.32
Fixation L	1	6	7048464516	7048743007	278491	1039.69	385.40	27	41	-1	13.00	13.00
Fixation R	1	6	7048464516	7048743007	278491	1039.69	385.40	27	41	-1	12.54	12.54
Saccade L	1	6	7048743007	7048762884	19877	1042.88	405.32	1131.35	517.73	1.01	144.68	1.00	50.77	3465.08	-3151.10	2495.31
Saccade R	1	6	7048743007	7048762884	19877	1042.88	405.32	1131.35	517.73	1.01	144.68	1.00	50.77	3465.08	-3151.10	2495.31
Fixation L	1	7	7048762884	7049160727	397843	1139.49	555.97	20	52	-1	13.41	13.41
Fixation R	1	7	7048762884	7049160727	397843	1139.49	555.97	20	52	-1	12.91	12.91
Saccade L	1	7	7049160727	7049180604	19877	1151.43	554.02	1202.05	553.39	0.39	51.21	1.00	19.39	1171.79	-1078.51	859.15
Saccade R	1	7	7049160727	7049180604	19877	1151.43	554.02	1202.05	553.39	0.39	51.21	1.00	19.39	1171.79	-1078.51	859.15
Fixation L	1	8	7049180604	7049518700	338096	1222.88	575.89	30	41	-1	13.48	13.48
Fixation R	1	8	7049180604	7049518700	338096	1222.88	575.89	30	41	-1	12.43	12.43
Saccade L	1	8	7049518700	7049558455	39755	1232.10	575.39	823.43	590.55	3.56	213.36	1.00	89.63	5016.67	-4854.36	4834.16
Saccade R	1	8	7049518700	7049558455	39755	1232.10	575.39	823.43	590.55	3.56	213.36	1.00	89.63	5016.67	-4854.36	4834.16
Fixation L	1	9	7049558455	7050015920	457465	841.21	575.97	32	28	-1	13.26	13.26
Fixation R	1	9	7049558455	7050015920	457465	841.21	575.97	32	28	-1	12.88	12.88
Saccade L	1	9	7050015920	7050035805	19885	818.68	580.31	696.36	578.26	0.89	123.74	1.00	44.71	2684.60	-2886.95	1968.95
Saccade R	1	9	7050015920	7050035805	19885	818.68	580.31	696.36	578.26	0.89	123.74	1.00	44.71	2684.60	-2886.95	1968.95
Fixation L	1	10	7050035805	7050393897	358092	703.20	585.88	37	54	-1	12.77	12.77
Fixation R	1	10	7050035805	7050393897	358092	703.20	585.88	37	54	-1	12.59	12.59
Saccade L	1	10	7050393897	7050413801	19904	727.09	596.95	751.16	591.33	0.30	25.01	1.00	15.16	557.89	-389.26	378.77
Saccade R	1	10	7050393897	7050413801	19904	727.09	596.95	751.16	591.33	0.30	25.01	1.00	15.16	557.89	-389.26	378.77
Fixation L	1	11	7050413801	7050572895	159094	773.39	553.61	34	61	-1	12.44	12.44
Fixation R	1	11	7050413801	7050572895	159094	773.39	553.61	34	61	-1	12.41	12.41
Saccade L	1	11	7050572895	7050652388	79493	785.42	535.76	943.52	464.57	4.00	105.64	0.50	50.33	2582.78	-1849.03	1407.13
Saccade R	1	11	7050572895	7050652388	79493	785.42	535.76	943.52	464.57	4.00	105.64	0.50	50.33	2582.78	-1849.03	1407.13
