[BeGaze]
Converted from:	C:\Documents and Settings\iViewX\Desktop\EXPERIMENTATIONS\Experiments\results\finaleart\S4120113-finaleart-1.idf
Date:	27.03.2019 15:34:37
Version:	BeGaze 2.5.77
Sample Rate:	50
Subject:	S4120113
Description:	Vidal Attias

Table Header for Fixations:
Event Type	Trial	Number	Start	End	Duration	Location X	Location Y	Dispersion X	Dispersion Y	Plane	Avg. Pupil Size X	Avg. Pupil Size Y

Table Header for Saccades:
Event Type	Trial	Number	Start	End	Duration	Start Loc.X	Start Loc.Y	End Loc.X	End Loc.Y	Amplitude	Peak Speed	Peak Speed At	Average Speed	Peak Accel.	Peak Decel.	Average Accel.

Table Header for Blinks:
Event Type	Trial	Number	Start	End	Duration

Table Header for User Events:
Event Type	Trial	Number	Start	Description

UserEvent	1	1	7251084695	# Message: void.jpg
Blink L	1	1	7251094039	7251213291	119252
Saccade R	1	1	7251094039	7251153667	59628	1187.53	848.96	1094.90	670.72	3.71	155.23	0.33	62.27	631.75	-1840.29	852.64
Fixation R	1	1	7251153667	7251432137	278470	1078.17	618.36	29	69	-1	13.65	13.65
Fixation L	1	1	7251213291	7251491749	278458	1075.22	611.42	23	16	-1	10.83	10.83
Saccade R	1	2	7251432137	7251650873	218736	1071.42	604.53	1338.76	1269.72	16.42	343.57	0.64	75.05	8079.52	-4394.25	1815.82
Blink L	1	2	7251491749	7251690744	198995
Fixation R	1	2	7251650873	7251849876	199003	1320.91	1266.66	26	7	-1	13.41	13.41
Fixation L	1	2	7251690744	7251849876	159132	1319.83	1266.51	14	7	-1	14.56	14.56
Blink L	1	3	7251849876	7252267470	417594
Blink R	1	1	7251849876	7252267470	417594
Fixation L	1	3	7252267470	7252386830	119360	1046.36	695.13	55	19	-1	14.47	14.47
Fixation R	1	3	7252267470	7252386830	119360	1046.36	695.13	55	19	-1	14.06	14.06
Saccade L	1	1	7252386830	7252426580	39750	1012.60	684.35	964.04	591.89	1.52	72.76	0.50	38.34	1690.40	-1367.50	1043.79
Saccade R	1	3	7252386830	7252426580	39750	1012.60	684.35	964.04	591.89	1.52	72.76	0.50	38.34	1690.40	-1367.50	1043.79
Fixation L	1	4	7252426580	7253082932	656352	944.27	568.46	29	37	-1	13.83	13.83
Fixation R	1	4	7252426580	7253082932	656352	944.27	568.46	29	37	-1	13.11	13.11
