[BeGaze]
Converted from:	C:\Documents and Settings\iViewX\Desktop\EXPERIMENTATIONS\Experiments\results\finaleart\S4120113-finaleart-1.idf
Date:	27.03.2019 15:34:20
Version:	BeGaze 2.5.77
Sample Rate:	50
Subject:	S4120113
Description:	Vidal Attias

Table Header for Fixations:
Event Type	Trial	Number	Start	End	Duration	Location X	Location Y	Dispersion X	Dispersion Y	Plane	Avg. Pupil Size X	Avg. Pupil Size Y

Table Header for Saccades:
Event Type	Trial	Number	Start	End	Duration	Start Loc.X	Start Loc.Y	End Loc.X	End Loc.Y	Amplitude	Peak Speed	Peak Speed At	Average Speed	Peak Accel.	Peak Decel.	Average Accel.

Table Header for Blinks:
Event Type	Trial	Number	Start	End	Duration

Table Header for User Events:
Event Type	Trial	Number	Start	Description

UserEvent	1	1	6314401676	# Message: Nu_Couche_Vlaminck_1905.jpg
Fixation L	1	1	6314413740	6314851306	437566	1025.89	516.91	12	32	-1	14.30	14.30
Fixation R	1	1	6314413740	6314851306	437566	1025.89	516.91	12	32	-1	14.16	14.16
Saccade L	1	1	6314851306	6314871191	19885	1019.32	508.15	796.04	529.70	1.46	226.81	1.00	73.23	5450.83	-5508.68	3895.95
Saccade R	1	1	6314851306	6314871191	19885	1019.32	508.15	796.04	529.70	1.46	226.81	1.00	73.23	5450.83	-5508.68	3895.95
Fixation L	1	2	6314871191	6315169550	298359	757.92	525.00	49	41	-1	11.52	11.52
Fixation R	1	2	6314871191	6315169550	298359	757.92	525.00	49	41	-1	11.29	11.29
Saccade L	1	2	6315169550	6315189428	19878	754.76	500.32	754.58	489.46	0.19	12.82	1.00	9.56	-45.92	-218.02	110.48
Saccade R	1	2	6315169550	6315189428	19878	754.76	500.32	754.58	489.46	0.19	12.82	1.00	9.56	-45.92	-218.02	110.48
Fixation L	1	3	6315189428	6315308786	119358	753.73	495.87	8	27	-1	10.65	10.65
Fixation R	1	3	6315189428	6315308786	119358	753.73	495.87	8	27	-1	10.45	10.45
Saccade L	1	3	6315308786	6315328667	19881	748.04	482.42	631.26	407.74	0.98	140.19	1.00	49.46	3266.55	-2551.71	2017.81
Saccade R	1	3	6315308786	6315328667	19881	748.04	482.42	631.26	407.74	0.98	140.19	1.00	49.46	3266.55	-2551.71	2017.81
Fixation L	1	4	6315328667	6315547403	218736	620.70	382.32	19	78	-1	10.57	10.57
Fixation R	1	4	6315328667	6315547403	218736	620.70	382.32	19	78	-1	10.40	10.40
Saccade L	1	4	6315547403	6315567275	19872	611.27	352.16	611.86	336.53	0.24	20.86	1.00	11.92	14.37	-321.16	153.81
Saccade R	1	4	6315547403	6315567275	19872	611.27	352.16	611.86	336.53	0.24	20.86	1.00	11.92	14.37	-321.16	153.81
Fixation L	1	5	6315567275	6315806014	238739	604.55	340.94	14	32	-1	10.81	10.81
Fixation R	1	5	6315567275	6315806014	238739	604.55	340.94	14	32	-1	10.72	10.72
Saccade L	1	5	6315806014	6315845755	39741	613.01	356.34	975.88	441.90	3.63	204.22	0.50	91.31	4552.42	-4107.63	4230.64
Saccade R	1	5	6315806014	6315845755	39741	613.01	356.34	975.88	441.90	3.63	204.22	0.50	91.31	4552.42	-4107.63	4230.64
Fixation L	1	6	6315845755	6316064616	218861	962.50	475.07	27	60	-1	11.84	11.84
Fixation R	1	6	6315845755	6316064616	218861	962.50	475.07	27	60	-1	11.64	11.64
Saccade L	1	6	6316064616	6316084487	19871	954.37	502.56	953.40	529.89	0.49	51.21	1.00	24.77	997.31	-368.25	611.62
Saccade R	1	6	6316064616	6316084487	19871	954.37	502.56	953.40	529.89	0.49	51.21	1.00	24.77	997.31	-368.25	611.62
Fixation L	1	7	6316084487	6316183890	99403	964.59	494.41	20	50	-1	12.28	12.28
Fixation R	1	7	6316084487	6316183890	99403	964.59	494.41	20	50	-1	12.08	12.08
Saccade L	1	7	6316183890	6316223738	39848	974.02	485.29	1251.56	613.71	3.00	171.33	0.50	75.40	3974.14	-3936.90	3875.78
Saccade R	1	7	6316183890	6316223738	39848	974.02	485.29	1251.56	613.71	3.00	171.33	0.50	75.40	3974.14	-3936.90	3875.78
Fixation L	1	8	6316223738	6317019320	795582	1260.79	652.51	25	71	-1	12.88	12.88
Fixation R	1	8	6316223738	6317019320	795582	1260.79	652.51	25	71	-1	12.49	12.49
Saccade L	1	8	6317019320	6317059074	39754	1253.39	674.92	1443.07	622.70	1.95	131.38	1.00	49.09	3135.01	-2670.20	2073.70
Saccade R	1	8	6317019320	6317059074	39754	1253.39	674.92	1443.07	622.70	1.95	131.38	1.00	49.09	3135.01	-2670.20	2073.70
Fixation L	1	9	6317059074	6317814903	755829	1443.14	655.48	38	50	-1	13.17	13.17
Fixation R	1	9	6317059074	6317814903	755829	1443.14	655.48	38	50	-1	12.50	12.50
Saccade L	1	9	6317814903	6317854642	39739	1413.75	653.40	1047.35	624.24	3.38	253.30	0.50	85.17	6288.27	-5786.09	4295.16
Saccade R	1	9	6317814903	6317854642	39739	1413.75	653.40	1047.35	624.24	3.38	253.30	0.50	85.17	6288.27	-5786.09	4295.16
Fixation L	1	10	6317854642	6318133114	278472	1041.53	595.82	12	49	-1	13.31	13.31
Fixation R	1	10	6317854642	6318133114	278472	1041.53	595.82	12	49	-1	13.08	13.08
Saccade L	1	10	6318133114	6318172869	39755	1040.10	588.48	809.50	716.09	2.32	210.18	0.50	58.29	5184.35	-5084.54	3337.81
Saccade R	1	10	6318133114	6318172869	39755	1040.10	588.48	809.50	716.09	2.32	210.18	0.50	58.29	5184.35	-5084.54	3337.81
Fixation L	1	11	6318172869	6318391718	218849	806.76	706.92	6	67	-1	12.99	12.99
Fixation R	1	11	6318172869	6318391718	218849	806.76	706.92	6	67	-1	13.01	13.01
