[BeGaze]
Converted from:	C:\Documents and Settings\iViewX\Desktop\EXPERIMENTATIONS\Experiments\results\finaleart\S4120113-finaleart-1.idf
Date:	27.03.2019 15:34:32
Version:	BeGaze 2.5.77
Sample Rate:	50
Subject:	S4120113
Description:	Vidal Attias

Table Header for Fixations:
Event Type	Trial	Number	Start	End	Duration	Location X	Location Y	Dispersion X	Dispersion Y	Plane	Avg. Pupil Size X	Avg. Pupil Size Y

Table Header for Saccades:
Event Type	Trial	Number	Start	End	Duration	Start Loc.X	Start Loc.Y	End Loc.X	End Loc.Y	Amplitude	Peak Speed	Peak Speed At	Average Speed	Peak Accel.	Peak Decel.	Average Accel.

Table Header for Blinks:
Event Type	Trial	Number	Start	End	Duration

Table Header for User Events:
Event Type	Trial	Number	Start	Description

UserEvent	1	1	6989352216	# Message: void.jpg
Fixation L	1	1	6989371969	6989730071	358102	898.61	89.69	55	37	-1	12.81	12.81
Fixation R	1	1	6989371969	6989730071	358102	898.61	89.69	55	37	-1	12.01	12.01
Blink L	1	1	6989730071	6989809561	79490
Blink R	1	1	6989730071	6989829439	99368
Saccade L	1	1	6989809561	6989829439	19878	0.00	8.55	0.00	4.93	5.98	1189.29	1.00	300.74	-44.34	-29640.76	9946.90
Blink L	1	2	6989829439	6990227291	397852
Fixation R	1	2	6989829439	6989968682	139243	0.00	1.28	0	4	-1	16.88	16.88
Blink R	1	2	6989968682	6990227291	258609
Saccade L	1	2	6990227291	6990306783	79492	1157.75	313.05	1131.76	419.70	4.87	246.47	1.00	61.32	936.19	-5199.52	1147.90
Saccade R	1	1	6990227291	6990306783	79492	1157.75	313.05	1131.76	419.70	4.87	246.47	1.00	61.32	936.19	-5199.52	1147.90
Fixation L	1	2	6990306783	6990704636	397853	1106.07	443.35	47	51	-1	12.64	12.64
Fixation R	1	3	6990306783	6990704636	397853	1106.07	443.35	47	51	-1	12.21	12.21
Saccade L	1	3	6990704636	6990724506	19870	1084.02	450.78	1078.80	451.29	0.10	11.95	1.00	5.25	323.04	81.16	220.28
Saccade R	1	2	6990704636	6990724506	19870	1084.02	450.78	1078.80	451.29	0.10	11.95	1.00	5.25	323.04	81.16	220.28
Fixation L	1	3	6990724506	6991341087	616581	1061.98	445.71	25	28	-1	12.44	12.44
Fixation R	1	4	6990724506	6991341087	616581	1061.98	445.71	25	28	-1	12.06	12.06
