[BeGaze]
Converted from:	C:\Documents and Settings\iViewX\Desktop\EXPERIMENTATIONS\Experiments\results\finaleart\S4120113-finaleart-1.idf
Date:	27.03.2019 15:34:31
Version:	BeGaze 2.5.77
Sample Rate:	50
Subject:	S4120113
Description:	Vidal Attias

Table Header for Fixations:
Event Type	Trial	Number	Start	End	Duration	Location X	Location Y	Dispersion X	Dispersion Y	Plane	Avg. Pupil Size X	Avg. Pupil Size Y

Table Header for Saccades:
Event Type	Trial	Number	Start	End	Duration	Start Loc.X	Start Loc.Y	End Loc.X	End Loc.Y	Amplitude	Peak Speed	Peak Speed At	Average Speed	Peak Accel.	Peak Decel.	Average Accel.

Table Header for Blinks:
Event Type	Trial	Number	Start	End	Duration

Table Header for User Events:
Event Type	Trial	Number	Start	Description

UserEvent	1	1	6952485992	# Message: void.jpg
Saccade L	1	1	6952496324	6952516196	19872	966.08	662.11	804.44	586.27	1.32	180.56	1.00	66.63	483.60	-4304.99	1596.20
Saccade R	1	1	6952496324	6952516196	19872	966.08	662.11	804.44	586.27	1.32	180.56	1.00	66.63	483.60	-4304.99	1596.20
Fixation L	1	1	6952516196	6952675309	159113	801.67	584.86	8	41	-1	10.39	10.39
Fixation R	1	1	6952516196	6952675309	159113	801.67	584.86	8	41	-1	11.98	11.98
Saccade L	1	2	6952675309	6952695305	19996	797.92	575.95	648.59	558.16	0.95	152.09	1.00	47.54	3698.63	-3237.61	2561.66
Saccade R	1	2	6952675309	6952695305	19996	797.92	575.95	648.59	558.16	0.95	152.09	1.00	47.54	3698.63	-3237.61	2561.66
Fixation L	1	2	6952695305	6952854425	159120	612.15	562.45	50	33	-1	9.89	9.89
Fixation R	1	2	6952695305	6952854425	159120	612.15	562.45	50	33	-1	11.95	11.95
Saccade L	1	3	6952854425	6952914037	59612	605.01	550.62	607.59	546.83	1.14	28.70	1.00	19.19	3347.24	-602.47	877.82
Saccade R	1	3	6952854425	6952914037	59612	605.01	550.62	607.59	546.83	1.14	28.70	1.00	19.19	3347.24	-602.47	877.82
Blink L	1	1	6952914037	6953331770	417733
Blink R	1	1	6952914037	6953331770	417733
Fixation L	1	3	6953331770	6953749352	417582	956.38	390.12	61	31	-1	11.46	11.46
Fixation R	1	3	6953331770	6953749352	417582	956.38	390.12	61	31	-1	11.29	11.29
Saccade L	1	4	6953749352	6953769246	19894	987.04	386.10	994.39	363.97	0.25	23.58	1.00	12.41	301.59	-7.28	153.79
Saccade R	1	4	6953749352	6953769246	19894	987.04	386.10	994.39	363.97	0.25	23.58	1.00	12.41	301.59	-7.28	153.79
Fixation L	1	4	6953769246	6954465454	696208	990.38	371.36	15	54	-1	11.23	11.23
Fixation R	1	4	6953769246	6954465454	696208	990.38	371.36	15	54	-1	11.07	11.07
Saccade L	1	5	6954465454	6954485326	19872	986.01	383.49	869.22	377.58	0.95	118.28	1.00	47.63	2870.50	0.00	1435.25
Saccade R	1	5	6954465454	6954485326	19872	986.01	383.49	869.22	377.58	0.95	118.28	1.00	47.63	2870.50	0.00	1435.25
