[BeGaze]
Converted from:	C:\Documents and Settings\iViewX\Desktop\EXPERIMENTATIONS\Experiments\results\finaleart\S4120113-finaleart-1.idf
Date:	27.03.2019 15:34:18
Version:	BeGaze 2.5.77
Sample Rate:	50
Subject:	S4120113
Description:	Vidal Attias

Table Header for Fixations:
Event Type	Trial	Number	Start	End	Duration	Location X	Location Y	Dispersion X	Dispersion Y	Plane	Avg. Pupil Size X	Avg. Pupil Size Y

Table Header for Saccades:
Event Type	Trial	Number	Start	End	Duration	Start Loc.X	Start Loc.Y	End Loc.X	End Loc.Y	Amplitude	Peak Speed	Peak Speed At	Average Speed	Peak Accel.	Peak Decel.	Average Accel.

Table Header for Blinks:
Event Type	Trial	Number	Start	End	Duration

Table Header for User Events:
Event Type	Trial	Number	Start	Description

UserEvent	1	1	6275428051	# Message: void.jpg
Fixation L	1	1	6275429825	6275628694	198869	371.42	667.02	28	53	-1	12.29	12.29
Fixation R	1	1	6275429825	6275628694	198869	371.42	667.02	28	53	-1	13.49	13.49
Saccade L	1	1	6275628694	6275668430	39736	383.78	701.16	441.14	1017.81	2.87	177.56	0.50	72.28	4140.57	-4082.88	3778.92
Saccade R	1	1	6275628694	6275668430	39736	383.78	701.16	441.14	1017.81	2.87	177.56	0.50	72.28	4140.57	-4082.88	3778.92
Fixation L	1	2	6275668430	6276265151	596721	441.20	1024.07	13	64	-1	11.75	11.75
Fixation R	1	2	6275668430	6276265151	596721	441.20	1024.07	13	64	-1	13.35	13.35
Saccade L	1	2	6276265151	6276483887	218736	440.42	1017.72	951.79	350.44	22.18	237.41	0.27	101.40	4642.60	-5097.95	2120.85
Saccade R	1	2	6276265151	6276483887	218736	440.42	1017.72	951.79	350.44	22.18	237.41	0.27	101.40	4642.60	-5097.95	2120.85
Fixation L	1	3	6276483887	6277239712	755825	927.95	363.06	33	34	-1	13.22	13.22
Fixation R	1	3	6276483887	6277239712	755825	927.95	363.06	33	34	-1	13.73	13.73
Saccade L	1	3	6277239712	6277259604	19892	926.13	369.82	1022.20	404.81	0.76	103.42	1.00	38.10	2543.66	-2023.96	1695.51
Saccade R	1	3	6277239712	6277259604	19892	926.13	369.82	1022.20	404.81	0.76	103.42	1.00	38.10	2543.66	-2023.96	1695.51
Fixation L	1	4	6277259604	6277418726	159122	1034.61	432.94	16	37	-1	13.82	13.82
Fixation R	1	4	6277259604	6277418726	159122	1034.61	432.94	16	37	-1	14.28	14.28
