[BeGaze]
Converted from:	C:\Documents and Settings\iViewX\Desktop\EXPERIMENTATIONS\Experiments\results\finaleart\S4120113-finaleart-1.idf
Date:	27.03.2019 15:34:29
Version:	BeGaze 2.5.77
Sample Rate:	50
Subject:	S4120113
Description:	Vidal Attias

Table Header for Fixations:
Event Type	Trial	Number	Start	End	Duration	Location X	Location Y	Dispersion X	Dispersion Y	Plane	Avg. Pupil Size X	Avg. Pupil Size Y

Table Header for Saccades:
Event Type	Trial	Number	Start	End	Duration	Start Loc.X	Start Loc.Y	End Loc.X	End Loc.Y	Amplitude	Peak Speed	Peak Speed At	Average Speed	Peak Accel.	Peak Decel.	Average Accel.

Table Header for Blinks:
Event Type	Trial	Number	Start	End	Duration

Table Header for User Events:
Event Type	Trial	Number	Start	Description

UserEvent	1	1	6905087227	# Message: REJECTED_cezanne-still-life-with-bread-and-eggs-1865.jpg
Fixation L	1	1	6905099053	6905556539	457486	941.60	405.13	17	36	-1	12.00	12.00
Fixation R	1	1	6905099053	6905556539	457486	941.60	405.13	17	36	-1	12.05	12.05
Saccade L	1	1	6905556539	6905576400	19861	950.15	411.93	1003.90	434.51	0.48	58.97	1.00	24.02	1156.25	-1256.21	919.80
Saccade R	1	1	6905556539	6905576400	19861	950.15	411.93	1003.90	434.51	0.48	58.97	1.00	24.02	1156.25	-1256.21	919.80
Fixation L	1	2	6905576400	6905755386	178986	1016.85	444.00	35	41	-1	12.14	12.14
Fixation R	1	2	6905576400	6905755386	178986	1016.85	444.00	35	41	-1	12.10	12.10
Saccade L	1	2	6905755386	6905775260	19874	1038.06	471.53	1061.72	491.65	0.36	31.41	1.00	18.30	378.35	-428.84	302.95
Saccade R	1	2	6905755386	6905775260	19874	1038.06	471.53	1061.72	491.65	0.36	31.41	1.00	18.30	378.35	-428.84	302.95
Fixation L	1	3	6905775260	6906133237	357977	1069.69	514.11	27	50	-1	13.08	13.08
Fixation R	1	3	6905775260	6906133237	357977	1069.69	514.11	27	50	-1	13.29	13.29
Saccade L	1	3	6906133237	6906172982	39745	1068.47	535.24	1305.49	652.94	2.56	180.62	0.50	64.36	4292.15	-4184.39	3357.22
Saccade R	1	3	6906133237	6906172982	39745	1068.47	535.24	1305.49	652.94	2.56	180.62	0.50	64.36	4292.15	-4184.39	3357.22
Fixation L	1	4	6906172982	6906411727	238745	1284.82	677.56	39	41	-1	14.04	14.04
Fixation R	1	4	6906172982	6906411727	238745	1284.82	677.56	39	41	-1	14.10	14.10
Saccade L	1	4	6906411727	6906431600	19873	1279.41	686.93	1399.48	695.18	0.78	121.74	1.00	39.01	2979.44	-2461.38	1995.11
Saccade R	1	4	6906411727	6906431600	19873	1279.41	686.93	1399.48	695.18	0.78	121.74	1.00	39.01	2979.44	-2461.38	1995.11
Fixation L	1	5	6906431600	6906690210	258610	1392.20	734.72	12	51	-1	14.32	14.32
Fixation R	1	5	6906431600	6906690210	258610	1392.20	734.72	12	51	-1	14.28	14.28
Saccade L	1	5	6906690210	6906769697	79487	1393.58	739.30	1295.06	959.83	3.96	169.06	1.00	49.76	3358.94	-4039.33	2068.57
Saccade R	1	5	6906690210	6906769697	79487	1393.58	739.30	1295.06	959.83	3.96	169.06	1.00	49.76	3358.94	-4039.33	2068.57
Fixation L	1	6	6906769697	6907087938	318241	1291.64	953.38	25	28	-1	14.50	14.50
Fixation R	1	6	6906769697	6907087938	318241	1291.64	953.38	25	28	-1	14.60	14.60
Saccade L	1	6	6907087938	6907127811	39873	1282.95	967.71	838.24	865.81	3.82	294.57	0.50	95.91	7236.75	-7263.74	5613.52
Saccade R	1	6	6907087938	6907127811	39873	1282.95	967.71	838.24	865.81	3.82	294.57	0.50	95.91	7236.75	-7263.74	5613.52
Fixation L	1	7	6907127811	6907286921	159110	840.98	855.38	4	26	-1	14.10	14.10
Fixation R	1	7	6907127811	6907286921	159110	840.98	855.38	4	26	-1	14.45	14.45
Saccade L	1	7	6907286921	6907346545	59624	840.72	842.80	439.82	642.59	4.74	261.86	0.67	79.53	6283.94	-6310.87	3787.45
Saccade R	1	7	6907286921	6907346545	59624	840.72	842.80	439.82	642.59	4.74	261.86	0.67	79.53	6283.94	-6310.87	3787.45
Fixation L	1	8	6907346545	6908082502	735957	415.18	627.50	33	52	-1	12.56	12.56
Fixation R	1	8	6907346545	6908082502	735957	415.18	627.50	33	52	-1	14.03	14.03
Saccade L	1	8	6908082502	6908122243	39741	410.45	639.39	502.49	773.22	1.71	129.19	1.00	42.99	2740.68	-2989.78	1820.09
Saccade R	1	8	6908082502	6908122243	39741	410.45	639.39	502.49	773.22	1.71	129.19	1.00	42.99	2740.68	-2989.78	1820.09
Fixation L	1	9	6908122243	6908500085	377842	522.48	752.11	30	34	-1	13.78	13.78
Fixation R	1	9	6908122243	6908500085	377842	522.48	752.11	30	34	-1	15.21	15.21
Saccade L	1	9	6908500085	6908539969	39884	513.39	740.62	689.73	743.20	1.61	122.92	1.00	40.25	2776.37	-2880.63	2044.98
Saccade R	1	9	6908500085	6908539969	39884	513.39	740.62	689.73	743.20	1.61	122.92	1.00	40.25	2776.37	-2880.63	2044.98
Fixation L	1	10	6908539969	6908679230	139261	700.06	744.49	16	10	-1	14.59	14.59
Fixation R	1	10	6908539969	6908679230	139261	700.06	744.49	16	10	-1	15.12	15.12
Saccade L	1	10	6908679230	6908718957	39727	706.25	747.52	836.79	541.40	2.15	137.34	1.00	54.05	3376.72	-3051.09	3032.65
Saccade R	1	10	6908679230	6908718957	39727	706.25	747.52	836.79	541.40	2.15	137.34	1.00	54.05	3376.72	-3051.09	3032.65
Fixation L	1	11	6908718957	6908997446	278489	837.16	556.29	7	27	-1	14.73	14.73
Fixation R	1	11	6908718957	6908997446	278489	837.16	556.29	7	27	-1	15.35	15.35
Saccade L	1	11	6908997446	6909076935	79489	832.19	569.11	1240.23	579.47	5.60	247.73	0.50	70.41	6045.79	-5898.27	3699.77
Saccade R	1	11	6908997446	6909076935	79489	832.19	569.11	1240.23	579.47	5.60	247.73	0.50	70.41	6045.79	-5898.27	3699.77
