[BeGaze]
Converted from:	C:\Documents and Settings\iViewX\Desktop\EXPERIMENTATIONS\Experiments\results\finaleart\S4120113-finaleart-1.idf
Date:	27.03.2019 15:34:42
Version:	BeGaze 2.5.77
Sample Rate:	50
Subject:	S4120113
Description:	Vidal Attias

Table Header for Fixations:
Event Type	Trial	Number	Start	End	Duration	Location X	Location Y	Dispersion X	Dispersion Y	Plane	Avg. Pupil Size X	Avg. Pupil Size Y

Table Header for Saccades:
Event Type	Trial	Number	Start	End	Duration	Start Loc.X	Start Loc.Y	End Loc.X	End Loc.Y	Amplitude	Peak Speed	Peak Speed At	Average Speed	Peak Accel.	Peak Decel.	Average Accel.

Table Header for Blinks:
Event Type	Trial	Number	Start	End	Duration

Table Header for User Events:
Event Type	Trial	Number	Start	Description

UserEvent	1	1	7691479135	# Message: resting-bacchante_sorolla_1887.jpg
Fixation L	1	1	7691487228	7692004321	517093	952.28	634.52	25	38	-1	13.43	13.43
Fixation R	1	1	7691487228	7692004321	517093	952.28	634.52	25	38	-1	13.69	13.69
Saccade L	1	1	7692004321	7692044056	39735	970.14	611.98	772.59	654.10	2.50	143.63	0.50	62.97	3256.26	-2396.07	1922.63
Saccade R	1	1	7692004321	7692044056	39735	970.14	611.98	772.59	654.10	2.50	143.63	0.50	62.97	3256.26	-2396.07	1922.63
Fixation L	1	2	7692044056	7692242939	198883	769.84	655.32	19	68	-1	10.75	10.75
Fixation R	1	2	7692044056	7692242939	198883	769.84	655.32	19	68	-1	11.23	11.23
Saccade L	1	2	7692242939	7692262926	19987	760.42	632.44	617.48	605.54	0.88	147.11	1.00	43.89	3438.21	-3293.32	2387.82
Saccade R	1	2	7692242939	7692262926	19987	760.42	632.44	617.48	605.54	0.88	147.11	1.00	43.89	3438.21	-3293.32	2387.82
Fixation L	1	3	7692262926	7692441918	178992	621.74	600.80	8	17	-1	9.46	9.46
Fixation R	1	3	7692262926	7692441918	178992	621.74	600.80	8	17	-1	10.80	10.80
Saccade L	1	3	7692441918	7692461797	19879	621.91	594.02	522.96	579.25	0.59	101.19	1.00	29.66	2377.38	-2251.67	1548.57
Saccade R	1	3	7692441918	7692461797	19879	621.91	594.02	522.96	579.25	0.59	101.19	1.00	29.66	2377.38	-2251.67	1548.57
Fixation L	1	4	7692461797	7692740275	278478	520.66	567.40	12	50	-1	9.68	9.68
Fixation R	1	4	7692461797	7692740275	278478	520.66	567.40	12	50	-1	10.87	10.87
Saccade L	1	4	7692740275	7692780027	39752	515.88	557.17	381.40	461.35	1.54	111.89	0.50	38.68	2708.29	-2528.16	1616.87
Saccade R	1	4	7692740275	7692780027	39752	515.88	557.17	381.40	461.35	1.54	111.89	0.50	38.68	2708.29	-2528.16	1616.87
Fixation L	1	5	7692780027	7692998760	218733	401.20	483.85	28	52	-1	10.25	10.25
Fixation R	1	5	7692780027	7692998760	218733	401.20	483.85	28	52	-1	10.98	10.98
Saccade L	1	5	7692998760	7693038633	39873	408.95	503.00	432.62	559.58	0.99	54.67	1.00	24.94	932.75	-441.69	666.72
Saccade R	1	5	7692998760	7693038633	39873	408.95	503.00	432.62	559.58	0.99	54.67	1.00	24.94	932.75	-441.69	666.72
Fixation L	1	6	7693038633	7693257382	218749	460.61	592.06	40	57	-1	10.63	10.63
Fixation R	1	6	7693038633	7693257382	218749	460.61	592.06	40	57	-1	11.76	11.76
Saccade L	1	6	7693257382	7693277236	19854	462.37	617.55	463.70	624.31	0.17	11.00	1.00	8.32	51.37	15.68	30.53
Saccade R	1	6	7693257382	7693277236	19854	462.37	617.55	463.70	624.31	0.17	11.00	1.00	8.32	51.37	15.68	30.53
Fixation L	1	7	7693277236	7693456219	178983	446.97	629.20	24	25	-1	11.27	11.27
Fixation R	1	7	7693277236	7693456219	178983	446.97	629.20	24	25	-1	12.34	12.34
Saccade L	1	7	7693456219	7693535859	79640	438.78	630.38	1660.24	634.68	14.45	392.15	0.75	181.47	8990.03	-9030.13	6124.81
Saccade R	1	7	7693456219	7693535859	79640	438.78	630.38	1660.24	634.68	14.45	392.15	0.75	181.47	8990.03	-9030.13	6124.81
Fixation L	1	8	7693535859	7693913709	377850	1639.63	655.47	33	38	-1	11.79	11.79
Fixation R	1	8	7693535859	7693913709	377850	1639.63	655.47	33	38	-1	11.33	11.33
Saccade L	1	8	7693913709	7693993322	79613	1646.57	652.45	1742.78	626.82	3.11	118.44	0.25	39.10	2870.85	-2680.77	1475.99
Saccade R	1	8	7693913709	7693993322	79613	1646.57	652.45	1742.78	626.82	3.11	118.44	0.25	39.10	2870.85	-2680.77	1475.99
Fixation L	1	9	7693993322	7694092694	99372	1708.53	630.72	49	21	-1	11.57	11.57
Fixation R	1	9	7693993322	7694092694	99372	1708.53	630.72	49	21	-1	10.85	10.85
Saccade L	1	9	7694092694	7694212055	119361	1715.79	628.68	1811.90	275.16	7.10	226.62	0.33	59.46	5191.23	-5248.01	2113.06
Saccade R	1	9	7694092694	7694212055	119361	1715.79	628.68	1811.90	275.16	7.10	226.62	0.33	59.46	5191.23	-5248.01	2113.06
Fixation L	1	10	7694212055	7694470657	258602	1785.32	303.51	44	47	-1	11.39	11.39
Fixation R	1	10	7694212055	7694470657	258602	1785.32	303.51	44	47	-1	10.30	10.30
Saccade L	1	10	7694470657	7694570039	99382	1784.22	305.68	275.39	896.90	21.03	495.73	0.40	211.62	12310.23	-7755.07	6147.73
Saccade R	1	10	7694470657	7694570039	99382	1784.22	305.68	275.39	896.90	21.03	495.73	0.40	211.62	12310.23	-7755.07	6147.73
Fixation L	1	11	7694570039	7695107125	537086	246.93	900.71	36	53	-1	10.84	10.84
Fixation R	1	11	7694570039	7695107125	537086	246.93	900.71	36	53	-1	11.78	11.78
Saccade L	1	11	7695107125	7695126993	19868	242.33	864.57	226.53	724.99	1.06	142.07	1.00	53.38	3165.27	-3175.77	2352.91
Saccade R	1	11	7695107125	7695126993	19868	242.33	864.57	226.53	724.99	1.06	142.07	1.00	53.38	3165.27	-3175.77	2352.91
Fixation L	1	12	7695126993	7695385611	258618	201.86	716.52	31	30	-1	10.81	10.81
Fixation R	1	12	7695126993	7695385611	258618	201.86	716.52	31	30	-1	11.95	11.95
Saccade L	1	12	7695385611	7695465115	79504	195.51	717.47	464.44	547.34	5.17	181.75	0.50	65.07	4308.34	-4381.33	2902.47
Saccade R	1	12	7695385611	7695465115	79504	195.51	717.47	464.44	547.34	5.17	181.75	0.50	65.07	4308.34	-4381.33	2902.47
