[BeGaze]
Converted from:	C:\Documents and Settings\iViewX\Desktop\EXPERIMENTATIONS\Experiments\results\finaleart\S4120113-finaleart-1.idf
Date:	27.03.2019 15:34:28
Version:	BeGaze 2.5.77
Sample Rate:	50
Subject:	S4120113
Description:	Vidal Attias

Table Header for Fixations:
Event Type	Trial	Number	Start	End	Duration	Location X	Location Y	Dispersion X	Dispersion Y	Plane	Avg. Pupil Size X	Avg. Pupil Size Y

Table Header for Saccades:
Event Type	Trial	Number	Start	End	Duration	Start Loc.X	Start Loc.Y	End Loc.X	End Loc.Y	Amplitude	Peak Speed	Peak Speed At	Average Speed	Peak Accel.	Peak Decel.	Average Accel.

Table Header for Blinks:
Event Type	Trial	Number	Start	End	Duration

Table Header for User Events:
Event Type	Trial	Number	Start	Description

UserEvent	1	1	6698274668	# Message: courbet-the-sleepers-1866.jpg
Fixation L	1	1	6698283834	6698602036	318202	1075.86	492.33	6	23	-1	14.66	14.66
Fixation R	1	1	6698283834	6698602036	318202	1075.86	492.33	6	23	-1	15.21	15.21
Saccade L	1	1	6698602036	6698641891	39855	1072.21	498.30	884.92	551.03	1.81	141.28	0.50	45.40	3481.91	-3040.49	2334.74
Saccade R	1	1	6698602036	6698641891	39855	1072.21	498.30	884.92	551.03	1.81	141.28	0.50	45.40	3481.91	-3040.49	2334.74
Fixation L	1	2	6698641891	6698781154	139263	875.51	544.19	15	24	-1	14.49	14.49
Fixation R	1	2	6698641891	6698781154	139263	875.51	544.19	15	24	-1	14.95	14.95
Saccade L	1	2	6698781154	6698820878	39724	871.10	548.81	608.03	476.17	2.35	157.17	1.00	59.24	3783.58	-3798.94	3366.51
Saccade R	1	2	6698781154	6698820878	39724	871.10	548.81	608.03	476.17	2.35	157.17	1.00	59.24	3783.58	-3798.94	3366.51
Fixation L	1	3	6698820878	6699318105	497227	600.73	453.02	37	59	-1	12.27	12.27
Fixation R	1	3	6698820878	6699318105	497227	600.73	453.02	37	59	-1	12.81	12.81
Saccade L	1	3	6699318105	6699337976	19871	576.54	423.79	570.24	426.30	0.09	6.86	1.00	4.38	107.87	-136.85	120.58
Saccade R	1	3	6699318105	6699337976	19871	576.54	423.79	570.24	426.30	0.09	6.86	1.00	4.38	107.87	-136.85	120.58
Fixation L	1	4	6699337976	6699576710	238734	560.32	433.46	61	15	-1	12.22	12.22
Fixation R	1	4	6699337976	6699576710	238734	560.32	433.46	61	15	-1	13.28	13.28
Saccade L	1	4	6699576710	6699596590	19880	509.27	429.72	460.03	420.38	0.58	54.70	0.00	29.13	1193.77	-1163.56	1170.22
Saccade R	1	4	6699576710	6699596590	19880	509.27	429.72	460.03	420.38	0.58	54.70	0.00	29.13	1193.77	-1163.56	1170.22
Fixation L	1	5	6699596590	6699855078	258488	458.08	408.06	19	22	-1	12.97	12.97
Fixation R	1	5	6699596590	6699855078	258488	458.08	408.06	19	22	-1	14.07	14.07
Saccade L	1	5	6699855078	6699894939	39861	470.36	410.50	922.07	617.14	4.34	347.67	0.50	108.77	8504.63	-8465.04	6074.18
Saccade R	1	5	6699855078	6699894939	39861	470.36	410.50	922.07	617.14	4.34	347.67	0.50	108.77	8504.63	-8465.04	6074.18
Fixation L	1	6	6699894939	6700173304	278365	907.64	622.18	22	51	-1	14.44	14.44
Fixation R	1	6	6699894939	6700173304	278365	907.64	622.18	22	51	-1	14.98	14.98
Saccade L	1	6	6700173304	6700193300	19996	913.91	659.75	920.28	714.66	0.60	55.92	1.00	29.82	1338.52	-1022.53	941.98
Saccade R	1	6	6700173304	6700193300	19996	913.91	659.75	920.28	714.66	0.60	55.92	1.00	29.82	1338.52	-1022.53	941.98
Fixation L	1	7	6700193300	6700571149	377849	948.89	725.27	38	32	-1	14.72	14.72
Fixation R	1	7	6700193300	6700571149	377849	948.89	725.27	38	32	-1	14.87	14.87
Saccade L	1	7	6700571149	6700591023	19874	957.00	723.60	991.35	704.36	0.44	40.31	1.00	22.25	908.02	-724.41	835.65
Saccade R	1	7	6700571149	6700591023	19874	957.00	723.60	991.35	704.36	0.44	40.31	1.00	22.25	908.02	-724.41	835.65
Fixation L	1	8	6700591023	6701048500	457477	1034.33	674.08	51	46	-1	15.15	15.15
Fixation R	1	8	6700591023	6701048500	457477	1034.33	674.08	51	46	-1	15.10	15.10
Saccade L	1	8	6701048500	6701068367	19867	1042.51	658.32	1044.96	657.90	0.03	2.52	1.00	1.27	40.76	-16.07	28.99
Saccade R	1	8	6701048500	6701068367	19867	1042.51	658.32	1044.96	657.90	0.03	2.52	1.00	1.27	40.76	-16.07	28.99
Fixation L	1	9	6701068367	6701227482	159115	1046.86	660.35	9	5	-1	15.64	15.64
Fixation R	1	9	6701068367	6701227482	159115	1046.86	660.35	9	5	-1	15.43	15.43
Saccade L	1	9	6701227482	6701247350	19868	1054.12	663.61	1178.19	680.13	0.70	126.60	1.00	35.20	3131.18	-2843.61	2025.33
Saccade R	1	9	6701227482	6701247350	19868	1054.12	663.61	1178.19	680.13	0.70	126.60	1.00	35.20	3131.18	-2843.61	2025.33
Fixation L	1	10	6701247350	6701665088	417738	1176.86	704.59	10	51	-1	16.03	16.03
Fixation R	1	10	6701247350	6701665088	417738	1176.86	704.59	10	51	-1	15.81	15.81
Saccade L	1	10	6701665088	6701704834	39746	1173.19	716.97	1400.58	734.85	1.90	150.39	0.50	47.74	3740.73	-3627.20	2700.10
Saccade R	1	10	6701665088	6701704834	39746	1173.19	716.97	1400.58	734.85	1.90	150.39	0.50	47.74	3740.73	-3627.20	2700.10
Fixation L	1	11	6701704834	6701983309	278475	1378.24	757.20	39	31	-1	16.28	16.28
Fixation R	1	11	6701704834	6701983309	278475	1378.24	757.20	39	31	-1	15.44	15.44
Saccade L	1	11	6701983309	6702042927	59618	1361.24	766.34	1089.38	704.42	3.57	178.33	1.00	59.92	3013.73	-4251.96	2337.40
Saccade R	1	11	6701983309	6702042927	59618	1361.24	766.34	1089.38	704.42	3.57	178.33	1.00	59.92	3013.73	-4251.96	2337.40
Fixation L	1	12	6702042927	6702241932	199005	1055.48	696.12	53	39	-1	15.80	15.80
Fixation R	1	12	6702042927	6702241932	199005	1055.48	696.12	53	39	-1	15.48	15.48
Saccade L	1	12	6702241932	6702321422	79490	1036.08	690.29	763.76	571.92	4.41	222.26	0.25	55.48	5406.78	-4726.33	2292.66
Saccade R	1	12	6702241932	6702321422	79490	1036.08	690.29	763.76	571.92	4.41	222.26	0.25	55.48	5406.78	-4726.33	2292.66
