[BeGaze]
Converted from:	C:\Documents and Settings\iViewX\Desktop\EXPERIMENTATIONS\Experiments\results\finaleart\S4120113-finaleart-1.idf
Date:	27.03.2019 15:34:38
Version:	BeGaze 2.5.77
Sample Rate:	50
Subject:	S4120113
Description:	Vidal Attias

Table Header for Fixations:
Event Type	Trial	Number	Start	End	Duration	Location X	Location Y	Dispersion X	Dispersion Y	Plane	Avg. Pupil Size X	Avg. Pupil Size Y

Table Header for Saccades:
Event Type	Trial	Number	Start	End	Duration	Start Loc.X	Start Loc.Y	End Loc.X	End Loc.Y	Amplitude	Peak Speed	Peak Speed At	Average Speed	Peak Accel.	Peak Decel.	Average Accel.

Table Header for Blinks:
Event Type	Trial	Number	Start	End	Duration

Table Header for User Events:
Event Type	Trial	Number	Start	Description

UserEvent	1	1	7288258191	# Message: void.jpg
Fixation L	1	1	7288268053	7288447038	178985	785.29	593.80	14	40	-1	11.56	11.56
Fixation R	1	1	7288268053	7288447038	178985	785.29	593.80	14	40	-1	12.25	12.25
Saccade L	1	1	7288447038	7288466905	19867	794.85	571.84	806.06	460.69	0.72	113.00	1.00	36.36	2721.35	-2253.34	1667.30
Saccade R	1	1	7288447038	7288466905	19867	794.85	571.84	806.06	460.69	0.72	113.00	1.00	36.36	2721.35	-2253.34	1667.30
Fixation L	1	2	7288466905	7288665771	198866	826.66	450.66	31	52	-1	11.68	11.68
Fixation R	1	2	7288466905	7288665771	198866	826.66	450.66	31	52	-1	11.99	11.99
Blink L	1	1	7288665771	7289183005	517234
Blink R	1	1	7288665771	7289103361	437590
Fixation R	1	3	7289143107	7289242608	99501	1024.38	520.51	29	57	-1	12.76	12.76
Fixation L	1	3	7289183005	7289302237	119232	1025.67	548.61	20	75	-1	13.72	13.72
Saccade R	1	2	7289242608	7289262488	19880	1027.71	551.48	1025.98	570.89	0.32	23.42	0.00	16.30	178.62	-360.30	295.36
Fixation R	1	4	7289262488	7289898940	636452	999.66	610.26	37	55	-1	12.45	12.45
Saccade L	1	2	7289302237	7289322106	19869	1019.57	580.49	1020.42	587.67	0.13	9.53	1.00	6.64	-21.97	-84.33	53.86
Fixation L	1	4	7289322106	7290018317	696211	996.20	619.19	32	65	-1	12.99	12.99
Saccade R	1	3	7289898940	7289918834	19894	988.40	617.42	988.86	646.53	0.23	29.45	1.00	11.69	631.88	-605.63	442.08
Fixation R	1	5	7289918834	7290276918	358084	990.26	646.50	8	19	-1	13.21	13.21
Saccade L	1	3	7290018317	7290038188	19871	991.43	646.04	990.51	655.65	0.16	9.77	1.00	8.09	9.21	-227.11	100.30
Fixation L	1	5	7290038188	7290276918	238730	990.55	646.48	8	19	-1	13.36	13.36
