[BeGaze]
Converted from:	C:\Documents and Settings\iViewX\Desktop\EXPERIMENTATIONS\Experiments\results\finaleart\S4120113-finaleart-1.idf
Date:	27.03.2019 15:34:18
Version:	BeGaze 2.5.77
Sample Rate:	50
Subject:	S4120113
Description:	Vidal Attias

Table Header for Fixations:
Event Type	Trial	Number	Start	End	Duration	Location X	Location Y	Dispersion X	Dispersion Y	Plane	Avg. Pupil Size X	Avg. Pupil Size Y

Table Header for Saccades:
Event Type	Trial	Number	Start	End	Duration	Start Loc.X	Start Loc.Y	End Loc.X	End Loc.Y	Amplitude	Peak Speed	Peak Speed At	Average Speed	Peak Accel.	Peak Decel.	Average Accel.

Table Header for Blinks:
Event Type	Trial	Number	Start	End	Duration

Table Header for User Events:
Event Type	Trial	Number	Start	Description

UserEvent	1	1	6271365812	# Message: manet-the-salmon-1868.jpg
Fixation L	1	1	6271372326	6271849667	477341	1054.82	456.33	12	27	-1	13.73	13.73
Fixation R	1	1	6271372326	6271849667	477341	1054.82	456.33	12	27	-1	14.05	14.05
Saccade L	1	1	6271849667	6271869549	19882	1046.66	469.00	1047.83	595.20	0.79	127.66	1.00	39.83	2972.17	-2982.11	2043.11
Saccade R	1	1	6271849667	6271869549	19882	1046.66	469.00	1047.83	595.20	0.79	127.66	1.00	39.83	2972.17	-2982.11	2043.11
Fixation L	1	2	6271869549	6272545742	676193	1028.45	587.83	29	39	-1	11.90	11.90
Fixation R	1	2	6271869549	6272545742	676193	1028.45	587.83	29	39	-1	12.07	12.07
Saccade L	1	2	6272545742	6272585494	39752	1027.62	589.86	1168.09	517.97	1.78	86.53	0.50	44.74	1916.22	-1554.20	1635.35
Saccade R	1	2	6272545742	6272585494	39752	1027.62	589.86	1168.09	517.97	1.78	86.53	0.50	44.74	1916.22	-1554.20	1635.35
Fixation L	1	3	6272585494	6273023092	437598	1171.28	506.30	22	41	-1	12.31	12.31
Fixation R	1	3	6272585494	6273023092	437598	1171.28	506.30	22	41	-1	12.54	12.54
Saccade L	1	3	6273023092	6273062836	39744	1161.55	514.36	1335.90	501.70	1.61	117.19	1.00	40.49	2830.83	-2174.44	1879.38
Saccade R	1	3	6273023092	6273062836	39744	1161.55	514.36	1335.90	501.70	1.61	117.19	1.00	40.49	2830.83	-2174.44	1879.38
Fixation L	1	4	6273062836	6273440820	377984	1321.01	511.86	41	49	-1	13.14	13.14
Fixation R	1	4	6273062836	6273440820	377984	1321.01	511.86	41	49	-1	13.03	13.03
Saccade L	1	4	6273440820	6273480580	39760	1343.11	493.84	1472.21	523.57	1.30	112.35	0.50	32.65	2721.87	-2330.29	1463.97
Saccade R	1	4	6273440820	6273480580	39760	1343.11	493.84	1472.21	523.57	1.30	112.35	0.50	32.65	2721.87	-2330.29	1463.97
Fixation L	1	5	6273480580	6273699432	218852	1475.28	565.69	24	69	-1	12.69	12.69
Fixation R	1	5	6273480580	6273699432	218852	1475.28	565.69	24	69	-1	12.94	12.94
Saccade L	1	5	6273699432	6273719295	19863	1462.35	590.79	1462.79	605.64	0.29	21.31	1.00	14.36	34.92	-253.62	148.57
Saccade R	1	5	6273699432	6273719295	19863	1462.35	590.79	1462.79	605.64	0.29	21.31	1.00	14.36	34.92	-253.62	148.57
Fixation L	1	6	6273719295	6273858546	139251	1476.16	604.22	60	38	-1	12.70	12.70
Fixation R	1	6	6273719295	6273858546	139251	1476.16	604.22	60	38	-1	12.83	12.83
Saccade L	1	6	6273858546	6273878417	19871	1519.13	609.12	1521.04	602.58	0.32	25.58	0.00	16.16	200.24	-467.83	376.05
Saccade R	1	6	6273858546	6273878417	19871	1519.13	609.12	1521.04	602.58	0.32	25.58	0.00	16.16	200.24	-467.83	376.05
Fixation L	1	7	6273878417	6274136895	258478	1520.77	597.73	39	40	-1	12.88	12.88
Fixation R	1	7	6273878417	6274136895	258478	1520.77	597.73	39	40	-1	12.77	12.77
Saccade L	1	7	6274136895	6274196645	59750	1547.82	580.21	1353.73	613.65	3.19	163.06	1.00	53.40	3335.78	-3845.22	1933.04
Saccade R	1	7	6274136895	6274196645	59750	1547.82	580.21	1353.73	613.65	3.19	163.06	1.00	53.40	3335.78	-3845.22	1933.04
Fixation L	1	8	6274196645	6274335881	139236	1317.31	617.25	54	25	-1	12.89	12.89
Fixation R	1	8	6274196645	6274335881	139236	1317.31	617.25	54	25	-1	12.83	12.83
Saccade L	1	8	6274335881	6274375625	39744	1303.85	628.99	992.78	627.06	3.08	185.55	1.00	77.42	4323.07	-4470.20	3441.11
Saccade R	1	8	6274335881	6274375625	39744	1303.85	628.99	992.78	627.06	3.08	185.55	1.00	77.42	4323.07	-4470.20	3441.11
Fixation L	1	9	6274375625	6274673988	298363	950.62	633.99	60	15	-1	13.08	13.08
Fixation R	1	9	6274375625	6274673988	298363	950.62	633.99	60	15	-1	13.31	13.31
Saccade L	1	9	6274673988	6274713732	39744	953.12	640.90	681.73	656.97	2.25	193.89	0.50	56.51	4813.90	-4739.59	3368.31
Saccade R	1	9	6274673988	6274713732	39744	953.12	640.90	681.73	656.97	2.25	193.89	0.50	56.51	4813.90	-4739.59	3368.31
Fixation L	1	10	6274713732	6275151349	437617	672.89	664.88	18	41	-1	12.84	12.84
Fixation R	1	10	6274713732	6275151349	437617	672.89	664.88	18	41	-1	13.33	13.33
Saccade L	1	10	6275151349	6275171212	19863	663.67	659.36	696.52	740.06	0.61	88.14	1.00	30.57	2054.75	-1317.29	1190.01
Saccade R	1	10	6275151349	6275171212	19863	663.67	659.36	696.52	740.06	0.61	88.14	1.00	30.57	2054.75	-1317.29	1190.01
Fixation L	1	11	6275171212	6275330328	159116	697.78	767.97	27	43	-1	12.79	12.79
Fixation R	1	11	6275171212	6275330328	159116	697.78	767.97	27	43	-1	13.35	13.35
Saccade L	1	11	6275330328	6275350199	19871	706.83	775.90	503.72	681.79	1.57	226.35	1.00	78.76	5453.85	0.00	2726.92
Saccade R	1	11	6275330328	6275350199	19871	706.83	775.90	503.72	681.79	1.57	226.35	1.00	78.76	5453.85	0.00	2726.92
