[BeGaze]
Converted from:	C:\Documents and Settings\iViewX\Desktop\EXPERIMENTATIONS\Experiments\results\finaleart\S4120113-finaleart-1.idf
Date:	27.03.2019 15:34:17
Version:	BeGaze 2.5.77
Sample Rate:	50
Subject:	S4120113
Description:	Vidal Attias

Table Header for Fixations:
Event Type	Trial	Number	Start	End	Duration	Location X	Location Y	Dispersion X	Dispersion Y	Plane	Avg. Pupil Size X	Avg. Pupil Size Y

Table Header for Saccades:
Event Type	Trial	Number	Start	End	Duration	Start Loc.X	Start Loc.Y	End Loc.X	End Loc.Y	Amplitude	Peak Speed	Peak Speed At	Average Speed	Peak Accel.	Peak Decel.	Average Accel.

Table Header for Blinks:
Event Type	Trial	Number	Start	End	Duration

Table Header for User Events:
Event Type	Trial	Number	Start	Description

UserEvent	1	1	6240501795	# Message: REJECTED_olympia_manet_1863.jpg
Fixation L	1	1	6240503306	6241080027	576721	933.95	571.50	41	29	-1	12.23	12.23
Fixation R	1	1	6240503306	6241080027	576721	933.95	571.50	41	29	-1	11.55	11.55
Saccade L	1	1	6241080027	6241100031	20004	901.76	578.78	786.00	589.28	0.92	117.57	1.00	46.10	2796.51	-2646.15	2087.46
Saccade R	1	1	6241080027	6241100031	20004	901.76	578.78	786.00	589.28	0.92	117.57	1.00	46.10	2796.51	-2646.15	2087.46
Fixation L	1	2	6241100031	6241279003	178972	787.19	598.18	53	19	-1	12.42	12.42
Fixation R	1	2	6241100031	6241279003	178972	787.19	598.18	53	19	-1	11.95	11.95
Saccade L	1	2	6241279003	6241298872	19869	745.96	595.68	718.90	606.26	0.44	50.26	0.00	22.34	587.30	-1161.26	651.52
Saccade R	1	2	6241279003	6241298872	19869	745.96	595.68	718.90	606.26	0.44	50.26	0.00	22.34	587.30	-1161.26	651.52
Fixation L	1	3	6241298872	6241636981	338109	702.06	583.89	55	39	-1	12.17	12.17
Fixation R	1	3	6241298872	6241636981	338109	702.06	583.89	55	39	-1	12.09	12.09
Saccade L	1	3	6241636981	6241736487	99506	663.11	567.39	617.81	366.56	3.30	165.54	1.00	33.20	4063.40	-3714.08	1262.12
Saccade R	1	3	6241636981	6241736487	99506	663.11	567.39	617.81	366.56	3.30	165.54	1.00	33.20	4063.40	-3714.08	1262.12
Fixation L	1	4	6241736487	6242372949	636462	591.96	383.72	46	51	-1	12.46	12.46
Fixation R	1	4	6241736487	6242372949	636462	591.96	383.72	46	51	-1	12.54	12.54
Saccade L	1	4	6242372949	6242452444	79495	571.87	384.12	677.86	580.36	3.12	231.49	1.00	39.24	5760.27	-5668.49	2034.56
Saccade R	1	4	6242372949	6242452444	79495	571.87	384.12	677.86	580.36	3.12	231.49	1.00	39.24	5760.27	-5668.49	2034.56
Fixation L	1	5	6242452444	6243148650	696206	693.36	600.76	39	37	-1	13.40	13.40
Fixation R	1	5	6242452444	6243148650	696206	693.36	600.76	39	37	-1	13.18	13.18
Saccade L	1	5	6243148650	6243188400	39750	717.35	591.41	1039.52	692.63	3.00	255.75	0.50	75.55	6375.40	-6181.53	4210.87
Saccade R	1	5	6243148650	6243188400	39750	717.35	591.41	1039.52	692.63	3.00	255.75	0.50	75.55	6375.40	-6181.53	4210.87
Fixation L	1	6	6243188400	6243447002	258602	1041.90	707.15	71	21	-1	13.27	13.27
Fixation R	1	6	6243188400	6243447002	258602	1041.90	707.15	71	21	-1	13.09	13.09
Saccade L	1	6	6243447002	6243466888	19886	1104.79	704.82	1201.02	697.30	0.87	97.63	1.00	43.60	2428.24	-2400.62	2175.93
Saccade R	1	6	6243447002	6243466888	19886	1104.79	704.82	1201.02	697.30	0.87	97.63	1.00	43.60	2428.24	-2400.62	2175.93
Fixation L	1	7	6243466888	6243725489	258601	1186.76	684.81	24	37	-1	13.30	13.30
Fixation R	1	7	6243466888	6243725489	258601	1186.76	684.81	24	37	-1	12.45	12.45
Saccade L	1	7	6243725489	6243745363	19874	1182.93	681.85	1382.90	696.01	1.31	202.72	1.00	65.74	4663.53	-4742.63	3276.52
Saccade R	1	7	6243725489	6243745363	19874	1182.93	681.85	1382.90	696.01	1.31	202.72	1.00	65.74	4663.53	-4742.63	3276.52
Fixation L	1	8	6243745363	6244043718	298355	1407.64	700.06	37	47	-1	13.48	13.48
Fixation R	1	8	6243745363	6244043718	298355	1407.64	700.06	37	47	-1	12.34	12.34
Saccade L	1	8	6244043718	6244083462	39744	1387.37	704.66	1383.29	304.27	4.04	230.66	1.00	101.57	5007.18	-4773.03	4172.65
Saccade R	1	8	6244043718	6244083462	39744	1387.37	704.66	1383.29	304.27	4.04	230.66	1.00	101.57	5007.18	-4773.03	4172.65
Fixation L	1	9	6244083462	6244262459	178997	1367.52	319.06	68	28	-1	13.76	13.76
Fixation R	1	9	6244083462	6244262459	178997	1367.52	319.06	68	28	-1	12.79	12.79
Saccade L	1	9	6244262459	6244282323	19864	1323.24	328.69	1304.25	332.64	0.47	44.00	0.00	23.69	393.72	-418.23	340.01
Saccade R	1	9	6244262459	6244282323	19864	1323.24	328.69	1304.25	332.64	0.47	44.00	0.00	23.69	393.72	-418.23	340.01
Fixation L	1	10	6244282323	6244521066	238743	1333.22	317.75	45	26	-1	13.83	13.83
Fixation R	1	10	6244282323	6244521066	238743	1333.22	317.75	45	26	-1	13.14	13.14
