[BeGaze]
Converted from:	C:\Documents and Settings\iViewX\Desktop\EXPERIMENTATIONS\Experiments\results\finaleart\S4120113-finaleart-1.idf
Date:	27.03.2019 15:34:37
Version:	BeGaze 2.5.77
Sample Rate:	50
Subject:	S4120113
Description:	Vidal Attias

Table Header for Fixations:
Event Type	Trial	Number	Start	End	Duration	Location X	Location Y	Dispersion X	Dispersion Y	Plane	Avg. Pupil Size X	Avg. Pupil Size Y

Table Header for Saccades:
Event Type	Trial	Number	Start	End	Duration	Start Loc.X	Start Loc.Y	End Loc.X	End Loc.Y	Amplitude	Peak Speed	Peak Speed At	Average Speed	Peak Accel.	Peak Decel.	Average Accel.

Table Header for Blinks:
Event Type	Trial	Number	Start	End	Duration

Table Header for User Events:
Event Type	Trial	Number	Start	Description

UserEvent	1	1	7265508657	# Message: still-life-with-skate_Boudin_1861.jpg
Saccade L	1	1	7265514045	7265533920	19875	1132.41	445.48	980.65	531.56	1.23	176.45	1.00	62.05	242.31	-3812.92	1351.74
Saccade R	1	1	7265514045	7265533920	19875	1132.41	445.48	980.65	531.56	1.23	176.45	1.00	62.05	242.31	-3812.92	1351.74
Fixation L	1	1	7265533920	7265931801	397881	980.75	539.72	11	57	-1	15.33	15.33
Fixation R	1	1	7265533920	7265931801	397881	980.75	539.72	11	57	-1	15.45	15.45
Saccade L	1	2	7265931801	7265951644	19843	976.43	575.13	974.27	755.33	1.03	182.25	1.00	51.94	4383.39	-4428.88	3044.30
Saccade R	1	2	7265931801	7265951644	19843	976.43	575.13	974.27	755.33	1.03	182.25	1.00	51.94	4383.39	-4428.88	3044.30
Fixation L	1	2	7265951644	7266269874	318230	959.58	744.40	24	22	-1	15.60	15.60
Fixation R	1	2	7265951644	7266269874	318230	959.58	744.40	24	22	-1	16.00	16.00
Saccade L	1	3	7266269874	7266289756	19882	950.64	743.78	1035.39	899.14	0.99	178.97	1.00	49.96	4418.57	-4265.41	2906.93
Saccade R	1	3	7266269874	7266289756	19882	950.64	743.78	1035.39	899.14	0.99	178.97	1.00	49.96	4418.57	-4265.41	2906.93
Fixation L	1	3	7266289756	7266528474	238718	1040.85	912.46	10	20	-1	15.75	15.75
Fixation R	1	3	7266289756	7266528474	238718	1040.85	912.46	10	20	-1	15.73	15.73
Saccade L	1	4	7266528474	7266548359	19885	1033.72	919.54	936.94	920.42	0.62	97.89	1.00	31.10	2396.97	-2359.61	1696.06
Saccade R	1	4	7266528474	7266548359	19885	1033.72	919.54	936.94	920.42	0.62	97.89	1.00	31.10	2396.97	-2359.61	1696.06
Fixation L	1	4	7266548359	7267005832	457473	921.66	923.56	70	13	-1	15.40	15.40
Fixation R	1	4	7266548359	7267005832	457473	921.66	923.56	70	13	-1	15.69	15.69
Saccade L	1	5	7267005832	7267025694	19862	980.43	922.77	1125.26	932.35	1.11	146.80	1.00	56.01	3631.30	-3528.92	2900.63
Saccade R	1	5	7267005832	7267025694	19862	980.43	922.77	1125.26	932.35	1.11	146.80	1.00	56.01	3631.30	-3528.92	2900.63
Fixation L	1	5	7267025694	7267244437	218743	1119.76	952.32	14	34	-1	14.91	14.91
Fixation R	1	5	7267025694	7267244437	218743	1119.76	952.32	14	34	-1	14.66	14.66
Saccade L	1	6	7267244437	7267284310	39873	1122.58	966.64	1429.12	765.43	3.67	278.32	1.00	92.02	6886.29	-6397.72	4085.93
Saccade R	1	6	7267244437	7267284310	39873	1122.58	966.64	1429.12	765.43	3.67	278.32	1.00	92.02	6886.29	-6397.72	4085.93
Fixation L	1	6	7267284310	7267503035	218725	1475.64	748.69	65	27	-1	15.24	15.24
Fixation R	1	6	7267284310	7267503035	218725	1475.64	748.69	65	27	-1	15.00	15.00
Saccade L	1	7	7267503035	7267522924	19889	1475.35	742.04	1475.21	730.76	0.48	65.29	1.00	24.08	1507.09	-109.54	565.39
Saccade R	1	7	7267503035	7267522924	19889	1475.35	742.04	1475.21	730.76	0.48	65.29	1.00	24.08	1507.09	-109.54	565.39
Fixation L	1	7	7267522924	7267642305	119381	1468.21	670.16	12	79	-1	15.29	15.29
Fixation R	1	7	7267522924	7267642305	119381	1468.21	670.16	12	79	-1	14.92	14.92
Saccade L	1	8	7267642305	7267701918	59613	1462.47	659.93	1157.27	467.20	3.99	264.81	0.67	66.97	6461.40	-6232.30	3343.28
Saccade R	1	8	7267642305	7267701918	59613	1462.47	659.93	1157.27	467.20	3.99	264.81	0.67	66.97	6461.40	-6232.30	3343.28
Fixation L	1	8	7267701918	7268060022	358104	1163.36	451.79	30	24	-1	14.93	14.93
Fixation R	1	8	7267701918	7268060022	358104	1163.36	451.79	30	24	-1	14.80	14.80
Saccade L	1	9	7268060022	7268099760	39738	1138.50	454.22	787.28	601.37	3.42	303.07	0.50	85.96	7492.33	-7267.03	4600.37
Saccade R	1	9	7268060022	7268099760	39738	1138.50	454.22	787.28	601.37	3.42	303.07	0.50	85.96	7492.33	-7267.03	4600.37
Fixation L	1	9	7268099760	7268497490	397730	777.80	609.41	12	29	-1	15.43	15.43
Fixation R	1	9	7268099760	7268497490	397730	777.80	609.41	12	29	-1	15.87	15.87
Saccade L	1	10	7268497490	7268517476	19986	779.06	627.60	931.65	652.15	1.08	156.31	1.00	54.21	3671.15	-3252.98	2408.87
Saccade R	1	10	7268497490	7268517476	19986	779.06	627.60	931.65	652.15	1.08	156.31	1.00	54.21	3671.15	-3252.98	2408.87
Fixation L	1	10	7268517476	7269153943	636467	975.52	674.40	52	44	-1	15.83	15.83
Fixation R	1	10	7268517476	7269153943	636467	975.52	674.40	52	44	-1	16.15	16.15
Saccade L	1	11	7269153943	7269173814	19871	980.76	670.65	1105.01	534.14	1.25	186.67	1.00	63.02	4542.81	-4220.89	3394.00
Saccade R	1	11	7269153943	7269173814	19871	980.76	670.65	1105.01	534.14	1.25	186.67	1.00	63.02	4542.81	-4220.89	3394.00
Fixation L	1	11	7269173814	7269551676	377862	1160.19	517.02	72	24	-1	16.12	16.12
Fixation R	1	11	7269173814	7269551676	377862	1160.19	517.02	72	24	-1	15.99	15.99
