[BeGaze]
Converted from:	C:\Documents and Settings\iViewX\Desktop\EXPERIMENTATIONS\Experiments\results\finaleart\S4120113-finaleart-1.idf
Date:	27.03.2019 15:34:47
Version:	BeGaze 2.5.77
Sample Rate:	50
Subject:	S4120113
Description:	Vidal Attias

Table Header for Fixations:
Event Type	Trial	Number	Start	End	Duration	Location X	Location Y	Dispersion X	Dispersion Y	Plane	Avg. Pupil Size X	Avg. Pupil Size Y

Table Header for Saccades:
Event Type	Trial	Number	Start	End	Duration	Start Loc.X	Start Loc.Y	End Loc.X	End Loc.Y	Amplitude	Peak Speed	Peak Speed At	Average Speed	Peak Accel.	Peak Decel.	Average Accel.

Table Header for Blinks:
Event Type	Trial	Number	Start	End	Duration

Table Header for User Events:
Event Type	Trial	Number	Start	Description

UserEvent	1	1	7965548898	# Message: goya-Nature-morte-avec-Bouteilles-et-Pains-1826.jpg
Saccade L	1	1	7965561309	7965680682	119373	1186.90	695.54	1022.62	574.41	4.44	121.53	0.83	37.22	2980.64	-1740.47	1047.72
Saccade R	1	1	7965561309	7965680682	119373	1186.90	695.54	1022.62	574.41	4.44	121.53	0.83	37.22	2980.64	-1740.47	1047.72
Fixation L	1	1	7965680682	7965899415	218733	979.81	557.02	55	43	-1	11.50	11.50
Fixation R	1	1	7965680682	7965899415	218733	979.81	557.02	55	43	-1	12.68	12.68
Saccade L	1	2	7965899415	7965919300	19885	981.11	540.57	982.76	536.18	0.10	7.92	0.00	5.25	33.33	-76.15	61.41
Saccade R	1	2	7965899415	7965919300	19885	981.11	540.57	982.76	536.18	0.10	7.92	0.00	5.25	33.33	-76.15	61.41
Fixation L	1	2	7965919300	7966058521	139221	987.18	531.63	9	13	-1	11.04	11.04
Fixation R	1	2	7965919300	7966058521	139221	987.18	531.63	9	13	-1	12.30	12.30
Saccade L	1	3	7966058521	7966078421	19900	992.12	530.80	1076.64	532.72	0.57	85.52	1.00	28.71	1888.65	-2094.93	1352.58
Saccade R	1	3	7966058521	7966078421	19900	992.12	530.80	1076.64	532.72	0.57	85.52	1.00	28.71	1888.65	-2094.93	1352.58
Fixation L	1	3	7966078421	7966337017	258596	1075.00	506.27	10	50	-1	10.51	10.51
Fixation R	1	3	7966078421	7966337017	258596	1075.00	506.27	10	50	-1	11.59	11.59
Saccade L	1	4	7966337017	7966356884	19867	1073.63	484.92	1099.16	421.14	0.59	69.49	1.00	29.70	1492.19	-1547.84	1297.99
Saccade R	1	4	7966337017	7966356884	19867	1073.63	484.92	1099.16	421.14	0.59	69.49	1.00	29.70	1492.19	-1547.84	1297.99
Fixation L	1	4	7966356884	7966794476	437592	1132.05	387.04	44	42	-1	10.41	10.41
Fixation R	1	4	7966356884	7966794476	437592	1132.05	387.04	44	42	-1	11.40	11.40
Saccade L	1	5	7966794476	7966814363	19887	1106.90	389.09	1075.38	390.39	0.36	32.52	0.00	17.97	739.96	-684.45	661.49
Saccade R	1	5	7966794476	7966814363	19887	1106.90	389.09	1075.38	390.39	0.36	32.52	0.00	17.97	739.96	-684.45	661.49
Fixation L	1	5	7966814363	7967072969	258606	1072.67	387.16	10	9	-1	10.91	10.91
Fixation R	1	5	7966814363	7967072969	258606	1072.67	387.16	10	9	-1	11.69	11.69
Saccade L	1	6	7967072969	7967112711	39742	1069.76	383.78	1452.09	584.15	3.82	238.48	1.00	96.10	5925.03	-5499.99	5071.22
Saccade R	1	6	7967072969	7967112711	39742	1069.76	383.78	1452.09	584.15	3.82	238.48	1.00	96.10	5925.03	-5499.99	5071.22
Fixation L	1	6	7967112711	7967510444	397733	1471.94	593.04	24	40	-1	11.52	11.52
Fixation R	1	6	7967112711	7967510444	397733	1471.94	593.04	24	40	-1	12.05	12.05
Saccade L	1	7	7967510444	7967550309	39865	1469.86	590.86	1218.42	603.08	2.21	160.44	0.50	55.36	3686.32	-3890.74	3015.75
Saccade R	1	7	7967510444	7967550309	39865	1469.86	590.86	1218.42	603.08	2.21	160.44	0.50	55.36	3686.32	-3890.74	3015.75
Fixation L	1	7	7967550309	7967729291	178982	1218.00	614.01	8	34	-1	11.19	11.19
Fixation R	1	7	7967550309	7967729291	178982	1218.00	614.01	8	34	-1	11.85	11.85
Saccade L	1	8	7967729291	7967749176	19885	1212.90	633.35	1236.44	721.57	0.91	92.36	1.00	45.60	1979.19	-2195.78	1966.24
Saccade R	1	8	7967729291	7967749176	19885	1212.90	633.35	1236.44	721.57	0.91	92.36	1.00	45.60	1979.19	-2195.78	1966.24
Fixation L	1	8	7967749176	7967868539	119363	1237.80	763.34	27	72	-1	11.39	11.39
Fixation R	1	8	7967749176	7967868539	119363	1237.80	763.34	27	72	-1	12.02	12.02
Saccade L	1	9	7967868539	7967948055	79516	1248.96	748.17	1002.51	908.92	3.95	200.19	1.00	49.71	4900.48	-4400.07	2372.92
Saccade R	1	9	7967868539	7967948055	79516	1248.96	748.17	1002.51	908.92	3.95	200.19	1.00	49.71	4900.48	-4400.07	2372.92
Fixation L	1	9	7967948055	7968206642	258587	998.31	889.16	14	55	-1	11.37	11.37
Fixation R	1	9	7967948055	7968206642	258587	998.31	889.16	14	55	-1	12.59	12.59
Saccade L	1	10	7968206642	7968246398	39756	996.48	912.54	675.79	757.18	3.09	214.73	1.00	77.82	4978.31	-5340.07	4320.86
Saccade R	1	10	7968206642	7968246398	39756	996.48	912.54	675.79	757.18	3.09	214.73	1.00	77.82	4978.31	-5340.07	4320.86
Fixation L	1	10	7968246398	7968544777	298379	655.92	770.71	30	49	-1	10.77	10.77
Fixation R	1	10	7968246398	7968544777	298379	655.92	770.71	30	49	-1	12.31	12.31
Saccade L	1	11	7968544777	7968564632	19855	649.18	777.83	643.10	674.86	0.88	104.34	1.00	44.41	1950.92	-1672.47	1522.78
Saccade R	1	11	7968544777	7968564632	19855	649.18	777.83	643.10	674.86	0.88	104.34	1.00	44.41	1950.92	-1672.47	1522.78
Fixation L	1	11	7968564632	7968703876	139244	643.34	660.81	3	41	-1	10.79	10.79
Fixation R	1	11	7968564632	7968703876	139244	643.34	660.81	3	41	-1	12.17	12.17
Saccade L	1	12	7968703876	7968723742	19866	643.44	664.26	635.40	552.80	0.80	113.04	1.00	40.39	2751.53	-2717.73	2153.89
Saccade R	1	12	7968703876	7968723742	19866	643.44	664.26	635.40	552.80	0.80	113.04	1.00	40.39	2751.53	-2717.73	2153.89
Fixation L	1	12	7968723742	7969121585	397843	615.12	505.85	31	66	-1	11.10	11.10
Fixation R	1	12	7968723742	7969121585	397843	615.12	505.85	31	66	-1	12.76	12.76
Saccade L	1	13	7969121585	7969141470	19885	604.06	487.04	601.67	480.48	0.12	12.76	1.00	6.12	64.42	-142.40	101.10
Saccade R	1	13	7969121585	7969141470	19885	604.06	487.04	601.67	480.48	0.12	12.76	1.00	6.12	64.42	-142.40	101.10
Fixation L	1	13	7969141470	7969280700	139230	594.99	470.92	13	21	-1	11.43	11.43
Fixation R	1	13	7969141470	7969280700	139230	594.99	470.92	13	21	-1	13.13	13.13
Saccade L	1	14	7969280700	7969320451	39751	590.41	458.95	630.38	247.28	2.08	115.10	0.50	52.44	2855.50	-2060.65	2334.73
Saccade R	1	14	7969280700	7969320451	39751	590.41	458.95	630.38	247.28	2.08	115.10	0.50	52.44	2855.50	-2060.65	2334.73
Fixation L	1	14	7969320451	7969439831	119380	638.11	267.70	29	40	-1	11.23	11.23
Fixation R	1	14	7969320451	7969439831	119380	638.11	267.70	29	40	-1	12.84	12.84
Saccade L	1	15	7969439831	7969539193	99362	634.50	288.28	853.65	217.43	4.50	113.94	0.20	45.26	2371.12	-2053.31	1564.51
Saccade R	1	15	7969439831	7969539193	99362	634.50	288.28	853.65	217.43	4.50	113.94	0.20	45.26	2371.12	-2053.31	1564.51
