[BeGaze]
Converted from:	C:\Documents and Settings\iViewX\Desktop\EXPERIMENTATIONS\Experiments\results\finaleart\S4120113-finaleart-1.idf
Date:	27.03.2019 15:34:50
Version:	BeGaze 2.5.77
Sample Rate:	50
Subject:	S4120113
Description:	Vidal Attias

Table Header for Fixations:
Event Type	Trial	Number	Start	End	Duration	Location X	Location Y	Dispersion X	Dispersion Y	Plane	Avg. Pupil Size X	Avg. Pupil Size Y

Table Header for Saccades:
Event Type	Trial	Number	Start	End	Duration	Start Loc.X	Start Loc.Y	End Loc.X	End Loc.Y	Amplitude	Peak Speed	Peak Speed At	Average Speed	Peak Accel.	Peak Decel.	Average Accel.

Table Header for Blinks:
Event Type	Trial	Number	Start	End	Duration

Table Header for User Events:
Event Type	Trial	Number	Start	Description

UserEvent	1	1	8049838963	# Message: void.jpg
Fixation L	1	1	8049854107	8049993327	139220	1192.82	194.12	11	24	-1	12.60	12.60
Fixation R	1	1	8049854107	8049993327	139220	1192.82	194.12	11	24	-1	11.86	11.86
Saccade L	1	1	8049993327	8050013210	19883	1199.78	191.00	1328.09	374.56	1.58	226.44	1.00	79.38	5461.62	-5176.19	4087.68
Saccade R	1	1	8049993327	8050013210	19883	1199.78	191.00	1328.09	374.56	1.58	226.44	1.00	79.38	5461.62	-5176.19	4087.68
Fixation L	1	2	8050013210	8050132573	119363	1308.97	423.19	29	68	-1	12.93	12.93
Fixation R	1	2	8050013210	8050132573	119363	1308.97	423.19	29	68	-1	12.27	12.27
Saccade L	1	2	8050132573	8050152464	19891	1298.88	430.63	1293.78	441.67	0.17	12.31	1.00	8.57	265.31	-125.83	187.02
Saccade R	1	2	8050132573	8050152464	19891	1298.88	430.63	1293.78	441.67	0.17	12.31	1.00	8.57	265.31	-125.83	187.02
Fixation L	1	3	8050152464	8050311565	159101	1295.80	448.61	8	36	-1	13.35	13.35
Fixation R	1	3	8050152464	8050311565	159101	1295.80	448.61	8	36	-1	12.65	12.65
Blink L	1	1	8050311565	8050649795	338230
Blink R	1	1	8050311565	8050550296	238731
Fixation R	1	4	8050590051	8050948029	357978	1048.31	575.02	39	51	-1	13.87	13.87
Fixation L	1	4	8050649795	8051823228	1173433	1048.85	568.29	23	63	-1	13.19	13.19
Saccade R	1	3	8050948029	8050968026	19997	1044.80	586.19	1049.40	528.39	0.52	58.66	1.00	25.95	1312.93	-1136.49	1121.97
Fixation R	1	5	8050968026	8051823228	855202	1050.75	565.09	19	57	-1	12.59	12.59
