[BeGaze]
Converted from:	C:\Documents and Settings\iViewX\Desktop\EXPERIMENTATIONS\Experiments\results\finaleart\S4120113-finaleart-1.idf
Date:	27.03.2019 15:34:33
Version:	BeGaze 2.5.77
Sample Rate:	50
Subject:	S4120113
Description:	Vidal Attias

Table Header for Fixations:
Event Type	Trial	Number	Start	End	Duration	Location X	Location Y	Dispersion X	Dispersion Y	Plane	Avg. Pupil Size X	Avg. Pupil Size Y

Table Header for Saccades:
Event Type	Trial	Number	Start	End	Duration	Start Loc.X	Start Loc.Y	End Loc.X	End Loc.Y	Amplitude	Peak Speed	Peak Speed At	Average Speed	Peak Accel.	Peak Decel.	Average Accel.

Table Header for Blinks:
Event Type	Trial	Number	Start	End	Duration

Table Header for User Events:
Event Type	Trial	Number	Start	Description

UserEvent	1	1	7009760641	# Message: morning_in_a_pine_forest_Ivan_Shishkin_1889.jpg
Fixation L	1	1	7009778990	7009997711	218721	924.93	399.10	51	47	-1	12.80	12.80
Fixation R	1	1	7009778990	7009997711	218721	924.93	399.10	51	47	-1	14.11	14.11
Saccade L	1	1	7009997711	7010017592	19881	969.20	430.77	977.43	471.02	0.60	58.84	0.00	30.42	873.68	-1104.31	909.98
Saccade R	1	1	7009997711	7010017592	19881	969.20	430.77	977.43	471.02	0.60	58.84	0.00	30.42	873.68	-1104.31	909.98
Fixation L	1	2	7010017592	7010236338	218746	983.84	472.26	10	19	-1	13.33	13.33
Fixation R	1	2	7010017592	7010236338	218746	983.84	472.26	10	19	-1	14.26	14.26
Saccade L	1	2	7010236338	7010256332	19994	978.38	478.57	938.31	584.81	0.68	114.85	1.00	34.07	2782.89	-2225.33	1745.95
Saccade R	1	2	7010236338	7010256332	19994	978.38	478.57	938.31	584.81	0.68	114.85	1.00	34.07	2782.89	-2225.33	1745.95
Fixation L	1	3	7010256332	7010415434	159102	930.59	577.42	19	38	-1	13.14	13.14
Fixation R	1	3	7010256332	7010415434	159102	930.59	577.42	19	38	-1	14.34	14.34
Saccade L	1	3	7010415434	7010435311	19877	922.17	557.60	906.16	505.68	0.45	54.96	1.00	22.44	1271.31	-954.21	788.95
Saccade R	1	3	7010415434	7010435311	19877	922.17	557.60	906.16	505.68	0.45	54.96	1.00	22.44	1271.31	-954.21	788.95
Fixation L	1	4	7010435311	7010594433	159122	878.00	509.72	52	45	-1	12.19	12.19
Fixation R	1	4	7010435311	7010594433	159122	878.00	509.72	52	45	-1	13.88	13.88
Saccade L	1	4	7010594433	7010614322	19889	853.55	480.24	840.65	463.88	0.41	25.64	0.00	20.43	138.01	-160.31	151.17
Saccade R	1	4	7010594433	7010614322	19889	853.55	480.24	840.65	463.88	0.41	25.64	0.00	20.43	138.01	-160.31	151.17
Fixation L	1	5	7010614322	7010852917	238595	834.65	450.11	19	25	-1	11.97	11.97
Fixation R	1	5	7010614322	7010852917	238595	834.65	450.11	19	25	-1	13.42	13.42
Saccade L	1	5	7010852917	7010872922	20005	830.32	466.73	695.08	522.35	1.00	147.90	1.00	49.99	3637.19	-3412.28	2411.64
Saccade R	1	5	7010852917	7010872922	20005	830.32	466.73	695.08	522.35	1.00	147.90	1.00	49.99	3637.19	-3412.28	2411.64
Fixation L	1	6	7010872922	7011131393	258471	691.09	520.26	13	84	-1	12.42	12.42
Fixation R	1	6	7010872922	7011131393	258471	691.09	520.26	13	84	-1	14.00	14.00
Saccade L	1	6	7011131393	7011151278	19885	697.61	569.26	699.89	550.94	0.33	28.89	0.00	16.55	289.06	-433.59	347.54
Saccade R	1	6	7011131393	7011151278	19885	697.61	569.26	699.89	550.94	0.33	28.89	0.00	16.55	289.06	-433.59	347.54
Fixation L	1	7	7011151278	7011350251	198973	700.13	571.02	6	80	-1	13.39	13.39
Fixation R	1	7	7011151278	7011350251	198973	700.13	571.02	6	80	-1	15.10	15.10
Saccade L	1	7	7011350251	7011370139	19888	704.75	631.28	719.21	777.76	1.16	148.86	1.00	58.15	3643.76	-3575.39	2693.32
Saccade R	1	7	7011350251	7011370139	19888	704.75	631.28	719.21	777.76	1.16	148.86	1.00	58.15	3643.76	-3575.39	2693.32
Fixation L	1	8	7011370139	7011549123	178984	725.38	737.31	19	68	-1	14.01	14.01
Fixation R	1	8	7011370139	7011549123	178984	725.38	737.31	19	68	-1	15.41	15.41
Saccade L	1	8	7011549123	7011569000	19877	731.90	709.67	734.01	695.46	0.29	27.39	1.00	14.84	476.03	-79.58	230.55
Saccade R	1	8	7011549123	7011569000	19877	731.90	709.67	734.01	695.46	0.29	27.39	1.00	14.84	476.03	-79.58	230.55
Fixation L	1	9	7011569000	7012185587	616587	704.15	712.08	53	34	-1	14.00	14.00
Fixation R	1	9	7011569000	7012185587	616587	704.15	712.08	53	34	-1	15.80	15.80
Saccade L	1	9	7012185587	7012225336	39749	680.64	717.93	1100.55	724.30	3.56	277.29	1.00	89.58	6880.53	-6411.73	5056.79
Saccade R	1	9	7012185587	7012225336	39749	680.64	717.93	1100.55	724.30	3.56	277.29	1.00	89.58	6880.53	-6411.73	5056.79
Fixation L	1	10	7012225336	7012802170	576834	1144.59	726.45	64	35	-1	14.15	14.15
Fixation R	1	10	7012225336	7012802170	576834	1144.59	726.45	64	35	-1	15.04	15.04
Saccade L	1	10	7012802170	7012822051	19881	1163.24	715.18	1160.37	710.28	0.08	6.37	1.00	4.25	106.23	-43.91	74.82
Saccade R	1	10	7012802170	7012822051	19881	1163.24	715.18	1160.37	710.28	0.08	6.37	1.00	4.25	106.23	-43.91	74.82
Fixation L	1	11	7012822051	7012981167	159116	1164.90	711.28	7	15	-1	13.77	13.77
Fixation R	1	11	7012822051	7012981167	159116	1164.90	711.28	7	15	-1	14.25	14.25
Saccade L	1	11	7012981167	7013020901	39734	1164.62	714.59	877.44	535.87	3.02	228.19	1.00	75.99	5563.93	-5469.08	4158.15
Saccade R	1	11	7012981167	7013020901	39734	1164.62	714.59	877.44	535.87	3.02	228.19	1.00	75.99	5563.93	-5469.08	4158.15
Fixation L	1	12	7013020901	7013219910	199009	858.70	518.95	37	28	-1	13.72	13.72
Fixation R	1	12	7013020901	7013219910	199009	858.70	518.95	37	28	-1	14.86	14.86
Saccade L	1	12	7013219910	7013259655	39745	839.98	520.63	355.56	661.25	4.48	319.71	0.50	112.63	7830.19	-7562.56	6219.20
Saccade R	1	12	7013219910	7013259655	39745	839.98	520.63	355.56	661.25	4.48	319.71	0.50	112.63	7830.19	-7562.56	6219.20
Fixation L	1	13	7013259655	7013478386	218731	364.92	677.54	13	29	-1	12.06	12.06
Fixation R	1	13	7013259655	7013478386	218731	364.92	677.54	13	29	-1	14.19	14.19
Saccade L	1	13	7013478386	7013557994	79608	368.74	687.20	1014.81	411.17	8.82	274.92	0.50	110.80	6745.76	-5152.20	3876.24
Saccade R	1	13	7013478386	7013557994	79608	368.74	687.20	1014.81	411.17	8.82	274.92	0.50	110.80	6745.76	-5152.20	3876.24
Fixation L	1	14	7013557994	7013756860	198866	1031.15	358.86	27	69	-1	12.86	12.86
Fixation R	1	14	7013557994	7013756860	198866	1031.15	358.86	27	69	-1	14.45	14.45
