[BeGaze]
Converted from:	C:\Documents and Settings\iViewX\Desktop\EXPERIMENTATIONS\Experiments\results\finaleart\S4120113-finaleart-1.idf
Date:	27.03.2019 15:34:26
Version:	BeGaze 2.5.77
Sample Rate:	50
Subject:	S4120113
Description:	Vidal Attias

Table Header for Fixations:
Event Type	Trial	Number	Start	End	Duration	Location X	Location Y	Dispersion X	Dispersion Y	Plane	Avg. Pupil Size X	Avg. Pupil Size Y

Table Header for Saccades:
Event Type	Trial	Number	Start	End	Duration	Start Loc.X	Start Loc.Y	End Loc.X	End Loc.Y	Amplitude	Peak Speed	Peak Speed At	Average Speed	Peak Accel.	Peak Decel.	Average Accel.

Table Header for Blinks:
Event Type	Trial	Number	Start	End	Duration

Table Header for User Events:
Event Type	Trial	Number	Start	Description

UserEvent	1	1	6648766370	# Message: the_kiss_gericault_1816.jpg
Fixation L	1	1	6648778312	6649215885	437573	1058.64	645.98	20	75	-1	15.06	15.06
Fixation R	1	1	6648778312	6649215885	437573	1058.64	645.98	20	75	-1	14.56	14.56
Saccade L	1	1	6649215885	6649235768	19883	1072.66	585.82	1076.62	576.65	0.33	29.05	1.00	16.36	718.74	-473.57	500.04
Saccade R	1	1	6649215885	6649235768	19883	1072.66	585.82	1076.62	576.65	0.33	29.05	1.00	16.36	718.74	-473.57	500.04
Fixation L	1	2	6649235768	6649335122	99354	1082.70	569.08	8	48	-1	14.53	14.53
Fixation R	1	2	6649235768	6649335122	99354	1082.70	569.08	8	48	-1	14.17	14.17
Saccade L	1	2	6649335122	6649354995	19873	1085.07	583.30	1107.23	506.86	0.56	80.51	1.00	28.11	1668.81	-1597.57	1220.12
Saccade R	1	2	6649335122	6649354995	19873	1085.07	583.30	1107.23	506.86	0.56	80.51	1.00	28.11	1668.81	-1597.57	1220.12
Fixation L	1	3	6649354995	6649534106	179111	1118.81	494.01	24	39	-1	13.82	13.82
Fixation R	1	3	6649354995	6649534106	179111	1118.81	494.01	24	39	-1	13.32	13.32
Saccade L	1	3	6649534106	6649573851	39745	1130.50	478.21	1133.23	315.06	1.50	124.28	1.00	37.63	3025.63	-3042.79	1910.55
Saccade R	1	3	6649534106	6649573851	39745	1130.50	478.21	1133.23	315.06	1.50	124.28	1.00	37.63	3025.63	-3042.79	1910.55
Fixation L	1	4	6649573851	6650051199	477348	1158.65	298.12	62	27	-1	13.28	13.28
Fixation R	1	4	6649573851	6650051199	477348	1158.65	298.12	62	27	-1	12.38	12.38
Saccade L	1	4	6650051199	6650071089	19890	1194.74	301.44	1212.63	290.07	0.23	21.44	1.00	11.65	202.07	-471.49	225.76
Saccade R	1	4	6650051199	6650071089	19890	1194.74	301.44	1212.63	290.07	0.23	21.44	1.00	11.65	202.07	-471.49	225.76
Fixation L	1	5	6650071089	6650369430	298341	1209.35	298.92	11	32	-1	14.18	14.18
Fixation R	1	5	6650071089	6650369430	298341	1209.35	298.92	11	32	-1	13.71	13.71
Saccade L	1	5	6650369430	6650389309	19879	1203.46	319.13	1161.10	484.57	0.99	172.72	1.00	49.76	4288.75	-4177.53	2931.34
Saccade R	1	5	6650369430	6650389309	19879	1203.46	319.13	1161.10	484.57	0.99	172.72	1.00	49.76	4288.75	-4177.53	2931.34
Fixation L	1	6	6650389309	6650687661	298352	1140.60	504.30	26	51	-1	14.94	14.94
Fixation R	1	6	6650389309	6650687661	298352	1140.60	504.30	26	51	-1	14.49	14.49
Saccade L	1	6	6650687661	6650707531	19870	1143.24	535.68	1158.73	559.19	0.49	37.95	1.00	24.78	625.02	-15.42	286.22
Saccade R	1	6	6650687661	6650707531	19870	1143.24	535.68	1158.73	559.19	0.49	37.95	1.00	24.78	625.02	-15.42	286.22
Fixation L	1	7	6650707531	6650926399	218868	1158.27	586.53	17	42	-1	14.98	14.98
Fixation R	1	7	6650707531	6650926399	218868	1158.27	586.53	17	42	-1	14.43	14.43
Saccade L	1	7	6650926399	6650946277	19878	1162.85	584.87	997.76	593.82	1.08	167.21	1.00	54.27	4042.02	-3238.05	2740.42
Saccade R	1	7	6650926399	6650946277	19878	1162.85	584.87	997.76	593.82	1.08	167.21	1.00	54.27	4042.02	-3238.05	2740.42
Fixation L	1	8	6650946277	6651145136	198859	960.09	610.48	49	37	-1	14.87	14.87
Fixation R	1	8	6650946277	6651145136	198859	960.09	610.48	49	37	-1	14.49	14.49
Saccade L	1	8	6651145136	6651165013	19877	948.50	612.02	904.95	606.85	0.69	82.30	1.00	34.49	1885.49	-1016.94	1300.37
Saccade R	1	8	6651145136	6651165013	19877	948.50	612.02	904.95	606.85	0.69	82.30	1.00	34.49	1885.49	-1016.94	1300.37
Fixation L	1	9	6651165013	6651304251	139238	830.58	602.62	87	9	-1	14.85	14.85
Fixation R	1	9	6651165013	6651304251	139238	830.58	602.62	87	9	-1	14.72	14.72
Saccade L	1	9	6651304251	6651324118	19867	820.83	597.55	821.91	592.06	0.05	5.67	1.00	2.77	117.83	-56.85	76.76
Saccade R	1	9	6651304251	6651324118	19867	820.83	597.55	821.91	592.06	0.05	5.67	1.00	2.77	117.83	-56.85	76.76
Fixation L	1	10	6651324118	6651781597	457479	827.99	594.15	40	27	-1	14.74	14.74
Fixation R	1	10	6651324118	6651781597	457479	827.99	594.15	40	27	-1	14.76	14.76
Saccade L	1	10	6651781597	6651801473	19876	798.00	605.61	692.42	590.94	0.76	107.82	1.00	38.47	2645.88	-2551.06	2028.74
Saccade R	1	10	6651781597	6651801473	19876	798.00	605.61	692.42	590.94	0.76	107.82	1.00	38.47	2645.88	-2551.06	2028.74
Fixation L	1	11	6651801473	6651940716	139243	697.94	593.34	11	5	-1	14.79	14.79
Fixation R	1	11	6651801473	6651940716	139243	697.94	593.34	11	5	-1	14.39	14.39
Saccade L	1	11	6651940716	6651960582	19866	700.24	592.77	595.47	597.09	0.80	106.07	1.00	40.02	2532.37	-2514.61	2050.50
Saccade R	1	11	6651940716	6651960582	19866	700.24	592.77	595.47	597.09	0.80	106.07	1.00	40.02	2532.37	-2514.61	2050.50
Fixation L	1	12	6651960582	6652159449	198867	557.12	611.19	46	30	-1	14.32	14.32
Fixation R	1	12	6651960582	6652159449	198867	557.12	611.19	46	30	-1	14.42	14.42
Saccade L	1	12	6652159449	6652338585	179136	554.39	611.79	1277.62	461.20	12.72	283.78	0.89	71.03	6960.06	-6654.42	3090.86
Saccade R	1	12	6652159449	6652338585	179136	554.39	611.79	1277.62	461.20	12.72	283.78	0.89	71.03	6960.06	-6654.42	3090.86
Fixation L	1	13	6652338585	6652656803	318218	1286.35	454.39	26	69	-1	14.09	14.09
Fixation R	1	13	6652338585	6652656803	318218	1286.35	454.39	26	69	-1	13.66	13.66
Saccade L	1	13	6652656803	6652756158	99355	1269.38	440.52	1263.35	392.50	2.29	57.51	1.00	23.10	47.58	-924.81	397.85
Saccade R	1	13	6652656803	6652756158	99355	1269.38	440.52	1263.35	392.50	2.29	57.51	1.00	23.10	47.58	-924.81	397.85
