[BeGaze]
Converted from:	C:\Documents and Settings\iViewX\Desktop\EXPERIMENTATIONS\Experiments\results\finaleart\S4120113-finaleart-1.idf
Date:	27.03.2019 15:34:31
Version:	BeGaze 2.5.77
Sample Rate:	50
Subject:	S4120113
Description:	Vidal Attias

Table Header for Fixations:
Event Type	Trial	Number	Start	End	Duration	Location X	Location Y	Dispersion X	Dispersion Y	Plane	Avg. Pupil Size X	Avg. Pupil Size Y

Table Header for Saccades:
Event Type	Trial	Number	Start	End	Duration	Start Loc.X	Start Loc.Y	End Loc.X	End Loc.Y	Amplitude	Peak Speed	Peak Speed At	Average Speed	Peak Accel.	Peak Decel.	Average Accel.

Table Header for Blinks:
Event Type	Trial	Number	Start	End	Duration

Table Header for User Events:
Event Type	Trial	Number	Start	Description

UserEvent	1	1	6960655341	# Message: basket-of-fruits-Manet-1864.jpg
Saccade L	1	1	6960671082	6960750565	79483	987.16	324.17	935.25	328.43	1.65	57.31	1.00	20.76	1305.38	-699.04	561.52
Saccade R	1	1	6960671082	6960750565	79483	987.16	324.17	935.25	328.43	1.65	57.31	1.00	20.76	1305.38	-699.04	561.52
Fixation L	1	1	6960750565	6960989303	238738	882.75	327.03	59	40	-1	13.82	13.82
Fixation R	1	1	6960750565	6960989303	238738	882.75	327.03	59	40	-1	14.54	14.54
Saccade L	1	2	6960989303	6961009174	19871	877.78	339.05	882.99	340.52	0.06	5.48	1.00	2.96	116.86	42.31	76.37
Saccade R	1	2	6960989303	6961009174	19871	877.78	339.05	882.99	340.52	0.06	5.48	1.00	2.96	116.86	42.31	76.37
Fixation L	1	2	6961009174	6961148424	139250	883.31	348.12	4	15	-1	14.09	14.09
Fixation R	1	2	6961009174	6961148424	139250	883.31	348.12	4	15	-1	15.01	15.01
Saccade L	1	3	6961148424	6961168294	19870	885.80	355.54	819.65	426.59	0.66	98.20	1.00	33.34	2416.14	-2118.89	1660.62
Saccade R	1	3	6961148424	6961168294	19870	885.80	355.54	819.65	426.59	0.66	98.20	1.00	33.34	2416.14	-2118.89	1660.62
Fixation L	1	3	6961168294	6961526404	358110	839.30	425.23	39	54	-1	14.06	14.06
Fixation R	1	3	6961168294	6961526404	358110	839.30	425.23	39	54	-1	14.75	14.75
Saccade L	1	4	6961526404	6961546271	19867	836.10	429.12	849.31	359.29	0.77	71.89	1.00	38.53	1416.52	-1484.02	1369.42
Saccade R	1	4	6961526404	6961546271	19867	836.10	429.12	849.31	359.29	0.77	71.89	1.00	38.53	1416.52	-1484.02	1369.42
Fixation L	1	4	6961546271	6961645768	99497	839.00	405.24	15	72	-1	13.25	13.25
Fixation R	1	4	6961546271	6961645768	99497	839.00	405.24	15	72	-1	14.01	14.01
Saccade L	1	5	6961645768	6961665633	19865	833.44	432.19	823.25	436.47	0.62	56.60	0.00	31.34	-187.58	-1140.73	737.94
Saccade R	1	5	6961645768	6961665633	19865	833.44	432.19	823.25	436.47	0.62	56.60	0.00	31.34	-187.58	-1140.73	737.94
Fixation L	1	5	6961665633	6962321968	656335	809.89	434.53	32	51	-1	13.61	13.61
Fixation R	1	5	6961665633	6962321968	656335	809.89	434.53	32	51	-1	14.22	14.22
Saccade L	1	6	6962321968	6962361715	39747	829.64	414.13	1235.21	639.54	4.01	295.90	0.50	100.96	7366.76	-7196.82	5617.99
Saccade R	1	6	6962321968	6962361715	39747	829.64	414.13	1235.21	639.54	4.01	295.90	0.50	100.96	7366.76	-7196.82	5617.99
Fixation L	1	6	6962361715	6962739576	377861	1225.25	651.23	25	34	-1	13.77	13.77
Fixation R	1	6	6962361715	6962739576	377861	1225.25	651.23	25	34	-1	13.28	13.28
Saccade L	1	7	6962739576	6962759565	19989	1236.05	637.58	1278.42	629.38	0.53	43.65	1.00	26.76	893.13	-716.22	760.30
Saccade R	1	7	6962739576	6962759565	19989	1236.05	637.58	1278.42	629.38	0.53	43.65	1.00	26.76	893.13	-716.22	760.30
Fixation L	1	7	6962759565	6962858929	99364	1305.65	650.09	52	44	-1	13.15	13.15
Fixation R	1	7	6962759565	6962858929	99364	1305.65	650.09	52	44	-1	12.48	12.48
Saccade L	1	8	6962858929	6962878819	19890	1307.79	673.59	1301.50	681.85	0.28	22.62	1.00	14.09	158.29	-26.36	91.30
Saccade R	1	8	6962858929	6962878819	19890	1307.79	673.59	1301.50	681.85	0.28	22.62	1.00	14.09	158.29	-26.36	91.30
Fixation L	1	8	6962878819	6962998181	119362	1303.42	684.30	10	30	-1	13.53	13.53
Fixation R	1	8	6962878819	6962998181	119362	1303.42	684.30	10	30	-1	12.68	12.68
Saccade L	1	9	6962998181	6963037933	39752	1301.20	676.28	955.22	913.22	4.12	294.92	1.00	103.61	7180.36	-5703.53	4569.74
Saccade R	1	9	6962998181	6963037933	39752	1301.20	676.28	955.22	913.22	4.12	294.92	1.00	103.61	7180.36	-5703.53	4569.74
Fixation L	1	9	6963037933	6963157300	119367	935.35	928.13	31	65	-1	13.45	13.45
Fixation R	1	9	6963037933	6963157300	119367	935.35	928.13	31	65	-1	13.36	13.36
Saccade L	1	10	6963157300	6963177163	19863	925.24	937.65	915.94	919.13	0.29	20.97	1.00	14.83	258.32	-172.20	171.40
Saccade R	1	10	6963157300	6963177163	19863	925.24	937.65	915.94	919.13	0.29	20.97	1.00	14.83	258.32	-172.20	171.40
Fixation L	1	10	6963177163	6963455648	278485	923.37	934.21	48	41	-1	13.39	13.39
Fixation R	1	10	6963177163	6963455648	278485	923.37	934.21	48	41	-1	13.61	13.61
Saccade L	1	11	6963455648	6963475540	19892	956.18	952.71	989.54	943.32	0.40	35.06	1.00	19.91	654.29	-673.84	626.51
Saccade R	1	11	6963455648	6963475540	19892	956.18	952.71	989.54	943.32	0.40	35.06	1.00	19.91	654.29	-673.84	626.51
Fixation L	1	11	6963475540	6963654517	178977	992.27	944.87	12	27	-1	13.02	13.02
Fixation R	1	11	6963475540	6963654517	178977	992.27	944.87	12	27	-1	13.15	13.15
Saccade L	1	12	6963654517	6963694390	39873	996.18	929.96	956.09	553.15	3.47	218.25	1.00	87.02	5345.44	-4777.56	4297.34
Saccade R	1	12	6963654517	6963694390	39873	996.18	929.96	956.09	553.15	3.47	218.25	1.00	87.02	5345.44	-4777.56	4297.34
Fixation L	1	12	6963694390	6963813634	119244	947.61	542.39	28	35	-1	12.77	12.77
Fixation R	1	12	6963694390	6963813634	119244	947.61	542.39	28	35	-1	12.97	12.97
Saccade L	1	13	6963813634	6963833509	19875	934.43	543.95	895.37	499.52	0.52	59.84	1.00	26.08	1110.49	-861.27	849.14
Saccade R	1	13	6963813634	6963833509	19875	934.43	543.95	895.37	499.52	0.52	59.84	1.00	26.08	1110.49	-861.27	849.14
Fixation L	1	13	6963833509	6964151729	318220	861.09	467.40	42	54	-1	12.56	12.56
Fixation R	1	13	6963833509	6964151729	318220	861.09	467.40	42	54	-1	12.90	12.90
Saccade L	1	14	6964151729	6964191614	39885	853.36	454.04	1306.07	545.45	4.18	263.79	1.00	104.91	6311.18	-6252.40	5552.99
Saccade R	1	14	6964151729	6964191614	39885	853.36	454.04	1306.07	545.45	4.18	263.79	1.00	104.91	6311.18	-6252.40	5552.99
Fixation L	1	14	6964191614	6964450097	258483	1284.88	569.11	27	33	-1	12.80	12.80
Fixation R	1	14	6964191614	6964450097	258483	1284.88	569.11	27	33	-1	12.77	12.77
Blink L	1	1	6964450097	6964609223	159126
Blink R	1	1	6964450097	6964609223	159126
Fixation L	1	15	6964609223	6964708710	99487	835.19	322.99	3	24	-1	16.54	16.54
Fixation R	1	15	6964609223	6964708710	99487	835.19	322.99	3	24	-1	15.45	15.45
