[BeGaze]
Converted from:	C:\Documents and Settings\iViewX\Desktop\EXPERIMENTATIONS\Experiments\results\finaleart\S4120113-finaleart-1.idf
Date:	27.03.2019 15:34:17
Version:	BeGaze 2.5.77
Sample Rate:	50
Subject:	S4120113
Description:	Vidal Attias

Table Header for Fixations:
Event Type	Trial	Number	Start	End	Duration	Location X	Location Y	Dispersion X	Dispersion Y	Plane	Avg. Pupil Size X	Avg. Pupil Size Y

Table Header for Saccades:
Event Type	Trial	Number	Start	End	Duration	Start Loc.X	Start Loc.Y	End Loc.X	End Loc.Y	Amplitude	Peak Speed	Peak Speed At	Average Speed	Peak Accel.	Peak Decel.	Average Accel.

Table Header for Blinks:
Event Type	Trial	Number	Start	End	Duration

Table Header for User Events:
Event Type	Trial	Number	Start	Description

UserEvent	1	1	6200136866	# Message: REJECTED_landscape_cross_0.jpg
Fixation L	1	1	6200146998	6200763580	616582	856.20	505.55	30	45	-1	11.65	11.65
Fixation R	1	1	6200146998	6200763580	616582	856.20	505.55	30	45	-1	12.78	12.78
Saccade L	1	1	6200763580	6200783456	19876	842.78	479.35	825.85	438.18	0.54	45.04	1.00	26.92	856.29	-619.53	739.87
Saccade R	1	1	6200763580	6200783456	19876	842.78	479.35	825.85	438.18	0.54	45.04	1.00	26.92	856.29	-619.53	739.87
Fixation L	1	2	6200783456	6201061948	278492	810.29	457.24	37	47	-1	9.09	9.09
Fixation R	1	2	6200783456	6201061948	278492	810.29	457.24	37	47	-1	9.86	9.86
Saccade L	1	2	6201061948	6201081807	19859	791.11	454.61	666.98	492.75	0.86	131.34	1.00	43.29	3009.49	-2562.05	1906.15
Saccade R	1	2	6201061948	6201081807	19859	791.11	454.61	666.98	492.75	0.86	131.34	1.00	43.29	3009.49	-2562.05	1906.15
Fixation L	1	3	6201081807	6201439797	357990	648.07	469.43	26	66	-1	8.44	8.44
Fixation R	1	3	6201081807	6201439797	357990	648.07	469.43	26	66	-1	10.18	10.18
Saccade L	1	3	6201439797	6201479548	39751	642.27	462.64	538.24	494.21	1.21	101.35	1.00	30.56	2466.64	-2389.14	1416.22
Saccade R	1	3	6201439797	6201479548	39751	642.27	462.64	538.24	494.21	1.21	101.35	1.00	30.56	2466.64	-2389.14	1416.22
Fixation L	1	4	6201479548	6201718275	238727	536.81	481.45	17	81	-1	8.51	8.51
Fixation R	1	4	6201479548	6201718275	238727	536.81	481.45	17	81	-1	10.40	10.40
Saccade L	1	4	6201718275	6201797771	79496	534.35	468.34	524.61	559.40	3.47	79.74	1.00	43.66	1495.83	-1241.90	751.59
Saccade R	1	4	6201718275	6201797771	79496	534.35	468.34	524.61	559.40	3.47	79.74	1.00	43.66	1495.83	-1241.90	751.59
Fixation L	1	5	6201797771	6201917138	119367	512.99	552.97	16	55	-1	8.19	8.19
Fixation R	1	5	6201797771	6201917138	119367	512.99	552.97	16	55	-1	11.16	11.16
Saccade L	1	5	6201917138	6202036505	119367	515.62	522.48	503.93	414.29	6.93	197.46	1.00	58.06	3760.81	-4597.99	1995.30
Saccade R	1	5	6201917138	6202036505	119367	515.62	522.48	503.93	414.29	6.93	197.46	1.00	58.06	3760.81	-4597.99	1995.30
Fixation L	1	6	6202036505	6202175753	139248	528.37	388.37	37	58	-1	9.61	9.61
Fixation R	1	6	6202036505	6202175753	139248	528.37	388.37	37	58	-1	11.22	11.22
Saccade L	1	6	6202175753	6202294999	119246	531.08	355.96	608.93	116.66	4.90	127.54	1.00	41.12	1606.20	-2339.28	788.12
Saccade R	1	6	6202175753	6202294999	119246	531.08	355.96	608.93	116.66	4.90	127.54	1.00	41.12	1606.20	-2339.28	788.12
Fixation L	1	7	6202294999	6202454119	159120	628.87	149.32	28	59	-1	9.79	9.79
Fixation R	1	7	6202294999	6202454119	159120	628.87	149.32	28	59	-1	11.23	11.23
Saccade L	1	7	6202454119	6202493992	39873	632.60	148.36	926.72	134.79	2.99	184.90	1.00	74.88	4069.63	-4340.89	3297.09
Saccade R	1	7	6202454119	6202493992	39873	632.60	148.36	926.72	134.79	2.99	184.90	1.00	74.88	4069.63	-4340.89	3297.09
Fixation L	1	8	6202493992	6202653095	159103	928.17	119.25	10	33	-1	10.39	10.39
Fixation R	1	8	6202493992	6202653095	159103	928.17	119.25	10	33	-1	11.09	11.09
Saccade L	1	8	6202653095	6202752472	99377	932.84	106.59	1293.58	899.87	12.28	259.24	0.40	123.62	6210.21	-5308.47	3163.61
Saccade R	1	8	6202653095	6202752472	99377	932.84	106.59	1293.58	899.87	12.28	259.24	0.40	123.62	6210.21	-5308.47	3163.61
Fixation L	1	9	6202752472	6202851958	99486	1296.44	877.00	26	51	-1	11.07	11.07
Fixation R	1	9	6202752472	6202851958	99486	1296.44	877.00	26	51	-1	11.61	11.61
Saccade L	1	9	6202851958	6202871826	19868	1296.74	895.62	1276.67	929.92	0.53	40.20	1.00	26.78	427.20	-563.99	377.02
Saccade R	1	9	6202851958	6202871826	19868	1296.74	895.62	1276.67	929.92	0.53	40.20	1.00	26.78	427.20	-563.99	377.02
Fixation L	1	10	6202871826	6203568033	696207	1282.96	900.34	21	75	-1	11.08	11.08
Fixation R	1	10	6202871826	6203568033	696207	1282.96	900.34	21	75	-1	11.40	11.40
Saccade L	1	10	6203568033	6203607794	39761	1295.77	857.13	1609.92	857.60	2.79	166.60	1.00	70.22	4069.42	-3958.98	3718.15
Saccade R	1	10	6203568033	6203607794	39761	1295.77	857.13	1609.92	857.60	2.79	166.60	1.00	70.22	4069.42	-3958.98	3718.15
Fixation L	1	11	6203607794	6204124891	517097	1602.90	876.64	27	51	-1	11.26	11.26
Fixation R	1	11	6203607794	6204124891	517097	1602.90	876.64	27	51	-1	11.43	11.43
