[BeGaze]
Converted from:	C:\Documents and Settings\iViewX\Desktop\EXPERIMENTATIONS\Experiments\results\finaleart\S4120113-finaleart-1.idf
Date:	27.03.2019 15:34:30
Version:	BeGaze 2.5.77
Sample Rate:	50
Subject:	S4120113
Description:	Vidal Attias

Table Header for Fixations:
Event Type	Trial	Number	Start	End	Duration	Location X	Location Y	Dispersion X	Dispersion Y	Plane	Avg. Pupil Size X	Avg. Pupil Size Y

Table Header for Saccades:
Event Type	Trial	Number	Start	End	Duration	Start Loc.X	Start Loc.Y	End Loc.X	End Loc.Y	Amplitude	Peak Speed	Peak Speed At	Average Speed	Peak Accel.	Peak Decel.	Average Accel.

Table Header for Blinks:
Event Type	Trial	Number	Start	End	Duration

Table Header for User Events:
Event Type	Trial	Number	Start	Description

UserEvent	1	1	6936006740	# Message: The_Girl_From_Rat_Mort_Vlaminck_1905.jpg
Fixation L	1	1	6936007691	6936345822	338131	941.99	465.33	4	23	-1	12.30	12.30
Fixation R	1	1	6936007691	6936345822	338131	941.99	465.33	4	23	-1	13.22	13.22
Saccade L	1	1	6936345822	6936365669	19847	944.76	461.27	795.52	471.68	0.89	151.31	1.00	44.77	3714.04	-2916.15	2376.88
Saccade R	1	1	6936345822	6936365669	19847	944.76	461.27	795.52	471.68	0.89	151.31	1.00	44.77	3714.04	-2916.15	2376.88
Fixation L	1	2	6936365669	6936465169	99500	762.95	477.41	48	15	-1	11.95	11.95
Fixation R	1	2	6936365669	6936465169	99500	762.95	477.41	48	15	-1	12.60	12.60
Saccade L	1	2	6936465169	6936485041	19872	750.83	474.16	744.42	426.16	0.50	48.99	1.00	25.30	1076.67	-928.58	1022.22
Saccade R	1	2	6936465169	6936485041	19872	750.83	474.16	744.42	426.16	0.50	48.99	1.00	25.30	1076.67	-928.58	1022.22
Fixation L	1	3	6936485041	6936624277	139236	751.20	432.57	12	70	-1	10.03	10.03
Fixation R	1	3	6936485041	6936624277	139236	751.20	432.57	12	70	-1	10.95	10.95
Saccade L	1	3	6936624277	6936644163	19886	755.36	399.87	807.04	475.83	0.86	92.94	1.00	43.14	1981.70	-2073.73	1680.82
Saccade R	1	3	6936624277	6936644163	19886	755.36	399.87	807.04	475.83	0.86	92.94	1.00	43.14	1981.70	-2073.73	1680.82
Fixation L	1	4	6936644163	6936783402	139239	837.07	516.08	43	55	-1	9.88	9.88
Fixation R	1	4	6936644163	6936783402	139239	837.07	516.08	43	55	-1	10.48	10.48
Saccade L	1	4	6936783402	6936863013	79611	850.41	529.09	647.35	414.79	3.82	184.67	0.75	47.99	4336.27	-2948.91	1541.97
Saccade R	1	4	6936783402	6936863013	79611	850.41	529.09	647.35	414.79	3.82	184.67	0.75	47.99	4336.27	-2948.91	1541.97
Fixation L	1	5	6936863013	6937419853	556840	642.26	401.26	18	69	-1	9.75	9.75
Fixation R	1	5	6936863013	6937419853	556840	642.26	401.26	18	69	-1	11.36	11.36
Saccade L	1	5	6937419853	6937459596	39743	649.49	417.97	1192.99	540.10	4.90	300.97	0.50	123.23	7418.35	-6929.66	6883.47
Saccade R	1	5	6937419853	6937459596	39743	649.49	417.97	1192.99	540.10	4.90	300.97	0.50	123.23	7418.35	-6929.66	6883.47
Fixation L	1	6	6937459596	6937678451	218855	1170.47	573.74	33	41	-1	10.97	10.97
Fixation R	1	6	6937459596	6937678451	218855	1170.47	573.74	33	41	-1	12.15	12.15
Saccade L	1	6	6937678451	6937797832	119381	1174.44	576.56	1421.82	213.56	6.56	242.98	0.17	54.92	5733.79	-5161.35	2285.02
Saccade R	1	6	6937678451	6937797832	119381	1174.44	576.56	1421.82	213.56	6.56	242.98	0.17	54.92	5733.79	-5161.35	2285.02
Fixation L	1	7	6937797832	6937917076	119244	1423.34	199.04	37	61	-1	10.84	10.84
Fixation R	1	7	6937797832	6937917076	119244	1423.34	199.04	37	61	-1	11.35	11.35
Saccade L	1	7	6937917076	6938016569	99493	1416.86	217.54	1217.43	155.41	3.26	136.97	1.00	32.82	3347.09	-3049.83	1371.61
Saccade R	1	7	6937917076	6938016569	99493	1416.86	217.54	1217.43	155.41	3.26	136.97	1.00	32.82	3347.09	-3049.83	1371.61
Fixation L	1	8	6938016569	6938116054	99485	1214.48	111.01	5	71	-1	10.74	10.74
Fixation R	1	8	6938016569	6938116054	99485	1214.48	111.01	5	71	-1	11.18	11.18
Saccade L	1	8	6938116054	6938175685	59631	1212.20	84.13	432.89	77.37	8.18	355.13	0.67	137.22	8763.79	-8581.86	6060.70
Saccade R	1	8	6938116054	6938175685	59631	1212.20	84.13	432.89	77.37	8.18	355.13	0.67	137.22	8763.79	-8581.86	6060.70
Fixation L	1	9	6938175685	6938374535	198850	439.05	101.23	14	51	-1	10.40	10.40
Fixation R	1	9	6938175685	6938374535	198850	439.05	101.23	14	51	-1	11.52	11.52
Saccade L	1	9	6938374535	6938414411	39876	445.99	114.83	384.25	401.60	2.61	224.75	0.50	65.58	5411.39	-5332.26	3654.22
Saccade R	1	9	6938374535	6938414411	39876	445.99	114.83	384.25	401.60	2.61	224.75	0.50	65.58	5411.39	-5332.26	3654.22
Fixation L	1	10	6938414411	6938513788	99377	374.59	420.76	15	44	-1	10.53	10.53
Fixation R	1	10	6938414411	6938513788	99377	374.59	420.76	15	44	-1	12.12	12.12
Saccade L	1	10	6938513788	6938593402	79614	368.72	446.05	477.63	887.38	6.52	324.96	0.50	81.86	7598.72	-7680.37	3758.28
Saccade R	1	10	6938513788	6938593402	79614	368.72	446.05	477.63	887.38	6.52	324.96	0.50	81.86	7598.72	-7680.37	3758.28
Fixation L	1	11	6938593402	6938712783	119381	480.03	918.37	19	79	-1	10.44	10.44
Fixation R	1	11	6938593402	6938712783	119381	480.03	918.37	19	79	-1	12.24	12.24
Saccade L	1	11	6938712783	6938772400	59617	490.47	899.83	1355.85	937.79	9.49	382.15	0.67	159.19	9421.25	-8875.69	6322.46
Saccade R	1	11	6938712783	6938772400	59617	490.47	899.83	1355.85	937.79	9.49	382.15	0.67	159.19	9421.25	-8875.69	6322.46
Fixation L	1	12	6938772400	6939031004	258604	1349.00	897.75	9	71	-1	10.95	10.95
Fixation R	1	12	6938772400	6939031004	258604	1349.00	897.75	9	71	-1	11.92	11.92
Saccade L	1	12	6939031004	6939070743	39739	1348.17	866.74	1526.24	678.08	2.52	218.33	1.00	63.54	5018.16	-5420.91	3260.84
Saccade R	1	12	6939031004	6939070743	39739	1348.17	866.74	1526.24	678.08	2.52	218.33	1.00	63.54	5018.16	-5420.91	3260.84
Fixation L	1	13	6939070743	6939488343	417600	1530.08	657.32	29	56	-1	11.29	11.29
Fixation R	1	13	6939070743	6939488343	417600	1530.08	657.32	29	56	-1	11.83	11.83
Saccade L	1	13	6939488343	6939548097	59754	1529.74	688.38	887.97	688.03	6.78	303.77	0.67	113.44	7343.40	-7417.04	4767.05
Saccade R	1	13	6939488343	6939548097	59754	1529.74	688.38	887.97	688.03	6.78	303.77	0.67	113.44	7343.40	-7417.04	4767.05
Fixation L	1	14	6939548097	6940005567	457470	888.73	665.77	12	38	-1	12.19	12.19
Fixation R	1	14	6939548097	6940005567	457470	888.73	665.77	12	38	-1	13.35	13.35
