[BeGaze]
Converted from:	C:\Documents and Settings\iViewX\Desktop\EXPERIMENTATIONS\Experiments\results\finaleart\S02123220-finaleart-1.idf
Date:	27.03.2019 15:33:40
Version:	BeGaze 2.5.77
Sample Rate:	50
Subject:	S02123220
Description:	David Xu

Table Header for Fixations:
Event Type	Trial	Number	Start	End	Duration	Location X	Location Y	Dispersion X	Dispersion Y	Plane	Avg. Pupil Size X	Avg. Pupil Size Y

Table Header for Saccades:
Event Type	Trial	Number	Start	End	Duration	Start Loc.X	Start Loc.Y	End Loc.X	End Loc.Y	Amplitude	Peak Speed	Peak Speed At	Average Speed	Peak Accel.	Peak Decel.	Average Accel.

Table Header for Blinks:
Event Type	Trial	Number	Start	End	Duration

Table Header for User Events:
Event Type	Trial	Number	Start	Description

UserEvent	1	1	1551207442	# Message: nasturtiums-dahlias-in-a-basket_gauguin_1884.jpg
Fixation L	1	1	1551226475	1551465084	238609	927.87	441.12	15	79	-1	13.12	13.12
Fixation R	1	1	1551226475	1551465084	238609	927.87	441.12	15	79	-1	12.24	12.24
Saccade L	1	1	1551465084	1551485086	20002	937.01	438.78	945.37	431.89	0.22	14.44	0.00	10.90	77.05	-199.53	98.63
Saccade R	1	1	1551465084	1551485086	20002	937.01	438.78	945.37	431.89	0.22	14.44	0.00	10.90	77.05	-199.53	98.63
Fixation L	1	2	1551485086	1551823187	338101	951.88	457.40	13	65	-1	13.06	13.06
Fixation R	1	2	1551485086	1551823187	338101	951.88	457.40	13	65	-1	12.05	12.05
Saccade L	1	2	1551823187	1551862944	39757	952.83	493.30	807.49	483.92	1.30	104.42	1.00	32.64	2424.82	-2262.13	1662.29
Saccade R	1	2	1551823187	1551862944	39757	952.83	493.30	807.49	483.92	1.30	104.42	1.00	32.64	2424.82	-2262.13	1662.29
Fixation L	1	3	1551862944	1552022076	159132	799.60	452.34	15	78	-1	12.09	12.09
Fixation R	1	3	1551862944	1552022076	159132	799.60	452.34	15	78	-1	11.77	11.77
Saccade L	1	3	1552022076	1552041919	19843	793.58	405.31	796.11	399.04	0.45	41.38	1.00	22.45	429.87	-263.20	365.32
Saccade R	1	3	1552022076	1552041919	19843	793.58	405.31	796.11	399.04	0.45	41.38	1.00	22.45	429.87	-263.20	365.32
Fixation L	1	4	1552041919	1552280662	238743	792.94	429.53	10	40	-1	12.56	12.56
Fixation R	1	4	1552041919	1552280662	238743	792.94	429.53	10	40	-1	12.06	12.06
Saccade L	1	4	1552280662	1552320402	39740	793.99	428.58	1035.08	456.76	2.17	139.90	0.50	54.53	3387.03	-3179.64	2695.98
Saccade R	1	4	1552280662	1552320402	39740	793.99	428.58	1035.08	456.76	2.17	139.90	0.50	54.53	3387.03	-3179.64	2695.98
Fixation L	1	5	1552320402	1552499399	178997	1040.98	497.16	10	67	-1	13.51	13.51
Fixation R	1	5	1552320402	1552499399	178997	1040.98	497.16	10	67	-1	12.30	12.30
Saccade L	1	5	1552499399	1552539138	39739	1040.41	506.96	1375.70	588.32	3.27	214.30	0.50	82.17	5235.93	-4151.38	3844.39
Saccade R	1	5	1552499399	1552539138	39739	1040.41	506.96	1375.70	588.32	3.27	214.30	0.50	82.17	5235.93	-4151.38	3844.39
Fixation L	1	6	1552539138	1552658514	119376	1399.34	604.07	47	45	-1	13.99	13.99
Fixation R	1	6	1552539138	1552658514	119376	1399.34	604.07	47	45	-1	10.59	10.59
Saccade L	1	6	1552658514	1552678387	19873	1396.02	627.63	1392.15	642.22	0.57	49.57	0.00	28.85	-243.35	-1073.80	678.15
Saccade R	1	6	1552658514	1552678387	19873	1396.02	627.63	1392.15	642.22	0.57	49.57	0.00	28.85	-243.35	-1073.80	678.15
Fixation L	1	7	1552678387	1552817628	139241	1390.86	652.92	57	17	-1	14.44	14.44
Fixation R	1	7	1552678387	1552817628	139241	1390.86	652.92	57	17	-1	10.00	10.00
Saccade L	1	7	1552817628	1552837503	19875	1435.84	654.27	1553.35	672.71	0.96	120.32	1.00	48.46	2971.78	-2853.94	2322.92
Saccade R	1	7	1552817628	1552837503	19875	1435.84	654.27	1553.35	672.71	0.96	120.32	1.00	48.46	2971.78	-2853.94	2322.92
Fixation L	1	8	1552837503	1552976734	139231	1536.45	682.97	23	25	-1	13.99	13.99
Fixation R	1	8	1552837503	1552976734	139231	1536.45	682.97	23	25	-1	8.81	8.81
Saccade L	1	8	1552976734	1553016489	39755	1530.11	685.09	1352.22	850.58	2.45	135.39	0.50	61.55	3136.82	-3033.58	3018.65
Blink R	1	1	1552976734	1553056363	79629
Fixation L	1	9	1553016489	1553434217	417728	1312.25	877.18	52	39	-1	13.75	13.75
Fixation R	1	9	1553056363	1553732569	676206	1317.72	894.65	36	57	-1	11.21	11.21
Saccade L	1	9	1553434217	1553454085	19868	1312.19	885.03	1316.58	913.20	0.40	36.80	1.00	20.34	638.56	-186.75	478.17
Fixation L	1	10	1553454085	1553732569	278484	1328.79	914.79	19	42	-1	14.14	14.14
Saccade L	1	10	1553732569	1553772316	39747	1325.76	918.91	1590.09	698.44	2.98	232.17	0.50	74.92	5740.93	-5416.26	4243.17
Saccade R	1	8	1553732569	1553772316	39747	1325.76	918.91	1590.09	698.44	2.98	232.17	0.50	74.92	5740.93	-5416.26	4243.17
Fixation L	1	11	1553772316	1554209911	437595	1609.09	689.68	38	17	-1	14.15	14.15
Fixation R	1	10	1553772316	1554209911	437595	1609.09	689.68	38	17	-1	14.25	14.25
Saccade L	1	11	1554209911	1554289535	79624	1590.79	693.49	763.44	525.42	9.98	306.13	0.50	125.29	7515.49	-6021.85	4444.41
Saccade R	1	9	1554209911	1554289535	79624	1590.79	693.49	763.44	525.42	9.98	306.13	0.50	125.29	7515.49	-6021.85	4444.41
Fixation L	1	12	1554289535	1554687261	397726	771.76	528.92	42	32	-1	14.11	14.11
Fixation R	1	11	1554289535	1554687261	397726	771.76	528.92	42	32	-1	16.85	16.85
Saccade L	1	12	1554687261	1554786755	99494	739.10	523.85	793.59	506.22	4.51	126.88	1.00	45.30	2695.16	-2939.02	1596.98
Saccade R	1	10	1554687261	1554786755	99494	739.10	523.85	793.59	506.22	4.51	126.88	1.00	45.30	2695.16	-2939.02	1596.98
Fixation L	1	13	1554786755	1555144739	357984	861.95	510.31	79	17	-1	13.84	13.84
Fixation R	1	12	1554786755	1555144739	357984	861.95	510.31	79	17	-1	13.17	13.17
Saccade L	1	13	1555144739	1555204474	59735	793.43	504.18	798.51	434.78	1.97	75.30	0.00	33.02	140.70	-724.30	265.00
Saccade R	1	11	1555144739	1555204474	59735	793.43	504.18	798.51	434.78	1.97	75.30	0.00	33.02	140.70	-724.30	265.00
