[BeGaze]
Converted from:	C:\Documents and Settings\iViewX\Desktop\EXPERIMENTATIONS\Experiments\results\finaleart\S02123220-finaleart-1.idf
Date:	27.03.2019 15:33:43
Version:	BeGaze 2.5.77
Sample Rate:	50
Subject:	S02123220
Description:	David Xu

Table Header for Fixations:
Event Type	Trial	Number	Start	End	Duration	Location X	Location Y	Dispersion X	Dispersion Y	Plane	Avg. Pupil Size X	Avg. Pupil Size Y

Table Header for Saccades:
Event Type	Trial	Number	Start	End	Duration	Start Loc.X	Start Loc.Y	End Loc.X	End Loc.Y	Amplitude	Peak Speed	Peak Speed At	Average Speed	Peak Accel.	Peak Decel.	Average Accel.

Table Header for Blinks:
Event Type	Trial	Number	Start	End	Duration

Table Header for User Events:
Event Type	Trial	Number	Start	Description

UserEvent	1	1	1820120828	# Message: courbet_Femme_nue_et_dormant_1858.jpg
Fixation L	1	1	1820122681	1820460788	338107	963.68	495.74	10	43	-1	13.68	13.68
Fixation R	1	1	1820122681	1820460788	338107	963.68	495.74	10	43	-1	13.21	13.21
Saccade L	1	1	1820460788	1820500676	39888	959.77	509.22	1246.67	664.14	3.03	260.34	1.00	75.93	6444.11	-6218.87	3821.07
Saccade R	1	1	1820460788	1820500676	39888	959.77	509.22	1246.67	664.14	3.03	260.34	1.00	75.93	6444.11	-6218.87	3821.07
Fixation L	1	2	1820500676	1820659774	159098	1280.79	678.08	41	24	-1	13.84	13.84
Fixation R	1	2	1820500676	1820659774	159098	1280.79	678.08	41	24	-1	12.88	12.88
Saccade L	1	2	1820659774	1820679656	19882	1287.67	681.82	1504.32	681.95	1.45	219.06	1.00	73.11	5370.81	-4642.84	3881.48
Saccade R	1	2	1820659774	1820679656	19882	1287.67	681.82	1504.32	681.95	1.45	219.06	1.00	73.11	5370.81	-4642.84	3881.48
Fixation L	1	3	1820679656	1820978003	298347	1541.96	660.75	65	30	-1	13.41	13.41
Fixation R	1	3	1820679656	1820978003	298347	1541.96	660.75	65	30	-1	11.13	11.13
Saccade L	1	3	1820978003	1821017755	39752	1555.04	669.57	1341.77	746.88	2.11	169.17	0.50	53.05	4037.48	-3715.41	2646.77
Saccade R	1	3	1820978003	1821017755	39752	1555.04	669.57	1341.77	746.88	2.11	169.17	0.50	53.05	4037.48	-3715.41	2646.77
Fixation L	1	4	1821017755	1821216619	198864	1339.91	737.95	35	19	-1	13.24	13.24
Fixation R	1	4	1821017755	1821216619	198864	1339.91	737.95	35	19	-1	11.94	11.94
Saccade L	1	4	1821216619	1821256361	39742	1347.74	737.61	1080.58	751.84	2.39	193.53	0.50	60.09	4653.47	-4524.39	3194.12
Saccade R	1	4	1821216619	1821256361	39742	1347.74	737.61	1080.58	751.84	2.39	193.53	0.50	60.09	4653.47	-4524.39	3194.12
Fixation L	1	5	1821256361	1821435484	179123	1073.76	746.99	11	11	-1	13.85	13.85
Fixation R	1	5	1821256361	1821435484	179123	1073.76	746.99	11	11	-1	12.84	12.84
Saccade L	1	5	1821435484	1821475221	39737	1078.70	752.05	817.04	758.01	2.24	155.68	0.50	56.31	3810.41	-3649.28	3176.54
Saccade R	1	5	1821435484	1821475221	39737	1078.70	752.05	817.04	758.01	2.24	155.68	0.50	56.31	3810.41	-3649.28	3176.54
Fixation L	1	6	1821475221	1821853068	377847	797.40	751.43	28	55	-1	14.39	14.39
Fixation R	1	6	1821475221	1821853068	377847	797.40	751.43	28	55	-1	13.80	13.80
Saccade L	1	6	1821853068	1821872954	19886	790.89	710.91	958.66	712.49	1.17	169.67	1.00	58.92	4174.28	-3521.04	2640.90
Saccade R	1	6	1821853068	1821872954	19886	790.89	710.91	958.66	712.49	1.17	169.67	1.00	58.92	4174.28	-3521.04	2640.90
Fixation L	1	7	1821872954	1822071934	198980	1018.09	723.74	75	22	-1	14.60	14.60
Fixation R	1	7	1821872954	1822071934	198980	1018.09	723.74	75	22	-1	13.70	13.70
Saccade L	1	7	1822071934	1822091816	19882	1028.20	735.11	1031.54	737.69	0.09	5.31	0.00	4.76	-0.39	-27.88	10.35
Saccade R	1	7	1822071934	1822091816	19882	1028.20	735.11	1031.54	737.69	0.09	5.31	0.00	4.76	-0.39	-27.88	10.35
Fixation L	1	8	1822091816	1822191192	99376	1029.38	739.98	9	31	-1	14.81	14.81
Fixation R	1	8	1822091816	1822191192	99376	1029.38	739.98	9	31	-1	13.72	13.72
Saccade L	1	8	1822191192	1822250929	59737	1028.35	717.93	931.44	495.16	3.26	113.77	0.33	54.59	2761.14	-1382.71	1536.95
Saccade R	1	8	1822191192	1822250929	59737	1028.35	717.93	931.44	495.16	3.26	113.77	0.33	54.59	2761.14	-1382.71	1536.95
Fixation L	1	9	1822250929	1822350302	99373	945.65	478.06	25	42	-1	14.71	14.71
Fixation R	1	9	1822250929	1822350302	99373	945.65	478.06	25	42	-1	13.94	13.94
Saccade L	1	9	1822350302	1822370297	19995	954.54	504.16	795.57	463.65	1.19	165.91	1.00	59.41	3851.08	-3909.84	2789.67
Saccade R	1	9	1822350302	1822370297	19995	954.54	504.16	795.57	463.65	1.19	165.91	1.00	59.41	3851.08	-3909.84	2789.67
Fixation L	1	10	1822370297	1822648651	278354	773.07	443.48	57	31	-1	14.76	14.76
Fixation R	1	10	1822370297	1822648651	278354	773.07	443.48	57	31	-1	13.95	13.95
Saccade L	1	10	1822648651	1822668655	20004	739.29	432.24	621.49	396.29	0.95	124.58	1.00	47.59	2680.86	-2911.01	2131.87
Saccade R	1	10	1822648651	1822668655	20004	739.29	432.24	621.49	396.29	0.95	124.58	1.00	47.59	2680.86	-2911.01	2131.87
Fixation L	1	11	1822668655	1823165875	497220	615.16	396.10	34	33	-1	14.89	14.89
Fixation R	1	11	1822668655	1823165875	497220	615.16	396.10	34	33	-1	14.60	14.60
Saccade L	1	11	1823165875	1823265248	99373	589.74	392.58	1488.94	634.18	13.93	354.73	0.40	140.15	8410.32	-7001.56	4579.47
Saccade R	1	11	1823165875	1823265248	99373	589.74	392.58	1488.94	634.18	13.93	354.73	0.40	140.15	8410.32	-7001.56	4579.47
Fixation L	1	12	1823265248	1823444358	179110	1448.66	643.06	60	18	-1	16.17	16.17
Fixation R	1	12	1823265248	1823444358	179110	1448.66	643.06	60	18	-1	12.25	12.25
Saccade L	1	12	1823444358	1823484117	39759	1473.77	649.44	1505.33	617.52	1.63	74.29	1.00	40.98	1516.78	154.89	722.28
Saccade R	1	12	1823444358	1823484117	39759	1473.77	649.44	1505.33	617.52	1.63	74.29	1.00	40.98	1516.78	154.89	722.28
Fixation L	1	13	1823484117	1823583472	99355	1471.28	615.22	72	23	-1	16.11	16.11
Fixation R	1	13	1823484117	1823583472	99355	1471.28	615.22	72	23	-1	12.40	12.40
Saccade L	1	13	1823583472	1823603472	20000	1479.28	608.49	1460.23	594.31	0.38	24.03	1.00	18.76	600.10	-122.28	369.37
Saccade R	1	13	1823583472	1823603472	20000	1479.28	608.49	1460.23	594.31	0.38	24.03	1.00	18.76	600.10	-122.28	369.37
Fixation L	1	14	1823603472	1823762584	159112	1497.28	588.32	66	32	-1	15.29	15.29
Fixation R	1	14	1823603472	1823762584	159112	1497.28	588.32	66	32	-1	11.90	11.90
Saccade L	1	14	1823762584	1823861959	99375	1526.53	580.08	1359.11	707.05	3.88	170.57	0.80	39.01	3937.42	-4071.76	1574.93
Saccade R	1	14	1823762584	1823861959	99375	1526.53	580.08	1359.11	707.05	3.88	170.57	0.80	39.01	3937.42	-4071.76	1574.93
Fixation L	1	15	1823861959	1824120561	258602	1328.25	716.41	42	15	-1	15.73	15.73
Fixation R	1	15	1823861959	1824120561	258602	1328.25	716.41	42	15	-1	12.84	12.84
