[BeGaze]
Converted from:	C:\Documents and Settings\iViewX\Desktop\EXPERIMENTATIONS\Experiments\results\finaleart\S02123220-finaleart-1.idf
Date:	27.03.2019 15:33:35
Version:	BeGaze 2.5.77
Sample Rate:	50
Subject:	S02123220
Description:	David Xu

Table Header for Fixations:
Event Type	Trial	Number	Start	End	Duration	Location X	Location Y	Dispersion X	Dispersion Y	Plane	Avg. Pupil Size X	Avg. Pupil Size Y

Table Header for Saccades:
Event Type	Trial	Number	Start	End	Duration	Start Loc.X	Start Loc.Y	End Loc.X	End Loc.Y	Amplitude	Peak Speed	Peak Speed At	Average Speed	Peak Accel.	Peak Decel.	Average Accel.

Table Header for Blinks:
Event Type	Trial	Number	Start	End	Duration

Table Header for User Events:
Event Type	Trial	Number	Start	Description

UserEvent	1	1	1135670079	# Message: void.jpg
Saccade L	1	1	1135675559	1135715287	39728	1394.52	685.29	1530.44	518.28	2.65	203.80	1.00	66.78	5095.09	-4395.96	2593.96
Saccade R	1	1	1135675559	1135715287	39728	1394.52	685.29	1530.44	518.28	2.65	203.80	1.00	66.78	5095.09	-4395.96	2593.96
Fixation L	1	1	1135715287	1135954021	238734	1539.88	479.59	16	52	-1	14.22	14.22
Fixation R	1	1	1135715287	1135954021	238734	1539.88	479.59	16	52	-1	12.38	12.38
Saccade L	1	2	1135954021	1135973892	19871	1539.12	470.40	1541.02	409.69	0.58	61.43	1.00	29.10	1307.04	-1043.35	988.61
Saccade R	1	2	1135954021	1135973892	19871	1539.12	470.40	1541.02	409.69	0.58	61.43	1.00	29.10	1307.04	-1043.35	988.61
Fixation L	1	2	1135973892	1136152880	178988	1537.02	372.85	9	54	-1	14.06	14.06
Fixation R	1	2	1135973892	1136152880	178988	1537.02	372.85	9	54	-1	12.10	12.10
Saccade L	1	3	1136152880	1136192616	39736	1531.65	368.27	1173.82	380.22	2.96	205.69	0.50	74.47	5089.58	-5033.31	4438.56
Saccade R	1	3	1136152880	1136192616	39736	1531.65	368.27	1173.82	380.22	2.96	205.69	0.50	74.47	5089.58	-5033.31	4438.56
Fixation L	1	3	1136192616	1136490984	298368	1172.03	379.94	8	10	-1	14.21	14.21
Fixation R	1	3	1136192616	1136490984	298368	1172.03	379.94	8	10	-1	12.61	12.61
Saccade L	1	4	1136490984	1136530753	39769	1167.62	386.37	982.49	396.99	1.79	131.03	0.50	44.99	3245.13	-2612.18	2020.79
Saccade R	1	4	1136490984	1136530753	39769	1167.62	386.37	982.49	396.99	1.79	131.03	0.50	44.99	3245.13	-2612.18	2020.79
Fixation L	1	4	1136530753	1137664545	1133792	963.43	440.31	32	58	-1	16.07	16.07
Fixation R	1	4	1136530753	1137664545	1133792	963.43	440.31	32	58	-1	14.80	14.80
