[BeGaze]
Converted from:	C:\Documents and Settings\iViewX\Desktop\EXPERIMENTATIONS\Experiments\results\finaleart\S02123220-finaleart-1.idf
Date:	27.03.2019 15:33:40
Version:	BeGaze 2.5.77
Sample Rate:	50
Subject:	S02123220
Description:	David Xu

Table Header for Fixations:
Event Type	Trial	Number	Start	End	Duration	Location X	Location Y	Dispersion X	Dispersion Y	Plane	Avg. Pupil Size X	Avg. Pupil Size Y

Table Header for Saccades:
Event Type	Trial	Number	Start	End	Duration	Start Loc.X	Start Loc.Y	End Loc.X	End Loc.Y	Amplitude	Peak Speed	Peak Speed At	Average Speed	Peak Accel.	Peak Decel.	Average Accel.

Table Header for Blinks:
Event Type	Trial	Number	Start	End	Duration

Table Header for User Events:
Event Type	Trial	Number	Start	Description

UserEvent	1	1	1557345418	# Message: dead_hare_ward.jpg
Fixation L	1	1	1557352479	1557809947	457468	809.57	426.14	40	52	-1	13.79	13.79
Fixation R	1	1	1557352479	1557809947	457468	809.57	426.14	40	52	-1	13.20	13.20
Saccade L	1	1	1557809947	1557829822	19875	834.54	456.58	879.30	598.24	1.02	150.25	1.00	51.18	3666.69	-3313.72	2386.45
Saccade R	1	1	1557809947	1557829822	19875	834.54	456.58	879.30	598.24	1.02	150.25	1.00	51.18	3666.69	-3313.72	2386.45
Fixation L	1	2	1557829822	1558028808	198986	901.84	615.60	29	33	-1	13.88	13.88
Fixation R	1	2	1557829822	1558028808	198986	901.84	615.60	29	33	-1	12.34	12.34
Saccade L	1	2	1558028808	1558048678	19870	890.82	632.08	803.29	749.33	1.11	147.99	1.00	55.92	3555.92	-3057.25	2486.79
Saccade R	1	2	1558028808	1558048678	19870	890.82	632.08	803.29	749.33	1.11	147.99	1.00	55.92	3555.92	-3057.25	2486.79
Fixation L	1	3	1558048678	1558168054	119376	797.95	719.64	10	51	-1	13.56	13.56
Fixation R	1	3	1558048678	1558168054	119376	797.95	719.64	10	51	-1	12.51	12.51
Saccade L	1	3	1558168054	1558267426	99372	797.03	723.59	1290.69	314.83	9.38	303.10	0.40	94.43	7029.49	-7244.67	3774.23
Saccade R	1	3	1558168054	1558267426	99372	797.03	723.59	1290.69	314.83	9.38	303.10	0.40	94.43	7029.49	-7244.67	3774.23
Fixation L	1	4	1558267426	1558864124	596698	1269.03	324.54	39	50	-1	13.09	13.09
Fixation R	1	4	1558267426	1558864124	596698	1269.03	324.54	39	50	-1	12.38	12.38
Saccade L	1	4	1558864124	1558884012	19888	1274.61	310.40	1280.08	297.77	0.25	16.42	1.00	12.70	48.96	-179.69	97.07
Saccade R	1	4	1558864124	1558884012	19888	1274.61	310.40	1280.08	297.77	0.25	16.42	1.00	12.70	48.96	-179.69	97.07
Fixation L	1	5	1558884012	1559222115	338103	1274.88	299.60	14	44	-1	13.93	13.93
Fixation R	1	5	1558884012	1559222115	338103	1274.88	299.60	14	44	-1	13.19	13.19
Saccade L	1	5	1559222115	1559341490	119375	1265.93	333.49	572.28	974.33	14.81	295.39	0.33	124.04	6786.98	-6298.38	3412.58
Saccade R	1	5	1559222115	1559341490	119375	1265.93	333.49	572.28	974.33	14.81	295.39	0.33	124.04	6786.98	-6298.38	3412.58
Fixation L	1	6	1559341490	1559540347	198857	565.39	930.05	19	63	-1	14.32	14.32
Fixation R	1	6	1559341490	1559540347	198857	565.39	930.05	19	63	-1	13.94	13.94
Saccade L	1	6	1559540347	1559560212	19865	557.42	910.74	546.11	874.07	0.42	38.82	1.00	21.03	709.36	-657.09	691.57
Saccade R	1	6	1559540347	1559560212	19865	557.42	910.74	546.11	874.07	0.42	38.82	1.00	21.03	709.36	-657.09	691.57
Fixation L	1	7	1559560212	1559878579	318367	546.66	853.80	22	75	-1	12.58	12.58
Fixation R	1	7	1559560212	1559878579	318367	546.66	853.80	22	75	-1	12.94	12.94
Saccade L	1	7	1559878579	1559958070	79491	558.73	819.65	539.74	856.49	2.51	58.52	1.00	31.53	1008.71	-893.67	618.84
Saccade R	1	7	1559878579	1559958070	79491	558.73	819.65	539.74	856.49	2.51	58.52	1.00	31.53	1008.71	-893.67	618.84
Fixation L	1	8	1559958070	1560395669	437599	510.47	890.65	43	55	-1	12.48	12.48
Fixation R	1	8	1559958070	1560395669	437599	510.47	890.65	43	55	-1	13.14	13.14
Saccade L	1	8	1560395669	1560415534	19865	496.00	869.11	491.84	867.67	0.17	12.53	1.00	8.69	170.54	-26.55	67.82
Saccade R	1	8	1560395669	1560415534	19865	496.00	869.11	491.84	867.67	0.17	12.53	1.00	8.69	170.54	-26.55	67.82
Fixation L	1	9	1560415534	1560614403	198869	488.74	882.34	46	35	-1	12.38	12.38
Fixation R	1	9	1560415534	1560614403	198869	488.74	882.34	46	35	-1	13.04	13.04
Saccade L	1	9	1560614403	1560634271	19868	523.35	875.41	616.80	793.04	1.01	126.00	1.00	50.73	2874.44	-2801.50	2131.29
Saccade R	1	9	1560614403	1560634271	19868	523.35	875.41	616.80	793.04	1.01	126.00	1.00	50.73	2874.44	-2801.50	2131.29
Fixation L	1	10	1560634271	1560793386	159115	627.21	784.55	25	28	-1	12.49	12.49
Fixation R	1	10	1560634271	1560793386	159115	627.21	784.55	25	28	-1	12.53	12.53
Saccade L	1	10	1560793386	1560873017	79631	630.37	779.84	1260.75	384.28	9.78	367.94	0.50	122.86	8650.30	-7826.88	4307.07
Saccade R	1	10	1560793386	1560873017	79631	630.37	779.84	1260.75	384.28	9.78	367.94	0.50	122.86	8650.30	-7826.88	4307.07
Fixation L	1	11	1560873017	1560992382	119365	1251.19	356.17	18	81	-1	12.82	12.82
Fixation R	1	11	1560873017	1560992382	119365	1251.19	356.17	18	81	-1	12.33	12.33
Saccade L	1	11	1560992382	1561012254	19872	1253.31	320.70	1239.25	365.93	1.08	83.22	0.00	54.25	-423.97	-1555.18	885.93
Saccade R	1	11	1560992382	1561012254	19872	1253.31	320.70	1239.25	365.93	1.08	83.22	0.00	54.25	-423.97	-1555.18	885.93
Fixation L	1	12	1561012254	1561151498	139244	1245.05	342.13	17	63	-1	12.75	12.75
Fixation R	1	12	1561012254	1561151498	139244	1245.05	342.13	17	63	-1	12.03	12.03
Saccade L	1	12	1561151498	1561171371	19873	1256.46	302.89	1280.84	281.49	0.33	32.82	1.00	16.43	696.49	-608.22	558.07
Saccade R	1	12	1561151498	1561171371	19873	1256.46	302.89	1280.84	281.49	0.33	32.82	1.00	16.43	696.49	-608.22	558.07
Fixation L	1	13	1561171371	1561330484	159113	1278.88	283.06	13	21	-1	12.60	12.60
Fixation R	1	13	1561171371	1561330484	159113	1278.88	283.06	13	21	-1	11.88	11.88
