[BeGaze]
Converted from:	C:\Documents and Settings\iViewX\Desktop\EXPERIMENTATIONS\Experiments\results\finaleart\S02123220-finaleart-1.idf
Date:	27.03.2019 15:33:38
Version:	BeGaze 2.5.77
Sample Rate:	50
Subject:	S02123220
Description:	David Xu

Table Header for Fixations:
Event Type	Trial	Number	Start	End	Duration	Location X	Location Y	Dispersion X	Dispersion Y	Plane	Avg. Pupil Size X	Avg. Pupil Size Y

Table Header for Saccades:
Event Type	Trial	Number	Start	End	Duration	Start Loc.X	Start Loc.Y	End Loc.X	End Loc.Y	Amplitude	Peak Speed	Peak Speed At	Average Speed	Peak Accel.	Peak Decel.	Average Accel.

Table Header for Blinks:
Event Type	Trial	Number	Start	End	Duration

Table Header for User Events:
Event Type	Trial	Number	Start	Description

UserEvent	1	1	1428994873	# Message: pears-and-grapes_gauguin_1875.jpg
Fixation L	1	1	1429003768	1429421501	417733	944.62	428.23	27	46	-1	15.52	15.52
Fixation R	1	1	1429003768	1429421501	417733	944.62	428.23	27	46	-1	14.37	14.37
Saccade L	1	1	1429421501	1429441362	19861	930.96	438.49	891.95	600.02	1.09	168.06	1.00	54.85	4066.85	-3170.28	2435.74
Saccade R	1	1	1429421501	1429441362	19861	930.96	438.49	891.95	600.02	1.09	168.06	1.00	54.85	4066.85	-3170.28	2435.74
Fixation L	1	2	1429441362	1429600469	159107	864.12	640.31	35	55	-1	15.81	15.81
Fixation R	1	2	1429441362	1429600469	159107	864.12	640.31	35	55	-1	13.57	13.57
Saccade L	1	2	1429600469	1429660087	59618	857.35	650.78	480.01	730.75	4.22	189.06	0.67	70.81	4632.67	-4110.98	2678.17
Saccade R	1	2	1429600469	1429660087	59618	857.35	650.78	480.01	730.75	4.22	189.06	0.67	70.81	4632.67	-4110.98	2678.17
Fixation L	1	3	1429660087	1429799339	139252	486.95	695.27	22	75	-1	14.23	14.23
Fixation R	1	3	1429660087	1429799339	139252	486.95	695.27	22	75	-1	15.06	15.06
Saccade L	1	3	1429799339	1429958445	159106	501.93	691.02	631.40	844.74	7.41	197.70	0.63	46.58	4799.93	-3291.06	1223.32
Saccade R	1	3	1429799339	1429958445	159106	501.93	691.02	631.40	844.74	7.41	197.70	0.63	46.58	4799.93	-3291.06	1223.32
Fixation L	1	4	1429958445	1430077819	119374	620.76	801.64	14	59	-1	13.66	13.66
Fixation R	1	4	1429958445	1430077819	119374	620.76	801.64	14	59	-1	11.37	11.37
Saccade L	1	4	1430077819	1430236932	159113	617.89	785.87	1158.35	783.81	12.84	308.43	0.63	80.73	6484.32	-7477.55	2928.78
Saccade R	1	4	1430077819	1430236932	159113	617.89	785.87	1158.35	783.81	12.84	308.43	0.63	80.73	6484.32	-7477.55	2928.78
Fixation L	1	5	1430236932	1430515420	278488	1129.99	817.64	44	48	-1	13.79	13.79
Fixation R	1	5	1430236932	1430356296	119364	1138.73	811.13	29	39	-1	5.37	5.23
Fixation R	1	6	1430376171	1430555148	178977	1119.31	828.92	22	45	-1	18.19	18.19
Saccade L	1	5	1430515420	1430594905	79485	1114.70	832.70	701.67	828.00	5.71	238.47	1.00	71.88	5356.83	-5450.49	3201.08
Saccade R	1	5	1430555148	1430594905	39757	1107.76	863.23	701.67	828.00	3.82	238.47	1.00	96.20	5356.83	-5450.49	4722.12
Fixation L	1	6	1430594905	1430813763	218858	655.66	825.92	73	16	-1	13.40	13.40
Fixation R	1	7	1430594905	1430813763	218858	655.66	825.92	73	16	-1	11.97	11.97
Saccade L	1	6	1430813763	1430833649	19886	627.85	816.06	525.05	730.22	0.95	135.46	1.00	47.69	3316.92	-2894.38	2084.33
Saccade R	1	6	1430813763	1430833649	19886	627.85	816.06	525.05	730.22	0.95	135.46	1.00	47.69	3316.92	-2894.38	2084.33
Fixation L	1	7	1430833649	1430933136	99487	493.98	710.66	42	50	-1	13.78	13.78
Fixation R	1	8	1430833649	1430933136	99487	493.98	710.66	42	50	-1	13.83	13.83
Saccade L	1	7	1430933136	1430953015	19879	482.82	686.88	479.08	672.71	0.20	19.84	1.00	10.25	102.56	-182.21	136.68
Saccade R	1	7	1430933136	1430953015	19879	482.82	686.88	479.08	672.71	0.20	19.84	1.00	10.25	102.56	-182.21	136.68
Fixation L	1	8	1430953015	1431350737	397722	489.66	653.10	27	27	-1	14.31	14.31
Fixation R	1	9	1430953015	1431350737	397722	489.66	653.10	27	27	-1	14.44	14.44
Saccade L	1	8	1431350737	1431410477	59740	503.94	658.10	1041.34	741.32	5.68	271.33	0.67	95.08	6772.80	-6433.43	4119.98
Saccade R	1	8	1431350737	1431410477	59740	503.94	658.10	1041.34	741.32	5.68	271.33	0.67	95.08	6772.80	-6433.43	4119.98
Fixation L	1	9	1431410477	1431629217	218740	1044.27	791.30	8	84	-1	14.86	14.86
Fixation R	1	10	1431410477	1431629217	218740	1044.27	791.30	8	84	-1	8.60	8.60
Saccade L	1	9	1431629217	1432027068	397851	1042.49	826.13	696.91	296.55	28.22	259.01	0.90	70.93	5289.25	-5402.25	2173.72
Saccade R	1	9	1431629217	1432027068	397851	1042.49	826.13	696.91	296.55	28.22	259.01	0.90	70.93	5289.25	-5402.25	2173.72
Fixation L	1	10	1432027068	1432126443	99375	672.54	291.82	48	44	-1	13.84	13.84
Fixation R	1	11	1432027068	1432126443	99375	672.54	291.82	48	44	-1	13.86	13.86
Saccade L	1	10	1432126443	1432146312	19869	648.06	261.91	638.93	258.09	0.33	30.64	0.00	16.78	115.14	-625.49	337.21
Saccade R	1	10	1432126443	1432146312	19869	648.06	261.91	638.93	258.09	0.33	30.64	0.00	16.78	115.14	-625.49	337.21
Fixation L	1	11	1432146312	1432265674	119362	644.08	278.10	19	36	-1	13.80	13.80
Fixation R	1	12	1432146312	1432265674	119362	644.08	278.10	19	36	-1	13.56	13.56
Saccade L	1	11	1432265674	1432325420	59746	658.88	294.44	1236.53	407.46	6.40	270.43	0.67	107.14	6384.61	-6295.58	4316.73
Saccade R	1	11	1432265674	1432325420	59746	658.88	294.44	1236.53	407.46	6.40	270.43	0.67	107.14	6384.61	-6295.58	4316.73
Fixation L	1	12	1432325420	1432444666	119246	1222.41	437.55	23	48	-1	14.03	14.03
Fixation R	1	13	1432325420	1432444666	119246	1222.41	437.55	23	48	-1	9.79	9.79
Saccade L	1	12	1432444666	1432484546	39880	1212.83	455.77	1284.86	776.84	2.80	236.69	1.00	70.14	5754.43	-4980.83	3829.73
Fixation L	1	13	1432484546	1432802769	318223	1303.40	810.49	48	50	-1	14.85	14.85
Fixation R	1	14	1432504417	1432802769	298352	1304.56	812.59	48	50	-1	15.85	15.85
Saccade L	1	13	1432802769	1432882276	79507	1303.79	826.81	1526.32	632.90	4.52	223.76	0.75	56.84	5462.06	-3646.27	2165.95
Saccade R	1	12	1432802769	1432882276	79507	1303.79	826.81	1526.32	632.90	4.52	223.76	0.75	56.84	5462.06	-3646.27	2165.95
Fixation L	1	14	1432882276	1432981757	99481	1529.15	568.95	9	81	-1	14.44	14.44
Fixation R	1	15	1432882276	1432981757	99481	1529.15	568.95	9	81	-1	12.52	12.52
