[BeGaze]
Converted from:	C:\Documents and Settings\iViewX\Desktop\EXPERIMENTATIONS\Experiments\results\finaleart\S02123220-finaleart-1.idf
Date:	27.03.2019 15:33:30
Version:	BeGaze 2.5.77
Sample Rate:	50
Subject:	S02123220
Description:	David Xu

Table Header for Fixations:
Event Type	Trial	Number	Start	End	Duration	Location X	Location Y	Dispersion X	Dispersion Y	Plane	Avg. Pupil Size X	Avg. Pupil Size Y

Table Header for Saccades:
Event Type	Trial	Number	Start	End	Duration	Start Loc.X	Start Loc.Y	End Loc.X	End Loc.Y	Amplitude	Peak Speed	Peak Speed At	Average Speed	Peak Accel.	Peak Decel.	Average Accel.

Table Header for Blinks:
Event Type	Trial	Number	Start	End	Duration

Table Header for User Events:
Event Type	Trial	Number	Start	Description

UserEvent	1	1	686034576	# Message: void.jpg
Saccade L	1	1	686039756	686815459	775703	922.98	647.81	942.55	490.49	95.44	402.92	0.05	123.03	10073.07	-7569.56	2251.24
Saccade R	1	1	686039756	686815459	775703	922.98	647.81	942.55	490.49	95.44	402.92	0.05	123.03	10073.07	-7569.56	2251.24
Fixation L	1	1	686815459	686934816	119357	934.29	478.37	20	24	-1	16.43	16.43
Fixation R	1	1	686815459	686934816	119357	934.29	478.37	20	24	-1	14.11	14.11
Blink L	1	1	686934816	687193431	258615
Blink R	1	1	686934816	687213306	278490
Blink L	1	2	687173432	687392299	218867
Blink R	1	2	687193431	687392299	198868
Saccade L	1	2	687392299	687650902	258603	947.12	414.53	947.89	505.12	28.47	283.42	1.00	110.11	6874.75	-6954.39	3518.33
Saccade R	1	2	687392299	687650902	258603	947.12	414.53	947.89	505.12	28.47	283.42	1.00	110.11	6874.75	-6954.39	3518.33
Fixation L	1	2	687650902	687829906	179004	950.74	499.12	7	10	-1	18.04	18.04
Fixation R	1	2	687650902	687829906	179004	950.74	499.12	7	10	-1	17.18	17.18
Saccade L	1	3	687829906	687889526	59620	946.77	497.69	877.67	477.56	7.15	312.95	0.33	119.92	7756.92	-6984.38	5937.79
Saccade R	1	3	687829906	687889526	59620	946.77	497.69	877.67	477.56	7.15	312.95	0.33	119.92	7756.92	-6984.38	5937.79
Fixation L	1	3	687889526	688028755	139229	865.84	474.61	19	17	-1	17.66	17.66
Fixation R	1	3	687889526	688028755	139229	865.84	474.61	19	17	-1	17.30	17.30
