[BeGaze]
Converted from:	C:\Documents and Settings\iViewX\Desktop\EXPERIMENTATIONS\Experiments\results\finaleart\S02123220-finaleart-1.idf
Date:	27.03.2019 15:33:46
Version:	BeGaze 2.5.77
Sample Rate:	50
Subject:	S02123220
Description:	David Xu

Table Header for Fixations:
Event Type	Trial	Number	Start	End	Duration	Location X	Location Y	Dispersion X	Dispersion Y	Plane	Avg. Pupil Size X	Avg. Pupil Size Y

Table Header for Saccades:
Event Type	Trial	Number	Start	End	Duration	Start Loc.X	Start Loc.Y	End Loc.X	End Loc.Y	Amplitude	Peak Speed	Peak Speed At	Average Speed	Peak Accel.	Peak Decel.	Average Accel.

Table Header for Blinks:
Event Type	Trial	Number	Start	End	Duration

Table Header for User Events:
Event Type	Trial	Number	Start	Description

UserEvent	1	1	2208907497	# Message: still-life-with-bottle-of-wind_cross_1904.jpg
Fixation L	1	1	2208914025	2209510739	596714	920.99	498.03	26	33	-1	13.70	13.70
Fixation R	1	1	2208914025	2209510739	596714	920.99	498.03	26	33	-1	12.89	12.89
Saccade L	1	1	2209510739	2209550488	39749	935.79	481.91	707.12	512.81	2.59	133.65	1.00	65.10	3186.42	-2615.81	2162.35
Saccade R	1	1	2209510739	2209550488	39749	935.79	481.91	707.12	512.81	2.59	133.65	1.00	65.10	3186.42	-2615.81	2162.35
Fixation L	1	2	2209550488	2209689731	139243	698.66	564.42	14	79	-1	10.69	10.69
Fixation R	1	2	2209550488	2209689731	139243	698.66	564.42	14	79	-1	9.94	9.94
Saccade L	1	2	2209689731	2209749351	59620	697.54	563.67	489.32	974.39	4.96	194.48	1.00	83.23	4410.41	-4457.39	3551.26
Saccade R	1	2	2209689731	2209749351	59620	697.54	563.67	489.32	974.39	4.96	194.48	1.00	83.23	4410.41	-4457.39	3551.26
Fixation L	1	3	2209749351	2210087457	338106	500.44	927.75	21	67	-1	10.38	10.38
Fixation R	1	3	2209749351	2210087457	338106	500.44	927.75	21	67	-1	9.78	9.78
Saccade L	1	3	2210087457	2210167060	79603	492.91	913.11	1213.74	620.61	9.36	322.96	0.50	117.54	8045.17	-6932.20	4971.66
Saccade R	1	3	2210087457	2210167060	79603	492.91	913.11	1213.74	620.61	9.36	322.96	0.50	117.54	8045.17	-6932.20	4971.66
Fixation L	1	4	2210167060	2210346059	178999	1214.87	618.24	7	21	-1	11.11	11.11
Fixation R	1	4	2210167060	2210346059	178999	1214.87	618.24	7	21	-1	10.19	10.19
Saccade L	1	4	2210346059	2210385805	39746	1220.53	622.19	1384.09	889.71	2.74	251.91	0.50	69.04	6230.85	-5939.21	3789.94
Saccade R	1	4	2210346059	2210385805	39746	1220.53	622.19	1384.09	889.71	2.74	251.91	0.50	69.04	6230.85	-5939.21	3789.94
Fixation L	1	5	2210385805	2210903028	517223	1380.50	883.73	22	34	-1	12.09	12.09
Fixation R	1	5	2210385805	2210903028	517223	1380.50	883.73	22	34	-1	9.74	9.74
Saccade L	1	5	2210903028	2210982527	79499	1396.25	868.85	1489.86	484.83	5.77	208.15	0.50	72.62	4862.20	-3422.28	2989.74
Saccade R	1	5	2210903028	2210982527	79499	1396.25	868.85	1489.86	484.83	5.77	208.15	0.50	72.62	4862.20	-3422.28	2989.74
Fixation L	1	6	2210982527	2211161507	178980	1484.42	494.75	49	19	-1	12.45	12.45
Fixation R	1	6	2210982527	2211161507	178980	1484.42	494.75	49	19	-1	11.05	11.05
Saccade L	1	6	2211161507	2211221258	59751	1508.43	501.04	1184.42	405.77	4.23	161.34	0.67	70.81	3823.03	-3654.12	2478.32
Saccade R	1	6	2211161507	2211221258	59751	1508.43	501.04	1184.42	405.77	4.23	161.34	0.67	70.81	3823.03	-3654.12	2478.32
Fixation L	1	7	2211221258	2211559352	338094	1180.80	408.65	9	19	-1	12.75	12.75
Fixation R	1	7	2211221258	2211559352	338094	1180.80	408.65	9	19	-1	11.54	11.54
Saccade L	1	7	2211559352	2211618975	59623	1176.41	411.16	809.55	366.73	4.32	188.69	0.33	72.42	4624.64	-3454.97	3001.32
Saccade R	1	7	2211559352	2211618975	59623	1176.41	411.16	809.55	366.73	4.32	188.69	0.33	72.42	4624.64	-3454.97	3001.32
Fixation L	1	8	2211618975	2211738359	119384	812.72	322.47	31	67	-1	12.71	12.71
Fixation R	1	8	2211618975	2211738359	119384	812.72	322.47	31	67	-1	11.83	11.83
Saccade L	1	8	2211738359	2211758228	19869	827.31	299.35	843.42	298.27	0.33	31.79	1.00	16.48	456.69	-386.45	343.57
Saccade R	1	8	2211738359	2211758228	19869	827.31	299.35	843.42	298.27	0.33	31.79	1.00	16.48	456.69	-386.45	343.57
Fixation L	1	9	2211758228	2211877599	119371	819.39	306.02	38	49	-1	12.94	12.94
Fixation R	1	9	2211758228	2211877599	119371	819.39	306.02	38	49	-1	12.01	12.01
Saccade L	1	9	2211877599	2211917344	39745	805.33	302.76	621.72	382.71	2.16	147.16	0.50	54.36	3119.51	-3294.81	2449.29
Saccade R	1	9	2211877599	2211917344	39745	805.33	302.76	621.72	382.71	2.16	147.16	0.50	54.36	3119.51	-3294.81	2449.29
Fixation L	1	10	2211917344	2212195843	278499	622.17	412.54	9	40	-1	13.25	13.25
Fixation R	1	10	2211917344	2212195843	278499	622.17	412.54	9	40	-1	12.69	12.69
Saccade L	1	10	2212195843	2212235579	39736	625.89	422.73	983.76	327.41	3.33	215.21	1.00	83.86	5295.03	-5320.15	4440.25
Saccade R	1	10	2212195843	2212235579	39736	625.89	422.73	983.76	327.41	3.33	215.21	1.00	83.86	5295.03	-5320.15	4440.25
Fixation L	1	11	2212235579	2212474306	238727	1020.22	319.94	54	22	-1	13.63	13.63
Fixation R	1	11	2212235579	2212474306	238727	1020.22	319.94	54	22	-1	12.42	12.42
Saccade L	1	11	2212474306	2212494185	19879	1038.08	331.34	1182.54	337.53	0.90	146.24	1.00	45.12	3591.12	-3198.63	2299.95
Saccade R	1	11	2212474306	2212494185	19879	1038.08	331.34	1182.54	337.53	0.90	146.24	1.00	45.12	3591.12	-3198.63	2299.95
Fixation L	1	12	2212494185	2212911912	417727	1194.32	383.05	15	56	-1	13.49	13.49
Fixation R	1	12	2212494185	2212911912	417727	1194.32	383.05	15	56	-1	11.92	11.92
