[BeGaze]
Converted from:	C:\Documents and Settings\iViewX\Desktop\EXPERIMENTATIONS\Experiments\results\finaleart\S02123220-finaleart-1.idf
Date:	27.03.2019 15:33:47
Version:	BeGaze 2.5.77
Sample Rate:	50
Subject:	S02123220
Description:	David Xu

Table Header for Fixations:
Event Type	Trial	Number	Start	End	Duration	Location X	Location Y	Dispersion X	Dispersion Y	Plane	Avg. Pupil Size X	Avg. Pupil Size Y

Table Header for Saccades:
Event Type	Trial	Number	Start	End	Duration	Start Loc.X	Start Loc.Y	End Loc.X	End Loc.Y	Amplitude	Peak Speed	Peak Speed At	Average Speed	Peak Accel.	Peak Decel.	Average Accel.

Table Header for Blinks:
Event Type	Trial	Number	Start	End	Duration

Table Header for User Events:
Event Type	Trial	Number	Start	Description

UserEvent	1	1	2257893210	# Message: still-life-with-red-mullet-and-jug_gaugain_1876.jpg
Fixation L	1	1	2257902571	2258001947	99376	825.57	441.13	75	11	-1	15.71	15.71
Fixation R	1	1	2257902571	2258001947	99376	825.57	441.13	75	11	-1	13.40	13.40
Saccade L	1	1	2258001947	2258021855	19908	885.72	439.50	942.61	445.44	0.92	76.31	0.00	46.30	1317.57	-994.27	1024.06
Saccade R	1	1	2258001947	2258021855	19908	885.72	439.50	942.61	445.44	0.92	76.31	0.00	46.30	1317.57	-994.27	1024.06
Fixation L	1	2	2258021855	2258141167	119312	990.24	464.14	61	35	-1	15.66	15.66
Fixation R	1	2	2258021855	2258141167	119312	990.24	464.14	61	35	-1	13.65	13.65
Saccade L	1	2	2258141167	2258161041	19874	1003.73	478.11	1003.30	482.81	0.05	4.77	1.00	2.68	46.44	-104.72	65.32
Saccade R	1	2	2258141167	2258161041	19874	1003.73	478.11	1003.30	482.81	0.05	4.77	1.00	2.68	46.44	-104.72	65.32
Fixation L	1	3	2258161041	2258419648	258607	1006.90	486.20	11	9	-1	15.72	15.72
Fixation R	1	3	2258161041	2258419648	258607	1006.90	486.20	11	9	-1	13.51	13.51
Saccade L	1	3	2258419648	2258558903	139255	1000.19	491.41	875.37	875.90	6.76	180.63	1.00	48.52	4459.87	-3923.83	2123.20
Saccade R	1	3	2258419648	2258558903	139255	1000.19	491.41	875.37	875.90	6.76	180.63	1.00	48.52	4459.87	-3923.83	2123.20
Fixation L	1	4	2258558903	2258777642	218739	834.58	891.14	54	23	-1	15.40	15.40
Fixation R	1	4	2258558903	2258777642	218739	834.58	891.14	54	23	-1	12.54	12.54
Saccade L	1	4	2258777642	2258817397	39755	822.75	899.69	655.13	870.87	2.01	155.28	1.00	50.45	3366.51	-3464.68	2108.48
Saccade R	1	4	2258777642	2258817397	39755	822.75	899.69	655.13	870.87	2.01	155.28	1.00	50.45	3366.51	-3464.68	2108.48
Fixation L	1	5	2258817397	2259056127	238730	644.49	862.40	15	20	-1	15.24	15.24
Fixation R	1	5	2258817397	2259056127	238730	644.49	862.40	15	20	-1	12.85	12.85
Saccade L	1	5	2259056127	2259095867	39740	647.02	865.54	903.31	779.35	2.79	172.81	1.00	70.14	4284.90	-4076.88	2987.08
Saccade R	1	5	2259056127	2259095867	39740	647.02	865.54	903.31	779.35	2.79	172.81	1.00	70.14	4284.90	-4076.88	2987.08
Fixation L	1	6	2259095867	2259354463	258596	905.92	846.02	11	79	-1	15.14	15.14
Fixation R	1	6	2259095867	2259354463	258596	905.92	846.02	11	79	-1	12.29	12.29
Saccade L	1	6	2259354463	2259374345	19882	907.39	857.59	1035.64	927.86	1.12	147.90	1.00	56.26	3641.53	-3084.24	2618.90
Saccade R	1	6	2259354463	2259374345	19882	907.39	857.59	1035.64	927.86	1.12	147.90	1.00	56.26	3641.53	-3084.24	2618.90
Fixation L	1	7	2259374345	2259553328	178983	1028.18	897.59	13	59	-1	15.48	15.48
Fixation R	1	7	2259374345	2259553328	178983	1028.18	897.59	13	59	-1	12.04	12.04
Saccade L	1	7	2259553328	2259593085	39757	1029.19	903.61	689.70	741.79	3.45	227.37	1.00	86.83	5631.10	-5585.05	4775.23
Saccade R	1	7	2259553328	2259593085	39757	1029.19	903.61	689.70	741.79	3.45	227.37	1.00	86.83	5631.10	-5585.05	4775.23
Fixation L	1	8	2259593085	2259811948	218863	673.85	724.81	29	24	-1	15.41	15.41
Fixation R	1	8	2259593085	2259811948	218863	673.85	724.81	29	24	-1	12.50	12.50
Saccade L	1	8	2259811948	2259831813	19865	660.34	722.44	518.91	728.67	1.04	143.19	1.00	52.13	3440.52	-3483.91	2616.30
Saccade R	1	8	2259811948	2259831813	19865	660.34	722.44	518.91	728.67	1.04	143.19	1.00	52.13	3440.52	-3483.91	2616.30
Fixation L	1	9	2259831813	2260070554	238741	529.65	785.11	20	68	-1	15.02	15.02
Fixation R	1	9	2259831813	2260070554	238741	529.65	785.11	20	68	-1	13.50	13.50
Saccade L	1	9	2260070554	2260249542	178988	531.13	788.76	1134.03	384.39	12.05	259.57	0.89	67.34	6343.65	-6371.08	2979.40
Saccade R	1	9	2260070554	2260249542	178988	531.13	788.76	1134.03	384.39	12.05	259.57	0.89	67.34	6343.65	-6371.08	2979.40
Fixation L	1	10	2260249542	2260707020	457478	1113.71	411.73	47	36	-1	15.59	15.59
Fixation R	1	10	2260249542	2260707020	457478	1113.71	411.73	47	36	-1	13.56	13.56
Saccade L	1	10	2260707020	2260726889	19869	1087.16	412.91	1057.52	411.67	0.31	30.01	1.00	15.57	608.58	-590.02	573.50
Saccade R	1	10	2260707020	2260726889	19869	1087.16	412.91	1057.52	411.67	0.31	30.01	1.00	15.57	608.58	-590.02	573.50
Fixation L	1	11	2260726889	2260965491	238602	1045.11	404.40	21	10	-1	15.32	15.32
Fixation R	1	11	2260726889	2260965491	238602	1045.11	404.40	21	10	-1	13.17	13.17
Saccade L	1	11	2260965491	2261005368	39877	1044.52	402.84	736.88	409.47	2.70	155.77	0.50	67.66	3841.65	-3628.38	3657.45
Saccade R	1	11	2260965491	2261005368	39877	1044.52	402.84	736.88	409.47	2.70	155.77	0.50	67.66	3841.65	-3628.38	3657.45
Fixation L	1	12	2261005368	2261422970	417602	709.71	409.59	34	14	-1	15.84	15.84
Fixation R	1	12	2261005368	2261422970	417602	709.71	409.59	34	14	-1	13.99	13.99
Saccade L	1	12	2261422970	2261462715	39745	715.90	416.75	1112.68	417.52	3.30	215.93	0.50	82.99	5381.72	-5130.04	4896.59
Saccade R	1	12	2261422970	2261462715	39745	715.90	416.75	1112.68	417.52	3.30	215.93	0.50	82.99	5381.72	-5130.04	4896.59
Fixation L	1	13	2261462715	2261800953	338238	1115.28	406.98	13	86	-1	16.41	16.41
Fixation R	1	13	2261462715	2261800953	338238	1115.28	406.98	13	86	-1	14.35	14.35
Saccade L	1	13	2261800953	2261880440	79487	1115.53	341.16	1119.26	380.47	1.05	26.87	0.50	13.19	251.98	-215.68	162.12
Saccade R	1	13	2261800953	2261880440	79487	1115.53	341.16	1119.26	380.47	1.05	26.87	0.50	13.19	251.98	-215.68	162.12
