[BeGaze]
Converted from:	C:\Documents and Settings\iViewX\Desktop\EXPERIMENTATIONS\Experiments\results\finaleart\S02123220-finaleart-1.idf
Date:	27.03.2019 15:33:36
Version:	BeGaze 2.5.77
Sample Rate:	50
Subject:	S02123220
Description:	David Xu

Table Header for Fixations:
Event Type	Trial	Number	Start	End	Duration	Location X	Location Y	Dispersion X	Dispersion Y	Plane	Avg. Pupil Size X	Avg. Pupil Size Y

Table Header for Saccades:
Event Type	Trial	Number	Start	End	Duration	Start Loc.X	Start Loc.Y	End Loc.X	End Loc.Y	Amplitude	Peak Speed	Peak Speed At	Average Speed	Peak Accel.	Peak Decel.	Average Accel.

Table Header for Blinks:
Event Type	Trial	Number	Start	End	Duration

Table Header for User Events:
Event Type	Trial	Number	Start	Description

UserEvent	1	1	1178380533	# Message: void.jpg
Saccade L	1	1	1178398832	1178458444	59612	453.58	1157.81	685.44	449.46	9.14	468.40	0.67	153.37	11710.12	-11461.10	7408.63
Saccade R	1	1	1178398832	1178458444	59612	453.58	1157.81	685.44	449.46	9.14	468.40	0.67	153.37	11710.12	-11461.10	7408.63
Fixation L	1	1	1178458444	1178856167	397723	705.75	469.25	33	35	-1	15.01	15.01
Fixation R	1	1	1178458444	1178856167	397723	705.75	469.25	33	35	-1	13.75	13.75
Saccade L	1	2	1178856167	1178896040	39873	717.44	479.47	963.40	477.89	2.19	126.51	0.50	54.97	3048.55	-2840.50	2888.25
Saccade R	1	2	1178856167	1178896040	39873	717.44	479.47	963.40	477.89	2.19	126.51	0.50	54.97	3048.55	-2840.50	2888.25
Fixation L	1	2	1178896040	1179174528	278488	972.78	470.42	15	19	-1	14.87	14.87
Fixation R	1	2	1178896040	1179174528	278488	972.78	470.42	15	19	-1	13.34	13.34
Saccade L	1	3	1179174528	1179194420	19892	968.87	476.67	877.65	478.77	0.87	92.31	1.00	43.58	2306.14	-2042.27	2062.72
Saccade R	1	3	1179174528	1179194420	19892	968.87	476.67	877.65	478.77	0.87	92.31	1.00	43.58	2306.14	-2042.27	2062.72
Fixation L	1	3	1179194420	1179373388	178968	798.73	476.03	91	6	-1	15.46	15.46
Fixation R	1	3	1179194420	1179373388	178968	798.73	476.03	91	6	-1	14.00	14.00
Saccade L	1	4	1179373388	1179393264	19876	785.72	471.91	784.94	484.03	0.12	12.30	1.00	6.10	293.55	-118.10	157.16
Saccade R	1	4	1179373388	1179393264	19876	785.72	471.91	784.94	484.03	0.12	12.30	1.00	6.10	293.55	-118.10	157.16
Fixation L	1	4	1179393264	1180168965	775701	794.73	474.91	35	64	-1	16.73	16.73
Fixation R	1	4	1179393264	1180168965	775701	794.73	474.91	35	64	-1	15.19	15.19
Saccade L	1	5	1180168965	1180188836	19871	817.15	441.45	817.69	435.27	0.15	13.16	1.00	7.60	125.91	-172.00	105.59
Saccade R	1	5	1180168965	1180188836	19871	817.15	441.45	817.69	435.27	0.15	13.16	1.00	7.60	125.91	-172.00	105.59
Fixation L	1	5	1180188836	1180367829	178993	818.35	439.39	2	18	-1	17.26	17.26
Fixation R	1	5	1180188836	1180367829	178993	818.35	439.39	2	18	-1	15.60	15.60
