[BeGaze]
Converted from:	C:\Documents and Settings\iViewX\Desktop\EXPERIMENTATIONS\Experiments\results\finaleart\S02123220-finaleart-1.idf
Date:	27.03.2019 15:33:36
Version:	BeGaze 2.5.77
Sample Rate:	50
Subject:	S02123220
Description:	David Xu

Table Header for Fixations:
Event Type	Trial	Number	Start	End	Duration	Location X	Location Y	Dispersion X	Dispersion Y	Plane	Avg. Pupil Size X	Avg. Pupil Size Y

Table Header for Saccades:
Event Type	Trial	Number	Start	End	Duration	Start Loc.X	Start Loc.Y	End Loc.X	End Loc.Y	Amplitude	Peak Speed	Peak Speed At	Average Speed	Peak Accel.	Peak Decel.	Average Accel.

Table Header for Blinks:
Event Type	Trial	Number	Start	End	Duration

Table Header for User Events:
Event Type	Trial	Number	Start	Description

UserEvent	1	1	1143833037	# Message: Poppy_Fields_near_Argenteuil_Monet_1875.jpg
Fixation L	1	1	1143850290	1144228143	377853	966.73	400.01	48	46	-1	12.37	12.37
Fixation R	1	1	1143850290	1144228143	377853	966.73	400.01	48	46	-1	11.95	11.95
Saccade L	1	1	1144228143	1144267888	39745	978.35	409.25	1127.17	800.82	3.64	250.11	1.00	91.64	6179.03	-5954.09	5234.73
Saccade R	1	1	1144228143	1144267888	39745	978.35	409.25	1127.17	800.82	3.64	250.11	1.00	91.64	6179.03	-5954.09	5234.73
Fixation L	1	2	1144267888	1144367392	99504	1130.68	794.91	72	23	-1	12.99	12.99
Fixation R	1	2	1144267888	1144367392	99504	1130.68	794.91	72	23	-1	11.62	11.62
Saccade L	1	2	1144367392	1144387273	19881	1187.71	807.76	1299.87	788.30	0.98	115.14	1.00	49.14	2810.39	-2729.66	2397.63
Saccade R	1	2	1144367392	1144387273	19881	1187.71	807.76	1299.87	788.30	0.98	115.14	1.00	49.14	2810.39	-2729.66	2397.63
Fixation L	1	3	1144387273	1144705493	318220	1309.81	767.69	23	65	-1	11.13	11.13
Fixation R	1	3	1144387273	1144705493	318220	1309.81	767.69	23	65	-1	9.49	9.49
Saccade L	1	3	1144705493	1144804981	99488	1323.34	742.44	1082.74	805.05	4.44	189.66	0.80	44.66	4531.82	-3881.67	1758.69
Saccade R	1	3	1144705493	1144804981	99488	1323.34	742.44	1082.74	805.05	4.44	189.66	0.80	44.66	4531.82	-3881.67	1758.69
Fixation L	1	4	1144804981	1144964095	159114	1071.30	843.49	22	61	-1	10.04	10.04
Fixation R	1	4	1144804981	1144964095	159114	1071.30	843.49	22	61	-1	9.27	9.27
Saccade L	1	4	1144964095	1145023725	59630	1062.04	850.68	807.97	552.80	4.21	168.28	0.33	70.57	4083.65	-3540.24	2978.60
Saccade R	1	4	1144964095	1145023725	59630	1062.04	850.68	807.97	552.80	4.21	168.28	0.33	70.57	4083.65	-3540.24	2978.60
Fixation L	1	5	1145023725	1145262455	238730	803.89	545.26	65	30	-1	10.33	10.33
Fixation R	1	5	1145023725	1145262455	238730	803.89	545.26	65	30	-1	10.01	10.01
Saccade L	1	5	1145262455	1145282333	19878	750.44	524.53	714.21	490.45	0.68	52.32	0.00	34.06	1016.96	-913.24	879.91
Saccade R	1	5	1145262455	1145282333	19878	750.44	524.53	714.21	490.45	0.68	52.32	0.00	34.06	1016.96	-913.24	879.91
Fixation L	1	6	1145282333	1145421570	139237	695.60	466.82	29	31	-1	10.75	10.75
Fixation R	1	6	1145282333	1145421570	139237	695.60	466.82	29	31	-1	10.66	10.66
Saccade L	1	6	1145421570	1145600564	178994	694.34	459.63	718.68	409.68	18.47	311.15	0.22	103.19	7654.02	-6727.24	3991.10
Saccade R	1	6	1145421570	1145600564	178994	694.34	459.63	718.68	409.68	18.47	311.15	0.22	103.19	7654.02	-6727.24	3991.10
Fixation L	1	7	1145600564	1145759679	159115	720.06	381.76	8	35	-1	11.89	11.89
Fixation R	1	7	1145600564	1145759679	159115	720.06	381.76	8	35	-1	11.65	11.65
Saccade L	1	7	1145759679	1146117654	357975	722.60	383.00	1547.67	1180.30	33.87	426.64	0.06	94.62	10635.87	-5528.71	2796.85
Saccade R	1	7	1145759679	1146117654	357975	722.60	383.00	1547.67	1180.30	33.87	426.64	0.06	94.62	10635.87	-5528.71	2796.85
Fixation L	1	8	1146117654	1146217152	99498	1534.24	1185.89	30	24	-1	12.75	12.75
Fixation R	1	8	1146117654	1146217152	99498	1534.24	1185.89	30	24	-1	8.89	8.89
Saccade L	1	8	1146217152	1146356393	139241	1534.12	1199.52	1635.01	1105.91	7.12	89.69	0.86	51.14	1469.11	-1675.62	817.65
Saccade R	1	8	1146217152	1146435884	218732	1534.12	1199.52	1627.62	1069.19	9.75	89.69	0.55	44.57	1469.11	-1675.62	747.69
Fixation L	1	9	1146356393	1146475631	119238	1630.60	1103.21	12	71	-1	12.44	12.44
Blink R	1	1	1146435884	1146555263	119379
Saccade L	1	9	1146475631	1146595002	119371	1631.65	1140.55	1486.51	1092.69	7.54	114.49	0.83	63.19	2310.75	-2352.62	1260.06
Saccade R	1	9	1146555263	1146595002	39739	1650.10	1204.48	1486.51	1092.69	2.84	114.49	0.50	71.36	2310.75	-2352.62	1768.03
Fixation L	1	10	1146595002	1146913230	318228	1498.19	1121.79	44	37	-1	12.67	12.67
Fixation R	1	9	1146595002	1146913230	318228	1498.19	1121.79	44	37	-1	11.32	11.32
Saccade L	1	10	1146913230	1147211606	298376	1528.85	1121.40	1293.14	498.32	25.35	365.68	0.93	84.95	8035.51	-9072.66	2298.06
Saccade R	1	10	1146913230	1147211606	298376	1528.85	1121.40	1293.14	498.32	25.35	365.68	0.93	84.95	8035.51	-9072.66	2298.06
Fixation L	1	11	1147211606	1147450321	238715	1283.43	511.24	15	22	-1	13.12	13.12
Fixation R	1	10	1147211606	1147450321	238715	1283.43	511.24	15	22	-1	13.04	13.04
Saccade L	1	11	1147450321	1147490076	39755	1278.81	507.57	961.37	723.62	3.26	203.27	0.50	81.96	4951.99	-4858.96	4774.94
Saccade R	1	11	1147450321	1147490076	39755	1278.81	507.57	961.37	723.62	3.26	203.27	0.50	81.96	4951.99	-4858.96	4774.94
Fixation L	1	12	1147490076	1147828165	338089	951.20	703.39	46	37	-1	11.88	11.88
Fixation R	1	11	1147490076	1147828165	338089	951.20	703.39	46	37	-1	12.48	12.48
