[BeGaze]
Converted from:	C:\Documents and Settings\iViewX\Desktop\EXPERIMENTATIONS\Experiments\results\finaleart\S02123220-finaleart-1.idf
Date:	27.03.2019 15:33:29
Version:	BeGaze 2.5.77
Sample Rate:	50
Subject:	S02123220
Description:	David Xu

Table Header for Fixations:
Event Type	Trial	Number	Start	End	Duration	Location X	Location Y	Dispersion X	Dispersion Y	Plane	Avg. Pupil Size X	Avg. Pupil Size Y

Table Header for Saccades:
Event Type	Trial	Number	Start	End	Duration	Start Loc.X	Start Loc.Y	End Loc.X	End Loc.Y	Amplitude	Peak Speed	Peak Speed At	Average Speed	Peak Accel.	Peak Decel.	Average Accel.

Table Header for Blinks:
Event Type	Trial	Number	Start	End	Duration

Table Header for User Events:
Event Type	Trial	Number	Start	Description

UserEvent	1	1	464739814	# Message: La_Ferme_des_Collettes_Renoir_1908.jpg
Fixation L	1	1	464751277	465288264	536987	868.17	472.67	11	24	-1	14.41	14.41
Fixation R	1	1	464751277	465288264	536987	868.17	472.67	11	24	-1	13.32	13.32
Saccade L	1	1	465288264	465308239	19975	869.25	463.25	747.92	478.76	0.74	123.72	1.00	37.21	3012.56	-2949.93	2091.01
Saccade R	1	1	465288264	465308239	19975	869.25	463.25	747.92	478.76	0.74	123.72	1.00	37.21	3012.56	-2949.93	2091.01
Fixation L	1	2	465308239	465586595	278356	739.81	455.90	15	40	-1	13.53	13.53
Fixation R	1	2	465308239	465586595	278356	739.81	455.90	15	40	-1	12.47	12.47
Saccade L	1	2	465586595	465606474	19879	737.59	440.45	661.62	432.91	0.53	77.23	1.00	26.51	1799.28	-1445.62	1223.95
Saccade R	1	2	465586595	465606474	19879	737.59	440.45	661.62	432.91	0.53	77.23	1.00	26.51	1799.28	-1445.62	1223.95
Fixation L	1	3	465606474	465865078	258604	660.99	444.20	59	23	-1	13.60	13.60
Fixation R	1	3	465606474	465865078	258604	660.99	444.20	59	23	-1	12.56	12.56
Saccade L	1	3	465865078	465884965	19887	701.48	454.74	715.31	458.47	0.46	45.46	0.00	23.13	302.95	-381.13	285.07
Saccade R	1	3	465865078	465884965	19887	701.48	454.74	715.31	458.47	0.46	45.46	0.00	23.13	302.95	-381.13	285.07
Fixation L	1	4	465884965	466223057	338092	741.35	447.47	40	57	-1	14.29	14.29
Fixation R	1	4	465884965	466223057	338092	741.35	447.47	40	57	-1	13.22	13.22
Saccade L	1	4	466223057	466262932	39875	755.92	445.64	788.13	555.60	1.67	87.04	0.50	41.76	1825.10	-907.76	855.48
Saccade R	1	4	466223057	466262932	39875	755.92	445.64	788.13	555.60	1.67	87.04	0.50	41.76	1825.10	-907.76	855.48
Fixation L	1	5	466262932	466481668	218736	787.59	593.87	21	56	-1	15.19	15.19
Fixation R	1	5	466262932	466481668	218736	787.59	593.87	21	56	-1	13.90	13.90
Saccade L	1	5	466481668	466501540	19872	784.75	612.49	798.98	666.21	0.46	56.22	1.00	22.94	1116.61	-738.25	635.03
Saccade R	1	5	466481668	466501540	19872	784.75	612.49	798.98	666.21	0.46	56.22	1.00	22.94	1116.61	-738.25	635.03
Fixation L	1	6	466501540	466700531	198991	803.15	660.88	43	56	-1	15.55	15.55
Fixation R	1	6	466501540	466700531	198991	803.15	660.88	43	56	-1	14.17	14.17
Saccade L	1	6	466700531	466760142	59611	812.98	665.66	714.31	405.54	3.93	146.48	0.33	65.99	2067.44	-1882.07	1482.72
Saccade R	1	6	466700531	466760142	59611	812.98	665.66	714.31	405.54	3.93	146.48	0.33	65.99	2067.44	-1882.07	1482.72
Fixation L	1	7	466760142	467018762	258620	713.78	432.01	15	61	-1	15.41	15.41
Fixation R	1	7	466760142	467018762	258620	713.78	432.01	15	61	-1	14.31	14.31
Saccade L	1	7	467018762	467058495	39733	721.29	452.75	928.39	460.16	1.99	134.68	1.00	50.00	3222.09	-3110.19	2305.13
Saccade R	1	7	467018762	467058495	39733	721.29	452.75	928.39	460.16	1.99	134.68	1.00	50.00	3222.09	-3110.19	2305.13
Fixation L	1	8	467058495	467197750	139255	962.19	461.46	47	17	-1	16.04	16.04
Fixation R	1	8	467058495	467197750	139255	962.19	461.46	47	17	-1	14.13	14.13
Saccade L	1	8	467197750	467217620	19870	954.58	471.87	832.09	476.56	0.83	123.98	1.00	41.55	3014.66	-2941.22	2001.46
Saccade R	1	8	467197750	467217620	19870	954.58	471.87	832.09	476.56	0.83	123.98	1.00	41.55	3014.66	-2941.22	2001.46
Fixation L	1	9	467217620	467376745	159125	806.12	493.83	33	36	-1	16.12	16.12
Fixation R	1	9	467217620	467376745	159125	806.12	493.83	33	36	-1	14.89	14.89
Saccade L	1	9	467376745	467436359	59614	799.38	513.20	653.62	667.81	3.19	125.58	1.00	53.45	2763.45	-2961.41	2301.64
Saccade R	1	9	467376745	467436359	59614	799.38	513.20	653.62	667.81	3.19	125.58	1.00	53.45	2763.45	-2961.41	2301.64
Fixation L	1	10	467436359	467655232	218873	656.39	664.02	6	41	-1	16.31	16.31
Fixation R	1	10	467436359	467655232	218873	656.39	664.02	6	41	-1	15.37	15.37
Saccade L	1	10	467655232	467694956	39724	658.20	635.32	668.77	352.51	2.69	161.51	0.50	67.68	3823.26	-3697.15	3121.81
Saccade R	1	10	467655232	467694956	39724	658.20	635.32	668.77	352.51	2.69	161.51	0.50	67.68	3823.26	-3697.15	3121.81
Fixation L	1	11	467694956	467973445	278489	706.34	358.99	50	33	-1	15.53	15.53
Fixation R	1	11	467694956	467973445	278489	706.34	358.99	50	33	-1	14.80	14.80
Saccade L	1	11	467973445	468013195	39750	710.77	342.18	1148.23	336.79	3.78	244.02	0.50	95.00	5968.32	-5634.22	5298.18
Saccade R	1	11	467973445	468013195	39750	710.77	342.18	1148.23	336.79	3.78	244.02	0.50	95.00	5968.32	-5634.22	5298.18
Fixation L	1	12	468013195	468172314	159119	1165.19	331.44	24	9	-1	15.37	15.37
Fixation R	1	12	468013195	468172314	159119	1165.19	331.44	24	9	-1	13.24	13.24
Saccade L	1	12	468172314	468212061	39747	1165.19	328.78	1318.16	467.73	2.07	192.07	0.50	52.06	4663.39	-4124.94	2441.71
Saccade R	1	12	468172314	468212061	39747	1165.19	328.78	1318.16	467.73	2.07	192.07	0.50	52.06	4663.39	-4124.94	2441.71
Fixation L	1	13	468212061	468311560	99499	1300.45	472.38	60	38	-1	16.38	16.38
Fixation R	1	13	468212061	468311560	99499	1300.45	472.38	60	38	-1	9.82	9.82
Saccade L	1	13	468311560	468371176	59616	1277.39	481.80	1378.65	614.05	5.57	236.25	1.00	93.51	4472.98	-5731.00	3244.72
Saccade R	1	13	468311560	468371176	59616	1277.39	481.80	1378.65	614.05	5.57	236.25	1.00	93.51	4472.98	-5731.00	3244.72
Fixation L	1	14	468371176	468589916	218740	1408.97	590.68	39	30	-1	17.00	17.00
Fixation R	1	14	468371176	468589916	218740	1408.97	590.68	39	30	-1	15.14	15.14
Saccade L	1	14	468589916	468729159	139243	1418.37	584.61	969.45	791.77	8.74	257.11	0.29	62.75	6370.62	-5779.41	2637.86
Saccade R	1	14	468589916	468729159	139243	1418.37	584.61	969.45	791.77	8.74	257.11	0.29	62.75	6370.62	-5779.41	2637.86
