[BeGaze]
Converted from:	C:\Documents and Settings\iViewX\Desktop\EXPERIMENTATIONS\Experiments\results\finaleart\S02123220-finaleart-1.idf
Date:	27.03.2019 15:33:42
Version:	BeGaze 2.5.77
Sample Rate:	50
Subject:	S02123220
Description:	David Xu

Table Header for Fixations:
Event Type	Trial	Number	Start	End	Duration	Location X	Location Y	Dispersion X	Dispersion Y	Plane	Avg. Pupil Size X	Avg. Pupil Size Y

Table Header for Saccades:
Event Type	Trial	Number	Start	End	Duration	Start Loc.X	Start Loc.Y	End Loc.X	End Loc.Y	Amplitude	Peak Speed	Peak Speed At	Average Speed	Peak Accel.	Peak Decel.	Average Accel.

Table Header for Blinks:
Event Type	Trial	Number	Start	End	Duration

Table Header for User Events:
Event Type	Trial	Number	Start	Description

UserEvent	1	1	1771135841	# Message: sisley-still-life-heron-with-spread-wings-1867.jpg
Fixation L	1	1	1771154023	1771432503	278480	896.51	505.45	18	14	-1	13.02	13.02
Fixation R	1	1	1771154023	1771432503	278480	896.51	505.45	18	14	-1	13.00	13.00
Saccade L	1	1	1771432503	1771452373	19870	893.62	500.86	1023.67	499.16	1.07	131.54	1.00	53.90	2896.74	-2558.97	2267.88
Saccade R	1	1	1771432503	1771452373	19870	893.62	500.86	1023.67	499.16	1.07	131.54	1.00	53.90	2896.74	-2558.97	2267.88
Fixation L	1	2	1771452373	1771631493	179120	994.20	510.99	60	28	-1	13.04	13.04
Fixation R	1	2	1771452373	1771631493	179120	994.20	510.99	60	28	-1	12.95	12.95
Saccade L	1	2	1771631493	1771651371	19878	981.73	527.92	800.31	672.14	1.30	234.33	1.00	65.49	5699.74	-5677.29	3862.25
Saccade R	1	2	1771631493	1771651371	19878	981.73	527.92	800.31	672.14	1.30	234.33	1.00	65.49	5699.74	-5677.29	3862.25
Fixation L	1	3	1771651371	1771870113	218742	813.08	675.69	18	25	-1	12.49	12.49
Fixation R	1	3	1771651371	1771870113	218742	813.08	675.69	18	25	-1	13.32	13.32
Saccade L	1	3	1771870113	1771909859	39746	819.20	677.66	912.76	801.85	1.54	97.72	1.00	38.74	2387.72	-2133.74	1998.99
Saccade R	1	3	1771870113	1771909859	39746	819.20	677.66	912.76	801.85	1.54	97.72	1.00	38.74	2387.72	-2133.74	1998.99
Fixation L	1	4	1771909859	1772108846	198987	930.78	795.83	48	20	-1	12.41	12.41
Fixation R	1	4	1771909859	1772108846	198987	930.78	795.83	48	20	-1	12.66	12.66
Saccade L	1	4	1772108846	1772148590	39744	957.24	797.35	701.10	817.56	2.56	145.90	1.00	64.30	3329.50	-2087.76	2506.08
Saccade R	1	4	1772108846	1772148590	39744	957.24	797.35	701.10	817.56	2.56	145.90	1.00	64.30	3329.50	-2087.76	2506.08
Fixation L	1	5	1772148590	1772247961	99371	696.69	805.23	53	30	-1	12.74	12.74
Fixation R	1	5	1772148590	1772247961	99371	696.69	805.23	53	30	-1	13.07	13.07
Saccade L	1	5	1772247961	1772367332	119371	693.04	800.83	675.96	762.19	4.33	72.04	1.00	36.23	1257.35	-1379.29	934.36
Saccade R	1	5	1772247961	1772367332	119371	693.04	800.83	675.96	762.19	4.33	72.04	1.00	36.23	1257.35	-1379.29	934.36
Fixation L	1	6	1772367332	1772486694	119362	675.26	777.89	25	59	-1	12.55	12.55
Fixation R	1	6	1772367332	1772486694	119362	675.26	777.89	25	59	-1	13.67	13.67
Saccade L	1	6	1772486694	1772506559	19865	661.52	803.04	656.50	828.50	0.34	26.26	1.00	17.36	214.16	-202.91	155.39
Saccade R	1	6	1772486694	1772506559	19865	661.52	803.04	656.50	828.50	0.34	26.26	1.00	17.36	214.16	-202.91	155.39
Fixation L	1	7	1772506559	1772725423	218864	632.81	840.45	47	46	-1	12.17	12.17
Fixation R	1	7	1772506559	1772725423	218864	632.81	840.45	47	46	-1	13.76	13.76
Saccade L	1	7	1772725423	1772745305	19882	616.87	867.31	620.49	876.46	0.25	18.74	1.00	12.74	-41.05	-219.63	124.44
Saccade R	1	7	1772725423	1772745305	19882	616.87	867.31	620.49	876.46	0.25	18.74	1.00	12.74	-41.05	-219.63	124.44
Fixation L	1	8	1772745305	1773043652	298347	628.90	873.94	14	28	-1	11.85	11.85
Fixation R	1	8	1772745305	1773043652	298347	628.90	873.94	14	28	-1	13.99	13.99
Saccade L	1	8	1773043652	1773063537	19885	626.14	853.38	526.01	875.50	0.68	103.73	1.00	34.14	2477.47	-2550.22	1796.24
Saccade R	1	8	1773043652	1773063537	19885	626.14	853.38	526.01	875.50	0.68	103.73	1.00	34.14	2477.47	-2550.22	1796.24
Fixation L	1	9	1773063537	1773222656	159119	531.80	880.52	42	43	-1	11.99	11.99
Fixation R	1	9	1773063537	1773222656	159119	531.80	880.52	42	43	-1	14.26	14.26
Saccade L	1	9	1773222656	1773262392	39736	568.24	857.30	945.32	862.57	3.73	205.73	0.50	93.77	4775.62	-4577.64	4167.70
Saccade R	1	9	1773222656	1773262392	39736	568.24	857.30	945.32	862.57	3.73	205.73	0.50	93.77	4775.62	-4577.64	4167.70
Fixation L	1	10	1773262392	1773501134	238742	923.85	850.66	50	21	-1	12.76	12.76
Fixation R	1	10	1773262392	1773501134	238742	923.85	850.66	50	21	-1	12.69	12.69
Saccade L	1	10	1773501134	1773521000	19866	895.06	846.86	781.72	826.89	0.94	116.41	1.00	47.26	2881.91	-2378.44	1960.84
Saccade R	1	10	1773501134	1773521000	19866	895.06	846.86	781.72	826.89	0.94	116.41	1.00	47.26	2881.91	-2378.44	1960.84
Fixation L	1	11	1773521000	1773680121	159121	768.40	782.28	27	67	-1	11.86	11.86
Fixation R	1	11	1773521000	1773680121	159121	768.40	782.28	27	67	-1	12.95	12.95
Saccade L	1	11	1773680121	1773739738	59617	767.61	788.46	790.36	374.50	4.81	198.31	0.67	80.64	4416.18	-4367.39	2867.12
Saccade R	1	11	1773680121	1773739738	59617	767.61	788.46	790.36	374.50	4.81	198.31	0.67	80.64	4416.18	-4367.39	2867.12
Fixation L	1	12	1773739738	1774256832	517094	792.83	386.46	35	36	-1	12.61	12.61
Fixation R	1	12	1773739738	1774256832	517094	792.83	386.46	35	36	-1	13.19	13.19
Saccade L	1	12	1774256832	1774276825	19993	777.85	388.63	738.45	328.56	0.67	72.67	1.00	33.50	1763.05	-1661.40	1308.23
Saccade R	1	12	1774256832	1774276825	19993	777.85	388.63	738.45	328.56	0.67	72.67	1.00	33.50	1763.05	-1661.40	1308.23
Fixation L	1	13	1774276825	1774555181	278356	716.15	306.95	30	35	-1	13.44	13.44
Fixation R	1	13	1774276825	1774555181	278356	716.15	306.95	30	35	-1	13.75	13.75
Saccade L	1	13	1774555181	1774654683	99502	718.86	318.88	715.50	834.80	9.06	294.17	0.20	91.09	7108.37	-4724.64	3188.63
Saccade R	1	13	1774555181	1774654683	99502	718.86	318.88	715.50	834.80	9.06	294.17	0.20	91.09	7108.37	-4724.64	3188.63
Fixation L	1	14	1774654683	1774992791	338108	712.85	857.35	38	40	-1	12.79	12.79
Fixation R	1	14	1774654683	1774992791	338108	712.85	857.35	38	40	-1	14.50	14.50
Saccade L	1	14	1774992791	1775132028	139237	721.59	851.79	650.47	846.19	3.71	49.40	0.43	26.62	622.21	-725.41	374.23
Saccade R	1	14	1774992791	1775132028	139237	721.59	851.79	650.47	846.19	3.71	49.40	0.43	26.62	622.21	-725.41	374.23
