[BeGaze]
Converted from:	C:\Documents and Settings\iViewX\Desktop\EXPERIMENTATIONS\Experiments\results\finaleart\S02123220-finaleart-1.idf
Date:	27.03.2019 15:33:39
Version:	BeGaze 2.5.77
Sample Rate:	50
Subject:	S02123220
Description:	David Xu

Table Header for Fixations:
Event Type	Trial	Number	Start	End	Duration	Location X	Location Y	Dispersion X	Dispersion Y	Plane	Avg. Pupil Size X	Avg. Pupil Size Y

Table Header for Saccades:
Event Type	Trial	Number	Start	End	Duration	Start Loc.X	Start Loc.Y	End Loc.X	End Loc.Y	Amplitude	Peak Speed	Peak Speed At	Average Speed	Peak Accel.	Peak Decel.	Average Accel.

Table Header for Blinks:
Event Type	Trial	Number	Start	End	Duration

Table Header for User Events:
Event Type	Trial	Number	Start	Description

UserEvent	1	1	1463576263	# Message: void.jpg
Saccade L	1	1	1463592159	1463671664	79505	1045.91	386.16	1062.51	617.98	3.37	124.76	1.00	42.38	2950.55	-2636.44	1848.38
Saccade R	1	1	1463592159	1463671664	79505	1045.91	386.16	1062.51	617.98	3.37	124.76	1.00	42.38	2950.55	-2636.44	1848.38
Fixation L	1	1	1463671664	1464308119	636455	1080.84	583.05	22	74	-1	15.41	15.41
Fixation R	1	1	1463671664	1464308119	636455	1080.84	583.05	22	74	-1	12.94	12.94
Saccade L	1	2	1464308119	1464367856	59737	1080.53	555.08	818.05	374.25	3.58	134.12	1.00	59.96	2378.21	-3069.60	2088.80
Saccade R	1	2	1464308119	1464367856	59737	1080.53	555.08	818.05	374.25	3.58	134.12	1.00	59.96	2378.21	-3069.60	2088.80
Fixation L	1	2	1464367856	1465083824	715968	818.23	391.35	37	58	-1	14.61	14.61
Fixation R	1	2	1464367856	1465083824	715968	818.23	391.35	37	58	-1	14.35	14.35
Saccade L	1	3	1465083824	1465163433	79609	825.12	426.03	933.75	458.73	3.76	121.66	0.75	47.22	2938.59	-2776.55	1639.13
Saccade R	1	3	1465083824	1465163433	79609	825.12	426.03	933.75	458.73	3.76	121.66	0.75	47.22	2938.59	-2776.55	1639.13
Fixation L	1	3	1465163433	1465262808	99375	930.05	477.31	6	52	-1	15.92	15.92
Fixation R	1	3	1465163433	1465262808	99375	930.05	477.31	6	52	-1	14.42	14.42
Saccade L	1	4	1465262808	1465382169	119361	928.92	475.24	1069.16	314.67	6.34	188.66	0.17	53.10	3868.02	-4283.53	2039.26
Saccade R	1	4	1465262808	1465382169	119361	928.92	475.24	1069.16	314.67	6.34	188.66	0.17	53.10	3868.02	-4283.53	2039.26
Fixation L	1	4	1465382169	1465481670	99501	1078.49	310.33	58	39	-1	15.88	15.88
Fixation R	1	4	1465382169	1465481670	99501	1078.49	310.33	58	39	-1	14.25	14.25
Saccade L	1	5	1465481670	1465581043	99373	1110.80	327.33	1108.30	403.18	2.33	61.45	1.00	23.43	103.60	-774.31	337.51
Saccade R	1	5	1465481670	1465581043	99373	1110.80	327.33	1108.30	403.18	2.33	61.45	1.00	23.43	103.60	-774.31	337.51
