[BeGaze]
Converted from:	C:\Documents and Settings\iViewX\Desktop\EXPERIMENTATIONS\Experiments\results\finaleart\S02123220-finaleart-1.idf
Date:	27.03.2019 15:33:37
Version:	BeGaze 2.5.77
Sample Rate:	50
Subject:	S02123220
Description:	David Xu

Table Header for Fixations:
Event Type	Trial	Number	Start	End	Duration	Location X	Location Y	Dispersion X	Dispersion Y	Plane	Avg. Pupil Size X	Avg. Pupil Size Y

Table Header for Saccades:
Event Type	Trial	Number	Start	End	Duration	Start Loc.X	Start Loc.Y	End Loc.X	End Loc.Y	Amplitude	Peak Speed	Peak Speed At	Average Speed	Peak Accel.	Peak Decel.	Average Accel.

Table Header for Blinks:
Event Type	Trial	Number	Start	End	Duration

Table Header for User Events:
Event Type	Trial	Number	Start	Description

UserEvent	1	1	1186529193	# Message: Paysage_a_La_Ciotat_(La_Pointe_du-Capucin)_friesz_1907.jpg
Fixation L	1	1	1186533707	1187030925	497218	1011.56	466.55	15	19	-1	15.81	15.81
Fixation R	1	1	1186533707	1187030925	497218	1011.56	466.55	15	19	-1	14.68	14.68
Saccade L	1	1	1187030925	1187050800	19875	1018.50	477.28	878.51	600.30	1.20	188.46	1.00	60.48	4597.39	-4633.27	3392.55
Saccade R	1	1	1187030925	1187050800	19875	1018.50	477.28	878.51	600.30	1.20	188.46	1.00	60.48	4597.39	-4633.27	3392.55
Fixation L	1	2	1187050800	1187209915	159115	843.14	616.85	47	31	-1	14.12	14.12
Fixation R	1	2	1187050800	1187209915	159115	843.14	616.85	47	31	-1	12.96	12.96
Saccade L	1	2	1187209915	1187249660	39745	842.72	609.87	673.48	678.78	2.04	120.63	1.00	51.24	2463.00	-2102.87	1694.11
Saccade R	1	2	1187209915	1187249660	39745	842.72	609.87	673.48	678.78	2.04	120.63	1.00	51.24	2463.00	-2102.87	1694.11
Fixation L	1	3	1187249660	1187388904	139244	665.22	681.19	12	45	-1	11.76	11.76
Fixation R	1	3	1187249660	1187388904	139244	665.22	681.19	12	45	-1	11.13	11.13
Saccade L	1	3	1187388904	1187448643	59739	661.30	689.55	1416.52	273.12	9.52	355.54	0.67	159.31	8731.59	-7277.00	6042.56
Saccade R	1	3	1187388904	1187448643	59739	661.30	689.55	1416.52	273.12	9.52	355.54	0.67	159.31	8731.59	-7277.00	6042.56
Fixation L	1	4	1187448643	1187707149	258506	1446.27	265.93	55	42	-1	11.02	11.02
Fixation R	1	4	1187448643	1187707149	258506	1446.27	265.93	55	42	-1	10.04	10.04
Saccade L	1	4	1187707149	1187846362	139213	1461.22	280.57	1131.68	415.63	8.24	224.62	1.00	59.21	5532.39	-5262.09	2758.52
Saccade R	1	4	1187707149	1187846362	139213	1461.22	280.57	1131.68	415.63	8.24	224.62	1.00	59.21	5532.39	-5262.09	2758.52
Fixation L	1	5	1187846362	1188264100	417738	1112.69	390.92	32	59	-1	11.29	11.29
Fixation R	1	5	1187846362	1188264100	417738	1112.69	390.92	32	59	-1	10.28	10.28
Saccade L	1	5	1188264100	1188283973	19873	1099.37	367.15	1038.93	325.74	0.56	74.11	1.00	28.39	1795.13	-1597.88	1197.36
Saccade R	1	5	1188264100	1188283973	19873	1099.37	367.15	1038.93	325.74	0.56	74.11	1.00	28.39	1795.13	-1597.88	1197.36
Fixation L	1	6	1188283973	1188502708	218735	1026.99	311.32	17	19	-1	11.52	11.52
Fixation R	1	6	1188283973	1188502708	218735	1026.99	311.32	17	19	-1	10.70	10.70
Saccade L	1	6	1188502708	1188522711	20003	1031.37	308.20	1038.86	242.19	0.50	67.20	1.00	24.99	1595.34	-1584.46	1195.82
Saccade R	1	6	1188502708	1188522711	20003	1031.37	308.20	1038.86	242.19	0.50	67.20	1.00	24.99	1595.34	-1584.46	1195.82
Fixation L	1	7	1188522711	1188960183	437472	1065.24	219.64	34	61	-1	11.91	11.91
Fixation R	1	7	1188522711	1188960183	437472	1065.24	219.64	34	61	-1	10.95	10.95
Saccade L	1	7	1188960183	1188980173	19990	1063.24	180.46	1052.11	165.48	0.35	33.48	0.00	17.26	204.74	-687.43	407.43
Saccade R	1	7	1188960183	1188980173	19990	1063.24	180.46	1052.11	165.48	0.35	33.48	0.00	17.26	204.74	-687.43	407.43
Fixation L	1	8	1188980173	1189139296	159123	1037.57	174.94	27	31	-1	12.42	12.42
Fixation R	1	8	1188980173	1189139296	159123	1037.57	174.94	27	31	-1	11.33	11.33
Saccade L	1	8	1189139296	1189198916	59620	1024.55	179.68	500.25	520.49	7.28	284.06	0.33	122.04	6858.07	-4671.65	4685.20
Saccade R	1	8	1189139296	1189198916	59620	1024.55	179.68	500.25	520.49	7.28	284.06	0.33	122.04	6858.07	-4671.65	4685.20
Fixation L	1	9	1189198916	1189437544	238628	510.73	571.19	20	72	-1	12.94	12.94
Fixation R	1	9	1189198916	1189437544	238628	510.73	571.19	20	72	-1	12.58	12.58
Saccade L	1	9	1189437544	1189457527	19983	513.40	592.71	521.75	600.40	0.36	31.90	1.00	18.26	426.80	-83.30	171.00
Saccade R	1	9	1189437544	1189457527	19983	513.40	592.71	521.75	600.40	0.36	31.90	1.00	18.26	426.80	-83.30	171.00
Fixation L	1	10	1189457527	1189636517	178990	508.86	567.33	32	60	-1	12.49	12.49
Fixation R	1	10	1189457527	1189636517	178990	508.86	567.33	32	60	-1	12.44	12.44
Saccade L	1	10	1189636517	1189755885	119368	489.22	583.80	446.98	577.67	9.08	178.70	0.83	76.08	2818.38	-4165.35	1970.74
Saccade R	1	10	1189636517	1189755885	119368	489.22	583.80	446.98	577.67	9.08	178.70	0.83	76.08	2818.38	-4165.35	1970.74
Fixation L	1	11	1189755885	1189895001	139116	443.48	613.60	13	55	-1	11.81	11.81
Fixation R	1	11	1189755885	1189895001	139116	443.48	613.60	13	55	-1	11.89	11.89
Saccade L	1	11	1189895001	1189915000	19999	439.78	626.07	422.97	463.62	1.00	165.17	1.00	50.13	3972.16	-3826.60	2808.59
Saccade R	1	11	1189895001	1189915000	19999	439.78	626.07	422.97	463.62	1.00	165.17	1.00	50.13	3972.16	-3826.60	2808.59
Fixation L	1	12	1189915000	1190173468	258468	413.29	446.76	16	37	-1	11.76	11.76
Fixation R	1	12	1189915000	1190173468	258468	413.29	446.76	16	37	-1	11.89	11.89
Saccade L	1	12	1190173468	1190213232	39764	416.89	460.17	894.43	484.93	4.34	247.91	0.50	109.21	5992.10	-5559.80	5572.64
Saccade R	1	12	1190173468	1190213232	39764	416.89	460.17	894.43	484.93	4.34	247.91	0.50	109.21	5992.10	-5559.80	5572.64
Fixation L	1	13	1190213232	1190312712	99480	931.36	515.90	48	50	-1	12.30	12.30
Fixation R	1	13	1190213232	1190312712	99480	931.36	515.90	48	50	-1	11.68	11.68
Saccade L	1	13	1190312712	1190372471	59759	942.64	535.34	1192.74	724.69	3.62	294.40	1.00	60.51	7200.41	-6698.25	3016.78
Saccade R	1	13	1190312712	1190372471	59759	942.64	535.34	1192.74	724.69	3.62	294.40	1.00	60.51	7200.41	-6698.25	3016.78
Fixation L	1	14	1190372471	1190511597	139126	1209.59	686.06	25	67	-1	13.04	13.04
Fixation R	1	14	1190372471	1190511597	139126	1209.59	686.06	25	67	-1	11.89	11.89
Saccade L	1	14	1190511597	1190531594	19997	1217.10	656.79	1217.32	646.71	0.17	12.14	1.00	8.68	0.00	-48.51	24.25
Saccade R	1	14	1190511597	1190531594	19997	1217.10	656.79	1217.32	646.71	0.17	12.14	1.00	8.68	0.00	-48.51	24.25
