[BeGaze]
Converted from:	C:\Documents and Settings\iViewX\Desktop\EXPERIMENTATIONS\Experiments\results\finaleart\S02123220-finaleart-1.idf
Date:	27.03.2019 15:33:31
Version:	BeGaze 2.5.77
Sample Rate:	50
Subject:	S02123220
Description:	David Xu

Table Header for Fixations:
Event Type	Trial	Number	Start	End	Duration	Location X	Location Y	Dispersion X	Dispersion Y	Plane	Avg. Pupil Size X	Avg. Pupil Size Y

Table Header for Saccades:
Event Type	Trial	Number	Start	End	Duration	Start Loc.X	Start Loc.Y	End Loc.X	End Loc.Y	Amplitude	Peak Speed	Peak Speed At	Average Speed	Peak Accel.	Peak Decel.	Average Accel.

Table Header for Blinks:
Event Type	Trial	Number	Start	End	Duration

Table Header for User Events:
Event Type	Trial	Number	Start	Description

UserEvent	1	1	728839234	# Message: void.jpg
Fixation L	1	1	728842553	728981883	139330	487.04	701.04	38	50	-1	12.76	12.76
Fixation R	1	1	728842553	728981883	139330	487.04	701.04	38	50	-1	14.20	14.20
Saccade L	1	1	728981883	729021634	39751	503.28	708.07	610.76	1017.39	3.03	228.91	0.50	76.25	4917.12	-5686.54	3836.72
Saccade R	1	1	728981883	729021634	39751	503.28	708.07	610.76	1017.39	3.03	228.91	0.50	76.25	4917.12	-5686.54	3836.72
Fixation L	1	2	729021634	729121005	99371	611.81	998.36	16	78	-1	12.78	12.78
Fixation R	1	2	729021634	729121005	99371	611.81	998.36	16	78	-1	14.31	14.31
Saccade L	1	2	729121005	729140878	19873	616.19	1003.79	622.05	985.99	0.47	61.09	1.00	23.65	22.35	-1053.32	452.82
Saccade R	1	2	729121005	729140878	19873	616.19	1003.79	622.05	985.99	0.47	61.09	1.00	23.65	22.35	-1053.32	452.82
Fixation L	1	3	729140878	729260241	119363	620.20	989.52	16	15	-1	12.52	12.52
Fixation R	1	3	729140878	729260241	119363	620.20	989.52	16	15	-1	14.62	14.62
Saccade L	1	3	729260241	729319861	59620	608.91	979.97	967.71	349.79	7.98	296.47	1.00	133.91	5771.22	-6310.95	4676.80
Saccade R	1	3	729260241	729319861	59620	608.91	979.97	967.71	349.79	7.98	296.47	1.00	133.91	5771.22	-6310.95	4676.80
Fixation L	1	4	729319861	729419357	99496	966.27	342.63	11	60	-1	12.70	12.70
Fixation R	1	4	729319861	729419357	99496	966.27	342.63	11	60	-1	13.37	13.37
Saccade L	1	4	729419357	729439228	19871	960.53	368.81	963.79	405.34	0.67	53.84	0.00	33.51	871.30	-342.84	513.30
Saccade R	1	4	729419357	729439228	19871	960.53	368.81	963.79	405.34	0.67	53.84	0.00	33.51	871.30	-342.84	513.30
Fixation L	1	5	729439228	729538728	99500	967.98	386.70	33	48	-1	12.50	12.50
Fixation R	1	5	729439228	729538728	99500	967.98	386.70	33	48	-1	13.22	13.22
Saccade L	1	5	729538728	729638232	99504	993.75	412.47	1020.88	398.57	3.98	59.94	0.60	39.96	1230.55	-1351.85	649.37
Saccade R	1	5	729538728	729638232	99504	993.75	412.47	1020.88	398.57	3.98	59.94	0.60	39.96	1230.55	-1351.85	649.37
Fixation L	1	6	729638232	729856957	218725	1028.24	396.83	13	76	-1	13.24	13.24
Fixation R	1	6	729638232	729856957	218725	1028.24	396.83	13	76	-1	14.00	14.00
Saccade L	1	6	729856957	730016076	159119	1031.79	391.54	1011.66	414.28	12.50	152.49	0.12	78.53	3731.26	-2582.80	1673.52
Saccade R	1	6	729856957	730016076	159119	1031.79	391.54	1011.66	414.28	12.50	152.49	0.12	78.53	3731.26	-2582.80	1673.52
Fixation L	1	7	730016076	730155319	139243	1009.16	380.90	4	74	-1	14.60	14.60
Fixation R	1	7	730016076	730155319	139243	1009.16	380.90	4	74	-1	15.14	15.14
Saccade L	1	7	730155319	730274686	119367	1008.74	356.80	964.10	233.13	6.87	133.39	0.17	57.54	2362.90	-3173.46	2009.06
Saccade R	1	7	730155319	730274686	119367	1008.74	356.80	964.10	233.13	6.87	133.39	0.17	57.54	2362.90	-3173.46	2009.06
Fixation L	1	8	730274686	730393925	119239	961.11	220.96	7	35	-1	15.41	15.41
Fixation R	1	8	730274686	730393925	119239	961.11	220.96	7	35	-1	16.07	16.07
Saccade L	1	8	730393925	730433803	39878	958.39	199.29	959.60	236.42	4.21	261.96	0.50	105.53	6261.35	-6193.56	5675.92
Saccade R	1	8	730393925	730433803	39878	958.39	199.29	959.60	236.42	4.21	261.96	0.50	105.53	6261.35	-6193.56	5675.92
Fixation L	1	9	730433803	730553039	119236	962.08	232.62	4	45	-1	15.69	15.69
Fixation R	1	9	730433803	730553039	119236	962.08	232.62	4	45	-1	16.27	16.27
Saccade L	1	9	730553039	730592925	39886	963.35	214.99	968.90	224.28	3.99	230.90	0.50	100.07	5640.21	-5670.16	5108.59
Saccade R	1	9	730553039	730592925	39886	963.35	214.99	968.90	224.28	3.99	230.90	0.50	100.07	5640.21	-5670.16	5108.59
Fixation L	1	10	730592925	730732155	139230	969.02	224.70	6	54	-1	15.95	15.95
Fixation R	1	10	730592925	730732155	139230	969.02	224.70	6	54	-1	16.33	16.33
Saccade L	1	10	730732155	730831537	99382	972.64	219.63	776.30	249.29	36.06	1190.45	0.60	362.82	28493.94	-11817.17	10418.17
Saccade R	1	10	730732155	730831537	99382	972.64	219.63	776.30	249.29	36.06	1190.45	0.60	362.82	28493.94	-11817.17	10418.17
