[BeGaze]
Converted from:	C:\Documents and Settings\iViewX\Desktop\EXPERIMENTATIONS\Experiments\results\finaleart\S02123220-finaleart-1.idf
Date:	27.03.2019 15:33:41
Version:	BeGaze 2.5.77
Sample Rate:	50
Subject:	S02123220
Description:	David Xu

Table Header for Fixations:
Event Type	Trial	Number	Start	End	Duration	Location X	Location Y	Dispersion X	Dispersion Y	Plane	Avg. Pupil Size X	Avg. Pupil Size Y

Table Header for Saccades:
Event Type	Trial	Number	Start	End	Duration	Start Loc.X	Start Loc.Y	End Loc.X	End Loc.Y	Amplitude	Peak Speed	Peak Speed At	Average Speed	Peak Accel.	Peak Decel.	Average Accel.

Table Header for Blinks:
Event Type	Trial	Number	Start	End	Duration

Table Header for User Events:
Event Type	Trial	Number	Start	Description

UserEvent	1	1	1716168240	# Message: Nature_Morte_Aux_Raisins_Sur_Un_Plat_Derain_1944.jpg
Fixation L	1	1	1716178736	1716477089	298353	1069.54	517.53	81	15	-1	15.01	15.01
Fixation R	1	1	1716178736	1716477089	298353	1069.54	517.53	81	15	-1	13.27	13.27
Saccade L	1	1	1716477089	1716496960	19871	1003.63	507.55	1019.57	500.03	0.39	25.35	0.00	19.41	-27.29	-328.34	200.33
Saccade R	1	1	1716477089	1716496960	19871	1003.63	507.55	1019.57	500.03	0.39	25.35	0.00	19.41	-27.29	-328.34	200.33
Fixation L	1	2	1716496960	1716695836	198876	1002.86	487.78	24	25	-1	15.02	15.02
Fixation R	1	2	1716496960	1716695836	198876	1002.86	487.78	24	25	-1	13.74	13.74
Saccade L	1	2	1716695836	1716735688	39852	1007.31	474.13	909.49	594.31	1.63	100.06	0.50	41.01	2469.31	-1839.03	1851.51
Saccade R	1	2	1716695836	1716735688	39852	1007.31	474.13	909.49	594.31	1.63	100.06	0.50	41.01	2469.31	-1839.03	1851.51
Fixation L	1	3	1716735688	1716854941	119253	894.41	604.44	29	19	-1	14.12	14.12
Fixation R	1	3	1716735688	1716854941	119253	894.41	604.44	29	19	-1	13.33	13.33
Saccade L	1	3	1716854941	1716894821	39880	879.65	597.13	684.27	386.44	2.63	202.15	0.50	65.94	4896.39	-4545.87	3313.34
Saccade R	1	3	1716854941	1716894821	39880	879.65	597.13	684.27	386.44	2.63	202.15	0.50	65.94	4896.39	-4545.87	3313.34
Fixation L	1	4	1716894821	1717153297	258476	676.29	354.27	32	64	-1	12.76	12.76
Fixation R	1	4	1716894821	1717153297	258476	676.29	354.27	32	64	-1	13.01	13.01
Saccade L	1	4	1717153297	1717272665	119368	691.69	322.01	783.27	364.70	2.22	88.33	1.00	18.58	1902.89	-2173.19	617.49
Saccade R	1	4	1717153297	1717272665	119368	691.69	322.01	783.27	364.70	2.22	88.33	1.00	18.58	1902.89	-2173.19	617.49
Fixation L	1	5	1717272665	1717471529	198864	780.36	372.14	30	23	-1	12.81	12.81
Fixation R	1	5	1717272665	1717471529	198864	780.36	372.14	30	23	-1	13.15	13.15
Saccade L	1	5	1717471529	1717511409	39880	761.47	383.39	638.69	395.93	1.36	65.12	1.00	34.11	1490.58	-1597.47	1293.50
Saccade R	1	5	1717471529	1717511409	39880	761.47	383.39	638.69	395.93	1.36	65.12	1.00	34.11	1490.58	-1597.47	1293.50
Fixation L	1	6	1717511409	1717889253	377844	629.17	428.00	18	45	-1	13.98	13.98
Fixation R	1	6	1717511409	1717889253	377844	629.17	428.00	18	45	-1	14.63	14.63
Saccade L	1	6	1717889253	1717928997	39744	635.99	429.24	843.21	538.20	2.31	130.75	0.50	58.10	3195.88	-3101.33	3034.69
Saccade R	1	6	1717889253	1717928997	39744	635.99	429.24	843.21	538.20	2.31	130.75	0.50	58.10	3195.88	-3101.33	3034.69
Fixation L	1	7	1717928997	1718108008	179011	865.51	529.07	30	17	-1	14.92	14.92
Fixation R	1	7	1717928997	1718108008	179011	865.51	529.07	30	17	-1	14.46	14.46
Saccade L	1	7	1718108008	1718147857	39849	868.16	529.38	1100.84	648.17	2.70	154.64	0.50	67.67	3662.55	-3270.45	3329.06
Saccade R	1	7	1718108008	1718147857	39849	868.16	529.38	1100.84	648.17	2.70	154.64	0.50	67.67	3662.55	-3270.45	3329.06
Fixation L	1	8	1718147857	1718326853	178996	1125.31	642.77	59	20	-1	15.06	15.06
Fixation R	1	8	1718147857	1718326853	178996	1125.31	642.77	59	20	-1	13.34	13.34
Saccade L	1	8	1718326853	1718346723	19870	1091.26	644.59	917.89	680.10	1.33	178.97	1.00	66.97	4223.32	-4204.56	2848.88
Saccade R	1	8	1718326853	1718346723	19870	1091.26	644.59	917.89	680.10	1.33	178.97	1.00	66.97	4223.32	-4204.56	2848.88
Fixation L	1	9	1718346723	1718525708	178985	882.99	694.47	47	29	-1	14.83	14.83
Fixation R	1	9	1718346723	1718525708	178985	882.99	694.47	47	29	-1	14.43	14.43
Saccade L	1	9	1718525708	1718565464	39756	880.33	702.47	872.51	473.91	2.08	123.93	0.50	52.36	2804.36	-2772.60	2668.42
Saccade R	1	9	1718525708	1718565464	39756	880.33	702.47	872.51	473.91	2.08	123.93	0.50	52.36	2804.36	-2772.60	2668.42
Fixation L	1	10	1718565464	1718963315	397851	855.25	472.44	26	16	-1	14.11	14.11
Fixation R	1	10	1718565464	1718963315	397851	855.25	472.44	26	16	-1	13.93	13.93
Saccade L	1	10	1718963315	1718983187	19872	855.19	480.37	858.48	572.41	0.57	93.16	1.00	28.64	2315.60	-1941.14	1553.28
Saccade R	1	10	1718963315	1718983187	19872	855.19	480.37	858.48	572.41	0.57	93.16	1.00	28.64	2315.60	-1941.14	1553.28
Fixation L	1	11	1718983187	1719201926	218739	873.46	601.54	34	38	-1	14.53	14.53
Fixation R	1	11	1718983187	1719201926	218739	873.46	601.54	34	38	-1	14.10	14.10
Saccade L	1	11	1719201926	1719241801	39875	892.68	607.42	727.01	426.99	2.38	149.05	1.00	59.65	3456.56	-3484.18	3210.51
Saccade R	1	11	1719201926	1719241801	39875	892.68	607.42	727.01	426.99	2.38	149.05	1.00	59.65	3456.56	-3484.18	3210.51
Fixation L	1	12	1719241801	1719500268	258467	727.99	433.60	32	10	-1	14.55	14.55
Fixation R	1	12	1719241801	1719500268	258467	727.99	433.60	32	10	-1	14.68	14.68
Saccade L	1	12	1719500268	1719540152	39884	727.34	428.91	846.29	605.98	2.13	140.86	1.00	53.40	3430.22	-3173.21	2486.57
Saccade R	1	12	1719500268	1719540152	39884	727.34	428.91	846.29	605.98	2.13	140.86	1.00	53.40	3430.22	-3173.21	2486.57
Fixation L	1	13	1719540152	1719719146	178994	859.70	595.52	30	24	-1	14.80	14.80
Fixation R	1	13	1719540152	1719719146	178994	859.70	595.52	30	24	-1	14.33	14.33
Saccade L	1	13	1719719146	1719758880	39734	856.12	595.31	771.74	450.41	1.79	129.98	1.00	45.15	3238.44	-2845.40	2425.47
Saccade R	1	13	1719719146	1719758880	39734	856.12	595.31	771.74	450.41	1.79	129.98	1.00	45.15	3238.44	-2845.40	2425.47
Fixation L	1	14	1719758880	1720017490	258610	768.85	457.63	22	28	-1	14.51	14.51
Fixation R	1	14	1719758880	1720017490	258610	768.85	457.63	22	28	-1	14.77	14.77
Saccade L	1	14	1720017490	1720057245	39755	762.02	449.86	1075.69	524.03	3.02	201.03	1.00	75.94	4811.67	-4643.44	3643.58
Saccade R	1	14	1720017490	1720057245	39755	762.02	449.86	1075.69	524.03	3.02	201.03	1.00	75.94	4811.67	-4643.44	3643.58
Fixation L	1	15	1720057245	1720156741	99496	1081.16	559.47	15	57	-1	14.55	14.55
Fixation R	1	15	1720057245	1720156741	99496	1081.16	559.47	15	57	-1	13.60	13.60
