[BeGaze]
Converted from:	C:\Documents and Settings\iViewX\Desktop\EXPERIMENTATIONS\Experiments\results\finaleart\S02123220-finaleart-1.idf
Date:	27.03.2019 15:33:36
Version:	BeGaze 2.5.77
Sample Rate:	50
Subject:	S02123220
Description:	David Xu

Table Header for Fixations:
Event Type	Trial	Number	Start	End	Duration	Location X	Location Y	Dispersion X	Dispersion Y	Plane	Avg. Pupil Size X	Avg. Pupil Size Y

Table Header for Saccades:
Event Type	Trial	Number	Start	End	Duration	Start Loc.X	Start Loc.Y	End Loc.X	End Loc.Y	Amplitude	Peak Speed	Peak Speed At	Average Speed	Peak Accel.	Peak Decel.	Average Accel.

Table Header for Blinks:
Event Type	Trial	Number	Start	End	Duration

Table Header for User Events:
Event Type	Trial	Number	Start	Description

UserEvent	1	1	1162139412	# Message: reclining-nude_bazille_1860.jpg
Fixation L	1	1	1162148809	1162566543	417734	910.69	456.10	4	16	-1	15.77	15.77
Fixation R	1	1	1162148809	1162566543	417734	910.69	456.10	4	16	-1	15.05	15.05
Saccade L	1	1	1162566543	1162606280	39737	913.07	468.14	739.33	655.90	2.26	131.04	0.50	56.78	3159.73	-2875.57	2791.22
Saccade R	1	1	1162566543	1162606280	39737	913.07	468.14	739.33	655.90	2.26	131.04	0.50	56.78	3159.73	-2875.57	2791.22
Fixation L	1	2	1162606280	1162765396	159116	732.29	620.19	26	60	-1	15.19	15.19
Fixation R	1	2	1162606280	1162765396	159116	732.29	620.19	26	60	-1	14.49	14.49
Saccade L	1	2	1162765396	1162805144	39748	712.34	620.55	448.66	609.61	2.70	182.52	0.50	67.88	3706.27	-4445.24	2935.05
Saccade R	1	2	1162765396	1162805144	39748	712.34	620.55	448.66	609.61	2.70	182.52	0.50	67.88	3706.27	-4445.24	2935.05
Fixation L	1	3	1162805144	1163262615	457471	441.51	590.38	36	62	-1	13.73	13.73
Fixation R	1	3	1162805144	1163262615	457471	441.51	590.38	36	62	-1	14.07	14.07
Saccade L	1	3	1163262615	1163282494	19879	470.19	568.99	465.26	556.78	0.34	21.82	0.00	16.91	-83.44	-206.27	146.52
Saccade R	1	3	1163262615	1163282494	19879	470.19	568.99	465.26	556.78	0.34	21.82	0.00	16.91	-83.44	-206.27	146.52
Fixation L	1	4	1163282494	1163779834	497340	484.00	561.34	45	47	-1	13.27	13.27
Fixation R	1	4	1163282494	1163779834	497340	484.00	561.34	45	47	-1	13.88	13.88
Saccade L	1	4	1163779834	1163998573	218739	470.78	557.71	954.93	528.12	10.90	187.97	1.00	49.84	3845.16	-4471.68	1623.61
Saccade R	1	4	1163779834	1163998573	218739	470.78	557.71	954.93	528.12	10.90	187.97	1.00	49.84	3845.16	-4471.68	1623.61
Fixation L	1	5	1163998573	1164277041	278468	971.45	570.81	22	74	-1	15.12	15.12
Fixation R	1	5	1163998573	1164277041	278468	971.45	570.81	22	74	-1	14.23	14.23
Saccade L	1	5	1164277041	1164296938	19897	975.71	602.63	974.45	690.13	0.59	88.51	1.00	29.54	1995.06	-1910.01	1419.00
Saccade R	1	5	1164277041	1164296938	19897	975.71	602.63	974.45	690.13	0.59	88.51	1.00	29.54	1995.06	-1910.01	1419.00
Fixation L	1	6	1164296938	1164515666	218728	966.44	712.49	11	30	-1	15.52	15.52
Fixation R	1	6	1164296938	1164515666	218728	966.44	712.49	11	30	-1	14.16	14.16
Saccade L	1	6	1164515666	1164555536	39870	963.24	713.27	1346.93	718.99	3.69	217.38	1.00	92.52	5402.89	-5186.17	4322.54
Saccade R	1	6	1164515666	1164555536	39870	963.24	713.27	1346.93	718.99	3.69	217.38	1.00	92.52	5402.89	-5186.17	4322.54
Fixation L	1	7	1164555536	1164674782	119246	1397.97	731.73	68	26	-1	15.91	15.91
Fixation R	1	7	1164555536	1164674782	119246	1397.97	731.73	68	26	-1	13.73	13.73
Saccade L	1	7	1164674782	1164794148	119366	1402.00	745.54	1620.33	778.98	4.55	222.93	1.00	38.11	5222.84	-4824.70	1505.30
Saccade R	1	7	1164674782	1164794148	119366	1402.00	745.54	1620.33	778.98	4.55	222.93	1.00	38.11	5222.84	-4824.70	1505.30
Fixation L	1	8	1164794148	1164933390	139242	1629.13	800.88	13	61	-1	15.75	15.75
Fixation R	1	8	1164794148	1164933390	139242	1629.13	800.88	13	61	-1	12.81	12.81
Saccade L	1	8	1164933390	1164953278	19888	1625.58	823.38	1627.44	853.84	0.35	30.87	1.00	17.64	273.71	-142.29	197.24
Saccade R	1	8	1164933390	1164953278	19888	1625.58	823.38	1627.44	853.84	0.35	30.87	1.00	17.64	273.71	-142.29	197.24
Fixation L	1	9	1164953278	1165112383	159105	1629.24	858.72	40	32	-1	15.39	15.39
Fixation R	1	9	1164953278	1165112383	159105	1629.24	858.72	40	32	-1	12.34	12.34
Saccade L	1	9	1165112383	1165132254	19871	1663.47	874.83	1689.26	884.38	0.42	43.40	0.00	21.06	505.18	-950.21	487.56
Saccade R	1	9	1165112383	1165132254	19871	1663.47	874.83	1689.26	884.38	0.42	43.40	0.00	21.06	505.18	-950.21	487.56
Fixation L	1	10	1165132254	1165569850	437596	1698.54	896.78	37	35	-1	15.72	15.72
Fixation R	1	10	1165132254	1165569850	437596	1698.54	896.78	37	35	-1	11.87	11.87
Saccade L	1	10	1165569850	1165609599	39749	1689.98	904.01	1683.68	793.47	1.57	142.56	0.50	39.53	3441.03	-3333.54	1884.54
Saccade R	1	10	1165569850	1165609599	39749	1689.98	904.01	1683.68	793.47	1.57	142.56	0.50	39.53	3441.03	-3333.54	1884.54
Fixation L	1	11	1165609599	1165768719	159120	1659.54	823.97	36	58	-1	16.04	16.04
Fixation R	1	11	1165609599	1165768719	159120	1659.54	823.97	36	58	-1	12.23	12.23
Saccade L	1	11	1165768719	1165788584	19865	1666.14	851.72	1782.06	838.72	0.90	117.99	1.00	45.10	2613.89	-2526.83	1897.07
Saccade R	1	11	1165768719	1165788584	19865	1666.14	851.72	1782.06	838.72	0.90	117.99	1.00	45.10	2613.89	-2526.83	1897.07
Fixation L	1	12	1165788584	1166007446	218862	1775.93	875.33	30	68	-1	15.97	15.97
Fixation R	1	12	1165788584	1166007446	218862	1775.93	875.33	30	68	-1	11.77	11.77
Saccade L	1	12	1166007446	1166027326	19880	1760.06	907.34	1756.99	887.95	0.30	19.86	1.00	15.33	214.19	82.63	131.99
Saccade R	1	12	1166007446	1166027326	19880	1760.06	907.34	1756.99	887.95	0.30	19.86	1.00	15.33	214.19	82.63	131.99
Fixation L	1	13	1166027326	1166126816	99490	1737.71	902.21	38	23	-1	16.18	16.18
Fixation R	1	13	1166027326	1166126816	99490	1737.71	902.21	38	23	-1	12.09	12.09
