[BeGaze]
Converted from:	C:\Documents and Settings\iViewX\Desktop\EXPERIMENTATIONS\Experiments\results\finaleart\S02123220-finaleart-1.idf
Date:	27.03.2019 15:33:29
Version:	BeGaze 2.5.77
Sample Rate:	50
Subject:	S02123220
Description:	David Xu

Table Header for Fixations:
Event Type	Trial	Number	Start	End	Duration	Location X	Location Y	Dispersion X	Dispersion Y	Plane	Avg. Pupil Size X	Avg. Pupil Size Y

Table Header for Saccades:
Event Type	Trial	Number	Start	End	Duration	Start Loc.X	Start Loc.Y	End Loc.X	End Loc.Y	Amplitude	Peak Speed	Peak Speed At	Average Speed	Peak Accel.	Peak Decel.	Average Accel.

Table Header for Blinks:
Event Type	Trial	Number	Start	End	Duration

Table Header for User Events:
Event Type	Trial	Number	Start	Description

UserEvent	1	1	456506242	# Message: void.jpg
Fixation L	1	1	456516900	456755513	238613	1260.73	359.13	5	4	-1	13.09	13.09
Fixation R	1	1	456516900	456755513	238613	1260.73	359.13	5	4	-1	11.84	11.84
Saccade L	1	1	456755513	456795387	39874	1260.46	357.08	1403.07	542.95	2.20	121.36	1.00	55.15	2952.39	-2721.39	2641.82
Saccade R	1	1	456755513	456795387	39874	1260.46	357.08	1403.07	542.95	2.20	121.36	1.00	55.15	2952.39	-2721.39	2641.82
Fixation L	1	2	456795387	457014123	218736	1422.14	515.48	24	37	-1	13.46	13.46
Fixation R	1	2	456795387	457014123	218736	1422.14	515.48	24	37	-1	11.74	11.74
Saccade L	1	2	457014123	457053872	39749	1413.93	508.04	1245.48	378.71	2.20	132.99	0.50	55.32	3257.67	-2424.51	2437.19
Saccade R	1	2	457014123	457053872	39749	1413.93	508.04	1245.48	378.71	2.20	132.99	0.50	55.32	3257.67	-2424.51	2437.19
Fixation L	1	3	457053872	457173232	119360	1199.99	368.32	67	15	-1	13.54	13.54
Fixation R	1	3	457053872	457173232	119360	1199.99	368.32	67	15	-1	12.25	12.25
Blink L	1	1	457173232	457471596	298364
Blink R	1	1	457173232	457471596	298364
Fixation L	1	4	457471596	458167678	696082	973.60	467.73	15	35	-1	15.57	15.57
Fixation R	1	4	457471596	458167678	696082	973.60	467.73	15	35	-1	13.77	13.77
Saccade L	1	3	458167678	458187679	20001	978.60	479.79	904.91	471.38	0.45	75.02	1.00	22.54	1681.73	-1624.26	1116.88
Saccade R	1	3	458167678	458187679	20001	978.60	479.79	904.91	471.38	0.45	75.02	1.00	22.54	1681.73	-1624.26	1116.88
Fixation L	1	5	458187679	458505912	318233	898.45	466.99	13	23	-1	15.79	15.79
Fixation R	1	5	458187679	458505912	318233	898.45	466.99	13	23	-1	14.25	14.25
