[BeGaze]
Converted from:	C:\Documents and Settings\iViewX\Desktop\EXPERIMENTATIONS\Experiments\results\finaleart\S02123220-finaleart-1.idf
Date:	27.03.2019 15:33:31
Version:	BeGaze 2.5.77
Sample Rate:	50
Subject:	S02123220
Description:	David Xu

Table Header for Fixations:
Event Type	Trial	Number	Start	End	Duration	Location X	Location Y	Dispersion X	Dispersion Y	Plane	Avg. Pupil Size X	Avg. Pupil Size Y

Table Header for Saccades:
Event Type	Trial	Number	Start	End	Duration	Start Loc.X	Start Loc.Y	End Loc.X	End Loc.Y	Amplitude	Peak Speed	Peak Speed At	Average Speed	Peak Accel.	Peak Decel.	Average Accel.

Table Header for Blinks:
Event Type	Trial	Number	Start	End	Duration

Table Header for User Events:
Event Type	Trial	Number	Start	Description

UserEvent	1	1	694164935	# Message: parrot-tulips-(II)_matisse_1905.jpg
Saccade L	1	1	694174633	694353742	179109	966.47	498.29	976.14	504.10	26.87	291.21	0.89	150.01	7135.25	-7119.79	3787.14
Saccade R	1	1	694174633	694353742	179109	966.47	498.29	976.14	504.10	26.87	291.21	0.89	150.01	7135.25	-7119.79	3787.14
Fixation L	1	1	694353742	694612231	258489	978.38	491.06	8	19	-1	18.12	18.12
Fixation R	1	1	694353742	694612231	258489	978.38	491.06	8	19	-1	18.39	18.39
Saccade L	1	2	694612231	694751470	139239	984.09	485.90	816.41	462.34	10.37	266.28	0.29	74.49	6494.58	-6383.92	3602.36
Saccade R	1	2	694612231	694751470	139239	984.09	485.90	816.41	462.34	10.37	266.28	0.29	74.49	6494.58	-6383.92	3602.36
Fixation L	1	2	694751470	694910581	159111	821.97	439.97	16	48	-1	14.81	14.81
Fixation R	1	2	694751470	694910581	159111	821.97	439.97	16	48	-1	15.71	15.71
Saccade L	1	3	694910581	695149311	238730	832.57	415.53	1007.84	627.67	18.31	182.44	1.00	76.69	4067.83	-3940.41	2534.25
Saccade R	1	3	694910581	695149311	238730	832.57	415.53	1007.84	627.67	18.31	182.44	1.00	76.69	4067.83	-3940.41	2534.25
Fixation L	1	3	695149311	695268691	119380	1016.36	595.80	34	45	-1	12.70	12.70
Fixation R	1	3	695149311	695268691	119380	1016.36	595.80	34	45	-1	12.85	12.85
Saccade L	1	4	695268691	695308436	39745	1029.54	582.60	1032.18	465.06	1.18	80.27	0.50	29.63	1973.82	-1482.59	1318.75
Saccade R	1	4	695268691	695308436	39745	1029.54	582.60	1032.18	465.06	1.18	80.27	0.50	29.63	1973.82	-1482.59	1318.75
Fixation L	1	4	695308436	695427801	119365	1032.56	442.60	6	78	-1	12.31	12.31
Fixation R	1	4	695308436	695427801	119365	1032.56	442.60	6	78	-1	12.79	12.79
Saccade L	1	5	695427801	695586927	159126	1034.17	422.71	775.86	382.30	18.01	303.53	0.37	113.20	5924.32	-6689.29	4379.65
Saccade R	1	5	695427801	695586927	159126	1034.17	422.71	775.86	382.30	18.01	303.53	0.37	113.20	5924.32	-6689.29	4379.65
Fixation L	1	5	695586927	695726042	139115	776.38	371.37	6	19	-1	12.18	12.18
Fixation R	1	5	695586927	695726042	139115	776.38	371.37	6	19	-1	12.98	12.98
Saccade L	1	6	695726042	696163628	437586	774.63	363.25	995.71	692.11	51.50	373.45	0.73	117.69	7529.73	-5470.42	3578.62
Saccade R	1	6	695726042	696163628	437586	774.63	363.25	995.71	692.11	51.50	373.45	0.73	117.69	7529.73	-5470.42	3578.62
Fixation L	1	6	696163628	696322749	159121	982.00	715.59	23	43	-1	13.98	13.98
Fixation R	1	6	696163628	696322749	159121	982.00	715.59	23	43	-1	14.39	14.39
Saccade L	1	7	696322749	696362661	39912	982.09	723.02	1229.84	595.24	2.82	175.86	1.00	70.77	4097.26	-3785.40	3141.40
Saccade R	1	7	696322749	696362661	39912	982.09	723.02	1229.84	595.24	2.82	175.86	1.00	70.77	4097.26	-3785.40	3141.40
Fixation L	1	7	696362661	696601234	238573	1248.92	546.03	31	59	-1	14.25	14.25
Fixation R	1	7	696362661	696601234	238573	1248.92	546.03	31	59	-1	13.10	13.10
Saccade L	1	8	696601234	696621112	19878	1261.02	540.70	1313.40	540.39	0.48	52.99	1.00	24.09	1251.19	-488.16	691.19
Saccade R	1	8	696601234	696621112	19878	1261.02	540.70	1313.40	540.39	0.48	52.99	1.00	24.09	1251.19	-488.16	691.19
Fixation L	1	8	696621112	697058706	437594	1336.59	534.49	29	64	-1	14.12	14.12
Fixation R	1	8	696621112	697058706	437594	1336.59	534.49	29	64	-1	12.11	12.11
Saccade L	1	9	697058706	697197946	139240	1337.28	504.26	1198.14	270.61	12.10	352.99	0.86	86.90	8577.10	-8100.36	3056.27
Saccade R	1	9	697058706	697197946	139240	1337.28	504.26	1198.14	270.61	12.10	352.99	0.86	86.90	8577.10	-8100.36	3056.27
Fixation L	1	9	697197946	697516179	318233	1189.02	285.66	15	34	-1	14.08	14.08
Fixation R	1	9	697197946	697516179	318233	1189.02	285.66	15	34	-1	13.03	13.03
Saccade L	1	10	697516179	697794662	278483	1186.05	290.04	674.53	604.15	35.98	369.63	0.57	129.21	6979.97	-8655.69	3951.83
Saccade R	1	10	697516179	697794662	278483	1186.05	290.04	674.53	604.15	35.98	369.63	0.57	129.21	6979.97	-8655.69	3951.83
Fixation L	1	10	697794662	698132775	338113	666.75	594.12	10	29	-1	13.88	13.88
Fixation R	1	10	697794662	698132775	338113	666.75	594.12	10	29	-1	14.67	14.67
Saccade L	1	11	698132775	698192392	59617	665.85	601.83	561.79	549.97	2.68	135.90	0.33	45.01	3263.57	-2795.12	1805.35
Saccade R	1	11	698132775	698192392	59617	665.85	601.83	561.79	549.97	2.68	135.90	0.33	45.01	3263.57	-2795.12	1805.35
