[BeGaze]
Converted from:	C:\Documents and Settings\iViewX\Desktop\EXPERIMENTATIONS\Experiments\results\finaleart\S02123220-finaleart-1.idf
Date:	27.03.2019 15:33:32
Version:	BeGaze 2.5.77
Sample Rate:	50
Subject:	S02123220
Description:	David Xu

Table Header for Fixations:
Event Type	Trial	Number	Start	End	Duration	Location X	Location Y	Dispersion X	Dispersion Y	Plane	Avg. Pupil Size X	Avg. Pupil Size Y

Table Header for Saccades:
Event Type	Trial	Number	Start	End	Duration	Start Loc.X	Start Loc.Y	End Loc.X	End Loc.Y	Amplitude	Peak Speed	Peak Speed At	Average Speed	Peak Accel.	Peak Decel.	Average Accel.

Table Header for Blinks:
Event Type	Trial	Number	Start	End	Duration

Table Header for User Events:
Event Type	Trial	Number	Start	Description

UserEvent	1	1	730926858	# Message: woman-at-her-toilette_degas_1877.jpg
Fixation L	1	1	730931024	731368624	437600	1015.39	387.11	22	57	-1	15.93	15.93
Fixation R	1	1	730931024	731368624	437600	1015.39	387.11	22	57	-1	14.40	14.40
Saccade L	1	1	731368624	731627097	258473	1021.63	389.61	1065.18	715.84	35.71	452.71	0.38	138.15	10313.86	-9940.73	4679.02
Saccade R	1	1	731368624	731627097	258473	1021.63	389.61	1065.18	715.84	35.71	452.71	0.38	138.15	10313.86	-9940.73	4679.02
Fixation L	1	2	731627097	731726607	99510	1065.99	702.76	4	89	-1	13.37	13.37
Fixation R	1	2	731627097	731726607	99510	1065.99	702.76	4	89	-1	11.72	11.72
Saccade L	1	2	731726607	732900010	1173403	1065.70	759.28	1113.79	347.96	104.83	454.85	0.86	89.34	10183.35	-9064.74	2334.97
Saccade R	1	2	731726607	732900010	1173403	1065.70	759.28	1113.79	347.96	104.83	454.85	0.86	89.34	10183.35	-9064.74	2334.97
Fixation L	1	3	732900010	733059262	159252	1114.69	358.68	11	20	-1	15.19	15.19
Fixation R	1	3	732900010	733059262	159252	1114.69	358.68	11	20	-1	12.90	12.90
Saccade L	1	3	733059262	733277999	218737	1113.91	355.42	1392.09	691.96	20.70	424.04	0.09	94.62	10534.14	-3431.00	2389.64
Saccade R	1	3	733059262	733277999	218737	1113.91	355.42	1392.09	691.96	20.70	424.04	0.09	94.62	10534.14	-3431.00	2389.64
Fixation L	1	4	733277999	733397381	119382	1411.36	653.29	44	54	-1	15.19	15.19
Fixation R	1	4	733277999	733397381	119382	1411.36	653.29	44	54	-1	9.00	9.00
Saccade L	1	4	733397381	733516608	119227	1426.22	642.02	1201.94	799.49	14.80	328.30	0.33	124.13	7712.38	-5674.96	3298.03
Saccade R	1	4	733397381	733516608	119227	1426.22	642.02	1201.94	799.49	14.80	328.30	0.33	124.13	7712.38	-5674.96	3298.03
Fixation L	1	5	733516608	733775223	258615	1207.68	773.91	11	46	-1	14.50	14.50
Fixation R	1	5	733516608	733775223	258615	1207.68	773.91	11	46	-1	13.08	13.08
Saccade L	1	5	733775223	733814965	39742	1208.72	762.45	1148.94	922.21	7.24	490.76	0.50	182.22	12149.22	-11669.25	10733.50
Saccade R	1	5	733775223	733814965	39742	1208.72	762.45	1148.94	922.21	7.24	490.76	0.50	182.22	12149.22	-11669.25	10733.50
Fixation L	1	6	733814965	734272437	457472	1130.45	942.04	34	63	-1	15.13	15.13
Fixation R	1	6	733814965	734272437	457472	1130.45	942.04	34	63	-1	13.77	13.77
Saccade L	1	6	734272437	734292304	19867	1145.68	985.50	1159.10	970.95	0.18	20.02	1.00	9.28	249.88	-436.08	258.07
Saccade R	1	6	734272437	734292304	19867	1145.68	985.50	1159.10	970.95	0.18	20.02	1.00	9.28	249.88	-436.08	258.07
Fixation L	1	7	734292304	734431555	139251	1162.50	981.81	43	22	-1	15.82	15.82
Fixation R	1	7	734292304	734431555	139251	1162.50	981.81	43	22	-1	14.16	14.16
Saccade L	1	7	734431555	734451427	19872	1197.96	981.36	1358.81	985.71	1.21	162.74	1.00	60.67	3968.62	-3794.98	2653.39
Saccade R	1	7	734431555	734451427	19872	1197.96	981.36	1358.81	985.71	1.21	162.74	1.00	60.67	3968.62	-3794.98	2653.39
Fixation L	1	8	734451427	734749797	298370	1380.84	985.33	35	21	-1	16.18	16.18
Fixation R	1	8	734451427	734749797	298370	1380.84	985.33	35	21	-1	12.49	12.49
Saccade L	1	8	734749797	734769782	19985	1364.73	997.78	1172.13	997.30	1.13	194.77	1.00	56.58	4752.53	-4841.02	3232.00
Saccade R	1	8	734749797	734769782	19985	1364.73	997.78	1172.13	997.30	1.13	194.77	1.00	56.58	4752.53	-4841.02	3232.00
Fixation L	1	9	734769782	734908904	139122	1156.90	992.59	26	22	-1	16.27	16.27
Fixation R	1	9	734769782	734908904	139122	1156.90	992.59	26	22	-1	15.11	15.11
Saccade L	1	9	734908904	734928913	20009	1146.03	994.93	905.81	980.39	1.81	243.32	1.00	90.27	5663.96	0.00	2831.98
Saccade R	1	9	734908904	734928913	20009	1146.03	994.93	905.81	980.39	1.81	243.32	1.00	90.27	5663.96	0.00	2831.98
