[BeGaze]
Converted from:	C:\Documents and Settings\iViewX\Desktop\EXPERIMENTATIONS\Experiments\results\finaleart\S02123220-finaleart-1.idf
Date:	27.03.2019 15:33:39
Version:	BeGaze 2.5.77
Sample Rate:	50
Subject:	S02123220
Description:	David Xu

Table Header for Fixations:
Event Type	Trial	Number	Start	End	Duration	Location X	Location Y	Dispersion X	Dispersion Y	Plane	Avg. Pupil Size X	Avg. Pupil Size Y

Table Header for Saccades:
Event Type	Trial	Number	Start	End	Duration	Start Loc.X	Start Loc.Y	End Loc.X	End Loc.Y	Amplitude	Peak Speed	Peak Speed At	Average Speed	Peak Accel.	Peak Decel.	Average Accel.

Table Header for Blinks:
Event Type	Trial	Number	Start	End	Duration

Table Header for User Events:
Event Type	Trial	Number	Start	Description

UserEvent	1	1	1500338516	# Message: void.jpg
Fixation L	1	1	1500348440	1500626912	278472	1658.04	552.54	20	18	-1	11.34	11.34
Fixation R	1	1	1500348440	1500626912	278472	1658.04	552.54	20	18	-1	9.96	9.96
Saccade L	1	1	1500626912	1500646792	19880	1658.46	559.41	1674.57	480.01	0.56	81.96	1.00	28.41	2003.72	-1202.94	1214.20
Saccade R	1	1	1500626912	1500646792	19880	1658.46	559.41	1674.57	480.01	0.56	81.96	1.00	28.41	2003.72	-1202.94	1214.20
Fixation L	1	2	1500646792	1500925265	278473	1683.25	462.07	33	25	-1	11.53	11.53
Fixation R	1	2	1500646792	1500925265	278473	1683.25	462.07	33	25	-1	10.66	10.66
Saccade L	1	2	1500925265	1500984890	59625	1672.98	465.31	1059.60	462.59	6.39	251.30	0.33	107.21	6222.32	-4734.82	4282.38
Saccade R	1	2	1500925265	1500984890	59625	1672.98	465.31	1059.60	462.59	6.39	251.30	0.33	107.21	6222.32	-4734.82	4282.38
Fixation L	1	3	1500984890	1501402623	417733	1043.37	427.16	21	68	-1	12.20	12.20
Fixation R	1	3	1500984890	1501402623	417733	1043.37	427.16	21	68	-1	12.18	12.18
Saccade L	1	3	1501402623	1501442364	39741	1041.97	396.08	1038.81	283.86	2.28	148.48	1.00	57.30	3484.29	-3365.74	2724.26
Saccade R	1	3	1501402623	1501442364	39741	1041.97	396.08	1038.81	283.86	2.28	148.48	1.00	57.30	3484.29	-3365.74	2724.26
Fixation L	1	4	1501442364	1501541868	99504	1032.47	294.94	10	22	-1	13.07	13.07
Fixation R	1	4	1501442364	1501541868	99504	1032.47	294.94	10	22	-1	12.88	12.88
Blink L	1	1	1501541868	1501621353	79485
Blink R	1	1	1501541868	1501621353	79485
Blink L	1	2	1501621353	1501919712	298359
Blink R	1	2	1501621353	1501919712	298359
Blink L	1	3	1501939584	1502237943	298359
Blink R	1	3	1501939584	1502237943	298359
Fixation L	1	5	1502237943	1502337425	99482	982.91	357.20	7	34	-1	13.05	13.05
Fixation R	1	5	1502237943	1502337425	99482	982.91	357.20	7	34	-1	12.74	12.74
