[BeGaze]
Converted from:	C:\Documents and Settings\iViewX\Desktop\EXPERIMENTATIONS\Experiments\results\finaleart\S02123220-finaleart-1.idf
Date:	27.03.2019 15:33:33
Version:	BeGaze 2.5.77
Sample Rate:	50
Subject:	S02123220
Description:	David Xu

Table Header for Fixations:
Event Type	Trial	Number	Start	End	Duration	Location X	Location Y	Dispersion X	Dispersion Y	Plane	Avg. Pupil Size X	Avg. Pupil Size Y

Table Header for Saccades:
Event Type	Trial	Number	Start	End	Duration	Start Loc.X	Start Loc.Y	End Loc.X	End Loc.Y	Amplitude	Peak Speed	Peak Speed At	Average Speed	Peak Accel.	Peak Decel.	Average Accel.

Table Header for Blinks:
Event Type	Trial	Number	Start	End	Duration

Table Header for User Events:
Event Type	Trial	Number	Start	Description

UserEvent	1	1	814728718	# Message: void.jpg
Fixation L	1	1	814746544	814965308	218764	391.78	756.82	15	14	-1	11.99	11.99
Fixation R	1	1	814746544	814965308	218764	391.78	756.82	15	14	-1	13.88	13.88
Saccade L	1	1	814965308	815005145	39837	388.11	757.45	354.69	981.97	4.26	360.79	1.00	106.88	8834.62	-8191.28	5707.73
Saccade R	1	1	814965308	815005145	39837	388.11	757.45	354.69	981.97	4.26	360.79	1.00	106.88	8834.62	-8191.28	5707.73
Fixation L	1	2	815005145	815144272	139127	376.18	1012.33	34	47	-1	12.23	12.23
Fixation R	1	2	815005145	815144272	139127	376.18	1012.33	34	47	-1	14.37	14.37
Saccade L	1	2	815144272	815204008	59736	371.56	1016.01	884.27	482.03	9.10	307.69	0.67	152.33	7508.32	-4334.05	4314.22
Saccade R	1	2	815144272	815204008	59736	371.56	1016.01	884.27	482.03	9.10	307.69	0.67	152.33	7508.32	-4334.05	4314.22
Blink L	1	1	815204008	815542122	338114
Blink R	1	1	815204008	815542122	338114
Saccade L	1	3	815542122	815701228	159106	900.56	390.78	928.07	249.21	14.51	388.46	0.37	91.17	9252.19	-9415.27	3930.42
Saccade R	1	3	815542122	815701228	159106	900.56	390.78	928.07	249.21	14.51	388.46	0.37	91.17	9252.19	-9415.27	3930.42
Fixation L	1	3	815701228	815820594	119366	932.22	236.30	8	88	-1	13.01	13.01
Fixation R	1	3	815701228	815820594	119366	932.22	236.30	8	88	-1	13.12	13.12
Saccade L	1	4	815820594	816198456	377862	935.85	247.64	959.47	371.75	39.82	288.40	0.11	105.38	6927.55	-7145.35	2571.36
Saccade R	1	4	815820594	816198456	377862	935.85	247.64	959.47	371.75	39.82	288.40	0.11	105.38	6927.55	-7145.35	2571.36
Fixation L	1	4	816198456	816297950	99494	954.18	412.63	10	77	-1	13.12	13.12
Fixation R	1	4	816198456	816297950	99494	954.18	412.63	10	77	-1	13.07	13.07
Saccade L	1	5	816297950	816337699	39749	954.83	416.17	955.01	424.70	1.96	78.89	0.50	49.23	1135.41	-1454.41	1183.70
Saccade R	1	5	816297950	816337699	39749	954.83	416.17	955.01	424.70	1.96	78.89	0.50	49.23	1135.41	-1454.41	1183.70
Fixation L	1	5	816337699	816516687	178988	947.33	397.26	14	63	-1	13.04	13.04
Fixation R	1	5	816337699	816516687	178988	947.33	397.26	14	63	-1	13.00	13.00
Saccade L	1	6	816516687	816576427	59740	940.76	396.22	942.59	370.05	4.41	199.94	0.67	73.88	4719.64	-4965.10	3437.25
Saccade R	1	6	816516687	816576427	59740	940.76	396.22	942.59	370.05	4.41	199.94	0.67	73.88	4719.64	-4965.10	3437.25
Fixation L	1	6	816576427	816675801	99374	950.23	349.49	16	49	-1	13.55	13.55
Fixation R	1	6	816576427	816675801	99374	950.23	349.49	16	49	-1	13.30	13.30
Saccade L	1	7	816675801	816715672	39871	954.58	345.86	958.12	301.05	1.08	63.53	0.50	27.10	1250.09	0.00	466.89
Saccade R	1	7	816675801	816715672	39871	954.58	345.86	958.12	301.05	1.08	63.53	0.50	27.10	1250.09	0.00	466.89
