[BeGaze]
Converted from:	C:\Documents and Settings\iViewX\Desktop\EXPERIMENTATIONS\Experiments\results\finaleart\S02123220-finaleart-1.idf
Date:	27.03.2019 15:33:35
Version:	BeGaze 2.5.77
Sample Rate:	50
Subject:	S02123220
Description:	David Xu

Table Header for Fixations:
Event Type	Trial	Number	Start	End	Duration	Location X	Location Y	Dispersion X	Dispersion Y	Plane	Avg. Pupil Size X	Avg. Pupil Size Y

Table Header for Saccades:
Event Type	Trial	Number	Start	End	Duration	Start Loc.X	Start Loc.Y	End Loc.X	End Loc.Y	Amplitude	Peak Speed	Peak Speed At	Average Speed	Peak Accel.	Peak Decel.	Average Accel.

Table Header for Blinks:
Event Type	Trial	Number	Start	End	Duration

Table Header for User Events:
Event Type	Trial	Number	Start	Description

UserEvent	1	1	1107123102	# Message: landschaft_mit_dem_ondregenbogen_caspar_david_friedrich_1810.jpg
Fixation L	1	1	1107133773	1107571245	437472	919.78	486.15	70	28	-1	15.36	15.36
Fixation R	1	1	1107133773	1107571245	437472	919.78	486.15	70	28	-1	15.39	15.39
Saccade L	1	1	1107571245	1107591244	19999	958.81	501.58	958.33	505.25	0.06	3.74	1.00	2.80	18.95	-25.64	20.58
Saccade R	1	1	1107571245	1107591244	19999	958.81	501.58	958.33	505.25	0.06	3.74	1.00	2.80	18.95	-25.64	20.58
Fixation L	1	2	1107591244	1107690613	99369	960.13	516.34	4	71	-1	15.60	15.60
Fixation R	1	2	1107591244	1107690613	99369	960.13	516.34	4	71	-1	15.27	15.27
Saccade L	1	2	1107690613	1107710481	19868	961.56	573.85	961.60	633.61	0.75	71.83	0.00	37.53	1467.28	-1393.92	1316.36
Saccade R	1	2	1107690613	1107710481	19868	961.56	573.85	961.60	633.61	0.75	71.83	0.00	37.53	1467.28	-1393.92	1316.36
Fixation L	1	3	1107710481	1107849727	139246	975.06	655.61	25	31	-1	15.29	15.29
Fixation R	1	3	1107710481	1107849727	139246	975.06	655.61	25	31	-1	14.90	14.90
Saccade L	1	3	1107849727	1107909475	59748	986.81	660.72	416.59	573.20	6.17	245.84	0.67	103.21	5997.96	-5551.77	4015.68
Saccade R	1	3	1107849727	1107909475	59748	986.81	660.72	416.59	573.20	6.17	245.84	0.67	103.21	5997.96	-5551.77	4015.68
Fixation L	1	4	1107909475	1108148080	238605	399.76	554.87	48	29	-1	14.27	14.27
Fixation R	1	4	1107909475	1108148080	238605	399.76	554.87	48	29	-1	15.22	15.22
Saccade L	1	4	1108148080	1108187833	39753	436.25	543.21	895.61	364.15	4.44	291.57	0.50	111.75	7161.19	-6904.63	5831.24
Saccade R	1	4	1108148080	1108187833	39753	436.25	543.21	895.61	364.15	4.44	291.57	0.50	111.75	7161.19	-6904.63	5831.24
Fixation L	1	5	1108187833	1108565805	377972	898.88	370.30	55	26	-1	13.64	13.64
Fixation R	1	5	1108187833	1108565805	377972	898.88	370.30	55	26	-1	14.06	14.06
Saccade L	1	5	1108565805	1108605559	39754	945.68	379.82	1230.72	561.62	3.48	213.64	0.50	87.43	5330.99	-4319.91	3651.13
Saccade R	1	5	1108565805	1108605559	39754	945.68	379.82	1230.72	561.62	3.48	213.64	0.50	87.43	5330.99	-4319.91	3651.13
Fixation L	1	6	1108605559	1108764669	159110	1215.60	589.50	20	40	-1	13.75	13.75
Fixation R	1	6	1108605559	1108764669	159110	1215.60	589.50	20	40	-1	13.36	13.36
Saccade L	1	6	1108764669	1108804418	39749	1210.15	593.02	1604.54	496.72	3.72	238.86	1.00	93.47	5895.68	-5035.74	4710.37
Saccade R	1	6	1108764669	1108804418	39749	1210.15	593.02	1604.54	496.72	3.72	238.86	1.00	93.47	5895.68	-5035.74	4710.37
Fixation L	1	7	1108804418	1109063020	258602	1600.34	560.41	11	80	-1	13.50	13.50
Fixation R	1	7	1108804418	1109063020	258602	1600.34	560.41	11	80	-1	12.42	12.42
Saccade L	1	7	1109063020	1109122638	59618	1598.68	564.46	1167.12	1115.60	7.63	413.34	0.67	128.00	10285.62	-9623.75	6217.82
Saccade R	1	7	1109063020	1109122638	59618	1598.68	564.46	1167.12	1115.60	7.63	413.34	0.67	128.00	10285.62	-9623.75	6217.82
Fixation L	1	8	1109122638	1109301764	179126	1166.16	1152.76	9	48	-1	13.62	13.62
Fixation R	1	8	1109122638	1109301764	179126	1166.16	1152.76	9	48	-1	12.59	12.59
Saccade L	1	8	1109301764	1109480750	178986	1164.85	1163.83	1098.05	1162.19	11.04	145.53	0.11	61.69	3333.59	-2883.81	1942.15
Saccade R	1	8	1109301764	1109480750	178986	1164.85	1163.83	1098.05	1162.19	11.04	145.53	0.11	61.69	3333.59	-2883.81	1942.15
Fixation L	1	9	1109480750	1109639873	159123	1074.44	1149.45	37	26	-1	14.30	14.30
Fixation R	1	9	1109480750	1109639873	159123	1074.44	1149.45	37	26	-1	13.65	13.65
Saccade L	1	9	1109639873	1109699488	59615	1073.35	1143.88	1058.21	1146.25	3.11	119.93	0.33	52.14	2746.12	-1557.56	1218.20
Saccade R	1	9	1109639873	1109699488	59615	1073.35	1143.88	1058.21	1146.25	3.11	119.93	0.33	52.14	2746.12	-1557.56	1218.20
Fixation L	1	10	1109699488	1109898352	198864	1060.68	1138.68	11	60	-1	14.43	14.43
Fixation R	1	10	1109699488	1109898352	198864	1060.68	1138.68	11	60	-1	13.74	13.74
Saccade L	1	10	1109898352	1110137087	238735	1061.71	1149.84	1061.12	1147.14	23.84	187.14	0.83	99.87	4038.28	-3462.92	2081.38
Saccade R	1	10	1109898352	1110137087	238735	1061.71	1149.84	1061.12	1147.14	23.84	187.14	0.83	99.87	4038.28	-3462.92	2081.38
Fixation L	1	11	1110137087	1110256448	119361	1059.28	1088.53	4	89	-1	14.35	14.35
Fixation R	1	11	1110137087	1110256448	119361	1059.28	1088.53	4	89	-1	13.64	13.64
Saccade L	1	11	1110256448	1110296199	39751	1058.47	1091.95	1060.20	1085.97	1.33	80.49	1.00	33.57	1835.13	-1772.93	1783.90
Saccade R	1	11	1110256448	1110296199	39751	1058.47	1091.95	1060.20	1085.97	1.33	80.49	1.00	33.57	1835.13	-1772.93	1783.90
Fixation L	1	12	1110296199	1110514936	218737	1055.37	1087.41	11	55	-1	14.21	14.21
Fixation R	1	12	1110296199	1110514936	218737	1055.37	1087.41	11	55	-1	13.40	13.40
Saccade L	1	12	1110514936	1110534951	20015	1062.12	1127.30	1061.27	1161.63	0.52	46.38	0.00	26.07	586.33	-862.69	562.60
Saccade R	1	12	1110514936	1110534951	20015	1062.12	1127.30	1061.27	1161.63	0.52	46.38	0.00	26.07	586.33	-862.69	562.60
Fixation L	1	13	1110534951	1110713926	178975	1062.75	1143.29	23	44	-1	14.10	14.10
Fixation R	1	13	1110534951	1110713926	178975	1062.75	1143.29	23	44	-1	13.06	13.06
Blink L	1	1	1110713926	1110912801	198875
Blink R	1	1	1110713926	1110912801	198875
Saccade L	1	13	1110912801	1110952541	39740	1063.35	1203.14	1039.62	1169.12	13.45	1589.27	1.00	338.56	596.18	-39163.55	10127.55
Saccade R	1	13	1110912801	1110952541	39740	1063.35	1203.14	1039.62	1169.12	13.45	1589.27	1.00	338.56	596.18	-39163.55	10127.55
Fixation L	1	14	1110952541	1111111652	159111	1053.94	1132.96	31	46	-1	14.46	14.46
Fixation R	1	14	1110952541	1111111652	159111	1053.94	1132.96	31	46	-1	15.58	15.58
