[BeGaze]
Converted from:	C:\Documents and Settings\iViewX\Desktop\EXPERIMENTATIONS\Experiments\results\finaleart\S02123220-finaleart-1.idf
Date:	27.03.2019 15:33:43
Version:	BeGaze 2.5.77
Sample Rate:	50
Subject:	S02123220
Description:	David Xu

Table Header for Fixations:
Event Type	Trial	Number	Start	End	Duration	Location X	Location Y	Dispersion X	Dispersion Y	Plane	Avg. Pupil Size X	Avg. Pupil Size Y

Table Header for Saccades:
Event Type	Trial	Number	Start	End	Duration	Start Loc.X	Start Loc.Y	End Loc.X	End Loc.Y	Amplitude	Peak Speed	Peak Speed At	Average Speed	Peak Accel.	Peak Decel.	Average Accel.

Table Header for Blinks:
Event Type	Trial	Number	Start	End	Duration

Table Header for User Events:
Event Type	Trial	Number	Start	Description

UserEvent	1	1	1801752590	# Message: The_Two_Models_Dufy_1930.jpg
Fixation L	1	1	1801764421	1802182160	417739	1092.46	537.30	64	15	-1	13.29	13.29
Fixation R	1	1	1801764421	1802182160	417739	1092.46	537.30	64	15	-1	11.71	11.71
Saccade L	1	1	1802182160	1802440742	258582	1117.15	540.59	1331.49	606.20	15.22	222.56	0.15	58.86	5556.26	-5325.57	2304.66
Saccade R	1	1	1802182160	1802440742	258582	1117.15	540.59	1331.49	606.20	15.22	222.56	0.15	58.86	5556.26	-5325.57	2304.66
Fixation L	1	2	1802440742	1802659482	218740	1306.51	622.54	38	22	-1	10.94	10.94
Fixation R	1	2	1802440742	1802659482	218740	1306.51	622.54	38	22	-1	9.14	9.14
Saccade L	1	2	1802659482	1802699233	39751	1305.24	628.73	1134.96	572.79	1.79	153.98	0.50	45.10	3834.45	-3390.34	2376.01
Saccade R	1	2	1802659482	1802699233	39751	1305.24	628.73	1134.96	572.79	1.79	153.98	0.50	45.10	3834.45	-3390.34	2376.01
Fixation L	1	3	1802699233	1802957849	258616	1133.13	546.92	14	33	-1	10.39	10.39
Fixation R	1	3	1802699233	1802957849	258616	1133.13	546.92	14	33	-1	9.04	9.04
Saccade L	1	3	1802957849	1802977709	19860	1138.53	542.20	1454.17	660.12	2.09	340.47	1.00	105.10	8459.77	-8243.32	6176.48
Saccade R	1	3	1802957849	1802977709	19860	1138.53	542.20	1454.17	660.12	2.09	340.47	1.00	105.10	8459.77	-8243.32	6176.48
Fixation L	1	4	1802977709	1803116965	139256	1519.85	659.34	84	12	-1	11.03	11.03
Fixation R	1	4	1802977709	1803116965	139256	1519.85	659.34	84	12	-1	8.47	8.47
Saccade L	1	4	1803116965	1803156721	39756	1521.63	668.24	1522.24	676.42	0.31	14.61	0.00	7.86	57.52	-154.82	105.49
Saccade R	1	4	1803116965	1803156721	39756	1521.63	668.24	1522.24	676.42	0.31	14.61	0.00	7.86	57.52	-154.82	105.49
Fixation L	1	5	1803156721	1803256200	99479	1538.94	696.43	47	50	-1	11.66	11.66
Fixation R	1	5	1803156721	1803256200	99479	1538.94	696.43	47	50	-1	8.53	8.53
Saccade L	1	5	1803256200	1803276083	19883	1535.48	715.46	1591.80	722.80	0.52	57.45	1.00	26.33	1327.94	-1400.07	1067.02
Saccade R	1	5	1803256200	1803276083	19883	1535.48	715.46	1591.80	722.80	0.52	57.45	1.00	26.33	1327.94	-1400.07	1067.02
Fixation L	1	6	1803276083	1803395441	119358	1562.42	730.78	69	12	-1	11.80	11.80
Fixation R	1	6	1803276083	1803395441	119358	1562.42	730.78	69	12	-1	8.12	8.12
Saccade L	1	6	1803395441	1803474945	79504	1522.63	734.89	1472.08	879.35	4.81	136.68	1.00	60.50	2859.23	-2614.85	1846.75
Saccade R	1	6	1803395441	1803474945	79504	1522.63	734.89	1472.08	879.35	4.81	136.68	1.00	60.50	2859.23	-2614.85	1846.75
Fixation L	1	7	1803474945	1803693811	218866	1505.82	870.42	76	18	-1	12.04	12.04
Fixation R	1	7	1803474945	1803693811	218866	1505.82	870.42	76	18	-1	7.96	7.96
Saccade L	1	7	1803693811	1803793170	99359	1493.04	872.21	708.51	880.14	10.81	243.95	0.40	108.84	5842.20	-3687.56	2710.70
Saccade R	1	7	1803693811	1803793170	99359	1493.04	872.21	708.51	880.14	10.81	243.95	0.40	108.84	5842.20	-3687.56	2710.70
Fixation L	1	8	1803793170	1803992034	198864	693.60	874.33	61	35	-1	11.55	11.55
Fixation R	1	8	1803793170	1803992034	198864	693.60	874.33	61	35	-1	10.78	10.78
Saccade L	1	8	1803992034	1804071667	79633	705.49	858.96	682.29	846.77	1.50	62.80	1.00	18.84	1392.18	-208.15	396.51
Saccade R	1	8	1803992034	1804071667	79633	705.49	858.96	682.29	846.77	1.50	62.80	1.00	18.84	1392.18	-208.15	396.51
Fixation L	1	9	1804071667	1804230777	159110	685.00	786.66	15	79	-1	11.71	11.71
Fixation R	1	9	1804071667	1804230777	159110	685.00	786.66	15	79	-1	10.86	10.86
Saccade L	1	9	1804230777	1804250645	19868	687.81	767.17	688.92	758.13	0.13	10.62	0.00	6.64	86.89	-241.11	159.49
Saccade R	1	9	1804230777	1804250645	19868	687.81	767.17	688.92	758.13	0.13	10.62	0.00	6.64	86.89	-241.11	159.49
Fixation L	1	10	1804250645	1804350143	99498	691.62	767.80	8	47	-1	11.56	11.56
Fixation R	1	10	1804250645	1804350143	99498	691.62	767.80	8	47	-1	10.75	10.75
Saccade L	1	10	1804350143	1804370007	19864	696.98	805.19	706.44	865.25	0.59	61.50	1.00	29.65	1472.75	-1344.33	1212.91
Saccade R	1	10	1804350143	1804370007	19864	696.98	805.19	706.44	865.25	0.59	61.50	1.00	29.65	1472.75	-1344.33	1212.91
Fixation L	1	11	1804370007	1804727994	357987	730.71	880.97	40	39	-1	11.66	11.66
Fixation R	1	11	1804370007	1804727994	357987	730.71	880.97	40	39	-1	10.99	10.99
Saccade L	1	11	1804727994	1804747856	19862	711.11	874.54	805.21	869.36	0.84	95.33	1.00	42.45	1542.83	-2009.30	1422.82
Saccade R	1	11	1804727994	1804747856	19862	711.11	874.54	805.21	869.36	0.84	95.33	1.00	42.45	1542.83	-2009.30	1422.82
Fixation L	1	12	1804747856	1804906982	159126	830.53	868.26	43	8	-1	11.61	11.61
Fixation R	1	12	1804747856	1804906982	159126	830.53	868.26	43	8	-1	10.93	10.93
Saccade L	1	12	1804906982	1804946854	39872	843.80	867.65	1130.19	535.98	3.84	250.45	0.50	96.35	5689.97	-6008.13	5203.05
Saccade R	1	12	1804906982	1804946854	39872	843.80	867.65	1130.19	535.98	3.84	250.45	0.50	96.35	5689.97	-6008.13	5203.05
Fixation L	1	13	1804946854	1805245200	298346	1122.84	514.48	22	30	-1	12.25	12.25
Fixation R	1	13	1804946854	1805245200	298346	1122.84	514.48	22	30	-1	11.03	11.03
Saccade L	1	13	1805245200	1805284952	39752	1133.36	509.98	1004.18	314.65	2.07	178.60	1.00	52.10	4377.15	-3956.39	2705.52
Saccade R	1	13	1805245200	1805284952	39752	1133.36	509.98	1004.18	314.65	2.07	178.60	1.00	52.10	4377.15	-3956.39	2705.52
Fixation L	1	14	1805284952	1805702559	417607	995.33	296.14	21	29	-1	12.01	12.01
Fixation R	1	14	1805284952	1805702559	417607	995.33	296.14	21	29	-1	10.86	10.86
Saccade L	1	14	1805702559	1805742439	39880	996.51	294.13	1050.59	447.59	1.73	123.22	0.50	43.42	3026.48	0.00	1350.77
Saccade R	1	14	1805702559	1805742439	39880	996.51	294.13	1050.59	447.59	1.73	123.22	0.50	43.42	3026.48	0.00	1350.77
