[BeGaze]
Converted from:	C:\Documents and Settings\iViewX\Desktop\EXPERIMENTATIONS\Experiments\results\finaleart\S02123220-finaleart-1.idf
Date:	27.03.2019 15:33:31
Version:	BeGaze 2.5.77
Sample Rate:	50
Subject:	S02123220
Description:	David Xu

Table Header for Fixations:
Event Type	Trial	Number	Start	End	Duration	Location X	Location Y	Dispersion X	Dispersion Y	Plane	Avg. Pupil Size X	Avg. Pupil Size Y

Table Header for Saccades:
Event Type	Trial	Number	Start	End	Duration	Start Loc.X	Start Loc.Y	End Loc.X	End Loc.Y	Amplitude	Peak Speed	Peak Speed At	Average Speed	Peak Accel.	Peak Decel.	Average Accel.

Table Header for Blinks:
Event Type	Trial	Number	Start	End	Duration

Table Header for User Events:
Event Type	Trial	Number	Start	Description

UserEvent	1	1	698240116	# Message: void.jpg
Saccade L	1	1	698252132	698331629	79497	557.88	578.71	892.52	757.53	5.97	362.01	1.00	75.15	8891.95	-8680.00	3115.46
Saccade R	1	1	698252132	698331629	79497	557.88	578.71	892.52	757.53	5.97	362.01	1.00	75.15	8891.95	-8680.00	3115.46
Fixation L	1	1	698331629	698570366	238737	907.58	800.31	26	68	-1	14.01	14.01
Fixation R	1	1	698331629	698570366	238737	907.58	800.31	26	68	-1	14.33	14.33
Saccade L	1	2	698570366	698590320	19954	919.41	818.09	917.27	830.89	0.15	13.13	1.00	7.43	233.10	-125.72	132.95
Saccade R	1	2	698570366	698590320	19954	919.41	818.09	917.27	830.89	0.15	13.13	1.00	7.43	233.10	-125.72	132.95
Fixation L	1	2	698590320	698729480	139160	916.05	812.35	6	36	-1	13.37	13.37
Fixation R	1	2	698590320	698729480	139160	916.05	812.35	6	36	-1	13.99	13.99
Saccade L	1	3	698729480	699286321	556841	915.03	797.41	918.35	472.94	70.83	393.50	0.96	127.21	9417.03	-9178.83	3368.40
Saccade R	1	3	698729480	699286321	556841	915.03	797.41	918.35	472.94	70.83	393.50	0.96	127.21	9417.03	-9178.83	3368.40
Fixation L	1	3	699286321	699505184	218863	889.15	460.85	34	20	-1	13.56	13.56
Fixation R	1	3	699286321	699505184	218863	889.15	460.85	34	20	-1	14.41	14.41
Saccade L	1	4	699505184	699544931	39747	885.20	465.63	893.50	453.62	4.53	284.56	0.50	114.08	6983.35	-6979.40	6871.23
Saccade R	1	4	699505184	699544931	39747	885.20	465.63	893.50	453.62	4.53	284.56	0.50	114.08	6983.35	-6979.40	6871.23
Fixation L	1	4	699544931	700181408	636477	907.72	467.00	42	37	-1	15.01	15.01
Fixation R	1	4	699544931	700181408	636477	907.72	467.00	42	37	-1	15.69	15.69
Saccade L	1	5	700181408	700241016	59608	931.29	464.18	963.60	211.29	3.64	263.81	0.33	61.00	6409.08	-6399.66	3258.75
Saccade R	1	5	700181408	700241016	59608	931.29	464.18	963.60	211.29	3.64	263.81	0.33	61.00	6409.08	-6399.66	3258.75
