[BeGaze]
Converted from:	C:\Documents and Settings\iViewX\Desktop\EXPERIMENTATIONS\Experiments\results\finaleart\S02123220-finaleart-1.idf
Date:	27.03.2019 15:33:45
Version:	BeGaze 2.5.77
Sample Rate:	50
Subject:	S02123220
Description:	David Xu

Table Header for Fixations:
Event Type	Trial	Number	Start	End	Duration	Location X	Location Y	Dispersion X	Dispersion Y	Plane	Avg. Pupil Size X	Avg. Pupil Size Y

Table Header for Saccades:
Event Type	Trial	Number	Start	End	Duration	Start Loc.X	Start Loc.Y	End Loc.X	End Loc.Y	Amplitude	Peak Speed	Peak Speed At	Average Speed	Peak Accel.	Peak Decel.	Average Accel.

Table Header for Blinks:
Event Type	Trial	Number	Start	End	Duration

Table Header for User Events:
Event Type	Trial	Number	Start	Description

UserEvent	1	1	2163957498	# Message: void.jpg
Fixation L	1	1	2163963125	2164142106	178981	1291.32	810.62	29	51	-1	15.88	15.88
Fixation R	1	1	2163963125	2164142106	178981	1291.32	810.62	29	51	-1	11.13	11.13
Saccade L	1	1	2164142106	2164161982	19876	1274.27	805.97	1324.07	841.00	0.80	61.59	1.00	40.01	1304.32	-1321.63	1041.82
Saccade R	1	1	2164142106	2164161982	19876	1274.27	805.97	1324.07	841.00	0.80	61.59	1.00	40.01	1304.32	-1321.63	1041.82
Fixation L	1	2	2164161982	2164380841	218859	1361.78	823.36	54	40	-1	15.93	15.93
Fixation R	1	2	2164161982	2164380841	218859	1361.78	823.36	54	40	-1	11.22	11.22
Saccade L	1	2	2164380841	2164440465	59624	1343.24	815.58	967.38	578.18	5.19	222.76	0.67	86.98	4896.04	-4821.15	3766.16
Saccade R	1	2	2164380841	2164440465	59624	1343.24	815.58	967.38	578.18	5.19	222.76	0.67	86.98	4896.04	-4821.15	3766.16
Fixation L	1	3	2164440465	2164559832	119367	947.47	530.04	28	70	-1	14.20	14.20
Fixation R	1	3	2164440465	2164559832	119367	947.47	530.04	28	70	-1	11.91	11.91
Saccade L	1	3	2164559832	2164579700	19868	941.26	520.55	943.05	505.89	0.17	14.94	1.00	8.36	81.80	-252.14	117.56
Saccade R	1	3	2164559832	2164579700	19868	941.26	520.55	943.05	505.89	0.17	14.94	1.00	8.36	81.80	-252.14	117.56
Fixation L	1	4	2164579700	2164699098	119398	945.06	494.79	13	28	-1	12.03	12.03
Fixation R	1	4	2164579700	2164699098	119398	945.06	494.79	13	28	-1	10.06	10.06
Blink L	1	1	2164699098	2165057060	357962
Blink R	1	1	2164699098	2165057060	357962
Fixation L	1	5	2165057060	2165952125	895065	767.98	338.71	44	29	-1	12.70	12.70
Fixation R	1	5	2165057060	2165952125	895065	767.98	338.71	44	29	-1	12.06	12.06
