[BeGaze]
Converted from:	C:\Documents and Settings\iViewX\Desktop\EXPERIMENTATIONS\Experiments\results\finaleart\S02123220-finaleart-1.idf
Date:	27.03.2019 15:33:35
Version:	BeGaze 2.5.77
Sample Rate:	50
Subject:	S02123220
Description:	David Xu

Table Header for Fixations:
Event Type	Trial	Number	Start	End	Duration	Location X	Location Y	Dispersion X	Dispersion Y	Plane	Avg. Pupil Size X	Avg. Pupil Size Y

Table Header for Saccades:
Event Type	Trial	Number	Start	End	Duration	Start Loc.X	Start Loc.Y	End Loc.X	End Loc.Y	Amplitude	Peak Speed	Peak Speed At	Average Speed	Peak Accel.	Peak Decel.	Average Accel.

Table Header for Blinks:
Event Type	Trial	Number	Start	End	Duration

Table Header for User Events:
Event Type	Trial	Number	Start	Description

UserEvent	1	1	1094905270	# Message: Nature-morte-Maurice-de-Vlaminck.jpg
Fixation L	1	1	1094921388	1095398738	477350	893.93	475.95	5	29	-1	15.31	15.31
Fixation R	1	1	1094921388	1095398738	477350	893.93	475.95	5	29	-1	13.85	13.85
Saccade L	1	1	1095398738	1095438476	39738	893.40	489.50	810.80	641.71	1.91	127.51	0.50	48.15	3121.48	-2508.36	2402.53
Saccade R	1	1	1095398738	1095438476	39738	893.40	489.50	810.80	641.71	1.91	127.51	0.50	48.15	3121.48	-2508.36	2402.53
Fixation L	1	2	1095438476	1095577719	139243	808.55	675.99	35	61	-1	15.49	15.49
Fixation R	1	2	1095438476	1095577719	139243	808.55	675.99	35	61	-1	13.60	13.60
Saccade L	1	2	1095577719	1095677212	99493	805.68	703.05	722.00	838.90	6.09	129.22	0.20	61.24	2695.33	-1924.01	1306.70
Saccade R	1	2	1095577719	1095677212	99493	805.68	703.05	722.00	838.90	6.09	129.22	0.20	61.24	2695.33	-1924.01	1306.70
Fixation L	1	3	1095677212	1095816470	139258	712.54	845.05	19	72	-1	14.93	14.93
Fixation R	1	3	1095677212	1095816470	139258	712.54	845.05	19	72	-1	13.32	13.32
Saccade L	1	3	1095816470	1095876078	59608	711.34	837.56	1151.48	630.99	5.56	322.38	0.67	93.34	7623.78	-7432.01	4024.93
Saccade R	1	3	1095816470	1095876078	59608	711.34	837.56	1151.48	630.99	5.56	322.38	0.67	93.34	7623.78	-7432.01	4024.93
Fixation L	1	4	1095876078	1096174425	298347	1154.80	602.85	36	59	-1	14.98	14.98
Fixation R	1	4	1095876078	1096174425	298347	1154.80	602.85	36	59	-1	12.34	12.34
Saccade L	1	4	1096174425	1096194321	19896	1128.01	571.76	1095.32	489.91	0.76	89.16	1.00	38.14	1938.28	-2037.62	1502.12
Saccade R	1	4	1096174425	1096194321	19896	1128.01	571.76	1095.32	489.91	0.76	89.16	1.00	38.14	1938.28	-2037.62	1502.12
Fixation L	1	5	1096194321	1096333555	139234	1078.31	479.14	22	15	-1	14.84	14.84
Fixation R	1	5	1096194321	1096333555	139234	1078.31	479.14	22	15	-1	12.48	12.48
Saccade L	1	5	1096333555	1096393297	59742	1074.45	473.94	713.83	801.52	5.15	223.03	0.67	86.27	5523.71	-5291.97	3679.62
Saccade R	1	5	1096333555	1096393297	59742	1074.45	473.94	713.83	801.52	5.15	223.03	0.67	86.27	5523.71	-5291.97	3679.62
Fixation L	1	6	1096393297	1096492659	99362	709.89	777.51	8	49	-1	14.94	14.94
Fixation R	1	6	1096393297	1096492659	99362	709.89	777.51	8	49	-1	13.04	13.04
Saccade L	1	6	1096492659	1096532414	39755	711.01	756.35	707.67	745.72	2.11	112.14	0.50	53.18	2506.51	-2631.51	2393.74
Saccade R	1	6	1096492659	1096532414	39755	711.01	756.35	707.67	745.72	2.11	112.14	0.50	53.18	2506.51	-2631.51	2393.74
Fixation L	1	7	1096532414	1096771151	238737	708.44	739.73	24	20	-1	15.12	15.12
Fixation R	1	7	1096532414	1096771151	238737	708.44	739.73	24	20	-1	13.26	13.26
Saccade L	1	7	1096771151	1096810895	39744	726.19	736.91	1079.76	479.93	3.93	287.45	0.50	98.96	7135.39	-6468.31	5303.33
Saccade R	1	7	1096771151	1096810895	39744	726.19	736.91	1079.76	479.93	3.93	287.45	0.50	98.96	7135.39	-6468.31	5303.33
Fixation L	1	8	1096810895	1097169006	358111	1075.37	459.95	29	27	-1	15.07	15.07
Fixation R	1	8	1096810895	1097169006	358111	1075.37	459.95	29	27	-1	12.72	12.72
Saccade L	1	8	1097169006	1097228622	59616	1065.63	464.02	810.80	736.06	4.36	220.17	0.67	73.07	5348.26	-4945.77	3134.38
Saccade R	1	8	1097169006	1097228622	59616	1065.63	464.02	810.80	736.06	4.36	220.17	0.67	73.07	5348.26	-4945.77	3134.38
Fixation L	1	9	1097228622	1097686093	457471	801.44	749.71	15	71	-1	15.38	15.38
Fixation R	1	9	1097228622	1097686093	457471	801.44	749.71	15	71	-1	13.91	13.91
Saccade L	1	9	1097686093	1097705967	19874	803.73	769.20	719.72	793.35	0.67	88.42	1.00	33.67	1871.32	-1885.80	1265.28
Saccade R	1	9	1097686093	1097705967	19874	803.73	769.20	719.72	793.35	0.67	88.42	1.00	33.67	1871.32	-1885.80	1265.28
Fixation L	1	10	1097705967	1098083815	377848	705.44	810.59	17	53	-1	15.64	15.64
Fixation R	1	10	1097705967	1098083815	377848	705.44	810.59	17	53	-1	14.57	14.57
Saccade L	1	10	1098083815	1098123684	39869	706.05	819.07	773.63	593.52	2.35	159.11	0.50	59.05	3886.74	-3171.60	2740.62
Saccade R	1	10	1098083815	1098123684	39869	706.05	819.07	773.63	593.52	2.35	159.11	0.50	59.05	3886.74	-3171.60	2740.62
Fixation L	1	11	1098123684	1098242955	119271	801.83	577.85	41	26	-1	15.81	15.81
Fixation R	1	11	1098123684	1098242955	119271	801.83	577.85	41	26	-1	14.75	14.75
Saccade L	1	11	1098242955	1098302687	59732	815.52	577.09	1141.70	426.39	4.15	194.55	0.33	69.56	4822.52	-3926.59	3128.03
Saccade R	1	11	1098242955	1098302687	59732	815.52	577.09	1141.70	426.39	4.15	194.55	0.33	69.56	4822.52	-3926.59	3128.03
Fixation L	1	12	1098302687	1098640787	338100	1159.69	392.35	21	43	-1	16.16	16.16
Fixation R	1	12	1098302687	1098640787	338100	1159.69	392.35	21	43	-1	14.18	14.18
Saccade L	1	12	1098640787	1098899396	258609	1160.20	396.55	1472.44	1110.02	23.02	251.46	0.08	89.01	6222.48	-4371.45	2507.80
Saccade R	1	12	1098640787	1098899396	258609	1160.20	396.55	1472.44	1110.02	23.02	251.46	0.08	89.01	6222.48	-4371.45	2507.80
