[BeGaze]
Converted from:	C:\Documents and Settings\iViewX\Desktop\EXPERIMENTATIONS\Experiments\results\finaleart\S02123220-finaleart-1.idf
Date:	27.03.2019 15:33:45
Version:	BeGaze 2.5.77
Sample Rate:	50
Subject:	S02123220
Description:	David Xu

Table Header for Fixations:
Event Type	Trial	Number	Start	End	Duration	Location X	Location Y	Dispersion X	Dispersion Y	Plane	Avg. Pupil Size X	Avg. Pupil Size Y

Table Header for Saccades:
Event Type	Trial	Number	Start	End	Duration	Start Loc.X	Start Loc.Y	End Loc.X	End Loc.Y	Amplitude	Peak Speed	Peak Speed At	Average Speed	Peak Accel.	Peak Decel.	Average Accel.

Table Header for Blinks:
Event Type	Trial	Number	Start	End	Duration

Table Header for User Events:
Event Type	Trial	Number	Start	Description

UserEvent	1	1	2157856850	# Message: void.jpg
Saccade L	1	1	2157857013	2157916619	59606	830.14	799.99	826.72	725.10	1.35	77.90	1.00	22.64	1748.05	-953.00	626.32
Saccade R	1	1	2157857013	2157916619	59606	830.14	799.99	826.72	725.10	1.35	77.90	1.00	22.64	1748.05	-953.00	626.32
Fixation L	1	1	2157916619	2158095593	178974	821.86	692.75	9	55	-1	10.51	10.51
Fixation R	1	1	2157916619	2158095593	178974	821.86	692.75	9	55	-1	10.40	10.40
Saccade L	1	2	2158095593	2158135484	39891	820.99	683.13	751.49	912.92	2.14	127.48	0.50	53.64	3031.43	-2929.82	2799.56
Saccade R	1	2	2158095593	2158135484	39891	820.99	683.13	751.49	912.92	2.14	127.48	0.50	53.64	3031.43	-2929.82	2799.56
Fixation L	1	2	2158135484	2158294605	159121	746.20	915.04	20	13	-1	9.92	9.92
Fixation R	1	2	2158135484	2158294605	159121	746.20	915.04	20	13	-1	10.20	10.20
Saccade L	1	3	2158294605	2158334331	39726	734.31	912.86	869.35	703.00	2.27	135.94	0.50	57.14	3269.47	-2872.24	2883.03
Saccade R	1	3	2158294605	2158334331	39726	734.31	912.86	869.35	703.00	2.27	135.94	0.50	57.14	3269.47	-2872.24	2883.03
Fixation L	1	3	2158334331	2158473573	139242	871.42	688.12	24	63	-1	10.12	10.12
Fixation R	1	3	2158334331	2158473573	139242	871.42	688.12	24	63	-1	10.16	10.16
Blink L	1	1	2158473573	2158791812	318239
Blink R	1	1	2158473573	2158791812	318239
Fixation L	1	4	2158791812	2159010538	218726	854.85	364.34	5	84	-1	12.94	12.94
Fixation R	1	4	2158791812	2159010538	218726	854.85	364.34	5	84	-1	12.02	12.02
Saccade L	1	4	2159010538	2159030426	19888	856.79	400.82	875.33	400.32	0.20	18.77	1.00	10.28	377.25	221.82	317.92
Saccade R	1	4	2159010538	2159030426	19888	856.79	400.82	875.33	400.32	0.20	18.77	1.00	10.28	377.25	221.82	317.92
Fixation L	1	5	2159030426	2159825997	795571	865.07	434.88	33	64	-1	13.64	13.64
Fixation R	1	5	2159030426	2159825997	795571	865.07	434.88	33	64	-1	12.03	12.03
Saccade L	1	5	2159825997	2159845992	19995	862.21	448.33	895.50	387.00	0.51	70.59	1.00	25.73	1657.50	0.00	828.75
Saccade R	1	5	2159825997	2159845992	19995	862.21	448.33	895.50	387.00	0.51	70.59	1.00	25.73	1657.50	0.00	828.75
