[BeGaze]
Converted from:	C:\Documents and Settings\iViewX\Desktop\EXPERIMENTATIONS\Experiments\results\finaleart\S02123220-finaleart-1.idf
Date:	27.03.2019 15:33:40
Version:	BeGaze 2.5.77
Sample Rate:	50
Subject:	S02123220
Description:	David Xu

Table Header for Fixations:
Event Type	Trial	Number	Start	End	Duration	Location X	Location Y	Dispersion X	Dispersion Y	Plane	Avg. Pupil Size X	Avg. Pupil Size Y

Table Header for Saccades:
Event Type	Trial	Number	Start	End	Duration	Start Loc.X	Start Loc.Y	End Loc.X	End Loc.Y	Amplitude	Peak Speed	Peak Speed At	Average Speed	Peak Accel.	Peak Decel.	Average Accel.

Table Header for Blinks:
Event Type	Trial	Number	Start	End	Duration

Table Header for User Events:
Event Type	Trial	Number	Start	Description

UserEvent	1	1	1532902419	# Message: basket-of-fruits-Manet-1864.jpg
Fixation L	1	1	1532907963	1533385325	477362	907.35	447.01	22	30	-1	14.25	14.25
Fixation R	1	1	1532907963	1533385325	477362	907.35	447.01	22	30	-1	12.15	12.15
Saccade L	1	1	1533385325	1533445052	59727	900.89	453.34	982.27	465.91	2.06	73.88	0.33	34.55	1634.10	-1614.50	1006.30
Saccade R	1	1	1533385325	1533445052	59727	900.89	453.34	982.27	465.91	2.06	73.88	0.33	34.55	1634.10	-1614.50	1006.30
Fixation L	1	2	1533445052	1533584295	139243	976.89	445.87	18	68	-1	13.67	13.67
Fixation R	1	2	1533445052	1533584295	139243	976.89	445.87	18	68	-1	11.20	11.20
Saccade L	1	2	1533584295	1533624038	39743	980.93	462.74	898.73	727.98	3.08	180.01	0.50	77.45	4101.89	-3911.50	2603.81
Saccade R	1	2	1533584295	1533624038	39743	980.93	462.74	898.73	727.98	3.08	180.01	0.50	77.45	4101.89	-3911.50	2603.81
Fixation L	1	3	1533624038	1533783154	159116	931.69	735.54	56	32	-1	13.56	13.56
Fixation R	1	3	1533624038	1533783154	159116	931.69	735.54	56	32	-1	9.56	9.56
Saccade L	1	3	1533783154	1533822902	39748	941.89	739.90	969.67	843.32	1.49	58.12	1.00	37.52	1171.14	-931.77	736.26
Blink R	1	1	1533783154	1533882518	99364
Fixation L	1	4	1533822902	1534081509	258607	994.72	868.87	30	41	-1	13.47	13.47
Fixation R	1	4	1533882518	1534081509	198991	997.23	871.79	7	26	-1	11.39	11.39
Saccade L	1	4	1534081509	1534180883	99374	994.63	884.72	903.83	463.02	6.70	138.69	0.80	67.42	2982.84	-2603.69	1625.00
Saccade R	1	3	1534081509	1534180883	99374	994.63	884.72	903.83	463.02	6.70	138.69	0.80	67.42	2982.84	-2603.69	1625.00
Fixation L	1	5	1534180883	1534499119	318236	876.80	434.98	39	57	-1	13.62	13.62
Fixation R	1	5	1534180883	1534499119	318236	876.80	434.98	39	57	-1	14.31	14.31
Saccade L	1	5	1534499119	1534519102	19983	891.05	451.12	1064.05	452.20	1.16	174.96	1.00	58.22	4294.94	-4351.06	2955.44
Saccade R	1	4	1534499119	1534519102	19983	891.05	451.12	1064.05	452.20	1.16	174.96	1.00	58.22	4294.94	-4351.06	2955.44
Fixation L	1	6	1534519102	1534658240	139138	1088.98	465.57	51	46	-1	13.99	13.99
Fixation R	1	6	1534519102	1534658240	139138	1088.98	465.57	51	46	-1	13.70	13.70
Saccade L	1	6	1534658240	1534737849	79609	1101.16	493.78	1276.74	756.74	5.97	249.42	0.75	74.96	5863.02	-5862.29	2865.64
Saccade R	1	5	1534658240	1534737849	79609	1101.16	493.78	1276.74	756.74	5.97	249.42	0.75	74.96	5863.02	-5862.29	2865.64
Fixation L	1	7	1534737849	1534996486	258637	1276.31	776.59	25	30	-1	14.85	14.85
Fixation R	1	7	1534737849	1534996486	258637	1276.31	776.59	25	30	-1	12.64	12.64
Saccade L	1	7	1534996486	1535016326	19840	1282.30	785.43	1295.76	667.70	0.70	119.86	1.00	35.42	2810.43	-2819.31	1920.10
Saccade R	1	6	1534996486	1535016326	19840	1282.30	785.43	1295.76	667.70	0.70	119.86	1.00	35.42	2810.43	-2819.31	1920.10
Fixation L	1	8	1535016326	1535334553	318227	1328.86	650.83	51	28	-1	14.50	14.50
Fixation R	1	8	1535016326	1535334553	318227	1328.86	650.83	51	28	-1	13.01	13.01
Saccade L	1	8	1535334553	1535374304	39751	1313.32	638.74	1007.29	558.59	3.12	164.37	0.50	78.48	3914.46	-3682.37	3522.96
Saccade R	1	7	1535334553	1535374304	39751	1313.32	638.74	1007.29	558.59	3.12	164.37	0.50	78.48	3914.46	-3682.37	3522.96
Fixation L	1	9	1535374304	1535652790	278486	992.07	530.08	24	55	-1	14.62	14.62
Fixation R	1	9	1535374304	1535652790	278486	992.07	530.08	24	55	-1	14.23	14.23
Saccade L	1	9	1535652790	1535672670	19880	993.97	522.89	944.41	479.81	0.62	66.43	1.00	31.26	1412.25	-1395.10	1209.43
Saccade R	1	8	1535652790	1535672670	19880	993.97	522.89	944.41	479.81	0.62	66.43	1.00	31.26	1412.25	-1395.10	1209.43
Fixation L	1	10	1535672670	1535911403	238733	896.80	457.37	63	36	-1	14.76	14.76
Fixation R	1	10	1535672670	1535911403	238733	896.80	457.37	63	36	-1	15.13	15.13
Saccade L	1	10	1535911403	1535931273	19870	883.18	443.08	881.78	441.34	0.08	5.09	1.00	4.28	25.10	-70.54	33.02
Saccade R	1	9	1535911403	1535931273	19870	883.18	443.08	881.78	441.34	0.08	5.09	1.00	4.28	25.10	-70.54	33.02
Fixation L	1	11	1535931273	1536050524	119251	883.14	436.87	16	7	-1	14.92	14.92
Fixation R	1	11	1535931273	1536050524	119251	883.14	436.87	16	7	-1	15.47	15.47
Saccade L	1	11	1536050524	1536070519	19995	895.53	433.79	987.85	438.63	0.62	93.51	1.00	30.83	2144.78	-2025.82	1462.16
Saccade R	1	10	1536050524	1536070519	19995	895.53	433.79	987.85	438.63	0.62	93.51	1.00	30.83	2144.78	-2025.82	1462.16
Fixation L	1	12	1536070519	1536408612	338093	1004.08	468.68	38	59	-1	15.51	15.51
Fixation R	1	12	1536070519	1536408612	338093	1004.08	468.68	38	59	-1	15.56	15.56
Saccade L	1	12	1536408612	1536428486	19874	1025.94	479.72	1064.18	475.37	0.57	44.86	1.00	28.69	712.98	-414.68	578.46
Saccade R	1	11	1536408612	1536428486	19874	1025.94	479.72	1064.18	475.37	0.57	44.86	1.00	28.69	712.98	-414.68	578.46
Fixation L	1	13	1536428486	1536905852	477366	1034.96	485.08	47	26	-1	16.06	16.06
Fixation R	1	13	1536428486	1536905852	477366	1034.96	485.08	47	26	-1	16.11	16.11
