[BeGaze]
Converted from:	C:\Documents and Settings\iViewX\Desktop\EXPERIMENTATIONS\Experiments\results\finaleart\S02123220-finaleart-1.idf
Date:	27.03.2019 15:33:42
Version:	BeGaze 2.5.77
Sample Rate:	50
Subject:	S02123220
Description:	David Xu

Table Header for Fixations:
Event Type	Trial	Number	Start	End	Duration	Location X	Location Y	Dispersion X	Dispersion Y	Plane	Avg. Pupil Size X	Avg. Pupil Size Y

Table Header for Saccades:
Event Type	Trial	Number	Start	End	Duration	Start Loc.X	Start Loc.Y	End Loc.X	End Loc.Y	Amplitude	Peak Speed	Peak Speed At	Average Speed	Peak Accel.	Peak Decel.	Average Accel.

Table Header for Blinks:
Event Type	Trial	Number	Start	End	Duration

Table Header for User Events:
Event Type	Trial	Number	Start	Description

UserEvent	1	1	1762982098	# Message: void.jpg
Saccade L	1	1	1762999271	1763019140	19869	948.12	572.89	818.75	681.41	1.51	170.78	1.00	75.82	1417.17	-4005.88	1807.68
Saccade R	1	1	1762999271	1763019140	19869	948.12	572.89	818.75	681.41	1.51	170.78	1.00	75.82	1417.17	-4005.88	1807.68
Fixation L	1	1	1763019140	1763118640	99500	782.90	718.16	46	48	-1	14.21	14.21
Fixation R	1	1	1763019140	1763118640	99500	782.90	718.16	46	48	-1	14.70	14.70
Saccade L	1	2	1763118640	1763138522	19882	772.13	729.65	766.50	730.70	0.08	5.79	1.00	3.82	62.95	-44.70	47.65
Saccade R	1	2	1763118640	1763138522	19882	772.13	729.65	766.50	730.70	0.08	5.79	1.00	3.82	62.95	-44.70	47.65
Fixation L	1	2	1763138522	1763456731	318209	766.08	730.09	8	12	-1	14.30	14.30
Fixation R	1	2	1763138522	1763456731	318209	766.08	730.09	8	12	-1	14.91	14.91
Saccade L	1	3	1763456731	1763496481	39750	768.71	725.44	1010.78	661.85	2.52	148.33	0.50	63.37	3565.86	-2478.45	2743.98
Saccade R	1	3	1763456731	1763496481	39750	768.71	725.44	1010.78	661.85	2.52	148.33	0.50	63.37	3565.86	-2478.45	2743.98
Fixation L	1	3	1763496481	1763635724	139243	1038.61	631.35	35	45	-1	13.65	13.65
Fixation R	1	3	1763496481	1763635724	139243	1038.61	631.35	35	45	-1	13.69	13.69
Blink L	1	1	1763635724	1763914214	278490
Blink R	1	1	1763635724	1763914214	278490
Fixation L	1	4	1763914214	1764172824	258610	1016.90	405.00	46	49	-1	13.26	13.26
Fixation R	1	4	1763914214	1764172824	258610	1016.90	405.00	46	49	-1	13.21	13.21
Saccade L	1	4	1764172824	1764192687	19863	998.23	425.38	994.33	425.88	0.09	6.32	0.00	4.38	178.65	-37.00	85.25
Saccade R	1	4	1764172824	1764192687	19863	998.23	425.38	994.33	425.88	0.09	6.32	0.00	4.38	178.65	-37.00	85.25
Fixation L	1	5	1764192687	1764968416	775729	1004.71	442.16	21	29	-1	14.24	14.24
Fixation R	1	5	1764192687	1764968416	775729	1004.71	442.16	21	29	-1	13.85	13.85
