[BeGaze]
Converted from:	C:\Documents and Settings\iViewX\Desktop\EXPERIMENTATIONS\Experiments\results\finaleart\S02123220-finaleart-1.idf
Date:	27.03.2019 15:33:39
Version:	BeGaze 2.5.77
Sample Rate:	50
Subject:	S02123220
Description:	David Xu

Table Header for Fixations:
Event Type	Trial	Number	Start	End	Duration	Location X	Location Y	Dispersion X	Dispersion Y	Plane	Avg. Pupil Size X	Avg. Pupil Size Y

Table Header for Saccades:
Event Type	Trial	Number	Start	End	Duration	Start Loc.X	Start Loc.Y	End Loc.X	End Loc.Y	Amplitude	Peak Speed	Peak Speed At	Average Speed	Peak Accel.	Peak Decel.	Average Accel.

Table Header for Blinks:
Event Type	Trial	Number	Start	End	Duration

Table Header for User Events:
Event Type	Trial	Number	Start	Description

UserEvent	1	1	1494246761	# Message: void.jpg
Fixation L	1	1	1494262176	1494361547	99371	1051.77	657.63	13	75	-1	12.96	12.96
Fixation R	1	1	1494262176	1494361547	99371	1051.77	657.63	13	75	-1	10.15	10.15
Saccade L	1	1	1494361547	1494381572	20025	1043.62	695.57	1037.90	705.45	0.18	11.54	1.00	9.08	86.91	-84.26	62.02
Saccade R	1	1	1494361547	1494381572	20025	1043.62	695.57	1037.90	705.45	0.18	11.54	1.00	9.08	86.91	-84.26	62.02
Fixation L	1	2	1494381572	1494500786	119214	1025.42	706.82	23	21	-1	12.65	12.65
Fixation R	1	2	1494381572	1494500786	119214	1025.42	706.82	23	21	-1	9.57	9.57
Saccade L	1	2	1494500786	1494520783	19997	1025.61	719.40	1147.33	746.93	0.79	126.23	1.00	39.29	3038.78	-2816.43	2071.08
Saccade R	1	2	1494500786	1494520783	19997	1025.61	719.40	1147.33	746.93	0.79	126.23	1.00	39.29	3038.78	-2816.43	2071.08
Fixation L	1	3	1494520783	1494679893	159110	1142.13	767.54	7	36	-1	12.49	12.49
Fixation R	1	3	1494520783	1494679893	159110	1142.13	767.54	7	36	-1	8.34	8.34
Blink L	1	1	1494679893	1494998143	318250
Blink R	1	1	1494679893	1494998143	318250
Fixation L	1	4	1494998143	1495654477	656334	1004.95	428.93	46	39	-1	12.52	12.52
Fixation R	1	4	1494998143	1495654477	656334	1004.95	428.93	46	39	-1	12.08	12.08
Saccade L	1	3	1495654477	1495674337	19860	995.74	453.78	958.42	439.17	0.67	61.77	1.00	33.93	1050.54	-786.25	836.26
Saccade R	1	3	1495654477	1495674337	19860	995.74	453.78	958.42	439.17	0.67	61.77	1.00	33.93	1050.54	-786.25	836.26
Fixation L	1	5	1495674337	1496231192	556855	905.30	434.42	60	27	-1	13.54	13.54
Fixation R	1	5	1495674337	1496231192	556855	905.30	434.42	60	27	-1	13.19	13.19
