[BeGaze]
Converted from:	C:\Documents and Settings\iViewX\Desktop\EXPERIMENTATIONS\Experiments\results\finaleart\S02123220-finaleart-1.idf
Date:	27.03.2019 15:33:34
Version:	BeGaze 2.5.77
Sample Rate:	50
Subject:	S02123220
Description:	David Xu

Table Header for Fixations:
Event Type	Trial	Number	Start	End	Duration	Location X	Location Y	Dispersion X	Dispersion Y	Plane	Avg. Pupil Size X	Avg. Pupil Size Y

Table Header for Saccades:
Event Type	Trial	Number	Start	End	Duration	Start Loc.X	Start Loc.Y	End Loc.X	End Loc.Y	Amplitude	Peak Speed	Peak Speed At	Average Speed	Peak Accel.	Peak Decel.	Average Accel.

Table Header for Blinks:
Event Type	Trial	Number	Start	End	Duration

Table Header for User Events:
Event Type	Trial	Number	Start	Description

UserEvent	1	1	1088815654	# Message: Nature_Morte_Au_Citron_Matisse_1917.jpg
Fixation L	1	1	1088835133	1089252875	417742	962.99	418.31	5	37	-1	15.19	15.19
Fixation R	1	1	1088835133	1089252875	417742	962.99	418.31	5	37	-1	13.78	13.78
Saccade L	1	1	1089252875	1089292607	39732	962.73	421.10	746.93	450.88	1.88	157.22	1.00	47.43	3875.77	-3821.38	2725.22
Saccade R	1	1	1089252875	1089292607	39732	962.73	421.10	746.93	450.88	1.88	157.22	1.00	47.43	3875.77	-3821.38	2725.22
Fixation L	1	2	1089292607	1089590993	298386	729.92	457.83	76	23	-1	14.04	14.04
Fixation R	1	2	1089292607	1089590993	298386	729.92	457.83	76	23	-1	13.36	13.36
Saccade L	1	2	1089590993	1089610838	19845	694.55	469.51	688.18	473.12	0.15	9.60	1.00	7.45	78.02	-54.87	56.91
Saccade R	1	2	1089590993	1089610838	19845	694.55	469.51	688.18	473.12	0.15	9.60	1.00	7.45	78.02	-54.87	56.91
Fixation L	1	3	1089610838	1089769956	159118	674.89	479.38	20	23	-1	13.40	13.40
Fixation R	1	3	1089610838	1089769956	159118	674.89	479.38	20	23	-1	13.05	13.05
Saccade L	1	3	1089769956	1089809706	39750	674.17	493.16	714.00	644.26	1.76	115.34	0.50	44.27	2786.37	-1846.74	1594.67
Saccade R	1	3	1089769956	1089809706	39750	674.17	493.16	714.00	644.26	1.76	115.34	0.50	44.27	2786.37	-1846.74	1594.67
Fixation L	1	4	1089809706	1089929064	119358	714.54	659.16	36	61	-1	14.10	14.10
Fixation R	1	4	1089809706	1089929064	119358	714.54	659.16	36	61	-1	13.10	13.10
Saccade L	1	4	1089929064	1090167677	238613	701.34	623.68	1164.51	616.98	14.16	269.44	1.00	59.34	6554.03	-6573.81	2449.13
Saccade R	1	4	1089929064	1090167677	238613	701.34	623.68	1164.51	616.98	14.16	269.44	1.00	59.34	6554.03	-6573.81	2449.13
Fixation L	1	5	1090167677	1090287045	119368	1193.02	624.01	41	16	-1	14.74	14.74
Fixation R	1	5	1090167677	1090287045	119368	1193.02	624.01	41	16	-1	12.99	12.99
Saccade L	1	5	1090287045	1090306907	19862	1206.49	624.99	1206.80	690.37	0.71	66.14	1.00	35.55	1493.35	-1424.81	1448.04
Saccade R	1	5	1090287045	1090306907	19862	1206.49	624.99	1206.80	690.37	0.71	66.14	1.00	35.55	1493.35	-1424.81	1448.04
Fixation L	1	6	1090306907	1090406410	99503	1208.52	634.41	2	75	-1	14.86	14.86
Fixation R	1	6	1090306907	1090406410	99503	1208.52	634.41	2	75	-1	13.08	13.08
Saccade L	1	6	1090406410	1090446162	39752	1209.41	624.75	933.62	854.48	3.16	197.94	1.00	79.38	4825.67	-4670.83	4279.76
Saccade R	1	6	1090406410	1090446162	39752	1209.41	624.75	933.62	854.48	3.16	197.94	1.00	79.38	4825.67	-4670.83	4279.76
Fixation L	1	7	1090446162	1090605277	159115	945.70	862.46	20	30	-1	14.79	14.79
Fixation R	1	7	1090446162	1090605277	159115	945.70	862.46	20	30	-1	12.87	12.87
Saccade L	1	7	1090605277	1090625145	19868	944.98	865.36	816.14	878.81	0.87	131.02	1.00	43.71	3020.97	-2473.75	1897.95
Saccade R	1	7	1090605277	1090625145	19868	944.98	865.36	816.14	878.81	0.87	131.02	1.00	43.71	3020.97	-2473.75	1897.95
Fixation L	1	8	1090625145	1090963381	338236	800.13	922.80	22	68	-1	14.45	14.45
Fixation R	1	8	1090625145	1090963381	338236	800.13	922.80	22	68	-1	12.93	12.93
Saccade L	1	8	1090963381	1091023000	59619	795.38	943.79	688.18	816.50	2.79	102.68	0.67	46.75	2481.07	-1790.53	1403.53
Saccade R	1	8	1090963381	1091023000	59619	795.38	943.79	688.18	816.50	2.79	102.68	0.67	46.75	2481.07	-1790.53	1403.53
Fixation L	1	9	1091023000	1091221864	198864	693.33	760.45	8	76	-1	14.37	14.37
Fixation R	1	9	1091023000	1091221864	198864	693.33	760.45	8	76	-1	13.71	13.71
Saccade L	1	9	1091221864	1091261609	39745	688.27	739.74	1160.68	606.60	4.39	282.27	0.50	110.43	7018.06	-6146.85	5752.04
Saccade R	1	9	1091221864	1091261609	39745	688.27	739.74	1160.68	606.60	4.39	282.27	0.50	110.43	7018.06	-6146.85	5752.04
Fixation L	1	10	1091261609	1091540090	278481	1175.18	581.87	20	39	-1	15.08	15.08
Fixation R	1	10	1091261609	1091540090	278481	1175.18	581.87	20	39	-1	13.22	13.22
Saccade L	1	10	1091540090	1091559973	19883	1180.57	582.52	1338.95	580.24	0.88	160.20	1.00	44.19	3983.39	-3693.66	2583.22
Saccade R	1	10	1091540090	1091559973	19883	1180.57	582.52	1338.95	580.24	0.88	160.20	1.00	44.19	3983.39	-3693.66	2583.22
Fixation L	1	11	1091559973	1091838449	278476	1336.72	592.22	23	63	-1	15.58	15.58
Fixation R	1	11	1091559973	1091838449	278476	1336.72	592.22	23	63	-1	12.79	12.79
Saccade L	1	11	1091838449	1091898198	59749	1325.13	595.26	959.85	592.24	4.03	244.16	0.67	67.46	5738.01	-5951.78	3360.37
Saccade R	1	11	1091838449	1091898198	59749	1325.13	595.26	959.85	592.24	4.03	244.16	0.67	67.46	5738.01	-5951.78	3360.37
Fixation L	1	12	1091898198	1092057311	159113	956.50	590.93	19	16	-1	15.37	15.37
Fixation R	1	12	1091898198	1092057311	159113	956.50	590.93	19	16	-1	13.87	13.87
Saccade L	1	12	1092057311	1092097058	39747	940.52	590.00	747.52	515.93	2.10	166.21	0.50	52.80	4121.59	-3664.94	2526.21
Saccade R	1	12	1092057311	1092097058	39747	940.52	590.00	747.52	515.93	2.10	166.21	0.50	52.80	4121.59	-3664.94	2526.21
Fixation L	1	13	1092097058	1092395411	298353	736.42	501.07	14	20	-1	15.03	15.03
Fixation R	1	13	1092097058	1092395411	298353	736.42	501.07	14	20	-1	14.34	14.34
Saccade L	1	13	1092395411	1092415294	19883	735.05	499.35	645.67	492.26	0.58	90.69	1.00	29.02	2232.43	-1844.98	1542.56
Saccade R	1	13	1092395411	1092415294	19883	735.05	499.35	645.67	492.26	0.58	90.69	1.00	29.02	2232.43	-1844.98	1542.56
Fixation L	1	14	1092415294	1092673894	258600	635.97	469.73	12	30	-1	14.88	14.88
Fixation R	1	14	1092415294	1092673894	258600	635.97	469.73	12	30	-1	14.47	14.47
Saccade L	1	14	1092673894	1092713648	39754	636.12	461.35	830.59	681.82	2.58	207.82	1.00	64.86	5154.67	-5136.95	3917.59
Saccade R	1	14	1092673894	1092713648	39754	636.12	461.35	830.59	681.82	2.58	207.82	1.00	64.86	5154.67	-5136.95	3917.59
Fixation L	1	15	1092713648	1092813016	99368	826.26	679.47	6	4	-1	15.34	15.34
Fixation R	1	15	1092713648	1092813016	99368	826.26	679.47	6	4	-1	14.47	14.47
