[BeGaze]
Converted from:	C:\Documents and Settings\iViewX\Desktop\EXPERIMENTATIONS\Experiments\results\finaleart\S02123220-finaleart-1.idf
Date:	27.03.2019 15:33:42
Version:	BeGaze 2.5.77
Sample Rate:	50
Subject:	S02123220
Description:	David Xu

Table Header for Fixations:
Event Type	Trial	Number	Start	End	Duration	Location X	Location Y	Dispersion X	Dispersion Y	Plane	Avg. Pupil Size X	Avg. Pupil Size Y

Table Header for Saccades:
Event Type	Trial	Number	Start	End	Duration	Start Loc.X	Start Loc.Y	End Loc.X	End Loc.Y	Amplitude	Peak Speed	Peak Speed At	Average Speed	Peak Accel.	Peak Decel.	Average Accel.

Table Header for Blinks:
Event Type	Trial	Number	Start	End	Duration

Table Header for User Events:
Event Type	Trial	Number	Start	Description

UserEvent	1	1	1752802448	# Message: the_three_skulls_gericault_1814.jpg
Fixation L	1	1	1752815765	1753233373	417608	969.51	463.43	12	31	-1	14.97	14.97
Fixation R	1	1	1752815765	1753233373	417608	969.51	463.43	12	31	-1	13.50	13.50
Saccade L	1	1	1753233373	1753273240	39867	966.18	465.84	1088.03	559.26	1.57	130.20	0.50	39.37	3081.51	-2745.14	1695.70
Saccade R	1	1	1753233373	1753273240	39867	966.18	465.84	1088.03	559.26	1.57	130.20	0.50	39.37	3081.51	-2745.14	1695.70
Fixation L	1	2	1753273240	1753511840	238600	1121.89	588.35	51	45	-1	14.65	14.65
Fixation R	1	2	1753273240	1753511840	238600	1121.89	588.35	51	45	-1	12.53	12.53
Saccade L	1	2	1753511840	1753551591	39751	1109.59	594.02	622.26	580.46	4.55	282.93	0.50	114.36	6858.79	-5861.68	5612.41
Saccade R	1	2	1753511840	1753551591	39751	1109.59	594.02	622.26	580.46	4.55	282.93	0.50	114.36	6858.79	-5861.68	5612.41
Fixation L	1	3	1753551591	1753770455	218864	576.45	568.05	55	21	-1	14.17	14.17
Fixation R	1	3	1753551591	1753770455	218864	576.45	568.05	55	21	-1	13.44	13.44
Saccade L	1	3	1753770455	1753810220	39765	568.00	559.42	356.17	557.56	1.90	120.03	0.50	47.77	2927.64	-2530.49	2461.71
Saccade R	1	3	1753770455	1753810220	39765	568.00	559.42	356.17	557.56	1.90	120.03	0.50	47.77	2927.64	-2530.49	2461.71
Fixation L	1	4	1753810220	1754208045	397825	378.05	536.13	34	30	-1	14.40	14.40
Fixation R	1	4	1753810220	1754208045	397825	378.05	536.13	34	30	-1	14.41	14.41
Saccade L	1	4	1754208045	1754267671	59626	390.44	533.19	1104.76	549.05	7.36	287.80	0.67	123.51	7130.60	-6853.30	5325.84
Saccade R	1	4	1754208045	1754267671	59626	390.44	533.19	1104.76	549.05	7.36	287.80	0.67	123.51	7130.60	-6853.30	5325.84
Fixation L	1	5	1754267671	1754566030	298359	1109.75	549.50	44	26	-1	15.17	15.17
Fixation R	1	5	1754267671	1754566030	298359	1109.75	549.50	44	26	-1	12.71	12.71
Saccade L	1	5	1754566030	1754665398	99368	1143.64	549.81	1150.63	601.54	4.37	124.78	0.20	43.94	2903.92	-2832.49	1355.86
Saccade R	1	5	1754566030	1754665398	99368	1143.64	549.81	1150.63	601.54	4.37	124.78	0.20	43.94	2903.92	-2832.49	1355.86
Fixation L	1	6	1754665398	1754784771	119373	1150.14	608.23	39	24	-1	14.82	14.82
Fixation R	1	6	1754665398	1754784771	119373	1150.14	608.23	39	24	-1	9.78	9.78
Saccade L	1	6	1754784771	1754924002	139231	1164.16	604.89	1135.09	665.69	4.60	85.87	0.14	33.05	2005.21	-1880.06	1007.91
Saccade R	1	6	1754784771	1754924002	139231	1164.16	604.89	1135.09	665.69	4.60	85.87	0.14	33.05	2005.21	-1880.06	1007.91
Fixation L	1	7	1754924002	1755122861	198859	1134.75	671.70	46	48	-1	14.94	14.94
Fixation R	1	7	1754924002	1755122861	198859	1134.75	671.70	46	48	-1	11.21	11.21
Saccade L	1	7	1755122861	1755142863	20002	1112.50	677.24	1045.88	641.31	0.67	76.57	1.00	33.40	1736.48	-1384.32	1217.74
Saccade R	1	7	1755122861	1755142863	20002	1112.50	677.24	1045.88	641.31	0.67	76.57	1.00	33.40	1736.48	-1384.32	1217.74
Fixation L	1	8	1755142863	1755242240	99377	1054.20	605.62	21	63	-1	15.05	15.05
Fixation R	1	8	1755142863	1755242240	99377	1054.20	605.62	21	63	-1	12.24	12.24
Saccade L	1	8	1755242240	1755341725	99485	1062.19	604.96	1622.69	535.82	7.58	186.97	0.40	76.17	4330.76	-2760.14	1993.20
Blink R	1	1	1755242240	1755361604	119364
Fixation L	1	9	1755341725	1755620204	278479	1613.13	576.90	24	71	-1	15.38	15.38
Fixation R	1	9	1755361604	1755620204	258600	1612.44	579.84	24	70	-1	11.92	11.92
Saccade L	1	9	1755620204	1755679832	59628	1604.66	601.17	1452.30	704.15	2.69	105.27	0.67	45.16	2298.23	-1830.35	1516.97
Saccade R	1	8	1755620204	1755679832	59628	1604.66	601.17	1452.30	704.15	2.69	105.27	0.67	45.16	2298.23	-1830.35	1516.97
Fixation L	1	10	1755679832	1755858839	179007	1470.20	706.13	31	15	-1	16.06	16.06
Fixation R	1	10	1755679832	1755858839	179007	1470.20	706.13	31	15	-1	12.69	12.69
Saccade L	1	10	1755858839	1755938442	79603	1465.41	707.33	511.05	553.19	11.37	365.18	0.50	142.86	9011.69	-6941.30	5307.31
Saccade R	1	9	1755858839	1755938442	79603	1465.41	707.33	511.05	553.19	11.37	365.18	0.50	142.86	9011.69	-6941.30	5307.31
Fixation L	1	11	1755938442	1756256679	318237	519.21	559.01	45	20	-1	15.45	15.45
Fixation R	1	11	1755938442	1756256679	318237	519.21	559.01	45	20	-1	16.16	16.16
Saccade L	1	11	1756256679	1756296425	39746	517.44	571.24	978.20	553.62	4.59	330.92	1.00	115.46	7940.86	-7986.51	5065.30
Saccade R	1	10	1756256679	1756296425	39746	517.44	571.24	978.20	553.62	4.59	330.92	1.00	115.46	7940.86	-7986.51	5065.30
Fixation L	1	12	1756296425	1756415788	119363	1047.97	547.25	85	14	-1	15.49	15.49
Fixation R	1	12	1756296425	1756415788	119363	1047.97	547.25	85	14	-1	15.26	15.26
Saccade L	1	12	1756415788	1756435661	19873	1059.96	542.42	1064.18	542.41	0.07	6.06	1.00	3.70	-15.79	-44.72	32.52
Saccade R	1	11	1756415788	1756435661	19873	1059.96	542.42	1064.18	542.41	0.07	6.06	1.00	3.70	-15.79	-44.72	32.52
Fixation L	1	13	1756435661	1756555051	119390	1062.43	544.79	4	7	-1	15.52	15.52
Fixation R	1	13	1756435661	1756555051	119390	1062.43	544.79	4	7	-1	15.28	15.28
Saccade L	1	13	1756555051	1756574902	19851	1060.87	549.96	1191.67	643.63	1.08	162.71	1.00	54.37	4041.26	-3115.00	2765.49
Saccade R	1	12	1756555051	1756574902	19851	1060.87	549.96	1191.67	643.63	1.08	162.71	1.00	54.37	4041.26	-3115.00	2765.49
Fixation L	1	14	1756574902	1756793639	218737	1174.07	689.55	37	58	-1	15.96	15.96
Fixation R	1	14	1756574902	1756793639	218737	1174.07	689.55	37	58	-1	15.23	15.23
