[BeGaze]
Converted from:	C:\Documents and Settings\iViewX\Desktop\EXPERIMENTATIONS\Experiments\results\finaleart\S02123220-finaleart-1.idf
Date:	27.03.2019 15:33:42
Version:	BeGaze 2.5.77
Sample Rate:	50
Subject:	S02123220
Description:	David Xu

Table Header for Fixations:
Event Type	Trial	Number	Start	End	Duration	Location X	Location Y	Dispersion X	Dispersion Y	Plane	Avg. Pupil Size X	Avg. Pupil Size Y

Table Header for Saccades:
Event Type	Trial	Number	Start	End	Duration	Start Loc.X	Start Loc.Y	End Loc.X	End Loc.Y	Amplitude	Peak Speed	Peak Speed At	Average Speed	Peak Accel.	Peak Decel.	Average Accel.

Table Header for Blinks:
Event Type	Trial	Number	Start	End	Duration

Table Header for User Events:
Event Type	Trial	Number	Start	Description

UserEvent	1	1	1758899197	# Message: The_Luxembourg_Gardens_Matisse_1901.jpg
Fixation L	1	1	1758902021	1759399242	497221	1019.09	491.97	28	52	-1	14.08	14.08
Fixation R	1	1	1758902021	1759399242	497221	1019.09	491.97	28	52	-1	14.37	14.37
Saccade L	1	1	1759399242	1759419127	19885	997.31	526.43	870.75	570.85	0.86	135.67	1.00	43.23	3225.63	-3165.17	2262.15
Saccade R	1	1	1759399242	1759419127	19885	997.31	526.43	870.75	570.85	0.86	135.67	1.00	43.23	3225.63	-3165.17	2262.15
Fixation L	1	2	1759419127	1759737343	318216	883.27	587.90	52	30	-1	13.15	13.15
Fixation R	1	2	1759419127	1759737343	318216	883.27	587.90	52	30	-1	13.91	13.91
Saccade L	1	2	1759737343	1759777093	39750	851.69	569.62	711.23	514.01	2.11	129.46	0.50	52.96	2918.32	-2514.35	1626.33
Saccade R	1	2	1759737343	1759777093	39750	851.69	569.62	711.23	514.01	2.11	129.46	0.50	52.96	2918.32	-2514.35	1626.33
Fixation L	1	3	1759777093	1759916322	139229	711.55	479.23	12	43	-1	12.56	12.56
Fixation R	1	3	1759777093	1759916322	139229	711.55	479.23	12	43	-1	13.43	13.43
Saccade L	1	3	1759916322	1759956079	39757	708.46	470.13	484.18	465.19	1.94	143.65	1.00	48.76	3507.95	-3462.78	2699.45
Saccade R	1	3	1759916322	1759956079	39757	708.46	470.13	484.18	465.19	1.94	143.65	1.00	48.76	3507.95	-3462.78	2699.45
Fixation L	1	4	1759956079	1760155060	198981	472.30	459.62	16	10	-1	12.61	12.61
Fixation R	1	4	1759956079	1760155060	198981	472.30	459.62	16	10	-1	13.86	13.86
Saccade L	1	4	1760155060	1760234562	79502	478.25	462.78	1447.27	449.90	11.28	399.88	0.75	141.91	8867.45	-9908.72	6175.63
Saccade R	1	4	1760155060	1760234562	79502	478.25	462.78	1447.27	449.90	11.28	399.88	0.75	141.91	8867.45	-9908.72	6175.63
Fixation L	1	5	1760234562	1760652288	417726	1467.91	453.83	32	48	-1	13.49	13.49
Fixation R	1	5	1760234562	1760652288	417726	1467.91	453.83	32	48	-1	12.85	12.85
Saccade L	1	5	1760652288	1760672159	19871	1470.07	440.50	1636.71	516.21	1.26	185.10	1.00	63.61	4522.37	-4368.25	3023.74
Saccade R	1	5	1760652288	1760672159	19871	1470.07	440.50	1636.71	516.21	1.26	185.10	1.00	63.61	4522.37	-4368.25	3023.74
Fixation L	1	6	1760672159	1760871024	198865	1655.10	547.86	32	36	-1	13.85	13.85
Fixation R	1	6	1760672159	1760871024	198865	1655.10	547.86	32	36	-1	12.11	12.11
Saccade L	1	6	1760871024	1760910892	39868	1668.90	551.90	1307.64	552.57	3.05	182.92	0.50	76.56	4427.95	-4454.04	4410.67
Saccade R	1	6	1760871024	1760910892	39868	1668.90	551.90	1307.64	552.57	3.05	182.92	0.50	76.56	4427.95	-4454.04	4410.67
Fixation L	1	7	1760910892	1761209251	298359	1300.75	560.55	12	16	-1	14.16	14.16
Fixation R	1	7	1760910892	1761209251	298359	1300.75	560.55	12	16	-1	13.32	13.32
Saccade L	1	7	1761209251	1761249015	39764	1299.11	568.97	1022.49	570.28	2.39	157.02	1.00	60.10	3832.72	-3904.63	3368.64
Saccade R	1	7	1761209251	1761249015	39764	1299.11	568.97	1022.49	570.28	2.39	157.02	1.00	60.10	3832.72	-3904.63	3368.64
Fixation L	1	8	1761249015	1761368377	119362	1008.71	569.18	18	3	-1	13.76	13.76
Fixation R	1	8	1761249015	1761368377	119362	1008.71	569.18	18	3	-1	13.64	13.64
Saccade L	1	8	1761368377	1761408111	39734	1003.76	566.90	755.02	773.86	2.65	190.04	0.50	66.59	4737.31	-4699.32	3957.84
Saccade R	1	8	1761368377	1761408111	39734	1003.76	566.90	755.02	773.86	2.65	190.04	0.50	66.59	4737.31	-4699.32	3957.84
Fixation L	1	9	1761408111	1761646717	238606	743.70	773.38	23	20	-1	13.81	13.81
Fixation R	1	9	1761408111	1761646717	238606	743.70	773.38	23	20	-1	14.63	14.63
Saccade L	1	9	1761646717	1761706473	59756	731.20	766.10	480.76	385.03	5.09	204.27	0.33	85.21	5067.00	-4153.55	3677.81
Saccade R	1	9	1761646717	1761706473	59756	731.20	766.10	480.76	385.03	5.09	204.27	0.33	85.21	5067.00	-4153.55	3677.81
Fixation L	1	10	1761706473	1761945088	238615	469.36	405.00	16	37	-1	13.03	13.03
Fixation R	1	10	1761706473	1761945088	238615	469.36	405.00	16	37	-1	14.43	14.43
Saccade L	1	10	1761945088	1761964952	19864	465.86	389.82	753.34	406.38	1.83	291.05	1.00	92.03	6885.32	-7048.96	4915.45
Saccade R	1	10	1761945088	1761964952	19864	465.86	389.82	753.34	406.38	1.83	291.05	1.00	92.03	6885.32	-7048.96	4915.45
Fixation L	1	11	1761964952	1762163960	199008	807.42	419.92	66	29	-1	12.68	12.68
Fixation R	1	11	1761964952	1762163960	199008	807.42	419.92	66	29	-1	13.45	13.45
Saccade L	1	11	1762163960	1762183820	19860	819.57	434.50	818.86	452.18	0.16	17.90	1.00	7.99	299.32	-401.18	271.10
Saccade R	1	11	1762163960	1762183820	19860	819.57	434.50	818.86	452.18	0.16	17.90	1.00	7.99	299.32	-401.18	271.10
Fixation L	1	12	1762183820	1762462290	278470	813.29	445.85	20	13	-1	13.32	13.32
Fixation R	1	12	1762183820	1762462290	278470	813.29	445.85	20	13	-1	14.08	14.08
Saccade L	1	12	1762462290	1762502055	39765	826.19	451.89	1237.66	446.79	3.61	218.18	0.50	90.89	5377.46	-5122.31	4930.51
Saccade R	1	12	1762462290	1762502055	39765	826.19	451.89	1237.66	446.79	3.61	218.18	0.50	90.89	5377.46	-5122.31	4930.51
Fixation L	1	13	1762502055	1762800398	298343	1248.70	478.03	44	46	-1	14.31	14.31
Fixation R	1	13	1762502055	1762800398	298343	1248.70	478.03	44	46	-1	13.96	13.96
Saccade L	1	13	1762800398	1762899761	99363	1218.75	491.63	953.91	589.32	5.88	167.58	0.20	59.21	4148.14	-3297.14	2010.65
Saccade R	1	13	1762800398	1762899761	99363	1218.75	491.63	953.91	589.32	5.88	167.58	0.20	59.21	4148.14	-3297.14	2010.65
