[BeGaze]
Converted from:	C:\Documents and Settings\iViewX\Desktop\EXPERIMENTATIONS\Experiments\results\finaleart\S02123220-finaleart-1.idf
Date:	27.03.2019 15:33:45
Version:	BeGaze 2.5.77
Sample Rate:	50
Subject:	S02123220
Description:	David Xu

Table Header for Fixations:
Event Type	Trial	Number	Start	End	Duration	Location X	Location Y	Dispersion X	Dispersion Y	Plane	Avg. Pupil Size X	Avg. Pupil Size Y

Table Header for Saccades:
Event Type	Trial	Number	Start	End	Duration	Start Loc.X	Start Loc.Y	End Loc.X	End Loc.Y	Amplitude	Peak Speed	Peak Speed At	Average Speed	Peak Accel.	Peak Decel.	Average Accel.

Table Header for Blinks:
Event Type	Trial	Number	Start	End	Duration

Table Header for User Events:
Event Type	Trial	Number	Start	Description

UserEvent	1	1	2166000985	# Message: still-life_matisse_0.jpg
Saccade L	1	1	2166011754	2166091367	79613	773.16	356.37	890.02	370.20	2.03	68.81	0.75	25.45	1645.88	-1096.48	758.39
Saccade R	1	1	2166011754	2166091367	79613	773.16	356.37	890.02	370.20	2.03	68.81	0.75	25.45	1645.88	-1096.48	758.39
Fixation L	1	1	2166091367	2166190738	99371	918.19	402.89	47	50	-1	13.79	13.79
Fixation R	1	1	2166091367	2166190738	99371	918.19	402.89	47	50	-1	12.38	12.38
Saccade L	1	2	2166190738	2166210607	19869	937.41	421.04	941.94	415.84	0.17	10.44	1.00	8.55	259.65	-14.05	101.11
Saccade R	1	2	2166190738	2166210607	19869	937.41	421.04	941.94	415.84	0.17	10.44	1.00	8.55	259.65	-14.05	101.11
Fixation L	1	2	2166210607	2166469232	258625	947.76	443.18	13	38	-1	13.94	13.94
Fixation R	1	2	2166210607	2166469232	258625	947.76	443.18	13	38	-1	12.53	12.53
Saccade L	1	3	2166469232	2166489094	19862	944.56	454.07	800.93	547.18	1.09	173.10	1.00	55.08	4250.06	-4081.66	2982.56
Saccade R	1	3	2166469232	2166489094	19862	944.56	454.07	800.93	547.18	1.09	173.10	1.00	55.08	4250.06	-4081.66	2982.56
Fixation L	1	3	2166489094	2166747709	258615	772.14	516.65	43	47	-1	13.13	13.13
Fixation R	1	3	2166489094	2166747709	258615	772.14	516.65	43	47	-1	12.02	12.02
Saccade L	1	4	2166747709	2166767581	19872	756.94	506.83	618.37	404.27	1.08	174.34	1.00	54.48	4269.20	-4098.75	2956.66
Saccade R	1	4	2166747709	2166767581	19872	756.94	506.83	618.37	404.27	1.08	174.34	1.00	54.48	4269.20	-4098.75	2956.66
Fixation L	1	4	2166767581	2167085811	318230	591.16	396.94	34	45	-1	12.21	12.21
Fixation R	1	4	2166767581	2167085811	318230	591.16	396.94	34	45	-1	11.35	11.35
Saccade L	1	5	2167085811	2167125554	39743	596.42	411.17	855.57	524.21	2.90	179.16	1.00	72.85	4316.05	-3962.41	3039.87
Saccade R	1	5	2167085811	2167125554	39743	596.42	411.17	855.57	524.21	2.90	179.16	1.00	72.85	4316.05	-3962.41	3039.87
Fixation L	1	5	2167125554	2167225047	99493	879.14	567.38	33	62	-1	12.90	12.90
Fixation R	1	5	2167125554	2167225047	99493	879.14	567.38	33	62	-1	11.56	11.56
Saccade L	1	6	2167225047	2167324544	99497	888.71	586.35	1085.00	632.34	3.17	130.49	0.80	31.82	2720.64	-3193.27	1322.00
Saccade R	1	6	2167225047	2167324544	99497	888.71	586.35	1085.00	632.34	3.17	130.49	0.80	31.82	2720.64	-3193.27	1322.00
Fixation L	1	6	2167324544	2167583028	258484	1093.76	644.90	13	26	-1	13.64	13.64
Fixation R	1	6	2167324544	2167583028	258484	1093.76	644.90	13	26	-1	12.19	12.19
Saccade L	1	7	2167583028	2167602897	19869	1095.21	629.35	1110.97	567.56	0.58	64.50	1.00	29.10	1585.19	-1349.90	1056.17
Saccade R	1	7	2167583028	2167602897	19869	1095.21	629.35	1110.97	567.56	0.58	64.50	1.00	29.10	1585.19	-1349.90	1056.17
Fixation L	1	7	2167602897	2167921134	318237	1140.62	538.03	45	53	-1	13.61	13.61
Fixation R	1	7	2167602897	2167921134	318237	1140.62	538.03	45	53	-1	12.11	12.11
Saccade L	1	8	2167921134	2168000752	79618	1156.84	514.75	1184.67	504.04	6.00	224.08	0.50	75.34	5523.50	-3170.10	2982.25
Saccade R	1	8	2167921134	2168000752	79618	1156.84	514.75	1184.67	504.04	6.00	224.08	0.50	75.34	5523.50	-3170.10	2982.25
Fixation L	1	8	2168000752	2168279234	278482	1209.44	492.92	33	16	-1	13.90	13.90
Fixation R	1	8	2168000752	2168279234	278482	1209.44	492.92	33	16	-1	12.04	12.04
Saccade L	1	9	2168279234	2168318973	39739	1217.75	490.23	1473.69	457.88	2.22	155.49	0.50	55.87	3845.69	-3660.64	3190.42
Saccade R	1	9	2168279234	2168318973	39739	1217.75	490.23	1473.69	457.88	2.22	155.49	0.50	55.87	3845.69	-3660.64	3190.42
Fixation L	1	9	2168318973	2168497974	179001	1470.20	483.13	21	56	-1	13.84	13.84
Fixation R	1	9	2168318973	2168497974	179001	1470.20	483.13	21	56	-1	11.52	11.52
Saccade L	1	10	2168497974	2168537720	39746	1456.18	513.90	1472.56	689.61	1.86	114.90	0.50	46.68	2761.65	-2206.84	1897.10
Saccade R	1	10	2168497974	2168537720	39746	1456.18	513.90	1472.56	689.61	1.86	114.90	0.50	46.68	2761.65	-2206.84	1897.10
Fixation L	1	10	2168537720	2168637212	99492	1467.83	714.23	21	41	-1	14.06	14.06
Fixation R	1	10	2168537720	2168637212	99492	1467.83	714.23	21	41	-1	11.05	11.05
Saccade L	1	11	2168637212	2168776454	139242	1454.61	730.85	1121.04	704.68	9.47	172.40	0.14	68.04	4146.38	-3935.99	1952.05
Saccade R	1	11	2168637212	2168776454	139242	1454.61	730.85	1121.04	704.68	9.47	172.40	0.14	68.04	4146.38	-3935.99	1952.05
Fixation L	1	11	2168776454	2168915702	139248	1107.19	736.23	42	45	-1	13.72	13.72
Fixation R	1	11	2168776454	2168915702	139248	1107.19	736.23	42	45	-1	11.24	11.24
Saccade L	1	12	2168915702	2168955436	39734	1078.63	731.30	940.54	601.87	2.10	121.23	0.50	52.77	2618.55	-2482.97	2029.99
Saccade R	1	12	2168915702	2168955436	39734	1078.63	731.30	940.54	601.87	2.10	121.23	0.50	52.77	2618.55	-2482.97	2029.99
Fixation L	1	12	2168955436	2169134437	179001	931.48	589.64	13	23	-1	13.04	13.04
Fixation R	1	12	2168955436	2169134437	179001	931.48	589.64	13	23	-1	11.19	11.19
Saccade L	1	13	2169134437	2169174177	39740	927.29	578.02	678.80	549.98	2.42	140.84	0.50	60.87	3249.69	-3022.92	2850.05
Saccade R	1	13	2169134437	2169174177	39740	927.29	578.02	678.80	549.98	2.42	140.84	0.50	60.87	3249.69	-3022.92	2850.05
Fixation L	1	13	2169174177	2169452666	278489	653.19	551.94	33	15	-1	12.88	12.88
Fixation R	1	13	2169174177	2169452666	278489	653.19	551.94	33	15	-1	11.72	11.72
Saccade L	1	14	2169452666	2169492537	39871	645.72	550.83	672.48	446.17	2.18	178.03	0.50	54.62	4419.43	-4051.07	2894.42
Saccade R	1	14	2169452666	2169492537	39871	645.72	550.83	672.48	446.17	2.18	178.03	0.50	54.62	4419.43	-4051.07	2894.42
Fixation L	1	14	2169492537	2169711263	218726	702.56	432.60	41	32	-1	13.59	13.59
Fixation R	1	14	2169492537	2169711263	218726	702.56	432.60	41	32	-1	12.26	12.26
Saccade L	1	15	2169711263	2169751017	39754	714.17	437.52	979.18	348.36	2.56	165.79	1.00	64.32	4120.56	-3774.70	3251.10
Saccade R	1	15	2169711263	2169751017	39754	714.17	437.52	979.18	348.36	2.56	165.79	1.00	64.32	4120.56	-3774.70	3251.10
Fixation L	1	15	2169751017	2169930004	178987	1010.46	324.74	40	31	-1	13.70	13.70
Fixation R	1	15	2169751017	2169930004	178987	1010.46	324.74	40	31	-1	12.41	12.41
Saccade L	1	16	2169930004	2169989755	59751	1012.63	322.87	1278.98	339.84	3.43	169.48	0.67	57.40	4179.06	-2178.22	2194.95
Saccade R	1	16	2169930004	2169989755	59751	1012.63	322.87	1278.98	339.84	3.43	169.48	0.67	57.40	4179.06	-2178.22	2194.95
