[BeGaze]
Converted from:	C:\Documents and Settings\iViewX\Desktop\EXPERIMENTATIONS\Experiments\results\finaleart\S02123220-finaleart-1.idf
Date:	27.03.2019 15:33:32
Version:	BeGaze 2.5.77
Sample Rate:	50
Subject:	S02123220
Description:	David Xu

Table Header for Fixations:
Event Type	Trial	Number	Start	End	Duration	Location X	Location Y	Dispersion X	Dispersion Y	Plane	Avg. Pupil Size X	Avg. Pupil Size Y

Table Header for Saccades:
Event Type	Trial	Number	Start	End	Duration	Start Loc.X	Start Loc.Y	End Loc.X	End Loc.Y	Amplitude	Peak Speed	Peak Speed At	Average Speed	Peak Accel.	Peak Decel.	Average Accel.

Table Header for Blinks:
Event Type	Trial	Number	Start	End	Duration

Table Header for User Events:
Event Type	Trial	Number	Start	Description

UserEvent	1	1	773841615	# Message: lying-nude_ury_1889.jpg
Saccade L	1	1	773853163	774270884	417721	935.04	312.89	685.18	662.79	55.31	296.63	0.86	132.40	5989.60	-5128.54	3056.00
Saccade R	1	1	773853163	774270884	417721	935.04	312.89	685.18	662.79	55.31	296.63	0.86	132.40	5989.60	-5128.54	3056.00
Fixation L	1	1	774270884	774409997	139113	681.30	662.87	20	14	-1	15.72	15.72
Fixation R	1	1	774270884	774409997	139113	681.30	662.87	20	14	-1	15.17	15.17
Saccade L	1	2	774409997	774569111	159114	665.92	671.81	480.61	775.09	30.03	396.69	0.25	188.73	9424.53	-6241.49	4268.40
Saccade R	1	2	774409997	774569111	159114	665.92	671.81	480.61	775.09	30.03	396.69	0.25	188.73	9424.53	-6241.49	4268.40
Fixation L	1	2	774569111	774668605	99494	452.85	781.83	86	12	-1	13.90	13.90
Fixation R	1	2	774569111	774668605	99494	452.85	781.83	86	12	-1	14.17	14.17
Saccade L	1	3	774668605	774688479	19874	395.28	778.64	377.65	773.06	0.57	83.69	1.00	28.90	146.35	-1624.51	638.10
Saccade R	1	3	774668605	774688479	19874	395.28	778.64	377.65	773.06	0.57	83.69	1.00	28.90	146.35	-1624.51	638.10
Fixation L	1	3	774688479	775205701	517222	365.00	765.78	53	44	-1	12.93	12.93
Fixation R	1	3	774688479	775205701	517222	365.00	765.78	53	44	-1	13.63	13.63
Saccade L	1	4	775205701	775484056	278355	332.17	736.33	977.16	750.99	31.83	305.37	0.57	114.33	6357.60	-7376.14	3314.83
Saccade R	1	4	775205701	775484056	278355	332.17	736.33	977.16	750.99	31.83	305.37	0.57	114.33	6357.60	-7376.14	3314.83
Fixation L	1	4	775484056	775583550	99494	1010.82	764.29	48	49	-1	15.03	15.03
Fixation R	1	4	775484056	775583550	99494	1010.82	764.29	48	49	-1	14.14	14.14
Saccade L	1	5	775583550	775603419	19869	1023.55	790.70	1019.68	793.93	0.21	16.02	0.00	10.76	91.88	-248.52	189.63
Saccade R	1	5	775583550	775603419	19869	1023.55	790.70	1019.68	793.93	0.21	16.02	0.00	10.76	91.88	-248.52	189.63
Fixation L	1	5	775603419	775941530	338111	1021.11	797.32	39	44	-1	14.56	14.56
Fixation R	1	5	775603419	775941530	338111	1021.11	797.32	39	44	-1	13.29	13.29
Saccade L	1	6	775941530	775961393	19863	1051.29	763.72	1071.48	752.33	0.44	40.56	0.00	22.27	506.10	-466.94	422.74
Saccade R	1	6	775941530	775961393	19863	1051.29	763.72	1071.48	752.33	0.44	40.56	0.00	22.27	506.10	-466.94	422.74
Fixation L	1	6	775961393	776120516	159123	1058.72	728.08	36	41	-1	13.52	13.52
Fixation R	1	6	775961393	776120516	159123	1058.72	728.08	36	41	-1	12.07	12.07
Saccade L	1	7	776120516	776538261	417745	1034.70	725.99	489.05	711.46	72.60	543.19	0.29	173.79	11983.26	-11441.21	5300.10
Saccade R	1	7	776120516	776538261	417745	1034.70	725.99	489.05	711.46	72.60	543.19	0.29	173.79	11983.26	-11441.21	5300.10
Fixation L	1	7	776538261	776916217	377956	477.73	690.38	14	39	-1	14.30	14.30
Fixation R	1	7	776538261	776916217	377956	477.73	690.38	14	39	-1	14.37	14.37
Saccade L	1	8	776916217	776995712	79495	480.37	688.13	1049.34	432.76	8.89	288.08	0.50	111.81	7152.35	-5584.14	4410.79
Saccade R	1	8	776916217	776995712	79495	480.37	688.13	1049.34	432.76	8.89	288.08	0.50	111.81	7152.35	-5584.14	4410.79
Fixation L	1	8	776995712	777492921	497209	1070.81	467.79	30	62	-1	14.86	14.86
Fixation R	1	8	776995712	777492921	497209	1070.81	467.79	30	62	-1	13.70	13.70
Saccade L	1	9	777492921	777652035	159114	1076.71	471.58	1511.19	609.09	16.63	286.82	0.25	104.51	6374.85	-3949.32	2138.85
Saccade R	1	9	777492921	777652035	159114	1076.71	471.58	1511.19	609.09	16.63	286.82	0.25	104.51	6374.85	-3949.32	2138.85
Fixation L	1	9	777652035	777831177	179142	1519.28	601.67	24	68	-1	15.84	15.84
Fixation R	1	9	777652035	777831177	179142	1519.28	601.67	24	68	-1	11.27	11.27
