[BeGaze]
Converted from:	C:\Documents and Settings\iViewX\Desktop\EXPERIMENTATIONS\Experiments\results\finaleart\S02123220-finaleart-1.idf
Date:	27.03.2019 15:33:44
Version:	BeGaze 2.5.77
Sample Rate:	50
Subject:	S02123220
Description:	David Xu

Table Header for Fixations:
Event Type	Trial	Number	Start	End	Duration	Location X	Location Y	Dispersion X	Dispersion Y	Plane	Avg. Pupil Size X	Avg. Pupil Size Y

Table Header for Saccades:
Event Type	Trial	Number	Start	End	Duration	Start Loc.X	Start Loc.Y	End Loc.X	End Loc.Y	Amplitude	Peak Speed	Peak Speed At	Average Speed	Peak Accel.	Peak Decel.	Average Accel.

Table Header for Blinks:
Event Type	Trial	Number	Start	End	Duration

Table Header for User Events:
Event Type	Trial	Number	Start	Description

UserEvent	1	1	1844816225	# Message: Le_Pin_A_St-Tropez_Signac_1909.jpg
Fixation L	1	1	1844825814	1845342902	517088	1035.41	512.49	50	13	-1	13.21	13.21
Fixation R	1	1	1844825814	1845342902	517088	1035.41	512.49	50	13	-1	12.34	12.34
Saccade L	1	1	1845342902	1845362776	19874	994.35	518.62	893.01	519.05	0.96	102.51	1.00	48.47	2492.49	-2480.88	1724.07
Saccade R	1	1	1845342902	1845362776	19874	994.35	518.62	893.01	519.05	0.96	102.51	1.00	48.47	2492.49	-2480.88	1724.07
Fixation L	1	2	1845362776	1845541892	179116	927.41	530.88	48	18	-1	10.83	10.83
Fixation R	1	2	1845362776	1845541892	179116	927.41	530.88	48	18	-1	10.38	10.38
Saccade L	1	2	1845541892	1845581682	39790	941.25	537.62	789.72	437.86	1.78	106.26	0.50	44.82	2521.94	-2374.27	2363.89
Saccade R	1	2	1845541892	1845581682	39790	941.25	537.62	789.72	437.86	1.78	106.26	0.50	44.82	2521.94	-2374.27	2363.89
Fixation L	1	3	1845581682	1845979379	397697	774.80	413.46	25	34	-1	9.24	9.24
Fixation R	1	3	1845581682	1845979379	397697	774.80	413.46	25	34	-1	9.29	9.29
Saccade L	1	3	1845979379	1846019236	39857	775.72	403.81	1180.14	407.92	3.48	257.92	1.00	87.21	6376.78	-6117.64	4859.86
Saccade R	1	3	1845979379	1846019236	39857	775.72	403.81	1180.14	407.92	3.48	257.92	1.00	87.21	6376.78	-6117.64	4859.86
Fixation L	1	4	1846019236	1846436832	417596	1204.27	416.51	71	16	-1	10.06	10.06
Fixation R	1	4	1846019236	1846436832	417596	1204.27	416.51	71	16	-1	9.15	9.15
Saccade L	1	4	1846436832	1846476712	39880	1251.84	423.71	1406.42	766.21	3.91	209.89	0.50	98.11	5122.25	-4711.99	4459.07
Saccade R	1	4	1846436832	1846476712	39880	1251.84	423.71	1406.42	766.21	3.91	209.89	0.50	98.11	5122.25	-4711.99	4459.07
Fixation L	1	5	1846476712	1846894320	417608	1395.93	769.49	30	28	-1	11.43	11.43
Fixation R	1	5	1846476712	1846894320	417608	1395.93	769.49	30	28	-1	9.41	9.41
Saccade L	1	5	1846894320	1846934053	39733	1401.44	770.91	1078.74	767.54	2.82	255.54	0.50	70.93	6154.96	-6138.67	3799.91
Saccade R	1	5	1846894320	1846934053	39733	1401.44	770.91	1078.74	767.54	2.82	255.54	0.50	70.93	6154.96	-6138.67	3799.91
Fixation L	1	6	1846934053	1847252413	318360	1055.59	752.89	59	32	-1	10.42	10.42
Fixation R	1	6	1846934053	1847252413	318360	1055.59	752.89	59	32	-1	9.64	9.64
Saccade L	1	6	1847252413	1847351780	99367	1026.86	734.74	619.52	759.81	5.95	210.25	1.00	59.87	5173.67	-4894.19	2691.64
Saccade R	1	6	1847252413	1847351780	99367	1026.86	734.74	619.52	759.81	5.95	210.25	1.00	59.87	5173.67	-4894.19	2691.64
Fixation L	1	7	1847351780	1847451271	99491	588.92	788.77	49	47	-1	10.59	10.59
Fixation R	1	7	1847351780	1847451271	99491	588.92	788.77	49	47	-1	10.78	10.78
Saccade L	1	7	1847451271	1847471149	19878	599.92	807.74	570.28	817.06	0.43	32.57	0.00	21.88	475.82	-535.95	477.68
Saccade R	1	7	1847451271	1847471149	19878	599.92	807.74	570.28	817.06	0.43	32.57	0.00	21.88	475.82	-535.95	477.68
Fixation L	1	8	1847471149	1847590537	119388	571.32	832.69	32	30	-1	10.67	10.67
Fixation R	1	8	1847471149	1847590537	119388	571.32	832.69	32	30	-1	10.98	10.98
Saccade L	1	8	1847590537	1847650156	59619	590.96	832.29	950.08	515.44	5.57	222.80	0.67	93.43	4744.70	-4970.03	3623.47
Saccade R	1	8	1847590537	1847650156	59619	590.96	832.29	950.08	515.44	5.57	222.80	0.67	93.43	4744.70	-4970.03	3623.47
Fixation L	1	9	1847650156	1847928624	278468	927.90	469.32	33	65	-1	10.77	10.77
Fixation R	1	9	1847650156	1847928624	278468	927.90	469.32	33	65	-1	10.34	10.34
Saccade L	1	9	1847928624	1847948489	19865	916.73	453.76	913.06	453.56	0.06	5.34	0.00	3.22	101.01	-66.20	77.13
Saccade R	1	9	1847928624	1847948489	19865	916.73	453.76	913.06	453.56	0.06	5.34	0.00	3.22	101.01	-66.20	77.13
Fixation L	1	10	1847948489	1848246860	298371	911.04	436.84	11	81	-1	10.96	10.96
Fixation R	1	10	1847948489	1848246860	298371	911.04	436.84	11	81	-1	10.53	10.53
Saccade L	1	10	1848246860	1848266723	19863	908.88	391.34	909.73	382.09	0.15	9.56	0.00	7.67	82.64	-152.89	88.12
Saccade R	1	10	1848246860	1848266723	19863	908.88	391.34	909.73	382.09	0.15	9.56	0.00	7.67	82.64	-152.89	88.12
Fixation L	1	11	1848266723	1848525346	258623	912.69	398.28	54	39	-1	11.72	11.72
Fixation R	1	11	1848266723	1848525346	258623	912.69	398.28	54	39	-1	11.41	11.41
Saccade L	1	11	1848525346	1848545202	19856	959.39	418.87	1035.94	542.42	1.07	147.01	1.00	53.72	3500.30	-3241.67	2676.99
Saccade R	1	11	1848525346	1848545202	19856	959.39	418.87	1035.94	542.42	1.07	147.01	1.00	53.72	3500.30	-3241.67	2676.99
Fixation L	1	12	1848545202	1848744070	198868	1055.66	549.48	34	25	-1	12.17	12.17
Fixation R	1	12	1848545202	1848744070	198868	1055.66	549.48	34	25	-1	11.14	11.14
Saccade L	1	12	1848744070	1848823699	79629	1066.86	564.74	927.11	690.30	2.93	125.03	0.25	36.76	3007.30	-2911.44	1812.46
Saccade R	1	12	1848744070	1848823699	79629	1066.86	564.74	927.11	690.30	2.93	125.03	0.25	36.76	3007.30	-2911.44	1812.46
