[BeGaze]
Converted from:	C:\Documents and Settings\iViewX\Desktop\EXPERIMENTATIONS\Experiments\results\finaleart\S02123220-finaleart-1.idf
Date:	27.03.2019 15:33:27
Version:	BeGaze 2.5.77
Sample Rate:	50
Subject:	S02123220
Description:	David Xu

Table Header for Fixations:
Event Type	Trial	Number	Start	End	Duration	Location X	Location Y	Dispersion X	Dispersion Y	Plane	Avg. Pupil Size X	Avg. Pupil Size Y

Table Header for Saccades:
Event Type	Trial	Number	Start	End	Duration	Start Loc.X	Start Loc.Y	End Loc.X	End Loc.Y	Amplitude	Peak Speed	Peak Speed At	Average Speed	Peak Accel.	Peak Decel.	Average Accel.

Table Header for Blinks:
Event Type	Trial	Number	Start	End	Duration

Table Header for User Events:
Event Type	Trial	Number	Start	Description

UserEvent	1	1	372530843	# Message: Le-Restaurant-de-la-machine-a-Bougival-vlaminck-1905.jpg
Fixation L	1	1	372542325	372800784	258459	856.12	490.76	38	49	-1	17.40	17.40
Fixation R	1	1	372542325	372800784	258459	856.12	490.76	38	49	-1	17.61	17.61
Saccade L	1	1	372800784	372820667	19883	828.47	466.70	821.27	460.04	0.14	10.01	1.00	7.04	-2.38	-111.12	63.52
Saccade R	1	1	372800784	372820667	19883	828.47	466.70	821.27	460.04	0.14	10.01	1.00	7.04	-2.38	-111.12	63.52
Fixation L	1	2	372820667	373138885	318218	822.40	469.39	42	35	-1	17.13	17.13
Fixation R	1	2	372820667	373138885	318218	822.40	469.39	42	35	-1	17.38	17.38
Saccade L	1	2	373138885	373158893	20008	792.89	448.58	766.60	472.84	0.66	50.88	0.00	33.00	649.11	-404.15	429.33
Saccade R	1	2	373138885	373158893	20008	792.89	448.58	766.60	472.84	0.66	50.88	0.00	33.00	649.11	-404.15	429.33
Fixation L	1	3	373158893	373437261	278368	733.16	445.29	42	44	-1	14.34	14.34
Fixation R	1	3	373158893	373437261	278368	733.16	445.29	42	44	-1	14.94	14.94
Saccade L	1	3	373437261	373457270	20009	724.32	435.12	716.27	402.91	0.37	33.72	1.00	18.27	806.56	-550.31	696.14
Saccade R	1	3	373437261	373457270	20009	724.32	435.12	716.27	402.91	0.37	33.72	1.00	18.27	806.56	-550.31	696.14
Fixation L	1	4	373457270	373735606	278336	687.65	412.65	41	48	-1	13.17	13.17
Fixation R	1	4	373457270	373735606	278336	687.65	412.65	41	48	-1	13.93	13.93
Saccade L	1	4	373735606	373775478	39872	678.36	409.42	559.76	410.35	1.27	66.80	1.00	31.82	1598.26	-1472.43	1269.51
Saccade R	1	4	373735606	373775478	39872	678.36	409.42	559.76	410.35	1.27	66.80	1.00	31.82	1598.26	-1472.43	1269.51
Fixation L	1	5	373775478	374252816	477338	542.83	418.66	65	33	-1	14.38	14.38
Fixation R	1	5	373775478	374252816	477338	542.83	418.66	65	33	-1	15.31	15.31
Saccade L	1	5	374252816	374372063	119247	589.19	440.07	1497.06	387.62	12.57	344.14	0.83	105.38	8037.60	-8420.09	4105.82
Saccade R	1	5	374252816	374372063	119247	589.19	440.07	1497.06	387.62	12.57	344.14	0.83	105.38	8037.60	-8420.09	4105.82
Fixation L	1	6	374372063	374670427	298364	1481.03	386.29	37	18	-1	15.88	15.88
Fixation R	1	6	374372063	374670427	298364	1481.03	386.29	37	18	-1	14.31	14.31
Saccade L	1	6	374670427	374690312	19885	1459.35	394.88	1282.28	399.63	1.02	179.13	1.00	51.13	4393.41	-4281.81	2945.63
Saccade R	1	6	374670427	374690312	19885	1459.35	394.88	1282.28	399.63	1.02	179.13	1.00	51.13	4393.41	-4281.81	2945.63
Fixation L	1	7	374690312	375008652	318340	1268.41	399.31	23	8	-1	15.53	15.53
Fixation R	1	7	374690312	375008652	318340	1268.41	399.31	23	8	-1	14.54	14.54
Saccade L	1	7	375008652	375028522	19870	1275.04	402.00	1523.96	381.36	1.38	252.51	1.00	69.53	6212.95	-6030.23	4171.94
Saccade R	1	7	375008652	375028522	19870	1275.04	402.00	1523.96	381.36	1.38	252.51	1.00	69.53	6212.95	-6030.23	4171.94
Fixation L	1	8	375028522	375326879	298357	1534.30	380.89	53	15	-1	15.46	15.46
Fixation R	1	8	375028522	375326879	298357	1534.30	380.89	53	15	-1	12.82	12.82
Saccade L	1	8	375326879	375346764	19885	1491.70	389.53	1453.46	506.06	1.05	124.05	1.00	52.80	3015.54	-2446.69	2065.17
Saccade R	1	8	375326879	375346764	19885	1491.70	389.53	1453.46	506.06	1.05	124.05	1.00	52.80	3015.54	-2446.69	2065.17
Fixation L	1	9	375346764	375446115	99351	1432.54	529.53	30	45	-1	15.56	15.56
Fixation R	1	9	375346764	375446115	99351	1432.54	529.53	30	45	-1	13.35	13.35
Saccade L	1	9	375446115	375466011	19896	1425.76	520.84	1383.42	578.63	0.54	72.47	1.00	27.23	1351.79	-1311.80	910.96
Saccade R	1	9	375446115	375466011	19896	1425.76	520.84	1383.42	578.63	0.54	72.47	1.00	27.23	1351.79	-1311.80	910.96
Fixation L	1	10	375466011	375605242	139231	1386.58	587.82	17	15	-1	16.05	16.05
Fixation R	1	10	375466011	375605242	139231	1386.58	587.82	17	15	-1	13.70	13.70
Saccade L	1	10	375605242	375645117	39875	1387.68	592.14	1262.14	821.42	2.57	165.98	1.00	64.39	3989.19	-3570.42	3091.88
Saccade R	1	10	375605242	375645117	39875	1387.68	592.14	1262.14	821.42	2.57	165.98	1.00	64.39	3989.19	-3570.42	3091.88
Fixation L	1	11	375645117	376042835	397718	1279.55	855.48	27	55	-1	16.44	16.44
Fixation R	1	11	375645117	376042835	397718	1279.55	855.48	27	55	-1	13.09	13.09
Saccade L	1	11	376042835	376102589	59754	1278.10	871.17	1068.61	912.26	3.43	171.41	1.00	57.48	3366.51	-4038.26	1856.11
Saccade R	1	11	376042835	376102589	59754	1278.10	871.17	1068.61	912.26	3.43	171.41	1.00	57.48	3366.51	-4038.26	1856.11
Fixation L	1	12	376102589	376500310	397721	1010.55	910.15	64	30	-1	15.78	15.78
Fixation R	1	12	376102589	376500310	397721	1010.55	910.15	64	30	-1	14.64	14.64
Saccade L	1	12	376500310	376540066	39756	1011.41	891.71	1143.35	431.09	5.06	304.96	0.50	127.36	7531.49	0.00	3860.75
Saccade R	1	12	376500310	376540066	39756	1011.41	891.71	1143.35	431.09	5.06	304.96	0.50	127.36	7531.49	0.00	3860.75
