[BeGaze]
Converted from:	C:\Documents and Settings\iViewX\Desktop\EXPERIMENTATIONS\Experiments\results\finaleart\S02123220-finaleart-1.idf
Date:	27.03.2019 15:33:33
Version:	BeGaze 2.5.77
Sample Rate:	50
Subject:	S02123220
Description:	David Xu

Table Header for Fixations:
Event Type	Trial	Number	Start	End	Duration	Location X	Location Y	Dispersion X	Dispersion Y	Plane	Avg. Pupil Size X	Avg. Pupil Size Y

Table Header for Saccades:
Event Type	Trial	Number	Start	End	Duration	Start Loc.X	Start Loc.Y	End Loc.X	End Loc.Y	Amplitude	Peak Speed	Peak Speed At	Average Speed	Peak Accel.	Peak Decel.	Average Accel.

Table Header for Blinks:
Event Type	Trial	Number	Start	End	Duration

Table Header for User Events:
Event Type	Trial	Number	Start	Description

UserEvent	1	1	804531073	# Message: kneeling-nude_degas_1888.jpg
Saccade L	1	1	804543039	805139749	596710	938.97	437.88	1180.67	801.33	54.85	426.99	0.97	91.92	9167.76	-9212.13	3026.82
Saccade R	1	1	804543039	805139749	596710	938.97	437.88	1180.67	801.33	54.85	426.99	0.97	91.92	9167.76	-9212.13	3026.82
Fixation L	1	1	805139749	805318746	178997	1181.20	750.16	7	67	-1	13.82	13.82
Fixation R	1	1	805139749	805318746	178997	1181.20	750.16	7	67	-1	11.42	11.42
Saccade L	1	2	805318746	805338636	19890	1181.63	738.20	1178.79	858.21	0.75	121.42	1.00	37.52	2982.42	-2553.69	1997.47
Saccade R	1	2	805318746	805338636	19890	1181.63	738.20	1178.79	858.21	0.75	121.42	1.00	37.52	2982.42	-2553.69	1997.47
Fixation L	1	2	805338636	805577345	238709	1158.45	842.20	35	44	-1	12.75	12.75
Fixation R	1	2	805338636	805577345	238709	1158.45	842.20	35	44	-1	10.55	10.55
Saccade L	1	3	805577345	805656843	79498	1150.84	824.54	858.23	834.85	6.99	168.88	0.75	87.93	3564.33	-3964.87	2621.54
Saccade R	1	3	805577345	805656843	79498	1150.84	824.54	858.23	834.85	6.99	168.88	0.75	87.93	3564.33	-3964.87	2621.54
Fixation L	1	3	805656843	805796086	139243	849.30	834.65	19	66	-1	12.24	12.24
Fixation R	1	3	805656843	805796086	139243	849.30	834.65	19	66	-1	10.48	10.48
Saccade L	1	4	805796086	805835952	39866	842.87	839.01	693.74	504.38	4.41	210.64	1.00	110.54	3849.43	-4649.95	3599.93
Saccade R	1	4	805796086	805835952	39866	842.87	839.01	693.74	504.38	4.41	210.64	1.00	110.54	3849.43	-4649.95	3599.93
Fixation L	1	4	805835952	806114316	278364	677.73	463.32	22	71	-1	11.79	11.79
Fixation R	1	4	805835952	806114316	278364	677.73	463.32	22	71	-1	11.44	11.44
Saccade L	1	5	806114316	806631555	517239	678.00	439.90	1085.16	270.00	63.30	462.02	1.00	122.38	10873.98	-11205.28	3445.09
Saccade R	1	5	806114316	806631555	517239	678.00	439.90	1085.16	270.00	63.30	462.02	1.00	122.38	10873.98	-11205.28	3445.09
Fixation L	1	5	806631555	806730906	99351	1116.41	286.78	44	32	-1	13.44	13.44
Fixation R	1	5	806631555	806730906	99351	1116.41	286.78	44	32	-1	12.18	12.18
Saccade L	1	6	806730906	807148626	417720	1106.48	294.82	695.11	387.84	60.31	519.15	0.05	144.38	12779.22	-12691.72	4573.17
Saccade R	1	6	806730906	807148626	417720	1106.48	294.82	695.11	387.84	60.31	519.15	0.05	144.38	12779.22	-12691.72	4573.17
Fixation L	1	6	807148626	807466850	318224	661.13	390.13	41	27	-1	14.32	14.32
Fixation R	1	6	807148626	807466850	318224	661.13	390.13	41	27	-1	13.59	13.59
Saccade L	1	7	807466850	808043700	576850	677.75	376.13	951.30	471.43	47.30	389.46	0.52	82.01	6507.25	-7571.83	2319.83
Saccade R	1	7	807466850	808043700	576850	677.75	376.13	951.30	471.43	47.30	389.46	0.52	82.01	6507.25	-7571.83	2319.83
Fixation L	1	7	808043700	808143074	99374	952.96	440.45	5	88	-1	13.94	13.94
Fixation R	1	7	808043700	808143074	99374	952.96	440.45	5	88	-1	12.50	12.50
Saccade L	1	8	808143074	808222673	79599	956.64	408.85	666.00	411.91	10.51	322.90	0.50	132.10	7602.46	-7568.59	4899.03
Saccade R	1	8	808143074	808222673	79599	956.64	408.85	666.00	411.91	10.51	322.90	0.50	132.10	7602.46	-7568.59	4899.03
Fixation L	1	8	808222673	808401680	179007	660.08	398.19	12	33	-1	13.77	13.77
Fixation R	1	8	808222673	808401680	179007	660.08	398.19	12	33	-1	12.80	12.80
Saccade L	1	9	808401680	808521046	119366	653.72	411.62	482.13	485.39	4.32	122.70	0.17	36.17	2918.40	-2568.71	1164.91
Saccade R	1	9	808401680	808521046	119366	653.72	411.62	482.13	485.39	4.32	122.70	0.17	36.17	2918.40	-2568.71	1164.91
