[BeGaze]
Converted from:	C:\Documents and Settings\iViewX\Desktop\EXPERIMENTATIONS\Experiments\results\finaleart\S02123220-finaleart-1.idf
Date:	27.03.2019 15:33:47
Version:	BeGaze 2.5.77
Sample Rate:	50
Subject:	S02123220
Description:	David Xu

Table Header for Fixations:
Event Type	Trial	Number	Start	End	Duration	Location X	Location Y	Dispersion X	Dispersion Y	Plane	Avg. Pupil Size X	Avg. Pupil Size Y

Table Header for Saccades:
Event Type	Trial	Number	Start	End	Duration	Start Loc.X	Start Loc.Y	End Loc.X	End Loc.Y	Amplitude	Peak Speed	Peak Speed At	Average Speed	Peak Accel.	Peak Decel.	Average Accel.

Table Header for Blinks:
Event Type	Trial	Number	Start	End	Duration

Table Header for User Events:
Event Type	Trial	Number	Start	Description

UserEvent	1	1	2274209537	# Message: void.jpg
Fixation L	1	1	2274212073	2274450804	238731	864.86	415.85	52	23	-1	13.14	13.14
Fixation R	1	1	2274212073	2274450804	238731	864.86	415.85	52	23	-1	11.10	11.10
Saccade L	1	1	2274450804	2274510438	59634	911.32	427.26	1301.63	816.55	6.79	330.41	0.33	113.94	8200.02	-6585.77	4865.55
Saccade R	1	1	2274450804	2274510438	59634	911.32	427.26	1301.63	816.55	6.79	330.41	0.33	113.94	8200.02	-6585.77	4865.55
Fixation L	1	2	2274510438	2274669551	159113	1289.53	827.24	22	51	-1	13.95	13.95
Fixation R	1	2	2274510438	2274669551	159113	1289.53	827.24	22	51	-1	10.15	10.15
Saccade L	1	2	2274669551	2274967907	298356	1291.51	789.83	1006.65	234.11	23.70	258.48	0.27	79.44	5122.91	-4780.01	1943.75
Saccade R	1	2	2274669551	2274967907	298356	1291.51	789.83	1006.65	234.11	23.70	258.48	0.27	79.44	5122.91	-4780.01	1943.75
Fixation L	1	3	2274967907	2275087265	119358	1011.61	229.20	15	36	-1	13.38	13.38
Fixation R	1	3	2274967907	2275087265	119358	1011.61	229.20	15	36	-1	12.47	12.47
Saccade L	1	3	2275087265	2275127019	39754	1018.96	248.10	1020.60	228.98	2.20	131.97	1.00	55.37	2908.76	-3194.13	2895.44
Saccade R	1	3	2275087265	2275127019	39754	1018.96	248.10	1020.60	228.98	2.20	131.97	1.00	55.37	2908.76	-3194.13	2895.44
Fixation L	1	4	2275127019	2275306003	178984	1013.40	249.04	11	55	-1	13.62	13.62
Fixation R	1	4	2275127019	2275306003	178984	1013.40	249.04	11	55	-1	13.15	13.15
Saccade L	1	4	2275306003	2275405501	99498	1008.85	284.11	965.78	549.96	4.41	143.55	1.00	44.28	2896.37	-3380.29	1572.08
Saccade R	1	4	2275306003	2275405501	99498	1008.85	284.11	965.78	549.96	4.41	143.55	1.00	44.28	2896.37	-3380.29	1572.08
Fixation L	1	5	2275405501	2275843095	437594	972.09	567.09	11	27	-1	15.11	15.11
Fixation R	1	5	2275405501	2275843095	437594	972.09	567.09	11	27	-1	14.13	14.13
Saccade L	1	5	2275843095	2275862978	19883	971.51	557.59	965.99	435.39	0.69	123.73	1.00	34.63	2994.79	-2881.90	1976.58
Saccade R	1	5	2275843095	2275862978	19883	971.51	557.59	965.99	435.39	0.69	123.73	1.00	34.63	2994.79	-2881.90	1976.58
Fixation L	1	6	2275862978	2276201078	338100	954.68	430.19	16	15	-1	15.13	15.13
Fixation R	1	6	2275862978	2276201078	338100	954.68	430.19	16	15	-1	14.37	14.37
