[BeGaze]
Converted from:	C:\Documents and Settings\iViewX\Desktop\EXPERIMENTATIONS\Experiments\results\finaleart\S02123220-finaleart-1.idf
Date:	27.03.2019 15:33:39
Version:	BeGaze 2.5.77
Sample Rate:	50
Subject:	S02123220
Description:	David Xu

Table Header for Fixations:
Event Type	Trial	Number	Start	End	Duration	Location X	Location Y	Dispersion X	Dispersion Y	Plane	Avg. Pupil Size X	Avg. Pupil Size Y

Table Header for Saccades:
Event Type	Trial	Number	Start	End	Duration	Start Loc.X	Start Loc.Y	End Loc.X	End Loc.Y	Amplitude	Peak Speed	Peak Speed At	Average Speed	Peak Accel.	Peak Decel.	Average Accel.

Table Header for Blinks:
Event Type	Trial	Number	Start	End	Duration

Table Header for User Events:
Event Type	Trial	Number	Start	Description

UserEvent	1	1	1506433151	# Message: void.jpg
Fixation L	1	1	1506434700	1506593939	159239	1283.82	812.97	13	25	-1	10.87	10.87
Fixation R	1	1	1506434700	1506593939	159239	1283.82	812.97	13	25	-1	9.85	9.85
Saccade L	1	1	1506593939	1506613673	19734	1276.94	819.76	1304.01	726.89	0.65	97.86	1.00	33.12	2284.29	-2216.66	1575.49
Saccade R	1	1	1506593939	1506613673	19734	1276.94	819.76	1304.01	726.89	0.65	97.86	1.00	33.12	2284.29	-2216.66	1575.49
Fixation L	1	2	1506613673	1506772786	159113	1325.65	707.09	45	47	-1	11.00	11.00
Fixation R	1	2	1506613673	1506772786	159113	1325.65	707.09	45	47	-1	11.45	11.45
Saccade L	1	2	1506772786	1506792709	19923	1335.69	683.69	1344.61	674.49	0.24	16.35	1.00	12.10	259.99	-84.68	179.34
Saccade R	1	2	1506772786	1506792709	19923	1335.69	683.69	1344.61	674.49	0.24	16.35	1.00	12.10	259.99	-84.68	179.34
Fixation L	1	3	1506792709	1506971782	179073	1344.54	665.31	29	39	-1	11.09	11.09
Fixation R	1	3	1506792709	1506951775	159066	1346.90	667.54	18	26	-1	9.97	9.97
Blink R	1	1	1506951775	1507110920	159145
Saccade L	1	3	1506971782	1507051273	79491	1323.33	645.22	829.35	315.98	7.88	232.86	0.25	99.10	5685.11	-3482.97	2730.24
Fixation L	1	4	1507051273	1507389378	338105	819.78	294.09	42	54	-1	11.26	11.26
Fixation R	1	4	1507110920	1507389378	278458	819.31	295.23	42	43	-1	10.27	10.27
Saccade L	1	4	1507389378	1507409245	19867	849.01	292.63	1003.71	282.75	1.05	156.77	1.00	52.71	3836.80	-3697.20	2773.76
Saccade R	1	3	1507389378	1507409245	19867	849.01	292.63	1003.71	282.75	1.05	156.77	1.00	52.71	3836.80	-3697.20	2773.76
Fixation L	1	5	1507409245	1507647994	238749	1020.00	313.16	29	67	-1	11.45	11.45
Fixation R	1	5	1507409245	1507647994	238749	1020.00	313.16	29	67	-1	9.88	9.88
Saccade L	1	5	1507647994	1507667859	19865	1033.25	349.91	1034.64	353.67	0.28	24.84	1.00	13.90	244.11	-188.50	204.85
Saccade R	1	4	1507647994	1507667859	19865	1033.25	349.91	1034.64	353.67	0.28	24.84	1.00	13.90	244.11	-188.50	204.85
Fixation L	1	6	1507667859	1508423689	755830	1038.42	377.61	16	78	-1	12.46	12.46
Fixation R	1	6	1507667859	1508423689	755830	1038.42	377.61	16	78	-1	10.45	10.45
