[BeGaze]
Converted from:	C:\Documents and Settings\iViewX\Desktop\EXPERIMENTATIONS\Experiments\results\finaleart\S02123220-finaleart-1.idf
Date:	27.03.2019 15:33:44
Version:	BeGaze 2.5.77
Sample Rate:	50
Subject:	S02123220
Description:	David Xu

Table Header for Fixations:
Event Type	Trial	Number	Start	End	Duration	Location X	Location Y	Dispersion X	Dispersion Y	Plane	Avg. Pupil Size X	Avg. Pupil Size Y

Table Header for Saccades:
Event Type	Trial	Number	Start	End	Duration	Start Loc.X	Start Loc.Y	End Loc.X	End Loc.Y	Amplitude	Peak Speed	Peak Speed At	Average Speed	Peak Accel.	Peak Decel.	Average Accel.

Table Header for Blinks:
Event Type	Trial	Number	Start	End	Duration

Table Header for User Events:
Event Type	Trial	Number	Start	Description

UserEvent	1	1	1836611966	# Message: void.jpg
Fixation L	1	1	1836631188	1836889793	258605	1074.52	634.77	64	31	-1	14.04	14.04
Fixation R	1	1	1836631188	1836889793	258605	1074.52	634.77	64	31	-1	12.58	12.58
Saccade L	1	1	1836889793	1836909663	19870	1113.71	614.39	1116.34	611.26	0.15	12.51	1.00	7.41	39.71	-209.29	133.23
Saccade R	1	1	1836889793	1836909663	19870	1113.71	614.39	1116.34	611.26	0.15	12.51	1.00	7.41	39.71	-209.29	133.23
Fixation L	1	2	1836909663	1837108520	198857	1120.95	607.96	8	9	-1	13.69	13.69
Fixation R	1	2	1836909663	1837108520	198857	1120.95	607.96	8	9	-1	12.16	12.16
Saccade L	1	2	1837108520	1837128401	19881	1121.72	614.59	1248.87	610.60	0.69	128.67	1.00	34.95	3155.68	-3122.39	2118.22
Saccade R	1	2	1837108520	1837128401	19881	1121.72	614.59	1248.87	610.60	0.69	128.67	1.00	34.95	3155.68	-3122.39	2118.22
Fixation L	1	3	1837128401	1837426747	298346	1252.28	584.28	8	40	-1	13.40	13.40
Fixation R	1	3	1837128401	1837426747	298346	1252.28	584.28	8	40	-1	11.71	11.71
Saccade L	1	3	1837426747	1837466620	39873	1247.07	578.04	901.64	528.44	3.09	207.42	0.50	77.47	5133.38	-4657.77	4215.38
Saccade R	1	3	1837426747	1837466620	39873	1247.07	578.04	901.64	528.44	3.09	207.42	0.50	77.47	5133.38	-4657.77	4215.38
Fixation L	1	4	1837466620	1838600312	1133692	881.18	528.68	37	39	-1	14.28	14.28
Fixation R	1	4	1837466620	1838600312	1133692	881.18	528.68	37	39	-1	12.88	12.88
