[BeGaze]
Converted from:	C:\Documents and Settings\iViewX\Desktop\EXPERIMENTATIONS\Experiments\results\finaleart\S02123220-finaleart-1.idf
Date:	27.03.2019 15:33:41
Version:	BeGaze 2.5.77
Sample Rate:	50
Subject:	S02123220
Description:	David Xu

Table Header for Fixations:
Event Type	Trial	Number	Start	End	Duration	Location X	Location Y	Dispersion X	Dispersion Y	Plane	Avg. Pupil Size X	Avg. Pupil Size Y

Table Header for Saccades:
Event Type	Trial	Number	Start	End	Duration	Start Loc.X	Start Loc.Y	End Loc.X	End Loc.Y	Amplitude	Peak Speed	Peak Speed At	Average Speed	Peak Accel.	Peak Decel.	Average Accel.

Table Header for Blinks:
Event Type	Trial	Number	Start	End	Duration

Table Header for User Events:
Event Type	Trial	Number	Start	Description

UserEvent	1	1	1732439368	# Message: void.jpg
Blink L	1	1	1732448634	1732567874	119240
Blink R	1	1	1732448634	1732567874	119240
Fixation L	1	1	1732567874	1732945839	377965	974.15	453.03	34	27	-1	12.17	12.17
Fixation R	1	1	1732567874	1732945839	377965	974.15	453.03	34	27	-1	11.24	11.24
Saccade L	1	1	1732945839	1732985579	39740	961.86	458.41	1159.16	457.09	1.76	131.10	1.00	44.27	3222.26	-3096.66	2319.90
Saccade R	1	1	1732945839	1732985579	39740	961.86	458.41	1159.16	457.09	1.76	131.10	1.00	44.27	3222.26	-3096.66	2319.90
Fixation L	1	2	1732985579	1733184454	198875	1168.84	436.93	38	35	-1	12.01	12.01
Fixation R	1	2	1732985579	1733184454	198875	1168.84	436.93	38	35	-1	10.02	10.02
Saccade L	1	2	1733184454	1733204457	20003	1143.38	425.11	959.56	431.38	1.39	186.00	1.00	69.51	4486.18	-4327.07	3142.38
Saccade R	1	2	1733184454	1733204457	20003	1143.38	425.11	959.56	431.38	1.39	186.00	1.00	69.51	4486.18	-4327.07	3142.38
Fixation L	1	3	1733204457	1733423191	218734	897.76	448.12	73	25	-1	12.06	12.06
Fixation R	1	3	1733204457	1733423191	218734	897.76	448.12	73	25	-1	10.68	10.68
Saccade L	1	3	1733423191	1733443057	19866	886.21	455.56	883.14	451.33	0.05	5.29	1.00	2.68	98.87	2.04	43.62
Saccade R	1	3	1733423191	1733443057	19866	886.21	455.56	883.14	451.33	0.05	5.29	1.00	2.68	98.87	2.04	43.62
Fixation L	1	4	1733443057	1734437616	994559	889.31	444.36	26	43	-1	13.21	13.21
Fixation R	1	4	1733443057	1734437616	994559	889.31	444.36	26	43	-1	11.80	11.80
