[BeGaze]
Converted from:	C:\Documents and Settings\iViewX\Desktop\EXPERIMENTATIONS\Experiments\results\finaleart\S02123220-finaleart-1.idf
Date:	27.03.2019 15:33:38
Version:	BeGaze 2.5.77
Sample Rate:	50
Subject:	S02123220
Description:	David Xu

Table Header for Fixations:
Event Type	Trial	Number	Start	End	Duration	Location X	Location Y	Dispersion X	Dispersion Y	Plane	Avg. Pupil Size X	Avg. Pupil Size Y

Table Header for Saccades:
Event Type	Trial	Number	Start	End	Duration	Start Loc.X	Start Loc.Y	End Loc.X	End Loc.Y	Amplitude	Peak Speed	Peak Speed At	Average Speed	Peak Accel.	Peak Decel.	Average Accel.

Table Header for Blinks:
Event Type	Trial	Number	Start	End	Duration

Table Header for User Events:
Event Type	Trial	Number	Start	Description

UserEvent	1	1	1435110908	# Message: garlic-cloves-and-knife-on-the-corner-of-a-table_caillebotte_1871.jpg
Saccade L	1	1	1435129887	1435189507	59620	869.08	392.27	997.82	472.34	2.24	75.59	0.67	37.65	1889.81	-1675.27	1258.25
Saccade R	1	1	1435129887	1435229259	99372	869.08	392.27	1011.14	485.53	2.99	75.59	0.40	30.09	1889.81	-1675.27	924.08
Fixation L	1	1	1435189507	1435527645	338138	1001.93	470.71	15	44	-1	14.36	14.36
Fixation R	1	1	1435249279	1435527645	278366	1001.80	468.94	11	44	-1	12.63	12.63
Saccade L	1	2	1435527645	1435567490	39845	1004.54	444.76	1008.56	662.43	1.95	123.57	0.50	48.97	2965.75	-2776.48	2543.56
Saccade R	1	2	1435527645	1435567490	39845	1004.54	444.76	1008.56	662.43	1.95	123.57	0.50	48.97	2965.75	-2776.48	2543.56
Fixation L	1	2	1435567490	1435746472	178982	1016.40	651.73	13	21	-1	14.39	14.39
Fixation R	1	2	1435567490	1435746472	178982	1016.40	651.73	13	21	-1	10.94	10.94
Saccade L	1	3	1435746472	1435766336	19864	1018.90	659.30	944.90	761.49	0.94	127.61	1.00	47.49	3162.06	-2993.64	2527.50
Saccade R	1	3	1435746472	1435766336	19864	1018.90	659.30	944.90	761.49	0.94	127.61	1.00	47.49	3162.06	-2993.64	2527.50
Fixation L	1	3	1435766336	1435905605	139269	881.92	771.20	78	17	-1	13.91	13.91
Fixation R	1	3	1435766336	1435905605	139269	881.92	771.20	78	17	-1	10.37	10.37
Saccade L	1	4	1435905605	1436004947	99342	869.31	779.13	621.92	771.32	3.78	170.87	0.80	38.08	3969.25	-3542.19	1643.57
Saccade R	1	4	1435905605	1436004947	99342	869.31	779.13	621.92	771.32	3.78	170.87	0.80	38.08	3969.25	-3542.19	1643.57
Fixation L	1	4	1436004947	1436223816	218869	613.57	760.41	20	27	-1	13.03	13.03
Fixation R	1	4	1436004947	1436223816	218869	613.57	760.41	20	27	-1	12.53	12.53
Saccade L	1	5	1436223816	1436263561	39745	618.99	744.78	516.19	717.04	1.31	60.70	0.50	32.97	1311.98	-1362.27	1188.04
Saccade R	1	5	1436223816	1436263561	39745	618.99	744.78	516.19	717.04	1.31	60.70	0.50	32.97	1311.98	-1362.27	1188.04
Fixation L	1	5	1436263561	1436382934	119373	487.30	698.05	42	28	-1	12.86	12.86
Fixation R	1	5	1436263561	1436382934	119373	487.30	698.05	42	28	-1	13.29	13.29
Saccade L	1	6	1436382934	1436422677	39743	482.21	692.00	1088.33	688.20	5.10	339.45	0.50	128.32	8315.86	-8172.80	7463.23
Saccade R	1	6	1436382934	1436422677	39743	482.21	692.00	1088.33	688.20	5.10	339.45	0.50	128.32	8315.86	-8172.80	7463.23
Fixation L	1	6	1436422677	1436661421	238744	1097.01	699.40	53	26	-1	13.30	13.30
Fixation R	1	6	1436422677	1436661421	238744	1097.01	699.40	53	26	-1	10.86	10.86
Saccade L	1	7	1436661421	1436681282	19861	1139.75	706.08	1236.43	708.74	0.80	97.83	1.00	40.50	2377.98	-2276.43	1876.43
Saccade R	1	7	1436661421	1436681282	19861	1139.75	706.08	1236.43	708.74	0.80	97.83	1.00	40.50	2377.98	-2276.43	1876.43
Fixation L	1	7	1436681282	1437019392	338110	1248.76	689.13	33	38	-1	13.64	13.64
Fixation R	1	7	1436681282	1437019392	338110	1248.76	689.13	33	38	-1	10.59	10.59
Saccade L	1	8	1437019392	1437039280	19888	1270.28	678.99	1313.85	671.52	0.43	44.72	1.00	21.82	943.76	-850.90	635.37
Saccade R	1	8	1437019392	1437039280	19888	1270.28	678.99	1313.85	671.52	0.43	44.72	1.00	21.82	943.76	-850.90	635.37
Fixation L	1	8	1437039280	1437337618	298338	1329.46	659.87	46	20	-1	13.47	13.47
Fixation R	1	8	1437039280	1437337618	298338	1329.46	659.87	46	20	-1	10.14	10.14
Saccade L	1	9	1437337618	1437357509	19891	1294.96	663.80	1216.53	681.21	0.67	81.27	1.00	33.73	1999.58	-1726.09	1439.39
Saccade R	1	9	1437337618	1437357509	19891	1294.96	663.80	1216.53	681.21	0.67	81.27	1.00	33.73	1999.58	-1726.09	1439.39
Fixation L	1	9	1437357509	1437795101	437592	1204.76	718.04	41	54	-1	13.82	13.82
Fixation R	1	9	1437357509	1437795101	437592	1204.76	718.04	41	54	-1	11.15	11.15
Saccade L	1	10	1437795101	1437814963	19862	1235.08	688.98	1240.45	671.01	0.47	33.08	1.00	23.68	394.40	-344.13	299.55
Saccade R	1	10	1437795101	1437814963	19862	1235.08	688.98	1240.45	671.01	0.47	33.08	1.00	23.68	394.40	-344.13	299.55
Fixation L	1	10	1437814963	1438073583	258620	1250.67	711.96	25	67	-1	14.12	14.12
Fixation R	1	10	1437814963	1438073583	258620	1250.67	711.96	25	67	-1	10.86	10.86
Saccade L	1	11	1438073583	1438192817	119234	1249.38	735.85	1154.06	837.94	3.24	55.16	1.00	27.20	968.43	-1151.84	693.47
Saccade R	1	11	1438073583	1438192817	119234	1249.38	735.85	1154.06	837.94	3.24	55.16	1.00	27.20	968.43	-1151.84	693.47
Fixation L	1	11	1438192817	1438610547	417730	1143.16	794.91	20	67	-1	14.30	14.30
Fixation R	1	11	1438192817	1438610547	417730	1143.16	794.91	20	67	-1	10.89	10.89
Saccade L	1	12	1438610547	1438630415	19868	1141.31	787.97	1266.26	785.56	0.87	126.40	1.00	43.65	3105.21	-2573.92	2157.68
Saccade R	1	12	1438610547	1438630415	19868	1141.31	787.97	1266.26	785.56	0.87	126.40	1.00	43.65	3105.21	-2573.92	2157.68
Fixation L	1	12	1438630415	1438908898	278483	1283.75	796.49	38	19	-1	14.40	14.40
Fixation R	1	12	1438630415	1438908898	278483	1283.75	796.49	38	19	-1	10.16	10.16
Saccade L	1	13	1438908898	1438928790	19892	1291.70	796.15	1369.15	785.10	0.54	79.13	1.00	26.95	1870.76	-1804.39	1229.24
Saccade R	1	13	1438908898	1438928790	19892	1291.70	796.15	1369.15	785.10	0.54	79.13	1.00	26.95	1870.76	-1804.39	1229.24
Fixation L	1	13	1438928790	1439087900	159110	1364.21	776.55	32	18	-1	14.41	14.41
Fixation R	1	13	1438928790	1439087900	159110	1364.21	776.55	32	18	-1	9.81	9.81
Saccade L	1	14	1439087900	1439107763	19863	1339.05	786.10	1140.17	768.01	1.59	201.94	1.00	80.10	5018.38	0.00	2509.19
Saccade R	1	14	1439087900	1439107763	19863	1339.05	786.10	1140.17	768.01	1.59	201.94	1.00	80.10	5018.38	0.00	2509.19
