[BeGaze]
Converted from:	C:\Documents and Settings\iViewX\Desktop\EXPERIMENTATIONS\Experiments\results\finaleart\S02123220-finaleart-1.idf
Date:	27.03.2019 15:33:43
Version:	BeGaze 2.5.77
Sample Rate:	50
Subject:	S02123220
Description:	David Xu

Table Header for Fixations:
Event Type	Trial	Number	Start	End	Duration	Location X	Location Y	Dispersion X	Dispersion Y	Plane	Avg. Pupil Size X	Avg. Pupil Size Y

Table Header for Saccades:
Event Type	Trial	Number	Start	End	Duration	Start Loc.X	Start Loc.Y	End Loc.X	End Loc.Y	Amplitude	Peak Speed	Peak Speed At	Average Speed	Peak Accel.	Peak Decel.	Average Accel.

Table Header for Blinks:
Event Type	Trial	Number	Start	End	Duration

Table Header for User Events:
Event Type	Trial	Number	Start	Description

UserEvent	1	1	1824175759	# Message: void.jpg
Saccade L	1	1	1824180189	1824219934	39745	1325.51	718.75	897.61	757.00	4.45	261.20	1.00	112.09	6529.96	-6375.82	4221.66
Saccade R	1	1	1824180189	1824219934	39745	1325.51	718.75	897.61	757.00	4.45	261.20	1.00	112.09	6529.96	-6375.82	4221.66
Fixation L	1	1	1824219934	1824379176	159242	914.71	766.35	21	27	-1	16.06	16.06
Fixation R	1	1	1824219934	1824379176	159242	914.71	766.35	21	27	-1	14.39	14.39
Saccade L	1	2	1824379176	1824418924	39748	918.48	776.67	575.10	832.62	3.12	180.08	1.00	78.39	4403.38	-4301.46	4104.15
Saccade R	1	2	1824379176	1824418924	39748	918.48	776.67	575.10	832.62	3.12	180.08	1.00	78.39	4403.38	-4301.46	4104.15
Fixation L	1	2	1824418924	1824657532	238608	575.70	868.20	16	46	-1	15.52	15.52
Fixation R	1	2	1824418924	1824657532	238608	575.70	868.20	16	46	-1	15.32	15.32
Saccade L	1	3	1824657532	1824697399	39867	587.67	869.05	883.67	791.64	3.06	191.15	0.50	76.71	4696.01	-3369.43	3398.15
Saccade R	1	3	1824657532	1824697399	39867	587.67	869.05	883.67	791.64	3.06	191.15	0.50	76.71	4696.01	-3369.43	3398.15
Fixation L	1	3	1824697399	1824816636	119237	923.59	759.67	49	47	-1	14.29	14.29
Fixation R	1	3	1824697399	1824816636	119237	923.59	759.67	49	47	-1	13.28	13.28
Saccade L	1	4	1824816636	1824836512	19876	932.49	743.66	929.23	736.84	0.53	84.20	1.00	26.64	5025.14	34.15	2317.78
Saccade R	1	4	1824816636	1824836512	19876	932.49	743.66	929.23	736.84	0.53	84.20	1.00	26.64	5025.14	34.15	2317.78
Blink L	1	1	1824836512	1825154758	318246
Blink R	1	1	1824836512	1825154758	318246
Fixation L	1	4	1825154758	1825433236	278478	828.90	426.66	36	62	-1	13.40	13.40
Fixation R	1	4	1825154758	1825433236	278478	828.90	426.66	36	62	-1	12.62	12.62
Saccade L	1	5	1825433236	1825453106	19870	833.44	454.67	838.36	459.66	0.15	11.69	1.00	7.75	204.85	80.31	122.84
Saccade R	1	5	1825433236	1825453106	19870	833.44	454.67	838.36	459.66	0.15	11.69	1.00	7.75	204.85	80.31	122.84
Fixation L	1	5	1825453106	1825572482	119376	839.46	485.05	7	46	-1	14.30	14.30
Fixation R	1	5	1825453106	1825572482	119376	839.46	485.05	7	46	-1	12.99	12.99
Saccade L	1	6	1825572482	1825632230	59748	844.20	506.63	1013.57	490.69	2.48	78.31	0.33	41.59	1886.89	-1208.64	1171.65
Saccade R	1	6	1825572482	1825632230	59748	844.20	506.63	1013.57	490.69	2.48	78.31	0.33	41.59	1886.89	-1208.64	1171.65
Fixation L	1	6	1825632230	1825910584	278354	1042.61	536.38	41	58	-1	15.22	15.22
Fixation R	1	6	1825632230	1825910584	278354	1042.61	536.38	41	58	-1	13.39	13.39
Saccade L	1	7	1825910584	1825930459	19875	1039.40	549.12	1038.29	549.70	0.08	6.93	1.00	4.02	13.21	-141.64	89.26
Saccade R	1	7	1825910584	1825930459	19875	1039.40	549.12	1038.29	549.70	0.08	6.93	1.00	4.02	13.21	-141.64	89.26
Fixation L	1	7	1825930459	1826169184	238725	1038.03	553.22	5	5	-1	15.16	15.16
Fixation R	1	7	1825930459	1826169184	238725	1038.03	553.22	5	5	-1	13.21	13.21
