[BeGaze]
Converted from:	C:\Documents and Settings\iViewX\Desktop\EXPERIMENTATIONS\Experiments\results\finaleart\S02123220-finaleart-1.idf
Date:	27.03.2019 15:33:27
Version:	BeGaze 2.5.77
Sample Rate:	50
Subject:	S02123220
Description:	David Xu

Table Header for Fixations:
Event Type	Trial	Number	Start	End	Duration	Location X	Location Y	Dispersion X	Dispersion Y	Plane	Avg. Pupil Size X	Avg. Pupil Size Y

Table Header for Saccades:
Event Type	Trial	Number	Start	End	Duration	Start Loc.X	Start Loc.Y	End Loc.X	End Loc.Y	Amplitude	Peak Speed	Peak Speed At	Average Speed	Peak Accel.	Peak Decel.	Average Accel.

Table Header for Blinks:
Event Type	Trial	Number	Start	End	Duration

Table Header for User Events:
Event Type	Trial	Number	Start	Description

UserEvent	1	1	367712994	# Message: void.jpg
Fixation L	1	1	367728983	367888080	159097	847.18	436.48	5	20	-1	14.97	14.97
Fixation R	1	1	367728983	367888080	159097	847.18	436.48	5	20	-1	14.31	14.31
Saccade L	1	1	367888080	367907965	19885	844.96	426.60	1007.11	493.95	1.09	177.56	1.00	54.63	4367.75	-3880.54	2924.83
Saccade R	1	1	367888080	367907965	19885	844.96	426.60	1007.11	493.95	1.09	177.56	1.00	54.63	4367.75	-3880.54	2924.83
Fixation L	1	2	367907965	368206312	298347	1026.10	539.19	26	55	-1	15.35	15.35
Fixation R	1	2	367907965	368206312	298347	1026.10	539.19	26	55	-1	14.18	14.18
Saccade L	1	2	368206312	368226183	19871	1026.47	548.13	975.21	547.24	0.50	51.85	1.00	24.91	1263.15	-1260.97	1224.78
Saccade R	1	2	368206312	368226183	19871	1026.47	548.13	975.21	547.24	0.50	51.85	1.00	24.91	1263.15	-1260.97	1224.78
Fixation L	1	3	368226183	368444936	218753	931.27	556.31	50	14	-1	14.80	14.80
Fixation R	1	3	368226183	368444936	218753	931.27	556.31	50	14	-1	14.25	14.25
Saccade L	1	3	368444936	368484808	39872	925.69	561.93	831.57	715.50	1.79	138.33	0.50	44.82	3404.02	-3134.17	2432.88
Saccade R	1	3	368444936	368484808	39872	925.69	561.93	831.57	715.50	1.79	138.33	0.50	44.82	3404.02	-3134.17	2432.88
Fixation L	1	4	368484808	368643909	159101	816.82	712.58	20	8	-1	14.97	14.97
Fixation R	1	4	368484808	368643909	159101	816.82	712.58	20	8	-1	14.37	14.37
Saccade L	1	4	368643909	368683662	39753	810.67	717.55	758.57	992.83	2.56	168.47	0.50	64.49	4148.14	-3586.16	3351.69
Saccade R	1	4	368643909	368683662	39753	810.67	717.55	758.57	992.83	2.56	168.47	0.50	64.49	4148.14	-3586.16	3351.69
Fixation L	1	5	368683662	369101386	417724	733.17	987.23	32	20	-1	15.25	15.25
Fixation R	1	5	368683662	369101386	417724	733.17	987.23	32	20	-1	15.63	15.63
Saccade L	1	5	369101386	369141127	39741	734.33	988.34	634.28	847.52	1.72	109.79	1.00	43.33	2725.81	-1774.33	2072.72
Saccade R	1	5	369101386	369141127	39741	734.33	988.34	634.28	847.52	1.72	109.79	1.00	43.33	2725.81	-1774.33	2072.72
Fixation L	1	6	369141127	369419610	278483	616.93	813.93	27	71	-1	15.66	15.66
Fixation R	1	6	369141127	369419610	278483	616.93	813.93	27	71	-1	16.06	16.06
Saccade L	1	6	369419610	369439484	19874	606.88	816.08	605.14	821.98	0.10	8.03	1.00	5.08	133.94	88.31	112.77
Saccade R	1	6	369419610	369439484	19874	606.88	816.08	605.14	821.98	0.10	8.03	1.00	5.08	133.94	88.31	112.77
Fixation L	1	7	369439484	369916870	477386	621.98	837.88	33	30	-1	15.80	15.80
Fixation R	1	7	369439484	369916870	477386	621.98	837.88	33	30	-1	16.28	16.28
Saccade L	1	7	369916870	369956615	39745	638.46	836.41	916.37	680.85	3.10	182.95	0.50	78.06	4479.26	-4121.64	4165.21
Saccade R	1	7	369916870	369956615	39745	638.46	836.41	916.37	680.85	3.10	182.95	0.50	78.06	4479.26	-4121.64	4165.21
Fixation L	1	8	369956615	370493595	536980	955.69	675.51	49	33	-1	16.04	16.04
Fixation R	1	8	369956615	370493595	536980	955.69	675.51	49	33	-1	15.45	15.45
Saccade L	1	8	370493595	370513559	19964	962.91	693.75	1137.11	572.32	1.51	214.72	1.00	75.76	5296.32	-4942.75	3697.21
Saccade R	1	8	370493595	370513559	19964	962.91	693.75	1137.11	572.32	1.51	214.72	1.00	75.76	5296.32	-4942.75	3697.21
Fixation L	1	9	370513559	370632791	119232	1158.15	541.14	35	47	-1	16.11	16.11
Fixation R	1	9	370513559	370632791	119232	1158.15	541.14	35	47	-1	14.81	14.81
Blink L	1	1	370632791	370911273	278482
Blink R	1	1	370632791	370931158	298367
Blink L	1	2	370931158	371070395	139237
Blink R	1	2	370951020	371070395	119375
Fixation L	1	10	371070395	371507984	437589	964.57	479.72	14	26	-1	17.01	17.01
Fixation R	1	10	371070395	371507984	437589	964.57	479.72	14	26	-1	16.79	16.79
Saccade L	1	9	371507984	371527879	19895	964.37	493.62	893.89	489.23	0.46	71.43	1.00	23.07	1663.42	-1680.56	1150.12
Saccade R	1	9	371507984	371527879	19895	964.37	493.62	893.89	489.23	0.46	71.43	1.00	23.07	1663.42	-1680.56	1150.12
Fixation L	1	11	371527879	372462677	934798	866.75	497.17	34	33	-1	17.34	17.34
Fixation R	1	11	371527879	372462677	934798	866.75	497.17	34	33	-1	17.60	17.60
