[BeGaze]
Converted from:	C:\Documents and Settings\iViewX\Desktop\EXPERIMENTATIONS\Experiments\results\finaleart\S02123220-finaleart-1.idf
Date:	27.03.2019 15:33:34
Version:	BeGaze 2.5.77
Sample Rate:	50
Subject:	S02123220
Description:	David Xu

Table Header for Fixations:
Event Type	Trial	Number	Start	End	Duration	Location X	Location Y	Dispersion X	Dispersion Y	Plane	Avg. Pupil Size X	Avg. Pupil Size Y

Table Header for Saccades:
Event Type	Trial	Number	Start	End	Duration	Start Loc.X	Start Loc.Y	End Loc.X	End Loc.Y	Amplitude	Peak Speed	Peak Speed At	Average Speed	Peak Accel.	Peak Decel.	Average Accel.

Table Header for Blinks:
Event Type	Trial	Number	Start	End	Duration

Table Header for User Events:
Event Type	Trial	Number	Start	Description

UserEvent	1	1	1076603292	# Message: Kiprensky-two-sitters-1800.jpg
Fixation L	1	1	1076622874	1077060341	437467	926.07	456.36	8	28	-1	16.27	16.27
Fixation R	1	1	1076622874	1077060341	437467	926.07	456.36	8	28	-1	13.80	13.80
Saccade L	1	1	1077060341	1077080219	19878	933.04	469.08	1082.24	290.50	1.25	235.28	1.00	63.01	5779.84	-5774.04	3864.35
Saccade R	1	1	1077060341	1077080219	19878	933.04	469.08	1082.24	290.50	1.25	235.28	1.00	63.01	5779.84	-5774.04	3864.35
Fixation L	1	2	1077080219	1077438326	358107	1086.68	313.52	9	47	-1	13.75	13.75
Fixation R	1	2	1077080219	1077438326	358107	1086.68	313.52	9	47	-1	11.54	11.54
Saccade L	1	2	1077438326	1077458193	19867	1091.69	317.50	1210.71	357.24	0.95	126.93	1.00	47.61	3112.76	-2987.48	2221.22
Saccade R	1	2	1077438326	1077458193	19867	1091.69	317.50	1210.71	357.24	0.95	126.93	1.00	47.61	3112.76	-2987.48	2221.22
Fixation L	1	3	1077458193	1077577570	119377	1186.81	390.37	31	47	-1	11.99	11.99
Fixation R	1	3	1077458193	1077577570	119377	1186.81	390.37	31	47	-1	9.26	9.26
Saccade L	1	3	1077577570	1077617315	39745	1188.12	404.35	1145.27	647.37	2.42	156.54	0.50	60.83	3793.71	-3315.27	3108.14
Saccade R	1	3	1077577570	1077617315	39745	1188.12	404.35	1145.27	647.37	2.42	156.54	0.50	60.83	3793.71	-3315.27	3108.14
Fixation L	1	4	1077617315	1077855928	238613	1112.54	629.30	41	27	-1	12.81	12.81
Fixation R	1	4	1077617315	1077855928	238613	1112.54	629.30	41	27	-1	9.88	9.88
Saccade L	1	4	1077855928	1077875931	20003	1103.65	627.89	1002.17	624.08	0.75	102.73	1.00	37.63	2344.49	-2295.45	1756.24
Saccade R	1	4	1077855928	1077875931	20003	1103.65	627.89	1002.17	624.08	0.75	102.73	1.00	37.63	2344.49	-2295.45	1756.24
Fixation L	1	5	1077875931	1078134410	258479	975.14	608.97	35	33	-1	13.71	13.71
Fixation R	1	5	1077875931	1078134410	258479	975.14	608.97	35	33	-1	10.57	10.57
Saccade L	1	5	1078134410	1078174153	39743	966.46	609.29	605.18	595.19	3.07	216.73	0.50	77.26	5376.68	-5279.35	4375.73
Saccade R	1	5	1078134410	1078174153	39743	966.46	609.29	605.18	595.19	3.07	216.73	0.50	77.26	5376.68	-5279.35	4375.73
Fixation L	1	6	1078174153	1078393017	218864	610.95	585.36	23	28	-1	13.53	13.53
Fixation R	1	6	1078174153	1078393017	218864	610.95	585.36	23	28	-1	11.79	11.79
Saccade L	1	6	1078393017	1078412888	19871	596.03	579.96	490.25	565.86	0.72	107.95	1.00	36.48	2537.79	-2594.33	1841.45
Saccade R	1	6	1078393017	1078412888	19871	596.03	579.96	490.25	565.86	0.72	107.95	1.00	36.48	2537.79	-2594.33	1841.45
Fixation L	1	7	1078412888	1078671501	258613	481.88	554.63	34	21	-1	13.38	13.38
Fixation R	1	7	1078412888	1078671501	258613	481.88	554.63	34	21	-1	12.14	12.14
Saccade L	1	7	1078671501	1078711250	39749	455.68	547.01	1025.01	546.71	4.93	289.38	0.50	124.10	7060.11	-7150.02	6920.20
Saccade R	1	7	1078671501	1078711250	39749	455.68	547.01	1025.01	546.71	4.93	289.38	0.50	124.10	7060.11	-7150.02	6920.20
Fixation L	1	8	1078711250	1079029471	318221	1041.39	549.02	22	13	-1	13.99	13.99
Fixation R	1	8	1078711250	1079029471	318221	1041.39	549.02	22	13	-1	11.24	11.24
Saccade L	1	8	1079029471	1079069221	39750	1039.03	546.85	1182.58	270.35	2.68	179.80	1.00	67.54	4430.17	-4446.74	3817.92
Saccade R	1	8	1079029471	1079069221	39750	1039.03	546.85	1182.58	270.35	2.68	179.80	1.00	67.54	4430.17	-4446.74	3817.92
Fixation L	1	9	1079069221	1079506820	437599	1195.46	265.99	20	19	-1	14.22	14.22
Fixation R	1	9	1079069221	1079506820	437599	1195.46	265.99	20	19	-1	11.72	11.72
Saccade L	1	9	1079506820	1079526700	19880	1201.38	270.91	1346.57	281.57	0.95	147.24	1.00	47.57	3546.74	-3345.59	2483.62
Saccade R	1	9	1079506820	1079526700	19880	1201.38	270.91	1346.57	281.57	0.95	147.24	1.00	47.57	3546.74	-3345.59	2483.62
Fixation L	1	10	1079526700	1079805180	278480	1368.66	316.56	29	59	-1	14.93	14.93
Fixation R	1	10	1079526700	1079805180	278480	1368.66	316.56	29	59	-1	11.67	11.67
Saccade L	1	10	1079805180	1079864799	59619	1367.67	340.54	1039.26	640.13	4.71	248.14	0.67	79.02	6171.23	-5994.64	3774.18
Saccade R	1	10	1079805180	1079864799	59619	1367.67	340.54	1039.26	640.13	4.71	248.14	0.67	79.02	6171.23	-5994.64	3774.18
Fixation L	1	11	1079864799	1080203033	338234	1028.67	640.22	18	24	-1	15.51	15.51
Fixation R	1	11	1079864799	1080203033	338234	1028.67	640.22	18	24	-1	12.35	12.35
Saccade L	1	11	1080203033	1080242782	39749	1022.70	638.66	781.05	572.23	2.59	163.09	0.50	65.06	3464.49	-3331.04	2710.19
Saccade R	1	11	1080203033	1080242782	39749	1022.70	638.66	781.05	572.23	2.59	163.09	0.50	65.06	3464.49	-3331.04	2710.19
Fixation L	1	12	1080242782	1080600762	357980	783.68	576.80	22	64	-1	15.03	15.03
Fixation R	1	12	1080242782	1080600762	357980	783.68	576.80	22	64	-1	12.52	12.52
