[BeGaze]
Converted from:	C:\Documents and Settings\iViewX\Desktop\EXPERIMENTATIONS\Experiments\results\finaleart\S02123220-finaleart-1.idf
Date:	27.03.2019 15:33:34
Version:	BeGaze 2.5.77
Sample Rate:	50
Subject:	S02123220
Description:	David Xu

Table Header for Fixations:
Event Type	Trial	Number	Start	End	Duration	Location X	Location Y	Dispersion X	Dispersion Y	Plane	Avg. Pupil Size X	Avg. Pupil Size Y

Table Header for Saccades:
Event Type	Trial	Number	Start	End	Duration	Start Loc.X	Start Loc.Y	End Loc.X	End Loc.Y	Amplitude	Peak Speed	Peak Speed At	Average Speed	Peak Accel.	Peak Decel.	Average Accel.

Table Header for Blinks:
Event Type	Trial	Number	Start	End	Duration

Table Header for User Events:
Event Type	Trial	Number	Start	Description

UserEvent	1	1	1092869935	# Message: void.jpg
Fixation L	1	1	1092872764	1093012194	139430	812.67	683.09	27	21	-1	15.52	15.52
Fixation R	1	1	1092872764	1093012194	139430	812.67	683.09	27	21	-1	14.49	14.49
Saccade L	1	1	1093012194	1093031954	19760	790.58	669.26	687.74	627.18	0.77	112.39	1.00	39.03	2760.84	-2339.20	1875.52
Saccade R	1	1	1093012194	1093031954	19760	790.58	669.26	687.74	627.18	0.77	112.39	1.00	39.03	2760.84	-2339.20	1875.52
Fixation L	1	2	1093031954	1093151263	119309	683.12	605.50	16	35	-1	14.97	14.97
Fixation R	1	2	1093031954	1093151263	119309	683.12	605.50	16	35	-1	14.64	14.64
Saccade L	1	2	1093151263	1093190983	39720	677.26	591.68	824.21	856.32	2.73	189.70	1.00	68.78	4670.16	-4059.28	3695.91
Saccade R	1	2	1093151263	1093190983	39720	677.26	591.68	824.21	856.32	2.73	189.70	1.00	68.78	4670.16	-4059.28	3695.91
Fixation L	1	3	1093190983	1093330230	139247	839.92	869.66	64	29	-1	15.12	15.12
Fixation R	1	3	1093190983	1093330230	139247	839.92	869.66	64	29	-1	14.02	14.02
Saccade L	1	3	1093330230	1093369973	39743	888.74	863.61	1115.59	615.50	3.29	233.12	0.50	82.87	5667.22	-5521.83	3886.85
Saccade R	1	3	1093330230	1093369973	39743	888.74	863.61	1115.59	615.50	3.29	233.12	0.50	82.87	5667.22	-5521.83	3886.85
Fixation L	1	4	1093369973	1093529094	159121	1126.04	609.92	19	14	-1	14.50	14.50
Fixation R	1	4	1093369973	1093529094	159121	1126.04	609.92	19	14	-1	12.87	12.87
Blink L	1	1	1093529094	1093867201	338107
Blink R	1	1	1093529094	1093867201	338107
Fixation L	1	5	1093867201	1094762270	895069	885.74	439.88	25	74	-1	14.24	14.24
Fixation R	1	5	1093867201	1094762270	895069	885.74	439.88	25	74	-1	12.95	12.95
Saccade L	1	4	1094762270	1094861765	99495	886.31	462.55	887.55	458.98	0.33	6.51	0.20	3.34	76.35	-85.47	56.80
Saccade R	1	4	1094762270	1094861765	99495	886.31	462.55	887.55	458.98	0.33	6.51	0.20	3.34	76.35	-85.47	56.80
