[BeGaze]
Converted from:	C:\Documents and Settings\iViewX\Desktop\EXPERIMENTATIONS\Experiments\results\finaleart\S02123220-finaleart-1.idf
Date:	27.03.2019 15:33:46
Version:	BeGaze 2.5.77
Sample Rate:	50
Subject:	S02123220
Description:	David Xu

Table Header for Fixations:
Event Type	Trial	Number	Start	End	Duration	Location X	Location Y	Dispersion X	Dispersion Y	Plane	Avg. Pupil Size X	Avg. Pupil Size Y

Table Header for Saccades:
Event Type	Trial	Number	Start	End	Duration	Start Loc.X	Start Loc.Y	End Loc.X	End Loc.Y	Amplitude	Peak Speed	Peak Speed At	Average Speed	Peak Accel.	Peak Decel.	Average Accel.

Table Header for Blinks:
Event Type	Trial	Number	Start	End	Duration

Table Header for User Events:
Event Type	Trial	Number	Start	Description

UserEvent	1	1	2215044340	# Message: Le_Chemin_De_Fer_Berlin_Potsdam_Menzel_1847.jpg
Fixation L	1	1	2215059904	2215477631	417727	923.45	476.50	11	36	-1	14.59	14.59
Fixation R	1	1	2215059904	2215477631	417727	923.45	476.50	11	36	-1	13.71	13.71
Saccade L	1	1	2215477631	2215497503	19872	930.46	502.58	965.54	635.89	0.94	139.43	1.00	47.30	3423.06	-3404.01	2465.30
Saccade R	1	1	2215477631	2215497503	19872	930.46	502.58	965.54	635.89	0.94	139.43	1.00	47.30	3423.06	-3404.01	2465.30
Fixation L	1	2	2215497503	2215676494	178991	964.63	620.63	17	69	-1	14.26	14.26
Fixation R	1	2	2215497503	2215676494	178991	964.63	620.63	17	69	-1	12.99	12.99
Saccade L	1	2	2215676494	2215696355	19861	963.44	673.03	877.03	795.26	1.32	151.40	1.00	66.24	3450.67	-3580.56	2410.95
Saccade R	1	2	2215676494	2215696355	19861	963.44	673.03	877.03	795.26	1.32	151.40	1.00	66.24	3450.67	-3580.56	2410.95
Fixation L	1	3	2215696355	2215895369	199014	855.96	812.16	38	36	-1	13.50	13.50
Fixation R	1	3	2215696355	2215895369	199014	855.96	812.16	38	36	-1	11.91	11.91
Saccade L	1	3	2215895369	2215935094	39725	854.16	805.64	724.19	510.87	2.92	215.89	0.50	73.52	5368.51	-4850.52	3960.11
Saccade R	1	3	2215895369	2215935094	39725	854.16	805.64	724.19	510.87	2.92	215.89	0.50	73.52	5368.51	-4850.52	3960.11
Fixation L	1	4	2215935094	2216949416	1014322	689.17	497.49	49	49	-1	13.90	13.90
Fixation R	1	4	2215935094	2216949416	1014322	689.17	497.49	49	49	-1	13.22	13.22
Saccade L	1	4	2216949416	2216969410	19994	683.52	525.43	689.61	529.33	0.20	25.69	1.00	9.87	566.98	96.31	254.42
Saccade R	1	4	2216949416	2216969410	19994	683.52	525.43	689.61	529.33	0.20	25.69	1.00	9.87	566.98	96.31	254.42
Fixation L	1	5	2216969410	2217148392	178982	709.84	545.86	37	30	-1	15.03	15.03
Fixation R	1	5	2216969410	2217148392	178982	709.84	545.86	37	30	-1	14.11	14.11
Saccade L	1	5	2217148392	2217208024	59632	726.83	554.79	955.17	914.87	5.37	256.23	0.33	90.04	6138.60	-5390.35	3894.97
Saccade R	1	5	2217148392	2217208024	59632	726.83	554.79	955.17	914.87	5.37	256.23	0.33	90.04	6138.60	-5390.35	3894.97
Fixation L	1	6	2217208024	2217565998	357974	954.28	942.99	17	47	-1	15.24	15.24
Fixation R	1	6	2217208024	2217565998	357974	954.28	942.99	17	47	-1	13.30	13.30
Saccade L	1	6	2217565998	2217605866	39868	961.88	928.46	897.66	875.32	1.83	105.63	0.50	45.89	2424.76	-1680.99	1725.62
Saccade R	1	6	2217565998	2217605866	39868	961.88	928.46	897.66	875.32	1.83	105.63	0.50	45.89	2424.76	-1680.99	1725.62
Fixation L	1	7	2217605866	2217764989	159123	891.42	869.32	12	43	-1	14.01	14.01
Fixation R	1	7	2217605866	2217764989	159123	891.42	869.32	12	43	-1	12.47	12.47
Saccade L	1	7	2217764989	2217804733	39744	889.70	867.06	1242.30	755.27	3.29	219.08	1.00	82.76	5289.87	-5232.02	4367.52
Saccade R	1	7	2217764989	2217804733	39744	889.70	867.06	1242.30	755.27	3.29	219.08	1.00	82.76	5289.87	-5232.02	4367.52
Fixation L	1	8	2217804733	2218083217	278484	1273.75	742.56	38	41	-1	14.10	14.10
Fixation R	1	8	2217804733	2218083217	278484	1273.75	742.56	38	41	-1	11.92	11.92
Saccade L	1	8	2218083217	2218103099	19882	1280.38	713.35	1282.71	587.02	0.94	127.80	1.00	47.27	2702.82	-3124.47	2245.07
Saccade R	1	8	2218083217	2218103099	19882	1280.38	713.35	1282.71	587.02	0.94	127.80	1.00	47.27	2702.82	-3124.47	2245.07
Fixation L	1	9	2218103099	2218341707	238608	1288.10	591.67	16	61	-1	13.86	13.86
Fixation R	1	9	2218103099	2218341707	238608	1288.10	591.67	16	61	-1	12.22	12.22
Saccade L	1	9	2218341707	2218361705	19998	1275.77	641.62	1275.54	679.28	0.61	51.75	0.00	30.59	854.90	-578.44	609.42
Saccade R	1	9	2218341707	2218361705	19998	1275.77	641.62	1275.54	679.28	0.61	51.75	0.00	30.59	854.90	-578.44	609.42
Fixation L	1	10	2218361705	2218520817	159112	1277.74	624.99	9	85	-1	14.05	14.05
Fixation R	1	10	2218361705	2218520817	159112	1277.74	624.99	9	85	-1	12.04	12.04
Saccade L	1	10	2218520817	2218540708	19891	1283.41	594.21	1286.41	589.81	0.15	15.84	0.00	7.59	34.11	-268.75	118.16
Saccade R	1	10	2218520817	2218540708	19891	1283.41	594.21	1286.41	589.81	0.15	15.84	0.00	7.59	34.11	-268.75	118.16
Fixation L	1	11	2218540708	2218640062	99354	1288.13	591.20	22	7	-1	14.10	14.10
Fixation R	1	11	2218540708	2218640062	99354	1288.13	591.20	22	7	-1	12.13	12.13
Saccade L	1	11	2218640062	2218779300	139238	1272.50	588.96	709.21	449.30	11.85	288.26	0.29	85.13	6640.57	-6433.16	2918.30
Saccade R	1	11	2218640062	2218779300	139238	1272.50	588.96	709.21	449.30	11.85	288.26	0.29	85.13	6640.57	-6433.16	2918.30
Fixation L	1	12	2218779300	2219037906	258606	726.00	487.02	23	61	-1	14.46	14.46
Fixation R	1	12	2218779300	2219037906	258606	726.00	487.02	23	61	-1	13.70	13.70
