[BeGaze]
Converted from:	C:\Documents and Settings\iViewX\Desktop\EXPERIMENTATIONS\Experiments\results\finaleart\S01A22542-finaleart-1.idf
Date:	27.03.2019 15:33:19
Version:	BeGaze 2.5.77
Sample Rate:	50
Subject:	S01A22542
Description:	Thibault Seve Minnaert

Table Header for Fixations:
Event Type	Trial	Number	Start	End	Duration	Location X	Location Y	Dispersion X	Dispersion Y	Plane	Avg. Pupil Size X	Avg. Pupil Size Y

Table Header for Saccades:
Event Type	Trial	Number	Start	End	Duration	Start Loc.X	Start Loc.Y	End Loc.X	End Loc.Y	Amplitude	Peak Speed	Peak Speed At	Average Speed	Peak Accel.	Peak Decel.	Average Accel.

Table Header for Blinks:
Event Type	Trial	Number	Start	End	Duration

Table Header for User Events:
Event Type	Trial	Number	Start	Description

UserEvent	1	1	9151095082	# Message: void.jpg
Saccade L	1	1	9151097995	9151137854	39859	527.76	712.55	526.07	615.89	1.40	94.03	1.00	35.20	2350.82	-2149.14	1369.08
Saccade R	1	1	9151097995	9151137854	39859	527.76	712.55	526.07	615.89	1.40	94.03	1.00	35.20	2350.82	-2149.14	1369.08
Fixation L	1	1	9151137854	9151336841	198987	519.90	568.69	35	56	-1	12.46	12.46
Fixation R	1	1	9151137854	9151336841	198987	519.90	568.69	35	56	-1	13.71	13.71
Saccade L	1	2	9151336841	9151356862	20021	491.09	559.85	485.51	554.66	0.28	21.32	1.00	13.95	90.63	-340.10	147.23
Saccade R	1	2	9151336841	9151356862	20021	491.09	559.85	485.51	554.66	0.28	21.32	1.00	13.95	90.63	-340.10	147.23
Fixation L	1	2	9151356862	9151516089	159227	485.79	549.48	21	9	-1	12.73	12.73
Fixation R	1	2	9151356862	9151516089	159227	485.79	549.48	21	9	-1	13.84	13.84
Blink L	1	1	9151516089	9151774949	258860
Blink R	1	1	9151516089	9151774949	258860
Fixation L	1	3	9151774949	9151874448	99499	848.10	730.78	5	10	-1	14.30	14.30
Fixation R	1	3	9151774949	9151874448	99499	848.10	730.78	5	10	-1	15.07	15.07
Saccade L	1	3	9151874448	9151914314	39866	846.35	733.76	1023.94	516.31	2.48	151.16	1.00	62.13	3647.71	-3656.32	3375.35
Saccade R	1	3	9151874448	9151914314	39866	846.35	733.76	1023.94	516.31	2.48	151.16	1.00	62.13	3647.71	-3656.32	3375.35
Fixation L	1	4	9151914314	9152332424	418110	1029.26	507.49	16	32	-1	14.93	14.93
Fixation R	1	4	9151914314	9152332424	418110	1029.26	507.49	16	32	-1	15.17	15.17
Saccade L	1	4	9152332424	9152352293	19869	1025.98	526.95	929.93	525.90	0.55	97.16	1.00	27.66	2358.06	-2308.09	1582.40
Saccade R	1	4	9152332424	9152352293	19869	1025.98	526.95	929.93	525.90	0.55	97.16	1.00	27.66	2358.06	-2308.09	1582.40
Fixation L	1	5	9152352293	9152730646	378353	915.19	523.81	20	30	-1	15.27	15.27
Fixation R	1	5	9152352293	9152730646	378353	915.19	523.81	20	30	-1	15.18	15.18
Saccade L	1	5	9152730646	9152750537	19891	915.85	546.71	904.91	598.02	0.39	53.07	1.00	19.63	1291.84	-1309.01	1034.25
Saccade R	1	5	9152730646	9152750537	19891	915.85	546.71	904.91	598.02	0.39	53.07	1.00	19.63	1291.84	-1309.01	1034.25
Fixation L	1	6	9152750537	9153089019	338482	890.12	621.43	22	51	-1	15.72	15.72
Fixation R	1	6	9152750537	9153089019	338482	890.12	621.43	22	51	-1	15.72	15.72
