[BeGaze]
Converted from:	C:\Documents and Settings\iViewX\Desktop\EXPERIMENTATIONS\Experiments\results\finaleart\S01A22542-finaleart-1.idf
Date:	27.03.2019 15:33:22
Version:	BeGaze 2.5.77
Sample Rate:	50
Subject:	S01A22542
Description:	Thibault Seve Minnaert

Table Header for Fixations:
Event Type	Trial	Number	Start	End	Duration	Location X	Location Y	Dispersion X	Dispersion Y	Plane	Avg. Pupil Size X	Avg. Pupil Size Y

Table Header for Saccades:
Event Type	Trial	Number	Start	End	Duration	Start Loc.X	Start Loc.Y	End Loc.X	End Loc.Y	Amplitude	Peak Speed	Peak Speed At	Average Speed	Peak Accel.	Peak Decel.	Average Accel.

Table Header for Blinks:
Event Type	Trial	Number	Start	End	Duration

Table Header for User Events:
Event Type	Trial	Number	Start	Description

UserEvent	1	1	9570628852	# Message: void.jpg
Fixation L	1	1	9570632931	9570811906	178975	1292.06	351.12	12	16	-1	12.74	12.74
Fixation R	1	1	9570632931	9570811906	178975	1292.06	351.12	12	16	-1	12.79	12.79
Saccade L	1	1	9570811906	9570951154	139248	1288.62	351.81	843.96	273.70	7.19	190.72	0.14	51.61	4671.87	-4477.11	2403.44
Saccade R	1	1	9570811906	9570951154	139248	1288.62	351.81	843.96	273.70	7.19	190.72	0.14	51.61	4671.87	-4477.11	2403.44
Fixation L	1	2	9570951154	9571289255	338101	817.75	269.05	34	8	-1	11.98	11.98
Fixation R	1	2	9570951154	9571289255	338101	817.75	269.05	34	8	-1	12.34	12.34
Blink L	1	1	9571289255	9571448376	159121
Blink R	1	1	9571289255	9571448376	159121
Fixation L	1	3	9571448376	9572144468	696092	978.62	472.92	11	45	-1	15.04	15.04
Fixation R	1	3	9571448376	9572144468	696092	978.62	472.92	11	45	-1	14.85	14.85
Saccade L	1	2	9572144468	9572164457	19989	978.50	475.97	1055.65	496.92	0.72	80.86	1.00	35.85	2011.58	-1718.56	1746.76
Saccade R	1	2	9572144468	9572164457	19989	978.50	475.97	1055.65	496.92	0.72	80.86	1.00	35.85	2011.58	-1718.56	1746.76
Fixation L	1	4	9572164457	9572323579	159122	1093.34	536.87	47	51	-1	15.38	15.38
Fixation R	1	4	9572164457	9572323579	159122	1093.34	536.87	47	51	-1	15.56	15.56
Saccade L	1	3	9572323579	9572343458	19879	1103.54	544.98	1106.01	538.85	0.09	6.69	1.00	4.33	101.86	-96.92	95.35
Saccade R	1	3	9572323579	9572343458	19879	1103.54	544.98	1106.01	538.85	0.09	6.69	1.00	4.33	101.86	-96.92	95.35
Fixation L	1	5	9572343458	9572601941	258483	1104.93	530.70	49	19	-1	15.32	15.32
Fixation R	1	5	9572343458	9572601941	258483	1104.93	530.70	49	19	-1	15.23	15.23
Saccade L	1	4	9572601941	9572621840	19899	1060.91	520.72	959.42	521.86	1.01	102.67	1.00	50.68	2495.79	0.00	1247.89
Saccade R	1	4	9572601941	9572621840	19899	1060.91	520.72	959.42	521.86	1.01	102.67	1.00	50.68	2495.79	0.00	1247.89
