[BeGaze]
Converted from:	C:\Documents and Settings\iViewX\Desktop\EXPERIMENTATIONS\Experiments\results\finaleart\S01A22542-finaleart-1.idf
Date:	27.03.2019 15:33:23
Version:	BeGaze 2.5.77
Sample Rate:	50
Subject:	S01A22542
Description:	Thibault Seve Minnaert

Table Header for Fixations:
Event Type	Trial	Number	Start	End	Duration	Location X	Location Y	Dispersion X	Dispersion Y	Plane	Avg. Pupil Size X	Avg. Pupil Size Y

Table Header for Saccades:
Event Type	Trial	Number	Start	End	Duration	Start Loc.X	Start Loc.Y	End Loc.X	End Loc.Y	Amplitude	Peak Speed	Peak Speed At	Average Speed	Peak Accel.	Peak Decel.	Average Accel.

Table Header for Blinks:
Event Type	Trial	Number	Start	End	Duration

Table Header for User Events:
Event Type	Trial	Number	Start	Description

UserEvent	1	1	9769127451	# Message: void.jpg
Saccade L	1	1	9769133568	9769233058	99490	765.90	402.83	535.15	673.90	5.73	198.84	0.80	57.62	4743.93	-4396.19	2481.25
Saccade R	1	1	9769133568	9769233058	99490	765.90	402.83	535.15	673.90	5.73	198.84	0.80	57.62	4743.93	-4396.19	2481.25
Fixation L	1	1	9769233058	9769531399	298341	506.71	685.45	32	20	-1	12.97	12.97
Fixation R	1	1	9769233058	9769531399	298341	506.71	685.45	32	20	-1	13.58	13.58
Saccade L	1	2	9769531399	9769571141	39742	508.21	693.82	899.48	692.52	3.26	228.16	0.50	81.95	5591.39	-5543.65	4809.89
Saccade R	1	2	9769531399	9769571141	39742	508.21	693.82	899.48	692.52	3.26	228.16	0.50	81.95	5591.39	-5543.65	4809.89
Fixation L	1	2	9769571141	9769829764	258623	913.33	680.32	18	21	-1	13.09	13.09
Fixation R	1	2	9769571141	9769829764	258623	913.33	680.32	18	21	-1	13.60	13.60
Saccade L	1	3	9769829764	9769869516	39752	916.32	671.33	918.12	326.50	2.83	201.89	0.50	71.16	5016.81	-5013.91	4286.43
Saccade R	1	3	9769829764	9769869516	39752	916.32	671.33	918.12	326.50	2.83	201.89	0.50	71.16	5016.81	-5013.91	4286.43
Fixation L	1	3	9769869516	9770108127	238611	931.38	321.48	25	13	-1	13.00	13.00
Fixation R	1	3	9769869516	9770108127	238611	931.38	321.48	25	13	-1	13.47	13.47
Saccade L	1	4	9770108127	9770167871	59744	944.07	314.52	966.09	514.14	2.50	88.04	0.33	41.86	2180.27	-1436.06	1383.52
Saccade R	1	4	9770108127	9770167871	59744	944.07	314.52	966.09	514.14	2.50	88.04	0.33	41.86	2180.27	-1436.06	1383.52
Fixation L	1	4	9770167871	9770466228	298357	979.22	526.78	31	68	-1	13.44	13.44
Fixation R	1	4	9770167871	9770466228	298357	979.22	526.78	31	68	-1	13.61	13.61
Blink L	1	1	9770466228	9770665103	198875
Blink R	1	1	9770466228	9770665103	198875
Fixation L	1	5	9770665103	9770863965	198862	1026.63	512.41	8	46	-1	14.77	14.77
Fixation R	1	5	9770665103	9770863965	198862	1026.63	512.41	8	46	-1	15.17	15.17
Saccade L	1	5	9770863965	9770903702	39737	1030.32	491.15	863.16	503.95	1.55	113.96	1.00	38.90	2651.42	-2789.79	1990.85
Saccade R	1	5	9770863965	9770903702	39737	1030.32	491.15	863.16	503.95	1.55	113.96	1.00	38.90	2651.42	-2789.79	1990.85
Fixation L	1	6	9770903702	9771122572	218870	866.33	493.68	9	18	-1	15.14	15.14
Fixation R	1	6	9770903702	9771122572	218870	866.33	493.68	9	18	-1	14.96	14.96
