[BeGaze]
Converted from:	C:\Documents and Settings\iViewX\Desktop\EXPERIMENTATIONS\Experiments\results\finaleart\S01A22542-finaleart-1.idf
Date:	27.03.2019 15:33:20
Version:	BeGaze 2.5.77
Sample Rate:	50
Subject:	S01A22542
Description:	Thibault Seve Minnaert

Table Header for Fixations:
Event Type	Trial	Number	Start	End	Duration	Location X	Location Y	Dispersion X	Dispersion Y	Plane	Avg. Pupil Size X	Avg. Pupil Size Y

Table Header for Saccades:
Event Type	Trial	Number	Start	End	Duration	Start Loc.X	Start Loc.Y	End Loc.X	End Loc.Y	Amplitude	Peak Speed	Peak Speed At	Average Speed	Peak Accel.	Peak Decel.	Average Accel.

Table Header for Blinks:
Event Type	Trial	Number	Start	End	Duration

Table Header for User Events:
Event Type	Trial	Number	Start	Description

UserEvent	1	1	9181576438	# Message: void.jpg
Fixation L	1	1	9181579407	9181758516	179109	1240.29	781.82	12	20	-1	13.68	13.68
Fixation R	1	1	9181579407	9181758516	179109	1240.29	781.82	12	20	-1	13.09	13.09
Saccade L	1	1	9181758516	9181778437	19921	1235.01	794.17	1350.06	793.73	0.74	116.37	1.00	37.36	2717.96	-2821.80	1910.30
Saccade R	1	1	9181758516	9181778437	19921	1235.01	794.17	1350.06	793.73	0.74	116.37	1.00	37.36	2717.96	-2821.80	1910.30
Fixation L	1	2	9181778437	9181977496	199059	1362.74	804.69	17	18	-1	13.74	13.74
Fixation R	1	2	9181778437	9181977496	199059	1362.74	804.69	17	18	-1	13.17	13.17
Blink L	1	1	9181977496	9182276119	298623
Blink R	1	1	9181977496	9182276119	298623
Fixation L	1	3	9182276119	9182514868	238749	1039.98	548.42	6	16	-1	13.06	13.06
Fixation R	1	3	9182276119	9182514868	238749	1039.98	548.42	6	16	-1	13.32	13.32
Saccade L	1	2	9182514868	9182554598	39730	1041.94	551.26	902.11	945.76	3.86	223.03	0.50	97.12	5558.55	-4624.81	4862.90
Saccade R	1	2	9182514868	9182554598	39730	1041.94	551.26	902.11	945.76	3.86	223.03	0.50	97.12	5558.55	-4624.81	4862.90
Fixation L	1	4	9182554598	9182673970	119372	875.49	989.94	40	59	-1	13.56	13.56
Fixation R	1	4	9182554598	9182673970	119372	875.49	989.94	40	59	-1	14.24	14.24
Saccade L	1	3	9182673970	9182693838	19868	873.38	1005.13	873.93	1008.01	0.07	6.63	1.00	3.69	94.45	16.05	47.40
Saccade R	1	3	9182673970	9182693838	19868	873.38	1005.13	873.93	1008.01	0.07	6.63	1.00	3.69	94.45	16.05	47.40
Fixation L	1	5	9182693838	9182793220	99382	871.83	1001.50	3	9	-1	13.09	13.09
Fixation R	1	5	9182693838	9182793220	99382	871.83	1001.50	3	9	-1	14.07	14.07
Saccade L	1	4	9182793220	9182833085	39865	872.42	1000.36	876.15	706.80	2.53	169.11	0.50	63.54	4197.24	-3793.81	3516.62
Saccade R	1	4	9182793220	9182833085	39865	872.42	1000.36	876.15	706.80	2.53	169.11	0.50	63.54	4197.24	-3793.81	3516.62
Fixation L	1	6	9182833085	9183489435	656350	895.54	682.56	50	36	-1	13.71	13.71
Fixation R	1	6	9182833085	9183489435	656350	895.54	682.56	50	36	-1	13.84	13.84
Saccade L	1	5	9183489435	9183568920	79485	926.26	690.94	1164.98	636.99	3.93	176.55	0.25	49.50	4356.34	-4134.25	2348.75
Saccade R	1	5	9183489435	9183568920	79485	926.26	690.94	1164.98	636.99	3.93	176.55	0.25	49.50	4356.34	-4134.25	2348.75
