[BeGaze]
Converted from:	C:\Documents and Settings\iViewX\Desktop\EXPERIMENTATIONS\Experiments\results\finaleart\S01A22542-finaleart-1.idf
Date:	27.03.2019 15:33:17
Version:	BeGaze 2.5.77
Sample Rate:	50
Subject:	S01A22542
Description:	Thibault Seve Minnaert

Table Header for Fixations:
Event Type	Trial	Number	Start	End	Duration	Location X	Location Y	Dispersion X	Dispersion Y	Plane	Avg. Pupil Size X	Avg. Pupil Size Y

Table Header for Saccades:
Event Type	Trial	Number	Start	End	Duration	Start Loc.X	Start Loc.Y	End Loc.X	End Loc.Y	Amplitude	Peak Speed	Peak Speed At	Average Speed	Peak Accel.	Peak Decel.	Average Accel.

Table Header for Blinks:
Event Type	Trial	Number	Start	End	Duration

Table Header for User Events:
Event Type	Trial	Number	Start	Description

UserEvent	1	1	8858665434	# Message: REJECTED_after-the-bath_degas_1885.jpg
Fixation L	1	1	8858677484	8858856463	178979	762.52	625.45	10	12	-1	13.56	13.56
Fixation R	1	1	8858677484	8858856463	178979	762.52	625.45	10	12	-1	12.59	12.59
Blink L	1	1	8858856463	8859015582	159119
Blink R	1	1	8858856463	8859015582	159119
Fixation L	1	2	8859015582	8859214466	198884	798.45	558.87	15	9	-1	12.33	12.33
Fixation R	1	2	8859015582	8859214466	198884	798.45	558.87	15	9	-1	12.65	12.65
Saccade L	1	1	8859214466	8859254200	39734	800.32	560.92	414.09	486.28	3.44	217.27	1.00	86.50	5407.85	-5131.66	4682.60
Saccade R	1	1	8859214466	8859254200	39734	800.32	560.92	414.09	486.28	3.44	217.27	1.00	86.50	5407.85	-5131.66	4682.60
Fixation L	1	3	8859254200	8859413317	159117	396.84	473.39	24	31	-1	12.85	12.85
Fixation R	1	3	8859254200	8859413317	159117	396.84	473.39	24	31	-1	12.88	12.88
Saccade L	1	2	8859413317	8859433183	19866	398.43	474.64	318.38	480.99	0.59	81.24	1.00	29.71	1965.85	-1870.98	1541.22
Saccade R	1	2	8859413317	8859433183	19866	398.43	474.64	318.38	480.99	0.59	81.24	1.00	29.71	1965.85	-1870.98	1541.22
Fixation L	1	4	8859433183	8859731558	298375	307.86	480.06	80	15	-1	12.45	12.45
Fixation R	1	4	8859433183	8859731558	298375	307.86	480.06	80	15	-1	12.65	12.65
Saccade L	1	3	8859731558	8859850793	119235	351.61	469.90	541.88	457.42	2.72	128.71	1.00	22.81	3194.56	-3124.35	1170.46
Saccade R	1	3	8859731558	8859850793	119235	351.61	469.90	541.88	457.42	2.72	128.71	1.00	22.81	3194.56	-3124.35	1170.46
Fixation L	1	5	8859850793	8860188901	338108	546.97	458.05	11	12	-1	13.44	13.44
Fixation R	1	5	8859850793	8860188901	338108	546.97	458.05	11	12	-1	14.40	14.40
Saccade L	1	4	8860188901	8860248518	59617	552.55	466.78	1063.34	467.16	5.25	287.88	0.67	87.98	7117.08	-7063.00	3974.32
Saccade R	1	4	8860188901	8860248518	59617	552.55	466.78	1063.34	467.16	5.25	287.88	0.67	87.98	7117.08	-7063.00	3974.32
Fixation L	1	6	8860248518	8860407636	159118	1070.64	459.62	10	15	-1	13.78	13.78
Fixation R	1	6	8860248518	8860407636	159118	1070.64	459.62	10	15	-1	14.76	14.76
Saccade L	1	5	8860407636	8860447394	39758	1072.06	451.88	1283.65	442.73	1.78	131.25	1.00	44.82	3260.13	-3176.31	2591.73
Saccade R	1	5	8860407636	8860447394	39758	1072.06	451.88	1283.65	442.73	1.78	131.25	1.00	44.82	3260.13	-3176.31	2591.73
Fixation L	1	7	8860447394	8860745754	298360	1281.35	422.76	7	40	-1	13.40	13.40
Fixation R	1	7	8860447394	8860745754	298360	1281.35	422.76	7	40	-1	13.91	13.91
Saccade L	1	6	8860745754	8860765628	19874	1285.54	408.47	1280.76	564.82	1.03	158.20	1.00	51.85	3868.36	-3468.05	2721.46
Saccade R	1	6	8860745754	8860765628	19874	1285.54	408.47	1280.76	564.82	1.03	158.20	1.00	51.85	3868.36	-3468.05	2721.46
Fixation L	1	8	8860765628	8860865002	99374	1272.55	616.09	19	75	-1	13.85	13.85
Fixation R	1	8	8860765628	8860865002	99374	1272.55	616.09	19	75	-1	13.81	13.81
Saccade L	1	7	8860865002	8860884995	19993	1261.28	640.24	1257.86	645.93	0.12	10.65	0.00	6.21	73.20	-173.95	100.27
Saccade R	1	7	8860865002	8860884995	19993	1261.28	640.24	1257.86	645.93	0.12	10.65	0.00	6.21	73.20	-173.95	100.27
Fixation L	1	9	8860884995	8861004243	119248	1253.60	653.58	14	13	-1	14.00	14.00
Fixation R	1	9	8860884995	8861004243	119248	1253.60	653.58	14	13	-1	13.95	13.95
Saccade L	1	8	8861004243	8861063869	59626	1246.59	657.32	1782.35	749.10	5.64	275.54	0.67	94.57	6797.84	-6868.85	4397.23
Saccade R	1	8	8861004243	8861063869	59626	1246.59	657.32	1782.35	749.10	5.64	275.54	0.67	94.57	6797.84	-6868.85	4397.23
Fixation L	1	10	8861063869	8861262975	199106	1760.89	766.82	40	37	-1	14.30	14.30
Fixation R	1	10	8861063869	8861262975	199106	1760.89	766.82	40	37	-1	13.80	13.80
Saccade L	1	9	8861262975	8861342623	79648	1742.79	784.96	1361.62	823.88	5.84	256.07	0.75	73.33	5231.34	-6055.63	3123.44
Saccade R	1	9	8861262975	8861342623	79648	1742.79	784.96	1361.62	823.88	5.84	256.07	0.75	73.33	5231.34	-6055.63	3123.44
Fixation L	1	11	8861342623	8861521840	179217	1365.16	823.02	5	18	-1	14.77	14.77
Fixation R	1	11	8861342623	8861521840	179217	1365.16	823.02	5	18	-1	14.07	14.07
Saccade L	1	10	8861521840	8861561582	39742	1364.05	828.99	1036.32	742.98	2.89	198.19	1.00	72.62	4881.66	-4676.28	4086.75
Saccade R	1	10	8861521840	8861561582	39742	1364.05	828.99	1036.32	742.98	2.89	198.19	1.00	72.62	4881.66	-4676.28	4086.75
Fixation L	1	12	8861561582	8861720962	159380	1016.20	723.95	41	31	-1	14.34	14.34
Fixation R	1	12	8861561582	8861720962	159380	1016.20	723.95	41	31	-1	13.66	13.66
Saccade L	1	11	8861720962	8861760719	39757	995.21	721.87	419.22	688.55	5.18	340.59	0.50	130.38	8439.04	-7458.99	6841.69
Saccade R	1	11	8861720962	8861760719	39757	995.21	721.87	419.22	688.55	5.18	340.59	0.50	130.38	8439.04	-7458.99	6841.69
Fixation L	1	13	8861760719	8862059201	298482	383.06	654.51	55	40	-1	13.35	13.35
Fixation R	1	13	8861760719	8862059201	298482	383.06	654.51	55	40	-1	13.55	13.55
Saccade L	1	12	8862059201	8862079063	19862	363.29	650.71	344.20	636.27	0.39	38.11	1.00	19.66	608.69	-342.33	497.46
Saccade R	1	12	8862059201	8862079063	19862	363.29	650.71	344.20	636.27	0.39	38.11	1.00	19.66	608.69	-342.33	497.46
Fixation L	1	14	8862079063	8862198433	119370	318.29	598.76	39	51	-1	13.04	13.04
Fixation R	1	14	8862079063	8862198433	119370	318.29	598.76	39	51	-1	13.54	13.54
Saccade L	1	13	8862198433	8862218307	19874	314.76	586.70	309.39	455.88	0.86	132.43	1.00	43.44	3141.07	-3239.81	2244.22
Saccade R	1	13	8862198433	8862218307	19874	314.76	586.70	309.39	455.88	0.86	132.43	1.00	43.44	3141.07	-3239.81	2244.22
Fixation L	1	15	8862218307	8862516667	298360	323.38	506.84	23	69	-1	13.28	13.28
Fixation R	1	15	8862218307	8862516667	298360	323.38	506.84	23	69	-1	14.33	14.33
Saccade L	1	14	8862516667	8862536533	19866	331.40	524.44	342.44	478.42	0.29	47.87	1.00	14.66	1102.15	-635.95	585.14
Saccade R	1	14	8862516667	8862536533	19866	331.40	524.44	342.44	478.42	0.29	47.87	1.00	14.66	1102.15	-635.95	585.14
Fixation L	1	16	8862536533	8862655915	119382	352.37	472.13	21	59	-1	14.13	14.13
Fixation R	1	16	8862536533	8862655915	119382	352.37	472.13	21	59	-1	15.03	15.03
