[BeGaze]
Converted from:	C:\Documents and Settings\iViewX\Desktop\EXPERIMENTATIONS\Experiments\results\finaleart\S01A22542-finaleart-1.idf
Date:	27.03.2019 15:33:23
Version:	BeGaze 2.5.77
Sample Rate:	50
Subject:	S01A22542
Description:	Thibault Seve Minnaert

Table Header for Fixations:
Event Type	Trial	Number	Start	End	Duration	Location X	Location Y	Dispersion X	Dispersion Y	Plane	Avg. Pupil Size X	Avg. Pupil Size Y

Table Header for Saccades:
Event Type	Trial	Number	Start	End	Duration	Start Loc.X	Start Loc.Y	End Loc.X	End Loc.Y	Amplitude	Peak Speed	Peak Speed At	Average Speed	Peak Accel.	Peak Decel.	Average Accel.

Table Header for Blinks:
Event Type	Trial	Number	Start	End	Duration

Table Header for User Events:
Event Type	Trial	Number	Start	Description

UserEvent	1	1	9738599251	# Message: void.jpg
Saccade L	1	1	9738601655	9738621516	19861	641.57	255.25	748.66	252.26	1.23	108.37	1.00	61.81	1926.50	-2506.48	1477.66
Saccade R	1	1	9738601655	9738621516	19861	641.57	255.25	748.66	252.26	1.23	108.37	1.00	61.81	1926.50	-2506.48	1477.66
Fixation L	1	1	9738621516	9738721129	99613	814.04	243.35	81	16	-1	12.52	12.52
Fixation R	1	1	9738621516	9738721129	99613	814.04	243.35	81	16	-1	13.78	13.78
Saccade L	1	2	9738721129	9738740989	19860	827.30	236.13	830.30	231.53	0.06	5.55	1.00	2.86	64.21	-23.81	48.30
Saccade R	1	2	9738721129	9738740989	19860	827.30	236.13	830.30	231.53	0.06	5.55	1.00	2.86	64.21	-23.81	48.30
Fixation L	1	2	9738740989	9739099352	358363	833.99	217.34	20	27	-1	12.54	12.54
Fixation R	1	2	9738740989	9739099352	358363	833.99	217.34	20	27	-1	13.54	13.54
Blink L	1	1	9739099352	9739358216	258864
Blink R	1	1	9739099352	9739358216	258864
Fixation L	1	3	9739358216	9740153803	795587	1088.30	468.29	12	27	-1	14.50	14.50
Fixation R	1	3	9739358216	9740153803	795587	1088.30	468.29	12	27	-1	14.36	14.36
Saccade L	1	3	9740153803	9740173685	19882	1082.01	468.22	969.52	467.30	0.82	113.79	1.00	41.17	2808.50	-2824.65	2263.18
Saccade R	1	3	9740153803	9740173685	19882	1082.01	468.22	969.52	467.30	0.82	113.79	1.00	41.17	2808.50	-2824.65	2263.18
Fixation L	1	4	9740173685	9740591402	417717	927.73	468.69	47	22	-1	14.81	14.81
Fixation R	1	4	9740173685	9740591402	417717	927.73	468.69	47	22	-1	14.95	14.95
