[BeGaze]
Converted from:	C:\Documents and Settings\iViewX\Desktop\EXPERIMENTATIONS\Experiments\results\finaleart\S01A22542-finaleart-1.idf
Date:	27.03.2019 15:33:22
Version:	BeGaze 2.5.77
Sample Rate:	50
Subject:	S01A22542
Description:	Thibault Seve Minnaert

Table Header for Fixations:
Event Type	Trial	Number	Start	End	Duration	Location X	Location Y	Dispersion X	Dispersion Y	Plane	Avg. Pupil Size X	Avg. Pupil Size Y

Table Header for Saccades:
Event Type	Trial	Number	Start	End	Duration	Start Loc.X	Start Loc.Y	End Loc.X	End Loc.Y	Amplitude	Peak Speed	Peak Speed At	Average Speed	Peak Accel.	Peak Decel.	Average Accel.

Table Header for Blinks:
Event Type	Trial	Number	Start	End	Duration

Table Header for User Events:
Event Type	Trial	Number	Start	Description

UserEvent	1	1	9564526744	# Message: void.jpg
Saccade L	1	1	9564546582	9564566451	19869	1460.86	658.91	1440.71	502.36	1.31	159.64	1.00	65.95	955.23	-3803.42	1586.22
Saccade R	1	1	9564546582	9564566451	19869	1460.86	658.91	1440.71	502.36	1.31	159.64	1.00	65.95	955.23	-3803.42	1586.22
Fixation L	1	1	9564566451	9564765322	198871	1410.69	459.36	45	52	-1	15.35	15.35
Fixation R	1	1	9564566451	9564765322	198871	1410.69	459.36	45	52	-1	15.15	15.15
Saccade L	1	2	9564765322	9564785206	19884	1395.39	452.67	1391.98	451.77	0.05	3.57	1.00	2.61	33.30	-67.02	37.68
Saccade R	1	2	9564765322	9564785206	19884	1395.39	452.67	1391.98	451.77	0.05	3.57	1.00	2.61	33.30	-67.02	37.68
Fixation L	1	2	9564785206	9565063674	278468	1393.43	440.57	8	23	-1	15.39	15.39
Fixation R	1	2	9564785206	9565063674	278468	1393.43	440.57	8	23	-1	14.87	14.87
Blink L	1	1	9565063674	9565302313	238639
Blink R	1	1	9565063674	9565302313	238639
Fixation L	1	3	9565302313	9565560913	258600	1026.07	544.51	4	21	-1	14.92	14.92
Fixation R	1	3	9565302313	9565560913	258600	1026.07	544.51	4	21	-1	14.96	14.96
Saccade L	1	3	9565560913	9565620521	59608	1023.67	557.32	1025.76	1042.55	5.15	223.82	0.67	86.40	5415.17	-5128.01	3409.63
Saccade R	1	3	9565560913	9565620521	59608	1023.67	557.32	1025.76	1042.55	5.15	223.82	0.67	86.40	5415.17	-5128.01	3409.63
Fixation L	1	4	9565620521	9565819544	199023	1031.79	1033.15	16	59	-1	15.59	15.59
Fixation R	1	4	9565620521	9565819544	199023	1031.79	1033.15	16	59	-1	15.77	15.77
Saccade L	1	4	9565819544	9565859259	39715	1030.05	984.55	903.68	534.25	4.45	297.43	0.50	111.94	7329.31	-6933.61	5340.62
Saccade R	1	4	9565819544	9565859259	39715	1030.05	984.55	903.68	534.25	4.45	297.43	0.50	111.94	7329.31	-6933.61	5340.62
Fixation L	1	5	9565859259	9566217247	357988	895.43	509.41	13	37	-1	14.49	14.49
Fixation R	1	5	9565859259	9566217247	357988	895.43	509.41	13	37	-1	15.10	15.10
Saccade L	1	5	9566217247	9566237119	19872	893.09	496.45	819.63	498.46	0.48	74.33	1.00	24.05	1808.85	-1819.74	1273.57
Saccade R	1	5	9566217247	9566237119	19872	893.09	496.45	819.63	498.46	0.48	74.33	1.00	24.05	1808.85	-1819.74	1273.57
Fixation L	1	6	9566237119	9566455985	218866	814.53	521.84	24	74	-1	13.93	13.93
Fixation R	1	6	9566237119	9566455985	218866	814.53	521.84	24	74	-1	14.44	14.44
Saccade L	1	6	9566455985	9566515619	59634	808.54	572.85	799.84	583.04	1.05	28.92	0.33	17.59	290.65	-563.42	280.11
Saccade R	1	6	9566455985	9566515619	59634	808.54	572.85	799.84	583.04	1.05	28.92	0.33	17.59	290.65	-563.42	280.11
