[BeGaze]
Converted from:	C:\Documents and Settings\iViewX\Desktop\EXPERIMENTATIONS\Experiments\results\finaleart\S01A22542-finaleart-1.idf
Date:	27.03.2019 15:33:24
Version:	BeGaze 2.5.77
Sample Rate:	50
Subject:	S01A22542
Description:	Thibault Seve Minnaert

Table Header for Fixations:
Event Type	Trial	Number	Start	End	Duration	Location X	Location Y	Dispersion X	Dispersion Y	Plane	Avg. Pupil Size X	Avg. Pupil Size Y

Table Header for Saccades:
Event Type	Trial	Number	Start	End	Duration	Start Loc.X	Start Loc.Y	End Loc.X	End Loc.Y	Amplitude	Peak Speed	Peak Speed At	Average Speed	Peak Accel.	Peak Decel.	Average Accel.

Table Header for Blinks:
Event Type	Trial	Number	Start	End	Duration

Table Header for User Events:
Event Type	Trial	Number	Start	Description

UserEvent	1	1	9807919977	# Message: morning_Daubigny_1858.jpg
Fixation L	1	1	9807936946	9808374929	437983	822.03	647.69	24	30	-1	14.94	14.94
Fixation R	1	1	9807936946	9808374929	437983	822.03	647.69	24	30	-1	14.46	14.46
Saccade L	1	1	9808374929	9808394814	19885	808.86	653.70	820.01	758.88	0.64	106.99	1.00	32.02	2658.33	-2322.00	1817.35
Saccade R	1	1	9808374929	9808394814	19885	808.86	653.70	820.01	758.88	0.64	106.99	1.00	32.02	2658.33	-2322.00	1817.35
Fixation L	1	2	9808394814	9808494418	99604	824.17	750.84	28	60	-1	14.50	14.50
Fixation R	1	2	9808394814	9808494418	99604	824.17	750.84	28	60	-1	14.12	14.12
Saccade L	1	2	9808494418	9808514300	19882	805.62	789.01	752.43	972.65	1.40	193.34	1.00	70.21	4638.44	-4612.77	3363.38
Saccade R	1	2	9808494418	9808514300	19882	805.62	789.01	752.43	972.65	1.40	193.34	1.00	70.21	4638.44	-4612.77	3363.38
Fixation L	1	3	9808514300	9808673528	159228	732.83	968.66	42	18	-1	12.61	12.61
Fixation R	1	3	9808514300	9808673528	159228	732.83	968.66	42	18	-1	12.25	12.25
Saccade L	1	3	9808673528	9808693532	20004	710.18	967.39	519.14	876.90	1.24	213.74	1.00	61.75	5105.42	-4358.71	3313.30
Saccade R	1	3	9808673528	9808693532	20004	710.18	967.39	519.14	876.90	1.24	213.74	1.00	61.75	5105.42	-4358.71	3313.30
Fixation L	1	4	9808693532	9808972264	278732	519.63	897.15	5	38	-1	11.29	11.29
Fixation R	1	4	9808693532	9808972264	278732	519.63	897.15	5	38	-1	11.26	11.26
Saccade L	1	4	9808972264	9808992159	19895	522.73	890.94	589.78	905.56	0.44	69.42	1.00	22.18	1706.35	-1532.39	1180.60
Saccade R	1	4	9808972264	9808992159	19895	522.73	890.94	589.78	905.56	0.44	69.42	1.00	22.18	1706.35	-1532.39	1180.60
Fixation L	1	5	9808992159	9809569487	577328	621.30	889.90	63	28	-1	11.21	11.21
Fixation R	1	5	9808992159	9809569487	577328	621.30	889.90	63	28	-1	11.50	11.50
Saccade L	1	5	9809569487	9809589478	19991	653.14	895.66	656.44	838.52	0.41	57.91	1.00	20.74	1412.68	-915.79	867.23
Saccade R	1	5	9809569487	9809589478	19991	653.14	895.66	656.44	838.52	0.41	57.91	1.00	20.74	1412.68	-915.79	867.23
Fixation L	1	6	9809589478	9809808482	219004	661.33	787.30	13	75	-1	11.36	11.36
Fixation R	1	6	9809589478	9809808482	219004	661.33	787.30	13	75	-1	11.54	11.54
Saccade L	1	6	9809808482	9809828356	19874	669.86	802.17	850.84	881.68	1.23	199.89	1.00	62.00	4830.85	-4806.92	3379.24
Saccade R	1	6	9809808482	9809828356	19874	669.86	802.17	850.84	881.68	1.23	199.89	1.00	62.00	4830.85	-4806.92	3379.24
Fixation L	1	7	9809828356	9810107075	278719	860.90	920.10	15	82	-1	11.67	11.67
Fixation R	1	7	9809828356	9810107075	278719	860.90	920.10	15	82	-1	11.63	11.63
Saccade L	1	7	9810107075	9810126980	19905	859.56	964.24	846.72	949.81	0.24	23.48	0.00	12.11	462.97	-477.32	381.03
Saccade R	1	7	9810107075	9810126980	19905	859.56	964.24	846.72	949.81	0.24	23.48	0.00	12.11	462.97	-477.32	381.03
Fixation L	1	8	9810126980	9810306203	179223	837.63	965.25	16	25	-1	11.96	11.96
Fixation R	1	8	9810126980	9810306203	179223	837.63	965.25	16	25	-1	11.86	11.86
Saccade L	1	8	9810306203	9810346079	39876	830.04	975.37	948.68	757.52	2.21	181.61	0.50	55.37	4466.73	-4301.23	2984.43
Saccade R	1	8	9810306203	9810346079	39876	830.04	975.37	948.68	757.52	2.21	181.61	0.50	55.37	4466.73	-4301.23	2984.43
Fixation L	1	9	9810346079	9810604811	258732	955.11	760.95	22	34	-1	11.87	11.87
Fixation R	1	9	9810346079	9810604811	258732	955.11	760.95	22	34	-1	11.66	11.66
Saccade L	1	9	9810604811	9810624808	19997	961.39	748.12	1170.54	756.25	1.40	211.64	1.00	70.26	5250.46	-4880.07	3839.18
Saccade R	1	9	9810604811	9810624808	19997	961.39	748.12	1170.54	756.25	1.40	211.64	1.00	70.26	5250.46	-4880.07	3839.18
Fixation L	1	10	9810624808	9810883419	258611	1229.62	758.53	75	19	-1	11.51	11.51
Fixation R	1	10	9810624808	9810883419	258611	1229.62	758.53	75	19	-1	11.11	11.11
Saccade L	1	10	9810883419	9810903299	19880	1229.98	764.51	1268.28	765.72	0.27	38.76	1.00	13.68	912.74	-490.75	545.53
Saccade R	1	10	9810883419	9810903299	19880	1229.98	764.51	1268.28	765.72	0.27	38.76	1.00	13.68	912.74	-490.75	545.53
Fixation L	1	11	9810903299	9811142045	238746	1292.51	790.83	37	36	-1	11.88	11.88
Fixation R	1	11	9810903299	9811142045	238746	1292.51	790.83	37	36	-1	11.10	11.10
Saccade L	1	11	9811142045	9811161910	19865	1304.87	798.51	1307.86	682.26	0.69	117.62	1.00	34.83	2904.17	-2744.16	1974.85
Saccade R	1	11	9811142045	9811161910	19865	1304.87	798.51	1307.86	682.26	0.69	117.62	1.00	34.83	2904.17	-2744.16	1974.85
Fixation L	1	12	9811161910	9811340909	178999	1316.44	660.31	13	29	-1	11.87	11.87
Fixation R	1	12	9811161910	9811340909	178999	1316.44	660.31	13	29	-1	10.95	10.95
Saccade L	1	12	9811340909	9811400526	59617	1320.94	657.53	1752.43	634.12	4.46	211.45	0.33	74.74	5249.61	-3864.84	3647.92
Saccade R	1	12	9811340909	9811400526	59617	1320.94	657.53	1752.43	634.12	4.46	211.45	0.33	74.74	5249.61	-3864.84	3647.92
Fixation L	1	13	9811400526	9811579506	178980	1752.62	622.43	32	37	-1	11.58	11.58
Fixation R	1	13	9811400526	9811579506	178980	1752.62	622.43	32	37	-1	10.74	10.74
Saccade L	1	13	9811579506	9811639253	59747	1728.88	643.98	1091.22	689.42	6.83	280.79	0.67	114.31	6486.75	-6879.42	4712.42
Saccade R	1	13	9811579506	9811639253	59747	1728.88	643.98	1091.22	689.42	6.83	280.79	0.67	114.31	6486.75	-6879.42	4712.42
Fixation L	1	14	9811639253	9811778499	139246	1083.66	689.61	11	13	-1	11.60	11.60
Fixation R	1	14	9811639253	9811778499	139246	1083.66	689.61	11	13	-1	10.73	10.73
Saccade L	1	14	9811778499	9811818273	39774	1081.68	691.80	1442.83	616.02	3.19	219.13	0.50	80.10	5330.78	-5051.87	4363.76
Saccade R	1	14	9811778499	9811818273	39774	1081.68	691.80	1442.83	616.02	3.19	219.13	0.50	80.10	5330.78	-5051.87	4363.76
Fixation L	1	15	9811818273	9811917745	99472	1440.20	610.99	5	19	-1	11.56	11.56
Fixation R	1	15	9811818273	9811917745	99472	1440.20	610.99	5	19	-1	10.67	10.67
