[BeGaze]
Converted from:	C:\Documents and Settings\iViewX\Desktop\EXPERIMENTATIONS\Experiments\results\finaleart\S01A22542-finaleart-1.idf
Date:	27.03.2019 15:33:25
Version:	BeGaze 2.5.77
Sample Rate:	50
Subject:	S01A22542
Description:	Thibault Seve Minnaert

Table Header for Fixations:
Event Type	Trial	Number	Start	End	Duration	Location X	Location Y	Dispersion X	Dispersion Y	Plane	Avg. Pupil Size X	Avg. Pupil Size Y

Table Header for Saccades:
Event Type	Trial	Number	Start	End	Duration	Start Loc.X	Start Loc.Y	End Loc.X	End Loc.Y	Amplitude	Peak Speed	Peak Speed At	Average Speed	Peak Accel.	Peak Decel.	Average Accel.

Table Header for Blinks:
Event Type	Trial	Number	Start	End	Duration

Table Header for User Events:
Event Type	Trial	Number	Start	Description

UserEvent	1	1	10052016623	# Message: La_Ferme_des_Collettes_Renoir_1908.jpg
Fixation L	1	1	10052017767	10052554776	537009	993.01	505.71	14	79	-1	13.70	13.70
Fixation R	1	1	10052017767	10052554776	537009	993.01	505.71	14	79	-1	13.92	13.92
Saccade L	1	1	10052554776	10052574616	19840	993.81	561.70	995.50	572.78	0.19	15.85	1.00	9.35	308.85	-190.76	204.92
Saccade R	1	1	10052554776	10052574616	19840	993.81	561.70	995.50	572.78	0.19	15.85	1.00	9.35	308.85	-190.76	204.92
Fixation L	1	2	10052574616	10052674121	99505	994.98	561.80	6	16	-1	13.07	13.07
Fixation R	1	2	10052574616	10052674121	99505	994.98	561.80	6	16	-1	13.78	13.78
Saccade L	1	2	10052674121	10052713864	39743	990.50	565.18	899.07	878.74	2.82	201.75	0.50	71.07	4957.21	-4735.34	3842.27
Saccade R	1	2	10052674121	10052713864	39743	990.50	565.18	899.07	878.74	2.82	201.75	0.50	71.07	4957.21	-4735.34	3842.27
Fixation L	1	3	10052713864	10052872999	159135	889.31	853.20	13	40	-1	12.90	12.90
Fixation R	1	3	10052713864	10052872999	159135	889.31	853.20	13	40	-1	13.68	13.68
Saccade L	1	3	10052872999	10052892850	19851	885.38	852.35	889.16	742.42	0.68	111.27	1.00	34.11	2714.30	-2681.27	1974.33
Saccade R	1	3	10052872999	10052892850	19851	885.38	852.35	889.16	742.42	0.68	111.27	1.00	34.11	2714.30	-2681.27	1974.33
Fixation L	1	4	10052892850	10053171325	278475	907.56	708.97	43	54	-1	12.65	12.65
Fixation R	1	4	10052892850	10053171325	278475	907.56	708.97	43	54	-1	13.27	13.27
Saccade L	1	4	10053171325	10053191227	19902	932.46	688.31	944.54	685.42	0.23	13.92	0.00	11.36	54.31	-295.98	161.22
Saccade R	1	4	10053171325	10053191227	19902	932.46	688.31	944.54	685.42	0.23	13.92	0.00	11.36	54.31	-295.98	161.22
Fixation L	1	5	10053191227	10053429944	238717	955.79	673.49	73	23	-1	12.68	12.68
Fixation R	1	5	10053191227	10053429944	238717	955.79	673.49	73	23	-1	13.10	13.10
Saccade L	1	5	10053429944	10053549312	119368	895.64	665.11	757.33	210.42	8.17	276.39	0.83	68.42	6653.19	-6764.84	3257.55
Saccade R	1	5	10053429944	10053549312	119368	895.64	665.11	757.33	210.42	8.17	276.39	0.83	68.42	6653.19	-6764.84	3257.55
Fixation L	1	6	10053549312	10054027041	477729	764.60	233.05	26	71	-1	11.79	11.79
Fixation R	1	6	10053549312	10054027041	477729	764.60	233.05	26	71	-1	12.60	12.60
Saccade L	1	6	10054027041	10054046919	19878	780.00	277.70	784.41	287.93	0.09	11.27	1.00	4.69	202.24	-66.63	99.69
Saccade R	1	6	10054027041	10054046919	19878	780.00	277.70	784.41	287.93	0.09	11.27	1.00	4.69	202.24	-66.63	99.69
Fixation L	1	7	10054046919	10054385411	338492	807.74	326.02	39	57	-1	12.57	12.57
Fixation R	1	7	10054046919	10054385411	338492	807.74	326.02	39	57	-1	13.55	13.55
Saccade L	1	7	10054385411	10054405407	19996	822.66	338.51	893.59	340.35	0.63	71.77	1.00	31.58	1712.80	-1609.35	1511.99
Saccade R	1	7	10054385411	10054405407	19996	822.66	338.51	893.59	340.35	0.63	71.77	1.00	31.58	1712.80	-1609.35	1511.99
Fixation L	1	8	10054405407	10054664136	258729	951.95	338.90	67	8	-1	13.03	13.03
Fixation R	1	8	10054405407	10054664136	258729	951.95	338.90	67	8	-1	14.00	14.00
Saccade L	1	8	10054664136	10054704017	39881	961.10	343.02	944.82	704.94	3.09	214.71	0.50	77.46	5356.98	-5071.49	4414.47
Saccade R	1	8	10054664136	10054704017	39881	961.10	343.02	944.82	704.94	3.09	214.71	0.50	77.46	5356.98	-5071.49	4414.47
Fixation L	1	9	10054704017	10055221622	517605	921.92	701.10	34	32	-1	13.39	13.39
Fixation R	1	9	10054704017	10055221622	517605	921.92	701.10	34	32	-1	14.14	14.14
Saccade L	1	9	10055221622	10055261498	39876	916.16	717.79	1343.44	565.40	3.96	289.94	0.50	99.21	7039.75	-7061.04	5571.52
Saccade R	1	9	10055221622	10055261498	39876	916.16	717.79	1343.44	565.40	3.96	289.94	0.50	99.21	7039.75	-7061.04	5571.52
Fixation L	1	10	10055261498	10055739092	477594	1349.38	564.67	12	13	-1	13.16	13.16
Fixation R	1	10	10055261498	10055739092	477594	1349.38	564.67	12	13	-1	13.72	13.72
Saccade L	1	10	10055739092	10055798716	59624	1347.08	570.38	882.56	769.60	5.18	298.53	0.67	86.85	7434.61	-7447.53	4151.03
Saccade R	1	10	10055739092	10055798716	59624	1347.08	570.38	882.56	769.60	5.18	298.53	0.67	86.85	7434.61	-7447.53	4151.03
Fixation L	1	11	10055798716	10056017576	218860	880.03	777.47	4	15	-1	13.66	13.66
Fixation R	1	11	10055798716	10056017576	218860	880.03	777.47	4	15	-1	13.73	13.73
