[BeGaze]
Converted from:	C:\Documents and Settings\iViewX\Desktop\EXPERIMENTATIONS\Experiments\results\finaleart\S01A22542-finaleart-1.idf
Date:	27.03.2019 15:33:23
Version:	BeGaze 2.5.77
Sample Rate:	50
Subject:	S01A22542
Description:	Thibault Seve Minnaert

Table Header for Fixations:
Event Type	Trial	Number	Start	End	Duration	Location X	Location Y	Dispersion X	Dispersion Y	Plane	Avg. Pupil Size X	Avg. Pupil Size Y

Table Header for Saccades:
Event Type	Trial	Number	Start	End	Duration	Start Loc.X	Start Loc.Y	End Loc.X	End Loc.Y	Amplitude	Peak Speed	Peak Speed At	Average Speed	Peak Accel.	Peak Decel.	Average Accel.

Table Header for Blinks:
Event Type	Trial	Number	Start	End	Duration

Table Header for User Events:
Event Type	Trial	Number	Start	Description

UserEvent	1	1	9781438939	# Message: void.jpg
Saccade L	1	1	9781445456	9781505209	59753	756.17	722.90	723.54	633.46	1.66	95.22	1.00	27.84	2326.06	-2273.97	1119.52
Saccade R	1	1	9781445456	9781505209	59753	756.17	722.90	723.54	633.46	1.66	95.22	1.00	27.84	2326.06	-2273.97	1119.52
Fixation L	1	1	9781505209	9782002424	497215	709.12	592.60	27	55	-1	13.50	13.50
Fixation R	1	1	9781505209	9782002424	497215	709.12	592.60	27	55	-1	13.82	13.82
Blink L	1	1	9782002424	9782260916	258492
Blink R	1	1	9782002424	9782260916	258492
Fixation L	1	2	9782260916	9782559275	298359	1005.47	713.05	5	29	-1	14.55	14.55
Fixation R	1	2	9782260916	9782559275	298359	1005.47	713.05	5	29	-1	14.79	14.79
Saccade L	1	2	9782559275	9782599146	39871	1005.91	726.17	987.33	298.99	3.58	234.81	0.50	89.82	5697.82	-5657.10	5246.72
Saccade R	1	2	9782559275	9782599146	39871	1005.91	726.17	987.33	298.99	3.58	234.81	0.50	89.82	5697.82	-5657.10	5246.72
Fixation L	1	3	9782599146	9783116254	517108	945.62	290.38	65	34	-1	13.78	13.78
Fixation R	1	3	9782599146	9783116254	517108	945.62	290.38	65	34	-1	14.30	14.30
Saccade L	1	3	9783116254	9783215627	99373	923.90	273.58	964.15	431.30	2.75	94.42	1.00	27.64	2262.11	-2069.06	1166.65
Saccade R	1	3	9783116254	9783215627	99373	923.90	273.58	964.15	431.30	2.75	94.42	1.00	27.64	2262.11	-2069.06	1166.65
Fixation L	1	4	9783215627	9783434510	218883	992.10	419.30	33	18	-1	14.46	14.46
Fixation R	1	4	9783215627	9783434510	218883	992.10	419.30	33	18	-1	14.84	14.84
