[BeGaze]
Converted from:	C:\Documents and Settings\iViewX\Desktop\EXPERIMENTATIONS\Experiments\results\finaleart\S01A22542-finaleart-1.idf
Date:	27.03.2019 15:33:15
Version:	BeGaze 2.5.77
Sample Rate:	50
Subject:	S01A22542
Description:	Thibault Seve Minnaert

Table Header for Fixations:
Event Type	Trial	Number	Start	End	Duration	Location X	Location Y	Dispersion X	Dispersion Y	Plane	Avg. Pupil Size X	Avg. Pupil Size Y

Table Header for Saccades:
Event Type	Trial	Number	Start	End	Duration	Start Loc.X	Start Loc.Y	End Loc.X	End Loc.Y	Amplitude	Peak Speed	Peak Speed At	Average Speed	Peak Accel.	Peak Decel.	Average Accel.

Table Header for Blinks:
Event Type	Trial	Number	Start	End	Duration

Table Header for User Events:
Event Type	Trial	Number	Start	Description

UserEvent	1	1	8665421352	# Message: bowl_of_fruits_Fantin-Latour_1857.jpg
Fixation L	1	1	8665429374	8665827084	397710	793.77	603.40	10	17	-1	14.66	14.66
Fixation R	1	1	8665429374	8665827084	397710	793.77	603.40	10	17	-1	14.83	14.83
Saccade L	1	1	8665827084	8665866848	39764	792.67	606.84	1019.10	444.21	2.45	165.35	0.50	61.55	4030.15	-3736.95	3360.92
Saccade R	1	1	8665827084	8665866848	39764	792.67	606.84	1019.10	444.21	2.45	165.35	0.50	61.55	4030.15	-3736.95	3360.92
Fixation L	1	2	8665866848	8666025948	159100	1017.35	463.83	8	34	-1	14.71	14.71
Fixation R	1	2	8665866848	8666025948	159100	1017.35	463.83	8	34	-1	15.07	15.07
Saccade L	1	2	8666025948	8666065709	39761	1013.62	462.97	870.09	237.75	2.57	171.97	1.00	64.62	4055.02	-3835.47	2970.85
Saccade R	1	2	8666025948	8666065709	39761	1013.62	462.97	870.09	237.75	2.57	171.97	1.00	64.62	4055.02	-3835.47	2970.85
Fixation L	1	3	8666065709	8666165187	99478	851.12	232.66	33	18	-1	13.56	13.56
Fixation R	1	3	8666065709	8666165187	99478	851.12	232.66	33	18	-1	13.98	13.98
Saccade L	1	3	8666165187	8666204936	39749	842.42	230.84	637.25	82.72	2.45	164.24	0.50	61.70	3936.34	-3960.42	3428.01
Saccade R	1	3	8666165187	8666204936	39749	842.42	230.84	637.25	82.72	2.45	164.24	0.50	61.70	3936.34	-3960.42	3428.01
Fixation L	1	4	8666204936	8666383926	178990	636.39	95.55	8	21	-1	12.82	12.82
Fixation R	1	4	8666204936	8666383926	178990	636.39	95.55	8	21	-1	13.64	13.64
Saccade L	1	4	8666383926	8666483311	99385	631.37	95.93	1208.57	268.45	9.89	338.67	0.80	99.47	6291.03	-8122.63	3758.79
Saccade R	1	4	8666383926	8666483311	99385	631.37	95.93	1208.57	268.45	9.89	338.67	0.80	99.47	6291.03	-8122.63	3758.79
Fixation L	1	5	8666483311	8666801533	318222	1215.05	329.24	12	76	-1	13.95	13.95
Fixation R	1	5	8666483311	8666801533	318222	1215.05	329.24	12	76	-1	14.34	14.34
Saccade L	1	5	8666801533	8666841314	39781	1211.67	338.49	1430.77	455.86	2.44	213.69	1.00	61.33	5285.84	-5053.80	2866.71
Saccade R	1	5	8666801533	8666841314	39781	1211.67	338.49	1430.77	455.86	2.44	213.69	1.00	61.33	5285.84	-5053.80	2866.71
Fixation L	1	6	8666841314	8667119778	278464	1463.44	500.84	40	57	-1	15.12	15.12
Fixation R	1	6	8666841314	8667119778	278464	1463.44	500.84	40	57	-1	14.94	14.94
Saccade L	1	6	8667119778	8667139641	19863	1465.93	513.33	1465.81	516.74	0.07	5.10	1.00	3.37	57.10	33.17	44.29
Saccade R	1	6	8667119778	8667139641	19863	1465.93	513.33	1465.81	516.74	0.07	5.10	1.00	3.37	57.10	33.17	44.29
Fixation L	1	7	8667139641	8667239011	99370	1458.07	518.37	56	10	-1	15.21	15.21
Fixation R	1	7	8667139641	8667239011	99370	1458.07	518.37	56	10	-1	15.11	15.11
Saccade L	1	7	8667239011	8667258884	19873	1412.00	524.10	1239.78	552.32	1.22	176.49	1.00	61.54	4332.55	-4334.08	3298.32
Saccade R	1	7	8667239011	8667258884	19873	1412.00	524.10	1239.78	552.32	1.22	176.49	1.00	61.54	4332.55	-4334.08	3298.32
Fixation L	1	8	8667258884	8667457751	198867	1226.90	553.62	17	9	-1	15.44	15.44
Fixation R	1	8	8667258884	8667457751	198867	1226.90	553.62	17	9	-1	14.94	14.94
Saccade L	1	8	8667457751	8667497636	39885	1221.86	555.02	1174.89	813.10	2.29	167.27	1.00	57.32	4164.31	-3692.37	3073.72
Saccade R	1	8	8667457751	8667497636	39885	1221.86	555.02	1174.89	813.10	2.29	167.27	1.00	57.32	4164.31	-3692.37	3073.72
Fixation L	1	9	8667497636	8667696497	198861	1156.23	839.80	23	37	-1	15.16	15.16
Fixation R	1	9	8667497636	8667696497	198861	1156.23	839.80	23	37	-1	14.68	14.68
Saccade L	1	9	8667696497	8667716375	19878	1151.13	851.04	1142.67	940.92	0.54	91.32	1.00	27.38	2271.87	-2225.92	1500.31
Saccade R	1	9	8667696497	8667716375	19878	1151.13	851.04	1142.67	940.92	0.54	91.32	1.00	27.38	2271.87	-2225.92	1500.31
Fixation L	1	10	8667716375	8667895360	178985	1121.79	942.98	34	6	-1	15.51	15.51
Fixation R	1	10	8667716375	8667895360	178985	1121.79	942.98	34	6	-1	15.10	15.10
Saccade L	1	10	8667895360	8667954976	59616	1108.64	940.18	423.35	887.88	7.24	294.09	0.67	121.37	7289.44	-6651.11	5650.49
Saccade R	1	10	8667895360	8667954976	59616	1108.64	940.18	423.35	887.88	7.24	294.09	0.67	121.37	7289.44	-6651.11	5650.49
Fixation L	1	11	8667954976	8668233338	278362	400.47	861.51	29	34	-1	15.30	15.30
Fixation R	1	11	8667954976	8668233338	278362	400.47	861.51	29	34	-1	15.65	15.65
Saccade L	1	11	8668233338	8668273210	39872	404.07	856.03	722.84	652.90	3.14	225.33	0.50	78.87	5630.77	-5515.12	4687.29
Saccade R	1	11	8668233338	8668273210	39872	404.07	856.03	722.84	652.90	3.14	225.33	0.50	78.87	5630.77	-5515.12	4687.29
Fixation L	1	12	8668273210	8668491953	218743	724.75	628.98	10	57	-1	14.48	14.48
Fixation R	1	12	8668273210	8668491953	218743	724.75	628.98	10	57	-1	15.36	15.36
Saccade L	1	12	8668491953	8668531700	39747	729.13	618.68	547.51	502.21	2.06	139.63	1.00	51.91	2893.08	-3434.15	2525.06
Saccade R	1	12	8668491953	8668531700	39747	729.13	618.68	547.51	502.21	2.06	139.63	1.00	51.91	2893.08	-3434.15	2525.06
Fixation L	1	13	8668531700	8668770318	238618	544.33	499.44	14	8	-1	14.70	14.70
Fixation R	1	13	8668531700	8668770318	238618	544.33	499.44	14	8	-1	15.33	15.33
Saccade L	1	13	8668770318	8668810065	39747	549.07	503.46	796.06	462.89	2.23	150.75	0.50	56.02	3690.74	-3525.42	2919.54
Saccade R	1	13	8668770318	8668810065	39747	549.07	503.46	796.06	462.89	2.23	150.75	0.50	56.02	3690.74	-3525.42	2919.54
Fixation L	1	14	8668810065	8669048804	238739	797.62	434.82	4	37	-1	14.93	14.93
Fixation R	1	14	8668810065	8669048804	238739	797.62	434.82	4	37	-1	15.50	15.50
Saccade L	1	14	8669048804	8669088557	39753	795.50	426.69	598.48	359.04	1.82	120.66	1.00	45.66	2982.05	-2853.45	2483.10
Saccade R	1	14	8669048804	8669088557	39753	795.50	426.69	598.48	359.04	1.82	120.66	1.00	45.66	2982.05	-2853.45	2483.10
Fixation L	1	15	8669088557	8669406784	318227	593.45	337.83	15	34	-1	14.42	14.42
Fixation R	1	15	8669088557	8669406784	318227	593.45	337.83	15	34	-1	14.77	14.77
