[BeGaze]
Converted from:	C:\Documents and Settings\iViewX\Desktop\EXPERIMENTATIONS\Experiments\results\finaleart\S01A22542-finaleart-1.idf
Date:	27.03.2019 15:33:24
Version:	BeGaze 2.5.77
Sample Rate:	50
Subject:	S01A22542
Description:	Thibault Seve Minnaert

Table Header for Fixations:
Event Type	Trial	Number	Start	End	Duration	Location X	Location Y	Dispersion X	Dispersion Y	Plane	Avg. Pupil Size X	Avg. Pupil Size Y

Table Header for Saccades:
Event Type	Trial	Number	Start	End	Duration	Start Loc.X	Start Loc.Y	End Loc.X	End Loc.Y	Amplitude	Peak Speed	Peak Speed At	Average Speed	Peak Accel.	Peak Decel.	Average Accel.

Table Header for Blinks:
Event Type	Trial	Number	Start	End	Duration

Table Header for User Events:
Event Type	Trial	Number	Start	Description

UserEvent	1	1	9799770746	# Message: void.jpg
Fixation L	1	1	9799773707	9799972820	199113	456.76	518.62	32	27	-1	14.47	14.47
Fixation R	1	1	9799773707	9799972820	199113	456.76	518.62	32	27	-1	16.05	16.05
Saccade L	1	1	9799972820	9799992696	19876	435.20	502.96	279.40	460.74	1.06	163.25	1.00	53.53	4018.76	-3592.71	2544.05
Saccade R	1	1	9799972820	9799992696	19876	435.20	502.96	279.40	460.74	1.06	163.25	1.00	53.53	4018.76	-3592.71	2544.05
Fixation L	1	2	9799992696	9800311316	318620	287.18	466.82	65	31	-1	14.56	14.56
Fixation R	1	2	9799992696	9800311316	318620	287.18	466.82	65	31	-1	16.30	16.30
Saccade L	1	2	9800311316	9800331172	19856	336.99	472.08	393.69	575.76	1.08	119.53	1.00	54.45	2709.16	-2726.21	2004.24
Saccade R	1	2	9800311316	9800331172	19856	336.99	472.08	393.69	575.76	1.08	119.53	1.00	54.45	2709.16	-2726.21	2004.24
Fixation L	1	3	9800331172	9800470547	139375	426.86	584.37	44	28	-1	13.67	13.67
Fixation R	1	3	9800331172	9800470547	139375	426.86	584.37	44	28	-1	15.56	15.56
Saccade L	1	3	9800470547	9800530317	59770	434.43	568.07	992.80	565.92	5.85	257.29	0.67	97.85	6109.12	-6404.69	4080.16
Saccade R	1	3	9800470547	9800530317	59770	434.43	568.07	992.80	565.92	5.85	257.29	0.67	97.85	6109.12	-6404.69	4080.16
Fixation L	1	4	9800530317	9800928523	398206	994.59	541.36	5	44	-1	12.94	12.94
Fixation R	1	4	9800530317	9800928523	398206	994.59	541.36	5	44	-1	14.18	14.18
Saccade L	1	4	9800928523	9800948390	19867	991.76	560.59	905.43	656.26	0.85	130.34	1.00	42.79	3210.79	-3099.17	2403.24
Saccade R	1	4	9800928523	9800948390	19867	991.76	560.59	905.43	656.26	0.85	130.34	1.00	42.79	3210.79	-3099.17	2403.24
Fixation L	1	5	9800948390	9801346629	398239	891.06	670.47	60	25	-1	13.27	13.27
Fixation R	1	5	9800948390	9801346629	398239	891.06	670.47	60	25	-1	13.83	13.83
Saccade L	1	5	9801346629	9801366496	19867	844.86	661.51	838.40	646.89	0.46	36.32	1.00	23.05	8.37	-503.96	172.52
Saccade R	1	5	9801346629	9801366496	19867	844.86	661.51	838.40	646.89	0.46	36.32	1.00	23.05	8.37	-503.96	172.52
Fixation L	1	6	9801366496	9801764737	398241	826.44	631.11	19	48	-1	13.17	13.17
Fixation R	1	6	9801366496	9801764737	398241	826.44	631.11	19	48	-1	13.80	13.80
