[BeGaze]
Converted from:	C:\Documents and Settings\iViewX\Desktop\EXPERIMENTATIONS\Experiments\results\finaleart\S01A22542-finaleart-1.idf
Date:	27.03.2019 15:33:19
Version:	BeGaze 2.5.77
Sample Rate:	50
Subject:	S01A22542
Description:	Thibault Seve Minnaert

Table Header for Fixations:
Event Type	Trial	Number	Start	End	Duration	Location X	Location Y	Dispersion X	Dispersion Y	Plane	Avg. Pupil Size X	Avg. Pupil Size Y

Table Header for Saccades:
Event Type	Trial	Number	Start	End	Duration	Start Loc.X	Start Loc.Y	End Loc.X	End Loc.Y	Amplitude	Peak Speed	Peak Speed At	Average Speed	Peak Accel.	Peak Decel.	Average Accel.

Table Header for Blinks:
Event Type	Trial	Number	Start	End	Duration

Table Header for User Events:
Event Type	Trial	Number	Start	Description

UserEvent	1	1	9153149023	# Message: lying-nude_ury_1889.jpg
Fixation L	1	1	9153168634	9153447368	278734	944.00	674.74	19	14	-1	15.79	15.79
Fixation R	1	1	9153168634	9153447368	278734	944.00	674.74	19	14	-1	16.09	16.09
Saccade L	1	1	9153447368	9153467240	19872	944.08	669.71	947.70	558.99	0.85	112.05	1.00	42.53	2701.02	-2068.84	1964.47
Saccade R	1	1	9153447368	9153467240	19872	944.08	669.71	947.70	558.99	0.85	112.05	1.00	42.53	2701.02	-2068.84	1964.47
Fixation L	1	2	9153467240	9153606615	139375	952.33	591.16	38	59	-1	15.78	15.78
Fixation R	1	2	9153467240	9153606615	139375	952.33	591.16	38	59	-1	16.00	16.00
Saccade L	1	2	9153606615	9153646506	39891	926.94	600.06	502.38	629.62	4.00	262.01	0.50	100.19	6095.84	-6210.94	4860.93
Saccade R	1	2	9153606615	9153646506	39891	926.94	600.06	502.38	629.62	4.00	262.01	0.50	100.19	6095.84	-6210.94	4860.93
Fixation L	1	3	9153646506	9153805725	159219	505.01	639.06	7	39	-1	15.44	15.44
Fixation R	1	3	9153646506	9153805725	159219	505.01	639.06	7	39	-1	15.68	15.68
Saccade L	1	3	9153805725	9153825729	20004	508.54	655.16	406.95	670.27	0.71	103.90	1.00	35.71	2360.81	-2259.48	1772.07
Saccade R	1	3	9153805725	9153825729	20004	508.54	655.16	406.95	670.27	0.71	103.90	1.00	35.71	2360.81	-2259.48	1772.07
Fixation L	1	4	9153825729	9154144214	318485	405.26	696.93	32	66	-1	14.00	14.00
Fixation R	1	4	9153825729	9154144214	318485	405.26	696.93	32	66	-1	14.82	14.82
Saccade L	1	4	9154144214	9154263703	119489	394.76	737.02	679.44	755.34	4.67	176.81	0.83	39.12	4306.12	-4274.24	1786.50
Saccade R	1	4	9154144214	9154263703	119489	394.76	737.02	679.44	755.34	4.67	176.81	0.83	39.12	4306.12	-4274.24	1786.50
Fixation L	1	5	9154263703	9154641938	378235	689.23	766.67	27	22	-1	14.48	14.48
Fixation R	1	5	9154263703	9154641938	378235	689.23	766.67	27	22	-1	15.80	15.80
Saccade L	1	5	9154641938	9154661933	19995	697.60	761.26	535.21	758.57	1.10	164.26	1.00	54.91	3974.88	-3861.09	2967.37
Saccade R	1	5	9154641938	9154661933	19995	697.60	761.26	535.21	758.57	1.10	164.26	1.00	54.91	3974.88	-3861.09	2967.37
Fixation L	1	6	9154661933	9154940672	278739	481.02	742.17	68	31	-1	14.33	14.33
Fixation R	1	6	9154661933	9154940672	278739	481.02	742.17	68	31	-1	15.30	15.30
Saccade L	1	6	9154940672	9154960546	19874	467.13	727.32	463.96	721.90	0.10	6.35	1.00	4.93	86.66	-114.43	74.97
Saccade R	1	6	9154940672	9154960546	19874	467.13	727.32	463.96	721.90	0.10	6.35	1.00	4.93	86.66	-114.43	74.97
Fixation L	1	7	9154960546	9155279151	318605	472.14	739.56	56	32	-1	14.67	14.67
Fixation R	1	7	9154960546	9155279151	318605	472.14	739.56	56	32	-1	15.61	15.61
Saccade L	1	7	9155279151	9155318902	39751	515.07	749.77	993.28	750.15	4.13	272.67	0.50	104.01	6717.51	-6732.91	5807.04
Saccade R	1	7	9155279151	9155318902	39751	515.07	749.77	993.28	750.15	4.13	272.67	0.50	104.01	6717.51	-6732.91	5807.04
Fixation L	1	8	9155318902	9155557897	238995	998.08	749.05	14	9	-1	15.36	15.36
Fixation R	1	8	9155318902	9155557897	238995	998.08	749.05	14	9	-1	16.04	16.04
Saccade L	1	8	9155557897	9155597647	39750	1006.11	748.67	1396.67	734.76	3.32	280.25	0.50	83.47	6980.22	-6548.31	4760.50
Saccade R	1	8	9155557897	9155597647	39750	1006.11	748.67	1396.67	734.76	3.32	280.25	0.50	83.47	6980.22	-6548.31	4760.50
Fixation L	1	9	9155597647	9155936125	338478	1403.58	703.60	12	47	-1	14.97	14.97
Fixation R	1	9	9155597647	9155936125	338478	1403.58	703.60	12	47	-1	15.24	15.24
Saccade L	1	9	9155936125	9155975990	39865	1399.66	691.19	1023.30	713.29	3.25	282.57	0.50	81.62	7014.32	-6693.69	4455.41
Saccade R	1	9	9155936125	9155975990	39865	1399.66	691.19	1023.30	713.29	3.25	282.57	0.50	81.62	7014.32	-6693.69	4455.41
Fixation L	1	10	9155975990	9156234862	258872	997.92	735.91	35	28	-1	14.61	14.61
Fixation R	1	10	9155975990	9156234862	258872	997.92	735.91	35	28	-1	14.31	14.31
Saccade L	1	10	9156234862	9156274613	39751	991.84	740.31	817.83	712.17	1.52	114.44	0.50	38.21	2817.28	-2744.58	2142.96
Saccade R	1	10	9156234862	9156274613	39751	991.84	740.31	817.83	712.17	1.52	114.44	0.50	38.21	2817.28	-2744.58	2142.96
Fixation L	1	11	9156274613	9156533476	258863	810.90	687.01	13	68	-1	14.35	14.35
Fixation R	1	11	9156274613	9156533476	258863	810.90	687.01	13	68	-1	14.27	14.27
Saccade L	1	11	9156533476	9156553336	19860	804.78	643.17	784.92	600.47	0.50	47.65	1.00	25.20	1146.52	-943.32	862.33
Saccade R	1	11	9156533476	9156553336	19860	804.78	643.17	784.92	600.47	0.50	47.65	1.00	25.20	1146.52	-943.32	862.33
Fixation L	1	12	9156553336	9156772347	219011	767.11	579.51	26	29	-1	13.71	13.71
Fixation R	1	12	9156553336	9156772347	219011	767.11	579.51	26	29	-1	14.15	14.15
Saccade L	1	12	9156772347	9156812210	39863	779.09	572.92	1395.35	640.80	5.26	352.61	0.50	132.07	8771.37	-8531.15	7528.36
Saccade R	1	12	9156772347	9156812210	39863	779.09	572.92	1395.35	640.80	5.26	352.61	0.50	132.07	8771.37	-8531.15	7528.36
Fixation L	1	13	9156812210	9157051075	238865	1399.42	659.20	6	42	-1	13.60	13.60
Fixation R	1	13	9156812210	9157051075	238865	1399.42	659.20	6	42	-1	13.78	13.78
Saccade L	1	13	9157051075	9157150695	99620	1395.43	674.14	1632.38	670.67	3.63	205.90	0.20	36.48	5126.91	-4900.17	1866.82
Saccade R	1	13	9157051075	9157150695	99620	1395.43	674.14	1632.38	670.67	3.63	205.90	0.20	36.48	5126.91	-4900.17	1866.82
