[BeGaze]
Converted from:	C:\Documents and Settings\iViewX\Desktop\EXPERIMENTATIONS\Experiments\results\finaleart\S01A22542-finaleart-1.idf
Date:	27.03.2019 15:33:25
Version:	BeGaze 2.5.77
Sample Rate:	50
Subject:	S01A22542
Description:	Thibault Seve Minnaert

Table Header for Fixations:
Event Type	Trial	Number	Start	End	Duration	Location X	Location Y	Dispersion X	Dispersion Y	Plane	Avg. Pupil Size X	Avg. Pupil Size Y

Table Header for Saccades:
Event Type	Trial	Number	Start	End	Duration	Start Loc.X	Start Loc.Y	End Loc.X	End Loc.Y	Amplitude	Peak Speed	Peak Speed At	Average Speed	Peak Accel.	Peak Decel.	Average Accel.

Table Header for Blinks:
Event Type	Trial	Number	Start	End	Duration

Table Header for User Events:
Event Type	Trial	Number	Start	Description

UserEvent	1	1	10009313834	# Message: Landscape_at_L-Estaque_Braque-1906.jpg
Saccade L	1	1	10009329937	10009409561	79624	960.93	509.94	876.41	444.17	2.13	85.26	1.00	26.72	2120.57	-1944.49	874.13
Saccade R	1	1	10009329937	10009409561	79624	960.93	509.94	876.41	444.17	2.13	85.26	1.00	26.72	2120.57	-1944.49	874.13
Fixation L	1	1	10009409561	10009628292	218731	821.75	433.17	65	31	-1	13.36	13.36
Fixation R	1	1	10009409561	10009628292	218731	821.75	433.17	65	31	-1	13.96	13.96
Saccade L	1	2	10009628292	10009648170	19878	811.41	422.90	810.32	417.95	0.05	5.12	1.00	2.45	68.63	-104.17	68.46
Saccade R	1	2	10009628292	10009648170	19878	811.41	422.90	810.32	417.95	0.05	5.12	1.00	2.45	68.63	-104.17	68.46
Fixation L	1	2	10009648170	10009747669	99499	811.28	417.06	19	5	-1	13.54	13.54
Fixation R	1	2	10009648170	10009747669	99499	811.28	417.06	19	5	-1	13.97	13.97
Saccade L	1	3	10009747669	10009787415	39746	824.16	413.07	1080.75	429.70	2.34	221.01	0.50	58.83	5465.82	-5257.73	2896.06
Saccade R	1	3	10009747669	10009787415	39746	824.16	413.07	1080.75	429.70	2.34	221.01	0.50	58.83	5465.82	-5257.73	2896.06
Fixation L	1	3	10009787415	10009946551	159136	1084.25	462.97	12	47	-1	13.53	13.53
Fixation R	1	3	10009787415	10009946551	159136	1084.25	462.97	12	47	-1	13.72	13.72
Saccade L	1	4	10009946551	10009986278	39727	1083.73	475.99	1302.86	478.91	1.81	129.97	0.50	45.58	3190.75	-3197.35	2691.85
Saccade R	1	4	10009946551	10009986278	39727	1083.73	475.99	1302.86	478.91	1.81	129.97	0.50	45.58	3190.75	-3197.35	2691.85
Fixation L	1	4	10009986278	10010225006	238728	1292.90	492.36	23	24	-1	12.25	12.25
Fixation R	1	4	10009986278	10010225006	238728	1292.90	492.36	23	24	-1	12.49	12.49
Saccade L	1	5	10010225006	10010244903	19897	1280.65	495.48	1170.15	383.15	1.15	159.37	1.00	58.04	3936.00	-3747.88	2990.73
Saccade R	1	5	10010225006	10010244903	19897	1280.65	495.48	1170.15	383.15	1.15	159.37	1.00	58.04	3936.00	-3747.88	2990.73
Fixation L	1	5	10010244903	10010344375	99472	1124.86	354.12	59	38	-1	11.71	11.71
Fixation R	1	5	10010244903	10010344375	99472	1124.86	354.12	59	38	-1	11.93	11.93
Saccade L	1	6	10010344375	10010483630	139255	1110.70	352.90	919.45	318.94	3.15	132.04	0.86	22.62	3265.18	-3061.17	997.14
Saccade R	1	6	10010344375	10010483630	139255	1110.70	352.90	919.45	318.94	3.15	132.04	0.86	22.62	3265.18	-3061.17	997.14
Fixation L	1	6	10010483630	10010742124	258494	903.44	293.14	22	47	-1	11.45	11.45
Fixation R	1	6	10010483630	10010742124	258494	903.44	293.14	22	47	-1	11.85	11.85
Saccade L	1	7	10010742124	10010761980	19856	896.62	276.68	822.97	275.37	0.46	74.52	1.00	23.16	1816.96	-1637.54	1234.22
Saccade R	1	7	10010742124	10010761980	19856	896.62	276.68	822.97	275.37	0.46	74.52	1.00	23.16	1816.96	-1637.54	1234.22
Fixation L	1	7	10010761980	10010921104	159124	826.81	290.63	18	33	-1	11.33	11.33
Fixation R	1	7	10010761980	10010921104	159124	826.81	290.63	18	33	-1	12.00	12.00
Saccade L	1	8	10010921104	10010960973	39869	825.11	308.55	597.74	311.07	1.97	139.36	0.50	49.43	3424.23	-3337.95	2767.65
Saccade R	1	8	10010921104	10010960973	39869	825.11	308.55	597.74	311.07	1.97	139.36	0.50	49.43	3424.23	-3337.95	2767.65
Fixation L	1	8	10010960973	10011199598	238625	588.59	322.65	16	17	-1	11.58	11.58
Fixation R	1	8	10010960973	10011199598	238625	588.59	322.65	16	17	-1	12.24	12.24
Saccade L	1	9	10011199598	10011239336	39738	581.36	325.92	807.21	327.06	2.46	141.39	1.00	62.02	3473.25	-3480.40	2333.91
Saccade R	1	9	10011199598	10011239336	39738	581.36	325.92	807.21	327.06	2.46	141.39	1.00	62.02	3473.25	-3480.40	2333.91
Fixation L	1	9	10011239336	10011438351	199015	872.79	335.15	75	15	-1	11.67	11.67
Fixation R	1	9	10011239336	10011438351	199015	872.79	335.15	75	15	-1	12.47	12.47
Saccade L	1	10	10011438351	10011458198	19847	879.36	343.05	873.12	484.39	0.89	143.09	1.00	44.67	3517.63	-3523.15	2543.75
Saccade R	1	10	10011438351	10011458198	19847	879.36	343.05	873.12	484.39	0.89	143.09	1.00	44.67	3517.63	-3523.15	2543.75
Fixation L	1	10	10011458198	10011657098	198900	873.49	500.80	13	27	-1	11.89	11.89
Fixation R	1	10	10011458198	10011657098	198900	873.49	500.80	13	27	-1	12.69	12.69
Saccade L	1	11	10011657098	10011696814	39716	864.35	508.41	602.31	515.47	2.35	170.53	0.50	59.16	4191.38	-3921.56	3107.22
Saccade R	1	11	10011657098	10011696814	39716	864.35	508.41	602.31	515.47	2.35	170.53	0.50	59.16	4191.38	-3921.56	3107.22
Fixation L	1	11	10011696814	10011995179	298365	606.22	540.73	10	34	-1	12.52	12.52
Fixation R	1	11	10011696814	10011995179	298365	606.22	540.73	10	34	-1	13.11	13.11
Saccade L	1	12	10011995179	10012015050	19871	612.54	549.73	720.97	557.44	0.86	109.96	1.00	43.32	2707.92	-2597.68	2253.57
Saccade R	1	12	10011995179	10012015050	19871	612.54	549.73	720.97	557.44	0.86	109.96	1.00	43.32	2707.92	-2597.68	2253.57
Fixation L	1	12	10012015050	10012154296	139246	779.91	572.16	72	26	-1	12.39	12.39
Fixation R	1	12	10012015050	10012154296	139246	779.91	572.16	72	26	-1	13.02	13.02
Saccade L	1	13	10012154296	10012214043	59747	793.64	584.13	1043.39	597.80	2.67	140.50	0.67	44.62	3457.56	-3419.58	2394.03
Saccade R	1	13	10012154296	10012214043	59747	793.64	584.13	1043.39	597.80	2.67	140.50	0.67	44.62	3457.56	-3419.58	2394.03
Fixation L	1	13	10012214043	10012452655	238612	1047.11	620.29	51	38	-1	12.64	12.64
Fixation R	1	13	10012214043	10012452655	238612	1047.11	620.29	51	38	-1	13.21	13.21
Saccade L	1	14	10012452655	10012472537	19882	1091.72	633.73	1112.21	627.60	0.42	51.49	0.00	21.02	440.38	-1114.32	670.29
Saccade R	1	14	10012452655	10012472537	19882	1091.72	633.73	1112.21	627.60	0.42	51.49	0.00	21.02	440.38	-1114.32	670.29
Fixation L	1	14	10012472537	10012671520	198983	1124.46	618.19	37	15	-1	12.20	12.20
Fixation R	1	14	10012472537	10012671520	198983	1124.46	618.19	37	15	-1	12.90	12.90
Saccade L	1	15	10012671520	10012691404	19884	1149.38	611.77	1307.97	610.10	0.97	160.40	1.00	49.01	3977.53	-3807.02	2693.13
Saccade R	1	15	10012671520	10012691404	19884	1149.38	611.77	1307.97	610.10	0.97	160.40	1.00	49.01	3977.53	-3807.02	2693.13
Fixation L	1	15	10012691404	10013168754	477350	1329.45	587.12	31	63	-1	11.97	11.97
Fixation R	1	15	10012691404	10013168754	477350	1329.45	587.12	31	63	-1	12.24	12.24
Saccade L	1	16	10013168754	10013188629	19875	1339.40	549.80	1342.39	543.29	0.10	7.26	1.00	5.07	112.73	-4.18	44.38
Saccade R	1	16	10013168754	10013188629	19875	1339.40	549.80	1342.39	543.29	0.10	7.26	1.00	5.07	112.73	-4.18	44.38
Fixation L	1	16	10013188629	10013307984	119355	1332.60	540.06	24	5	-1	11.67	11.67
Fixation R	1	16	10013188629	10013307984	119355	1332.60	540.06	24	5	-1	11.93	11.93
