[BeGaze]
Converted from:	C:\Documents and Settings\iViewX\Desktop\EXPERIMENTATIONS\Experiments\results\finaleart\S01A22542-finaleart-1.idf
Date:	27.03.2019 15:33:23
Version:	BeGaze 2.5.77
Sample Rate:	50
Subject:	S01A22542
Description:	Thibault Seve Minnaert

Table Header for Fixations:
Event Type	Trial	Number	Start	End	Duration	Location X	Location Y	Dispersion X	Dispersion Y	Plane	Avg. Pupil Size X	Avg. Pupil Size Y

Table Header for Saccades:
Event Type	Trial	Number	Start	End	Duration	Start Loc.X	Start Loc.Y	End Loc.X	End Loc.Y	Amplitude	Peak Speed	Peak Speed At	Average Speed	Peak Accel.	Peak Decel.	Average Accel.

Table Header for Blinks:
Event Type	Trial	Number	Start	End	Duration

Table Header for User Events:
Event Type	Trial	Number	Start	Description

UserEvent	1	1	9595029439	# Message: void.jpg
Fixation L	1	1	9595044499	9595542372	497873	1402.48	616.20	47	28	-1	12.22	12.22
Fixation R	1	1	9595044499	9595542372	497873	1402.48	616.20	47	28	-1	11.89	11.89
Blink L	1	1	9595542372	9595781210	238838
Blink R	1	1	9595542372	9595781210	238838
Fixation L	1	2	9595781210	9596239194	457984	1034.43	613.04	34	48	-1	14.45	14.45
Fixation R	1	2	9595781210	9596239194	457984	1034.43	613.04	34	48	-1	14.25	14.25
Saccade L	1	1	9596239194	9596259074	19880	1050.99	618.19	1204.59	604.14	0.99	156.00	1.00	49.60	3824.25	-3775.59	2599.26
Saccade R	1	1	9596239194	9596259074	19880	1050.99	618.19	1204.59	604.14	0.99	156.00	1.00	49.60	3824.25	-3775.59	2599.26
Fixation L	1	3	9596259074	9596617428	358354	1231.01	596.83	30	15	-1	14.94	14.94
Fixation R	1	3	9596259074	9596617428	358354	1231.01	596.83	30	15	-1	14.94	14.94
Saccade L	1	2	9596617428	9596637291	19863	1221.42	592.18	1029.16	591.77	1.47	194.42	1.00	73.86	4853.88	-4753.39	3869.53
Saccade R	1	2	9596617428	9596637291	19863	1221.42	592.18	1029.16	591.77	1.47	194.42	1.00	73.86	4853.88	-4753.39	3869.53
Fixation L	1	4	9596637291	9596736917	99626	955.81	586.37	89	10	-1	14.84	14.84
Fixation R	1	4	9596637291	9596736917	99626	955.81	586.37	89	10	-1	14.25	14.25
Saccade L	1	3	9596736917	9596756792	19875	941.71	581.21	942.65	579.27	0.05	2.75	1.00	2.32	32.53	0.62	15.78
Saccade R	1	3	9596736917	9596756792	19875	941.71	581.21	942.65	579.27	0.05	2.75	1.00	2.32	32.53	0.62	15.78
Fixation L	1	5	9596756792	9597035531	278739	937.75	583.37	9	16	-1	14.68	14.68
Fixation R	1	5	9596756792	9597035531	278739	937.75	583.37	9	16	-1	14.39	14.39
