[BeGaze]
Converted from:	C:\Documents and Settings\iViewX\Desktop\EXPERIMENTATIONS\Experiments\results\finaleart\S01A22542-finaleart-1.idf
Date:	27.03.2019 15:33:17
Version:	BeGaze 2.5.77
Sample Rate:	50
Subject:	S01A22542
Description:	Thibault Seve Minnaert

Table Header for Fixations:
Event Type	Trial	Number	Start	End	Duration	Location X	Location Y	Dispersion X	Dispersion Y	Plane	Avg. Pupil Size X	Avg. Pupil Size Y

Table Header for Saccades:
Event Type	Trial	Number	Start	End	Duration	Start Loc.X	Start Loc.Y	End Loc.X	End Loc.Y	Amplitude	Peak Speed	Peak Speed At	Average Speed	Peak Accel.	Peak Decel.	Average Accel.

Table Header for Blinks:
Event Type	Trial	Number	Start	End	Duration

Table Header for User Events:
Event Type	Trial	Number	Start	Description

UserEvent	1	1	8899360457	# Message: void.jpg
Fixation L	1	1	8899367910	8899964549	596639	353.34	795.34	35	41	-1	13.28	13.28
Fixation R	1	1	8899367910	8899964549	596639	353.34	795.34	35	41	-1	14.24	14.24
Saccade L	1	1	8899964549	8900024253	59704	364.84	811.93	984.90	766.73	6.78	310.98	0.67	113.50	7649.68	-6674.42	4847.70
Saccade R	1	1	8899964549	8900024253	59704	364.84	811.93	984.90	766.73	6.78	310.98	0.67	113.50	7649.68	-6674.42	4847.70
Fixation L	1	2	8900024253	8900561219	536966	1022.18	764.98	42	33	-1	14.12	14.12
Fixation R	1	2	8900024253	8900561219	536966	1022.18	764.98	42	33	-1	14.30	14.30
Saccade L	1	2	8900561219	8900600965	39746	1019.58	780.26	833.01	783.35	1.60	97.79	0.50	40.30	2286.61	-2310.74	2257.33
Saccade R	1	2	8900561219	8900600965	39746	1019.58	780.26	833.01	783.35	1.60	97.79	0.50	40.30	2286.61	-2310.74	2257.33
Fixation L	1	3	8900600965	8901018703	417738	827.14	787.65	70	15	-1	14.81	14.81
Fixation R	1	3	8900600965	8901018703	417738	827.14	787.65	70	15	-1	14.59	14.59
Saccade L	1	3	8901018703	8901038569	19866	889.09	781.20	1045.62	738.07	1.49	164.20	1.00	74.85	4011.90	-3984.60	2720.33
Saccade R	1	3	8901018703	8901038569	19866	889.09	781.20	1045.62	738.07	1.49	164.20	1.00	74.85	4011.90	-3984.60	2720.33
Fixation L	1	4	8901038569	8901237578	199009	1068.41	691.46	27	57	-1	15.05	15.05
Fixation R	1	4	8901038569	8901237578	199009	1068.41	691.46	27	57	-1	14.98	14.98
Saccade L	1	4	8901237578	8901356804	119226	1067.86	687.56	810.46	699.10	4.14	154.06	0.17	34.68	3706.44	-3748.94	1709.61
Saccade R	1	4	8901237578	8901356804	119226	1067.86	687.56	810.46	699.10	4.14	154.06	0.17	34.68	3706.44	-3748.94	1709.61
