[BeGaze]
Converted from:	C:\Documents and Settings\iViewX\Desktop\EXPERIMENTATIONS\Experiments\results\finaleart\S01A22542-finaleart-1.idf
Date:	27.03.2019 15:33:26
Version:	BeGaze 2.5.77
Sample Rate:	50
Subject:	S01A22542
Description:	Thibault Seve Minnaert

Table Header for Fixations:
Event Type	Trial	Number	Start	End	Duration	Location X	Location Y	Dispersion X	Dispersion Y	Plane	Avg. Pupil Size X	Avg. Pupil Size Y

Table Header for Saccades:
Event Type	Trial	Number	Start	End	Duration	Start Loc.X	Start Loc.Y	End Loc.X	End Loc.Y	Amplitude	Peak Speed	Peak Speed At	Average Speed	Peak Accel.	Peak Decel.	Average Accel.

Table Header for Blinks:
Event Type	Trial	Number	Start	End	Duration

Table Header for User Events:
Event Type	Trial	Number	Start	Description

UserEvent	1	1	10068307678	# Message: void.jpg
Saccade L	1	1	10068309620	10068329490	19870	1154.22	638.74	999.77	738.09	1.26	185.71	1.00	63.56	124.41	-4429.76	1518.06
Saccade R	1	1	10068309620	10068329490	19870	1154.22	638.74	999.77	738.09	1.26	185.71	1.00	63.56	124.41	-4429.76	1518.06
Fixation L	1	1	10068329490	10068568098	238608	996.43	744.49	12	24	-1	12.79	12.79
Fixation R	1	1	10068329490	10068568098	238608	996.43	744.49	12	24	-1	11.86	11.86
Saccade L	1	2	10068568098	10068607966	39868	992.70	747.61	983.67	461.00	2.41	147.50	0.50	60.36	3567.74	-3558.27	3529.29
Saccade R	1	2	10068568098	10068607966	39868	992.70	747.61	983.67	461.00	2.41	147.50	0.50	60.36	3567.74	-3558.27	3529.29
Fixation L	1	2	10068607966	10068786958	178992	970.46	458.80	23	15	-1	12.30	12.30
Fixation R	1	2	10068607966	10068786958	178992	970.46	458.80	23	15	-1	12.15	12.15
Blink L	1	1	10068786958	10068985829	198871
Blink R	1	1	10068786958	10068985829	198871
Fixation L	1	3	10068985829	10069284191	298362	945.04	577.56	18	33	-1	13.58	13.58
Fixation R	1	3	10068985829	10069284191	298362	945.04	577.56	18	33	-1	12.96	12.96
Saccade L	1	3	10069284191	10069304066	19875	943.18	571.38	969.26	515.70	0.67	62.20	1.00	33.77	1221.26	-1245.37	976.20
Saccade R	1	3	10069284191	10069304066	19875	943.18	571.38	969.26	515.70	0.67	62.20	1.00	33.77	1221.26	-1245.37	976.20
Fixation L	1	4	10069304066	10069662041	357975	1002.31	488.81	40	44	-1	14.50	14.50
Fixation R	1	4	10069304066	10069662041	357975	1002.31	488.81	40	44	-1	13.77	13.77
Saccade L	1	4	10069662041	10069681913	19872	1004.50	491.10	1104.52	492.08	0.59	101.17	1.00	29.49	2475.91	-2380.38	1721.02
Saccade R	1	4	10069662041	10069681913	19872	1004.50	491.10	1104.52	492.08	0.59	101.17	1.00	29.49	2475.91	-2380.38	1721.02
Fixation L	1	5	10069681913	10069960409	278496	1129.77	494.00	33	3	-1	14.36	14.36
Fixation R	1	5	10069681913	10069960409	278496	1129.77	494.00	33	3	-1	13.86	13.86
Saccade L	1	5	10069960409	10070000159	39750	1138.24	495.27	896.72	501.24	2.01	128.59	1.00	50.48	3159.60	-2987.71	2948.03
Saccade R	1	5	10069960409	10070000159	39750	1138.24	495.27	896.72	501.24	2.01	128.59	1.00	50.48	3159.60	-2987.71	2948.03
Fixation L	1	6	10070000159	10070278634	278475	880.61	515.48	26	21	-1	14.78	14.78
Fixation R	1	6	10070000159	10070278634	278475	880.61	515.48	26	21	-1	14.07	14.07
Saccade L	1	6	10070278634	10070298539	19905	870.57	521.62	804.74	518.92	0.47	66.65	1.00	23.66	1632.14	0.00	816.07
Saccade R	1	6	10070278634	10070298539	19905	870.57	521.62	804.74	518.92	0.47	66.65	1.00	23.66	1632.14	0.00	816.07
