[BeGaze]
Converted from:	C:\Documents and Settings\iViewX\Desktop\EXPERIMENTATIONS\Experiments\results\finaleart\S01A22542-finaleart-1.idf
Date:	27.03.2019 15:33:16
Version:	BeGaze 2.5.77
Sample Rate:	50
Subject:	S01A22542
Description:	Thibault Seve Minnaert

Table Header for Fixations:
Event Type	Trial	Number	Start	End	Duration	Location X	Location Y	Dispersion X	Dispersion Y	Plane	Avg. Pupil Size X	Avg. Pupil Size Y

Table Header for Saccades:
Event Type	Trial	Number	Start	End	Duration	Start Loc.X	Start Loc.Y	End Loc.X	End Loc.Y	Amplitude	Peak Speed	Peak Speed At	Average Speed	Peak Accel.	Peak Decel.	Average Accel.

Table Header for Blinks:
Event Type	Trial	Number	Start	End	Duration

Table Header for User Events:
Event Type	Trial	Number	Start	Description

UserEvent	1	1	8708079752	# Message: Young_Girls_Playing_With_A_Lion_Club_Valtat_1905.jpg
Saccade L	1	1	8708096833	8708176438	79605	841.35	442.03	845.67	452.05	3.17	220.51	1.00	39.85	26695.14	0.00	5413.62
Saccade R	1	1	8708096833	8708176438	79605	841.35	442.03	845.67	452.05	3.17	220.51	1.00	39.85	26695.14	0.00	5413.62
Blink L	1	1	8708176438	8708295929	119491
Blink R	1	1	8708176438	8708295929	119491
Fixation L	1	1	8708295929	8708495039	199110	892.45	422.71	27	17	-1	15.32	15.32
Fixation R	1	1	8708295929	8708495039	199110	892.45	422.71	27	17	-1	15.15	15.15
Saccade L	1	2	8708495039	8708514927	19888	898.39	418.01	998.88	432.69	0.63	102.73	1.00	31.74	2482.39	-2238.61	1647.56
Saccade R	1	2	8708495039	8708514927	19888	898.39	418.01	998.88	432.69	0.63	102.73	1.00	31.74	2482.39	-2238.61	1647.56
Fixation L	1	2	8708514927	8708714045	199118	997.57	457.47	13	35	-1	15.14	15.14
Fixation R	1	2	8708514927	8708714045	199118	997.57	457.47	13	35	-1	14.99	14.99
Saccade L	1	3	8708714045	8708733900	19855	999.93	468.49	919.03	463.97	0.52	81.97	1.00	26.28	2009.42	-1972.31	1454.82
Saccade R	1	3	8708714045	8708733900	19855	999.93	468.49	919.03	463.97	0.52	81.97	1.00	26.28	2009.42	-1972.31	1454.82
Fixation L	1	3	8708733900	8709032525	298625	895.41	434.36	29	47	-1	13.26	13.26
Fixation R	1	3	8708733900	8709032525	298625	895.41	434.36	29	47	-1	13.02	13.02
Saccade L	1	4	8709032525	8709052520	19995	893.57	416.47	1054.06	455.66	1.00	167.07	1.00	49.80	4109.11	-3801.47	2807.25
Saccade R	1	4	8709032525	8709052520	19995	893.57	416.47	1054.06	455.66	1.00	167.07	1.00	49.80	4109.11	-3801.47	2807.25
Fixation L	1	4	8709052520	8709390991	338471	1050.86	474.76	11	61	-1	13.21	13.21
Fixation R	1	4	8709052520	8709390991	338471	1050.86	474.76	11	61	-1	13.12	13.12
Saccade L	1	5	8709390991	8709410879	19888	1044.36	490.68	1121.71	549.18	0.68	98.09	1.00	34.05	2413.02	-2162.57	1791.85
Saccade R	1	5	8709390991	8709410879	19888	1044.36	490.68	1121.71	549.18	0.68	98.09	1.00	34.05	2413.02	-2162.57	1791.85
Fixation L	1	5	8709410879	8709789102	378223	1158.95	588.83	44	54	-1	14.25	14.25
Fixation R	1	5	8709410879	8709789102	378223	1158.95	588.83	44	54	-1	13.87	13.87
Saccade L	1	6	8709789102	8709809113	20011	1156.17	603.15	1153.80	605.55	0.03	3.41	1.00	1.68	65.31	-37.61	37.48
Saccade R	1	6	8709789102	8709809113	20011	1156.17	603.15	1153.80	605.55	0.03	3.41	1.00	1.68	65.31	-37.61	37.48
Fixation L	1	6	8709809113	8709948468	139355	1150.74	606.97	4	6	-1	14.67	14.67
Fixation R	1	6	8709809113	8709948468	139355	1150.74	606.97	4	6	-1	14.11	14.11
Saccade L	1	7	8709948468	8709968349	19881	1149.93	606.53	1129.33	741.23	0.76	137.82	1.00	38.17	3414.35	-2884.86	2202.69
Saccade R	1	7	8709948468	8709968349	19881	1149.93	606.53	1129.33	741.23	0.76	137.82	1.00	38.17	3414.35	-2884.86	2202.69
Fixation L	1	7	8709968349	8710247076	278727	1106.29	768.00	36	40	-1	14.96	14.96
Fixation R	1	7	8709968349	8710247076	278727	1106.29	768.00	36	40	-1	14.26	14.26
Saccade L	1	8	8710247076	8710266963	19887	1092.90	781.83	1096.81	599.91	1.02	184.01	1.00	51.40	4481.66	-4147.49	3009.38
Saccade R	1	8	8710247076	8710266963	19887	1092.90	781.83	1096.81	599.91	1.02	184.01	1.00	51.40	4481.66	-4147.49	3009.38
Fixation L	1	8	8710266963	8710505938	238975	1108.62	559.32	18	52	-1	14.96	14.96
Fixation R	1	8	8710266963	8710505938	238975	1108.62	559.32	18	52	-1	14.54	14.54
Saccade L	1	9	8710505938	8710525822	19884	1101.26	549.99	986.76	542.23	0.67	116.08	1.00	33.53	2896.41	-2803.88	1995.83
Saccade R	1	9	8710505938	8710525822	19884	1101.26	549.99	986.76	542.23	0.67	116.08	1.00	33.53	2896.41	-2803.88	1995.83
Fixation L	1	9	8710525822	8710784681	258859	982.71	544.27	16	58	-1	14.41	14.41
Fixation R	1	9	8710525822	8710784681	258859	982.71	544.27	16	58	-1	13.87	13.87
Saccade L	1	10	8710784681	8710804554	19873	993.60	594.40	1047.87	710.81	0.99	129.91	1.00	50.02	3229.91	-2682.24	2354.08
Saccade R	1	10	8710784681	8710804554	19873	993.60	594.40	1047.87	710.81	0.99	129.91	1.00	50.02	3229.91	-2682.24	2354.08
Fixation L	1	10	8710804554	8710963800	159246	1057.07	751.93	14	62	-1	13.97	13.97
Fixation R	1	10	8710804554	8710963800	159246	1057.07	751.93	14	62	-1	13.48	13.48
Saccade L	1	11	8710963800	8710983812	20012	1062.33	773.63	981.69	950.73	1.27	196.78	1.00	63.25	4763.21	-4303.29	3402.11
Saccade R	1	11	8710963800	8710983812	20012	1062.33	773.63	981.69	950.73	1.27	196.78	1.00	63.25	4763.21	-4303.29	3402.11
Fixation L	1	11	8710983812	8711381908	398096	947.16	991.70	46	53	-1	14.12	14.12
Fixation R	1	11	8710983812	8711381908	398096	947.16	991.70	46	53	-1	13.95	13.95
Saccade L	1	12	8711381908	8711401903	19995	963.77	998.37	966.70	1005.99	0.11	8.26	1.00	5.35	142.26	-117.54	95.44
Saccade R	1	12	8711381908	8711401903	19995	963.77	998.37	966.70	1005.99	0.11	8.26	1.00	5.35	142.26	-117.54	95.44
Fixation L	1	12	8711401903	8711780133	378230	981.36	1019.63	20	28	-1	14.44	14.44
Fixation R	1	12	8711401903	8711780133	378230	981.36	1019.63	20	28	-1	13.93	13.93
Saccade L	1	13	8711780133	8711820006	39873	984.93	1033.05	714.89	1009.02	2.35	175.97	0.50	58.96	4315.21	-4041.97	3295.25
Saccade R	1	13	8711780133	8711820006	39873	984.93	1033.05	714.89	1009.02	2.35	175.97	0.50	58.96	4315.21	-4041.97	3295.25
Fixation L	1	13	8711820006	8712058879	238873	719.87	988.39	6	31	-1	14.09	14.09
Fixation R	1	13	8711820006	8712058879	238873	719.87	988.39	6	31	-1	14.09	14.09
Saccade L	1	14	8712058879	8712078866	19987	717.50	977.21	702.92	732.83	1.72	247.51	1.00	86.08	6113.66	0.00	3056.83
Saccade R	1	14	8712058879	8712078866	19987	717.50	977.21	702.92	732.83	1.72	247.51	1.00	86.08	6113.66	0.00	3056.83
