[BeGaze]
Converted from:	C:\Documents and Settings\iViewX\Desktop\EXPERIMENTATIONS\Experiments\results\finaleart\S01A22542-finaleart-1.idf
Date:	27.03.2019 15:33:19
Version:	BeGaze 2.5.77
Sample Rate:	50
Subject:	S01A22542
Description:	Thibault Seve Minnaert

Table Header for Fixations:
Event Type	Trial	Number	Start	End	Duration	Location X	Location Y	Dispersion X	Dispersion Y	Plane	Avg. Pupil Size X	Avg. Pupil Size Y

Table Header for Saccades:
Event Type	Trial	Number	Start	End	Duration	Start Loc.X	Start Loc.Y	End Loc.X	End Loc.Y	Amplitude	Peak Speed	Peak Speed At	Average Speed	Peak Accel.	Peak Decel.	Average Accel.

Table Header for Blinks:
Event Type	Trial	Number	Start	End	Duration

Table Header for User Events:
Event Type	Trial	Number	Start	Description

UserEvent	1	1	9003132046	# Message: void.jpg
Fixation L	1	1	9003142942	9003342050	199108	1409.06	652.85	12	4	-1	12.87	12.87
Fixation R	1	1	9003142942	9003342050	199108	1409.06	652.85	12	4	-1	12.80	12.80
Saccade L	1	1	9003342050	9003361928	19878	1405.05	651.73	1176.70	646.65	1.54	230.93	1.00	77.69	5696.93	-5580.72	4358.92
Saccade R	1	1	9003342050	9003361928	19878	1405.05	651.73	1176.70	646.65	1.54	230.93	1.00	77.69	5696.93	-5580.72	4358.92
Fixation L	1	2	9003361928	9003521169	159241	1098.63	644.87	95	4	-1	12.72	12.72
Fixation R	1	2	9003361928	9003521169	159241	1098.63	644.87	95	4	-1	12.64	12.64
Saccade L	1	2	9003521169	9003580928	59759	1081.07	644.15	1076.11	640.82	2.34	219.83	1.00	39.10	26312.11	-55.53	6387.27
Saccade R	1	2	9003521169	9003580928	59759	1081.07	644.15	1076.11	640.82	2.34	219.83	1.00	39.10	26312.11	-55.53	6387.27
Blink L	1	1	9003580928	9003740290	159362
Blink R	1	1	9003580928	9003740290	159362
Fixation L	1	3	9003740290	9004098645	358355	787.82	481.87	9	31	-1	13.35	13.35
Fixation R	1	3	9003740290	9004098645	358355	787.82	481.87	9	31	-1	13.27	13.27
Saccade L	1	3	9004098645	9004138404	39759	783.21	497.39	1076.95	257.05	3.47	215.95	1.00	87.22	5119.26	-5172.04	4984.93
Saccade R	1	3	9004098645	9004138404	39759	783.21	497.39	1076.95	257.05	3.47	215.95	1.00	87.22	5119.26	-5172.04	4984.93
Fixation L	1	4	9004138404	9004337506	199102	1087.24	257.97	13	21	-1	13.43	13.43
Fixation R	1	4	9004138404	9004337506	199102	1087.24	257.97	13	21	-1	13.44	13.44
Saccade L	1	4	9004337506	9004397256	59750	1090.42	270.43	1086.87	751.97	4.97	207.06	0.67	83.15	5013.33	-5083.33	3516.84
Saccade R	1	4	9004337506	9004397256	59750	1090.42	270.43	1086.87	751.97	4.97	207.06	0.67	83.15	5013.33	-5083.33	3516.84
Fixation L	1	5	9004397256	9004795475	398219	1064.38	767.56	31	32	-1	13.70	13.70
Fixation R	1	5	9004397256	9004795475	398219	1064.38	767.56	31	32	-1	13.32	13.32
Saccade L	1	5	9004795475	9004835231	39756	1062.91	750.86	924.32	611.57	1.72	158.45	1.00	43.14	3895.94	-3511.68	2266.37
Saccade R	1	5	9004795475	9004835231	39756	1062.91	750.86	924.32	611.57	1.72	158.45	1.00	43.14	3895.94	-3511.68	2266.37
Fixation L	1	6	9004835231	9005114012	278781	912.21	584.09	21	38	-1	14.28	14.28
Fixation R	1	6	9004835231	9005114012	278781	912.21	584.09	21	38	-1	14.10	14.10
