[BeGaze]
Converted from:	C:\Documents and Settings\iViewX\Desktop\EXPERIMENTATIONS\Experiments\results\finaleart\S01A22542-finaleart-1.idf
Date:	27.03.2019 15:33:22
Version:	BeGaze 2.5.77
Sample Rate:	50
Subject:	S01A22542
Description:	Thibault Seve Minnaert

Table Header for Fixations:
Event Type	Trial	Number	Start	End	Duration	Location X	Location Y	Dispersion X	Dispersion Y	Plane	Avg. Pupil Size X	Avg. Pupil Size Y

Table Header for Saccades:
Event Type	Trial	Number	Start	End	Duration	Start Loc.X	Start Loc.Y	End Loc.X	End Loc.Y	Amplitude	Peak Speed	Peak Speed At	Average Speed	Peak Accel.	Peak Decel.	Average Accel.

Table Header for Blinks:
Event Type	Trial	Number	Start	End	Duration

Table Header for User Events:
Event Type	Trial	Number	Start	Description

UserEvent	1	1	9517805906	# Message: naked-woman-lying-on-a-couch_caillebotte_1873.jpg
Saccade L	1	1	9517824815	9517864700	39885	758.29	546.46	860.82	544.32	1.23	104.76	1.00	30.74	2619.02	-2426.91	1359.72
Saccade R	1	1	9517824815	9517864700	39885	758.29	546.46	860.82	544.32	1.23	104.76	1.00	30.74	2619.02	-2426.91	1359.72
Fixation L	1	1	9517864700	9518083421	218721	877.24	559.20	28	33	-1	13.38	13.38
Fixation R	1	1	9517864700	9518083421	218721	877.24	559.20	28	33	-1	13.71	13.71
Saccade L	1	2	9518083421	9518103305	19884	888.27	552.21	888.90	449.25	0.57	104.14	1.00	28.61	2516.17	-2574.43	1726.16
Saccade R	1	2	9518083421	9518103305	19884	888.27	552.21	888.90	449.25	0.57	104.14	1.00	28.61	2516.17	-2574.43	1726.16
Fixation L	1	2	9518103305	9518282292	178987	885.58	442.81	12	12	-1	13.20	13.20
Fixation R	1	2	9518103305	9518282292	178987	885.58	442.81	12	12	-1	13.66	13.66
Saccade L	1	3	9518282292	9518401654	119362	877.91	436.99	1400.23	349.20	13.42	408.72	0.83	112.41	9876.21	-9632.33	5145.79
Saccade R	1	3	9518282292	9518401654	119362	877.91	436.99	1400.23	349.20	13.42	408.72	0.83	112.41	9876.21	-9632.33	5145.79
Fixation L	1	3	9518401654	9519058011	656357	1417.62	332.09	27	47	-1	12.35	12.35
Fixation R	1	3	9518401654	9519058011	656357	1417.62	332.09	27	47	-1	12.90	12.90
Saccade L	1	4	9519058011	9519097745	39734	1411.60	361.77	1304.00	319.50	1.75	130.63	0.50	44.12	3079.49	-2480.20	1846.86
Saccade R	1	4	9519058011	9519097745	39734	1411.60	361.77	1304.00	319.50	1.75	130.63	0.50	44.12	3079.49	-2480.20	1846.86
Fixation L	1	4	9519097745	9519197245	99500	1321.67	275.15	29	70	-1	13.25	13.25
Fixation R	1	4	9519097745	9519197245	99500	1321.67	275.15	29	70	-1	13.05	13.05
Saccade L	1	5	9519197245	9519217129	19884	1333.35	249.47	1335.89	246.00	0.10	8.82	0.00	5.03	202.67	-125.06	119.42
Saccade R	1	5	9519197245	9519217129	19884	1333.35	249.47	1335.89	246.00	0.10	8.82	0.00	5.03	202.67	-125.06	119.42
Fixation L	1	5	9519217129	9519515485	298356	1338.29	217.11	55	41	-1	13.22	13.22
Fixation R	1	5	9519217129	9519515485	298356	1338.29	217.11	55	41	-1	13.06	13.06
Saccade L	1	6	9519515485	9519555232	39747	1290.93	231.39	1261.23	394.58	1.98	131.10	0.50	49.84	3217.27	-2856.08	1839.86
Saccade R	1	6	9519515485	9519555232	39747	1290.93	231.39	1261.23	394.58	1.98	131.10	0.50	49.84	3217.27	-2856.08	1839.86
Fixation L	1	6	9519555232	9519953086	397854	1237.23	439.96	32	62	-1	13.35	13.35
Fixation R	1	6	9519555232	9519953086	397854	1237.23	439.96	32	62	-1	13.10	13.10
Saccade L	1	7	9519953086	9519972965	19879	1229.88	456.98	1231.49	303.06	0.81	155.68	1.00	40.56	3865.29	-3619.24	2522.82
Saccade R	1	7	9519953086	9519972965	19879	1229.88	456.98	1231.49	303.06	0.81	155.68	1.00	40.56	3865.29	-3619.24	2522.82
Fixation L	1	7	9519972965	9520191706	218741	1248.94	313.45	28	31	-1	13.01	13.01
Fixation R	1	7	9519972965	9520191706	218741	1248.94	313.45	28	31	-1	12.97	12.97
Saccade L	1	8	9520191706	9520231572	39866	1260.01	329.47	995.93	340.87	2.30	191.81	0.50	57.69	4695.58	-4524.95	3185.91
Saccade R	1	8	9520191706	9520231572	39866	1260.01	329.47	995.93	340.87	2.30	191.81	0.50	57.69	4695.58	-4524.95	3185.91
Fixation L	1	8	9520231572	9520510058	278486	985.11	345.59	14	21	-1	12.84	12.84
Fixation R	1	8	9520231572	9520510058	278486	985.11	345.59	14	21	-1	12.93	12.93
Saccade L	1	9	9520510058	9520529935	19877	983.12	345.65	914.84	382.50	0.55	78.48	1.00	27.80	1759.62	-1665.31	1225.25
Saccade R	1	9	9520510058	9520529935	19877	983.12	345.65	914.84	382.50	0.55	78.48	1.00	27.80	1759.62	-1665.31	1225.25
Fixation L	1	9	9520529935	9520748679	218744	910.88	405.48	64	34	-1	13.12	13.12
Fixation R	1	9	9520529935	9520748679	218744	910.88	405.48	64	34	-1	13.20	13.20
Saccade L	1	10	9520748679	9520808303	59624	932.27	416.97	574.57	414.00	3.80	194.57	1.00	63.74	4799.91	-4822.84	3549.76
Saccade R	1	10	9520748679	9520808303	59624	932.27	416.97	574.57	414.00	3.80	194.57	1.00	63.74	4799.91	-4822.84	3549.76
Fixation L	1	10	9520808303	9521166412	358109	575.00	410.71	4	17	-1	13.23	13.23
Fixation R	1	10	9520808303	9521166412	358109	575.00	410.71	4	17	-1	13.69	13.69
Saccade L	1	11	9521166412	9521206159	39747	575.98	399.51	936.07	406.39	3.01	251.73	0.50	75.73	6241.26	-6085.15	4438.18
Saccade R	1	11	9521166412	9521206159	39747	575.98	399.51	936.07	406.39	3.01	251.73	0.50	75.73	6241.26	-6085.15	4438.18
Fixation L	1	11	9521206159	9521743130	536971	938.38	414.18	36	42	-1	14.17	14.17
Fixation R	1	11	9521206159	9521743130	536971	938.38	414.18	36	42	-1	14.37	14.37
Saccade L	1	12	9521743130	9521802883	59753	955.13	441.96	1410.97	384.33	5.73	274.85	0.67	95.94	6824.77	-4029.52	3809.53
Saccade R	1	12	9521743130	9521802883	59753	955.13	441.96	1410.97	384.33	5.73	274.85	0.67	95.94	6824.77	-4029.52	3809.53
