[BeGaze]
Converted from:	C:\Documents and Settings\iViewX\Desktop\EXPERIMENTATIONS\Experiments\results\finaleart\S01A22542-finaleart-1.idf
Date:	27.03.2019 15:33:25
Version:	BeGaze 2.5.77
Sample Rate:	50
Subject:	S01A22542
Description:	Thibault Seve Minnaert

Table Header for Fixations:
Event Type	Trial	Number	Start	End	Duration	Location X	Location Y	Dispersion X	Dispersion Y	Plane	Avg. Pupil Size X	Avg. Pupil Size Y

Table Header for Saccades:
Event Type	Trial	Number	Start	End	Duration	Start Loc.X	Start Loc.Y	End Loc.X	End Loc.Y	Amplitude	Peak Speed	Peak Speed At	Average Speed	Peak Accel.	Peak Decel.	Average Accel.

Table Header for Blinks:
Event Type	Trial	Number	Start	End	Duration

Table Header for User Events:
Event Type	Trial	Number	Start	Description

UserEvent	1	1	10039797022	# Message: The_Orchard_Vlaminck_1905.jpg
Fixation L	1	1	10039805231	10040083708	278477	907.66	552.21	13	9	-1	13.80	13.80
Fixation R	1	1	10039805231	10040083708	278477	907.66	552.21	13	9	-1	13.92	13.92
Saccade L	1	1	10040083708	10040103582	19874	900.69	552.57	899.68	466.61	0.46	86.96	1.00	23.34	2128.62	-2110.02	1428.09
Saccade R	1	1	10040083708	10040103582	19874	900.69	552.57	899.68	466.61	0.46	86.96	1.00	23.34	2128.62	-2110.02	1428.09
Fixation L	1	2	10040103582	10040322481	218899	893.46	464.57	11	34	-1	13.65	13.65
Fixation R	1	2	10040103582	10040322481	218899	893.46	464.57	11	34	-1	13.91	13.91
Saccade L	1	2	10040322481	10040342343	19862	897.71	440.17	1113.27	366.82	1.55	230.21	1.00	77.96	5663.76	-5300.04	3785.22
Saccade R	1	2	10040322481	10040342343	19862	897.71	440.17	1113.27	366.82	1.55	230.21	1.00	77.96	5663.76	-5300.04	3785.22
Fixation L	1	3	10040342343	10040521324	178981	1160.98	344.97	55	34	-1	12.55	12.55
Fixation R	1	3	10040342343	10040521324	178981	1160.98	344.97	55	34	-1	12.92	12.92
Saccade L	1	3	10040521324	10040541181	19857	1166.27	336.74	1180.38	271.91	0.40	67.12	1.00	20.10	1525.32	-1485.22	1016.58
Saccade R	1	3	10040521324	10040541181	19857	1166.27	336.74	1180.38	271.91	0.40	67.12	1.00	20.10	1525.32	-1485.22	1016.58
Fixation L	1	4	10040541181	10040760045	218864	1189.87	259.17	23	21	-1	11.52	11.52
Fixation R	1	4	10040541181	10040760045	218864	1189.87	259.17	23	21	-1	11.99	11.99
Saccade L	1	4	10040760045	10040799809	39764	1200.21	252.55	906.04	223.60	2.73	157.15	0.50	68.71	3873.50	-3366.20	3417.42
Saccade R	1	4	10040760045	10040799809	39764	1200.21	252.55	906.04	223.60	2.73	157.15	0.50	68.71	3873.50	-3366.20	3417.42
Fixation L	1	5	10040799809	10040939047	139238	908.39	187.37	40	55	-1	11.47	11.47
Fixation R	1	5	10040799809	10040939047	139238	908.39	187.37	40	55	-1	11.60	11.60
Saccade L	1	5	10040939047	10040978785	39738	937.28	199.63	1360.51	269.71	3.87	294.39	0.50	97.27	7122.60	-7289.53	5116.34
Saccade R	1	5	10040939047	10040978785	39738	937.28	199.63	1360.51	269.71	3.87	294.39	0.50	97.27	7122.60	-7289.53	5116.34
Fixation L	1	6	10040978785	10041277158	298373	1353.70	293.08	20	35	-1	11.99	11.99
Fixation R	1	6	10040978785	10041277158	298373	1353.70	293.08	20	35	-1	12.10	12.10
Saccade L	1	6	10041277158	10041316902	39744	1341.07	303.21	880.84	277.47	4.20	292.06	0.50	105.60	7227.63	-6091.53	5394.64
Saccade R	1	6	10041277158	10041316902	39744	1341.07	303.21	880.84	277.47	4.20	292.06	0.50	105.60	7227.63	-6091.53	5394.64
Fixation L	1	7	10041316902	10041495893	178991	842.01	261.13	61	23	-1	12.68	12.68
Fixation R	1	7	10041316902	10041495893	178991	842.01	261.13	61	23	-1	12.74	12.74
Saccade L	1	7	10041495893	10041515767	19874	819.62	254.99	678.66	252.37	0.82	142.60	1.00	41.22	3511.89	-3468.91	2441.99
Saccade R	1	7	10041495893	10041515767	19874	819.62	254.99	678.66	252.37	0.82	142.60	1.00	41.22	3511.89	-3468.91	2441.99
Fixation L	1	8	10041515767	10041754495	238728	670.30	251.25	14	13	-1	12.72	12.72
Fixation R	1	8	10041515767	10041754495	238728	670.30	251.25	14	13	-1	13.05	13.05
Saccade L	1	8	10041754495	10041794255	39760	675.71	251.53	1118.57	563.54	4.64	302.74	0.50	116.60	7483.49	-7158.41	6592.43
Saccade R	1	8	10041754495	10041794255	39760	675.71	251.53	1118.57	563.54	4.64	302.74	0.50	116.60	7483.49	-7158.41	6592.43
Fixation L	1	9	10041794255	10041973263	179008	1123.98	562.84	12	20	-1	13.41	13.41
Fixation R	1	9	10041794255	10041973263	179008	1123.98	562.84	12	20	-1	13.86	13.86
Saccade L	1	9	10041973263	10042013112	39849	1121.27	563.20	774.42	545.40	2.96	202.40	0.50	74.21	5041.41	-4773.11	4232.29
Saccade R	1	9	10041973263	10042013112	39849	1121.27	563.20	774.42	545.40	2.96	202.40	0.50	74.21	5041.41	-4773.11	4232.29
Fixation L	1	10	10042013112	10042192119	179007	773.60	537.49	15	42	-1	13.19	13.19
Fixation R	1	10	10042013112	10042192119	179007	773.60	537.49	15	42	-1	13.68	13.68
Saccade L	1	10	10042192119	10042251730	59611	764.97	512.32	1333.42	515.61	5.95	338.58	0.67	99.78	8261.07	-8372.92	4708.45
Saccade R	1	10	10042192119	10042251730	59611	764.97	512.32	1333.42	515.61	5.95	338.58	0.67	99.78	8261.07	-8372.92	4708.45
Fixation L	1	11	10042251730	10042510342	258612	1333.49	523.09	14	24	-1	13.04	13.04
Fixation R	1	11	10042251730	10042510342	258612	1333.49	523.09	14	24	-1	13.43	13.43
Saccade L	1	11	10042510342	10042530215	19873	1323.95	536.07	1170.73	525.68	1.09	155.32	1.00	54.90	3791.44	-3616.88	2848.97
Saccade R	1	11	10042510342	10042530215	19873	1323.95	536.07	1170.73	525.68	1.09	155.32	1.00	54.90	3791.44	-3616.88	2848.97
Fixation L	1	12	10042530215	10042868329	338114	1119.14	509.46	65	24	-1	12.99	12.99
Fixation R	1	12	10042530215	10042868329	338114	1119.14	509.46	65	24	-1	12.85	12.85
Saccade L	1	12	10042868329	10042908085	39756	1104.94	509.05	789.16	672.86	3.16	183.48	1.00	79.57	4525.87	-4338.39	4311.25
Saccade R	1	12	10042868329	10042908085	39756	1104.94	509.05	789.16	672.86	3.16	183.48	1.00	79.57	4525.87	-4338.39	4311.25
Fixation L	1	13	10042908085	10043107075	198990	761.08	688.37	41	25	-1	12.64	12.64
Fixation R	1	13	10042908085	10043107075	198990	761.08	688.37	41	25	-1	12.96	12.96
Saccade L	1	13	10043107075	10043146807	39732	747.66	684.87	949.57	616.65	2.18	135.89	0.50	54.81	3374.38	-2309.69	2459.65
Saccade R	1	13	10043107075	10043146807	39732	747.66	684.87	949.57	616.65	2.18	135.89	0.50	54.81	3374.38	-2309.69	2459.65
Fixation L	1	14	10043146807	10043345676	198869	957.73	588.31	17	42	-1	12.78	12.78
Fixation R	1	14	10043146807	10043345676	198869	957.73	588.31	17	42	-1	12.97	12.97
Saccade L	1	14	10043345676	10043385427	39751	945.93	590.27	697.13	673.64	2.44	192.45	0.50	61.40	4709.03	-4411.77	3056.01
Saccade R	1	14	10043345676	10043385427	39751	945.93	590.27	697.13	673.64	2.44	192.45	0.50	61.40	4709.03	-4411.77	3056.01
Fixation L	1	15	10043385427	10043584425	198998	711.36	687.82	19	22	-1	12.39	12.39
Fixation R	1	15	10043385427	10043584425	198998	711.36	687.82	19	22	-1	12.89	12.89
Saccade L	1	15	10043584425	10043624158	39733	711.60	696.41	550.08	832.62	2.50	152.48	0.50	62.85	3754.25	-3034.54	3041.81
Saccade R	1	15	10043584425	10043624158	39733	711.60	696.41	550.08	832.62	2.50	152.48	0.50	62.85	3754.25	-3034.54	3041.81
Fixation L	1	16	10043624158	10043783278	159120	534.80	805.91	21	54	-1	12.44	12.44
Fixation R	1	16	10043624158	10043783278	159120	534.80	805.91	21	54	-1	13.06	13.06
