[BeGaze]
Converted from:	C:\Documents and Settings\iViewX\Desktop\EXPERIMENTATIONS\Experiments\results\finaleart\S01A22542-finaleart-1.idf
Date:	27.03.2019 15:33:21
Version:	BeGaze 2.5.77
Sample Rate:	50
Subject:	S01A22542
Description:	Thibault Seve Minnaert

Table Header for Fixations:
Event Type	Trial	Number	Start	End	Duration	Location X	Location Y	Dispersion X	Dispersion Y	Plane	Avg. Pupil Size X	Avg. Pupil Size Y

Table Header for Saccades:
Event Type	Trial	Number	Start	End	Duration	Start Loc.X	Start Loc.Y	End Loc.X	End Loc.Y	Amplitude	Peak Speed	Peak Speed At	Average Speed	Peak Accel.	Peak Decel.	Average Accel.

Table Header for Blinks:
Event Type	Trial	Number	Start	End	Duration

Table Header for User Events:
Event Type	Trial	Number	Start	Description

UserEvent	1	1	9462918413	# Message: red-mullets_monet_1869.jpg
Fixation L	1	1	9462925071	9463044471	119400	807.23	496.89	72	20	-1	14.41	14.41
Fixation R	1	1	9462925071	9463044471	119400	807.23	496.89	72	20	-1	15.39	15.39
Saccade L	1	1	9463044471	9463064347	19876	856.74	484.41	869.16	483.50	0.38	43.29	1.00	19.24	-96.32	-767.28	378.89
Saccade R	1	1	9463044471	9463064347	19876	856.74	484.41	869.16	483.50	0.38	43.29	1.00	19.24	-96.32	-767.28	378.89
Fixation L	1	2	9463064347	9463680912	616565	868.95	461.82	21	38	-1	14.24	14.24
Fixation R	1	2	9463064347	9463680912	616565	868.95	461.82	21	38	-1	15.24	15.24
Saccade L	1	2	9463680912	9463720643	39731	880.15	445.24	1047.07	235.98	2.34	168.04	0.50	58.87	4118.33	-4003.65	3390.53
Saccade R	1	2	9463680912	9463720643	39731	880.15	445.24	1047.07	235.98	2.34	168.04	0.50	58.87	4118.33	-4003.65	3390.53
Fixation L	1	3	9463720643	9464218005	497362	1062.85	227.18	22	14	-1	12.48	12.48
Fixation R	1	3	9463720643	9464218005	497362	1062.85	227.18	22	14	-1	13.11	13.11
Saccade L	1	3	9464218005	9464257750	39745	1057.83	225.46	849.56	401.92	2.41	154.01	1.00	60.72	3755.38	-3723.55	3493.09
Saccade R	1	3	9464218005	9464257750	39745	1057.83	225.46	849.56	401.92	2.41	154.01	1.00	60.72	3755.38	-3723.55	3493.09
Fixation L	1	4	9464257750	9464476487	218737	856.72	412.90	12	22	-1	13.01	13.01
Fixation R	1	4	9464257750	9464476487	218737	856.72	412.90	12	22	-1	13.43	13.43
Saccade L	1	4	9464476487	9464516362	39875	853.76	424.60	732.25	577.28	2.00	141.11	0.50	50.27	3447.09	-3212.95	2649.69
Saccade R	1	4	9464476487	9464516362	39875	853.76	424.60	732.25	577.28	2.00	141.11	0.50	50.27	3447.09	-3212.95	2649.69
Fixation L	1	5	9464516362	9464754981	238619	734.31	591.24	8	90	-1	13.61	13.61
Fixation R	1	5	9464516362	9464754981	238619	734.31	591.24	8	90	-1	14.54	14.54
Saccade L	1	5	9464754981	9464774857	19876	734.62	515.29	734.86	500.31	0.58	91.47	0.00	29.28	298.54	-2104.36	875.94
Saccade R	1	5	9464754981	9464774857	19876	734.62	515.29	734.86	500.31	0.58	91.47	0.00	29.28	298.54	-2104.36	875.94
Fixation L	1	6	9464774857	9465132965	358108	728.21	499.33	31	66	-1	13.27	13.27
Fixation R	1	6	9464774857	9465132965	358108	728.21	499.33	31	66	-1	14.10	14.10
Saccade L	1	6	9465132965	9465152835	19870	703.11	558.39	696.79	537.59	0.52	65.41	0.00	26.07	425.78	-1337.72	689.33
Saccade R	1	6	9465132965	9465152835	19870	703.11	558.39	696.79	537.59	0.52	65.41	0.00	26.07	425.78	-1337.72	689.33
Fixation L	1	7	9465152835	9465371572	218737	682.83	538.39	22	18	-1	13.36	13.36
Fixation R	1	7	9465152835	9465371572	218737	682.83	538.39	22	18	-1	14.03	14.03
Saccade L	1	7	9465371572	9465411326	39754	675.35	540.56	665.39	716.25	1.79	148.96	0.50	45.08	3651.89	-2627.18	1836.49
Saccade R	1	7	9465371572	9465411326	39754	675.35	540.56	665.39	716.25	1.79	148.96	0.50	45.08	3651.89	-2627.18	1836.49
Fixation L	1	8	9465411326	9465570440	159114	652.01	773.61	22	76	-1	13.52	13.52
Fixation R	1	8	9465411326	9465570440	159114	652.01	773.61	22	76	-1	14.52	14.52
Saccade L	1	8	9465570440	9465590306	19866	643.14	792.96	641.52	796.95	0.09	6.29	1.00	4.56	-48.31	-122.48	80.90
Saccade R	1	8	9465570440	9465590306	19866	643.14	792.96	641.52	796.95	0.09	6.29	1.00	4.56	-48.31	-122.48	80.90
Fixation L	1	9	9465590306	9465888675	298369	628.93	811.88	27	40	-1	13.24	13.24
Fixation R	1	9	9465590306	9465888675	298369	628.93	811.88	27	40	-1	14.48	14.48
Saccade L	1	9	9465888675	9465928545	39870	614.12	835.99	1037.91	662.91	4.02	252.38	0.50	100.76	6240.11	-5644.49	5620.66
Saccade R	1	9	9465888675	9465928545	39870	614.12	835.99	1037.91	662.91	4.02	252.38	0.50	100.76	6240.11	-5644.49	5620.66
Fixation L	1	10	9465928545	9466246775	318230	1064.95	629.84	54	40	-1	13.13	13.13
Fixation R	1	10	9465928545	9466246775	318230	1064.95	629.84	54	40	-1	13.86	13.86
Saccade L	1	10	9466246775	9466286536	39761	1025.92	626.03	850.16	653.28	2.19	138.46	0.50	55.01	3438.60	-2634.86	1823.42
Saccade R	1	10	9466246775	9466286536	39761	1025.92	626.03	850.16	653.28	2.19	138.46	0.50	55.01	3438.60	-2634.86	1823.42
Fixation L	1	11	9466286536	9466445653	159117	831.43	682.11	25	38	-1	13.57	13.57
Fixation R	1	11	9466286536	9466445653	159117	831.43	682.11	25	38	-1	13.99	13.99
Saccade L	1	11	9466445653	9466485400	39747	824.36	686.59	1152.56	687.38	2.78	190.93	1.00	69.96	4634.06	-4339.06	3928.41
Saccade R	1	11	9466445653	9466485400	39747	824.36	686.59	1152.56	687.38	2.78	190.93	1.00	69.96	4634.06	-4339.06	3928.41
Fixation L	1	12	9466485400	9466624637	139237	1166.79	668.87	20	30	-1	14.35	14.35
Fixation R	1	12	9466485400	9466624637	139237	1166.79	668.87	20	30	-1	14.50	14.50
Saccade L	1	12	9466624637	9466644519	19882	1171.66	657.14	1157.64	605.41	0.38	54.22	1.00	19.11	1181.52	-898.95	803.41
Saccade R	1	12	9466624637	9466644519	19882	1171.66	657.14	1157.64	605.41	0.38	54.22	1.00	19.11	1181.52	-898.95	803.41
Fixation L	1	13	9466644519	9466843494	198975	1138.43	600.07	57	31	-1	14.58	14.58
Fixation R	1	13	9466644519	9466843494	198975	1138.43	600.07	57	31	-1	14.51	14.51
Saccade L	1	13	9466843494	9466903117	59623	1100.12	588.02	947.34	549.84	2.40	112.91	0.33	40.26	2744.07	-2448.93	1317.86
Saccade R	1	13	9466843494	9466903117	59623	1100.12	588.02	947.34	549.84	2.40	112.91	0.33	40.26	2744.07	-2448.93	1317.86
