[BeGaze]
Converted from:	C:\Documents and Settings\iViewX\Desktop\EXPERIMENTATIONS\Experiments\results\finaleart\S01A22542-finaleart-1.idf
Date:	27.03.2019 15:33:19
Version:	BeGaze 2.5.77
Sample Rate:	50
Subject:	S01A22542
Description:	Thibault Seve Minnaert

Table Header for Fixations:
Event Type	Trial	Number	Start	End	Duration	Location X	Location Y	Dispersion X	Dispersion Y	Plane	Avg. Pupil Size X	Avg. Pupil Size Y

Table Header for Saccades:
Event Type	Trial	Number	Start	End	Duration	Start Loc.X	Start Loc.Y	End Loc.X	End Loc.Y	Amplitude	Peak Speed	Peak Speed At	Average Speed	Peak Accel.	Peak Decel.	Average Accel.

Table Header for Blinks:
Event Type	Trial	Number	Start	End	Duration

Table Header for User Events:
Event Type	Trial	Number	Start	Description

UserEvent	1	1	9132797534	# Message: void.jpg
Saccade L	1	1	9132800496	9132860248	59752	958.70	660.08	1271.46	824.46	4.61	192.57	1.00	77.15	4736.93	-4599.49	3657.60
Saccade R	1	1	9132800496	9132860248	59752	958.70	660.08	1271.46	824.46	4.61	192.57	1.00	77.15	4736.93	-4599.49	3657.60
Fixation L	1	1	9132860248	9133019597	159349	1281.55	827.53	14	8	-1	12.76	12.76
Fixation R	1	1	9132860248	9133019597	159349	1281.55	827.53	14	8	-1	14.16	14.16
Saccade L	1	2	9133019597	9133059345	39748	1286.37	825.57	1000.39	963.50	2.88	236.64	1.00	72.52	5849.19	-5692.78	3777.19
Saccade R	1	2	9133019597	9133059345	39748	1286.37	825.57	1000.39	963.50	2.88	236.64	1.00	72.52	5849.19	-5692.78	3777.19
Fixation L	1	2	9133059345	9133457568	398223	965.01	969.11	45	26	-1	12.66	12.66
Fixation R	1	2	9133059345	9133457568	398223	965.01	969.11	45	26	-1	14.24	14.24
Blink L	1	1	9133457568	9133656724	199156
Blink R	1	1	9133457568	9133656724	199156
Fixation L	1	3	9133656724	9134094672	437948	916.93	586.15	6	34	-1	13.44	13.44
Fixation R	1	3	9133656724	9134094672	437948	916.93	586.15	6	34	-1	13.46	13.46
Saccade L	1	3	9134094672	9134114548	19876	915.22	608.57	1099.08	586.57	1.01	187.26	1.00	50.76	4624.25	-4457.24	3047.85
Saccade R	1	3	9134094672	9134114548	19876	915.22	608.57	1099.08	586.57	1.01	187.26	1.00	50.76	4624.25	-4457.24	3047.85
Fixation L	1	4	9134114548	9134313655	199107	1101.90	578.60	4	21	-1	13.97	13.97
Fixation R	1	4	9134114548	9134313655	199107	1101.90	578.60	4	21	-1	13.90	13.90
Saccade L	1	4	9134313655	9134333658	20003	1103.97	567.38	934.10	566.71	1.24	171.80	1.00	62.07	4273.53	-4246.00	3431.40
Saccade R	1	4	9134313655	9134333658	20003	1103.97	567.38	934.10	566.71	1.24	171.80	1.00	62.07	4273.53	-4246.00	3431.40
Fixation L	1	5	9134333658	9134572515	238857	867.06	560.26	76	12	-1	13.74	13.74
Fixation R	1	5	9134333658	9134572515	238857	867.06	560.26	76	12	-1	13.83	13.83
