[BeGaze]
Converted from:	C:\Documents and Settings\iViewX\Desktop\EXPERIMENTATIONS\Experiments\results\finaleart\S01A22542-finaleart-1.idf
Date:	27.03.2019 15:33:26
Version:	BeGaze 2.5.77
Sample Rate:	50
Subject:	S01A22542
Description:	Thibault Seve Minnaert

Table Header for Fixations:
Event Type	Trial	Number	Start	End	Duration	Location X	Location Y	Dispersion X	Dispersion Y	Plane	Avg. Pupil Size X	Avg. Pupil Size Y

Table Header for Saccades:
Event Type	Trial	Number	Start	End	Duration	Start Loc.X	Start Loc.Y	End Loc.X	End Loc.Y	Amplitude	Peak Speed	Peak Speed At	Average Speed	Peak Accel.	Peak Decel.	Average Accel.

Table Header for Blinks:
Event Type	Trial	Number	Start	End	Duration

Table Header for User Events:
Event Type	Trial	Number	Start	Description

UserEvent	1	1	10080494316	# Message: void.jpg
Fixation L	1	1	10080505922	10080744651	238729	1529.55	692.82	6	33	-1	11.13	11.13
Fixation R	1	1	10080505922	10080744651	238729	1529.55	692.82	6	33	-1	11.00	11.00
Saccade L	1	1	10080744651	10080804268	59617	1526.51	679.01	939.46	644.20	6.04	253.56	0.33	101.37	6311.89	-5679.60	4735.66
Saccade R	1	1	10080744651	10080804268	59617	1526.51	679.01	939.46	644.20	6.04	253.56	0.33	101.37	6311.89	-5679.60	4735.66
Fixation L	1	2	10080804268	10081023126	218858	934.96	624.62	8	34	-1	10.57	10.57
Fixation R	1	2	10080804268	10081023126	218858	934.96	624.62	8	34	-1	10.48	10.48
Blink L	1	1	10081023126	10081281609	258483
Blink R	1	1	10081023126	10081281609	258483
Fixation L	1	3	10081281609	10081619720	338111	978.23	446.43	21	27	-1	12.71	12.71
Fixation R	1	3	10081281609	10081619720	338111	978.23	446.43	21	27	-1	13.15	13.15
Saccade L	1	2	10081619720	10081659599	39879	981.64	462.22	1145.43	732.70	2.77	210.97	0.50	69.50	5240.93	-5098.43	4089.99
Saccade R	1	2	10081619720	10081659599	39879	981.64	462.22	1145.43	732.70	2.77	210.97	0.50	69.50	5240.93	-5098.43	4089.99
Fixation L	1	4	10081659599	10082256319	596720	1156.44	762.97	27	45	-1	13.23	13.23
Fixation R	1	4	10081659599	10082256319	596720	1156.44	762.97	27	45	-1	13.77	13.77
Saccade L	1	3	10082256319	10082276218	19899	1135.29	765.52	1055.44	622.67	0.99	165.51	1.00	49.99	4111.43	-4077.69	2870.86
Saccade R	1	3	10082256319	10082276218	19899	1135.29	765.52	1055.44	622.67	0.99	165.51	1.00	49.99	4111.43	-4077.69	2870.86
Fixation L	1	5	10082276218	10082475055	198837	1042.27	623.67	19	19	-1	13.12	13.12
Fixation R	1	5	10082276218	10082475055	198837	1042.27	623.67	19	19	-1	13.70	13.70
