[BeGaze]
Converted from:	C:\Documents and Settings\iViewX\Desktop\EXPERIMENTATIONS\Experiments\results\finaleart\S01A22542-finaleart-1.idf
Date:	27.03.2019 15:33:18
Version:	BeGaze 2.5.77
Sample Rate:	50
Subject:	S01A22542
Description:	Thibault Seve Minnaert

Table Header for Fixations:
Event Type	Trial	Number	Start	End	Duration	Location X	Location Y	Dispersion X	Dispersion Y	Plane	Avg. Pupil Size X	Avg. Pupil Size Y

Table Header for Saccades:
Event Type	Trial	Number	Start	End	Duration	Start Loc.X	Start Loc.Y	End Loc.X	End Loc.Y	Amplitude	Peak Speed	Peak Speed At	Average Speed	Peak Accel.	Peak Decel.	Average Accel.

Table Header for Blinks:
Event Type	Trial	Number	Start	End	Duration

Table Header for User Events:
Event Type	Trial	Number	Start	Description

UserEvent	1	1	8929866072	# Message: void.jpg
Fixation L	1	1	8929883214	8930062435	179221	1042.07	174.95	3	1	-1	14.10	14.10
Fixation R	1	1	8929883214	8930062435	179221	1042.07	174.95	3	1	-1	14.43	14.43
Saccade L	1	1	8930062435	8930082313	19878	1043.31	175.27	1046.77	321.97	0.96	148.41	1.00	48.51	3701.44	-3665.11	2813.48
Saccade R	1	1	8930062435	8930082313	19878	1043.31	175.27	1046.77	321.97	0.96	148.41	1.00	48.51	3701.44	-3665.11	2813.48
Fixation L	1	2	8930082313	8930361038	278725	1042.16	364.47	10	54	-1	14.23	14.23
Fixation R	1	2	8930082313	8930361038	278725	1042.16	364.47	10	54	-1	14.71	14.71
Blink L	1	1	8930361038	8930460536	99498
Blink R	1	1	8930361038	8930460536	99498
Fixation L	1	3	8930500421	8930639803	139382	893.85	572.09	14	81	-1	14.88	14.88
Fixation R	1	3	8930500421	8930639803	139382	893.85	572.09	14	81	-1	15.00	15.00
Saccade L	1	2	8930639803	8930659670	19867	890.86	587.55	890.18	594.06	0.09	6.62	1.00	4.42	106.45	-117.12	82.86
Saccade R	1	2	8930639803	8930659670	19867	890.86	587.55	890.18	594.06	0.09	6.62	1.00	4.42	106.45	-117.12	82.86
Fixation L	1	4	8930659670	8930918511	258841	894.17	595.16	15	12	-1	15.14	15.14
Fixation R	1	4	8930659670	8930918511	258841	894.17	595.16	15	12	-1	15.25	15.25
Saccade L	1	3	8930918511	8930938404	19893	902.91	601.03	1028.43	508.96	0.91	157.43	1.00	45.98	3922.49	-3586.35	2644.54
Saccade R	1	3	8930918511	8930938404	19893	902.91	601.03	1028.43	508.96	0.91	157.43	1.00	45.98	3922.49	-3586.35	2644.54
Fixation L	1	5	8930938404	8931217121	278717	1058.05	489.61	34	37	-1	14.68	14.68
Fixation R	1	5	8930938404	8931217121	278717	1058.05	489.61	34	37	-1	14.83	14.83
Saccade L	1	4	8931217121	8931237135	20014	1060.68	471.65	918.52	483.57	0.80	144.29	1.00	39.74	3598.51	-3446.54	2388.06
Saccade R	1	4	8931217121	8931237135	20014	1060.68	471.65	918.52	483.57	0.80	144.29	1.00	39.74	3598.51	-3446.54	2388.06
Fixation L	1	6	8931237135	8931694980	457845	889.39	524.74	37	60	-1	14.69	14.69
Fixation R	1	6	8931237135	8931694980	457845	889.39	524.74	37	60	-1	14.84	14.84
Saccade L	1	5	8931694980	8931714988	20008	882.11	541.81	880.73	553.67	0.35	46.23	1.00	17.26	1105.99	-132.65	440.61
Saccade R	1	5	8931694980	8931714988	20008	882.11	541.81	880.73	553.67	0.35	46.23	1.00	17.26	1105.99	-132.65	440.61
Fixation L	1	7	8931714988	8931854372	139384	879.04	582.46	2	52	-1	14.84	14.84
Fixation R	1	7	8931714988	8931854372	139384	879.04	582.46	2	52	-1	15.23	15.23
