[BeGaze]
Converted from:	C:\Documents and Settings\iViewX\Desktop\EXPERIMENTATIONS\Experiments\results\finaleart\S01A22542-finaleart-1.idf
Date:	27.03.2019 15:33:25
Version:	BeGaze 2.5.77
Sample Rate:	50
Subject:	S01A22542
Description:	Thibault Seve Minnaert

Table Header for Fixations:
Event Type	Trial	Number	Start	End	Duration	Location X	Location Y	Dispersion X	Dispersion Y	Plane	Avg. Pupil Size X	Avg. Pupil Size Y

Table Header for Saccades:
Event Type	Trial	Number	Start	End	Duration	Start Loc.X	Start Loc.Y	End Loc.X	End Loc.Y	Amplitude	Peak Speed	Peak Speed At	Average Speed	Peak Accel.	Peak Decel.	Average Accel.

Table Header for Blinks:
Event Type	Trial	Number	Start	End	Duration

Table Header for User Events:
Event Type	Trial	Number	Start	Description

UserEvent	1	1	10043848589	# Message: void.jpg
Fixation L	1	1	10043862805	10044081643	218838	686.04	804.84	52	29	-1	12.37	12.37
Fixation R	1	1	10043862805	10044081643	218838	686.04	804.84	52	29	-1	13.18	13.18
Saccade L	1	1	10044081643	10044101515	19872	732.26	787.51	777.90	784.12	0.53	53.98	0.00	26.44	1082.88	-1286.70	1148.23
Saccade R	1	1	10044081643	10044101515	19872	732.26	787.51	777.90	784.12	0.53	53.98	0.00	26.44	1082.88	-1286.70	1148.23
Fixation L	1	2	10044101515	10044280504	178989	782.44	781.98	7	10	-1	12.26	12.26
Fixation R	1	2	10044101515	10044280504	178989	782.44	781.98	7	10	-1	12.77	12.77
Blink L	1	1	10044280504	10044539129	258625
Blink R	1	1	10044280504	10044539129	258625
Fixation L	1	3	10044539129	10044777870	238741	981.23	679.43	11	29	-1	13.01	13.01
Fixation R	1	3	10044539129	10044777870	238741	981.23	679.43	11	29	-1	13.68	13.68
Saccade L	1	2	10044777870	10044837486	59616	985.81	690.99	1414.95	1096.13	6.26	261.37	0.33	104.98	6520.72	-5483.02	4760.95
Saccade R	1	2	10044777870	10044837486	59616	985.81	690.99	1414.95	1096.13	6.26	261.37	0.33	104.98	6520.72	-5483.02	4760.95
Fixation L	1	4	10044837486	10044996611	159125	1411.55	1091.33	26	12	-1	13.97	13.97
Fixation R	1	4	10044837486	10044996611	159125	1411.55	1091.33	26	12	-1	14.37	14.37
Saccade L	1	3	10044996611	10045056227	59616	1394.02	1088.29	877.28	590.66	7.75	349.71	0.33	130.03	8698.22	-6271.05	6062.77
Saccade R	1	3	10044996611	10045056227	59616	1394.02	1088.29	877.28	590.66	7.75	349.71	0.33	130.03	8698.22	-6271.05	6062.77
Fixation L	1	5	10045056227	10045473959	417732	871.87	543.92	14	62	-1	13.38	13.38
Fixation R	1	5	10045056227	10045473959	417732	871.87	543.92	14	62	-1	13.75	13.75
Saccade L	1	4	10045473959	10045493819	19860	879.40	531.27	1022.57	521.48	0.78	145.14	1.00	39.31	3587.45	-3553.31	2463.92
Saccade R	1	4	10045473959	10045493819	19860	879.40	531.27	1022.57	521.48	0.78	145.14	1.00	39.31	3587.45	-3553.31	2463.92
Fixation L	1	6	10045493819	10045732564	238745	1027.78	521.69	11	12	-1	13.62	13.62
Fixation R	1	6	10045493819	10045732564	238745	1027.78	521.69	11	12	-1	14.04	14.04
Saccade L	1	5	10045732564	10045831933	99369	1033.59	521.73	879.62	522.10	2.41	116.22	0.20	24.29	2887.04	-2815.81	1273.31
Saccade R	1	5	10045732564	10045831933	99369	1033.59	521.73	879.62	522.10	2.41	116.22	0.20	24.29	2887.04	-2815.81	1273.31
