[BeGaze]
Converted from:	C:\Documents and Settings\iViewX\Desktop\EXPERIMENTATIONS\Experiments\results\finaleart\S01A22542-finaleart-1.idf
Date:	27.03.2019 15:33:20
Version:	BeGaze 2.5.77
Sample Rate:	50
Subject:	S01A22542
Description:	Thibault Seve Minnaert

Table Header for Fixations:
Event Type	Trial	Number	Start	End	Duration	Location X	Location Y	Dispersion X	Dispersion Y	Plane	Avg. Pupil Size X	Avg. Pupil Size Y

Table Header for Saccades:
Event Type	Trial	Number	Start	End	Duration	Start Loc.X	Start Loc.Y	End Loc.X	End Loc.Y	Amplitude	Peak Speed	Peak Speed At	Average Speed	Peak Accel.	Peak Decel.	Average Accel.

Table Header for Blinks:
Event Type	Trial	Number	Start	End	Duration

Table Header for User Events:
Event Type	Trial	Number	Start	Description

UserEvent	1	1	9230377836	# Message: void.jpg
Saccade L	1	1	9230388711	9230448446	59735	758.82	562.88	899.09	767.62	3.34	145.70	1.00	55.92	3540.27	-3514.55	2551.72
Saccade R	1	1	9230388711	9230448446	59735	758.82	562.88	899.09	767.62	3.34	145.70	1.00	55.92	3540.27	-3514.55	2551.72
Fixation L	1	1	9230448446	9231543503	1095057	914.49	794.81	20	43	-1	13.37	13.37
Fixation R	1	1	9230448446	9231543503	1095057	914.49	794.81	20	43	-1	13.74	13.74
Saccade L	1	2	9231543503	9231583376	39873	910.94	798.20	951.01	652.25	1.99	143.56	0.50	49.82	3562.52	-1495.57	1987.52
Saccade R	1	2	9231543503	9231583376	39873	910.94	798.20	951.01	652.25	1.99	143.56	0.50	49.82	3562.52	-1495.57	1987.52
Blink L	1	1	9231583376	9231722741	139365
Blink R	1	1	9231583376	9231722741	139365
Fixation L	1	2	9231722741	9232081098	358357	945.78	514.38	19	27	-1	14.50	14.50
Fixation R	1	2	9231722741	9232081098	358357	945.78	514.38	19	27	-1	14.63	14.63
Saccade L	1	3	9232081098	9232100971	19873	940.90	508.28	936.91	587.15	0.58	79.88	1.00	29.24	1954.06	-1734.55	1413.57
Saccade R	1	3	9232081098	9232100971	19873	940.90	508.28	936.91	587.15	0.58	79.88	1.00	29.24	1954.06	-1734.55	1413.57
Fixation L	1	3	9232100971	9232379719	278748	912.40	591.43	35	34	-1	14.51	14.51
Fixation R	1	3	9232100971	9232379719	278748	912.40	591.43	35	34	-1	14.54	14.54
