[BeGaze]
Converted from:	C:\Documents and Settings\iViewX\Desktop\EXPERIMENTATIONS\Experiments\results\finaleart\S01A22542-finaleart-1.idf
Date:	27.03.2019 15:33:24
Version:	BeGaze 2.5.77
Sample Rate:	50
Subject:	S01A22542
Description:	Thibault Seve Minnaert

Table Header for Fixations:
Event Type	Trial	Number	Start	End	Duration	Location X	Location Y	Dispersion X	Dispersion Y	Plane	Avg. Pupil Size X	Avg. Pupil Size Y

Table Header for Saccades:
Event Type	Trial	Number	Start	End	Duration	Start Loc.X	Start Loc.Y	End Loc.X	End Loc.Y	Amplitude	Peak Speed	Peak Speed At	Average Speed	Peak Accel.	Peak Decel.	Average Accel.

Table Header for Blinks:
Event Type	Trial	Number	Start	End	Duration

Table Header for User Events:
Event Type	Trial	Number	Start	Description

UserEvent	1	1	9789588389	# Message: Odalisque_Matisse.jpg
Saccade L	1	1	9789604575	9789703944	99369	767.75	490.74	917.83	492.53	2.51	150.87	1.00	25.28	3616.58	-3424.35	1092.29
Saccade R	1	1	9789604575	9789703944	99369	767.75	490.74	917.83	492.53	2.51	150.87	1.00	25.28	3616.58	-3424.35	1092.29
Fixation L	1	1	9789703944	9789902926	198982	955.67	494.58	48	5	-1	14.78	14.78
Fixation R	1	1	9789703944	9789902926	198982	955.67	494.58	48	5	-1	14.36	14.36
Saccade L	1	2	9789902926	9789922801	19875	964.14	492.12	838.82	494.04	0.66	126.77	1.00	33.02	3120.46	-3082.13	2087.23
Saccade R	1	2	9789902926	9789922801	19875	964.14	492.12	838.82	494.04	0.66	126.77	1.00	33.02	3120.46	-3082.13	2087.23
Fixation L	1	2	9789922801	9790062055	139254	835.21	495.87	10	6	-1	14.86	14.86
Fixation R	1	2	9789922801	9790062055	139254	835.21	495.87	10	6	-1	14.27	14.27
Saccade L	1	3	9790062055	9790101785	39730	828.55	499.33	566.21	369.73	2.57	196.60	1.00	64.59	4838.88	-4655.02	3619.40
Saccade R	1	3	9790062055	9790101785	39730	828.55	499.33	566.21	369.73	2.57	196.60	1.00	64.59	4838.88	-4655.02	3619.40
Fixation L	1	3	9790101785	9790599024	497239	558.43	397.75	26	37	-1	13.39	13.39
Fixation R	1	3	9790101785	9790599024	497239	558.43	397.75	26	37	-1	12.86	12.86
Saccade L	1	4	9790599024	9790638767	39743	544.75	398.56	706.73	497.00	2.03	131.06	0.50	51.08	3218.56	-2540.77	2443.69
Saccade R	1	4	9790599024	9790638767	39743	544.75	398.56	706.73	497.00	2.03	131.06	0.50	51.08	3218.56	-2540.77	2443.69
Fixation L	1	4	9790638767	9791136122	497355	734.30	528.46	32	45	-1	14.30	14.30
Fixation R	1	4	9790638767	9791136122	497355	734.30	528.46	32	45	-1	14.11	14.11
Saccade L	1	5	9791136122	9791155992	19870	734.73	520.13	653.78	564.16	0.76	93.21	1.00	38.29	2155.53	-1932.96	1785.43
Saccade R	1	5	9791136122	9791155992	19870	734.73	520.13	653.78	564.16	0.76	93.21	1.00	38.29	2155.53	-1932.96	1785.43
Fixation L	1	5	9791155992	9791315110	159118	652.70	611.66	15	58	-1	14.39	14.39
Fixation R	1	5	9791155992	9791315110	159118	652.70	611.66	15	58	-1	14.62	14.62
Saccade L	1	6	9791315110	9791354857	39747	649.18	616.55	983.18	574.62	2.91	230.51	1.00	73.12	5731.67	-4792.03	3874.38
Saccade R	1	6	9791315110	9791354857	39747	649.18	616.55	983.18	574.62	2.91	230.51	1.00	73.12	5731.67	-4792.03	3874.38
Fixation L	1	6	9791354857	9791533848	178991	1014.87	537.92	45	50	-1	14.36	14.36
Fixation R	1	6	9791354857	9791533848	178991	1014.87	537.92	45	50	-1	14.14	14.14
Saccade L	1	7	9791533848	9791553727	19879	1013.09	537.45	1027.30	449.56	0.66	90.06	1.00	33.36	2095.41	-2029.52	1521.51
Saccade R	1	7	9791533848	9791553727	19879	1013.09	537.45	1027.30	449.56	0.66	90.06	1.00	33.36	2095.41	-2029.52	1521.51
Fixation L	1	7	9791553727	9791812329	258602	1037.34	433.71	18	27	-1	14.01	14.01
Fixation R	1	7	9791553727	9791812329	258602	1037.34	433.71	18	27	-1	13.80	13.80
Saccade L	1	8	9791812329	9791852077	39748	1045.00	438.80	846.24	428.59	1.74	124.00	0.50	43.71	3035.39	-2758.59	2324.84
Saccade R	1	8	9791812329	9791852077	39748	1045.00	438.80	846.24	428.59	1.74	124.00	0.50	43.71	3035.39	-2758.59	2324.84
Fixation L	1	8	9791852077	9792170322	318245	825.25	386.75	29	58	-1	13.64	13.64
Fixation R	1	8	9791852077	9792170322	318245	825.25	386.75	29	58	-1	13.27	13.27
Saccade L	1	9	9792170322	9792210080	39758	816.54	372.12	1163.50	504.00	3.36	225.02	1.00	84.43	5609.99	-5410.94	4589.83
Saccade R	1	9	9792170322	9792210080	39758	816.54	372.12	1163.50	504.00	3.36	225.02	1.00	84.43	5609.99	-5410.94	4589.83
Fixation L	1	9	9792210080	9792508417	298337	1190.80	530.61	31	41	-1	14.13	14.13
Fixation R	1	9	9792210080	9792508417	298337	1190.80	530.61	31	41	-1	13.52	13.52
Saccade L	1	10	9792508417	9792528436	20019	1191.91	543.17	1181.49	607.64	0.57	66.07	1.00	28.68	1599.88	-1405.50	1355.80
Saccade R	1	10	9792508417	9792528436	20019	1191.91	543.17	1181.49	607.64	0.57	66.07	1.00	28.68	1599.88	-1405.50	1355.80
Fixation L	1	10	9792528436	9792926155	397719	1150.90	654.32	44	53	-1	14.39	14.39
Fixation R	1	10	9792528436	9792926155	397719	1150.90	654.32	44	53	-1	13.77	13.77
Saccade L	1	11	9792926155	9792946029	19874	1136.82	652.03	1134.64	653.15	0.06	3.64	0.00	2.99	22.29	-3.45	9.70
Saccade R	1	11	9792926155	9792946029	19874	1136.82	652.03	1134.64	653.15	0.06	3.64	0.00	2.99	22.29	-3.45	9.70
Fixation L	1	11	9792946029	9793085272	139243	1130.64	653.14	6	11	-1	14.38	14.38
Fixation R	1	11	9792946029	9793085272	139243	1130.64	653.14	6	11	-1	13.49	13.49
Saccade L	1	12	9793085272	9793125020	39748	1128.51	653.31	875.00	591.75	2.37	171.15	1.00	59.72	4143.17	-3674.58	2943.78
Saccade R	1	12	9793085272	9793125020	39748	1128.51	653.31	875.00	591.75	2.37	171.15	1.00	59.72	4143.17	-3674.58	2943.78
Fixation L	1	12	9793125020	9793403525	278505	854.72	567.29	37	37	-1	14.00	14.00
Fixation R	1	12	9793125020	9793403525	278505	854.72	567.29	37	37	-1	13.69	13.69
Saccade L	1	13	9793403525	9793423385	19860	837.56	567.18	780.03	565.32	0.41	58.23	1.00	20.87	1358.78	-1351.23	932.34
Saccade R	1	13	9793403525	9793423385	19860	837.56	567.18	780.03	565.32	0.41	58.23	1.00	20.87	1358.78	-1351.23	932.34
Fixation L	1	13	9793423385	9793582502	159117	764.69	552.18	20	32	-1	13.85	13.85
Fixation R	1	13	9793423385	9793582502	159117	764.69	552.18	20	32	-1	13.76	13.76
