[BeGaze]
Converted from:	C:\Documents and Settings\iViewX\Desktop\EXPERIMENTATIONS\Experiments\results\finaleart\S01A22542-finaleart-1.idf
Date:	27.03.2019 15:33:22
Version:	BeGaze 2.5.77
Sample Rate:	50
Subject:	S01A22542
Description:	Thibault Seve Minnaert

Table Header for Fixations:
Event Type	Trial	Number	Start	End	Duration	Location X	Location Y	Dispersion X	Dispersion Y	Plane	Avg. Pupil Size X	Avg. Pupil Size Y

Table Header for Saccades:
Event Type	Trial	Number	Start	End	Duration	Start Loc.X	Start Loc.Y	End Loc.X	End Loc.Y	Amplitude	Peak Speed	Peak Speed At	Average Speed	Peak Accel.	Peak Decel.	Average Accel.

Table Header for Blinks:
Event Type	Trial	Number	Start	End	Duration

Table Header for User Events:
Event Type	Trial	Number	Start	Description

UserEvent	1	1	9534050290	# Message: void.jpg
Fixation L	1	1	9534055164	9534194322	139158	1265.08	607.81	9	10	-1	16.01	16.01
Fixation R	1	1	9534055164	9534194322	139158	1265.08	607.81	9	10	-1	15.77	15.77
Saccade L	1	1	9534194322	9534214297	19975	1258.17	604.15	1163.07	587.89	0.83	97.60	1.00	41.68	2391.75	-2109.53	1919.85
Saccade R	1	1	9534194322	9534214297	19975	1258.17	604.15	1163.07	587.89	0.83	97.60	1.00	41.68	2391.75	-2109.53	1919.85
Fixation L	1	2	9534214297	9534313663	99366	1146.35	530.86	22	76	-1	15.67	15.67
Fixation R	1	2	9534214297	9534313663	99366	1146.35	530.86	22	76	-1	15.70	15.70
Saccade L	1	2	9534313663	9534353391	39728	1142.19	510.93	924.67	456.60	2.20	179.05	1.00	55.31	4399.96	-3959.54	2554.27
Saccade R	1	2	9534313663	9534353391	39728	1142.19	510.93	924.67	456.60	2.20	179.05	1.00	55.31	4399.96	-3959.54	2554.27
Fixation L	1	3	9534353391	9534552384	198993	906.15	428.41	28	49	-1	15.82	15.82
Fixation R	1	3	9534353391	9534552384	198993	906.15	428.41	28	49	-1	15.67	15.67
Blink L	1	1	9534552384	9534810890	258506
Blink R	1	1	9534552384	9534810890	258506
Fixation L	1	4	9534810890	9535029747	218857	923.61	471.12	8	9	-1	15.12	15.12
Fixation R	1	4	9534810890	9535029747	218857	923.61	471.12	8	9	-1	15.85	15.85
Saccade L	1	3	9535029747	9535069490	39743	921.78	466.05	1160.92	455.03	2.04	133.14	0.50	51.27	3278.25	-3095.26	2905.87
Saccade R	1	3	9535029747	9535069490	39743	921.78	466.05	1160.92	455.03	2.04	133.14	0.50	51.27	3278.25	-3095.26	2905.87
Fixation L	1	5	9535069490	9535387715	318225	1176.03	438.48	23	29	-1	15.62	15.62
Fixation R	1	5	9535069490	9535387715	318225	1176.03	438.48	23	29	-1	16.44	16.44
Saccade L	1	4	9535387715	9535427474	39759	1178.49	451.72	1174.49	712.22	2.38	163.35	0.50	59.95	4050.24	-3711.25	3053.50
Saccade R	1	4	9535387715	9535427474	39759	1178.49	451.72	1174.49	712.22	2.38	163.35	0.50	59.95	4050.24	-3711.25	3053.50
Fixation L	1	6	9535427474	9535666209	238735	1165.48	705.33	15	18	-1	15.70	15.70
Fixation R	1	6	9535427474	9535666209	238735	1165.48	705.33	15	18	-1	15.85	15.85
Saccade L	1	5	9535666209	9535705960	39751	1159.44	712.88	1310.79	842.14	1.97	116.92	0.50	49.59	2834.52	-2583.30	2615.07
Saccade R	1	5	9535666209	9535705960	39751	1159.44	712.88	1310.79	842.14	1.97	116.92	0.50	49.59	2834.52	-2583.30	2615.07
Fixation L	1	7	9535705960	9535904827	198867	1335.95	844.26	33	9	-1	15.34	15.34
Fixation R	1	7	9535705960	9535904827	198867	1335.95	844.26	33	9	-1	15.55	15.55
Saccade L	1	6	9535904827	9535944696	39869	1324.94	846.28	953.22	680.22	3.63	254.86	0.50	91.06	6319.53	-5789.38	4854.67
Saccade R	1	6	9535904827	9535944696	39869	1324.94	846.28	953.22	680.22	3.63	254.86	0.50	91.06	6319.53	-5789.38	4854.67
Fixation L	1	8	9535944696	9536044077	99381	948.81	650.67	8	58	-1	15.34	15.34
Fixation R	1	8	9535944696	9536044077	99381	948.81	650.67	8	58	-1	15.52	15.52
