[BeGaze]
Converted from:	C:\Documents and Settings\iViewX\Desktop\EXPERIMENTATIONS\Experiments\results\finaleart\S01A22542-finaleart-1.idf
Date:	27.03.2019 15:33:22
Version:	BeGaze 2.5.77
Sample Rate:	50
Subject:	S01A22542
Description:	Thibault Seve Minnaert

Table Header for Fixations:
Event Type	Trial	Number	Start	End	Duration	Location X	Location Y	Dispersion X	Dispersion Y	Plane	Avg. Pupil Size X	Avg. Pupil Size Y

Table Header for Saccades:
Event Type	Trial	Number	Start	End	Duration	Start Loc.X	Start Loc.Y	End Loc.X	End Loc.Y	Amplitude	Peak Speed	Peak Speed At	Average Speed	Peak Accel.	Peak Decel.	Average Accel.

Table Header for Blinks:
Event Type	Trial	Number	Start	End	Duration

Table Header for User Events:
Event Type	Trial	Number	Start	Description

UserEvent	1	1	9542186966	# Message: The_Two_Models_Dufy_1930.jpg
Saccade L	1	1	9542190183	9542289529	99346	1046.39	481.26	903.75	572.59	2.80	111.01	1.00	28.16	2710.35	-2610.65	1185.95
Saccade R	1	1	9542190183	9542289529	99346	1046.39	481.26	903.75	572.59	2.80	111.01	1.00	28.16	2710.35	-2610.65	1185.95
Fixation L	1	1	9542289529	9542587939	298410	909.39	574.29	19	18	-1	14.10	14.10
Fixation R	1	1	9542289529	9542587939	298410	909.39	574.29	19	18	-1	14.20	14.20
Saccade L	1	2	9542587939	9542727129	139190	903.43	561.88	1358.75	483.17	8.71	318.78	0.86	62.56	7584.60	-7787.64	2956.65
Saccade R	1	2	9542587939	9542727129	139190	903.43	561.88	1358.75	483.17	8.71	318.78	0.86	62.56	7584.60	-7787.64	2956.65
Fixation L	1	2	9542727129	9543224358	497229	1357.23	472.77	22	44	-1	12.17	12.17
Fixation R	1	2	9542727129	9543224358	497229	1357.23	472.77	22	44	-1	12.49	12.49
Saccade L	1	3	9543224358	9543244345	19987	1342.10	460.11	1342.54	552.99	0.86	93.95	1.00	43.09	2274.39	-2018.76	1973.47
Saccade R	1	3	9543224358	9543244345	19987	1342.10	460.11	1342.54	552.99	0.86	93.95	1.00	43.09	2274.39	-2018.76	1973.47
Fixation L	1	3	9543244345	9543622199	377854	1342.15	622.23	16	82	-1	11.56	11.56
Fixation R	1	3	9543244345	9543622199	377854	1342.15	622.23	16	82	-1	11.59	11.59
Saccade L	1	4	9543622199	9543642072	19873	1333.63	618.48	1324.53	621.25	0.18	19.54	1.00	8.96	442.27	119.96	282.40
Saccade R	1	4	9543622199	9543642072	19873	1333.63	618.48	1324.53	621.25	0.18	19.54	1.00	8.96	442.27	119.96	282.40
Fixation L	1	4	9543642072	9543840938	198866	1277.34	626.45	65	16	-1	11.65	11.65
Fixation R	1	4	9543642072	9543840938	198866	1277.34	626.45	65	16	-1	11.78	11.78
Saccade L	1	5	9543840938	9543860939	20001	1273.77	635.19	1274.88	654.78	0.23	19.85	1.00	11.48	435.59	-353.72	319.75
Saccade R	1	5	9543840938	9543860939	20001	1273.77	635.19	1274.88	654.78	0.23	19.85	1.00	11.48	435.59	-353.72	319.75
Fixation L	1	5	9543860939	9543960311	99372	1287.34	663.80	21	19	-1	11.95	11.95
Fixation R	1	5	9543860939	9543960311	99372	1287.34	663.80	21	19	-1	11.77	11.77
Saccade L	1	6	9543960311	9543980199	19888	1296.13	673.92	1304.67	763.93	0.80	91.45	1.00	40.22	2033.85	-2010.47	1799.08
Saccade R	1	6	9543960311	9543980199	19888	1296.13	673.92	1304.67	763.93	0.80	91.45	1.00	40.22	2033.85	-2010.47	1799.08
Fixation L	1	6	9543980199	9544258679	278480	1317.40	828.94	20	79	-1	11.91	11.91
Fixation R	1	6	9543980199	9544258679	278480	1317.40	828.94	20	79	-1	11.77	11.77
Saccade L	1	7	9544258679	9544278545	19866	1315.89	839.90	1309.58	844.80	0.11	8.23	0.00	5.30	177.06	-108.43	110.88
Saccade R	1	7	9544258679	9544278545	19866	1315.89	839.90	1309.58	844.80	0.11	8.23	0.00	5.30	177.06	-108.43	110.88
Fixation L	1	7	9544278545	9544437666	159121	1295.26	846.60	28	7	-1	11.83	11.83
Fixation R	1	7	9544278545	9544437666	159121	1295.26	846.60	28	7	-1	11.75	11.75
Saccade L	1	8	9544437666	9544477408	39742	1280.98	850.14	687.06	973.20	5.27	331.57	0.50	132.67	8160.25	-7653.87	7436.94
Saccade R	1	8	9544437666	9544477408	39742	1280.98	850.14	687.06	973.20	5.27	331.57	0.50	132.67	8160.25	-7653.87	7436.94
Fixation L	1	8	9544477408	9544835526	358118	652.56	1004.12	44	43	-1	11.12	11.12
Fixation R	1	8	9544477408	9544835526	358118	652.56	1004.12	44	43	-1	11.65	11.65
Saccade L	1	9	9544835526	9544855390	19864	644.56	991.91	643.50	869.02	0.83	124.30	1.00	41.88	3067.39	-2783.71	2221.62
Saccade R	1	9	9544835526	9544855390	19864	644.56	991.91	643.50	869.02	0.83	124.30	1.00	41.88	3067.39	-2783.71	2221.62
Fixation L	1	9	9544855390	9545133887	278497	642.47	815.98	5	77	-1	10.96	10.96
Fixation R	1	9	9544855390	9545133887	278497	642.47	815.98	5	77	-1	12.04	12.04
Saccade L	1	10	9545133887	9545153755	19868	645.44	796.68	647.54	770.25	0.24	26.82	1.00	11.94	569.87	-446.56	365.40
Saccade R	1	10	9545133887	9545153755	19868	645.44	796.68	647.54	770.25	0.24	26.82	1.00	11.94	569.87	-446.56	365.40
Fixation L	1	10	9545153755	9545292993	139238	655.80	752.24	16	30	-1	10.54	10.54
Fixation R	1	10	9545153755	9545292993	139238	655.80	752.24	16	30	-1	12.15	12.15
Saccade L	1	11	9545292993	9545352615	59622	664.05	750.78	1189.29	516.63	6.18	331.71	0.67	103.63	7991.91	-7899.92	4853.90
Saccade R	1	11	9545292993	9545352615	59622	664.05	750.78	1189.29	516.63	6.18	331.71	0.67	103.63	7991.91	-7899.92	4853.90
Fixation L	1	11	9545352615	9545471990	119375	1205.92	495.81	27	38	-1	11.24	11.24
Fixation R	1	11	9545352615	9545471990	119375	1205.92	495.81	27	38	-1	11.86	11.86
Saccade L	1	12	9545471990	9545491871	19881	1216.87	478.25	1270.89	459.94	0.57	57.70	1.00	28.57	1247.58	-1235.01	1090.26
Saccade R	1	12	9545471990	9545491871	19881	1216.87	478.25	1270.89	459.94	0.57	57.70	1.00	28.57	1247.58	-1235.01	1090.26
Fixation L	1	12	9545491871	9545651005	159134	1314.54	438.84	56	43	-1	11.33	11.33
Fixation R	1	12	9545491871	9545651005	159134	1314.54	438.84	56	43	-1	11.93	11.93
Saccade L	1	13	9545651005	9545690734	39729	1327.25	417.43	1026.85	240.22	3.46	233.24	1.00	86.97	5747.49	-5445.52	4162.56
Saccade R	1	13	9545651005	9545690734	39729	1327.25	417.43	1026.85	240.22	3.46	233.24	1.00	86.97	5747.49	-5445.52	4162.56
Fixation L	1	13	9545690734	9545929473	238739	968.41	223.05	68	23	-1	10.99	10.99
Fixation R	1	13	9545690734	9545929473	238739	968.41	223.05	68	23	-1	11.46	11.46
Saccade L	1	14	9545929473	9545949335	19862	957.88	221.98	953.01	336.34	0.86	115.78	1.00	43.49	2862.15	-2768.62	2301.13
Saccade R	1	14	9545929473	9545949335	19862	957.88	221.98	953.01	336.34	0.86	115.78	1.00	43.49	2862.15	-2768.62	2301.13
Fixation L	1	14	9545949335	9546108463	159128	948.50	380.76	8	54	-1	11.04	11.04
Fixation R	1	14	9545949335	9546108463	159128	948.50	380.76	8	54	-1	11.48	11.48
Saccade L	1	15	9546108463	9546168080	59617	944.40	389.12	1156.81	432.73	2.72	121.57	0.67	45.65	2995.34	-2295.51	1887.76
Saccade R	1	15	9546108463	9546168080	59617	944.40	389.12	1156.81	432.73	2.72	121.57	0.67	45.65	2995.34	-2295.51	1887.76
