[BeGaze]
Converted from:	C:\Documents and Settings\iViewX\Desktop\EXPERIMENTATIONS\Experiments\results\finaleart\S01A22542-finaleart-1.idf
Date:	27.03.2019 15:33:18
Version:	BeGaze 2.5.77
Sample Rate:	50
Subject:	S01A22542
Description:	Thibault Seve Minnaert

Table Header for Fixations:
Event Type	Trial	Number	Start	End	Duration	Location X	Location Y	Dispersion X	Dispersion Y	Plane	Avg. Pupil Size X	Avg. Pupil Size Y

Table Header for Saccades:
Event Type	Trial	Number	Start	End	Duration	Start Loc.X	Start Loc.Y	End Loc.X	End Loc.Y	Amplitude	Peak Speed	Peak Speed At	Average Speed	Peak Accel.	Peak Decel.	Average Accel.

Table Header for Blinks:
Event Type	Trial	Number	Start	End	Duration

Table Header for User Events:
Event Type	Trial	Number	Start	Description

UserEvent	1	1	8925810200	# Message: Kiprensky-two-sitters-1800.jpg
Saccade L	1	1	8925821521	8925941013	119492	1138.12	562.20	893.35	577.36	3.88	157.67	0.83	32.49	3922.62	-3828.30	1531.88
Saccade R	1	1	8925821521	8925941013	119492	1138.12	562.20	893.35	577.36	3.88	157.67	0.83	32.49	3922.62	-3828.30	1531.88
Fixation L	1	1	8925941013	8926239646	298633	903.47	594.73	36	48	-1	15.21	15.21
Fixation R	1	1	8925941013	8926239646	298633	903.47	594.73	36	48	-1	15.42	15.42
Saccade L	1	2	8926239646	8926259501	19855	929.40	562.62	1014.89	382.50	1.37	201.61	1.00	68.81	4971.02	-4531.18	3452.20
Saccade R	1	2	8926239646	8926259501	19855	929.40	562.62	1014.89	382.50	1.37	201.61	1.00	68.81	4971.02	-4531.18	3452.20
Fixation L	1	2	8926259501	8926398879	139378	1016.54	374.90	9	39	-1	14.44	14.44
Fixation R	1	2	8926259501	8926398879	139378	1016.54	374.90	9	39	-1	14.91	14.91
Saccade L	1	3	8926398879	8926438738	39859	1017.31	360.36	624.82	540.92	3.86	254.57	1.00	96.73	6317.50	-5909.02	5171.54
Saccade R	1	3	8926398879	8926438738	39859	1017.31	360.36	624.82	540.92	3.86	254.57	1.00	96.73	6317.50	-5909.02	5171.54
Fixation L	1	3	8926438738	8926817083	378345	569.72	540.77	66	10	-1	12.45	12.45
Fixation R	1	3	8926438738	8926817083	378345	569.72	540.77	66	10	-1	13.59	13.59
Saccade L	1	4	8926817083	8926836958	19875	558.80	535.03	488.36	534.44	0.70	71.25	1.00	35.38	1682.19	-1507.25	1612.14
Saccade R	1	4	8926817083	8926836958	19875	558.80	535.03	488.36	534.44	0.70	71.25	1.00	35.38	1682.19	-1507.25	1612.14
Fixation L	1	4	8926836958	8927075823	238865	417.65	539.88	79	12	-1	12.69	12.69
Fixation R	1	4	8926836958	8927075823	238865	417.65	539.88	79	12	-1	13.73	13.73
Saccade L	1	5	8927075823	8927095826	20003	411.08	545.45	418.89	561.01	0.19	17.62	1.00	9.66	357.97	-167.96	292.01
Saccade R	1	5	8927075823	8927095826	20003	411.08	545.45	418.89	561.01	0.19	17.62	1.00	9.66	357.97	-167.96	292.01
Fixation L	1	5	8927095826	8927255075	159249	444.99	580.06	39	37	-1	12.70	12.70
Fixation R	1	5	8927095826	8927255075	159249	444.99	580.06	39	37	-1	14.23	14.23
Saccade L	1	6	8927255075	8927294817	39742	458.82	585.89	957.72	598.73	4.25	277.70	1.00	106.95	6598.72	-6889.37	6108.38
Saccade R	1	6	8927255075	8927294817	39742	458.82	585.89	957.72	598.73	4.25	277.70	1.00	106.95	6598.72	-6889.37	6108.38
Fixation L	1	6	8927294817	8927573555	278738	955.63	595.85	5	23	-1	13.31	13.31
Fixation R	1	6	8927294817	8927573555	278738	955.63	595.85	5	23	-1	14.53	14.53
Saccade L	1	7	8927573555	8927593551	19996	958.94	581.92	961.20	379.22	1.18	204.99	1.00	59.26	5075.43	-4878.05	3475.44
Saccade R	1	7	8927573555	8927593551	19996	958.94	581.92	961.20	379.22	1.18	204.99	1.00	59.26	5075.43	-4878.05	3475.44
Fixation L	1	7	8927593551	8927812541	218990	985.51	365.32	38	30	-1	13.34	13.34
Fixation R	1	7	8927593551	8927812541	218990	985.51	365.32	38	30	-1	14.34	14.34
Saccade L	1	8	8927812541	8927852412	39871	999.65	359.99	1162.27	576.74	2.59	186.91	0.50	64.94	4548.71	-4057.12	3266.64
Saccade R	1	8	8927812541	8927852412	39871	999.65	359.99	1162.27	576.74	2.59	186.91	0.50	64.94	4548.71	-4057.12	3266.64
Fixation L	1	8	8927852412	8928170905	318493	1185.17	610.40	29	44	-1	13.74	13.74
Fixation R	1	8	8927852412	8928170905	318493	1185.17	610.40	29	44	-1	14.78	14.78
Saccade L	1	9	8928170905	8928190781	19876	1181.19	605.49	1187.72	444.81	0.94	162.65	1.00	47.54	3991.96	-3735.48	2604.71
Saccade R	1	9	8928170905	8928190781	19876	1181.19	605.49	1187.72	444.81	0.94	162.65	1.00	47.54	3991.96	-3735.48	2604.71
Fixation L	1	9	8928190781	8928409884	219103	1202.52	435.54	25	22	-1	14.28	14.28
Fixation R	1	9	8928190781	8928409884	219103	1202.52	435.54	25	22	-1	15.10	15.10
Saccade L	1	10	8928409884	8928429779	19895	1213.19	437.39	1293.83	441.78	0.57	81.69	1.00	28.50	1960.20	-1901.45	1506.86
Saccade R	1	10	8928409884	8928429779	19895	1213.19	437.39	1293.83	441.78	0.57	81.69	1.00	28.50	1960.20	-1901.45	1506.86
Fixation L	1	10	8928429779	8928688634	258855	1332.20	450.39	55	17	-1	14.31	14.31
Fixation R	1	10	8928429779	8928688634	258855	1332.20	450.39	55	17	-1	14.78	14.78
Saccade L	1	11	8928688634	8928728366	39732	1341.61	442.77	1061.99	108.98	3.72	276.68	0.50	93.59	6802.92	-6574.45	5325.74
Saccade R	1	11	8928688634	8928728366	39732	1341.61	442.77	1061.99	108.98	3.72	276.68	0.50	93.59	6802.92	-6574.45	5325.74
Fixation L	1	11	8928728366	8929803576	1075210	1044.27	158.17	28	65	-1	13.91	13.91
Fixation R	1	11	8928728366	8929803576	1075210	1044.27	158.17	28	65	-1	14.48	14.48
