[BeGaze]
Converted from:	C:\Documents and Settings\iViewX\Desktop\EXPERIMENTATIONS\Experiments\results\finaleart\S01A22542-finaleart-1.idf
Date:	27.03.2019 15:33:19
Version:	BeGaze 2.5.77
Sample Rate:	50
Subject:	S01A22542
Description:	Thibault Seve Minnaert

Table Header for Fixations:
Event Type	Trial	Number	Start	End	Duration	Location X	Location Y	Dispersion X	Dispersion Y	Plane	Avg. Pupil Size X	Avg. Pupil Size Y

Table Header for Saccades:
Event Type	Trial	Number	Start	End	Duration	Start Loc.X	Start Loc.Y	End Loc.X	End Loc.Y	Amplitude	Peak Speed	Peak Speed At	Average Speed	Peak Accel.	Peak Decel.	Average Accel.

Table Header for Blinks:
Event Type	Trial	Number	Start	End	Duration

Table Header for User Events:
Event Type	Trial	Number	Start	Description

UserEvent	1	1	9011275999	# Message: metzinger-nature-morte-1905.jpg
Fixation L	1	1	9011285680	9011405269	119589	922.44	490.19	38	13	-1	14.89	14.89
Fixation R	1	1	9011285680	9011405269	119589	922.44	490.19	38	13	-1	14.76	14.76
Saccade L	1	1	9011405269	9011425086	19817	954.28	500.30	1087.25	492.55	0.91	134.73	1.00	45.70	3351.44	-3180.98	2443.14
Saccade R	1	1	9011405269	9011425086	19817	954.28	500.30	1087.25	492.55	0.91	134.73	1.00	45.70	3351.44	-3180.98	2443.14
Fixation L	1	2	9011425086	9011644164	219078	1078.60	507.93	13	30	-1	15.14	15.14
Fixation R	1	2	9011425086	9011644164	219078	1078.60	507.93	13	30	-1	15.00	15.00
Saccade L	1	2	9011644164	9011664023	19859	1076.89	522.87	959.98	549.59	0.76	121.30	1.00	38.36	2860.69	-2975.46	2005.36
Saccade R	1	2	9011644164	9011664023	19859	1076.89	522.87	959.98	549.59	0.76	121.30	1.00	38.36	2860.69	-2975.46	2005.36
Fixation L	1	3	9011664023	9011942765	278742	956.36	564.70	18	23	-1	14.99	14.99
Fixation R	1	3	9011664023	9011942765	278742	956.36	564.70	18	23	-1	14.64	14.64
Saccade L	1	3	9011942765	9011982510	39745	945.79	555.15	1274.69	414.84	3.10	250.46	1.00	78.00	6208.61	-6100.37	4455.89
Saccade R	1	3	9011942765	9011982510	39745	945.79	555.15	1274.69	414.84	3.10	250.46	1.00	78.00	6208.61	-6100.37	4455.89
Fixation L	1	4	9011982510	9012122001	139491	1285.74	396.18	25	43	-1	13.25	13.25
Fixation R	1	4	9011982510	9012122001	139491	1285.74	396.18	25	43	-1	13.17	13.17
Saccade L	1	4	9012122001	9012141885	19884	1300.31	370.86	1300.19	205.67	1.02	167.07	1.00	51.22	4111.35	-3699.41	2785.94
Saccade R	1	4	9012122001	9012141885	19884	1300.31	370.86	1300.19	205.67	1.02	167.07	1.00	51.22	4111.35	-3699.41	2785.94
Fixation L	1	5	9012141885	9012380740	238855	1318.23	184.39	31	30	-1	12.79	12.79
Fixation R	1	5	9012141885	9012380740	238855	1318.23	184.39	31	30	-1	12.64	12.64
Blink L	1	1	9012380740	9012480366	99626
Blink R	1	1	9012380740	9012480366	99626
Fixation L	1	6	9012480366	9012898475	418109	1052.96	277.66	65	33	-1	13.18	13.18
Fixation R	1	6	9012480366	9012898475	418109	1052.96	277.66	65	33	-1	13.40	13.40
Saccade L	1	5	9012898475	9012978088	79613	1011.71	266.09	1256.60	261.80	3.04	130.37	0.75	38.16	3143.05	-3148.99	2015.42
Saccade R	1	5	9012898475	9012978088	79613	1011.71	266.09	1256.60	261.80	3.04	130.37	0.75	38.16	3143.05	-3148.99	2015.42
Fixation L	1	7	9012978088	9013157358	179270	1262.32	275.03	10	29	-1	13.38	13.38
Fixation R	1	7	9012978088	9013157358	179270	1262.32	275.03	10	29	-1	13.47	13.47
Saccade L	1	6	9013157358	9013197075	39717	1261.78	291.40	958.93	588.92	3.53	225.73	0.50	88.89	5610.31	-5522.78	5305.55
Saccade R	1	6	9013157358	9013197075	39717	1261.78	291.40	958.93	588.92	3.53	225.73	0.50	88.89	5610.31	-5522.78	5305.55
Fixation L	1	8	9013197075	9013416067	218992	952.03	577.56	20	30	-1	14.03	14.03
Fixation R	1	8	9013197075	9013416067	218992	952.03	577.56	20	30	-1	14.25	14.25
Saccade L	1	7	9013416067	9013455936	39869	940.40	578.23	909.94	932.63	3.28	242.20	0.50	82.27	5960.74	-5363.71	4106.85
Saccade R	1	7	9013416067	9013455936	39869	940.40	578.23	909.94	932.63	3.28	242.20	0.50	82.27	5960.74	-5363.71	4106.85
Fixation L	1	9	9013455936	9013655050	199114	897.55	918.74	17	27	-1	14.03	14.03
Fixation R	1	9	9013455936	9013655050	199114	897.55	918.74	17	27	-1	14.38	14.38
Saccade L	1	8	9013655050	9013694807	39757	892.88	913.76	971.39	636.62	2.57	242.57	0.50	64.57	6000.94	-5662.33	3438.38
Saccade R	1	8	9013655050	9013694807	39757	892.88	913.76	971.39	636.62	2.57	242.57	0.50	64.57	6000.94	-5662.33	3438.38
Fixation L	1	10	9013694807	9013893924	199117	982.60	614.11	19	31	-1	13.79	13.79
Fixation R	1	10	9013694807	9013893924	199117	982.60	614.11	19	31	-1	14.22	14.22
Saccade L	1	9	9013893924	9013933800	39876	991.14	605.09	1071.97	912.48	2.83	194.08	1.00	70.92	4809.56	-4399.62	3699.78
Saccade R	1	9	9013893924	9013933800	39876	991.14	605.09	1071.97	912.48	2.83	194.08	1.00	70.92	4809.56	-4399.62	3699.78
Fixation L	1	11	9013933800	9014073169	139369	1078.91	952.41	13	54	-1	13.86	13.86
Fixation R	1	11	9013933800	9014073169	139369	1078.91	952.41	13	54	-1	14.02	14.02
Saccade L	1	10	9014073169	9014112908	39739	1076.92	962.38	714.40	970.24	3.36	278.18	1.00	84.63	6863.59	-6511.31	4121.92
Saccade R	1	10	9014073169	9014112908	39739	1076.92	962.38	714.40	970.24	3.36	278.18	1.00	84.63	6863.59	-6511.31	4121.92
Fixation L	1	12	9014112908	9014332041	219133	653.59	987.71	72	26	-1	13.90	13.90
Fixation R	1	12	9014112908	9014332041	219133	653.59	987.71	72	26	-1	14.60	14.60
Saccade L	1	11	9014332041	9014351896	19855	643.01	986.21	638.97	988.47	0.09	7.25	1.00	4.44	120.92	-75.29	75.94
Saccade R	1	11	9014332041	9014351896	19855	643.01	986.21	638.97	988.47	0.09	7.25	1.00	4.44	120.92	-75.29	75.94
Fixation L	1	13	9014351896	9014551023	199127	651.98	981.21	36	10	-1	13.65	13.65
Fixation R	1	13	9014351896	9014551023	199127	651.98	981.21	36	10	-1	14.42	14.42
Saccade L	1	12	9014551023	9014590770	39747	672.99	983.04	661.28	722.84	2.22	149.61	1.00	55.95	3582.05	-3662.02	3172.36
Saccade R	1	12	9014551023	9014590770	39747	672.99	983.04	661.28	722.84	2.22	149.61	1.00	55.95	3582.05	-3662.02	3172.36
Fixation L	1	14	9014590770	9014869493	278723	654.84	720.87	36	59	-1	13.28	13.28
Fixation R	1	14	9014590770	9014869493	278723	654.84	720.87	36	59	-1	14.00	14.00
Saccade L	1	13	9014869493	9014889495	20002	631.50	672.96	624.27	663.17	0.35	34.29	0.00	17.32	233.25	-681.42	332.72
Saccade R	1	13	9014869493	9014889495	20002	631.50	672.96	624.27	663.17	0.35	34.29	0.00	17.32	233.25	-681.42	332.72
Fixation L	1	15	9014889495	9015028859	139364	615.30	625.70	15	76	-1	13.26	13.26
Fixation R	1	15	9014889495	9015028859	139364	615.30	625.70	15	76	-1	14.10	14.10
Saccade L	1	14	9015028859	9015128361	99502	608.61	593.12	603.95	485.68	2.35	103.28	1.00	23.66	2412.43	-2456.23	784.31
Saccade R	1	14	9015028859	9015128361	99502	608.61	593.12	603.95	485.68	2.35	103.28	1.00	23.66	2412.43	-2456.23	784.31
Fixation L	1	16	9015128361	9015267728	139367	599.57	513.83	7	43	-1	13.47	13.47
Fixation R	1	16	9015128361	9015267728	139367	599.57	513.83	7	43	-1	14.35	14.35
