[BeGaze]
Converted from:	C:\Documents and Settings\iViewX\Desktop\EXPERIMENTATIONS\Experiments\results\finaleart\S01A22542-finaleart-1.idf
Date:	27.03.2019 15:33:17
Version:	BeGaze 2.5.77
Sample Rate:	50
Subject:	S01A22542
Description:	Thibault Seve Minnaert

Table Header for Fixations:
Event Type	Trial	Number	Start	End	Duration	Location X	Location Y	Dispersion X	Dispersion Y	Plane	Avg. Pupil Size X	Avg. Pupil Size Y

Table Header for Saccades:
Event Type	Trial	Number	Start	End	Duration	Start Loc.X	Start Loc.Y	End Loc.X	End Loc.Y	Amplitude	Peak Speed	Peak Speed At	Average Speed	Peak Accel.	Peak Decel.	Average Accel.

Table Header for Blinks:
Event Type	Trial	Number	Start	End	Duration

Table Header for User Events:
Event Type	Trial	Number	Start	Description

UserEvent	1	1	8876998116	# Message: the-large-bathers_renoir_1887.jpg
Fixation L	1	1	8877006732	8877126266	119534	898.37	524.20	2	4	-1	14.79	14.79
Fixation R	1	1	8877006732	8877126266	119534	898.37	524.20	2	4	-1	15.24	15.24
Saccade L	1	1	8877126266	8877146095	19829	897.52	525.91	800.15	531.33	0.85	98.65	1.00	42.97	2404.78	-1984.62	1990.65
Saccade R	1	1	8877126266	8877146095	19829	897.52	525.91	800.15	531.33	0.85	98.65	1.00	42.97	2404.78	-1984.62	1990.65
Fixation L	1	2	8877146095	8877265588	119493	749.29	546.21	66	33	-1	15.09	15.09
Fixation R	1	2	8877146095	8877265588	119493	749.29	546.21	66	33	-1	14.94	14.94
Saccade L	1	2	8877265588	8877285462	19874	736.83	564.83	736.49	571.44	0.09	6.90	0.00	4.62	118.39	-99.70	97.16
Saccade R	1	2	8877265588	8877285462	19874	736.83	564.83	736.49	571.44	0.09	6.90	0.00	4.62	118.39	-99.70	97.16
Fixation L	1	3	8877285462	8877444712	159250	740.30	562.67	6	20	-1	15.02	15.02
Fixation R	1	3	8877285462	8877444712	159250	740.30	562.67	6	20	-1	14.81	14.81
Saccade L	1	3	8877444712	8877484600	39888	742.95	554.10	749.69	244.20	2.69	200.14	0.50	67.33	4773.36	-4805.58	3742.25
Saccade R	1	3	8877444712	8877484600	39888	742.95	554.10	749.69	244.20	2.69	200.14	0.50	67.33	4773.36	-4805.58	3742.25
Fixation L	1	4	8877484600	8877743442	258842	766.38	225.05	33	63	-1	13.49	13.49
Fixation R	1	4	8877484600	8877743442	258842	766.38	225.05	33	63	-1	13.46	13.46
Saccade L	1	4	8877743442	8877763333	19891	780.19	186.04	779.63	170.06	0.29	18.07	0.00	14.63	61.86	-243.27	164.24
Saccade R	1	4	8877743442	8877763333	19891	780.19	186.04	779.63	170.06	0.29	18.07	0.00	14.63	61.86	-243.27	164.24
Fixation L	1	5	8877763333	8878081807	318474	785.39	176.37	16	40	-1	12.22	12.22
Fixation R	1	5	8877763333	8878081807	318474	785.39	176.37	16	40	-1	12.04	12.04
Saccade L	1	5	8878081807	8878101791	19984	796.41	207.89	803.81	293.59	0.66	87.02	1.00	32.80	2115.72	-2127.36	1550.15
Saccade R	1	5	8878081807	8878101791	19984	796.41	207.89	803.81	293.59	0.66	87.02	1.00	32.80	2115.72	-2127.36	1550.15
Fixation L	1	6	8878101791	8878221181	119390	819.60	294.23	22	7	-1	12.68	12.68
Fixation R	1	6	8878101791	8878221181	119390	819.60	294.23	22	7	-1	12.76	12.76
Saccade L	1	6	8878221181	8878241167	19986	825.89	299.33	823.92	193.81	0.63	106.75	1.00	31.74	2615.66	-2467.91	1741.00
Saccade R	1	6	8878221181	8878241167	19986	825.89	299.33	823.92	193.81	0.63	106.75	1.00	31.74	2615.66	-2467.91	1741.00
Fixation L	1	7	8878241167	8878340660	99493	824.73	182.96	11	16	-1	12.79	12.79
Fixation R	1	7	8878241167	8878340660	99493	824.73	182.96	11	16	-1	12.86	12.86
Saccade L	1	7	8878340660	8878400403	59743	822.98	178.02	1768.78	361.62	9.88	417.96	0.67	165.40	10282.29	-10357.59	7656.27
Saccade R	1	7	8878340660	8878400403	59743	822.98	178.02	1768.78	361.62	9.88	417.96	0.67	165.40	10282.29	-10357.59	7656.27
Fixation L	1	8	8878400403	8878579651	179248	1748.06	392.79	43	51	-1	13.97	13.97
Fixation R	1	8	8878400403	8878579651	179248	1748.06	392.79	43	51	-1	13.60	13.60
Saccade L	1	8	8878579651	8878599530	19879	1738.02	412.11	1729.19	420.29	0.21	18.19	1.00	10.64	-150.29	-170.72	157.65
Saccade R	1	8	8878579651	8878599530	19879	1738.02	412.11	1729.19	420.29	0.21	18.19	1.00	10.64	-150.29	-170.72	157.65
Fixation L	1	9	8878599530	8878898137	298607	1705.29	450.65	44	54	-1	14.46	14.46
Fixation R	1	9	8878599530	8878898137	298607	1705.29	450.65	44	54	-1	13.74	13.74
Saccade L	1	9	8878898137	8878918125	19988	1691.95	473.88	1689.90	475.88	0.09	6.91	1.00	4.68	64.40	-42.21	44.99
Saccade R	1	9	8878898137	8878918125	19988	1691.95	473.88	1689.90	475.88	0.09	6.91	1.00	4.68	64.40	-42.21	44.99
Fixation L	1	10	8878918125	8879097267	179142	1705.41	460.72	28	27	-1	14.44	14.44
Fixation R	1	10	8878918125	8879097267	179142	1705.41	460.72	28	27	-1	13.73	13.73
Saccade L	1	10	8879097267	8879137129	39862	1718.70	448.04	1429.07	547.49	2.92	157.15	0.50	73.29	3809.67	-3502.42	3470.01
Saccade R	1	10	8879097267	8879137129	39862	1718.70	448.04	1429.07	547.49	2.92	157.15	0.50	73.29	3809.67	-3502.42	3470.01
Fixation L	1	11	8879137129	8879555229	418100	1397.38	565.67	46	48	-1	14.67	14.67
Fixation R	1	11	8879137129	8879555229	418100	1397.38	565.67	46	48	-1	13.63	13.63
Saccade L	1	11	8879555229	8879575102	19873	1414.39	536.40	1416.09	528.15	0.12	8.52	1.00	5.90	81.71	0.47	39.99
Saccade R	1	11	8879555229	8879575102	19873	1414.39	536.40	1416.09	528.15	0.12	8.52	1.00	5.90	81.71	0.47	39.99
Fixation L	1	12	8879575102	8879754350	179248	1421.82	516.85	10	18	-1	14.39	14.39
Fixation R	1	12	8879575102	8879754350	179248	1421.82	516.85	10	18	-1	13.36	13.36
Saccade L	1	12	8879754350	8879814093	59743	1421.69	509.59	389.65	507.29	10.48	418.51	0.33	175.42	10379.18	-9509.63	7899.65
Saccade R	1	12	8879754350	8879814093	59743	1421.69	509.59	389.65	507.29	10.48	418.51	0.33	175.42	10379.18	-9509.63	7899.65
Fixation L	1	13	8879814093	8880431315	617222	426.09	499.11	69	29	-1	13.43	13.43
Fixation R	1	13	8879814093	8880431315	617222	426.09	499.11	69	29	-1	13.31	13.31
Saccade L	1	13	8880431315	8880471062	39747	450.57	505.71	991.48	589.77	4.52	278.19	1.00	113.81	6922.75	-6802.47	6790.05
Saccade R	1	13	8880431315	8880471062	39747	450.57	505.71	991.48	589.77	4.52	278.19	1.00	113.81	6922.75	-6802.47	6790.05
Fixation L	1	14	8880471062	8880948916	477854	1014.02	614.32	52	37	-1	14.11	14.11
Fixation R	1	14	8880471062	8880948916	477854	1014.02	614.32	52	37	-1	14.05	14.05
Saccade L	1	14	8880948916	8880988786	39870	1040.92	627.66	1558.18	895.54	6.03	356.95	1.00	151.30	8884.49	0.00	4940.00
Saccade R	1	14	8880948916	8880988786	39870	1040.92	627.66	1558.18	895.54	6.03	356.95	1.00	151.30	8884.49	0.00	4940.00
