[BeGaze]
Converted from:	C:\Documents and Settings\iViewX\Desktop\EXPERIMENTATIONS\Experiments\results\finaleart\S01A22542-finaleart-1.idf
Date:	27.03.2019 15:33:24
Version:	BeGaze 2.5.77
Sample Rate:	50
Subject:	S01A22542
Description:	Thibault Seve Minnaert

Table Header for Fixations:
Event Type	Trial	Number	Start	End	Duration	Location X	Location Y	Dispersion X	Dispersion Y	Plane	Avg. Pupil Size X	Avg. Pupil Size Y

Table Header for Saccades:
Event Type	Trial	Number	Start	End	Duration	Start Loc.X	Start Loc.Y	End Loc.X	End Loc.Y	Amplitude	Peak Speed	Peak Speed At	Average Speed	Peak Accel.	Peak Decel.	Average Accel.

Table Header for Blinks:
Event Type	Trial	Number	Start	End	Duration

Table Header for User Events:
Event Type	Trial	Number	Start	Description

UserEvent	1	1	9848604340	# Message: void.jpg
Saccade L	1	1	9848620624	9848660509	39885	965.54	813.71	955.50	649.21	1.68	156.36	1.00	42.05	3908.98	-3839.36	1993.19
Saccade R	1	1	9848620624	9848660509	39885	965.54	813.71	955.50	649.21	1.68	156.36	1.00	42.05	3908.98	-3839.36	1993.19
Fixation L	1	1	9848660509	9849197978	537469	946.00	655.36	16	61	-1	15.10	15.10
Fixation R	1	1	9848660509	9849197978	537469	946.00	655.36	16	61	-1	14.64	14.64
Saccade L	1	2	9849197978	9849217979	20001	945.97	603.81	946.17	561.32	0.55	42.98	1.00	27.50	670.11	-836.25	724.37
Saccade R	1	2	9849197978	9849217979	20001	945.97	603.81	946.17	561.32	0.55	42.98	1.00	27.50	670.11	-836.25	724.37
Fixation L	1	2	9849217979	9849516572	298593	937.18	574.37	12	22	-1	14.91	14.91
Fixation R	1	2	9849217979	9849516572	298593	937.18	574.37	12	22	-1	14.23	14.23
Blink L	1	1	9849516572	9849655940	139368
Blink R	1	1	9849516572	9849655940	139368
Fixation L	1	3	9849655940	9850054181	398241	929.86	532.53	17	24	-1	16.07	16.07
Fixation R	1	3	9849655940	9850054181	398241	929.86	532.53	17	24	-1	15.06	15.06
Saccade L	1	3	9850054181	9850074046	19865	934.68	527.95	809.82	529.28	0.71	126.30	1.00	35.76	2978.61	-3025.87	2029.59
Saccade R	1	3	9850054181	9850074046	19865	934.68	527.95	809.82	529.28	0.71	126.30	1.00	35.76	2978.61	-3025.87	2029.59
Fixation L	1	4	9850074046	9850551925	477879	796.90	533.20	19	24	-1	16.08	16.08
Fixation R	1	4	9850074046	9850551925	477879	796.90	533.20	19	24	-1	15.10	15.10
Saccade L	1	4	9850551925	9850591766	39841	790.92	520.27	1002.64	509.22	2.19	132.33	0.50	54.93	3260.86	0.00	1749.63
Saccade R	1	4	9850551925	9850591766	39841	790.92	520.27	1002.64	509.22	2.19	132.33	0.50	54.93	3260.86	0.00	1749.63
