[BeGaze]
Converted from:	C:\Documents and Settings\iViewX\Desktop\EXPERIMENTATIONS\Experiments\results\finaleart\S01A22542-finaleart-1.idf
Date:	27.03.2019 15:33:15
Version:	BeGaze 2.5.77
Sample Rate:	50
Subject:	S01A22542
Description:	Thibault Seve Minnaert

Table Header for Fixations:
Event Type	Trial	Number	Start	End	Duration	Location X	Location Y	Dispersion X	Dispersion Y	Plane	Avg. Pupil Size X	Avg. Pupil Size Y

Table Header for Saccades:
Event Type	Trial	Number	Start	End	Duration	Start Loc.X	Start Loc.Y	End Loc.X	End Loc.Y	Amplitude	Peak Speed	Peak Speed At	Average Speed	Peak Accel.	Peak Decel.	Average Accel.

Table Header for Blinks:
Event Type	Trial	Number	Start	End	Duration

Table Header for User Events:
Event Type	Trial	Number	Start	Description

UserEvent	1	1	8669468027	# Message: void.jpg
Fixation L	1	1	8669486287	8669585661	99374	604.27	337.81	73	6	-1	13.88	13.88
Fixation R	1	1	8669486287	8669585661	99374	604.27	337.81	73	6	-1	14.54	14.54
Saccade L	1	1	8669585661	8669605673	20012	662.03	333.59	755.35	345.72	0.84	95.19	1.00	42.08	2367.52	-2060.46	1989.24
Saccade R	1	1	8669585661	8669605673	20012	662.03	333.59	755.35	345.72	0.84	95.19	1.00	42.08	2367.52	-2060.46	1989.24
Fixation L	1	2	8669605673	8670222142	616469	762.99	359.95	34	32	-1	14.35	14.35
Fixation R	1	2	8669605673	8670222142	616469	762.99	359.95	34	32	-1	14.90	14.90
Saccade L	1	2	8670222142	8670242012	19870	785.96	374.43	889.72	459.92	0.95	135.98	1.00	47.95	3229.70	-3197.37	2173.49
Saccade R	1	2	8670222142	8670242012	19870	785.96	374.43	889.72	459.92	0.95	135.98	1.00	47.95	3229.70	-3197.37	2173.49
Fixation L	1	3	8670242012	8671156828	914816	900.70	500.67	32	65	-1	14.90	14.90
Fixation R	1	3	8670242012	8671156828	914816	900.70	500.67	32	65	-1	14.95	14.95
Saccade L	1	3	8671156828	8671176699	19871	900.10	514.05	1047.90	515.42	0.86	149.49	1.00	43.09	3715.04	-3422.90	2464.47
Saccade R	1	3	8671156828	8671176699	19871	900.10	514.05	1047.90	515.42	0.86	149.49	1.00	43.09	3715.04	-3422.90	2464.47
Fixation L	1	4	8671176699	8671455083	278384	1074.61	505.10	31	16	-1	15.44	15.44
Fixation R	1	4	8671176699	8671455083	278384	1074.61	505.10	31	16	-1	15.50	15.50
