[BeGaze]
Converted from:	C:\Documents and Settings\iViewX\Desktop\EXPERIMENTATIONS\Experiments\results\finaleart\S01A22542-finaleart-1.idf
Date:	27.03.2019 15:33:25
Version:	BeGaze 2.5.77
Sample Rate:	50
Subject:	S01A22542
Description:	Thibault Seve Minnaert

Table Header for Fixations:
Event Type	Trial	Number	Start	End	Duration	Location X	Location Y	Dispersion X	Dispersion Y	Plane	Avg. Pupil Size X	Avg. Pupil Size Y

Table Header for Saccades:
Event Type	Trial	Number	Start	End	Duration	Start Loc.X	Start Loc.Y	End Loc.X	End Loc.Y	Amplitude	Peak Speed	Peak Speed At	Average Speed	Peak Accel.	Peak Decel.	Average Accel.

Table Header for Blinks:
Event Type	Trial	Number	Start	End	Duration

Table Header for User Events:
Event Type	Trial	Number	Start	Description

UserEvent	1	1	10021519651	# Message: still-life-with-bottle-of-wind_cross_1904.jpg
Saccade L	1	1	10021522619	10021542475	19856	1013.71	504.06	875.01	490.82	1.05	140.92	1.00	52.96	449.19	-3197.16	1215.45
Saccade R	1	1	10021522619	10021542475	19856	1013.71	504.06	875.01	490.82	1.05	140.92	1.00	52.96	449.19	-3197.16	1215.45
Fixation L	1	1	10021542475	10021960071	417596	843.41	465.64	38	34	-1	11.11	11.11
Fixation R	1	1	10021542475	10021960071	417596	843.41	465.64	38	34	-1	11.69	11.69
Saccade L	1	2	10021960071	10021980095	20024	839.19	466.39	1037.83	509.74	1.25	205.59	1.00	62.45	5087.10	-4951.46	3614.23
Saccade R	1	2	10021960071	10021980095	20024	839.19	466.39	1037.83	509.74	1.25	205.59	1.00	62.45	5087.10	-4951.46	3614.23
Fixation L	1	2	10021980095	10022139208	159113	1080.70	521.19	54	18	-1	11.05	11.05
Fixation R	1	2	10021980095	10022139208	159113	1080.70	521.19	54	18	-1	11.37	11.37
Saccade L	1	3	10022139208	10022159063	19855	1092.59	527.43	1152.72	337.30	1.29	201.65	1.00	65.17	4941.15	-4615.03	3565.82
Saccade R	1	3	10022139208	10022159063	19855	1092.59	527.43	1152.72	337.30	1.29	201.65	1.00	65.17	4941.15	-4615.03	3565.82
Fixation L	1	3	10022159063	10022338064	179001	1183.67	296.85	40	59	-1	9.71	9.71
Fixation R	1	3	10022159063	10022338064	179001	1183.67	296.85	40	59	-1	10.32	10.32
Saccade L	1	4	10022338064	10022437545	99481	1192.97	288.53	1189.65	293.74	0.92	23.27	1.00	9.26	536.38	-226.90	248.39
Saccade R	1	4	10022338064	10022357932	19868	1192.97	288.53	1193.54	286.29	0.14	11.42	1.00	6.90	188.22	-226.90	200.06
Fixation R	1	4	10022357932	10022556792	198860	1188.32	296.87	13	68	-1	9.17	9.17
Blink L	1	1	10022437545	10022536931	99386
Saccade L	1	5	10022536931	10022596676	59745	1183.31	296.91	1043.43	508.24	3.23	135.60	1.00	54.10	2856.08	-3363.05	2332.94
Saccade R	1	5	10022556792	10022596676	39884	1179.86	317.73	1043.43	508.24	2.24	135.60	1.00	56.08	2856.08	-3363.05	2773.57
Fixation L	1	4	10022596676	10022755785	159109	1041.54	483.07	5	41	-1	11.20	11.20
Fixation R	1	5	10022596676	10022755785	159109	1041.54	483.07	5	41	-1	9.55	9.55
Saccade L	1	6	10022755785	10022775664	19879	1037.53	467.49	943.90	498.25	0.65	99.69	1.00	32.62	2316.81	-2307.34	1685.46
Saccade R	1	6	10022755785	10022775664	19879	1037.53	467.49	943.90	498.25	0.65	99.69	1.00	32.62	2316.81	-2307.34	1685.46
Fixation L	1	5	10022775664	10023173391	397727	921.33	515.25	50	42	-1	12.12	12.12
Fixation R	1	6	10022775664	10023173391	397727	921.33	515.25	50	42	-1	10.66	10.66
Saccade L	1	7	10023173391	10023193273	19882	893.16	540.37	887.17	542.77	0.11	7.41	1.00	5.43	20.32	-140.80	61.13
Saccade R	1	7	10023173391	10023193273	19882	893.16	540.37	887.17	542.77	0.11	7.41	1.00	5.43	20.32	-140.80	61.13
Fixation L	1	6	10023193273	10023352383	159110	883.60	528.99	7	88	-1	12.11	12.11
Fixation R	1	7	10023193273	10023352383	159110	883.60	528.99	7	88	-1	10.97	10.97
Saccade L	1	8	10023352383	10023372388	20005	880.30	467.47	879.92	460.46	0.50	84.69	1.00	24.77	23.61	-1939.67	694.51
Saccade R	1	8	10023352383	10023372388	20005	880.30	467.47	879.92	460.46	0.50	84.69	1.00	24.77	23.61	-1939.67	694.51
Fixation L	1	7	10023372388	10023650745	278357	879.36	454.39	4	92	-1	11.84	11.84
Fixation R	1	8	10023372388	10023650745	278357	879.36	454.39	4	92	-1	10.84	10.84
Saccade L	1	9	10023650745	10023670612	19867	882.77	530.61	884.16	535.36	0.52	53.29	0.00	26.03	49.81	-1195.22	709.54
Saccade R	1	9	10023650745	10023670612	19867	882.77	530.61	884.16	535.36	0.52	53.29	0.00	26.03	49.81	-1195.22	709.54
Fixation L	1	8	10023670612	10024048602	377990	884.57	569.85	40	58	-1	12.41	12.41
Fixation R	1	9	10023670612	10024048602	377990	884.57	569.85	40	58	-1	11.13	11.13
Saccade L	1	10	10024048602	10024068481	19879	862.19	593.81	852.14	597.59	0.12	10.86	1.00	5.96	191.29	-149.53	124.18
Saccade R	1	10	10024048602	10024068481	19879	862.19	593.81	852.14	597.59	0.12	10.86	1.00	5.96	191.29	-149.53	124.18
Fixation L	1	9	10024068481	10024207728	139247	838.24	602.84	22	9	-1	13.08	13.08
Fixation R	1	10	10024068481	10024207728	139247	838.24	602.84	22	9	-1	11.85	11.85
Saccade L	1	11	10024207728	10024267343	59615	831.50	604.34	436.19	1039.30	6.58	277.28	0.67	110.40	6854.29	-6119.62	4789.48
Saccade R	1	11	10024207728	10024267343	59615	831.50	604.34	436.19	1039.30	6.58	277.28	0.67	110.40	6854.29	-6119.62	4789.48
Fixation L	1	10	10024267343	10024406586	139243	414.44	1032.44	32	30	-1	12.83	12.83
Fixation R	1	11	10024267343	10024406586	139243	414.44	1032.44	32	30	-1	12.12	12.12
Saccade L	1	12	10024406586	10024426468	19882	427.11	1011.00	429.84	933.81	0.60	78.14	1.00	30.17	1583.78	-1653.02	1276.82
Saccade R	1	12	10024406586	10024426468	19882	427.11	1011.00	429.84	933.81	0.60	78.14	1.00	30.17	1583.78	-1653.02	1276.82
Fixation L	1	11	10024426468	10024764575	338107	462.87	949.92	72	23	-1	12.62	12.62
Fixation R	1	12	10024426468	10024764575	338107	462.87	949.92	72	23	-1	12.27	12.27
Saccade L	1	13	10024764575	10024824320	59745	502.25	949.94	1348.07	951.35	9.11	429.36	0.33	152.49	10500.00	-9025.91	7511.13
Saccade R	1	13	10024764575	10024824320	59745	502.25	949.94	1348.07	951.35	9.11	429.36	0.33	152.49	10500.00	-9025.91	7511.13
Fixation L	1	12	10024824320	10025281788	457468	1379.67	964.53	51	30	-1	13.65	13.65
Fixation R	1	13	10024824320	10025281788	457468	1379.67	964.53	51	30	-1	12.57	12.57
Saccade L	1	14	10025281788	10025321534	39746	1399.79	968.27	1096.57	851.04	2.96	181.48	1.00	74.46	4337.61	-4465.21	3864.43
Saccade R	1	14	10025281788	10025321534	39746	1399.79	968.27	1096.57	851.04	2.96	181.48	1.00	74.46	4337.61	-4465.21	3864.43
Fixation L	1	13	10025321534	10025500526	178992	1089.47	819.83	10	44	-1	13.70	13.70
Fixation R	1	14	10025321534	10025500526	178992	1089.47	819.83	10	44	-1	12.14	12.14
