[BeGaze]
Converted from:	C:\Documents and Settings\iViewX\Desktop\EXPERIMENTATIONS\Experiments\results\finaleart\S01A22542-finaleart-1.idf
Date:	27.03.2019 15:33:20
Version:	BeGaze 2.5.77
Sample Rate:	50
Subject:	S01A22542
Description:	Thibault Seve Minnaert

Table Header for Fixations:
Event Type	Trial	Number	Start	End	Duration	Location X	Location Y	Dispersion X	Dispersion Y	Plane	Avg. Pupil Size X	Avg. Pupil Size Y

Table Header for Saccades:
Event Type	Trial	Number	Start	End	Duration	Start Loc.X	Start Loc.Y	End Loc.X	End Loc.Y	Amplitude	Peak Speed	Peak Speed At	Average Speed	Peak Accel.	Peak Decel.	Average Accel.

Table Header for Blinks:
Event Type	Trial	Number	Start	End	Duration

Table Header for User Events:
Event Type	Trial	Number	Start	Description

UserEvent	1	1	9224271365	# Message: void.jpg
Fixation L	1	1	9224279486	9224378866	99380	1489.46	400.41	19	35	-1	16.05	16.05
Fixation R	1	1	9224279486	9224378866	99380	1489.46	400.41	19	35	-1	16.97	16.97
Saccade L	1	1	9224378866	9224398767	19901	1487.65	392.54	1647.95	278.06	1.42	199.20	1.00	71.29	3987.62	-4739.48	2955.87
Saccade R	1	1	9224378866	9224398767	19901	1487.65	392.54	1647.95	278.06	1.42	199.20	1.00	71.29	3987.62	-4739.48	2955.87
Fixation L	1	2	9224398767	9224617636	218869	1621.30	301.47	41	37	-1	15.42	15.42
Fixation R	1	2	9224398767	9224617636	218869	1621.30	301.47	41	37	-1	16.44	16.44
Saccade L	1	2	9224617636	9224697077	79441	1610.20	311.82	1593.79	331.41	1.17	33.04	0.25	14.71	9879.79	-213.11	1834.58
Saccade R	1	2	9224617636	9224697077	79441	1610.20	311.82	1593.79	331.41	1.17	33.04	0.25	14.71	9879.79	-213.11	1834.58
Blink L	1	1	9224697077	9224895952	198875
Blink R	1	1	9224697077	9224895952	198875
Fixation L	1	3	9224895952	9225313554	417602	1074.30	448.16	15	44	-1	15.96	15.96
Fixation R	1	3	9224895952	9225313554	417602	1074.30	448.16	15	44	-1	15.61	15.61
Saccade L	1	3	9225313554	9225333429	19875	1072.32	436.95	1020.77	453.46	0.47	54.76	1.00	23.59	1286.84	-963.81	1010.08
Saccade R	1	3	9225313554	9225333429	19875	1072.32	436.95	1020.77	453.46	0.47	54.76	1.00	23.59	1286.84	-963.81	1010.08
Fixation L	1	4	9225333429	9225671530	338101	993.50	496.40	33	63	-1	16.43	16.43
Fixation R	1	4	9225333429	9225671530	338101	993.50	496.40	33	63	-1	16.04	16.04
Saccade L	1	4	9225671530	9225691418	19888	990.70	503.55	911.91	506.81	0.55	79.77	1.00	27.75	1858.09	-1877.25	1251.16
Saccade R	1	4	9225671530	9225691418	19888	990.70	503.55	911.91	506.81	0.55	79.77	1.00	27.75	1858.09	-1877.25	1251.16
Fixation L	1	5	9225691418	9225890274	198856	898.59	498.14	17	15	-1	16.10	16.10
Fixation R	1	5	9225691418	9225890274	198856	898.59	498.14	17	15	-1	15.88	15.88
Saccade L	1	5	9225890274	9225910160	19886	896.75	491.51	1093.94	491.94	1.37	199.41	1.00	68.94	4929.34	-4940.93	3861.62
Saccade R	1	5	9225890274	9225910160	19886	896.75	491.51	1093.94	491.94	1.37	199.41	1.00	68.94	4929.34	-4940.93	3861.62
Fixation L	1	6	9225910160	9226268133	357973	1156.69	488.78	70	12	-1	15.86	15.86
Fixation R	1	6	9225910160	9226268133	357973	1156.69	488.78	70	12	-1	15.91	15.91
