[BeGaze]
Converted from:	C:\Documents and Settings\iViewX\Desktop\EXPERIMENTATIONS\Experiments\results\finaleart\S01A22542-finaleart-1.idf
Date:	27.03.2019 15:33:22
Version:	BeGaze 2.5.77
Sample Rate:	50
Subject:	S01A22542
Description:	Thibault Seve Minnaert

Table Header for Fixations:
Event Type	Trial	Number	Start	End	Duration	Location X	Location Y	Dispersion X	Dispersion Y	Plane	Avg. Pupil Size X	Avg. Pupil Size Y

Table Header for Saccades:
Event Type	Trial	Number	Start	End	Duration	Start Loc.X	Start Loc.Y	End Loc.X	End Loc.Y	Amplitude	Peak Speed	Peak Speed At	Average Speed	Peak Accel.	Peak Decel.	Average Accel.

Table Header for Blinks:
Event Type	Trial	Number	Start	End	Duration

Table Header for User Events:
Event Type	Trial	Number	Start	Description

UserEvent	1	1	9560470478	# Message: dead_hare_ward.jpg
Saccade L	1	1	9560489030	9560588401	99371	940.39	542.15	815.04	602.05	2.44	132.59	1.00	24.56	3235.23	-3211.33	994.10
Saccade R	1	1	9560489030	9560588401	99371	940.39	542.15	815.04	602.05	2.44	132.59	1.00	24.56	3235.23	-3211.33	994.10
Fixation L	1	1	9560588401	9560886791	298390	788.49	599.56	32	25	-1	14.34	14.34
Fixation R	1	1	9560588401	9560886791	298390	788.49	599.56	32	25	-1	14.59	14.59
Saccade L	1	2	9560886791	9560906631	19840	787.43	608.73	971.34	586.12	1.03	187.37	1.00	51.87	4668.09	-4318.76	3088.74
Saccade R	1	2	9560886791	9560906631	19840	787.43	608.73	971.34	586.12	1.03	187.37	1.00	51.87	4668.09	-4318.76	3088.74
Fixation L	1	2	9560906631	9561085620	178989	966.87	586.29	10	17	-1	14.88	14.88
Fixation R	1	2	9560906631	9561085620	178989	966.87	586.29	10	17	-1	15.07	15.07
Saccade L	1	3	9561085620	9561125499	39879	968.60	590.41	1251.28	253.51	3.85	243.43	1.00	96.57	6047.01	-5980.90	5393.87
Saccade R	1	3	9561085620	9561125499	39879	968.60	590.41	1251.28	253.51	3.85	243.43	1.00	96.57	6047.01	-5980.90	5393.87
Fixation L	1	3	9561125499	9561562976	437477	1286.67	233.18	54	41	-1	14.88	14.88
Fixation R	1	3	9561125499	9561562976	437477	1286.67	233.18	54	41	-1	15.09	15.09
Saccade L	1	4	9561562976	9561582965	19989	1305.86	213.10	1305.66	203.07	0.18	15.20	1.00	9.12	328.33	25.83	127.08
Saccade R	1	4	9561562976	9561582965	19989	1305.86	213.10	1305.66	203.07	0.18	15.20	1.00	9.12	328.33	25.83	127.08
Fixation L	1	4	9561582965	9561861340	278375	1310.79	205.18	11	19	-1	15.16	15.16
Fixation R	1	4	9561582965	9561861340	278375	1310.79	205.18	11	19	-1	15.35	15.35
Saccade L	1	5	9561861340	9561921071	59731	1313.27	209.43	1587.48	201.08	3.51	164.02	0.67	58.77	3990.64	-3877.06	2857.40
Saccade R	1	5	9561861340	9561921071	59731	1313.27	209.43	1587.48	201.08	3.51	164.02	0.67	58.77	3990.64	-3877.06	2857.40
Fixation L	1	5	9561921071	9562080195	159124	1560.27	228.84	41	54	-1	15.12	15.12
Fixation R	1	5	9561921071	9562080195	159124	1560.27	228.84	41	54	-1	15.27	15.27
Saccade L	1	6	9562080195	9562179566	99371	1549.61	253.18	853.76	669.44	10.73	333.69	0.80	107.95	8136.52	-7796.44	4066.52
Saccade R	1	6	9562080195	9562179566	99371	1549.61	253.18	853.76	669.44	10.73	333.69	0.80	107.95	8136.52	-7796.44	4066.52
Fixation L	1	6	9562179566	9562477946	298380	829.27	638.61	32	46	-1	15.84	15.84
Fixation R	1	6	9562179566	9562477946	298380	829.27	638.61	32	46	-1	16.08	16.08
Saccade L	1	7	9562477946	9562517793	39847	823.67	630.10	587.26	723.37	2.72	220.33	0.50	68.38	5475.46	-4498.13	3142.51
Saccade R	1	7	9562477946	9562517793	39847	823.67	630.10	587.26	723.37	2.72	220.33	0.50	68.38	5475.46	-4498.13	3142.51
Fixation L	1	7	9562517793	9562716662	198869	554.63	718.95	40	41	-1	15.11	15.11
Fixation R	1	7	9562517793	9562716662	198869	554.63	718.95	40	41	-1	16.39	16.39
Saccade L	1	8	9562716662	9562736550	19888	547.03	726.51	530.10	845.71	0.65	121.78	1.00	32.62	3027.37	-2689.66	1916.07
Saccade R	1	8	9562716662	9562736550	19888	547.03	726.51	530.10	845.71	0.65	121.78	1.00	32.62	3027.37	-2689.66	1916.07
Fixation L	1	8	9562736550	9562915534	178984	506.25	847.72	41	11	-1	14.60	14.60
Fixation R	1	8	9562736550	9562915534	178984	506.25	847.72	41	11	-1	16.72	16.72
Saccade L	1	9	9562915534	9562935399	19865	489.89	842.33	497.19	945.22	0.59	104.34	1.00	29.76	2456.66	-2561.31	1719.77
Saccade R	1	9	9562915534	9562935399	19865	489.89	842.33	497.19	945.22	0.59	104.34	1.00	29.76	2456.66	-2561.31	1719.77
Fixation L	1	9	9562935399	9563353135	417736	514.16	965.55	28	33	-1	14.39	14.39
Fixation R	1	9	9562935399	9563353135	417736	514.16	965.55	28	33	-1	16.74	16.74
Saccade L	1	10	9563353135	9563392890	39755	520.99	978.24	976.74	862.92	4.24	253.12	1.00	106.56	6215.27	-6121.23	5663.47
Saccade R	1	10	9563353135	9563392890	39755	520.99	978.24	976.74	862.92	4.24	253.12	1.00	106.56	6215.27	-6121.23	5663.47
Fixation L	1	10	9563392890	9563571871	178981	1013.25	836.88	46	33	-1	14.82	14.82
Fixation R	1	10	9563392890	9563571871	178981	1013.25	836.88	46	33	-1	16.53	16.53
Saccade L	1	11	9563571871	9563611756	39885	1018.88	833.02	1335.49	826.73	2.85	274.01	1.00	71.46	6822.30	-6496.89	3681.37
Saccade R	1	11	9563571871	9563611756	39885	1018.88	833.02	1335.49	826.73	2.85	274.01	1.00	71.46	6822.30	-6496.89	3681.37
Fixation L	1	11	9563611756	9563830490	218734	1386.25	806.81	64	33	-1	14.81	14.81
Fixation R	1	11	9563611756	9563830490	218734	1386.25	806.81	64	33	-1	15.88	15.88
Saccade L	1	12	9563830490	9563870241	39751	1398.50	793.57	1415.49	759.62	0.62	33.79	1.00	15.59	795.05	-611.86	540.12
Saccade R	1	12	9563830490	9563870241	39751	1398.50	793.57	1415.49	759.62	0.62	33.79	1.00	15.59	795.05	-611.86	540.12
Fixation L	1	12	9563870241	9564248218	377977	1444.24	715.53	42	56	-1	15.13	15.13
Fixation R	1	12	9563870241	9564248218	377977	1444.24	715.53	42	56	-1	15.72	15.72
Saccade L	1	13	9564248218	9564268099	19881	1455.82	714.15	1461.00	710.55	0.09	6.38	1.00	4.72	41.99	-100.74	54.41
Saccade R	1	13	9564248218	9564268099	19881	1455.82	714.15	1461.00	710.55	0.09	6.38	1.00	4.72	41.99	-100.74	54.41
Fixation L	1	13	9564268099	9564466966	198867	1464.87	707.27	10	13	-1	15.59	15.59
Fixation R	1	13	9564268099	9564466966	198867	1464.87	707.27	10	13	-1	15.45	15.45
