[BeGaze]
Converted from:	C:\Documents and Settings\iViewX\Desktop\EXPERIMENTATIONS\Experiments\results\finaleart\S01A22542-finaleart-1.idf
Date:	27.03.2019 15:33:15
Version:	BeGaze 2.5.77
Sample Rate:	50
Subject:	S01A22542
Description:	Thibault Seve Minnaert

Table Header for Fixations:
Event Type	Trial	Number	Start	End	Duration	Location X	Location Y	Dispersion X	Dispersion Y	Plane	Avg. Pupil Size X	Avg. Pupil Size Y

Table Header for Saccades:
Event Type	Trial	Number	Start	End	Duration	Start Loc.X	Start Loc.Y	End Loc.X	End Loc.Y	Amplitude	Peak Speed	Peak Speed At	Average Speed	Peak Accel.	Peak Decel.	Average Accel.

Table Header for Blinks:
Event Type	Trial	Number	Start	End	Duration

Table Header for User Events:
Event Type	Trial	Number	Start	Description

UserEvent	1	1	8653138230	# Message: bacchante_sorolla_1886.jpg
Fixation L	1	1	8653156445	8653534427	377982	1014.66	387.55	7	17	-1	15.75	15.75
Fixation R	1	1	8653156445	8653534427	377982	1014.66	387.55	7	17	-1	15.03	15.03
Saccade L	1	1	8653534427	8653554440	20013	1014.19	391.11	852.51	447.14	1.06	173.05	1.00	53.00	4300.33	-4055.46	3061.05
Saccade R	1	1	8653534427	8653554440	20013	1014.19	391.11	852.51	447.14	1.06	173.05	1.00	53.00	4300.33	-4055.46	3061.05
Fixation L	1	2	8653554440	8653713555	159115	877.53	470.08	33	30	-1	15.50	15.50
Fixation R	1	2	8653554440	8653713555	159115	877.53	470.08	33	30	-1	15.00	15.00
Saccade L	1	2	8653713555	8653753302	39747	881.79	477.79	1322.45	477.75	3.71	237.01	1.00	93.27	5823.31	-5789.23	5405.41
Saccade R	1	2	8653713555	8653753302	39747	881.79	477.79	1322.45	477.75	3.71	237.01	1.00	93.27	5823.31	-5789.23	5405.41
Fixation L	1	3	8653753302	8654012029	258727	1349.05	464.37	36	25	-1	13.59	13.59
Fixation R	1	3	8653753302	8654012029	258727	1349.05	464.37	36	25	-1	13.06	13.06
Saccade L	1	3	8654012029	8654031907	19878	1358.52	457.40	1363.09	403.97	0.34	54.25	1.00	17.32	1318.52	-1044.51	873.97
Saccade R	1	3	8654012029	8654031907	19878	1358.52	457.40	1363.09	403.97	0.34	54.25	1.00	17.32	1318.52	-1044.51	873.97
Fixation L	1	4	8654031907	8654429752	397845	1371.96	420.69	13	31	-1	13.08	13.08
Fixation R	1	4	8654031907	8654429752	397845	1371.96	420.69	13	31	-1	12.29	12.29
Saccade L	1	4	8654429752	8654469502	39750	1373.43	433.48	1112.66	420.04	2.35	144.84	1.00	59.04	3600.45	-3399.30	3058.54
Saccade R	1	4	8654429752	8654469502	39750	1373.43	433.48	1112.66	420.04	2.35	144.84	1.00	59.04	3600.45	-3399.30	3058.54
Fixation L	1	5	8654469502	8654708373	238871	1096.87	373.32	29	64	-1	13.47	13.47
Fixation R	1	5	8654469502	8654708373	238871	1096.87	373.32	29	64	-1	12.73	12.73
Saccade L	1	5	8654708373	8654728321	19948	1083.10	355.17	1067.54	354.80	0.20	15.74	1.00	10.11	136.93	-201.32	132.87
Saccade R	1	5	8654708373	8654728321	19948	1083.10	355.17	1067.54	354.80	0.20	15.74	1.00	10.11	136.93	-201.32	132.87
Fixation L	1	6	8654728321	8654887354	159033	1051.19	344.73	29	17	-1	13.60	13.60
Fixation R	1	6	8654728321	8654887354	159033	1051.19	344.73	29	17	-1	12.89	12.89
Saccade L	1	6	8654887354	8654927110	39756	1039.28	337.00	822.80	588.00	3.02	177.98	0.50	76.07	4285.23	-4065.28	4135.70
Saccade R	1	6	8654887354	8654927110	39756	1039.28	337.00	822.80	588.00	3.02	177.98	0.50	76.07	4285.23	-4065.28	4135.70
Fixation L	1	7	8654927110	8655265342	338232	825.20	596.77	14	45	-1	14.01	14.01
Fixation R	1	7	8654927110	8655265342	338232	825.20	596.77	14	45	-1	13.48	13.48
Saccade L	1	7	8655265342	8655305214	39872	814.33	615.47	474.63	584.86	2.98	244.72	0.50	74.81	6065.68	-5743.37	4099.15
Saccade R	1	7	8655265342	8655305214	39872	814.33	615.47	474.63	584.86	2.98	244.72	0.50	74.81	6065.68	-5743.37	4099.15
Fixation L	1	8	8655305214	8655424579	119365	480.62	592.16	10	14	-1	14.08	14.08
Fixation R	1	8	8655305214	8655424579	119365	480.62	592.16	10	14	-1	13.64	13.64
Saccade L	1	8	8655424579	8655464337	39758	485.33	587.47	893.45	590.72	3.72	301.28	1.00	93.52	7404.28	-7223.71	4740.94
Saccade R	1	8	8655424579	8655464337	39758	485.33	587.47	893.45	590.72	3.72	301.28	1.00	93.52	7404.28	-7223.71	4740.94
Fixation L	1	9	8655464337	8655623447	159110	951.21	598.75	71	20	-1	13.71	13.71
Fixation R	1	9	8655464337	8655623447	159110	951.21	598.75	71	20	-1	13.81	13.81
Saccade L	1	9	8655623447	8655703068	79621	964.52	608.70	416.55	604.73	6.64	269.41	0.75	83.42	6473.74	-6534.48	3687.58
Saccade R	1	9	8655623447	8655703068	79621	964.52	608.70	416.55	604.73	6.64	269.41	0.75	83.42	6473.74	-6534.48	3687.58
Fixation L	1	10	8655703068	8655921928	218860	403.33	595.56	44	54	-1	13.80	13.80
Fixation R	1	10	8655703068	8655921928	218860	403.33	595.56	44	54	-1	13.94	13.94
Saccade L	1	10	8655921928	8655941814	19886	371.92	554.70	365.00	559.72	0.30	46.01	0.00	14.98	177.53	-1057.43	453.99
Saccade R	1	10	8655921928	8655941814	19886	371.92	554.70	365.00	559.72	0.30	46.01	0.00	14.98	177.53	-1057.43	453.99
Fixation L	1	11	8655941814	8656140804	198990	362.49	565.83	22	19	-1	13.68	13.68
Fixation R	1	11	8655941814	8656140804	198990	362.49	565.83	22	19	-1	13.87	13.87
Saccade L	1	11	8656140804	8656160679	19875	359.64	563.06	530.79	654.33	1.27	196.15	1.00	63.87	4796.51	-4652.56	3508.81
Saccade R	1	11	8656140804	8656160679	19875	359.64	563.06	530.79	654.33	1.27	196.15	1.00	63.87	4796.51	-4652.56	3508.81
Fixation L	1	12	8656160679	8656260175	99496	561.66	691.95	39	56	-1	14.45	14.45
Fixation R	1	12	8656160679	8656260175	99496	561.66	691.95	39	56	-1	14.73	14.73
Saccade L	1	12	8656260175	8656280041	19866	570.05	711.04	568.53	715.30	0.10	8.42	0.00	5.03	-21.65	-168.80	83.45
Saccade R	1	12	8656260175	8656280041	19866	570.05	711.04	568.53	715.30	0.10	8.42	0.00	5.03	-21.65	-168.80	83.45
Fixation L	1	13	8656280041	8656399416	119375	573.96	722.20	14	14	-1	14.81	14.81
Fixation R	1	13	8656280041	8656399416	119375	573.96	722.20	14	14	-1	15.53	15.53
Saccade L	1	13	8656399416	8656459170	59754	582.61	730.28	1312.11	449.87	8.25	345.76	0.67	138.14	8483.96	-8330.11	5751.08
Saccade R	1	13	8656399416	8656459170	59754	582.61	730.28	1312.11	449.87	8.25	345.76	0.67	138.14	8483.96	-8330.11	5751.08
Fixation L	1	14	8656459170	8656916759	457589	1342.17	449.33	63	36	-1	14.76	14.76
Fixation R	1	14	8656459170	8656916759	457589	1342.17	449.33	63	36	-1	14.64	14.64
Saccade L	1	14	8656916759	8656936642	19883	1375.92	425.93	1375.39	424.36	0.04	3.14	1.00	1.90	-4.04	-36.77	22.51
Saccade R	1	14	8656916759	8656936642	19883	1375.92	425.93	1375.39	424.36	0.04	3.14	1.00	1.90	-4.04	-36.77	22.51
Fixation L	1	15	8656936642	8657135504	198862	1375.40	424.67	4	7	-1	13.99	13.99
Fixation R	1	15	8656936642	8657135504	198862	1375.40	424.67	4	7	-1	13.38	13.38
