[BeGaze]
Converted from:	C:\Documents and Settings\iViewX\Desktop\EXPERIMENTATIONS\Experiments\results\finaleart\S01A22542-finaleart-1.idf
Date:	27.03.2019 15:33:21
Version:	BeGaze 2.5.77
Sample Rate:	50
Subject:	S01A22542
Description:	Thibault Seve Minnaert

Table Header for Fixations:
Event Type	Trial	Number	Start	End	Duration	Location X	Location Y	Dispersion X	Dispersion Y	Plane	Avg. Pupil Size X	Avg. Pupil Size Y

Table Header for Saccades:
Event Type	Trial	Number	Start	End	Duration	Start Loc.X	Start Loc.Y	End Loc.X	End Loc.Y	Amplitude	Peak Speed	Peak Speed At	Average Speed	Peak Accel.	Peak Decel.	Average Accel.

Table Header for Blinks:
Event Type	Trial	Number	Start	End	Duration

Table Header for User Events:
Event Type	Trial	Number	Start	Description

UserEvent	1	1	9479160834	# Message: void.jpg
Saccade L	1	1	9479175295	9479234912	59617	943.45	516.94	879.52	197.60	4.16	178.39	0.67	69.80	4459.71	-4033.16	2936.77
Saccade R	1	1	9479175295	9479234912	59617	943.45	516.94	879.52	197.60	4.16	178.39	0.67	69.80	4459.71	-4033.16	2936.77
Fixation L	1	1	9479234912	9479592889	357977	851.69	238.76	35	54	-1	12.30	12.30
Fixation R	1	1	9479234912	9479592889	357977	851.69	238.76	35	54	-1	13.07	13.07
Blink L	1	1	9479592889	9479791908	199019
Blink R	1	1	9479592889	9479791908	199019
Fixation L	1	2	9479791908	9480149864	357956	863.39	505.88	22	9	-1	13.70	13.70
Fixation R	1	2	9479791908	9480149864	357956	863.39	505.88	22	9	-1	14.58	14.58
Saccade L	1	2	9480149864	9480189618	39754	868.10	511.08	1055.09	505.69	1.65	101.49	0.50	41.44	2391.77	-2291.53	2236.03
Saccade R	1	2	9480149864	9480189618	39754	868.10	511.08	1055.09	505.69	1.65	101.49	0.50	41.44	2391.77	-2291.53	2236.03
Fixation L	1	3	9480189618	9480507857	318239	1043.72	490.84	16	22	-1	14.35	14.35
Fixation R	1	3	9480189618	9480507857	318239	1043.72	490.84	16	22	-1	15.08	15.08
Saccade L	1	3	9480507857	9480527716	19859	1038.22	485.53	905.02	490.69	0.74	134.82	1.00	37.46	3348.18	-3209.10	2252.22
Saccade R	1	3	9480507857	9480527716	19859	1038.22	485.53	905.02	490.69	0.74	134.82	1.00	37.46	3348.18	-3209.10	2252.22
Fixation L	1	4	9480527716	9481025067	497351	879.86	496.35	74	24	-1	14.38	14.38
Fixation R	1	4	9480527716	9481025067	497351	879.86	496.35	74	24	-1	15.09	15.09
Saccade L	1	4	9481025067	9481044948	19881	942.33	513.90	946.69	505.52	0.42	64.00	1.00	21.10	-17.04	-1361.16	514.14
Saccade R	1	4	9481025067	9481044948	19881	942.33	513.90	946.69	505.52	0.42	64.00	1.00	21.10	-17.04	-1361.16	514.14
Fixation L	1	5	9481044948	9481144319	99371	948.81	515.03	6	19	-1	14.68	14.68
Fixation R	1	5	9481044948	9481144319	99371	948.81	515.03	6	19	-1	15.34	15.34
