[BeGaze]
Converted from:	C:\Documents and Settings\iViewX\Desktop\EXPERIMENTATIONS\Experiments\results\finaleart\S01A22542-finaleart-1.idf
Date:	27.03.2019 15:33:17
Version:	BeGaze 2.5.77
Sample Rate:	50
Subject:	S01A22542
Description:	Thibault Seve Minnaert

Table Header for Fixations:
Event Type	Trial	Number	Start	End	Duration	Location X	Location Y	Dispersion X	Dispersion Y	Plane	Avg. Pupil Size X	Avg. Pupil Size Y

Table Header for Saccades:
Event Type	Trial	Number	Start	End	Duration	Start Loc.X	Start Loc.Y	End Loc.X	End Loc.Y	Amplitude	Peak Speed	Peak Speed At	Average Speed	Peak Accel.	Peak Decel.	Average Accel.

Table Header for Blinks:
Event Type	Trial	Number	Start	End	Duration

Table Header for User Events:
Event Type	Trial	Number	Start	Description

UserEvent	1	1	8911568834	# Message: void.jpg
Saccade L	1	1	8911585698	8911625566	39868	1514.51	668.22	1619.76	559.20	1.94	157.48	1.00	48.67	3937.01	-3840.32	2111.03
Saccade R	1	1	8911585698	8911625566	39868	1514.51	668.22	1619.76	559.20	1.94	157.48	1.00	48.67	3937.01	-3840.32	2111.03
Fixation L	1	1	8911625566	8912003798	378232	1662.59	562.45	53	33	-1	13.42	13.42
Fixation R	1	1	8911625566	8912003798	378232	1662.59	562.45	53	33	-1	13.08	13.08
Blink L	1	1	8912003798	8912242792	238994
Blink R	1	1	8912003798	8912242792	238994
Fixation L	1	2	8912242792	8912899763	656971	920.11	500.42	22	26	-1	14.48	14.48
Fixation R	1	2	8912242792	8912899763	656971	920.11	500.42	22	26	-1	13.90	13.90
Saccade L	1	2	8912899763	8912919749	19986	916.45	512.55	854.71	506.59	0.61	62.75	1.00	30.77	1553.19	-1188.32	1392.81
Saccade R	1	2	8912899763	8912919749	19986	916.45	512.55	854.71	506.59	0.61	62.75	1.00	30.77	1553.19	-1188.32	1392.81
Fixation L	1	3	8912919749	8913198500	278751	806.96	487.72	60	38	-1	14.08	14.08
Fixation R	1	3	8912919749	8913198500	278751	806.96	487.72	60	38	-1	14.20	14.20
Saccade L	1	3	8913198500	8913218358	19858	793.82	476.40	792.43	480.02	0.09	5.74	1.00	4.68	23.31	-52.70	28.01
Saccade R	1	3	8913198500	8913218358	19858	793.82	476.40	792.43	480.02	0.09	5.74	1.00	4.68	23.31	-52.70	28.01
Fixation L	1	4	8913218358	8913556855	338497	793.52	487.38	15	14	-1	14.20	14.20
Fixation R	1	4	8913218358	8913556855	338497	793.52	487.38	15	14	-1	14.15	14.15
