[BeGaze]
Converted from:	C:\Documents and Settings\iViewX\Desktop\EXPERIMENTATIONS\Experiments\results\finaleart\S01A22542-finaleart-1.idf
Date:	27.03.2019 15:33:25
Version:	BeGaze 2.5.77
Sample Rate:	50
Subject:	S01A22542
Description:	Thibault Seve Minnaert

Table Header for Fixations:
Event Type	Trial	Number	Start	End	Duration	Location X	Location Y	Dispersion X	Dispersion Y	Plane	Avg. Pupil Size X	Avg. Pupil Size Y

Table Header for Saccades:
Event Type	Trial	Number	Start	End	Duration	Start Loc.X	Start Loc.Y	End Loc.X	End Loc.Y	Amplitude	Peak Speed	Peak Speed At	Average Speed	Peak Accel.	Peak Decel.	Average Accel.

Table Header for Blinks:
Event Type	Trial	Number	Start	End	Duration

Table Header for User Events:
Event Type	Trial	Number	Start	Description

UserEvent	1	1	9997121763	# Message: flowers-and-fruit-a-melon_fantin-latour_1865.jpg
Fixation L	1	1	9997131398	9997628650	497252	1053.43	489.71	15	35	-1	13.80	13.80
Fixation R	1	1	9997131398	9997628650	497252	1053.43	489.71	15	35	-1	14.03	14.03
Saccade L	1	1	9997628650	9997648494	19844	1056.26	460.20	1057.83	335.67	1.01	125.97	1.00	50.80	3128.10	-2850.73	2062.97
Saccade R	1	1	9997628650	9997648494	19844	1056.26	460.20	1057.83	335.67	1.01	125.97	1.00	50.80	3128.10	-2850.73	2062.97
Fixation L	1	2	9997648494	9997847365	198871	1060.23	308.16	9	41	-1	13.05	13.05
Fixation R	1	2	9997648494	9997847365	198871	1060.23	308.16	9	41	-1	13.14	13.14
Saccade L	1	2	9997847365	9997867223	19858	1066.94	298.79	1278.72	270.12	1.40	216.10	1.00	70.57	5281.21	-5081.40	3847.77
Saccade R	1	2	9997847365	9997867223	19858	1066.94	298.79	1278.72	270.12	1.40	216.10	1.00	70.57	5281.21	-5081.40	3847.77
Fixation L	1	3	9997867223	9998165597	298374	1325.33	237.21	53	39	-1	12.54	12.54
Fixation R	1	3	9997867223	9998165597	298374	1325.33	237.21	53	39	-1	12.72	12.72
Saccade L	1	3	9998165597	9998205471	39874	1331.95	241.19	1008.98	384.98	3.15	215.01	1.00	78.98	5293.74	-5121.22	4298.47
Saccade R	1	3	9998165597	9998205471	39874	1331.95	241.19	1008.98	384.98	3.15	215.01	1.00	78.98	5293.74	-5121.22	4298.47
Fixation L	1	4	9998205471	9998483825	278354	978.20	390.12	37	10	-1	13.69	13.69
Fixation R	1	4	9998205471	9998483825	278354	978.20	390.12	37	10	-1	13.42	13.42
Saccade L	1	4	9998483825	9998503826	20001	975.06	390.47	1002.81	293.28	0.64	102.24	1.00	31.75	2479.20	-2466.57	1777.05
Saccade R	1	4	9998483825	9998503826	20001	975.06	390.47	1002.81	293.28	0.64	102.24	1.00	31.75	2479.20	-2466.57	1777.05
Fixation L	1	5	9998503826	9998722561	218735	1025.40	288.75	28	8	-1	13.66	13.66
Fixation R	1	5	9998503826	9998722561	218735	1025.40	288.75	28	8	-1	13.76	13.76
Saccade L	1	5	9998722561	9998742435	19874	1031.33	287.72	1044.79	218.88	0.62	70.96	1.00	31.23	1725.43	-1170.50	1394.77
Saccade R	1	5	9998722561	9998742435	19874	1031.33	287.72	1044.79	218.88	0.62	70.96	1.00	31.23	1725.43	-1170.50	1394.77
Fixation L	1	6	9998742435	9999001046	258611	1063.21	177.91	26	52	-1	13.79	13.79
Fixation R	1	6	9998742435	9999001046	258611	1063.21	177.91	26	52	-1	13.95	13.95
Saccade L	1	6	9999001046	9999060668	59622	1071.52	175.79	993.94	724.85	5.95	258.50	0.67	99.81	6324.29	-5885.11	4570.55
Saccade R	1	6	9999001046	9999060668	59622	1071.52	175.79	993.94	724.85	5.95	258.50	0.67	99.81	6324.29	-5885.11	4570.55
Fixation L	1	7	9999060668	9999299408	238740	992.59	752.47	10	37	-1	14.39	14.39
Fixation R	1	7	9999060668	9999299408	238740	992.59	752.47	10	37	-1	14.46	14.46
Saccade L	1	7	9999299408	9999339160	39752	989.37	735.97	550.41	578.37	4.05	268.29	0.50	101.81	6669.60	-6521.73	5690.38
Saccade R	1	7	9999299408	9999339160	39752	989.37	735.97	550.41	578.37	4.05	268.29	0.50	101.81	6669.60	-6521.73	5690.38
Fixation L	1	8	9999339160	9999736894	397734	528.03	579.88	29	10	-1	13.51	13.51
Fixation R	1	8	9999339160	9999736894	397734	528.03	579.88	29	10	-1	14.24	14.24
Saccade L	1	8	9999736894	9999776760	39866	521.17	582.36	685.29	743.88	2.10	160.00	1.00	52.66	3975.36	-3977.33	3006.32
Saccade R	1	8	9999736894	9999776760	39866	521.17	582.36	685.29	743.88	2.10	160.00	1.00	52.66	3975.36	-3977.33	3006.32
Fixation L	1	9	9999776760	9999935872	159112	684.56	743.54	10	15	-1	13.03	13.03
Fixation R	1	9	9999776760	9999935872	159112	684.56	743.54	10	15	-1	14.17	14.17
Saccade L	1	9	9999935872	9999995508	59636	689.05	750.20	1354.19	867.81	7.11	337.14	0.67	119.28	8337.08	-7982.64	5576.98
Saccade R	1	9	9999935872	9999995508	59636	689.05	750.20	1354.19	867.81	7.11	337.14	0.67	119.28	8337.08	-7982.64	5576.98
Fixation L	1	10	9999995508	10000572345	576837	1361.31	872.16	75	21	-1	14.16	14.16
Fixation R	1	10	9999995508	10000572345	576837	1361.31	872.16	75	21	-1	14.10	14.10
Saccade L	1	10	10000572345	10000612099	39754	1306.81	860.76	1105.06	838.13	1.84	200.72	1.00	46.41	4943.15	-4463.59	2465.28
Saccade R	1	10	10000572345	10000612099	39754	1306.81	860.76	1105.06	838.13	1.84	200.72	1.00	46.41	4943.15	-4463.59	2465.28
Fixation L	1	11	10000612099	10000870719	258620	1063.93	813.58	52	47	-1	14.88	14.88
Fixation R	1	11	10000612099	10000870719	258620	1063.93	813.58	52	47	-1	14.77	14.77
Saccade L	1	11	10000870719	10001109326	238607	1052.98	790.58	1417.84	812.92	10.31	173.63	0.92	43.22	4212.19	-2888.88	1401.34
Saccade R	1	11	10000870719	10001109326	238607	1052.98	790.58	1417.84	812.92	10.31	173.63	0.92	43.22	4212.19	-2888.88	1401.34
