[BeGaze]
Converted from:	C:\Documents and Settings\iViewX\Desktop\EXPERIMENTATIONS\Experiments\results\finaleart\S01A22542-finaleart-1.idf
Date:	27.03.2019 15:33:18
Version:	BeGaze 2.5.77
Sample Rate:	50
Subject:	S01A22542
Description:	Thibault Seve Minnaert

Table Header for Fixations:
Event Type	Trial	Number	Start	End	Duration	Location X	Location Y	Dispersion X	Dispersion Y	Plane	Avg. Pupil Size X	Avg. Pupil Size Y

Table Header for Saccades:
Event Type	Trial	Number	Start	End	Duration	Start Loc.X	Start Loc.Y	End Loc.X	End Loc.Y	Amplitude	Peak Speed	Peak Speed At	Average Speed	Peak Accel.	Peak Decel.	Average Accel.

Table Header for Blinks:
Event Type	Trial	Number	Start	End	Duration

Table Header for User Events:
Event Type	Trial	Number	Start	Description

UserEvent	1	1	8944106864	# Message: courbet-woman-with-a-parrot-1866.jpg
Fixation L	1	1	8944119017	8944258424	139407	926.50	486.36	3	10	-1	14.13	14.13
Fixation R	1	1	8944119017	8944258424	139407	926.50	486.36	3	10	-1	14.28	14.28
Saccade L	1	1	8944258424	8944278444	20020	926.03	486.84	915.98	580.44	0.66	95.22	1.00	33.08	2256.80	-2209.14	1668.40
Saccade R	1	1	8944258424	8944278444	20020	926.03	486.84	915.98	580.44	0.66	95.22	1.00	33.08	2256.80	-2209.14	1668.40
Fixation L	1	2	8944278444	8944596933	318489	882.78	599.63	41	36	-1	14.58	14.58
Fixation R	1	2	8944278444	8944596933	318489	882.78	599.63	41	36	-1	14.48	14.48
Saccade L	1	2	8944596933	8944636621	39688	874.36	616.90	562.05	618.07	2.81	203.47	1.00	70.88	5032.75	-4836.92	3645.08
Saccade R	1	2	8944596933	8944636621	39688	874.36	616.90	562.05	618.07	2.81	203.47	1.00	70.88	5032.75	-4836.92	3645.08
Fixation L	1	3	8944636621	8944795976	159355	560.83	645.58	7	47	-1	14.18	14.18
Fixation R	1	3	8944636621	8944795976	159355	560.83	645.58	7	47	-1	14.50	14.50
Saccade L	1	3	8944795976	8944815850	19874	557.51	638.88	460.72	654.39	0.78	99.15	1.00	39.40	1750.25	-2457.10	1595.79
Saccade R	1	3	8944795976	8944815850	19874	557.51	638.88	460.72	654.39	0.78	99.15	1.00	39.40	1750.25	-2457.10	1595.79
Fixation L	1	4	8944815850	8945253839	437989	412.69	655.92	73	25	-1	13.51	13.51
Fixation R	1	4	8944815850	8945253839	437989	412.69	655.92	73	25	-1	13.79	13.79
Saccade L	1	4	8945253839	8945353457	99618	387.58	672.05	526.61	369.44	4.67	222.20	0.80	46.92	5297.83	-5227.98	2265.05
Saccade R	1	4	8945253839	8945353457	99618	387.58	672.05	526.61	369.44	4.67	222.20	0.80	46.92	5297.83	-5227.98	2265.05
Fixation L	1	5	8945353457	8945552566	199109	532.11	374.83	24	60	-1	14.02	14.02
Fixation R	1	5	8945353457	8945552566	199109	532.11	374.83	24	60	-1	14.46	14.46
Saccade L	1	5	8945552566	8945572436	19870	545.43	328.04	567.95	321.70	0.44	46.27	0.00	21.93	508.60	-795.24	477.86
Saccade R	1	5	8945552566	8945572436	19870	545.43	328.04	567.95	321.70	0.44	46.27	0.00	21.93	508.60	-795.24	477.86
Fixation L	1	6	8945572436	8945691939	119503	581.04	316.17	23	39	-1	14.07	14.07
Fixation R	1	6	8945572436	8945691939	119503	581.04	316.17	23	39	-1	14.42	14.42
Saccade L	1	6	8945691939	8945731685	39746	591.20	336.65	361.66	712.34	4.40	278.35	1.00	110.61	6006.19	-5733.18	5009.48
Saccade R	1	6	8945691939	8945731685	39746	591.20	336.65	361.66	712.34	4.40	278.35	1.00	110.61	6006.19	-5733.18	5009.48
Fixation L	1	7	8945731685	8945990545	258860	379.17	742.46	39	56	-1	14.40	14.40
Fixation R	1	7	8945731685	8945990545	258860	379.17	742.46	39	56	-1	15.12	15.12
Saccade L	1	7	8945990545	8946010435	19890	380.32	714.82	382.36	700.90	0.13	14.23	1.00	6.46	250.40	-298.46	205.07
Saccade R	1	7	8945990545	8946010435	19890	380.32	714.82	382.36	700.90	0.13	14.23	1.00	6.46	250.40	-298.46	205.07
Fixation L	1	8	8946010435	8946348904	338469	405.03	708.32	47	37	-1	14.22	14.22
Fixation R	1	8	8946010435	8946348904	338469	405.03	708.32	47	37	-1	15.45	15.45
Saccade L	1	8	8946348904	8946408645	59741	430.27	728.36	567.86	293.90	4.95	254.34	0.67	82.79	6190.00	-5890.58	3743.48
Saccade R	1	8	8946348904	8946408645	59741	430.27	728.36	567.86	293.90	4.95	254.34	0.67	82.79	6190.00	-5890.58	3743.48
Fixation L	1	9	8946408645	8946806883	398238	581.52	263.26	35	36	-1	13.74	13.74
Fixation R	1	9	8946408645	8946806883	398238	581.52	263.26	35	36	-1	14.68	14.68
Saccade L	1	9	8946806883	8946826756	19873	598.37	264.87	614.81	231.85	0.28	37.32	1.00	13.90	843.55	-729.39	621.02
Saccade R	1	9	8946806883	8946826756	19873	598.37	264.87	614.81	231.85	0.28	37.32	1.00	13.90	843.55	-729.39	621.02
Fixation L	1	10	8946826756	8947085625	258869	628.72	229.48	23	27	-1	14.26	14.26
Fixation R	1	10	8946826756	8947085625	258869	628.72	229.48	23	27	-1	14.92	14.92
Saccade L	1	10	8947085625	8947125363	39738	634.76	227.29	705.21	572.45	3.02	207.54	0.50	75.96	5155.20	-4774.86	4308.42
Saccade R	1	10	8947085625	8947125363	39738	634.76	227.29	705.21	572.45	3.02	207.54	0.50	75.96	5155.20	-4774.86	4308.42
Fixation L	1	11	8947125363	8947503730	378367	717.85	574.90	30	16	-1	14.64	14.64
Fixation R	1	11	8947125363	8947503730	378367	717.85	574.90	30	16	-1	15.78	15.78
Saccade L	1	11	8947503730	8947523591	19861	736.20	587.36	778.38	619.05	0.46	53.37	1.00	23.38	1287.01	-818.55	768.19
Saccade R	1	11	8947503730	8947523591	19861	736.20	587.36	778.38	619.05	0.46	53.37	1.00	23.38	1287.01	-818.55	768.19
Fixation L	1	12	8947523591	8947742586	218995	794.44	624.25	22	31	-1	14.50	14.50
Fixation R	1	12	8947523591	8947742586	218995	794.44	624.25	22	31	-1	15.53	15.53
Saccade L	1	12	8947742586	8947762590	20004	801.38	632.94	663.40	639.37	0.89	139.71	1.00	44.42	3364.80	-2973.92	2350.00
Saccade R	1	12	8947742586	8947762590	20004	801.38	632.94	663.40	639.37	0.89	139.71	1.00	44.42	3364.80	-2973.92	2350.00
Fixation L	1	13	8947762590	8948061227	298637	653.28	684.40	14	70	-1	14.29	14.29
Fixation R	1	13	8947762590	8948061227	298637	653.28	684.40	14	70	-1	15.34	15.34
Saccade L	1	13	8948061227	8948101072	39845	659.17	710.35	664.68	725.25	0.29	15.89	0.50	7.39	253.34	-185.33	146.22
Saccade R	1	13	8948061227	8948101072	39845	659.17	710.35	664.68	725.25	0.29	15.89	0.50	7.39	253.34	-185.33	146.22
