[BeGaze]
Converted from:	C:\Documents and Settings\iViewX\Desktop\EXPERIMENTATIONS\Experiments\results\finaleart\S01A22542-finaleart-1.idf
Date:	27.03.2019 15:33:27
Version:	BeGaze 2.5.77
Sample Rate:	50
Subject:	S01A22542
Description:	Thibault Seve Minnaert

Table Header for Fixations:
Event Type	Trial	Number	Start	End	Duration	Location X	Location Y	Dispersion X	Dispersion Y	Plane	Avg. Pupil Size X	Avg. Pupil Size Y

Table Header for Saccades:
Event Type	Trial	Number	Start	End	Duration	Start Loc.X	Start Loc.Y	End Loc.X	End Loc.Y	Amplitude	Peak Speed	Peak Speed At	Average Speed	Peak Accel.	Peak Decel.	Average Accel.

Table Header for Blinks:
Event Type	Trial	Number	Start	End	Duration

Table Header for User Events:
Event Type	Trial	Number	Start	Description

UserEvent	1	1	10135372852	# Message: void.jpg
Saccade L	1	1	10135385556	10135445153	59597	873.06	411.43	661.74	338.56	3.25	213.68	1.00	54.61	5324.13	-5156.01	2311.86
Saccade R	1	1	10135385556	10135445153	59597	873.06	411.43	661.74	338.56	3.25	213.68	1.00	54.61	5324.13	-5156.01	2311.86
Fixation L	1	1	10135445153	10135783260	338107	633.53	322.25	38	25	-1	11.67	11.67
Fixation R	1	1	10135445153	10135783260	338107	633.53	322.25	38	25	-1	11.71	11.71
Blink L	1	1	10135783260	10136101487	318227
Blink R	1	1	10135783260	10136101487	318227
Saccade L	1	2	10136101487	10136220865	119378	1032.42	538.49	1503.44	923.57	9.54	289.16	0.83	79.91	7157.61	-6186.04	3020.36
Saccade R	1	2	10136101487	10136220865	119378	1032.42	538.49	1503.44	923.57	9.54	289.16	0.83	79.91	7157.61	-6186.04	3020.36
Fixation L	1	2	10136220865	10136379993	159128	1538.47	958.69	44	53	-1	13.53	13.53
Fixation R	1	2	10136220865	10136379993	159128	1538.47	958.69	44	53	-1	13.39	13.39
Saccade L	1	3	10136379993	10136459599	79606	1542.22	976.80	892.08	432.21	10.22	294.54	0.50	128.39	7153.58	-5746.35	4372.21
Saccade R	1	3	10136379993	10136459599	79606	1542.22	976.80	892.08	432.21	10.22	294.54	0.50	128.39	7153.58	-5746.35	4372.21
Fixation L	1	3	10136459599	10136877207	417608	860.63	410.30	41	29	-1	12.96	12.96
Fixation R	1	3	10136459599	10136877207	417608	860.63	410.30	41	29	-1	13.00	13.00
Saccade L	1	4	10136877207	10136917082	39875	854.06	407.47	1044.94	396.60	1.57	103.12	1.00	39.43	2538.43	-2210.87	2302.47
Saccade R	1	4	10136877207	10136917082	39875	854.06	407.47	1044.94	396.60	1.57	103.12	1.00	39.43	2538.43	-2210.87	2302.47
Fixation L	1	4	10136917082	10137115940	198858	1056.85	398.35	16	28	-1	13.25	13.25
Fixation R	1	4	10136917082	10137115940	198858	1056.85	398.35	16	28	-1	13.51	13.51
Saccade L	1	5	10137115940	10137135825	19885	1061.10	418.17	894.39	509.78	1.29	192.36	1.00	64.70	4732.78	-4787.91	3360.66
Saccade R	1	5	10137115940	10137135825	19885	1061.10	418.17	894.39	509.78	1.29	192.36	1.00	64.70	4732.78	-4787.91	3360.66
Fixation L	1	5	10137135825	10137354685	218860	895.22	546.83	13	48	-1	13.55	13.55
Fixation R	1	5	10137135825	10137354685	218860	895.22	546.83	13	48	-1	13.90	13.90
