[BeGaze]
Converted from:	C:\Documents and Settings\iViewX\Desktop\EXPERIMENTATIONS\Experiments\results\finaleart\S01A22542-finaleart-1.idf
Date:	27.03.2019 15:33:21
Version:	BeGaze 2.5.77
Sample Rate:	50
Subject:	S01A22542
Description:	Thibault Seve Minnaert

Table Header for Fixations:
Event Type	Trial	Number	Start	End	Duration	Location X	Location Y	Dispersion X	Dispersion Y	Plane	Avg. Pupil Size X	Avg. Pupil Size Y

Table Header for Saccades:
Event Type	Trial	Number	Start	End	Duration	Start Loc.X	Start Loc.Y	End Loc.X	End Loc.Y	Amplitude	Peak Speed	Peak Speed At	Average Speed	Peak Accel.	Peak Decel.	Average Accel.

Table Header for Blinks:
Event Type	Trial	Number	Start	End	Duration

Table Header for User Events:
Event Type	Trial	Number	Start	Description

UserEvent	1	1	9256916867	# Message: storm_off_normandy_cost_isabey_1850.jpg
Saccade L	1	1	9256928288	9257047807	119519	1248.38	491.81	1093.68	470.46	5.80	163.20	1.00	48.55	3834.98	-3533.91	1427.49
Saccade R	1	1	9256928288	9257047807	119519	1248.38	491.81	1093.68	470.46	5.80	163.20	1.00	48.55	3834.98	-3533.91	1427.49
Fixation L	1	1	9257047807	9257246919	199112	1059.03	503.54	41	56	-1	15.02	15.02
Fixation R	1	1	9257047807	9257246919	199112	1059.03	503.54	41	56	-1	14.61	14.61
Saccade L	1	2	9257246919	9257266775	19856	1052.06	526.50	1051.17	528.25	0.13	9.48	1.00	6.74	3.91	-187.00	64.75
Saccade R	1	2	9257246919	9257266775	19856	1052.06	526.50	1051.17	528.25	0.13	9.48	1.00	6.74	3.91	-187.00	64.75
Fixation L	1	2	9257266775	9257386264	119489	1045.65	522.77	10	8	-1	14.65	14.65
Fixation R	1	2	9257266775	9257386264	119489	1045.65	522.77	10	8	-1	14.44	14.44
Saccade L	1	3	9257386264	9257426141	39877	1040.57	521.14	1191.30	412.53	1.67	108.99	1.00	41.92	2648.36	-2591.50	2293.39
Saccade R	1	3	9257386264	9257426141	39877	1040.57	521.14	1191.30	412.53	1.67	108.99	1.00	41.92	2648.36	-2591.50	2293.39
Fixation L	1	3	9257426141	9257605259	179118	1194.40	404.58	8	21	-1	14.55	14.55
Fixation R	1	3	9257426141	9257605259	179118	1194.40	404.58	8	21	-1	14.48	14.48
Saccade L	1	4	9257605259	9257645184	39925	1195.75	414.04	1111.05	629.13	2.20	128.04	1.00	55.22	3071.87	-2983.22	2627.01
Saccade R	1	4	9257605259	9257645184	39925	1195.75	414.04	1111.05	629.13	2.20	128.04	1.00	55.22	3071.87	-2983.22	2627.01
Fixation L	1	4	9257645184	9257824247	179063	1107.21	662.19	22	53	-1	15.40	15.40
Fixation R	1	4	9257645184	9257824247	179063	1107.21	662.19	22	53	-1	15.19	15.19
Saccade L	1	5	9257824247	9257844249	20002	1106.34	682.46	1336.61	679.69	1.29	232.84	1.00	64.29	5704.01	-5403.32	3717.87
Saccade R	1	5	9257824247	9257844249	20002	1106.34	682.46	1336.61	679.69	1.29	232.84	1.00	64.29	5704.01	-5403.32	3717.87
Fixation L	1	5	9257844249	9258102982	258733	1358.03	707.45	30	44	-1	16.13	16.13
Fixation R	1	5	9257844249	9258102982	258733	1358.03	707.45	30	44	-1	15.87	15.87
Saccade L	1	6	9258102982	9258142854	39872	1357.09	724.29	1185.24	501.96	2.87	164.21	0.50	71.96	3933.64	-3443.94	3463.69
Saccade R	1	6	9258102982	9258142854	39872	1357.09	724.29	1185.24	501.96	2.87	164.21	0.50	71.96	3933.64	-3443.94	3463.69
Fixation L	1	6	9258142854	9258481337	338483	1163.84	466.73	52	44	-1	15.16	15.16
Fixation R	1	6	9258142854	9258481337	338483	1163.84	466.73	52	44	-1	15.52	15.52
Saccade L	1	7	9258481337	9258521220	39883	1133.05	464.17	700.10	519.32	3.85	304.76	0.50	96.56	7466.01	-7479.70	5260.89
Saccade R	1	7	9258481337	9258521220	39883	1133.05	464.17	700.10	519.32	3.85	304.76	0.50	96.56	7466.01	-7479.70	5260.89
Fixation L	1	7	9258521220	9258740207	218987	705.10	532.29	14	23	-1	15.07	15.07
Fixation R	1	7	9258521220	9258740207	218987	705.10	532.29	14	23	-1	15.39	15.39
Saccade L	1	8	9258740207	9258760084	19877	710.37	542.70	649.02	464.55	0.69	100.50	1.00	34.58	2422.72	-2426.25	1893.95
Saccade R	1	8	9258740207	9258760084	19877	710.37	542.70	649.02	464.55	0.69	100.50	1.00	34.58	2422.72	-2426.25	1893.95
Fixation L	1	8	9258760084	9259098561	338477	623.92	429.33	30	63	-1	15.63	15.63
Fixation R	1	8	9258760084	9259098561	338477	623.92	429.33	30	63	-1	16.01	16.01
Saccade L	1	9	9259098561	9259118445	19884	618.69	415.21	617.11	392.73	0.19	22.80	1.00	9.52	537.83	-471.02	432.74
Saccade R	1	9	9259098561	9259118445	19884	618.69	415.21	617.11	392.73	0.19	22.80	1.00	9.52	537.83	-471.02	432.74
Fixation L	1	9	9259118445	9259516662	398217	617.37	399.15	21	32	-1	15.45	15.45
Fixation R	1	9	9259118445	9259516662	398217	617.37	399.15	21	32	-1	16.41	16.41
Saccade L	1	10	9259516662	9259556548	39886	635.26	421.01	875.21	770.93	3.72	259.68	0.50	93.26	5969.32	-6292.66	5083.80
Saccade R	1	10	9259516662	9259556548	39886	635.26	421.01	875.21	770.93	3.72	259.68	0.50	93.26	5969.32	-6292.66	5083.80
Fixation L	1	10	9259556548	9259875029	318481	880.23	772.13	59	24	-1	15.67	15.67
Fixation R	1	10	9259556548	9259875029	318481	880.23	772.13	59	24	-1	16.84	16.84
Saccade L	1	11	9259875029	9259894898	19869	827.09	756.47	711.06	730.53	0.96	120.26	1.00	48.41	2975.90	-2568.46	2268.20
Saccade R	1	11	9259875029	9259894898	19869	827.09	756.47	711.06	730.53	0.96	120.26	1.00	48.41	2975.90	-2568.46	2268.20
Fixation L	1	11	9259894898	9260133897	238999	715.90	714.15	7	27	-1	15.81	15.81
Fixation R	1	11	9259894898	9260133897	238999	715.90	714.15	7	27	-1	16.95	16.95
Saccade L	1	12	9260133897	9260173764	39867	718.54	712.57	552.71	691.33	1.51	122.41	0.50	37.80	3024.30	-2667.34	1960.20
Saccade R	1	12	9260133897	9260173764	39867	718.54	712.57	552.71	691.33	1.51	122.41	0.50	37.80	3024.30	-2667.34	1960.20
Fixation L	1	12	9260173764	9260452498	278734	534.51	677.08	22	28	-1	15.97	15.97
Fixation R	1	12	9260173764	9260452498	278734	534.51	677.08	22	28	-1	17.41	17.41
Saccade L	1	13	9260452498	9260472401	19903	531.36	697.12	505.90	768.10	0.60	76.28	1.00	30.16	1894.62	-1820.51	1350.24
Saccade R	1	13	9260452498	9260472401	19903	531.36	697.12	505.90	768.10	0.60	76.28	1.00	30.16	1894.62	-1820.51	1350.24
Fixation L	1	13	9260472401	9260631621	159220	487.63	760.05	30	16	-1	16.56	16.56
Fixation R	1	13	9260472401	9260631621	159220	487.63	760.05	30	16	-1	17.90	17.90
Saccade L	1	14	9260631621	9260691361	59740	474.94	751.76	1327.87	779.96	9.03	384.17	0.67	151.18	9532.35	-8741.61	6888.46
Saccade R	1	14	9260631621	9260691361	59740	474.94	751.76	1327.87	779.96	9.03	384.17	0.67	151.18	9532.35	-8741.61	6888.46
Fixation L	1	14	9260691361	9260910351	218990	1357.96	811.55	42	44	-1	17.08	17.08
Fixation R	1	14	9260691361	9260910351	218990	1357.96	811.55	42	44	-1	17.62	17.62
