[BeGaze]
Converted from:	C:\Documents and Settings\iViewX\Desktop\EXPERIMENTATIONS\Experiments\results\finaleart\S01A22542-finaleart-1.idf
Date:	27.03.2019 15:33:22
Version:	BeGaze 2.5.77
Sample Rate:	50
Subject:	S01A22542
Description:	Thibault Seve Minnaert

Table Header for Fixations:
Event Type	Trial	Number	Start	End	Duration	Location X	Location Y	Dispersion X	Dispersion Y	Plane	Avg. Pupil Size X	Avg. Pupil Size Y

Table Header for Saccades:
Event Type	Trial	Number	Start	End	Duration	Start Loc.X	Start Loc.Y	End Loc.X	End Loc.Y	Amplitude	Peak Speed	Peak Speed At	Average Speed	Peak Accel.	Peak Decel.	Average Accel.

Table Header for Blinks:
Event Type	Trial	Number	Start	End	Duration

Table Header for User Events:
Event Type	Trial	Number	Start	Description

UserEvent	1	1	9540145210	# Message: void.jpg
Saccade L	1	1	9540161376	9540201119	39743	1088.37	721.87	917.32	488.39	3.08	177.69	0.50	77.41	3021.27	-4164.79	2479.74
Saccade R	1	1	9540161376	9540201119	39743	1088.37	721.87	917.32	488.39	3.08	177.69	0.50	77.41	3021.27	-4164.79	2479.74
Fixation L	1	1	9540201119	9540817723	616604	916.28	453.49	12	77	-1	12.18	12.18
Fixation R	1	1	9540201119	9540817723	616604	916.28	453.49	12	77	-1	12.51	12.51
Blink L	1	1	9540817723	9541056456	238733
Blink R	1	1	9540817723	9541056456	238733
Fixation L	1	2	9541056456	9541175719	119263	1003.40	582.00	1	12	-1	13.60	13.60
Fixation R	1	2	9541056456	9541175719	119263	1003.40	582.00	1	12	-1	13.23	13.23
Saccade L	1	2	9541175719	9541235448	59729	1002.83	588.66	1148.32	1235.20	6.99	273.72	0.67	117.11	6640.88	-6688.13	4851.56
Saccade R	1	2	9541175719	9541235448	59729	1002.83	588.66	1148.32	1235.20	6.99	273.72	0.67	117.11	6640.88	-6688.13	4851.56
Fixation L	1	3	9541235448	9541454190	218742	1144.41	1229.78	8	8	-1	14.36	14.36
Fixation R	1	3	9541235448	9541454190	218742	1144.41	1229.78	8	8	-1	14.12	14.12
Saccade L	1	3	9541454190	9541513805	59615	1141.45	1230.85	889.25	524.85	8.17	319.67	0.67	137.09	7901.15	-6561.01	5322.19
Saccade R	1	3	9541454190	9541513805	59615	1141.45	1230.85	889.25	524.85	8.17	319.67	0.67	137.09	7901.15	-6561.01	5322.19
Fixation L	1	4	9541513805	9541971279	457474	868.24	480.02	30	56	-1	13.64	13.64
Fixation R	1	4	9541513805	9541971279	457474	868.24	480.02	30	56	-1	13.74	13.74
Saccade L	1	4	9541971279	9541991289	20010	870.10	475.78	1042.86	472.86	0.94	174.74	1.00	47.01	4327.52	-4196.33	2869.09
Saccade R	1	4	9541971279	9541991289	20010	870.10	475.78	1042.86	472.86	0.94	174.74	1.00	47.01	4327.52	-4196.33	2869.09
Fixation L	1	5	9541991289	9542130411	139122	1044.29	478.51	7	10	-1	13.32	13.32
Fixation R	1	5	9541991289	9542130411	139122	1044.29	478.51	7	10	-1	13.66	13.66
