[BeGaze]
Converted from:	C:\Documents and Settings\iViewX\Desktop\EXPERIMENTATIONS\Experiments\results\finaleart\S01A22542-finaleart-1.idf
Date:	27.03.2019 15:33:23
Version:	BeGaze 2.5.77
Sample Rate:	50
Subject:	S01A22542
Description:	Thibault Seve Minnaert

Table Header for Fixations:
Event Type	Trial	Number	Start	End	Duration	Location X	Location Y	Dispersion X	Dispersion Y	Plane	Avg. Pupil Size X	Avg. Pupil Size Y

Table Header for Saccades:
Event Type	Trial	Number	Start	End	Duration	Start Loc.X	Start Loc.Y	End Loc.X	End Loc.Y	Amplitude	Peak Speed	Peak Speed At	Average Speed	Peak Accel.	Peak Decel.	Average Accel.

Table Header for Blinks:
Event Type	Trial	Number	Start	End	Duration

Table Header for User Events:
Event Type	Trial	Number	Start	Description

UserEvent	1	1	9734544766	# Message: La_Danse_Matisse_1909.jpg
Fixation L	1	1	9734559836	9734699205	139369	827.47	472.17	3	10	-1	14.75	14.75
Fixation R	1	1	9734559836	9734699205	139369	827.47	472.17	3	10	-1	14.68	14.68
Saccade L	1	1	9734699205	9734719194	19989	829.73	473.90	915.32	482.40	0.65	87.00	1.00	32.46	2100.26	-1853.71	1571.56
Saccade R	1	1	9734699205	9734719194	19989	829.73	473.90	915.32	482.40	0.65	87.00	1.00	32.46	2100.26	-1853.71	1571.56
Fixation L	1	2	9734719194	9734977933	258739	959.80	508.90	53	40	-1	14.84	14.84
Fixation R	1	2	9734719194	9734977933	258739	959.80	508.90	53	40	-1	14.86	14.86
Saccade L	1	2	9734977933	9735017810	39877	966.24	522.79	900.59	314.04	1.99	118.46	1.00	49.99	2949.76	-2902.88	2583.44
Saccade R	1	2	9734977933	9735017810	39877	966.24	522.79	900.59	314.04	1.99	118.46	1.00	49.99	2949.76	-2902.88	2583.44
Fixation L	1	3	9735017810	9735157170	139360	881.67	322.14	23	12	-1	14.19	14.19
Fixation R	1	3	9735017810	9735157170	139360	881.67	322.14	23	12	-1	14.51	14.51
Saccade L	1	3	9735157170	9735197056	39886	878.94	316.42	737.92	202.54	1.79	114.37	1.00	44.88	2726.35	-2642.99	2082.24
Saccade R	1	3	9735157170	9735197056	39886	878.94	316.42	737.92	202.54	1.79	114.37	1.00	44.88	2726.35	-2642.99	2082.24
Fixation L	1	4	9735197056	9735296534	99478	722.73	194.58	23	14	-1	12.96	12.96
Fixation R	1	4	9735197056	9735296534	99478	722.73	194.58	23	14	-1	13.28	13.28
Saccade L	1	4	9735296534	9735336411	39877	722.27	193.02	533.76	228.51	1.70	121.85	0.50	42.75	2857.12	-2922.12	2273.88
Saccade R	1	4	9735296534	9735336411	39877	722.27	193.02	533.76	228.51	1.70	121.85	0.50	42.75	2857.12	-2922.12	2273.88
Fixation L	1	5	9735336411	9735555397	218986	527.83	241.45	72	23	-1	12.12	12.12
Fixation R	1	5	9735336411	9735555397	218986	527.83	241.45	72	23	-1	12.49	12.49
Saccade L	1	5	9735555397	9735575273	19876	587.21	249.50	807.98	244.98	1.60	223.27	1.00	80.42	5493.42	-5127.51	3980.20
Saccade R	1	5	9735555397	9735575273	19876	587.21	249.50	807.98	244.98	1.60	223.27	1.00	80.42	5493.42	-5127.51	3980.20
Fixation L	1	6	9735575273	9735774382	199109	845.15	224.21	51	29	-1	12.05	12.05
Fixation R	1	6	9735575273	9735774382	199109	845.15	224.21	51	29	-1	12.72	12.72
Saccade L	1	6	9735774382	9735814265	39883	859.46	215.95	1373.23	159.08	4.29	334.24	0.50	107.64	8245.70	-8159.01	6341.05
Saccade R	1	6	9735774382	9735814265	39883	859.46	215.95	1373.23	159.08	4.29	334.24	0.50	107.64	8245.70	-8159.01	6341.05
Fixation L	1	7	9735814265	9736252249	437984	1387.10	145.02	26	38	-1	12.48	12.48
Fixation R	1	7	9735814265	9736252249	437984	1387.10	145.02	26	38	-1	13.11	13.11
Saccade L	1	7	9736252249	9736391611	139362	1399.54	145.44	1610.81	569.72	9.03	246.19	0.86	64.82	5431.46	-5595.18	2573.13
Saccade R	1	7	9736252249	9736391611	139362	1399.54	145.44	1610.81	569.72	9.03	246.19	0.86	64.82	5431.46	-5595.18	2573.13
Fixation L	1	8	9736391611	9736530980	139369	1642.05	554.39	48	40	-1	13.52	13.52
Fixation R	1	8	9736391611	9736530980	139369	1642.05	554.39	48	40	-1	13.41	13.41
Saccade L	1	8	9736530980	9736550854	19874	1659.07	529.65	1670.51	515.90	0.25	20.87	0.00	12.54	361.71	-331.76	247.82
Saccade R	1	8	9736530980	9736550854	19874	1659.07	529.65	1670.51	515.90	0.25	20.87	0.00	12.54	361.71	-331.76	247.82
Fixation L	1	9	9736550854	9736710222	159368	1673.63	515.29	10	15	-1	13.66	13.66
Fixation R	1	9	9736550854	9736710222	159368	1673.63	515.29	10	15	-1	13.35	13.35
Saccade L	1	9	9736710222	9736749971	39749	1670.95	513.55	1092.93	810.52	5.61	398.36	0.50	141.09	9857.93	-9095.34	7853.74
Saccade R	1	9	9736710222	9736749971	39749	1670.95	513.55	1092.93	810.52	5.61	398.36	0.50	141.09	9857.93	-9095.34	7853.74
Fixation L	1	10	9736749971	9736949076	199105	1049.31	816.23	52	11	-1	13.64	13.64
Fixation R	1	10	9736749971	9736949076	199105	1049.31	816.23	52	11	-1	13.29	13.29
Saccade L	1	10	9736949076	9736968962	19886	1040.39	819.30	1040.93	682.03	0.72	138.84	1.00	36.07	3406.58	-3299.32	2245.52
Saccade R	1	10	9736949076	9736968962	19886	1040.39	819.30	1040.93	682.03	0.72	138.84	1.00	36.07	3406.58	-3299.32	2245.52
Fixation L	1	11	9736968962	9737247692	278730	1034.78	680.18	63	24	-1	13.05	13.05
Fixation R	1	11	9736968962	9737247692	278730	1034.78	680.18	63	24	-1	12.80	12.80
Saccade L	1	11	9737247692	9737267715	20023	977.19	662.84	915.87	668.70	0.67	63.95	0.00	33.36	1507.36	-1470.04	1446.68
Saccade R	1	11	9737247692	9737267715	20023	977.19	662.84	915.87	668.70	0.67	63.95	0.00	33.36	1507.36	-1470.04	1446.68
Fixation L	1	12	9737267715	9737426941	159226	912.06	652.65	7	28	-1	12.53	12.53
Fixation R	1	12	9737267715	9737426941	159226	912.06	652.65	7	28	-1	12.98	12.98
Saccade L	1	12	9737426941	9737466812	39871	912.85	639.95	618.84	383.31	3.41	221.17	1.00	85.44	5488.16	-5361.44	4799.40
Saccade R	1	12	9737426941	9737466812	39871	912.85	639.95	618.84	383.31	3.41	221.17	1.00	85.44	5488.16	-5361.44	4799.40
Fixation L	1	13	9737466812	9737645927	179115	606.61	368.05	15	19	-1	12.23	12.23
Fixation R	1	13	9737466812	9737645927	179115	606.61	368.05	15	19	-1	12.62	12.62
Saccade L	1	13	9737645927	9737665792	19865	604.91	364.98	501.92	287.01	0.74	130.65	1.00	37.09	3217.96	-2798.85	2102.84
Saccade R	1	13	9737645927	9737665792	19865	604.91	364.98	501.92	287.01	0.74	130.65	1.00	37.09	3217.96	-2798.85	2102.84
Fixation L	1	14	9737665792	9737845051	179259	507.70	274.10	18	20	-1	12.15	12.15
Fixation R	1	14	9737665792	9737845051	179259	507.70	274.10	18	20	-1	12.95	12.95
Saccade L	1	14	9737845051	9737884920	39869	503.52	279.24	351.87	459.42	2.21	175.43	0.50	55.38	4211.55	-4151.15	2863.74
Saccade R	1	14	9737845051	9737884920	39869	503.52	279.24	351.87	459.42	2.21	175.43	0.50	55.38	4211.55	-4151.15	2863.74
Fixation L	1	15	9737884920	9738402520	517600	350.73	479.34	11	32	-1	12.71	12.71
Fixation R	1	15	9737884920	9738402520	517600	350.73	479.34	11	32	-1	13.36	13.36
Saccade L	1	15	9738402520	9738442394	39874	352.18	466.99	609.68	273.19	2.84	206.02	1.00	71.11	5024.73	-4873.09	3953.63
Saccade R	1	15	9738402520	9738442394	39874	352.18	466.99	609.68	273.19	2.84	206.02	1.00	71.11	5024.73	-4873.09	3953.63
Fixation L	1	16	9738442394	9738541884	99490	628.83	263.30	26	17	-1	12.47	12.47
Fixation R	1	16	9738442394	9738541884	99490	628.83	263.30	26	17	-1	13.70	13.70
