[BeGaze]
Converted from:	C:\Documents and Settings\iViewX\Desktop\EXPERIMENTATIONS\Experiments\results\finaleart\S01A22542-finaleart-1.idf
Date:	27.03.2019 15:33:18
Version:	BeGaze 2.5.77
Sample Rate:	50
Subject:	S01A22542
Description:	Thibault Seve Minnaert

Table Header for Fixations:
Event Type	Trial	Number	Start	End	Duration	Location X	Location Y	Dispersion X	Dispersion Y	Plane	Avg. Pupil Size X	Avg. Pupil Size Y

Table Header for Saccades:
Event Type	Trial	Number	Start	End	Duration	Start Loc.X	Start Loc.Y	End Loc.X	End Loc.Y	Amplitude	Peak Speed	Peak Speed At	Average Speed	Peak Accel.	Peak Decel.	Average Accel.

Table Header for Blinks:
Event Type	Trial	Number	Start	End	Duration

Table Header for User Events:
Event Type	Trial	Number	Start	Description

UserEvent	1	1	8974655939	# Message: the-pointe-de-per-kiridec-at-roscoff_Rysselberghe_0.jpg
Fixation L	1	1	8974674183	8975151530	477347	892.73	643.15	17	29	-1	14.14	14.14
Fixation R	1	1	8974674183	8975151530	477347	892.73	643.15	17	29	-1	14.49	14.49
Saccade L	1	1	8975151530	8975171403	19873	897.32	630.01	857.25	564.19	0.53	77.95	1.00	26.75	1907.68	-1840.58	1461.43
Saccade R	1	1	8975151530	8975171403	19873	897.32	630.01	857.25	564.19	0.53	77.95	1.00	26.75	1907.68	-1840.58	1461.43
Fixation L	1	2	8975171403	8975270896	99493	854.28	537.71	26	39	-1	12.97	12.97
Fixation R	1	2	8975171403	8975270896	99493	854.28	537.71	26	39	-1	13.42	13.42
Saccade L	1	2	8975270896	8975310645	39749	847.76	531.97	631.23	516.78	2.29	138.29	0.50	57.59	3171.93	-2389.85	2272.65
Saccade R	1	2	8975270896	8975310645	39749	847.76	531.97	631.23	516.78	2.29	138.29	0.50	57.59	3171.93	-2389.85	2272.65
Fixation L	1	3	8975310645	8975469760	159115	613.69	473.88	26	64	-1	11.38	11.38
Fixation R	1	3	8975310645	8975469760	159115	613.69	473.88	26	64	-1	11.84	11.84
Saccade L	1	3	8975469760	8975489753	19993	630.30	457.06	834.73	462.94	1.41	206.80	1.00	70.67	4954.77	-4943.83	3424.32
Saccade R	1	3	8975469760	8975489753	19993	630.30	457.06	834.73	462.94	1.41	206.80	1.00	70.67	4954.77	-4943.83	3424.32
Fixation L	1	4	8975489753	8975648878	159125	881.00	467.14	56	12	-1	10.76	10.76
Fixation R	1	4	8975489753	8975648878	159125	881.00	467.14	56	12	-1	11.21	11.21
Saccade L	1	4	8975648878	8975708509	59631	890.99	475.01	1329.98	371.11	4.73	318.51	0.67	79.33	7905.61	-7677.26	4141.06
Saccade R	1	4	8975648878	8975708509	59631	890.99	475.01	1329.98	371.11	4.73	318.51	0.67	79.33	7905.61	-7677.26	4141.06
Fixation L	1	5	8975708509	8975847736	139227	1339.84	364.40	12	8	-1	10.40	10.40
Fixation R	1	5	8975708509	8975847736	139227	1339.84	364.40	12	8	-1	10.94	10.94
Saccade L	1	5	8975847736	8975887493	39757	1342.72	362.59	963.29	443.73	3.37	200.50	0.50	84.77	4986.28	-4664.72	4741.24
Saccade R	1	5	8975847736	8975887493	39757	1342.72	362.59	963.29	443.73	3.37	200.50	0.50	84.77	4986.28	-4664.72	4741.24
Fixation L	1	6	8975887493	8976165974	278481	921.28	461.21	70	23	-1	10.79	10.79
Fixation R	1	6	8975887493	8976165974	278481	921.28	461.21	70	23	-1	11.16	11.16
Saccade L	1	6	8976165974	8976185846	19872	892.61	463.22	884.31	462.65	0.11	8.42	1.00	5.47	134.45	-179.66	119.95
Saccade R	1	6	8976165974	8976185846	19872	892.61	463.22	884.31	462.65	0.11	8.42	1.00	5.47	134.45	-179.66	119.95
Fixation L	1	7	8976185846	8976484205	298359	873.31	459.53	16	9	-1	11.14	11.14
Fixation R	1	7	8976185846	8976484205	298359	873.31	459.53	16	9	-1	11.55	11.55
Saccade L	1	7	8976484205	8976523977	39772	867.96	463.35	477.40	462.98	3.26	205.40	0.50	82.05	5111.85	-4819.90	4746.97
Saccade R	1	7	8976484205	8976523977	39772	867.96	463.35	477.40	462.98	3.26	205.40	0.50	82.05	5111.85	-4819.90	4746.97
Fixation L	1	8	8976523977	8976683071	159094	453.89	454.37	32	13	-1	11.11	11.11
Fixation R	1	8	8976523977	8976683071	159094	453.89	454.37	32	13	-1	11.72	11.72
Saccade L	1	8	8976683071	8976722833	39762	448.41	452.57	340.25	780.61	2.96	208.06	1.00	74.52	5147.25	-4819.72	4145.75
Saccade R	1	8	8976683071	8976722833	39762	448.41	452.57	340.25	780.61	2.96	208.06	1.00	74.52	5147.25	-4819.72	4145.75
Fixation L	1	9	8976722833	8976901950	179117	340.91	805.88	20	36	-1	11.07	11.07
Fixation R	1	9	8976722833	8976901950	179117	340.91	805.88	20	36	-1	12.16	12.16
Saccade L	1	9	8976901950	8976921818	19868	341.60	816.97	450.83	821.01	0.61	110.56	1.00	30.49	2729.65	-2637.06	1797.02
Saccade R	1	9	8976901950	8976921818	19868	341.60	816.97	450.83	821.01	0.61	110.56	1.00	30.49	2729.65	-2637.06	1797.02
Fixation L	1	10	8976921818	8977120689	198871	451.82	816.30	7	14	-1	11.53	11.53
Fixation R	1	10	8976921818	8977120689	198871	451.82	816.30	7	14	-1	12.61	12.61
Saccade L	1	10	8977120689	8977180323	59634	456.02	817.00	1222.44	358.93	9.33	408.99	0.33	156.41	9970.70	-9124.88	7690.70
Saccade R	1	10	8977120689	8977180323	59634	456.02	817.00	1222.44	358.93	9.33	408.99	0.33	156.41	9970.70	-9124.88	7690.70
Fixation L	1	11	8977180323	8977379297	198974	1232.90	345.48	17	18	-1	11.87	11.87
Fixation R	1	11	8977180323	8977379297	198974	1232.90	345.48	17	18	-1	12.82	12.82
Saccade L	1	11	8977379297	8977399180	19883	1239.67	347.08	1455.83	330.63	1.24	219.20	1.00	62.28	5408.18	-5052.25	3685.15
Saccade R	1	11	8977379297	8977399180	19883	1239.67	347.08	1455.83	330.63	1.24	219.20	1.00	62.28	5408.18	-5052.25	3685.15
Fixation L	1	12	8977399180	8977578280	179100	1461.90	294.14	13	49	-1	11.67	11.67
Fixation R	1	12	8977399180	8977578280	179100	1461.90	294.14	13	49	-1	12.09	12.09
Saccade L	1	12	8977578280	8977697669	119389	1469.47	281.46	1856.07	340.72	7.86	240.47	0.17	65.87	5900.94	-5060.86	2757.09
Saccade R	1	12	8977578280	8977697669	119389	1469.47	281.46	1856.07	340.72	7.86	240.47	0.17	65.87	5900.94	-5060.86	2757.09
Fixation L	1	13	8977697669	8977797273	99604	1837.41	378.05	31	63	-1	11.13	11.13
Fixation R	1	13	8977697669	8977797273	99604	1837.41	378.05	31	63	-1	11.57	11.57
Saccade L	1	13	8977797273	8977817148	19875	1826.53	392.74	1816.78	388.52	0.21	19.42	1.00	10.81	269.80	157.75	222.76
Saccade R	1	13	8977797273	8977817148	19875	1826.53	392.74	1816.78	388.52	0.21	19.42	1.00	10.81	269.80	157.75	222.76
Fixation L	1	14	8977817148	8977936641	119493	1809.14	428.73	25	63	-1	11.47	11.47
Fixation R	1	14	8977817148	8977936641	119493	1809.14	428.73	25	63	-1	11.60	11.60
Saccade L	1	14	8977936641	8977976387	39746	1796.33	450.36	1468.12	490.94	3.10	224.29	1.00	78.11	5448.91	-5437.45	3804.11
Saccade R	1	14	8977936641	8977976387	39746	1796.33	450.36	1468.12	490.94	3.10	224.29	1.00	78.11	5448.91	-5437.45	3804.11
Fixation L	1	15	8977976387	8978155630	179243	1443.33	456.65	38	60	-1	12.12	12.12
Fixation R	1	15	8977976387	8978155630	179243	1443.33	456.65	38	60	-1	11.66	11.66
Saccade L	1	15	8978155630	8978235257	79627	1449.64	430.14	1456.89	566.98	2.14	91.67	1.00	26.87	2002.09	-2204.12	1204.03
Saccade R	1	15	8978155630	8978235257	79627	1449.64	430.14	1456.89	566.98	2.14	91.67	1.00	26.87	2002.09	-2204.12	1204.03
Fixation L	1	16	8978235257	8978374625	139368	1467.78	572.42	23	12	-1	12.22	12.22
Fixation R	1	16	8978235257	8978374625	139368	1467.78	572.42	23	12	-1	11.64	11.64
Saccade L	1	16	8978374625	8978394623	19998	1474.24	578.33	1484.44	704.86	0.80	128.39	1.00	39.96	2950.78	-3125.26	2114.21
Saccade R	1	16	8978374625	8978394623	19998	1474.24	578.33	1484.44	704.86	0.80	128.39	1.00	39.96	2950.78	-3125.26	2114.21
Fixation L	1	17	8978394623	8978533995	139372	1506.00	716.53	33	16	-1	12.26	12.26
Fixation R	1	17	8978394623	8978533995	139372	1506.00	716.53	33	16	-1	11.86	11.86
Saccade L	1	17	8978533995	8978653354	119359	1517.91	721.69	1036.20	1005.68	8.66	300.89	0.33	72.53	7477.43	-7139.53	3189.29
Saccade R	1	17	8978533995	8978653354	119359	1517.91	721.69	1036.20	1005.68	8.66	300.89	0.33	72.53	7477.43	-7139.53	3189.29
