[BeGaze]
Converted from:	C:\Documents and Settings\iViewX\Desktop\EXPERIMENTATIONS\Experiments\results\finaleart\S01A22542-finaleart-1.idf
Date:	27.03.2019 15:33:25
Version:	BeGaze 2.5.77
Sample Rate:	50
Subject:	S01A22542
Description:	Thibault Seve Minnaert

Table Header for Fixations:
Event Type	Trial	Number	Start	End	Duration	Location X	Location Y	Dispersion X	Dispersion Y	Plane	Avg. Pupil Size X	Avg. Pupil Size Y

Table Header for Saccades:
Event Type	Trial	Number	Start	End	Duration	Start Loc.X	Start Loc.Y	End Loc.X	End Loc.Y	Amplitude	Peak Speed	Peak Speed At	Average Speed	Peak Accel.	Peak Decel.	Average Accel.

Table Header for Blinks:
Event Type	Trial	Number	Start	End	Duration

Table Header for User Events:
Event Type	Trial	Number	Start	Description

UserEvent	1	1	10027604915	# Message: mother_and_child_by_the_sea_dahl_1830.jpg
Fixation L	1	1	10027608962	10028026568	417606	977.76	463.86	15	28	-1	14.04	14.04
Fixation R	1	1	10027608962	10028026568	417606	977.76	463.86	15	28	-1	14.47	14.47
Saccade L	1	1	10028026568	10028046435	19867	973.98	480.02	906.66	563.87	0.84	108.77	1.00	42.36	2687.15	-2619.44	2097.44
Saccade R	1	1	10028026568	10028046435	19867	973.98	480.02	906.66	563.87	0.84	108.77	1.00	42.36	2687.15	-2619.44	2097.44
Fixation L	1	2	10028046435	10028165780	119345	878.21	606.17	43	56	-1	14.41	14.41
Fixation R	1	2	10028046435	10028165780	119345	878.21	606.17	43	56	-1	14.60	14.60
Saccade L	1	2	10028165780	10028185669	19889	863.55	619.94	863.06	625.88	0.10	7.41	1.00	4.92	41.61	-116.82	64.26
Saccade R	1	2	10028165780	10028185669	19889	863.55	619.94	863.06	625.88	0.10	7.41	1.00	4.92	41.61	-116.82	64.26
Fixation L	1	3	10028185669	10028305033	119364	856.99	626.91	12	6	-1	14.48	14.48
Fixation R	1	3	10028185669	10028305033	119364	856.99	626.91	12	6	-1	14.70	14.70
Saccade L	1	3	10028305033	10028324906	19873	860.71	630.73	1091.21	634.24	1.24	233.08	1.00	62.43	5770.20	-5351.72	3773.58
Saccade R	1	3	10028305033	10028324906	19873	860.71	630.73	1091.21	634.24	1.24	233.08	1.00	62.43	5770.20	-5351.72	3773.58
Fixation L	1	4	10028324906	10028603378	278472	1096.08	663.95	12	44	-1	13.91	13.91
Fixation R	1	4	10028324906	10028603378	278472	1096.08	663.95	12	44	-1	14.01	14.01
Saccade L	1	4	10028603378	10028623256	19878	1085.91	676.24	982.20	679.60	0.63	104.95	1.00	31.92	2592.59	-2584.19	1753.14
Saccade R	1	4	10028603378	10028623256	19878	1085.91	676.24	982.20	679.60	0.63	104.95	1.00	31.92	2592.59	-2584.19	1753.14
Fixation L	1	5	10028623256	10028862001	238745	979.49	679.75	8	5	-1	13.23	13.23
Fixation R	1	5	10028623256	10028862001	238745	979.49	679.75	8	5	-1	13.64	13.64
Saccade L	1	5	10028862001	10028901737	39736	982.73	678.55	763.44	675.95	1.79	111.55	0.50	45.05	2767.98	-2745.56	2727.41
Saccade R	1	5	10028862001	10028901737	39736	982.73	678.55	763.44	675.95	1.79	111.55	0.50	45.05	2767.98	-2745.56	2727.41
Fixation L	1	6	10028901737	10029100610	198873	758.75	674.74	10	9	-1	12.04	12.04
Fixation R	1	6	10028901737	10029100610	198873	758.75	674.74	10	9	-1	12.74	12.74
Saccade L	1	6	10029100610	10029120481	19871	753.82	668.09	747.63	483.82	1.09	186.46	1.00	54.98	4546.27	-4494.24	3151.35
Saccade R	1	6	10029100610	10029120481	19871	753.82	668.09	747.63	483.82	1.09	186.46	1.00	54.98	4546.27	-4494.24	3151.35
Fixation L	1	7	10029120481	10029339355	218874	707.48	471.16	56	41	-1	11.15	11.15
Fixation R	1	7	10029120481	10029339355	218874	707.48	471.16	56	41	-1	11.94	11.94
Saccade L	1	7	10029339355	10029359228	19873	690.88	441.98	686.38	429.17	0.22	18.60	0.00	10.86	143.18	-388.15	270.49
Saccade R	1	7	10029339355	10029359228	19873	690.88	441.98	686.38	429.17	0.22	18.60	0.00	10.86	143.18	-388.15	270.49
Fixation L	1	8	10029359228	10029597837	238609	678.25	424.66	13	13	-1	10.87	10.87
Fixation R	1	8	10029359228	10029597837	238609	678.25	424.66	13	13	-1	11.62	11.62
Saccade L	1	8	10029597837	10029637709	39872	672.46	424.50	672.78	730.35	2.70	164.15	0.50	67.76	4087.98	-3571.21	3668.28
Saccade R	1	8	10029597837	10029637709	39872	672.46	424.50	672.78	730.35	2.70	164.15	0.50	67.76	4087.98	-3571.21	3668.28
Fixation L	1	9	10029637709	10030373571	735862	686.33	727.90	43	54	-1	10.87	10.87
Fixation R	1	9	10029637709	10030373571	735862	686.33	727.90	43	54	-1	12.01	12.01
Saccade L	1	9	10030373571	10030393426	19855	716.59	715.20	722.39	713.12	0.10	7.58	1.00	5.25	1.74	-71.82	35.73
Saccade R	1	9	10030373571	10030393426	19855	716.59	715.20	722.39	713.12	0.10	7.58	1.00	5.25	1.74	-71.82	35.73
Fixation L	1	10	10030393426	10030592417	198991	729.09	714.80	24	7	-1	11.21	11.21
Fixation R	1	10	10030393426	10030592417	198991	729.09	714.80	24	7	-1	12.68	12.68
Saccade L	1	10	10030592417	10030612290	19873	744.48	718.16	1032.95	705.38	1.81	291.85	1.00	91.25	7245.99	-6905.42	5075.12
Saccade R	1	10	10030592417	10030612290	19873	744.48	718.16	1032.95	705.38	1.81	291.85	1.00	91.25	7245.99	-6905.42	5075.12
Fixation L	1	11	10030612290	10030711653	99363	1087.28	689.11	68	25	-1	11.63	11.63
Fixation R	1	11	10030612290	10030711653	99363	1087.28	689.11	68	25	-1	12.32	12.32
Saccade L	1	11	10030711653	10030731655	20002	1101.31	679.41	1101.57	667.39	0.25	20.02	1.00	12.29	201.85	-88.41	156.03
Saccade R	1	11	10030711653	10030731655	20002	1101.31	679.41	1101.57	667.39	0.25	20.02	1.00	12.29	201.85	-88.41	156.03
Fixation L	1	12	10030731655	10031328254	596599	1127.12	661.81	46	41	-1	11.86	11.86
Fixation R	1	12	10030731655	10031328254	596599	1127.12	661.81	46	41	-1	12.09	12.09
Saccade L	1	12	10031328254	10031348259	20005	1146.51	675.82	1322.21	678.75	1.16	177.70	1.00	58.20	4368.45	-4208.18	3282.58
Saccade R	1	12	10031328254	10031348259	20005	1146.51	675.82	1322.21	678.75	1.16	177.70	1.00	58.20	4368.45	-4208.18	3282.58
Fixation L	1	13	10031348259	10031547115	198856	1371.09	681.70	60	18	-1	12.70	12.70
Fixation R	1	13	10031348259	10031547115	198856	1371.09	681.70	60	18	-1	12.57	12.57
Saccade L	1	13	10031547115	10031586858	39743	1370.30	687.04	1091.34	692.67	2.99	146.51	1.00	75.34	3472.69	0.00	2192.42
Saccade R	1	13	10031547115	10031586858	39743	1370.30	687.04	1091.34	692.67	2.99	146.51	1.00	75.34	3472.69	0.00	2192.42
