[BeGaze]
Converted from:	C:\Documents and Settings\iViewX\Desktop\EXPERIMENTATIONS\Experiments\results\finaleart\S01A22542-finaleart-1.idf
Date:	27.03.2019 15:33:26
Version:	BeGaze 2.5.77
Sample Rate:	50
Subject:	S01A22542
Description:	Thibault Seve Minnaert

Table Header for Fixations:
Event Type	Trial	Number	Start	End	Duration	Location X	Location Y	Dispersion X	Dispersion Y	Plane	Avg. Pupil Size X	Avg. Pupil Size Y

Table Header for Saccades:
Event Type	Trial	Number	Start	End	Duration	Start Loc.X	Start Loc.Y	End Loc.X	End Loc.Y	Amplitude	Peak Speed	Peak Speed At	Average Speed	Peak Accel.	Peak Decel.	Average Accel.

Table Header for Blinks:
Event Type	Trial	Number	Start	End	Duration

Table Header for User Events:
Event Type	Trial	Number	Start	Description

UserEvent	1	1	10074406723	# Message: void.jpg
Fixation L	1	1	10074418950	10074737422	318472	682.10	927.36	59	39	-1	12.75	12.75
Fixation R	1	1	10074418950	10074737422	318472	682.10	927.36	59	39	-1	12.26	12.26
Saccade L	1	1	10074737422	10074757458	20036	652.82	954.38	643.41	952.45	0.21	14.18	0.00	10.31	89.90	-234.41	132.79
Saccade R	1	1	10074737422	10074757458	20036	652.82	954.38	643.41	952.45	0.21	14.18	0.00	10.31	89.90	-234.41	132.79
Fixation L	1	2	10074757458	10074896796	139338	637.71	965.26	8	23	-1	12.68	12.68
Fixation R	1	2	10074757458	10074896796	139338	637.71	965.26	8	23	-1	12.87	12.87
Blink L	1	1	10074896796	10075175421	278625
Blink R	1	1	10074896796	10075175421	278625
Fixation L	1	3	10075175421	10075533395	357974	944.43	484.66	6	66	-1	13.74	13.74
Fixation R	1	3	10075175421	10075533395	357974	944.43	484.66	6	66	-1	14.16	14.16
Saccade L	1	2	10075533395	10075553267	19872	944.12	482.66	1024.91	336.60	1.07	168.80	1.00	53.77	4125.13	-4052.50	3034.21
Saccade R	1	2	10075533395	10075553267	19872	944.12	482.66	1024.91	336.60	1.07	168.80	1.00	53.77	4125.13	-4052.50	3034.21
Fixation L	1	4	10075553267	10075791995	238728	1064.64	314.30	51	47	-1	13.58	13.58
Fixation R	1	4	10075553267	10075791995	238728	1064.64	314.30	51	47	-1	14.15	14.15
Saccade L	1	3	10075791995	10075891502	99507	1076.52	288.71	874.26	350.70	3.50	136.83	1.00	35.14	3313.03	-3187.85	1540.55
Saccade R	1	3	10075791995	10075891502	99507	1076.52	288.71	874.26	350.70	3.50	136.83	1.00	35.14	3313.03	-3187.85	1540.55
Fixation L	1	5	10075891502	10076149980	258478	856.74	380.61	27	36	-1	13.05	13.05
Fixation R	1	5	10075891502	10076149980	258478	856.74	380.61	27	36	-1	13.48	13.48
Saccade L	1	4	10076149980	10076169851	19871	846.30	378.48	884.43	473.43	0.81	103.50	1.00	40.58	2513.91	-2423.44	2082.45
Saccade R	1	4	10076149980	10076169851	19871	846.30	378.48	884.43	473.43	0.81	103.50	1.00	40.58	2513.91	-2423.44	2082.45
Fixation L	1	6	10076169851	10076388717	218866	936.61	475.04	61	7	-1	13.09	13.09
Fixation R	1	6	10076169851	10076388717	218866	936.61	475.04	61	7	-1	13.96	13.96
