[BeGaze]
Converted from:	C:\Documents and Settings\iViewX\Desktop\EXPERIMENTATIONS\Experiments\results\finaleart\S20H24222-finaleart-1.idf
Date:	27.03.2019 15:52:59
Version:	BeGaze 2.5.77
Sample Rate:	50
Subject:	S20H24222
Description:	Hugo Brument

Table Header for Fixations:
Event Type	Trial	Number	Start	End	Duration	Location X	Location Y	Dispersion X	Dispersion Y	Plane	Avg. Pupil Size X	Avg. Pupil Size Y

Table Header for Saccades:
Event Type	Trial	Number	Start	End	Duration	Start Loc.X	Start Loc.Y	End Loc.X	End Loc.Y	Amplitude	Peak Speed	Peak Speed At	Average Speed	Peak Accel.	Peak Decel.	Average Accel.

Table Header for Blinks:
Event Type	Trial	Number	Start	End	Duration

Table Header for User Events:
Event Type	Trial	Number	Start	Description

UserEvent	1	1	11656298628	# Message: void.jpg
Saccade L	1	1	11656317558	11656357317	39759	591.91	375.14	878.92	450.41	3.31	177.23	1.00	83.24	4430.71	-4130.32	2767.64
Saccade R	1	1	11656317558	11656357317	39759	591.91	375.14	878.92	450.41	3.31	177.23	1.00	83.24	4430.71	-4130.32	2767.64
Fixation L	1	1	11656357317	11656556294	198977	859.46	477.25	27	34	-1	11.65	11.65
Fixation R	1	1	11656357317	11656556294	198977	859.46	477.25	27	34	-1	13.74	13.74
Saccade L	1	2	11656556294	11656596035	39741	860.34	480.51	1052.15	595.75	2.32	144.35	1.00	58.46	3462.07	-3076.82	2622.18
Saccade R	1	2	11656556294	11656596035	39741	860.34	480.51	1052.15	595.75	2.32	144.35	1.00	58.46	3462.07	-3076.82	2622.18
Fixation L	1	2	11656596035	11656735303	139268	1028.37	578.81	31	31	-1	12.43	12.43
Fixation R	1	2	11656596035	11656735303	139268	1028.37	578.81	31	31	-1	13.93	13.93
Blink L	1	1	11656735303	11656834665	99362
Blink R	1	1	11656735303	11656954016	218713
Blink L	1	2	11656854650	11656954016	99366
Fixation L	1	3	11656954016	11657332003	377987	930.58	940.33	77	15	-1	12.79	12.79
Fixation R	1	3	11656954016	11657332003	377987	930.58	940.33	77	15	-1	13.60	13.60
Saccade L	1	3	11657332003	11657371756	39753	982.83	936.04	1198.89	893.75	2.34	176.68	0.50	58.78	4382.59	-4184.76	2477.74
Saccade R	1	3	11657332003	11657371756	39753	982.83	936.04	1198.89	893.75	2.34	176.68	0.50	58.78	4382.59	-4184.76	2477.74
Fixation L	1	4	11657371756	11657829240	457484	1215.51	855.59	24	54	-1	11.83	11.83
Fixation R	1	4	11657371756	11657829240	457484	1215.51	855.59	24	54	-1	12.58	12.58
Saccade L	1	4	11657829240	11657868982	39742	1206.62	854.21	933.35	613.44	3.47	275.29	0.50	87.23	6781.35	-5489.53	4202.98
Saccade R	1	4	11657829240	11657868982	39742	1206.62	854.21	933.35	613.44	3.47	275.29	0.50	87.23	6781.35	-5489.53	4202.98
Fixation L	1	5	11657868982	11658286711	417729	935.28	590.53	5	55	-1	12.49	12.49
Fixation R	1	5	11657868982	11658286711	417729	935.28	590.53	5	55	-1	13.70	13.70
