[BeGaze]
Converted from:	C:\Documents and Settings\iViewX\Desktop\EXPERIMENTATIONS\Experiments\results\finaleart\S20H24222-finaleart-1.idf
Date:	27.03.2019 15:52:42
Version:	BeGaze 2.5.77
Sample Rate:	50
Subject:	S20H24222
Description:	Hugo Brument

Table Header for Fixations:
Event Type	Trial	Number	Start	End	Duration	Location X	Location Y	Dispersion X	Dispersion Y	Plane	Avg. Pupil Size X	Avg. Pupil Size Y

Table Header for Saccades:
Event Type	Trial	Number	Start	End	Duration	Start Loc.X	Start Loc.Y	End Loc.X	End Loc.Y	Amplitude	Peak Speed	Peak Speed At	Average Speed	Peak Accel.	Peak Decel.	Average Accel.

Table Header for Blinks:
Event Type	Trial	Number	Start	End	Duration

Table Header for User Events:
Event Type	Trial	Number	Start	Description

UserEvent	1	1	11372265357	# Message: turner-waves-breaking-against-the-wind-1830.jpg
Fixation L	1	1	11372281430	11372977526	696096	777.53	703.20	28	37	-1	12.57	12.57
Fixation R	1	1	11372281430	11372977526	696096	777.53	703.20	28	37	-1	13.24	13.24
Saccade L	1	1	11372977526	11373017277	39751	773.27	692.11	400.20	666.59	3.40	205.25	1.00	85.47	4747.10	-4849.87	4349.14
Saccade R	1	1	11372977526	11373017277	39751	773.27	692.11	400.20	666.59	3.40	205.25	1.00	85.47	4747.10	-4849.87	4349.14
Fixation L	1	2	11373017277	11373554388	537111	380.85	617.83	31	59	-1	10.52	10.52
Fixation R	1	2	11373017277	11373554388	537111	380.85	617.83	31	59	-1	10.93	10.93
Saccade L	1	2	11373554388	11373594120	39732	370.46	615.88	138.52	568.33	2.11	181.81	1.00	53.18	4322.40	-3701.20	2622.89
Saccade R	1	2	11373554388	11373594120	39732	370.46	615.88	138.52	568.33	2.11	181.81	1.00	53.18	4322.40	-3701.20	2622.89
Fixation L	1	3	11373594120	11373733368	139248	160.17	579.44	37	59	-1	10.25	10.25
Fixation R	1	3	11373594120	11373733368	139248	160.17	579.44	37	59	-1	10.71	10.71
Saccade L	1	3	11373733368	11373812994	79626	176.43	610.02	188.03	175.09	6.46	204.36	0.75	81.16	4666.92	-3872.20	2442.60
Saccade R	1	3	11373733368	11373812994	79626	176.43	610.02	188.03	175.09	6.46	204.36	0.75	81.16	4666.92	-3872.20	2442.60
Fixation L	1	4	11373812994	11374111228	298234	199.35	199.07	40	34	-1	9.65	9.65
Fixation R	1	4	11373812994	11374111228	298234	199.35	199.07	40	34	-1	10.60	10.60
Saccade L	1	4	11374111228	11374151101	39873	197.77	194.57	627.99	222.91	3.75	221.03	1.00	93.96	5360.75	-5129.57	5146.49
Saccade R	1	4	11374111228	11374151101	39873	197.77	194.57	627.99	222.91	3.75	221.03	1.00	93.96	5360.75	-5129.57	5146.49
Fixation L	1	5	11374151101	11374330093	178992	631.97	258.38	8	46	-1	10.37	10.37
Fixation R	1	5	11374151101	11374330093	178992	631.97	258.38	8	46	-1	11.16	11.16
Saccade L	1	5	11374330093	11374389711	59618	636.47	267.47	1138.51	539.74	6.41	369.86	0.67	107.53	9124.52	-8280.17	5078.70
Saccade R	1	5	11374330093	11374389711	59618	636.47	267.47	1138.51	539.74	6.41	369.86	0.67	107.53	9124.52	-8280.17	5078.70
Fixation L	1	6	11374389711	11374668203	278492	1156.05	515.46	24	35	-1	11.34	11.34
Fixation R	1	6	11374389711	11374668203	278492	1156.05	515.46	24	35	-1	11.76	11.76
Saccade L	1	6	11374668203	11374847195	178992	1143.71	519.90	562.25	618.01	11.88	273.26	0.11	66.38	6725.26	-5411.81	2553.36
Saccade R	1	6	11374668203	11374847195	178992	1143.71	519.90	562.25	618.01	11.88	273.26	0.11	66.38	6725.26	-5411.81	2553.36
Fixation L	1	7	11374847195	11375105804	258609	560.05	642.77	28	42	-1	11.77	11.77
Fixation R	1	7	11374847195	11375105804	258609	560.05	642.77	28	42	-1	11.91	11.91
Saccade L	1	7	11375105804	11375165437	59633	551.86	640.24	1225.00	656.83	6.96	425.39	0.67	116.75	10421.72	-10489.70	5823.08
Saccade R	1	7	11375105804	11375165437	59633	551.86	640.24	1225.00	656.83	6.96	425.39	0.67	116.75	10421.72	-10489.70	5823.08
Fixation L	1	8	11375165437	11375483659	318222	1228.82	701.34	26	65	-1	12.52	12.52
Fixation R	1	8	11375165437	11375483659	318222	1228.82	701.34	26	65	-1	12.62	12.62
Saccade L	1	8	11375483659	11375503535	19876	1236.71	701.47	1125.25	538.77	1.12	199.43	1.00	56.11	4829.73	-4791.79	3268.75
Saccade R	1	8	11375483659	11375503535	19876	1236.71	701.47	1125.25	538.77	1.12	199.43	1.00	56.11	4829.73	-4791.79	3268.75
Fixation L	1	9	11375503535	11375921276	417741	1097.17	511.23	36	46	-1	12.51	12.51
Fixation R	1	9	11375503535	11375921276	417741	1097.17	511.23	36	46	-1	12.55	12.55
Saccade L	1	9	11375921276	11375961022	39746	1093.25	497.80	1413.00	625.41	3.34	186.94	0.50	84.06	4477.30	-4312.73	4211.71
Saccade R	1	9	11375921276	11375961022	39746	1093.25	497.80	1413.00	625.41	3.34	186.94	0.50	84.06	4477.30	-4312.73	4211.71
Fixation L	1	10	11375961022	11376179887	218865	1412.73	595.07	7	55	-1	12.65	12.65
Fixation R	1	10	11375961022	11376179887	218865	1412.73	595.07	7	55	-1	12.73	12.73
Saccade L	1	10	11376179887	11376259380	79493	1411.54	594.93	1508.14	864.96	4.59	199.41	0.25	57.70	4968.10	-4610.18	2966.99
Saccade R	1	10	11376179887	11376259380	79493	1411.54	594.93	1508.14	864.96	4.59	199.41	0.25	57.70	4968.10	-4610.18	2966.99
