[BeGaze]
Converted from:	C:\Documents and Settings\iViewX\Desktop\EXPERIMENTATIONS\Experiments\results\finaleart\S20H24222-finaleart-1.idf
Date:	27.03.2019 15:53:44
Version:	BeGaze 2.5.77
Sample Rate:	50
Subject:	S20H24222
Description:	Hugo Brument

Table Header for Fixations:
Event Type	Trial	Number	Start	End	Duration	Location X	Location Y	Dispersion X	Dispersion Y	Plane	Avg. Pupil Size X	Avg. Pupil Size Y

Table Header for Saccades:
Event Type	Trial	Number	Start	End	Duration	Start Loc.X	Start Loc.Y	End Loc.X	End Loc.Y	Amplitude	Peak Speed	Peak Speed At	Average Speed	Peak Accel.	Peak Decel.	Average Accel.

Table Header for Blinks:
Event Type	Trial	Number	Start	End	Duration

Table Header for User Events:
Event Type	Trial	Number	Start	Description

UserEvent	1	1	12151261781	# Message: Nature_morte_a_la_cafetiere_rouge_Vlaminck.jpg
Fixation L	1	1	12151279616	12152015581	735965	850.80	566.31	10	56	-1	13.69	13.69
Fixation R	1	1	12151279616	12152015581	735965	850.80	566.31	10	56	-1	14.37	14.37
Saccade L	1	1	12152015581	12152055326	39745	857.41	544.94	1017.88	688.92	2.21	139.59	0.50	55.67	3214.89	-3241.13	2907.01
Saccade R	1	1	12152015581	12152055326	39745	857.41	544.94	1017.88	688.92	2.21	139.59	0.50	55.67	3214.89	-3241.13	2907.01
Fixation L	1	2	12152055326	12152433312	377986	1029.98	673.40	17	52	-1	10.72	10.72
Fixation R	1	2	12152055326	12152433312	377986	1029.98	673.40	17	52	-1	10.95	10.95
Saccade L	1	2	12152433312	12152453184	19872	1029.57	645.34	1021.76	606.85	0.40	39.72	1.00	20.18	863.56	-470.72	477.93
Saccade R	1	2	12152433312	12152453184	19872	1029.57	645.34	1021.76	606.85	0.40	39.72	1.00	20.18	863.56	-470.72	477.93
Fixation L	1	3	12152453184	12152632180	178996	1012.46	592.36	19	24	-1	10.62	10.62
Fixation R	1	3	12152453184	12152632180	178996	1012.46	592.36	19	24	-1	10.94	10.94
Saccade L	1	3	12152632180	12152671921	39741	1003.01	594.83	591.81	507.26	3.94	255.65	1.00	99.05	6262.11	-6322.90	4898.56
Saccade R	1	3	12152632180	12152671921	39741	1003.01	594.83	591.81	507.26	3.94	255.65	1.00	99.05	6262.11	-6322.90	4898.56
Fixation L	1	4	12152671921	12152771419	99498	546.48	504.97	61	21	-1	11.30	11.30
Fixation R	1	4	12152671921	12152771419	99498	546.48	504.97	61	21	-1	11.80	11.80
Saccade L	1	4	12152771419	12152791295	19876	548.91	519.16	554.97	550.74	0.47	32.53	1.00	23.79	598.47	-698.88	498.53
Saccade R	1	4	12152771419	12152791295	19876	548.91	519.16	554.97	550.74	0.47	32.53	1.00	23.79	598.47	-698.88	498.53
Fixation L	1	5	12152791295	12153407893	616598	543.86	529.80	15	34	-1	11.90	11.90
Fixation R	1	5	12152791295	12153407893	616598	543.86	529.80	15	34	-1	12.52	12.52
Saccade L	1	5	12153407893	12153447666	39773	539.04	536.81	798.92	541.77	2.28	152.33	0.50	57.45	3747.92	-3483.56	3040.72
Saccade R	1	5	12153407893	12153447666	39773	539.04	536.81	798.92	541.77	2.28	152.33	0.50	57.45	3747.92	-3483.56	3040.72
Fixation L	1	6	12153447666	12153746002	298336	787.04	565.66	17	35	-1	12.67	12.67
Fixation R	1	6	12153447666	12153746002	298336	787.04	565.66	17	35	-1	13.46	13.46
Saccade L	1	6	12153746002	12153785877	39875	784.32	564.39	1253.94	590.86	3.91	263.82	1.00	98.10	6500.69	-6511.47	5830.13
Saccade R	1	6	12153746002	12153785877	39875	784.32	564.39	1253.94	590.86	3.91	263.82	1.00	98.10	6500.69	-6511.47	5830.13
Fixation L	1	7	12153785877	12154402348	616471	1233.75	616.69	36	61	-1	12.84	12.84
Fixation R	1	7	12153785877	12154402348	616471	1233.75	616.69	36	61	-1	13.11	13.11
Saccade L	1	7	12154402348	12154501847	99499	1220.18	643.38	1110.79	650.74	1.79	104.96	1.00	18.00	2575.25	-2366.13	767.14
Saccade R	1	7	12154402348	12154501847	99499	1220.18	643.38	1110.79	650.74	1.79	104.96	1.00	18.00	2575.25	-2366.13	767.14
Fixation L	1	8	12154501847	12154720704	218857	1088.36	639.10	30	28	-1	13.53	13.53
Fixation R	1	8	12154501847	12154720704	218857	1088.36	639.10	30	28	-1	13.63	13.63
Saccade L	1	8	12154720704	12154760456	39752	1080.56	635.65	827.40	583.14	2.16	140.78	0.50	54.40	3494.54	-3368.93	3076.62
Saccade R	1	8	12154720704	12154760456	39752	1080.56	635.65	827.40	583.14	2.16	140.78	0.50	54.40	3494.54	-3368.93	3076.62
Fixation L	1	9	12154760456	12155098566	338110	834.02	542.91	11	63	-1	13.07	13.07
Fixation R	1	9	12154760456	12155098566	338110	834.02	542.91	11	63	-1	13.32	13.32
Saccade L	1	9	12155098566	12155138318	39752	832.95	542.40	516.27	483.37	2.76	169.75	1.00	69.49	4151.97	-3796.73	3862.00
Saccade R	1	9	12155098566	12155138318	39752	832.95	542.40	516.27	483.37	2.76	169.75	1.00	69.49	4151.97	-3796.73	3862.00
Fixation L	1	10	12155138318	12155257686	119368	499.32	466.03	24	38	-1	11.62	11.62
Fixation R	1	10	12155138318	12155257686	119368	499.32	466.03	24	38	-1	12.17	12.17
