[BeGaze]
Converted from:	C:\Documents and Settings\iViewX\Desktop\EXPERIMENTATIONS\Experiments\results\finaleart\S20H24222-finaleart-1.idf
Date:	27.03.2019 15:52:48
Version:	BeGaze 2.5.77
Sample Rate:	50
Subject:	S20H24222
Description:	Hugo Brument

Table Header for Fixations:
Event Type	Trial	Number	Start	End	Duration	Location X	Location Y	Dispersion X	Dispersion Y	Plane	Avg. Pupil Size X	Avg. Pupil Size Y

Table Header for Saccades:
Event Type	Trial	Number	Start	End	Duration	Start Loc.X	Start Loc.Y	End Loc.X	End Loc.Y	Amplitude	Peak Speed	Peak Speed At	Average Speed	Peak Accel.	Peak Decel.	Average Accel.

Table Header for Blinks:
Event Type	Trial	Number	Start	End	Duration

Table Header for User Events:
Event Type	Trial	Number	Start	Description

UserEvent	1	1	11412999465	# Message: void.jpg
Fixation L	1	1	11413016282	11413155714	139432	1275.38	132.27	5	23	-1	12.16	12.16
Fixation R	1	1	11413016282	11413155714	139432	1275.38	132.27	5	23	-1	12.53	12.53
Saccade L	1	1	11413155714	11413195270	39556	1272.10	138.35	1111.92	268.08	2.05	156.53	0.50	51.94	3569.40	-3694.01	2653.10
Saccade R	1	1	11413155714	11413195270	39556	1272.10	138.35	1111.92	268.08	2.05	156.53	0.50	51.94	3569.40	-3694.01	2653.10
Fixation L	1	2	11413195270	11413453884	258614	1105.59	275.33	14	19	-1	12.70	12.70
Fixation R	1	2	11413195270	11413453884	258614	1105.59	275.33	14	19	-1	13.32	13.32
Blink L	1	1	11413453884	11413632882	178998
Blink R	1	1	11413453884	11413632882	178998
Fixation L	1	3	11413632882	11413851744	218862	927.37	627.86	14	41	-1	12.94	12.94
Fixation R	1	3	11413632882	11413851744	218862	927.37	627.86	14	41	-1	12.80	12.80
Saccade L	1	2	11413851744	11413891493	39749	928.08	639.76	600.22	828.39	3.30	206.51	1.00	83.13	5131.74	-4788.59	4601.83
Saccade R	1	2	11413851744	11413891493	39749	928.08	639.76	600.22	828.39	3.30	206.51	1.00	83.13	5131.74	-4788.59	4601.83
Fixation L	1	4	11413891493	11414209727	318234	623.47	853.37	35	40	-1	12.76	12.76
Fixation R	1	4	11413891493	11414209727	318234	623.47	853.37	35	40	-1	13.30	13.30
Saccade L	1	3	11414209727	11414249473	39746	632.94	869.30	987.90	770.06	3.04	222.60	0.50	76.46	5497.43	-5455.72	4532.35
Saccade R	1	3	11414209727	11414249473	39746	632.94	869.30	987.90	770.06	3.04	222.60	0.50	76.46	5497.43	-5455.72	4532.35
Fixation L	1	5	11414249473	11414766708	517235	988.67	747.37	11	41	-1	13.19	13.19
Fixation R	1	5	11414249473	11414766708	517235	988.67	747.37	11	41	-1	13.42	13.42
Saccade L	1	4	11414766708	11414786579	19871	991.23	739.81	899.08	729.18	0.68	93.83	1.00	34.31	2266.15	-2179.12	1777.79
Saccade R	1	4	11414766708	11414786579	19871	991.23	739.81	899.08	729.18	0.68	93.83	1.00	34.31	2266.15	-2179.12	1777.79
Fixation L	1	6	11414786579	11414985452	198873	888.52	701.67	17	48	-1	13.36	13.36
Fixation R	1	6	11414786579	11414985452	198873	888.52	701.67	17	48	-1	13.63	13.63
