[BeGaze]
Converted from:	C:\Documents and Settings\iViewX\Desktop\EXPERIMENTATIONS\Experiments\results\finaleart\S20H24222-finaleart-1.idf
Date:	27.03.2019 15:52:45
Version:	BeGaze 2.5.77
Sample Rate:	50
Subject:	S20H24222
Description:	Hugo Brument

Table Header for Fixations:
Event Type	Trial	Number	Start	End	Duration	Location X	Location Y	Dispersion X	Dispersion Y	Plane	Avg. Pupil Size X	Avg. Pupil Size Y

Table Header for Saccades:
Event Type	Trial	Number	Start	End	Duration	Start Loc.X	Start Loc.Y	End Loc.X	End Loc.Y	Amplitude	Peak Speed	Peak Speed At	Average Speed	Peak Accel.	Peak Decel.	Average Accel.

Table Header for Blinks:
Event Type	Trial	Number	Start	End	Duration

Table Header for User Events:
Event Type	Trial	Number	Start	Description

UserEvent	1	1	11390636458	# Message: storm_off_normandy_cost_isabey_1850.jpg
Fixation L	1	1	11390640004	11390838874	198870	708.58	557.73	7	10	-1	12.58	12.58
Fixation R	1	1	11390640004	11390838874	198870	708.58	557.73	7	10	-1	14.49	14.49
Saccade L	1	1	11390838874	11390858747	19873	706.32	560.34	842.13	564.55	0.75	137.43	1.00	37.93	3368.93	-3050.47	2203.07
Saccade R	1	1	11390838874	11390858747	19873	706.32	560.34	842.13	564.55	0.75	137.43	1.00	37.93	3368.93	-3050.47	2203.07
Fixation L	1	2	11390858747	11391256489	397742	839.10	561.19	19	36	-1	12.49	12.49
Fixation R	1	2	11390858747	11391256489	397742	839.10	561.19	19	36	-1	14.16	14.16
Saccade L	1	2	11391256489	11391316225	59736	830.21	570.80	230.90	635.99	7.13	367.78	0.67	119.36	8827.85	-7489.40	4808.61
Saccade R	1	2	11391256489	11391316225	59736	830.21	570.80	230.90	635.99	7.13	367.78	0.67	119.36	8827.85	-7489.40	4808.61
Fixation L	1	3	11391316225	11391534967	218742	183.14	626.10	63	35	-1	12.71	12.71
Fixation R	1	3	11391316225	11391534967	218742	183.14	626.10	63	35	-1	14.62	14.62
Saccade L	1	3	11391534967	11391554836	19869	178.27	634.93	177.38	636.89	0.04	3.30	1.00	2.22	25.11	-28.18	25.93
Saccade R	1	3	11391534967	11391554836	19869	178.27	634.93	177.38	636.89	0.04	3.30	1.00	2.22	25.11	-28.18	25.93
Fixation L	1	4	11391554836	11392171443	616607	184.66	644.82	36	28	-1	12.68	12.68
Fixation R	1	4	11391554836	11392171443	616607	184.66	644.82	36	28	-1	15.00	15.00
Saccade L	1	4	11392171443	11392231187	59744	206.79	646.42	1040.53	622.42	8.58	499.03	0.67	143.63	12301.09	-12335.05	6902.08
Saccade R	1	4	11392171443	11392231187	59744	206.79	646.42	1040.53	622.42	8.58	499.03	0.67	143.63	12301.09	-12335.05	6902.08
Fixation L	1	5	11392231187	11392449928	218741	1050.17	604.69	21	34	-1	13.06	13.06
Fixation R	1	5	11392231187	11392449928	218741	1050.17	604.69	21	34	-1	14.89	14.89
Saccade L	1	5	11392449928	11392469796	19868	1061.73	590.36	1180.60	474.22	1.18	168.07	1.00	59.23	4044.81	-4010.63	3159.49
Saccade R	1	5	11392449928	11392469796	19868	1061.73	590.36	1180.60	474.22	1.18	168.07	1.00	59.23	4044.81	-4010.63	3159.49
Fixation L	1	6	11392469796	11392788034	318238	1203.25	432.34	36	52	-1	13.13	13.13
Fixation R	1	6	11392469796	11392788034	318238	1203.25	432.34	36	52	-1	14.95	14.95
Saccade L	1	6	11392788034	11392807913	19879	1210.20	422.05	1229.83	412.34	0.37	28.86	1.00	18.39	438.23	136.24	282.67
Saccade R	1	6	11392788034	11392807913	19879	1210.20	422.05	1229.83	412.34	0.37	28.86	1.00	18.39	438.23	136.24	282.67
Fixation L	1	7	11392807913	11393245539	437626	1246.72	387.35	27	40	-1	12.85	12.85
Fixation R	1	7	11392807913	11393245539	437626	1246.72	387.35	27	40	-1	14.49	14.49
Saccade L	1	7	11393245539	11393285269	39730	1252.95	377.66	1279.38	698.75	2.70	184.11	1.00	67.86	4514.24	-4218.78	3947.81
Saccade R	1	7	11393245539	11393285269	39730	1252.95	377.66	1279.38	698.75	2.70	184.11	1.00	67.86	4514.24	-4218.78	3947.81
Fixation L	1	8	11393285269	11393504131	218862	1296.23	727.49	40	57	-1	13.56	13.56
Fixation R	1	8	11393285269	11393504131	218862	1296.23	727.49	40	57	-1	14.85	14.85
Saccade L	1	8	11393504131	11393524007	19876	1316.82	732.42	1322.26	735.17	0.22	27.42	1.00	11.14	640.55	-75.22	274.86
Saccade R	1	8	11393504131	11393524007	19876	1316.82	732.42	1322.26	735.17	0.22	27.42	1.00	11.14	640.55	-75.22	274.86
Fixation L	1	9	11393524007	11393941760	417753	1325.03	683.47	5	74	-1	13.23	13.23
Fixation R	1	9	11393524007	11393941760	417753	1325.03	683.47	5	74	-1	14.44	14.44
Saccade L	1	9	11393941760	11393981486	39726	1326.05	677.26	1100.52	892.92	2.68	252.15	0.50	67.49	6284.58	-6021.67	3774.10
Saccade R	1	9	11393941760	11393981486	39726	1326.05	677.26	1100.52	892.92	2.68	252.15	0.50	67.49	6284.58	-6021.67	3774.10
Fixation L	1	10	11393981486	11394279847	298361	1085.00	907.76	29	40	-1	12.84	12.84
Fixation R	1	10	11393981486	11394279847	298361	1085.00	907.76	29	40	-1	13.94	13.94
Saccade L	1	10	11394279847	11394299719	19872	1072.10	933.79	1230.00	990.69	1.11	169.74	1.00	55.62	4179.97	-3955.17	2868.64
Saccade R	1	10	11394279847	11394299719	19872	1072.10	933.79	1230.00	990.69	1.11	169.74	1.00	55.62	4179.97	-3955.17	2868.64
Fixation L	1	11	11394299719	11394438969	139250	1207.02	1010.11	30	31	-1	13.30	13.30
Fixation R	1	11	11394299719	11394438969	139250	1207.02	1010.11	30	31	-1	14.25	14.25
Saccade L	1	11	11394438969	11394478713	39744	1206.31	1014.87	749.93	1056.82	3.83	306.02	0.50	96.36	7534.43	-7501.11	5636.58
Saccade R	1	11	11394438969	11394478713	39744	1206.31	1014.87	749.93	1056.82	3.83	306.02	0.50	96.36	7534.43	-7501.11	5636.58
Fixation L	1	12	11394478713	11394617954	139241	751.56	1062.96	4	16	-1	13.55	13.55
Fixation R	1	12	11394478713	11394617954	139241	751.56	1062.96	4	16	-1	15.06	15.06
