[BeGaze]
Converted from:	C:\Documents and Settings\iViewX\Desktop\EXPERIMENTATIONS\Experiments\results\finaleart\S20H24222-finaleart-1.idf
Date:	27.03.2019 15:53:52
Version:	BeGaze 2.5.77
Sample Rate:	50
Subject:	S20H24222
Description:	Hugo Brument

Table Header for Fixations:
Event Type	Trial	Number	Start	End	Duration	Location X	Location Y	Dispersion X	Dispersion Y	Plane	Avg. Pupil Size X	Avg. Pupil Size Y

Table Header for Saccades:
Event Type	Trial	Number	Start	End	Duration	Start Loc.X	Start Loc.Y	End Loc.X	End Loc.Y	Amplitude	Peak Speed	Peak Speed At	Average Speed	Peak Accel.	Peak Decel.	Average Accel.

Table Header for Blinks:
Event Type	Trial	Number	Start	End	Duration

Table Header for User Events:
Event Type	Trial	Number	Start	Description

UserEvent	1	1	12210311824	# Message: void.jpg
Fixation L	1	1	12210313558	12210790895	477337	850.03	541.53	8	27	-1	11.28	11.28
Fixation R	1	1	12210313558	12210790895	477337	850.03	541.53	8	27	-1	14.39	14.39
Blink L	1	1	12210790895	12210969878	178983
Blink R	1	1	12210790895	12210969878	178983
Fixation L	1	2	12210969878	12211407489	437611	995.65	738.19	11	71	-1	13.05	13.05
Fixation R	1	2	12210969878	12211407489	437611	995.65	738.19	11	71	-1	12.15	12.15
Saccade L	1	1	12211407489	12211447240	39751	1000.13	744.60	875.18	732.95	1.21	67.86	1.00	30.34	1580.57	-1592.31	1406.42
Saccade R	1	1	12211407489	12211447240	39751	1000.13	744.60	875.18	732.95	1.21	67.86	1.00	30.34	1580.57	-1592.31	1406.42
Fixation L	1	3	12211447240	12211765478	318238	869.04	697.22	21	53	-1	12.16	12.16
Fixation R	1	3	12211447240	12211765478	318238	869.04	697.22	21	53	-1	11.63	11.63
Saccade L	1	2	12211765478	12211785351	19873	853.96	679.37	730.15	678.51	0.82	125.23	1.00	41.14	3015.69	-2663.81	1934.31
Saccade R	1	2	12211765478	12211785351	19873	853.96	679.37	730.15	678.51	0.82	125.23	1.00	41.14	3015.69	-2663.81	1934.31
Fixation L	1	4	12211785351	12212103582	318231	733.09	664.16	16	22	-1	12.64	12.64
Fixation R	1	4	12211785351	12212103582	318231	733.09	664.16	16	22	-1	12.67	12.67
Saccade L	1	3	12212103582	12212123459	19877	734.65	667.04	847.99	657.14	0.71	115.08	1.00	35.57	2822.88	-2717.04	1938.73
Saccade R	1	3	12212103582	12212123459	19877	734.65	667.04	847.99	657.14	0.71	115.08	1.00	35.57	2822.88	-2717.04	1938.73
Fixation L	1	5	12212123459	12212302453	178994	856.04	658.63	17	19	-1	13.25	13.25
Fixation R	1	5	12212123459	12212302453	178994	856.04	658.63	17	19	-1	13.04	13.04
