[BeGaze]
Converted from:	C:\Documents and Settings\iViewX\Desktop\EXPERIMENTATIONS\Experiments\results\finaleart\S20H24222-finaleart-1.idf
Date:	27.03.2019 15:53:46
Version:	BeGaze 2.5.77
Sample Rate:	50
Subject:	S20H24222
Description:	Hugo Brument

Table Header for Fixations:
Event Type	Trial	Number	Start	End	Duration	Location X	Location Y	Dispersion X	Dispersion Y	Plane	Avg. Pupil Size X	Avg. Pupil Size Y

Table Header for Saccades:
Event Type	Trial	Number	Start	End	Duration	Start Loc.X	Start Loc.Y	End Loc.X	End Loc.Y	Amplitude	Peak Speed	Peak Speed At	Average Speed	Peak Accel.	Peak Decel.	Average Accel.

Table Header for Blinks:
Event Type	Trial	Number	Start	End	Duration

Table Header for User Events:
Event Type	Trial	Number	Start	Description

UserEvent	1	1	12167534773	# Message: void.jpg
Fixation L	1	1	12167549785	12167927635	377850	1201.66	191.41	9	34	-1	11.90	11.90
Fixation R	1	1	12167549785	12167927635	377850	1201.66	191.41	9	34	-1	11.91	11.91
Blink L	1	1	12167927635	12168225993	298358
Blink R	1	1	12167927635	12168225993	298358
Fixation L	1	2	12168225993	12169140959	914966	934.82	767.14	21	18	-1	13.22	13.22
Fixation R	1	2	12168225993	12169140959	914966	934.82	767.14	21	18	-1	13.58	13.58
Saccade L	1	1	12169140959	12169160833	19874	925.46	765.78	893.01	620.04	1.07	151.01	1.00	54.03	3694.32	-3377.42	2701.22
Saccade R	1	1	12169140959	12169160833	19874	925.46	765.78	893.01	620.04	1.07	151.01	1.00	54.03	3694.32	-3377.42	2701.22
Fixation L	1	3	12169160833	12169300079	139246	873.49	571.53	33	65	-1	13.10	13.10
Fixation R	1	3	12169160833	12169300079	139246	873.49	571.53	33	65	-1	13.62	13.62
Saccade L	1	2	12169300079	12169379696	79617	859.08	567.53	910.96	551.17	1.77	60.79	1.00	22.21	1339.83	-664.79	588.55
Saccade R	1	2	12169300079	12169379696	79617	859.08	567.53	910.96	551.17	1.77	60.79	1.00	22.21	1339.83	-664.79	588.55
Fixation L	1	4	12169379696	12169518952	139256	915.85	501.41	36	61	-1	12.98	12.98
Fixation R	1	4	12169379696	12169518952	139256	915.85	501.41	36	61	-1	13.40	13.40
