[BeGaze]
Converted from:	C:\Documents and Settings\iViewX\Desktop\EXPERIMENTATIONS\Experiments\results\finaleart\S20H24222-finaleart-1.idf
Date:	27.03.2019 15:52:18
Version:	BeGaze 2.5.77
Sample Rate:	50
Subject:	S20H24222
Description:	Hugo Brument

Table Header for Fixations:
Event Type	Trial	Number	Start	End	Duration	Location X	Location Y	Dispersion X	Dispersion Y	Plane	Avg. Pupil Size X	Avg. Pupil Size Y

Table Header for Saccades:
Event Type	Trial	Number	Start	End	Duration	Start Loc.X	Start Loc.Y	End Loc.X	End Loc.Y	Amplitude	Peak Speed	Peak Speed At	Average Speed	Peak Accel.	Peak Decel.	Average Accel.

Table Header for Blinks:
Event Type	Trial	Number	Start	End	Duration

Table Header for User Events:
Event Type	Trial	Number	Start	Description

UserEvent	1	1	11140312415	# Message: void.jpg
Fixation L	1	1	11140321938	11140779401	457463	1259.54	164.99	10	23	-1	12.39	12.39
Fixation R	1	1	11140321938	11140779401	457463	1259.54	164.99	10	23	-1	13.28	13.28
Saccade L	1	1	11140779401	11140839147	59746	1254.33	175.38	1248.56	432.88	2.95	115.33	0.67	49.30	2778.01	-2502.26	1718.43
Saccade R	1	1	11140779401	11140839147	59746	1254.33	175.38	1248.56	432.88	2.95	115.33	0.67	49.30	2778.01	-2502.26	1718.43
Fixation L	1	2	11140839147	11141057895	218748	1227.58	456.15	32	48	-1	13.02	13.02
Fixation R	1	2	11140839147	11141057895	218748	1227.58	456.15	32	48	-1	14.15	14.15
Blink L	1	1	11141057895	11141217007	159112
Blink R	1	1	11141057895	11141217007	159112
Fixation L	1	3	11141217007	11141614856	397849	1186.44	413.19	25	24	-1	12.97	12.97
Fixation R	1	3	11141217007	11141614856	397849	1186.44	413.19	25	24	-1	13.90	13.90
Saccade L	1	2	11141614856	11141634739	19883	1181.95	417.71	998.63	426.13	1.16	185.58	1.00	58.36	4575.01	-4048.24	3203.71
Saccade R	1	2	11141614856	11141634739	19883	1181.95	417.71	998.63	426.13	1.16	185.58	1.00	58.36	4575.01	-4048.24	3203.71
Fixation L	1	4	11141634739	11141734108	99369	962.12	458.38	49	45	-1	13.08	13.08
Fixation R	1	4	11141634739	11141734108	99369	962.12	458.38	49	45	-1	14.08	14.08
Saccade L	1	3	11141734108	11141753988	19880	951.37	470.40	951.21	482.33	0.18	12.97	1.00	9.25	324.16	-164.51	170.36
Saccade R	1	3	11141734108	11141753988	19880	951.37	470.40	951.21	482.33	0.18	12.97	1.00	9.25	324.16	-164.51	170.36
Fixation L	1	5	11141753988	11142211466	457478	944.48	493.78	13	27	-1	12.85	12.85
Fixation R	1	5	11141753988	11142211466	457478	944.48	493.78	13	27	-1	14.07	14.07
Saccade L	1	4	11142211466	11142310961	99495	942.65	502.41	1015.22	514.05	1.53	72.03	0.20	15.36	1739.01	-1645.28	623.65
Saccade R	1	4	11142211466	11142310961	99495	942.65	502.41	1015.22	514.05	1.53	72.03	0.20	15.36	1739.01	-1645.28	623.65
