[BeGaze]
Converted from:	C:\Documents and Settings\iViewX\Desktop\EXPERIMENTATIONS\Experiments\results\finaleart\S20H24222-finaleart-1.idf
Date:	27.03.2019 15:53:47
Version:	BeGaze 2.5.77
Sample Rate:	50
Subject:	S20H24222
Description:	Hugo Brument

Table Header for Fixations:
Event Type	Trial	Number	Start	End	Duration	Location X	Location Y	Dispersion X	Dispersion Y	Plane	Avg. Pupil Size X	Avg. Pupil Size Y

Table Header for Saccades:
Event Type	Trial	Number	Start	End	Duration	Start Loc.X	Start Loc.Y	End Loc.X	End Loc.Y	Amplitude	Peak Speed	Peak Speed At	Average Speed	Peak Accel.	Peak Decel.	Average Accel.

Table Header for Blinks:
Event Type	Trial	Number	Start	End	Duration

Table Header for User Events:
Event Type	Trial	Number	Start	Description

UserEvent	1	1	12169606150	# Message: Ma_Maison_Martin_XXXX.jpg
Fixation L	1	1	12169618320	12170135574	517254	929.77	512.88	22	74	-1	13.46	13.46
Fixation R	1	1	12169618320	12170135574	517254	929.77	512.88	22	74	-1	13.87	13.87
Saccade L	1	1	12170135574	12170155417	19843	936.73	481.71	843.44	500.80	0.67	96.32	1.00	33.67	2359.76	-1976.61	1528.80
Saccade R	1	1	12170135574	12170155417	19843	936.73	481.71	843.44	500.80	0.67	96.32	1.00	33.67	2359.76	-1976.61	1528.80
Fixation L	1	2	12170155417	12170374161	218744	828.67	501.43	24	22	-1	12.20	12.20
Fixation R	1	2	12170155417	12170374161	218744	828.67	501.43	24	22	-1	12.60	12.60
Saccade L	1	2	12170374161	12170413905	39744	846.84	501.44	1327.38	506.67	4.20	297.06	0.50	105.74	7254.58	-7150.57	5795.03
Saccade R	1	2	12170374161	12170413905	39744	846.84	501.44	1327.38	506.67	4.20	297.06	0.50	105.74	7254.58	-7150.57	5795.03
Fixation L	1	3	12170413905	12170931133	517228	1318.10	523.46	45	33	-1	12.21	12.21
Fixation R	1	3	12170413905	12170931133	517228	1318.10	523.46	45	33	-1	12.09	12.09
Saccade L	1	3	12170931133	12170950998	19865	1281.99	540.10	1176.62	544.76	0.68	106.68	1.00	34.46	2612.54	-2531.54	1914.69
Saccade R	1	3	12170931133	12170950998	19865	1281.99	540.10	1176.62	544.76	0.68	106.68	1.00	34.46	2612.54	-2531.54	1914.69
Fixation L	1	4	12170950998	12171289110	338112	1168.52	542.83	18	24	-1	12.93	12.93
Fixation R	1	4	12170950998	12171289110	338112	1168.52	542.83	18	24	-1	12.71	12.71
Saccade L	1	4	12171289110	12171308990	19880	1168.77	528.56	1361.41	518.40	1.06	195.07	1.00	53.27	4746.36	-4574.73	3158.34
Saccade R	1	4	12171289110	12171308990	19880	1168.77	528.56	1361.41	518.40	1.06	195.07	1.00	53.27	4746.36	-4574.73	3158.34
Fixation L	1	5	12171308990	12171766469	457479	1379.76	503.11	26	30	-1	13.14	13.14
Fixation R	1	5	12171308990	12171766469	457479	1379.76	503.11	26	30	-1	12.99	12.99
Saccade L	1	5	12171766469	12171806214	39745	1382.55	487.91	822.20	477.42	4.80	311.58	0.50	120.87	7660.23	-7252.15	6807.92
Saccade R	1	5	12171766469	12171806214	39745	1382.55	487.91	822.20	477.42	4.80	311.58	0.50	120.87	7660.23	-7252.15	6807.92
Fixation L	1	6	12171806214	12172044952	238738	784.38	450.58	46	50	-1	12.60	12.60
Fixation R	1	6	12171806214	12172044952	238738	784.38	450.58	46	50	-1	12.56	12.56
Saccade L	1	6	12172044952	12172124455	79503	777.27	432.75	454.00	396.88	4.07	244.40	0.75	51.17	5886.90	-5975.30	2659.49
Saccade R	1	6	12172044952	12172124455	79503	777.27	432.75	454.00	396.88	4.07	244.40	0.75	51.17	5886.90	-5975.30	2659.49
Fixation L	1	7	12172124455	12172402944	278489	468.42	387.51	28	70	-1	11.50	11.50
Fixation R	1	7	12172124455	12172402944	278489	468.42	387.51	28	70	-1	12.16	12.16
Saccade L	1	7	12172402944	12172423106	20162	465.49	342.00	454.25	297.16	0.51	46.76	1.00	25.14	714.76	-1001.85	783.38
Saccade R	1	7	12172402944	12172423106	20162	465.49	342.00	454.25	297.16	0.51	46.76	1.00	25.14	714.76	-1001.85	783.38
Fixation L	1	8	12172423106	12172581930	158824	451.05	291.16	15	11	-1	11.26	11.26
Fixation R	1	8	12172423106	12172581930	158824	451.05	291.16	15	11	-1	12.12	12.12
Saccade L	1	8	12172581930	12172641680	59750	452.43	293.22	1415.17	316.85	10.04	392.11	0.67	168.11	9618.02	-9363.74	7005.75
Saccade R	1	8	12172581930	12172641680	59750	452.43	293.22	1415.17	316.85	10.04	392.11	0.67	168.11	9618.02	-9363.74	7005.75
Fixation L	1	9	12172641680	12173039413	397733	1417.57	339.45	20	58	-1	12.13	12.13
Fixation R	1	9	12172641680	12173039413	397733	1417.57	339.45	20	58	-1	12.26	12.26
Saccade L	1	9	12173039413	12173158786	119373	1411.24	360.42	1008.94	949.24	11.03	256.14	0.50	92.42	4955.74	-3423.78	2519.58
Saccade R	1	9	12173039413	12173158786	119373	1411.24	360.42	1008.94	949.24	11.03	256.14	0.50	92.42	4955.74	-3423.78	2519.58
Fixation L	1	10	12173158786	12173596390	437604	978.16	965.61	39	26	-1	12.77	12.77
Fixation R	1	10	12173158786	12173596390	437604	978.16	965.61	39	26	-1	12.74	12.74
