[BeGaze]
Converted from:	C:\Documents and Settings\iViewX\Desktop\EXPERIMENTATIONS\Experiments\results\finaleart\S20H24222-finaleart-1.idf
Date:	27.03.2019 15:54:09
Version:	BeGaze 2.5.77
Sample Rate:	50
Subject:	S20H24222
Description:	Hugo Brument

Table Header for Fixations:
Event Type	Trial	Number	Start	End	Duration	Location X	Location Y	Dispersion X	Dispersion Y	Plane	Avg. Pupil Size X	Avg. Pupil Size Y

Table Header for Saccades:
Event Type	Trial	Number	Start	End	Duration	Start Loc.X	Start Loc.Y	End Loc.X	End Loc.Y	Amplitude	Peak Speed	Peak Speed At	Average Speed	Peak Accel.	Peak Decel.	Average Accel.

Table Header for Blinks:
Event Type	Trial	Number	Start	End	Duration

Table Header for User Events:
Event Type	Trial	Number	Start	Description

UserEvent	1	1	12354202415	# Message: Poppy_Fields_near_Argenteuil_Monet_1875.jpg
Fixation L	1	1	12354219767	12354478385	258618	775.97	593.94	71	7	-1	13.16	13.16
Fixation R	1	1	12354219767	12354478385	258618	775.97	593.94	71	7	-1	13.32	13.32
Saccade L	1	1	12354478385	12354498256	19871	834.80	589.40	862.45	584.64	0.58	72.33	0.00	28.94	625.16	-1516.24	868.69
Saccade R	1	1	12354478385	12354498256	19871	834.80	589.40	862.45	584.64	0.58	72.33	0.00	28.94	625.16	-1516.24	868.69
Fixation L	1	2	12354498256	12354717063	218807	863.84	574.14	25	44	-1	13.02	13.02
Fixation R	1	2	12354498256	12354717063	218807	863.84	574.14	25	44	-1	13.40	13.40
Saccade L	1	2	12354717063	12354756756	39693	872.10	566.72	1198.17	713.04	3.72	271.06	0.50	93.79	6481.54	-5219.34	3851.72
Saccade R	1	2	12354717063	12354756756	39693	872.10	566.72	1198.17	713.04	3.72	271.06	0.50	93.79	6481.54	-5219.34	3851.72
Fixation L	1	3	12354756756	12354935742	178986	1193.68	738.39	32	58	-1	11.89	11.89
Fixation R	1	3	12354756756	12354935742	178986	1193.68	738.39	32	58	-1	11.85	11.85
Saccade L	1	3	12354935742	12354955748	20006	1210.17	726.17	1250.36	749.32	0.41	46.92	1.00	20.68	1098.33	-1068.83	805.09
Saccade R	1	3	12354935742	12354955748	20006	1210.17	726.17	1250.36	749.32	0.41	46.92	1.00	20.68	1098.33	-1068.83	805.09
Fixation L	1	4	12354955748	12355691582	735834	1285.85	739.22	48	28	-1	11.04	11.04
Fixation R	1	4	12354955748	12355691582	735834	1285.85	739.22	48	28	-1	10.61	10.61
Saccade L	1	4	12355691582	12355731453	39871	1271.56	756.86	899.19	738.84	3.16	222.52	0.50	79.28	5472.68	-5437.84	4578.10
Saccade R	1	4	12355691582	12355731453	39871	1271.56	756.86	899.19	738.84	3.16	222.52	0.50	79.28	5472.68	-5437.84	4578.10
Fixation L	1	5	12355731453	12356009821	278368	896.41	713.14	8	39	-1	11.59	11.59
Fixation R	1	5	12355731453	12356009821	278368	896.41	713.14	8	39	-1	11.26	11.26
Saccade L	1	5	12356009821	12356049695	39874	896.29	699.02	598.44	417.35	3.55	254.72	0.50	89.15	6294.34	-6240.96	5344.93
Saccade R	1	5	12356009821	12356049695	39874	896.29	699.02	598.44	417.35	3.55	254.72	0.50	89.15	6294.34	-6240.96	5344.93
Fixation L	1	6	12356049695	12356248555	198860	595.09	419.58	7	19	-1	11.55	11.55
Fixation R	1	6	12356049695	12356248555	198860	595.09	419.58	7	19	-1	11.73	11.73
Saccade L	1	6	12356248555	12356288309	39754	597.89	415.65	540.23	168.34	2.39	207.11	0.50	60.07	5142.15	-4741.56	3282.03
Saccade R	1	6	12356248555	12356288309	39754	597.89	415.65	540.23	168.34	2.39	207.11	0.50	60.07	5142.15	-4741.56	3282.03
Fixation L	1	7	12356288309	12356507175	218866	521.46	157.31	29	21	-1	11.25	11.25
Fixation R	1	7	12356288309	12356507175	218866	521.46	157.31	29	21	-1	11.62	11.62
Saccade L	1	7	12356507175	12356566794	59619	520.67	151.76	927.68	203.92	5.41	360.10	0.33	90.75	8814.71	-7130.79	3718.22
Saccade R	1	7	12356507175	12356566794	59619	520.67	151.76	927.68	203.92	5.41	360.10	0.33	90.75	8814.71	-7130.79	3718.22
Fixation L	1	8	12356566794	12356885026	318232	905.99	247.64	35	57	-1	12.23	12.23
Fixation R	1	8	12356566794	12356885026	318232	905.99	247.64	35	57	-1	12.07	12.07
Saccade L	1	8	12356885026	12356904897	19871	906.14	260.35	1005.19	257.39	0.59	100.24	1.00	29.71	2406.19	-2284.65	1573.62
Saccade R	1	8	12356885026	12356904897	19871	906.14	260.35	1005.19	257.39	0.59	100.24	1.00	29.71	2406.19	-2284.65	1573.62
Fixation L	1	9	12356904897	12357183387	278490	995.44	274.15	13	30	-1	12.45	12.45
Fixation R	1	9	12356904897	12357183387	278490	995.44	274.15	13	30	-1	12.05	12.05
Saccade L	1	9	12357183387	12357223136	39749	992.38	282.88	1297.89	297.08	2.63	214.19	1.00	66.18	5236.07	-4705.55	3568.86
Saccade R	1	9	12357183387	12357223136	39749	992.38	282.88	1297.89	297.08	2.63	214.19	1.00	66.18	5236.07	-4705.55	3568.86
Fixation L	1	10	12357223136	12357501622	278486	1340.16	316.27	54	41	-1	12.41	12.41
Fixation R	1	10	12357223136	12357501622	278486	1340.16	316.27	54	41	-1	11.90	11.90
Blink L	1	1	12357501622	12357680614	178992
Blink R	1	1	12357501622	12357680614	178992
Fixation L	1	11	12357680614	12357799997	119383	1448.70	974.40	8	22	-1	13.05	13.05
Fixation R	1	11	12357680614	12357799997	119383	1448.70	974.40	8	22	-1	13.45	13.45
Saccade L	1	10	12357799997	12357819859	19862	1450.47	976.62	1547.69	1069.39	0.86	135.91	1.00	43.21	3348.66	-3037.64	2307.19
Saccade R	1	10	12357799997	12357819859	19862	1450.47	976.62	1547.69	1069.39	0.86	135.91	1.00	43.21	3348.66	-3037.64	2307.19
Fixation L	1	12	12357819859	12358078474	258615	1580.38	1100.18	42	40	-1	12.76	12.76
Fixation R	1	12	12357819859	12358078474	258615	1580.38	1100.18	42	40	-1	13.23	13.23
Saccade L	1	11	12358078474	12358098348	19874	1555.90	1108.31	1371.53	1101.48	1.24	186.58	1.00	62.21	4648.79	-4063.01	2947.67
Saccade R	1	11	12358078474	12358098348	19874	1555.90	1108.31	1371.53	1101.48	1.24	186.58	1.00	62.21	4648.79	-4063.01	2947.67
Fixation L	1	13	12358098348	12358197718	99370	1352.50	1063.86	32	57	-1	12.76	12.76
Fixation R	1	13	12358098348	12358197718	99370	1352.50	1063.86	32	57	-1	13.40	13.40
