[BeGaze]
Converted from:	C:\Documents and Settings\iViewX\Desktop\EXPERIMENTATIONS\Experiments\results\finaleart\S20H24222-finaleart-1.idf
Date:	27.03.2019 15:52:33
Version:	BeGaze 2.5.77
Sample Rate:	50
Subject:	S20H24222
Description:	Hugo Brument

Table Header for Fixations:
Event Type	Trial	Number	Start	End	Duration	Location X	Location Y	Dispersion X	Dispersion Y	Plane	Avg. Pupil Size X	Avg. Pupil Size Y

Table Header for Saccades:
Event Type	Trial	Number	Start	End	Duration	Start Loc.X	Start Loc.Y	End Loc.X	End Loc.Y	Amplitude	Peak Speed	Peak Speed At	Average Speed	Peak Accel.	Peak Decel.	Average Accel.

Table Header for Blinks:
Event Type	Trial	Number	Start	End	Duration

Table Header for User Events:
Event Type	Trial	Number	Start	Description

UserEvent	1	1	11309109414	# Message: void.jpg
Fixation L	1	1	11309110444	11309249788	139344	958.03	227.18	13	10	-1	10.69	10.69
Fixation R	1	1	11309110444	11309249788	139344	958.03	227.18	13	10	-1	12.12	12.12
Saccade L	1	1	11309249788	11309329177	79389	950.09	227.21	769.33	922.45	8.78	269.61	0.50	110.54	6715.62	-6372.69	4361.89
Saccade R	1	1	11309249788	11309329177	79389	950.09	227.21	769.33	922.45	8.78	269.61	0.50	110.54	6715.62	-6372.69	4361.89
Fixation L	1	2	11309329177	11309548044	218867	743.84	937.42	39	23	-1	11.39	11.39
Fixation R	1	2	11309329177	11309548044	218867	743.84	937.42	39	23	-1	12.78	12.78
Blink L	1	1	11309548044	11309806527	258483
Blink R	1	1	11309548044	11309806527	258483
Fixation L	1	3	11309806527	11310343643	537116	1142.85	1121.59	38	18	-1	13.81	13.81
Fixation R	1	3	11309806527	11310343643	537116	1142.85	1121.59	38	18	-1	13.98	13.98
Saccade L	1	2	11310343643	11310403256	59613	1133.78	1124.55	939.36	565.56	6.36	267.35	0.33	106.65	6548.33	-5117.14	4748.26
Saccade R	1	2	11310343643	11310403256	59613	1133.78	1124.55	939.36	565.56	6.36	267.35	0.33	106.65	6548.33	-5117.14	4748.26
Fixation L	1	4	11310403256	11310880611	477355	918.82	573.46	28	34	-1	13.44	13.44
Fixation R	1	4	11310403256	11310880611	477355	918.82	573.46	28	34	-1	14.04	14.04
Saccade L	1	3	11310880611	11310920478	39867	910.83	570.67	828.98	551.94	1.66	117.63	0.50	41.69	2929.58	-1700.37	1607.23
Saccade R	1	3	11310880611	11310920478	39867	910.83	570.67	828.98	551.94	1.66	117.63	0.50	41.69	2929.58	-1700.37	1607.23
Fixation L	1	5	11310920478	11311099477	178999	818.11	526.84	17	47	-1	13.84	13.84
Fixation R	1	5	11310920478	11311099477	178999	818.11	526.84	17	47	-1	14.47	14.47
