[BeGaze]
Converted from:	C:\Documents and Settings\iViewX\Desktop\EXPERIMENTATIONS\Experiments\results\finaleart\S20H24222-finaleart-1.idf
Date:	27.03.2019 15:53:27
Version:	BeGaze 2.5.77
Sample Rate:	50
Subject:	S20H24222
Description:	Hugo Brument

Table Header for Fixations:
Event Type	Trial	Number	Start	End	Duration	Location X	Location Y	Dispersion X	Dispersion Y	Plane	Avg. Pupil Size X	Avg. Pupil Size Y

Table Header for Saccades:
Event Type	Trial	Number	Start	End	Duration	Start Loc.X	Start Loc.Y	End Loc.X	End Loc.Y	Amplitude	Peak Speed	Peak Speed At	Average Speed	Peak Accel.	Peak Decel.	Average Accel.

Table Header for Blinks:
Event Type	Trial	Number	Start	End	Duration

Table Header for User Events:
Event Type	Trial	Number	Start	Description

UserEvent	1	1	11901546389	# Message: female_nude_reclining_on-a_divan_delacroix_1826.jpg
Fixation L	1	1	11901562619	11902039964	477345	984.79	473.14	15	63	-1	10.80	10.80
Fixation R	1	1	11901562619	11902039964	477345	984.79	473.14	15	63	-1	12.61	12.61
Saccade L	1	1	11902039964	11902059855	19891	979.36	468.81	824.31	476.20	1.44	156.99	1.00	72.63	3147.67	-3465.03	2517.46
Saccade R	1	1	11902039964	11902059855	19891	979.36	468.81	824.31	476.20	1.44	156.99	1.00	72.63	3147.67	-3465.03	2517.46
Fixation L	1	2	11902059855	11902258711	198856	792.92	431.67	36	59	-1	10.36	10.36
Fixation R	1	2	11902059855	11902258711	198856	792.92	431.67	36	59	-1	11.94	11.94
Saccade L	1	2	11902258711	11902318456	59745	787.80	418.60	612.45	180.47	3.30	229.79	0.67	55.31	5618.22	-5219.95	2703.31
Saccade R	1	2	11902258711	11902318456	59745	787.80	418.60	612.45	180.47	3.30	229.79	0.67	55.31	5618.22	-5219.95	2703.31
Fixation L	1	3	11902318456	11902775933	457477	588.83	149.65	33	64	-1	9.38	9.38
Fixation R	1	3	11902318456	11902775933	457477	588.83	149.65	33	64	-1	11.38	11.38
Saccade L	1	3	11902775933	11902835560	59627	596.45	135.02	1182.70	640.08	8.47	386.62	0.67	142.06	9412.17	-9060.79	6273.58
Saccade R	1	3	11902775933	11902835560	59627	596.45	135.02	1182.70	640.08	8.47	386.62	0.67	142.06	9412.17	-9060.79	6273.58
Fixation L	1	4	11902835560	11903133923	298363	1193.46	698.88	17	80	-1	11.06	11.06
Fixation R	1	4	11902835560	11903133923	298363	1193.46	698.88	17	80	-1	12.62	12.62
Saccade L	1	4	11903133923	11903153789	19866	1200.20	707.36	1305.79	856.64	1.17	184.91	1.00	58.81	4560.38	-4070.75	3097.27
Saccade R	1	4	11903133923	11903153789	19866	1200.20	707.36	1305.79	856.64	1.17	184.91	1.00	58.81	4560.38	-4070.75	3097.27
Fixation L	1	5	11903153789	11903511783	357994	1335.93	849.88	36	48	-1	11.13	11.13
Fixation R	1	5	11903153789	11903511783	357994	1335.93	849.88	36	48	-1	12.43	12.43
Saccade L	1	5	11903511783	11903531776	19993	1335.09	856.15	1346.67	813.35	0.42	44.85	1.00	21.03	968.99	-1056.42	875.19
Saccade R	1	5	11903511783	11903531776	19993	1335.09	856.15	1346.67	813.35	0.42	44.85	1.00	21.03	968.99	-1056.42	875.19
Fixation L	1	6	11903531776	11903670894	139118	1350.45	858.54	9	86	-1	10.65	10.65
Fixation R	1	6	11903531776	11903670894	139118	1350.45	858.54	9	86	-1	11.90	11.90
Saccade L	1	6	11903670894	11903690893	19999	1355.89	899.58	1364.40	880.76	0.31	20.90	1.00	15.60	395.35	-125.29	268.67
Saccade R	1	6	11903670894	11903690893	19999	1355.89	899.58	1364.40	880.76	0.31	20.90	1.00	15.60	395.35	-125.29	268.67
Fixation L	1	7	11903690893	11904029003	338110	1363.29	914.33	15	65	-1	11.42	11.42
Fixation R	1	7	11903690893	11904029003	338110	1363.29	914.33	15	65	-1	12.40	12.40
Saccade L	1	7	11904029003	11904068749	39746	1371.30	921.34	1360.06	600.19	2.72	211.07	0.50	68.34	5186.52	-5076.60	3937.19
Saccade R	1	7	11904029003	11904068749	39746	1371.30	921.34	1360.06	600.19	2.72	211.07	0.50	68.34	5186.52	-5076.60	3937.19
Fixation L	1	8	11904068749	11904227866	159117	1344.93	595.78	34	7	-1	11.36	11.36
Fixation R	1	8	11904068749	11904227866	159117	1344.93	595.78	34	7	-1	12.85	12.85
Saccade L	1	8	11904227866	11904267624	39758	1326.49	598.60	1327.11	194.05	3.61	208.50	0.50	90.70	4902.91	-4892.96	4805.71
Saccade R	1	8	11904227866	11904267624	39758	1326.49	598.60	1327.11	194.05	3.61	208.50	0.50	90.70	4902.91	-4892.96	4805.71
Fixation L	1	9	11904267624	11904506355	238731	1329.15	192.31	16	67	-1	10.98	10.98
Fixation R	1	9	11904267624	11904506355	238731	1329.15	192.31	16	67	-1	12.28	12.28
Saccade L	1	9	11904506355	11904526238	19883	1339.36	155.23	1394.42	35.05	0.88	133.70	1.00	44.09	3168.67	-2816.93	2048.38
Saccade R	1	9	11904506355	11904526238	19883	1339.36	155.23	1394.42	35.05	0.88	133.70	1.00	44.09	3168.67	-2816.93	2048.38
Fixation L	1	10	11904526238	11904904098	377860	1401.88	59.74	44	53	-1	10.77	10.77
Fixation R	1	10	11904526238	11904904098	377860	1401.88	59.74	44	53	-1	12.44	12.44
Saccade L	1	10	11904904098	11904923969	19871	1377.81	78.93	1374.74	82.12	0.08	4.83	1.00	3.96	104.26	-8.73	47.37
Saccade R	1	10	11904904098	11904923969	19871	1377.81	78.93	1374.74	82.12	0.08	4.83	1.00	3.96	104.26	-8.73	47.37
Fixation L	1	11	11904923969	11905023466	99497	1373.34	94.11	3	32	-1	11.36	11.36
Fixation R	1	11	11904923969	11905023466	99497	1373.34	94.11	3	32	-1	13.25	13.25
Saccade L	1	11	11905023466	11905043334	19868	1373.54	104.69	1516.92	61.59	0.90	151.42	1.00	45.15	3553.44	-3367.61	2426.25
Saccade R	1	11	11905023466	11905043334	19868	1373.54	104.69	1516.92	61.59	0.90	151.42	1.00	45.15	3553.44	-3367.61	2426.25
Fixation L	1	12	11905043334	11905242331	198997	1509.40	85.86	23	49	-1	11.51	11.51
Fixation R	1	12	11905043334	11905242331	198997	1509.40	85.86	23	49	-1	13.01	13.01
Saccade L	1	12	11905242331	11905262198	19867	1523.96	79.61	1596.12	92.66	0.72	74.18	1.00	36.14	1569.66	-1082.89	1035.53
Saccade R	1	12	11905242331	11905262198	19867	1523.96	79.61	1596.12	92.66	0.72	74.18	1.00	36.14	1569.66	-1082.89	1035.53
Fixation L	1	13	11905262198	11905361570	99372	1581.65	91.40	28	43	-1	11.32	11.32
Fixation R	1	13	11905262198	11905361570	99372	1581.65	91.40	28	43	-1	12.96	12.96
Saccade L	1	13	11905361570	11905540568	178998	1580.65	117.51	364.70	277.94	24.61	483.99	0.22	137.48	11199.39	-11041.20	4295.76
Saccade R	1	13	11905361570	11905540568	178998	1580.65	117.51	364.70	277.94	24.61	483.99	0.22	137.48	11199.39	-11041.20	4295.76
