[BeGaze]
Converted from:	C:\Documents and Settings\iViewX\Desktop\EXPERIMENTATIONS\Experiments\results\finaleart\S20H24222-finaleart-1.idf
Date:	27.03.2019 15:52:19
Version:	BeGaze 2.5.77
Sample Rate:	50
Subject:	S20H24222
Description:	Hugo Brument

Table Header for Fixations:
Event Type	Trial	Number	Start	End	Duration	Location X	Location Y	Dispersion X	Dispersion Y	Plane	Avg. Pupil Size X	Avg. Pupil Size Y

Table Header for Saccades:
Event Type	Trial	Number	Start	End	Duration	Start Loc.X	Start Loc.Y	End Loc.X	End Loc.Y	Amplitude	Peak Speed	Peak Speed At	Average Speed	Peak Accel.	Peak Decel.	Average Accel.

Table Header for Blinks:
Event Type	Trial	Number	Start	End	Duration

Table Header for User Events:
Event Type	Trial	Number	Start	Description

UserEvent	1	1	11152529902	# Message: void.jpg
Fixation L	1	1	11152534532	11152753255	218723	479.25	279.43	28	60	-1	12.57	12.57
Fixation R	1	1	11152534532	11152753255	218723	479.25	279.43	28	60	-1	13.18	13.18
Saccade L	1	1	11152753255	11152792993	39738	488.55	302.21	353.57	313.95	1.50	138.44	1.00	37.78	3305.26	-3299.63	1785.39
Saccade R	1	1	11152753255	11152792993	39738	488.55	302.21	353.57	313.95	1.50	138.44	1.00	37.78	3305.26	-3299.63	1785.39
Fixation L	1	2	11152792993	11153230648	437655	372.83	346.71	36	48	-1	13.27	13.27
Fixation R	1	2	11152792993	11153230648	437655	372.83	346.71	36	48	-1	13.66	13.66
Blink L	1	1	11153230648	11153429471	198823
Blink R	1	1	11153230648	11153429471	198823
Fixation L	1	3	11153429471	11154185314	755843	862.88	474.82	25	44	-1	13.97	13.97
Fixation R	1	3	11153429471	11154185314	755843	862.88	474.82	25	44	-1	14.92	14.92
Saccade L	1	2	11154185314	11154205214	19900	852.13	488.58	827.56	536.32	0.33	54.32	1.00	16.50	1312.00	-662.72	724.45
Saccade R	1	2	11154185314	11154205214	19900	852.13	488.58	827.56	536.32	0.33	54.32	1.00	16.50	1312.00	-662.72	724.45
Fixation L	1	4	11154205214	11154523430	318216	799.39	555.09	42	41	-1	14.65	14.65
Fixation R	1	4	11154205214	11154523430	318216	799.39	555.09	42	41	-1	15.28	15.28
