[BeGaze]
Converted from:	C:\Documents and Settings\iViewX\Desktop\EXPERIMENTATIONS\Experiments\results\finaleart\S20H24222-finaleart-1.idf
Date:	27.03.2019 15:53:06
Version:	BeGaze 2.5.77
Sample Rate:	50
Subject:	S20H24222
Description:	Hugo Brument

Table Header for Fixations:
Event Type	Trial	Number	Start	End	Duration	Location X	Location Y	Dispersion X	Dispersion Y	Plane	Avg. Pupil Size X	Avg. Pupil Size Y

Table Header for Saccades:
Event Type	Trial	Number	Start	End	Duration	Start Loc.X	Start Loc.Y	End Loc.X	End Loc.Y	Amplitude	Peak Speed	Peak Speed At	Average Speed	Peak Accel.	Peak Decel.	Average Accel.

Table Header for Blinks:
Event Type	Trial	Number	Start	End	Duration

Table Header for User Events:
Event Type	Trial	Number	Start	Description

UserEvent	1	1	11707242897	# Message: chestnut_avenue_in_la_celle_saint_cloud_sisley_1865.jpg
Fixation L	1	1	11707256087	11707733442	477355	1041.50	422.31	20	31	-1	11.89	11.89
Fixation R	1	1	11707256087	11707733442	477355	1041.50	422.31	20	31	-1	13.03	13.03
Saccade L	1	1	11707733442	11707773320	39878	1042.51	433.13	968.40	717.11	2.49	174.51	1.00	62.33	4308.44	-4196.13	3578.32
Saccade R	1	1	11707733442	11707773320	39878	1042.51	433.13	968.40	717.11	2.49	174.51	1.00	62.33	4308.44	-4196.13	3578.32
Fixation L	1	2	11707773320	11708011915	238595	957.04	698.70	14	37	-1	11.29	11.29
Fixation R	1	2	11707773320	11708011915	238595	957.04	698.70	14	37	-1	12.46	12.46
Saccade L	1	2	11708011915	11708031794	19879	953.98	692.93	810.55	720.47	0.87	147.72	1.00	43.78	3528.45	-3244.30	2386.65
Saccade R	1	2	11708011915	11708031794	19879	953.98	692.93	810.55	720.47	0.87	147.72	1.00	43.78	3528.45	-3244.30	2386.65
Fixation L	1	3	11708031794	11708270542	238748	781.35	749.85	38	53	-1	11.07	11.07
Fixation R	1	3	11708031794	11708270542	238748	781.35	749.85	38	53	-1	12.41	12.41
Saccade L	1	3	11708270542	11708290412	19870	775.85	773.03	778.69	785.38	0.17	12.82	1.00	8.59	93.45	4.43	52.99
Saccade R	1	3	11708270542	11708290412	19870	775.85	773.03	778.69	785.38	0.17	12.82	1.00	8.59	93.45	4.43	52.99
Fixation L	1	4	11708290412	11708409782	119370	780.97	786.35	9	38	-1	11.46	11.46
Fixation R	1	4	11708290412	11708409782	119370	780.97	786.35	9	38	-1	13.06	13.06
Saccade L	1	4	11708409782	11708449527	39745	786.61	798.84	494.21	700.05	2.75	181.56	1.00	69.13	4379.26	-4305.88	3726.26
Saccade R	1	4	11708409782	11708449527	39745	786.61	798.84	494.21	700.05	2.75	181.56	1.00	69.13	4379.26	-4305.88	3726.26
Fixation L	1	5	11708449527	11708668269	218742	484.14	681.80	15	22	-1	11.72	11.72
Fixation R	1	5	11708449527	11708668269	218742	484.14	681.80	15	22	-1	13.23	13.23
Saccade L	1	5	11708668269	11708708148	39879	478.89	677.28	791.52	684.85	2.63	165.12	0.50	65.96	4085.07	-3910.81	3831.68
Saccade R	1	5	11708668269	11708708148	39879	478.89	677.28	791.52	684.85	2.63	165.12	0.50	65.96	4085.07	-3910.81	3831.68
Fixation L	1	6	11708708148	11709205366	497218	787.97	722.18	17	54	-1	11.40	11.40
Fixation R	1	6	11708708148	11709205366	497218	787.97	722.18	17	54	-1	13.48	13.48
Saccade L	1	6	11709205366	11709225245	19879	799.93	696.11	833.82	599.16	0.79	103.88	1.00	39.74	2558.54	-2099.64	1844.78
Saccade R	1	6	11709205366	11709225245	19879	799.93	696.11	833.82	599.16	0.79	103.88	1.00	39.74	2558.54	-2099.64	1844.78
Fixation L	1	7	11709225245	11709662853	437608	857.39	583.26	35	33	-1	11.67	11.67
Fixation R	1	7	11709225245	11709662853	437608	857.39	583.26	35	33	-1	13.60	13.60
Saccade L	1	7	11709662853	11709682727	19874	869.76	602.85	911.58	574.76	0.39	50.97	1.00	19.55	1181.92	-1009.25	830.07
Saccade R	1	7	11709662853	11709682727	19874	869.76	602.85	911.58	574.76	0.39	50.97	1.00	19.55	1181.92	-1009.25	830.07
Fixation L	1	8	11709682727	11709941338	258611	929.25	579.82	26	34	-1	11.52	11.52
Fixation R	1	8	11709682727	11709941338	258611	929.25	579.82	26	34	-1	13.08	13.08
Saccade L	1	8	11709941338	11709961209	19871	937.87	576.45	1131.39	457.28	1.47	229.79	1.00	74.00	5704.33	-5472.73	4122.49
Saccade R	1	8	11709941338	11709961209	19871	937.87	576.45	1131.39	457.28	1.47	229.79	1.00	74.00	5704.33	-5472.73	4122.49
Fixation L	1	9	11709961209	11710219703	258494	1141.19	400.85	31	66	-1	11.74	11.74
Fixation R	1	9	11709961209	11710219703	258494	1141.19	400.85	31	66	-1	13.15	13.15
Saccade L	1	9	11710219703	11710239705	20002	1162.49	398.70	1455.31	388.65	1.78	296.14	1.00	89.00	7377.77	-6724.11	4714.69
Saccade R	1	9	11710219703	11710239705	20002	1162.49	398.70	1455.31	388.65	1.78	296.14	1.00	89.00	7377.77	-6724.11	4714.69
Fixation L	1	10	11710239705	11710518071	278366	1511.24	385.34	66	31	-1	12.11	12.11
Fixation R	1	10	11710239705	11710518071	278366	1511.24	385.34	66	31	-1	12.89	12.89
Blink L	1	1	11710518071	11710697056	178985
Blink R	1	1	11710518071	11710697056	178985
Fixation L	1	11	11710697056	11711075041	377985	834.74	836.55	68	30	-1	14.31	14.31
Fixation R	1	11	11710697056	11711075041	377985	834.74	836.55	68	30	-1	13.99	13.99
Saccade L	1	10	11711075041	11711094913	19872	785.63	828.79	782.19	809.58	0.22	19.74	1.00	11.03	171.55	-116.19	105.05
Saccade R	1	10	11711075041	11711094913	19872	785.63	828.79	782.19	809.58	0.22	19.74	1.00	11.03	171.55	-116.19	105.05
Fixation L	1	12	11711094913	11711234161	139248	777.36	808.56	7	24	-1	13.78	13.78
Fixation R	1	12	11711094913	11711234161	139248	777.36	808.56	7	24	-1	14.30	14.30
