[BeGaze]
Converted from:	C:\Documents and Settings\iViewX\Desktop\EXPERIMENTATIONS\Experiments\results\finaleart\S20H24222-finaleart-1.idf
Date:	27.03.2019 15:52:38
Version:	BeGaze 2.5.77
Sample Rate:	50
Subject:	S20H24222
Description:	Hugo Brument

Table Header for Fixations:
Event Type	Trial	Number	Start	End	Duration	Location X	Location Y	Dispersion X	Dispersion Y	Plane	Avg. Pupil Size X	Avg. Pupil Size Y

Table Header for Saccades:
Event Type	Trial	Number	Start	End	Duration	Start Loc.X	Start Loc.Y	End Loc.X	End Loc.Y	Amplitude	Peak Speed	Peak Speed At	Average Speed	Peak Accel.	Peak Decel.	Average Accel.

Table Header for Blinks:
Event Type	Trial	Number	Start	End	Duration

Table Header for User Events:
Event Type	Trial	Number	Start	Description

UserEvent	1	1	11341720142	# Message: La_Danse_Matisse_1909.jpg
Fixation L	1	1	11341730139	11342207625	477486	792.12	559.20	9	15	-1	12.32	12.32
Fixation R	1	1	11341730139	11342207625	477486	792.12	559.20	9	15	-1	13.46	13.46
Saccade L	1	1	11342207625	11342227490	19865	795.00	552.72	983.90	571.09	1.17	191.93	1.00	58.81	4772.94	-4348.87	3389.44
Saccade R	1	1	11342207625	11342227490	19865	795.00	552.72	983.90	571.09	1.17	191.93	1.00	58.81	4772.94	-4348.87	3389.44
Fixation L	1	2	11342227490	11342446239	218749	959.42	577.81	41	36	-1	11.50	11.50
Fixation R	1	2	11342227490	11342446239	218749	959.42	577.81	41	36	-1	12.20	12.20
Saccade L	1	2	11342446239	11342485984	39745	955.32	570.95	851.62	259.34	3.00	236.29	0.50	75.43	5750.48	-5169.21	3763.32
Saccade R	1	2	11342446239	11342485984	39745	955.32	570.95	851.62	259.34	3.00	236.29	0.50	75.43	5750.48	-5169.21	3763.32
Fixation L	1	3	11342485984	11342824089	338105	869.90	228.75	36	44	-1	8.80	8.80
Fixation R	1	3	11342485984	11342824089	338105	869.90	228.75	36	44	-1	9.58	9.58
Saccade L	1	3	11342824089	11342844083	19994	888.14	222.68	912.01	194.66	0.43	37.24	1.00	21.68	839.17	-679.04	686.06
Saccade R	1	3	11342824089	11342844083	19994	888.14	222.68	912.01	194.66	0.43	37.24	1.00	21.68	839.17	-679.04	686.06
Fixation L	1	4	11342844083	11343241817	397734	927.25	176.93	23	59	-1	7.55	7.55
Fixation R	1	4	11342844083	11343241817	397734	927.25	176.93	23	59	-1	8.26	8.26
Saccade L	1	4	11343241817	11343261698	19881	925.97	149.28	928.30	129.43	0.32	20.22	1.00	15.99	233.18	-81.32	107.84
Saccade R	1	4	11343241817	11343261698	19881	925.97	149.28	928.30	129.43	0.32	20.22	1.00	15.99	233.18	-81.32	107.84
Fixation L	1	5	11343261698	11343381064	119366	920.43	141.26	28	27	-1	6.90	6.90
Fixation R	1	5	11343261698	11343381064	119366	920.43	141.26	28	27	-1	7.84	7.84
Saccade L	1	5	11343381064	11343460684	79620	924.79	135.17	1520.13	35.26	7.93	318.83	0.50	99.63	7437.41	-7428.22	4851.28
Saccade R	1	5	11343381064	11343460684	79620	924.79	135.17	1520.13	35.26	7.93	318.83	0.50	99.63	7437.41	-7428.22	4851.28
Fixation L	1	6	11343460684	11343560057	99373	1534.45	45.52	28	54	-1	6.81	6.81
Fixation R	1	6	11343460684	11343579931	119247	1531.31	51.17	36	59	-1	7.39	7.39
Saccade R	1	6	11343579931	11343599803	19872	1512.51	85.12	1551.06	6.45	0.81	88.62	1.00	40.65	2023.74	-957.18	1219.75
Fixation R	1	7	11343599803	11343758923	159120	1545.12	-0.85	24	73	-1	7.91	7.91
Fixation L	1	7	11343619807	11343758923	139116	1544.37	-1.77	24	73	-1	10.14	10.14
Saccade L	1	6	11343758923	11343798794	39871	1544.16	-16.40	1550.68	183.12	2.12	104.31	1.00	53.27	2279.95	-2458.08	2113.70
Saccade R	1	7	11343758923	11343798794	39871	1544.16	-16.40	1550.68	183.12	2.12	104.31	1.00	53.27	2279.95	-2458.08	2113.70
Fixation L	1	8	11343798794	11343957915	159121	1532.25	189.76	32	15	-1	11.32	11.32
Fixation R	1	8	11343798794	11343957915	159121	1532.25	189.76	32	15	-1	9.23	9.23
Saccade L	1	7	11343957915	11344017540	59625	1528.89	190.37	1669.80	519.58	4.66	279.45	0.67	78.13	6668.42	-5423.17	3155.80
Saccade R	1	8	11343957915	11344017540	59625	1528.89	190.37	1669.80	519.58	4.66	279.45	0.67	78.13	6668.42	-5423.17	3155.80
Fixation L	1	9	11344017540	11344236402	218862	1657.55	574.52	20	77	-1	12.38	12.38
Fixation R	1	9	11344017540	11344236402	218862	1657.55	574.52	20	77	-1	9.82	9.82
Saccade L	1	8	11344236402	11344256280	19878	1650.29	592.95	1646.53	602.04	0.24	17.93	0.00	12.14	148.03	-32.04	64.98
Saccade R	1	9	11344236402	11344256280	19878	1650.29	592.95	1646.53	602.04	0.24	17.93	0.00	12.14	148.03	-32.04	64.98
Fixation L	1	10	11344256280	11344435271	178991	1639.32	595.16	14	19	-1	12.62	12.62
Fixation R	1	10	11344256280	11344435271	178991	1639.32	595.16	14	19	-1	9.93	9.93
Saccade L	1	9	11344435271	11344514758	79487	1634.28	604.80	992.80	843.30	8.67	397.35	0.50	109.07	9767.76	-8597.01	4892.56
Saccade R	1	10	11344435271	11344514758	79487	1634.28	604.80	992.80	843.30	8.67	397.35	0.50	109.07	9767.76	-8597.01	4892.56
Fixation L	1	11	11344514758	11344673889	159131	983.75	876.54	17	68	-1	12.42	12.42
Fixation R	1	11	11344514758	11344673889	159131	983.75	876.54	17	68	-1	9.72	9.72
Saccade L	1	10	11344673889	11344693888	19999	981.50	896.53	1186.12	905.46	1.25	207.11	1.00	62.72	4798.45	-5011.88	3423.83
Saccade R	1	11	11344673889	11344693888	19999	981.50	896.53	1186.12	905.46	1.25	207.11	1.00	62.72	4798.45	-5011.88	3423.83
Fixation L	1	12	11344693888	11344853006	159118	1182.84	907.19	5	26	-1	12.37	12.37
Fixation R	1	12	11344693888	11344853006	159118	1182.84	907.19	5	26	-1	9.65	9.65
Saccade L	1	11	11344853006	11344912618	59612	1181.09	914.12	212.18	914.68	9.88	427.26	0.67	165.77	10556.40	-10507.17	7374.33
Saccade R	1	12	11344853006	11344912618	59612	1181.09	914.12	212.18	914.68	9.88	427.26	0.67	165.77	10556.40	-10507.17	7374.33
Fixation L	1	13	11344912618	11345111483	198865	214.18	924.24	32	29	-1	12.18	12.18
Fixation R	1	13	11344912618	11345111483	198865	214.18	924.24	32	29	-1	10.22	10.22
Saccade L	1	12	11345111483	11345151236	39753	190.36	917.32	286.78	444.44	4.24	249.48	0.50	106.57	6097.56	-6189.16	5742.59
Saccade R	1	13	11345111483	11345151236	39753	190.36	917.32	286.78	444.44	4.24	249.48	0.50	106.57	6097.56	-6189.16	5742.59
Fixation L	1	14	11345151236	11345469469	318233	293.75	426.61	39	30	-1	11.57	11.57
Fixation R	1	14	11345151236	11345469469	318233	293.75	426.61	39	30	-1	10.09	10.09
Saccade L	1	13	11345469469	11345509354	39885	296.00	413.87	388.47	184.75	2.45	160.60	0.50	61.39	3977.47	-2966.92	2810.67
Saccade R	1	14	11345469469	11345509354	39885	296.00	413.87	388.47	184.75	2.45	160.60	0.50	61.39	3977.47	-2966.92	2810.67
Fixation L	1	15	11345509354	11345668495	159141	396.88	201.58	21	54	-1	10.98	10.98
Fixation R	1	15	11345509354	11345668495	159141	396.88	201.58	21	54	-1	9.66	9.66
Saccade L	1	14	11345668495	11345708217	39722	392.48	227.70	517.06	215.70	1.96	132.89	0.50	49.42	2368.90	0.00	817.77
Saccade R	1	15	11345668495	11345708217	39722	392.48	227.70	517.06	215.70	1.96	132.89	0.50	49.42	2368.90	0.00	817.77
