[BeGaze]
Converted from:	C:\Documents and Settings\iViewX\Desktop\EXPERIMENTATIONS\Experiments\results\finaleart\S20H24222-finaleart-1.idf
Date:	27.03.2019 15:54:08
Version:	BeGaze 2.5.77
Sample Rate:	50
Subject:	S20H24222
Description:	Hugo Brument

Table Header for Fixations:
Event Type	Trial	Number	Start	End	Duration	Location X	Location Y	Dispersion X	Dispersion Y	Plane	Avg. Pupil Size X	Avg. Pupil Size Y

Table Header for Saccades:
Event Type	Trial	Number	Start	End	Duration	Start Loc.X	Start Loc.Y	End Loc.X	End Loc.Y	Amplitude	Peak Speed	Peak Speed At	Average Speed	Peak Accel.	Peak Decel.	Average Accel.

Table Header for Blinks:
Event Type	Trial	Number	Start	End	Duration

Table Header for User Events:
Event Type	Trial	Number	Start	Description

UserEvent	1	1	12346049027	# Message: void.jpg
Fixation L	1	1	12346064878	12346323366	258488	1535.22	165.44	36	52	-1	12.76	12.76
Fixation R	1	1	12346064878	12346323366	258488	1535.22	165.44	36	52	-1	12.72	12.72
Saccade L	1	1	12346323366	12346383111	59745	1539.08	159.20	817.20	266.06	7.85	448.72	0.67	131.48	11112.10	-10310.28	6544.07
Saccade R	1	1	12346323366	12346383111	59745	1539.08	159.20	817.20	266.06	7.85	448.72	0.67	131.48	11112.10	-10310.28	6544.07
Fixation L	1	2	12346383111	12346502358	119247	790.38	285.91	36	27	-1	13.31	13.31
Fixation R	1	2	12346383111	12346502358	119247	790.38	285.91	36	27	-1	13.61	13.61
Blink L	1	1	12346502358	12346760958	258600
Blink R	1	1	12346502358	12346760958	258600
Fixation L	1	3	12346760958	12347516807	755849	1003.58	865.11	18	28	-1	12.72	12.72
Fixation R	1	3	12346760958	12347516807	755849	1003.58	865.11	18	28	-1	13.12	13.12
Saccade L	1	2	12347516807	12347556562	39755	996.74	861.37	886.41	606.98	2.78	196.57	0.50	70.00	4794.01	-3662.48	3007.85
Saccade R	1	2	12347516807	12347556562	39755	996.74	861.37	886.41	606.98	2.78	196.57	0.50	70.00	4794.01	-3662.48	3007.85
Fixation L	1	4	12347556562	12347835047	278485	867.32	574.39	26	72	-1	12.60	12.60
Fixation R	1	4	12347556562	12347835047	278485	867.32	574.39	26	72	-1	13.19	13.19
Saccade L	1	3	12347835047	12347854921	19874	863.91	534.79	865.79	527.69	0.36	29.79	1.00	18.32	456.61	-15.43	172.27
Saccade R	1	3	12347835047	12347854921	19874	863.91	534.79	865.79	527.69	0.36	29.79	1.00	18.32	456.61	-15.43	172.27
Fixation L	1	5	12347854921	12347954419	99498	874.21	537.36	43	41	-1	12.43	12.43
Fixation R	1	5	12347854921	12347954419	99498	874.21	537.36	43	41	-1	13.20	13.20
Saccade L	1	4	12347954419	12348033925	79506	908.81	515.32	946.13	518.46	1.46	45.17	0.00	18.41	5.59	-860.10	285.24
Saccade R	1	4	12347954419	12348033925	79506	908.81	515.32	946.13	518.46	1.46	45.17	0.00	18.41	5.59	-860.10	285.24
