[BeGaze]
Converted from:	C:\Documents and Settings\iViewX\Desktop\EXPERIMENTATIONS\Experiments\results\finaleart\S20H24222-finaleart-1.idf
Date:	27.03.2019 15:52:12
Version:	BeGaze 2.5.77
Sample Rate:	50
Subject:	S20H24222
Description:	Hugo Brument

Table Header for Fixations:
Event Type	Trial	Number	Start	End	Duration	Location X	Location Y	Dispersion X	Dispersion Y	Plane	Avg. Pupil Size X	Avg. Pupil Size Y

Table Header for Saccades:
Event Type	Trial	Number	Start	End	Duration	Start Loc.X	Start Loc.Y	End Loc.X	End Loc.Y	Amplitude	Peak Speed	Peak Speed At	Average Speed	Peak Accel.	Peak Decel.	Average Accel.

Table Header for Blinks:
Event Type	Trial	Number	Start	End	Duration

Table Header for User Events:
Event Type	Trial	Number	Start	Description

UserEvent	1	1	11097526395	# Message: void.jpg
Saccade L	1	1	11097538289	11097598037	59748	1706.71	942.72	1684.94	350.46	7.51	398.97	0.67	125.64	9974.37	-9271.56	5181.14
Saccade R	1	1	11097538289	11097598037	59748	1706.71	942.72	1684.94	350.46	7.51	398.97	0.67	125.64	9974.37	-9271.56	5181.14
Fixation L	1	1	11097598037	11098194625	596588	1669.83	319.30	36	41	-1	11.00	11.00
Fixation R	1	1	11097598037	11098194625	596588	1669.83	319.30	36	41	-1	10.78	10.78
Blink L	1	1	11098194625	11098373753	179128
Blink R	1	1	11098194625	11098373753	179128
Fixation L	1	2	11098373753	11098751605	377852	1085.62	368.08	24	43	-1	13.16	13.16
Fixation R	1	2	11098373753	11098751605	377852	1085.62	368.08	24	43	-1	13.55	13.55
Saccade L	1	2	11098751605	11098791353	39748	1077.52	383.33	869.81	518.22	2.40	195.27	1.00	60.43	4572.03	-4829.28	2899.47
Saccade R	1	2	11098751605	11098791353	39748	1077.52	383.33	869.81	518.22	2.40	195.27	1.00	60.43	4572.03	-4829.28	2899.47
Fixation L	1	3	11098791353	11099328460	537107	855.53	562.13	18	64	-1	13.38	13.38
Fixation R	1	3	11098791353	11099328460	537107	855.53	562.13	18	64	-1	14.19	14.19
Saccade L	1	3	11099328460	11099348344	19884	855.24	571.94	895.91	568.81	0.35	41.27	1.00	17.39	857.87	-721.30	594.98
Saccade R	1	3	11099328460	11099348344	19884	855.24	571.94	895.91	568.81	0.35	41.27	1.00	17.39	857.87	-721.30	594.98
Fixation L	1	4	11099348344	11099527317	178973	928.98	565.52	44	8	-1	13.25	13.25
Fixation R	1	4	11099348344	11099527317	178973	928.98	565.52	44	8	-1	14.18	14.18
