[BeGaze]
Converted from:	C:\Documents and Settings\iViewX\Desktop\EXPERIMENTATIONS\Experiments\results\finaleart\S20H24222-finaleart-1.idf
Date:	27.03.2019 15:53:58
Version:	BeGaze 2.5.77
Sample Rate:	50
Subject:	S20H24222
Description:	Hugo Brument

Table Header for Fixations:
Event Type	Trial	Number	Start	End	Duration	Location X	Location Y	Dispersion X	Dispersion Y	Plane	Avg. Pupil Size X	Avg. Pupil Size Y

Table Header for Saccades:
Event Type	Trial	Number	Start	End	Duration	Start Loc.X	Start Loc.Y	End Loc.X	End Loc.Y	Amplitude	Peak Speed	Peak Speed At	Average Speed	Peak Accel.	Peak Decel.	Average Accel.

Table Header for Blinks:
Event Type	Trial	Number	Start	End	Duration

Table Header for User Events:
Event Type	Trial	Number	Start	Description

UserEvent	1	1	12274782733	# Message: REJECTED_cezanne-still-life-with-green-pot-and-pewter-1870.jpg
Fixation L	1	1	12274798633	12275256091	457458	880.10	622.10	11	35	-1	14.85	14.85
Fixation R	1	1	12274798633	12275256091	457458	880.10	622.10	11	35	-1	13.78	13.78
Saccade L	1	1	12275256091	12275295863	39772	879.62	601.64	712.08	675.99	1.89	97.55	0.50	47.50	2038.70	-2111.28	1981.95
Saccade R	1	1	12275256091	12275295863	39772	879.62	601.64	712.08	675.99	1.89	97.55	0.50	47.50	2038.70	-2111.28	1981.95
Fixation L	1	2	12275295863	12275554465	258602	712.19	647.10	20	58	-1	13.82	13.82
Fixation R	1	2	12275295863	12275554465	258602	712.19	647.10	20	58	-1	13.17	13.17
Saccade L	1	2	12275554465	12275574327	19862	728.57	648.53	971.28	660.09	1.36	245.65	1.00	68.53	6026.53	-5261.31	3857.55
Saccade R	1	2	12275554465	12275574327	19862	728.57	648.53	971.28	660.09	1.36	245.65	1.00	68.53	6026.53	-5261.31	3857.55
Fixation L	1	3	12275574327	12276290287	715960	972.25	671.43	30	57	-1	13.85	13.85
Fixation R	1	3	12275574327	12276290287	715960	972.25	671.43	30	57	-1	12.71	12.71
Saccade L	1	3	12276290287	12276310158	19871	947.42	630.09	845.84	663.68	0.89	108.21	1.00	44.88	2448.57	-2534.37	1949.50
Saccade R	1	3	12276290287	12276310158	19871	947.42	630.09	845.84	663.68	0.89	108.21	1.00	44.88	2448.57	-2534.37	1949.50
Fixation L	1	4	12276310158	12276847269	537111	852.96	662.33	24	31	-1	13.88	13.88
Fixation R	1	4	12276310158	12276847269	537111	852.96	662.33	24	31	-1	12.85	12.85
Saccade L	1	4	12276847269	12276867136	19867	860.91	676.26	980.27	573.88	0.87	159.04	1.00	43.87	3767.78	-3734.66	2540.39
Saccade R	1	4	12276847269	12276867136	19867	860.91	676.26	980.27	573.88	0.87	159.04	1.00	43.87	3767.78	-3734.66	2540.39
Fixation L	1	5	12276867136	12277762228	895092	976.34	595.86	21	65	-1	14.66	14.66
Fixation R	1	5	12276867136	12277762228	895092	976.34	595.86	21	65	-1	13.45	13.45
Saccade L	1	5	12277762228	12277782100	19872	979.03	605.90	1005.26	602.57	0.20	26.76	1.00	10.21	654.36	-539.48	403.29
Saccade R	1	5	12277762228	12277782100	19872	979.03	605.90	1005.26	602.57	0.20	26.76	1.00	10.21	654.36	-539.48	403.29
Fixation L	1	6	12277782100	12277941234	159134	1021.24	585.22	29	39	-1	14.49	14.49
Fixation R	1	6	12277782100	12277941234	159134	1021.24	585.22	29	39	-1	13.83	13.83
Saccade L	1	6	12277941234	12277961096	19862	1029.68	563.45	1027.64	530.28	0.42	33.62	1.00	21.27	522.43	-589.20	488.88
Saccade R	1	6	12277941234	12277961096	19862	1029.68	563.45	1027.64	530.28	0.42	33.62	1.00	21.27	522.43	-589.20	488.88
Fixation L	1	7	12277961096	12278597561	636465	1021.80	557.28	15	47	-1	14.18	14.18
Fixation R	1	7	12277961096	12278597561	636465	1021.80	557.28	15	47	-1	13.44	13.44
Saccade L	1	7	12278597561	12278776575	179014	1019.51	578.07	1027.44	1049.59	58.20	1453.82	1.00	325.09	36345.49	-33646.21	14005.16
Saccade R	1	7	12278597561	12278776575	179014	1019.51	578.07	1027.44	1049.59	58.20	1453.82	1.00	325.09	36345.49	-33646.21	14005.16
