[BeGaze]
Converted from:	C:\Documents and Settings\iViewX\Desktop\EXPERIMENTATIONS\Experiments\results\finaleart\S20H24222-finaleart-1.idf
Date:	27.03.2019 15:53:32
Version:	BeGaze 2.5.77
Sample Rate:	50
Subject:	S20H24222
Description:	Hugo Brument

Table Header for Fixations:
Event Type	Trial	Number	Start	End	Duration	Location X	Location Y	Dispersion X	Dispersion Y	Plane	Avg. Pupil Size X	Avg. Pupil Size Y

Table Header for Saccades:
Event Type	Trial	Number	Start	End	Duration	Start Loc.X	Start Loc.Y	End Loc.X	End Loc.Y	Amplitude	Peak Speed	Peak Speed At	Average Speed	Peak Accel.	Peak Decel.	Average Accel.

Table Header for Blinks:
Event Type	Trial	Number	Start	End	Duration

Table Header for User Events:
Event Type	Trial	Number	Start	Description

UserEvent	1	1	11936187566	# Message: void.jpg
Fixation L	1	1	11936191358	11936390235	198877	1241.13	27.66	16	69	-1	12.31	12.31
Fixation R	1	1	11936191358	11936390235	198877	1241.13	27.66	16	69	-1	12.60	12.60
Saccade L	1	1	11936390235	11936410149	19914	1248.68	29.75	1277.24	25.61	0.34	29.19	1.00	17.03	594.23	-485.73	518.97
Saccade R	1	1	11936390235	11936410149	19914	1248.68	29.75	1277.24	25.61	0.34	29.19	1.00	17.03	594.23	-485.73	518.97
Fixation L	1	2	11936410149	11936668581	258432	1306.52	53.10	47	44	-1	12.66	12.66
Fixation R	1	2	11936410149	11936668581	258432	1306.52	53.10	47	44	-1	12.92	12.92
Blink L	1	1	11936728327	11936827708	99381
Saccade R	1	2	11936728327	11936768080	39753	0.00	13.90	1210.36	64.92	32.53	1663.60	1.00	818.29	23676.91	-34711.31	21915.82
Fixation R	1	3	11936768080	11937145944	377864	1174.90	72.07	44	51	-1	11.65	11.65
Fixation L	1	3	11936827708	11937245437	417729	1170.05	81.04	19	70	-1	11.93	11.93
Saccade R	1	3	11937145944	11937165813	19869	1165.82	99.57	1166.67	109.97	0.28	35.13	1.00	14.24	-102.84	-614.38	292.83
Fixation R	1	4	11937165813	11937404546	238733	1162.03	116.35	8	44	-1	12.41	12.41
Saccade L	1	2	11937245437	11937265312	19875	1166.26	123.73	1161.15	144.17	0.28	21.31	1.00	14.17	225.26	-172.43	178.39
Fixation L	1	4	11937265312	11937404546	139234	1160.23	119.13	4	44	-1	12.85	12.85
Saccade L	1	3	11937404546	11937444304	39758	1162.16	117.33	1023.92	211.11	2.12	142.76	0.50	53.39	3107.47	-3166.68	2413.96
Saccade R	1	4	11937404546	11937444304	39758	1162.16	117.33	1023.92	211.11	2.12	142.76	0.50	53.39	3107.47	-3166.68	2413.96
Fixation L	1	5	11937444304	11937881906	437602	1005.20	242.22	38	52	-1	13.06	13.06
Fixation R	1	5	11937444304	11937881906	437602	1005.20	242.22	38	52	-1	13.12	13.12
Saccade L	1	4	11937881906	11937921655	39749	985.71	261.98	949.21	387.55	1.46	103.96	1.00	36.75	2287.95	-2449.85	1559.57
Saccade R	1	5	11937881906	11937921655	39749	985.71	261.98	949.21	387.55	1.46	103.96	1.00	36.75	2287.95	-2449.85	1559.57
Fixation L	1	6	11937921655	11938180271	258616	936.35	399.26	29	17	-1	14.07	14.07
Fixation R	1	6	11937921655	11938180271	258616	936.35	399.26	29	17	-1	14.25	14.25
