[BeGaze]
Converted from:	C:\Documents and Settings\iViewX\Desktop\EXPERIMENTATIONS\Experiments\results\finaleart\S20H24222-finaleart-1.idf
Date:	27.03.2019 15:53:49
Version:	BeGaze 2.5.77
Sample Rate:	50
Subject:	S20H24222
Description:	Hugo Brument

Table Header for Fixations:
Event Type	Trial	Number	Start	End	Duration	Location X	Location Y	Dispersion X	Dispersion Y	Plane	Avg. Pupil Size X	Avg. Pupil Size Y

Table Header for Saccades:
Event Type	Trial	Number	Start	End	Duration	Start Loc.X	Start Loc.Y	End Loc.X	End Loc.Y	Amplitude	Peak Speed	Peak Speed At	Average Speed	Peak Accel.	Peak Decel.	Average Accel.

Table Header for Blinks:
Event Type	Trial	Number	Start	End	Duration

Table Header for User Events:
Event Type	Trial	Number	Start	Description

UserEvent	1	1	12187916793	# Message: reclining-nude_renoir_1883.jpg
Fixation L	1	1	12187917269	12188633237	715968	891.49	600.03	56	33	-1	10.61	10.61
Fixation R	1	1	12187917269	12188633237	715968	891.49	600.03	56	33	-1	11.58	11.58
Saccade L	1	1	12188633237	12188673116	39879	893.20	585.67	738.79	346.92	2.53	192.66	0.50	63.42	4706.03	-4493.57	3554.03
Saccade R	1	1	12188633237	12188673116	39879	893.20	585.67	738.79	346.92	2.53	192.66	0.50	63.42	4706.03	-4493.57	3554.03
Fixation L	1	2	12188673116	12189946051	1272935	757.59	335.72	45	42	-1	10.22	10.22
Fixation R	1	2	12188673116	12189946051	1272935	757.59	335.72	45	42	-1	11.07	11.07
Saccade L	1	2	12189946051	12190005666	59615	750.44	358.07	1460.49	689.19	8.59	371.12	0.67	144.06	9128.00	-7976.14	6471.93
Saccade R	1	2	12189946051	12190005666	59615	750.44	358.07	1460.49	689.19	8.59	371.12	0.67	144.06	9128.00	-7976.14	6471.93
Fixation L	1	3	12190005666	12190463150	457484	1460.38	738.03	38	56	-1	11.20	11.20
Fixation R	1	3	12190005666	12190463150	457484	1460.38	738.03	38	56	-1	11.44	11.44
Saccade L	1	3	12190463150	12190483031	19881	1488.47	740.42	1507.51	739.97	0.36	25.85	0.00	17.92	224.54	-238.85	200.71
Saccade R	1	3	12190463150	12190483031	19881	1488.47	740.42	1507.51	739.97	0.36	25.85	0.00	17.92	224.54	-238.85	200.71
Fixation L	1	4	12190483031	12190682020	198989	1507.93	738.55	22	12	-1	10.74	10.74
Fixation R	1	4	12190483031	12190682020	198989	1507.93	738.55	22	12	-1	10.88	10.88
Saccade L	1	4	12190682020	12190721772	39752	1511.45	728.36	1505.22	927.63	1.80	130.42	0.50	45.32	3177.26	-2955.06	2310.25
Saccade R	1	4	12190682020	12190721772	39752	1511.45	728.36	1505.22	927.63	1.80	130.42	0.50	45.32	3177.26	-2955.06	2310.25
Fixation L	1	5	12190721772	12191139370	417598	1479.91	950.22	54	37	-1	11.08	11.08
Fixation R	1	5	12190721772	12191139370	417598	1479.91	950.22	54	37	-1	10.88	10.88
Saccade L	1	5	12191139370	12191159376	20006	1451.09	964.04	1353.18	1038.84	0.88	124.63	1.00	43.96	3015.12	-2653.58	2045.94
Saccade R	1	5	12191139370	12191159376	20006	1451.09	964.04	1353.18	1038.84	0.88	124.63	1.00	43.96	3015.12	-2653.58	2045.94
Fixation L	1	6	12191159376	12191378117	218741	1345.30	1037.34	42	17	-1	10.97	10.97
Fixation R	1	6	12191159376	12191378117	218741	1345.30	1037.34	42	17	-1	11.53	11.53
Saccade L	1	6	12191378117	12191397982	19865	1311.91	1037.14	1151.72	991.27	1.17	168.52	1.00	58.85	4178.69	-4139.57	2793.37
Saccade R	1	6	12191378117	12191397982	19865	1311.91	1037.14	1151.72	991.27	1.17	168.52	1.00	58.85	4178.69	-4139.57	2793.37
Fixation L	1	7	12191397982	12191557104	159122	1140.32	1000.69	18	39	-1	10.75	10.75
Fixation R	1	7	12191397982	12191557104	159122	1140.32	1000.69	18	39	-1	11.32	11.32
Saccade L	1	7	12191557104	12191736102	178998	1139.53	982.10	314.79	839.18	13.30	230.13	0.89	74.32	5664.48	-5432.59	3047.62
Saccade R	1	7	12191557104	12191736102	178998	1139.53	982.10	314.79	839.18	13.30	230.13	0.89	74.32	5664.48	-5432.59	3047.62
Fixation L	1	8	12191736102	12191915088	178986	326.70	844.65	28	8	-1	11.17	11.17
Fixation R	1	8	12191736102	12191915088	178986	326.70	844.65	28	8	-1	12.21	12.21
