[BeGaze]
Converted from:	C:\Documents and Settings\iViewX\Desktop\EXPERIMENTATIONS\Experiments\results\finaleart\S20H24222-finaleart-1.idf
Date:	27.03.2019 15:52:24
Version:	BeGaze 2.5.77
Sample Rate:	50
Subject:	S20H24222
Description:	Hugo Brument

Table Header for Fixations:
Event Type	Trial	Number	Start	End	Duration	Location X	Location Y	Dispersion X	Dispersion Y	Plane	Avg. Pupil Size X	Avg. Pupil Size Y

Table Header for Saccades:
Event Type	Trial	Number	Start	End	Duration	Start Loc.X	Start Loc.Y	End Loc.X	End Loc.Y	Amplitude	Peak Speed	Peak Speed At	Average Speed	Peak Accel.	Peak Decel.	Average Accel.

Table Header for Blinks:
Event Type	Trial	Number	Start	End	Duration

Table Header for User Events:
Event Type	Trial	Number	Start	Description

UserEvent	1	1	11183096688	# Message: void.jpg
Saccade L	1	1	11183105576	11183185049	79473	146.48	373.02	143.54	949.89	8.05	319.36	0.75	101.26	7837.58	-7924.37	4189.22
Saccade R	1	1	11183105576	11183185049	79473	146.48	373.02	143.54	949.89	8.05	319.36	0.75	101.26	7837.58	-7924.37	4189.22
Fixation L	1	1	11183185049	11183503412	318363	149.60	957.90	20	14	-1	11.58	11.58
Fixation R	1	1	11183185049	11183503412	318363	149.60	957.90	20	14	-1	13.51	13.51
Blink L	1	1	11183503412	11183602784	99372
Blink R	1	1	11183503412	11183642532	139120
Saccade L	1	2	11183602784	11183761895	159111	0.78	0.00	815.57	1289.44	82.76	1507.57	1.00	520.14	37090.75	-37510.40	10712.32
Fixation L	1	2	11183761895	11183921019	159124	812.18	1298.29	14	15	-1	12.01	12.01
Fixation R	1	2	11183761895	11183921019	159124	812.18	1298.29	14	15	-1	13.28	13.28
Blink L	1	2	11183921019	11184100137	179118
Blink R	1	2	11183921019	11184100137	179118
Saccade L	1	3	11184100137	11184159756	59619	798.67	1308.39	805.42	1300.44	17.30	1515.40	1.00	290.16	32878.91	-37729.70	15136.34
Saccade R	1	2	11184100137	11184159756	59619	798.67	1308.39	805.42	1300.44	17.30	1515.40	1.00	290.16	32878.91	-37729.70	15136.34
Blink L	1	3	11184159756	11184318866	159110
Blink R	1	3	11184159756	11184318866	159110
Fixation L	1	3	11184318866	11184637117	318251	286.36	312.47	14	22	-1	13.78	13.78
Fixation R	1	3	11184318866	11184637117	318251	286.36	312.47	14	22	-1	14.11	14.11
Blink L	1	4	11184637117	11184796226	159109
Blink R	1	4	11184637117	11184796226	159109
Fixation L	1	4	11184796226	11185094585	298359	906.22	592.74	10	26	-1	13.56	13.56
Fixation R	1	4	11184796226	11185094585	298359	906.22	592.74	10	26	-1	14.29	14.29
