[BeGaze]
Converted from:	C:\Documents and Settings\iViewX\Desktop\EXPERIMENTATIONS\Experiments\results\finaleart\S20H24222-finaleart-1.idf
Date:	27.03.2019 15:53:31
Version:	BeGaze 2.5.77
Sample Rate:	50
Subject:	S20H24222
Description:	Hugo Brument

Table Header for Fixations:
Event Type	Trial	Number	Start	End	Duration	Location X	Location Y	Dispersion X	Dispersion Y	Plane	Avg. Pupil Size X	Avg. Pupil Size Y

Table Header for Saccades:
Event Type	Trial	Number	Start	End	Duration	Start Loc.X	Start Loc.Y	End Loc.X	End Loc.Y	Amplitude	Peak Speed	Peak Speed At	Average Speed	Peak Accel.	Peak Decel.	Average Accel.

Table Header for Blinks:
Event Type	Trial	Number	Start	End	Duration

Table Header for User Events:
Event Type	Trial	Number	Start	Description

UserEvent	1	1	11926022888	# Message: Le_Pin_A_St-Tropez_Signac_1909.jpg
Fixation L	1	1	11926027441	11926305906	278465	834.32	626.94	5	38	-1	14.70	14.70
Fixation R	1	1	11926027441	11926305906	278465	834.32	626.94	5	38	-1	14.18	14.18
Saccade L	1	1	11926305906	11926325787	19881	835.85	598.40	899.70	607.46	0.57	65.24	1.00	28.72	1501.55	-1268.53	988.47
Saccade R	1	1	11926305906	11926325787	19881	835.85	598.40	899.70	607.46	0.57	65.24	1.00	28.72	1501.55	-1268.53	988.47
Fixation L	1	2	11926325787	11926465037	139250	894.47	613.91	20	21	-1	14.79	14.79
Fixation R	1	2	11926325787	11926465037	139250	894.47	613.91	20	21	-1	13.96	13.96
Saccade L	1	2	11926465037	11926484898	19861	900.17	611.98	904.37	683.50	0.73	72.47	1.00	36.79	1545.79	-1586.08	1555.53
Saccade R	1	2	11926465037	11926484898	19861	900.17	611.98	904.37	683.50	0.73	72.47	1.00	36.79	1545.79	-1586.08	1555.53
Fixation L	1	3	11926484898	11926703634	218736	901.08	621.80	5	79	-1	13.47	13.47
Fixation R	1	3	11926484898	11926703634	218736	901.08	621.80	5	79	-1	12.69	12.69
Saccade L	1	3	11926703634	11926723644	20010	899.38	604.77	899.81	587.53	0.19	17.44	1.00	9.40	308.70	-213.82	192.78
Saccade R	1	3	11926703634	11926723644	20010	899.38	604.77	899.81	587.53	0.19	17.44	1.00	9.40	308.70	-213.82	192.78
Fixation L	1	4	11926723644	11926962257	238613	904.47	594.14	61	29	-1	11.17	11.17
Fixation R	1	4	11926723644	11926962257	238613	904.47	594.14	61	29	-1	10.46	10.46
Saccade L	1	4	11926962257	11926982127	19870	959.26	607.41	1045.54	801.20	1.55	214.50	1.00	78.13	5251.08	-5128.61	3744.69
Saccade R	1	4	11926962257	11926982127	19870	959.26	607.41	1045.54	801.20	1.55	214.50	1.00	78.13	5251.08	-5128.61	3744.69
Fixation L	1	5	11926982127	11927320241	338114	1051.02	809.34	12	83	-1	10.52	10.52
Fixation R	1	5	11926982127	11927320241	338114	1051.02	809.34	12	83	-1	9.48	9.48
Saccade L	1	5	11927320241	11927340138	19897	1057.97	849.27	1056.77	862.70	0.75	68.38	1.00	37.87	-184.80	-1368.35	972.17
Saccade R	1	5	11927320241	11927340138	19897	1057.97	849.27	1056.77	862.70	0.75	68.38	1.00	37.87	-184.80	-1368.35	972.17
Fixation L	1	6	11927340138	11927479354	139216	1067.00	863.45	14	9	-1	10.74	10.74
Fixation R	1	6	11927340138	11927479354	139216	1067.00	863.45	14	9	-1	9.38	9.38
Saccade L	1	6	11927479354	11927519236	39882	1071.22	858.33	1445.98	867.35	3.17	202.34	0.50	79.40	5043.55	-4865.53	4608.02
Saccade R	1	6	11927479354	11927519236	39882	1071.22	858.33	1445.98	867.35	3.17	202.34	0.50	79.40	5043.55	-4865.53	4608.02
Fixation L	1	7	11927519236	11927718098	198862	1443.14	873.14	15	13	-1	10.19	10.19
Fixation R	1	7	11927519236	11927718098	198862	1443.14	873.14	15	13	-1	9.36	9.36
Saccade L	1	7	11927718098	11927757851	39753	1442.12	872.47	1601.80	1012.17	1.86	123.09	0.50	46.83	3037.85	-2676.91	2504.56
Saccade R	1	7	11927718098	11927757851	39753	1442.12	872.47	1601.80	1012.17	1.86	123.09	0.50	46.83	3037.85	-2676.91	2504.56
Fixation L	1	8	11927757851	11928314824	556973	1600.03	1046.25	33	64	-1	11.00	11.00
Fixation R	1	8	11927757851	11928314824	556973	1600.03	1046.25	33	64	-1	9.69	9.69
Saccade L	1	8	11928314824	11928334698	19874	1617.01	1070.47	1619.45	1067.31	0.05	4.04	1.00	2.76	3.73	-20.50	12.89
Saccade R	1	8	11928314824	11928334698	19874	1617.01	1070.47	1619.45	1067.31	0.05	4.04	1.00	2.76	3.73	-20.50	12.89
Fixation L	1	9	11928334698	11928434193	99495	1620.62	1064.31	14	12	-1	10.97	10.97
Fixation R	1	9	11928334698	11928434193	99495	1620.62	1064.31	14	12	-1	9.59	9.59
Saccade L	1	9	11928434193	11928493816	59623	1610.86	1054.62	1413.30	350.93	7.76	337.51	0.33	130.09	8379.94	-5891.36	5707.03
Saccade R	1	9	11928434193	11928493816	59623	1610.86	1054.62	1413.30	350.93	7.76	337.51	0.33	130.09	8379.94	-5891.36	5707.03
Fixation L	1	10	11928493816	11928652934	159118	1395.23	346.41	25	15	-1	10.98	10.98
Fixation R	1	10	11928493816	11928652934	159118	1395.23	346.41	25	15	-1	9.59	9.59
Saccade L	1	10	11928652934	11928712553	59619	1387.88	348.49	842.60	94.71	6.82	255.15	0.33	114.42	6344.33	-5383.70	4680.27
Saccade R	1	10	11928652934	11928712553	59619	1387.88	348.49	842.60	94.71	6.82	255.15	0.33	114.42	6344.33	-5383.70	4680.27
Fixation L	1	11	11928712553	11928812047	99494	811.22	87.68	52	37	-1	10.71	10.71
Fixation R	1	11	11928712553	11928812047	99494	811.22	87.68	52	37	-1	9.72	9.72
Saccade L	1	11	11928812047	11928911544	99497	813.36	104.28	404.82	106.39	6.06	298.12	0.80	60.95	7227.78	-7305.64	2776.05
Saccade R	1	11	11928812047	11928911544	99497	813.36	104.28	404.82	106.39	6.06	298.12	0.80	60.95	7227.78	-7305.64	2776.05
Fixation L	1	12	11928911544	11929309278	397734	389.47	118.25	23	25	-1	9.97	9.97
Fixation R	1	12	11928911544	11929309278	397734	389.47	118.25	23	25	-1	9.41	9.41
Saccade L	1	12	11929309278	11929349030	39752	390.98	129.89	743.61	135.76	3.05	195.24	0.50	76.67	4683.61	-4691.48	4272.89
Saccade R	1	12	11929309278	11929349030	39752	390.98	129.89	743.61	135.76	3.05	195.24	0.50	76.67	4683.61	-4691.48	4272.89
Fixation L	1	13	11929349030	11929548019	198989	745.00	153.09	5	27	-1	10.69	10.69
Fixation R	1	13	11929349030	11929548019	198989	745.00	153.09	5	27	-1	9.92	9.92
Saccade L	1	13	11929548019	11929587768	39749	748.02	161.10	1114.63	182.34	3.26	245.72	0.50	82.06	5956.49	-5448.50	4372.42
Saccade R	1	13	11929548019	11929587768	39749	748.02	161.10	1114.63	182.34	3.26	245.72	0.50	82.06	5956.49	-5448.50	4372.42
Fixation L	1	14	11929587768	11929906004	318236	1114.48	219.18	19	51	-1	11.47	11.47
Fixation R	1	14	11929587768	11929906004	318236	1114.48	219.18	19	51	-1	10.47	10.47
Saccade L	1	14	11929906004	11930005501	99497	1103.80	225.33	487.72	764.71	12.53	355.06	0.40	125.97	8774.13	-7687.13	5066.71
Saccade R	1	14	11929906004	11930005501	99497	1103.80	225.33	487.72	764.71	12.53	355.06	0.40	125.97	8774.13	-7687.13	5066.71
