[BeGaze]
Converted from:	C:\Documents and Settings\iViewX\Desktop\EXPERIMENTATIONS\Experiments\results\finaleart\S20H24222-finaleart-1.idf
Date:	27.03.2019 15:53:16
Version:	BeGaze 2.5.77
Sample Rate:	50
Subject:	S20H24222
Description:	Hugo Brument

Table Header for Fixations:
Event Type	Trial	Number	Start	End	Duration	Location X	Location Y	Dispersion X	Dispersion Y	Plane	Avg. Pupil Size X	Avg. Pupil Size Y

Table Header for Saccades:
Event Type	Trial	Number	Start	End	Duration	Start Loc.X	Start Loc.Y	End Loc.X	End Loc.Y	Amplitude	Peak Speed	Peak Speed At	Average Speed	Peak Accel.	Peak Decel.	Average Accel.

Table Header for Blinks:
Event Type	Trial	Number	Start	End	Duration

Table Header for User Events:
Event Type	Trial	Number	Start	Description

UserEvent	1	1	11822082325	# Message: Nature_Morte_Aux_Raisins_Sur_Un_Plat_Derain_1944.jpg
Fixation L	1	1	11822101594	11822260753	159159	814.65	564.51	57	42	-1	14.84	14.84
Fixation R	1	1	11822101594	11822260753	159159	814.65	564.51	57	42	-1	14.52	14.52
Saccade L	1	1	11822260753	11822280690	19937	778.40	540.75	764.01	565.14	0.49	35.01	1.00	24.73	562.29	-159.23	266.21
Saccade R	1	1	11822260753	11822280690	19937	778.40	540.75	764.01	565.14	0.49	35.01	1.00	24.73	562.29	-159.23	266.21
Fixation L	1	2	11822280690	11822578932	298242	768.06	543.43	9	37	-1	15.01	15.01
Fixation R	1	2	11822280690	11822578932	298242	768.06	543.43	9	37	-1	14.78	14.78
Saccade L	1	2	11822578932	11822598932	20000	770.07	535.92	872.55	537.56	0.72	103.67	1.00	36.24	2575.26	-2518.69	1868.82
Saccade R	1	2	11822578932	11822598932	20000	770.07	535.92	872.55	537.56	0.72	103.67	1.00	36.24	2575.26	-2518.69	1868.82
Fixation L	1	3	11822598932	11823116028	517096	827.31	535.46	67	31	-1	13.56	13.56
Fixation R	1	3	11822598932	11823116028	517096	827.31	535.46	67	31	-1	13.20	13.20
Saccade L	1	3	11823116028	11823155780	39752	807.79	526.38	582.78	269.19	2.97	247.71	0.50	74.71	6157.88	-5996.80	4268.78
Saccade R	1	3	11823116028	11823155780	39752	807.79	526.38	582.78	269.19	2.97	247.71	0.50	74.71	6157.88	-5996.80	4268.78
Fixation L	1	4	11823155780	11823414397	258617	580.82	256.21	24	53	-1	11.91	11.91
Fixation R	1	4	11823155780	11823414397	258617	580.82	256.21	24	53	-1	11.49	11.49
Saccade L	1	4	11823414397	11823434268	19871	567.27	250.97	556.67	207.71	0.45	45.06	1.00	22.47	810.48	-901.90	770.69
Saccade R	1	4	11823414397	11823434268	19871	567.27	250.97	556.67	207.71	0.45	45.06	1.00	22.47	810.48	-901.90	770.69
Fixation L	1	5	11823434268	11823712759	278491	554.31	215.37	16	23	-1	11.53	11.53
Fixation R	1	5	11823434268	11823712759	278491	554.31	215.37	16	23	-1	11.34	11.34
Saccade L	1	5	11823712759	11823752505	39746	556.66	230.59	886.82	228.12	2.94	189.45	0.50	73.98	4435.32	-4482.83	3923.92
Saccade R	1	5	11823712759	11823752505	39746	556.66	230.59	886.82	228.12	2.94	189.45	0.50	73.98	4435.32	-4482.83	3923.92
Fixation L	1	6	11823752505	11823971247	218742	887.31	224.01	5	36	-1	11.76	11.76
Fixation R	1	6	11823752505	11823971247	218742	887.31	224.01	5	36	-1	11.60	11.60
Saccade L	1	6	11823971247	11824011121	39874	886.30	202.22	1329.31	214.31	3.81	267.37	0.50	95.59	6545.90	-6519.17	5422.13
Saccade R	1	6	11823971247	11824011121	39874	886.30	202.22	1329.31	214.31	3.81	267.37	0.50	95.59	6545.90	-6519.17	5422.13
Fixation L	1	7	11824011121	11824190110	178989	1328.25	215.68	12	17	-1	11.91	11.91
Fixation R	1	7	11824011121	11824190110	178989	1328.25	215.68	12	17	-1	11.50	11.50
Saccade L	1	7	11824190110	11824249728	59618	1332.43	224.10	1569.59	768.94	6.68	283.48	0.33	112.07	6752.29	-5995.53	5172.30
Saccade R	1	7	11824190110	11824249728	59618	1332.43	224.10	1569.59	768.94	6.68	283.48	0.33	112.07	6752.29	-5995.53	5172.30
Fixation L	1	8	11824249728	11824468595	218867	1569.58	809.78	12	49	-1	12.64	12.64
Fixation R	1	8	11824249728	11824468595	218867	1569.58	809.78	12	49	-1	11.68	11.68
Saccade L	1	8	11824468595	11824508348	39753	1564.50	816.35	1177.60	649.60	3.63	283.76	1.00	91.25	7042.23	-6347.30	5147.57
Saccade R	1	8	11824468595	11824508348	39753	1564.50	816.35	1177.60	649.60	3.63	283.76	1.00	91.25	7042.23	-6347.30	5147.57
Fixation L	1	9	11824508348	11824766959	258611	1147.54	641.65	44	23	-1	13.35	13.35
Fixation R	1	9	11824508348	11824766959	258611	1147.54	641.65	44	23	-1	12.34	12.34
Saccade L	1	9	11824766959	11824806710	39751	1141.72	630.64	906.21	462.71	2.61	161.30	1.00	65.61	3867.45	-3943.75	3635.95
Saccade R	1	9	11824766959	11824806710	39751	1141.72	630.64	906.21	462.71	2.61	161.30	1.00	65.61	3867.45	-3943.75	3635.95
Fixation L	1	10	11824806710	11825005570	198860	918.13	477.52	19	30	-1	13.45	13.45
Fixation R	1	10	11824806710	11825005570	198860	918.13	477.52	19	30	-1	12.84	12.84
Saccade L	1	10	11825005570	11825045321	39751	914.40	480.83	427.03	876.64	5.39	370.46	0.50	135.69	9076.68	-8725.28	7633.69
Saccade R	1	10	11825005570	11825045321	39751	914.40	480.83	427.03	876.64	5.39	370.46	0.50	135.69	9076.68	-8725.28	7633.69
Fixation L	1	11	11825045321	11825303942	258621	451.96	884.16	39	48	-1	13.45	13.45
Fixation R	1	11	11825045321	11825303942	258621	451.96	884.16	39	48	-1	13.17	13.17
Saccade L	1	11	11825303942	11825383435	79493	460.44	886.19	1381.29	1020.39	11.26	488.75	0.50	141.59	12092.63	-10871.23	6853.17
Saccade R	1	11	11825303942	11825383435	79493	460.44	886.19	1381.29	1020.39	11.26	488.75	0.50	141.59	12092.63	-10871.23	6853.17
Fixation L	1	12	11825383435	11825781297	397862	1427.32	1026.87	57	16	-1	13.67	13.67
Fixation R	1	12	11825383435	11825781297	397862	1427.32	1026.87	57	16	-1	13.22	13.22
Saccade L	1	12	11825781297	11825860909	79612	1420.05	1036.92	801.19	714.29	8.56	310.70	0.50	107.58	7613.48	-5251.07	4306.46
Saccade R	1	12	11825781297	11825860909	79612	1420.05	1036.92	801.19	714.29	8.56	310.70	0.50	107.58	7613.48	-5251.07	4306.46
Fixation L	1	13	11825860909	11826079648	218739	818.61	717.79	24	45	-1	14.34	14.34
Fixation R	1	13	11825860909	11826079648	218739	818.61	717.79	24	45	-1	13.89	13.89
