[BeGaze]
Converted from:	C:\Documents and Settings\iViewX\Desktop\EXPERIMENTATIONS\Experiments\results\finaleart\S20H24222-finaleart-1.idf
Date:	27.03.2019 15:52:35
Version:	BeGaze 2.5.77
Sample Rate:	50
Subject:	S20H24222
Description:	Hugo Brument

Table Header for Fixations:
Event Type	Trial	Number	Start	End	Duration	Location X	Location Y	Dispersion X	Dispersion Y	Plane	Avg. Pupil Size X	Avg. Pupil Size Y

Table Header for Saccades:
Event Type	Trial	Number	Start	End	Duration	Start Loc.X	Start Loc.Y	End Loc.X	End Loc.Y	Amplitude	Peak Speed	Peak Speed At	Average Speed	Peak Accel.	Peak Decel.	Average Accel.

Table Header for Blinks:
Event Type	Trial	Number	Start	End	Duration

Table Header for User Events:
Event Type	Trial	Number	Start	Description

UserEvent	1	1	11321317879	# Message: void.jpg
Saccade L	1	1	11321322911	11321382659	59748	1366.10	547.83	1452.39	897.83	5.21	225.68	1.00	87.24	5475.20	-5281.94	3639.66
Saccade R	1	1	11321322911	11321382659	59748	1366.10	547.83	1452.39	897.83	5.21	225.68	1.00	87.24	5475.20	-5281.94	3639.66
Fixation L	1	1	11321382659	11321740636	357977	1470.55	937.82	24	51	-1	11.24	11.24
Fixation R	1	1	11321382659	11321740636	357977	1470.55	937.82	24	51	-1	11.23	11.23
Blink L	1	1	11321740636	11321999250	258614
Blink R	1	1	11321740636	11321999250	258614
Fixation L	1	2	11321999250	11322416860	417610	1091.36	1030.98	25	43	-1	12.48	12.48
Fixation R	1	2	11321999250	11322416860	417610	1091.36	1030.98	25	43	-1	13.09	13.09
Saccade L	1	2	11322416860	11322456722	39862	1092.54	1044.18	1330.95	1076.90	2.12	171.58	0.50	53.15	4249.00	-3939.49	2832.13
Saccade R	1	2	11322416860	11322456722	39862	1092.54	1044.18	1330.95	1076.90	2.12	171.58	0.50	53.15	4249.00	-3939.49	2832.13
Fixation L	1	3	11322456722	11322615846	159124	1332.62	1086.41	13	25	-1	12.92	12.92
Fixation R	1	3	11322456722	11322615846	159124	1332.62	1086.41	13	25	-1	13.56	13.56
Saccade L	1	3	11322615846	11322635719	19873	1335.65	1092.70	1396.72	1228.49	0.84	150.59	1.00	42.19	3686.17	-3349.71	2456.41
Saccade R	1	3	11322615846	11322635719	19873	1335.65	1092.70	1396.72	1228.49	0.84	150.59	1.00	42.19	3686.17	-3349.71	2456.41
Fixation L	1	4	11322635719	11323033448	397729	1410.21	1256.73	26	36	-1	13.31	13.31
Fixation R	1	4	11322635719	11323033448	397729	1410.21	1256.73	26	36	-1	13.84	13.84
Blink L	1	2	11323033448	11323212444	178996
Blink R	1	2	11323033448	11323212444	178996
Fixation L	1	5	11323212444	11323311939	99495	957.60	501.64	9	51	-1	13.88	13.88
Fixation R	1	5	11323212444	11323311939	99495	957.60	501.64	9	51	-1	13.35	13.35
