[BeGaze]
Converted from:	C:\Documents and Settings\iViewX\Desktop\EXPERIMENTATIONS\Experiments\results\finaleart\S20H24222-finaleart-1.idf
Date:	27.03.2019 15:52:15
Version:	BeGaze 2.5.77
Sample Rate:	50
Subject:	S20H24222
Description:	Hugo Brument

Table Header for Fixations:
Event Type	Trial	Number	Start	End	Duration	Location X	Location Y	Dispersion X	Dispersion Y	Plane	Avg. Pupil Size X	Avg. Pupil Size Y

Table Header for Saccades:
Event Type	Trial	Number	Start	End	Duration	Start Loc.X	Start Loc.Y	End Loc.X	End Loc.Y	Amplitude	Peak Speed	Peak Speed At	Average Speed	Peak Accel.	Peak Decel.	Average Accel.

Table Header for Blinks:
Event Type	Trial	Number	Start	End	Duration

Table Header for User Events:
Event Type	Trial	Number	Start	Description

UserEvent	1	1	11121991481	# Message: void.jpg
Fixation L	1	1	11122003095	11122102584	99489	1084.15	881.21	85	7	-1	13.49	13.49
Fixation R	1	1	11122003095	11122102584	99489	1084.15	881.21	85	7	-1	13.74	13.74
Saccade L	1	1	11122102584	11122202085	99501	1013.98	885.82	1091.98	870.98	2.67	98.75	1.00	26.79	2400.12	-2194.97	1029.12
Saccade R	1	1	11122102584	11122202085	99501	1013.98	885.82	1091.98	870.98	2.67	98.75	1.00	26.79	2400.12	-2194.97	1029.12
Fixation L	1	2	11122202085	11122321336	119251	1085.58	856.18	11	26	-1	13.59	13.59
Fixation R	1	2	11122202085	11122321336	119251	1085.58	856.18	11	26	-1	14.00	14.00
Saccade L	1	2	11122321336	11122341353	20017	1083.75	844.65	995.87	846.82	0.57	88.92	1.00	28.40	1974.02	-2171.95	1452.93
Saccade R	1	2	11122321336	11122341353	20017	1083.75	844.65	995.87	846.82	0.57	88.92	1.00	28.40	1974.02	-2171.95	1452.93
Fixation L	1	3	11122341353	11122699315	357962	997.22	861.63	19	27	-1	13.67	13.67
Fixation R	1	3	11122341353	11122699315	357962	997.22	861.63	19	27	-1	14.15	14.15
Blink L	1	1	11122699315	11122878308	178993
Blink R	1	1	11122699315	11122878308	178993
Fixation L	1	4	11122878308	11123654013	775705	948.39	682.83	11	23	-1	12.16	12.16
Fixation R	1	4	11122878308	11123654013	775705	948.39	682.83	11	23	-1	14.11	14.11
Saccade L	1	3	11123654013	11123673897	19884	943.83	684.35	897.10	615.43	0.60	84.22	1.00	30.25	2098.22	-1511.98	1332.77
Saccade R	1	3	11123654013	11123673897	19884	943.83	684.35	897.10	615.43	0.60	84.22	1.00	30.25	2098.22	-1511.98	1332.77
Fixation L	1	5	11123673897	11123992136	318239	882.84	604.38	27	28	-1	12.95	12.95
Fixation R	1	5	11123673897	11123992136	318239	882.84	604.38	27	28	-1	14.75	14.75
