[BeGaze]
Converted from:	C:\Documents and Settings\iViewX\Desktop\EXPERIMENTATIONS\Experiments\results\finaleart\S20H24222-finaleart-1.idf
Date:	27.03.2019 15:53:21
Version:	BeGaze 2.5.77
Sample Rate:	50
Subject:	S20H24222
Description:	Hugo Brument

Table Header for Fixations:
Event Type	Trial	Number	Start	End	Duration	Location X	Location Y	Dispersion X	Dispersion Y	Plane	Avg. Pupil Size X	Avg. Pupil Size Y

Table Header for Saccades:
Event Type	Trial	Number	Start	End	Duration	Start Loc.X	Start Loc.Y	End Loc.X	End Loc.Y	Amplitude	Peak Speed	Peak Speed At	Average Speed	Peak Accel.	Peak Decel.	Average Accel.

Table Header for Blinks:
Event Type	Trial	Number	Start	End	Duration

Table Header for User Events:
Event Type	Trial	Number	Start	Description

UserEvent	1	1	11858782330	# Message: still-life-with-bottle-of-wind_cross_1904.jpg
Fixation L	1	1	11858798857	11859534809	735952	937.60	592.12	28	55	-1	14.96	14.96
Fixation R	1	1	11858798857	11859534809	735952	937.60	592.12	28	55	-1	14.79	14.79
Saccade L	1	1	11859534809	11859554695	19886	919.61	559.87	835.68	563.25	0.71	84.97	1.00	35.47	1774.76	-1918.53	1299.76
Saccade R	1	1	11859534809	11859554695	19886	919.61	559.87	835.68	563.25	0.71	84.97	1.00	35.47	1774.76	-1918.53	1299.76
Fixation L	1	2	11859554695	11860071918	517223	805.16	579.18	36	36	-1	12.24	12.24
Fixation R	1	2	11859554695	11860071918	517223	805.16	579.18	36	36	-1	11.65	11.65
Saccade L	1	2	11860071918	11860111672	39754	801.72	581.00	1085.70	601.74	2.37	147.48	0.50	59.52	3534.83	-3647.99	3497.03
Saccade R	1	2	11860071918	11860111672	39754	801.72	581.00	1085.70	601.74	2.37	147.48	0.50	59.52	3534.83	-3647.99	3497.03
Fixation L	1	3	11860111672	11860350311	238639	1089.78	607.10	15	18	-1	13.96	13.96
Fixation R	1	3	11860111672	11860350311	238639	1089.78	607.10	15	18	-1	12.97	12.97
Saccade L	1	3	11860350311	11860370160	19849	1090.67	607.67	1202.52	609.34	0.76	113.15	1.00	38.53	2668.36	-2201.21	1841.42
Saccade R	1	3	11860350311	11860370160	19849	1090.67	607.67	1202.52	609.34	0.76	113.15	1.00	38.53	2668.36	-2201.21	1841.42
Fixation L	1	4	11860370160	11860748144	377984	1192.92	628.03	29	33	-1	14.53	14.53
Fixation R	1	4	11860370160	11860748144	377984	1192.92	628.03	29	33	-1	13.36	13.36
Saccade L	1	4	11860748144	11860787892	39748	1196.97	629.26	1413.31	850.13	2.89	176.90	0.50	72.79	4331.49	-3854.64	3839.25
Saccade R	1	4	11860748144	11860787892	39748	1196.97	629.26	1413.31	850.13	2.89	176.90	0.50	72.79	4331.49	-3854.64	3839.25
Fixation L	1	5	11860787892	11861125999	338107	1431.18	830.66	23	28	-1	14.71	14.71
Fixation R	1	5	11860787892	11861125999	338107	1431.18	830.66	23	28	-1	13.46	13.46
Saccade L	1	5	11861125999	11861185751	59752	1437.20	833.66	1085.59	768.82	3.99	201.58	0.67	66.81	4933.06	-4538.88	3166.49
Saccade R	1	5	11861125999	11861185751	59752	1437.20	833.66	1085.59	768.82	3.99	201.58	0.67	66.81	4933.06	-4538.88	3166.49
Fixation L	1	6	11861185751	11861444238	258487	1069.29	734.34	26	61	-1	14.46	14.46
Fixation R	1	6	11861185751	11861444238	258487	1069.29	734.34	26	61	-1	13.00	13.00
Saccade L	1	6	11861444238	11861484114	39876	1058.69	734.12	649.82	885.50	3.95	342.40	0.50	99.00	8446.50	-8306.48	5676.91
Saccade R	1	6	11861444238	11861484114	39876	1058.69	734.12	649.82	885.50	3.95	342.40	0.50	99.00	8446.50	-8306.48	5676.91
Fixation L	1	7	11861484114	11861762472	278358	628.12	873.53	64	19	-1	14.29	14.29
Fixation R	1	7	11861484114	11861762472	278358	628.12	873.53	64	19	-1	13.82	13.82
Saccade L	1	7	11861762472	11861782466	19994	585.30	866.26	403.51	920.27	1.23	191.78	1.00	61.42	4683.61	-4431.77	3296.53
Saccade R	1	7	11861762472	11861782466	19994	585.30	866.26	403.51	920.27	1.23	191.78	1.00	61.42	4683.61	-4431.77	3296.53
Fixation L	1	8	11861782466	11862080711	298245	412.20	943.83	18	69	-1	14.02	14.02
Fixation R	1	8	11861782466	11862080711	298245	412.20	943.83	18	69	-1	13.86	13.86
Saccade L	1	8	11862080711	11862120588	39877	422.37	887.85	750.34	467.03	4.99	357.80	0.50	125.09	8779.49	-8638.93	6157.73
Saccade R	1	8	11862080711	11862120588	39877	422.37	887.85	750.34	467.03	4.99	357.80	0.50	125.09	8779.49	-8638.93	6157.73
Fixation L	1	9	11862120588	11862418944	298356	775.06	455.64	36	36	-1	14.17	14.17
Fixation R	1	9	11862120588	11862418944	298356	775.06	455.64	36	36	-1	13.75	13.75
Saccade L	1	9	11862418944	11862458698	39754	787.09	441.70	1147.02	204.48	3.85	273.80	1.00	96.81	6755.98	-6427.76	5417.20
Saccade R	1	9	11862418944	11862458698	39754	787.09	441.70	1147.02	204.48	3.85	273.80	1.00	96.81	6755.98	-6427.76	5417.20
Fixation L	1	10	11862458698	11862776930	318232	1133.57	199.74	17	23	-1	13.94	13.94
Fixation R	1	10	11862458698	11862776930	318232	1133.57	199.74	17	23	-1	13.30	13.30
