[BeGaze]
Converted from:	C:\Documents and Settings\iViewX\Desktop\EXPERIMENTATIONS\Experiments\results\finaleart\S20H24222-finaleart-1.idf
Date:	27.03.2019 15:53:20
Version:	BeGaze 2.5.77
Sample Rate:	50
Subject:	S20H24222
Description:	Hugo Brument

Table Header for Fixations:
Event Type	Trial	Number	Start	End	Duration	Location X	Location Y	Dispersion X	Dispersion Y	Plane	Avg. Pupil Size X	Avg. Pupil Size Y

Table Header for Saccades:
Event Type	Trial	Number	Start	End	Duration	Start Loc.X	Start Loc.Y	End Loc.X	End Loc.Y	Amplitude	Peak Speed	Peak Speed At	Average Speed	Peak Accel.	Peak Decel.	Average Accel.

Table Header for Blinks:
Event Type	Trial	Number	Start	End	Duration

Table Header for User Events:
Event Type	Trial	Number	Start	Description

UserEvent	1	1	11850629080	# Message: void.jpg
Fixation L	1	1	11850643962	11851141180	497218	1009.74	583.25	9	61	-1	12.37	12.37
Fixation R	1	1	11850643962	11851141180	497218	1009.74	583.25	9	61	-1	13.22	13.22
Saccade L	1	1	11851141180	11851180933	39753	1008.68	565.32	807.06	429.79	2.36	139.84	1.00	59.48	3322.93	-3151.25	2978.40
Saccade R	1	1	11851141180	11851180933	39753	1008.68	565.32	807.06	429.79	2.36	139.84	1.00	59.48	3322.93	-3151.25	2978.40
Fixation L	1	2	11851180933	11851598664	417731	819.91	468.74	22	76	-1	12.78	12.78
Fixation R	1	2	11851180933	11851598664	417731	819.91	468.74	22	76	-1	13.94	13.94
Saccade L	1	2	11851598664	11851777660	178996	824.73	506.34	879.07	455.88	8.64	144.21	0.56	48.25	3353.64	-2255.42	1033.02
Saccade R	1	2	11851598664	11851678161	79497	824.73	506.34	842.63	476.24	2.57	144.21	1.00	32.34	3353.64	-549.45	691.21
Blink R	1	1	11851678161	11851797522	119361
Fixation L	1	3	11851777660	11851936792	159132	891.46	507.23	16	82	-1	13.92	13.92
Fixation R	1	3	11851797522	11852076011	278489	893.95	522.75	10	69	-1	14.30	14.30
Saccade L	1	3	11851936792	11851956644	19852	895.04	538.83	894.55	539.05	0.06	6.00	0.00	2.82	6.55	-83.88	43.13
Fixation L	1	4	11851956644	11852095901	139257	892.79	533.48	19	11	-1	13.60	13.60
Blink R	1	2	11852076011	11852175514	99503
Saccade L	1	4	11852095901	11852155535	59634	877.09	535.72	856.69	533.59	3.71	161.84	0.67	62.27	3506.62	-3669.94	2194.54
Fixation L	1	5	11852155535	11852612993	457458	835.28	539.91	28	30	-1	14.09	14.09
Fixation R	1	4	11852175514	11852612993	437479	834.35	540.19	18	30	-1	13.84	13.84
