[BeGaze]
Converted from:	C:\Documents and Settings\iViewX\Desktop\EXPERIMENTATIONS\Experiments\results\finaleart\S20H24222-finaleart-1.idf
Date:	27.03.2019 15:53:35
Version:	BeGaze 2.5.77
Sample Rate:	50
Subject:	S20H24222
Description:	Hugo Brument

Table Header for Fixations:
Event Type	Trial	Number	Start	End	Duration	Location X	Location Y	Dispersion X	Dispersion Y	Plane	Avg. Pupil Size X	Avg. Pupil Size Y

Table Header for Saccades:
Event Type	Trial	Number	Start	End	Duration	Start Loc.X	Start Loc.Y	End Loc.X	End Loc.Y	Amplitude	Peak Speed	Peak Speed At	Average Speed	Peak Accel.	Peak Decel.	Average Accel.

Table Header for Blinks:
Event Type	Trial	Number	Start	End	Duration

Table Header for User Events:
Event Type	Trial	Number	Start	Description

UserEvent	1	1	11956652845	# Message: The_Gardener_Vlaminck_1904.jpg
Fixation L	1	1	11956658219	11956777596	119377	905.98	388.88	12	8	-1	13.24	13.24
Fixation R	1	1	11956658219	11956777596	119377	905.98	388.88	12	8	-1	13.92	13.92
Saccade L	1	1	11956777596	11956797474	19878	909.36	388.99	794.30	358.47	0.64	120.40	1.00	32.20	2954.33	-2713.18	1899.07
Saccade R	1	1	11956777596	11956797474	19878	909.36	388.99	794.30	358.47	0.64	120.40	1.00	32.20	2954.33	-2713.18	1899.07
Fixation L	1	2	11956797474	11957115689	318215	786.93	352.45	11	30	-1	12.84	12.84
Fixation R	1	2	11956797474	11957115689	318215	786.93	352.45	11	30	-1	13.63	13.63
Saccade L	1	2	11957115689	11957155433	39744	784.02	348.31	1233.92	343.74	3.80	331.15	0.50	95.59	8159.13	-8048.54	5457.84
Saccade R	1	2	11957115689	11957155433	39744	784.02	348.31	1233.92	343.74	3.80	331.15	0.50	95.59	8159.13	-8048.54	5457.84
Fixation L	1	3	11957155433	11957314568	159135	1230.04	350.66	6	27	-1	12.48	12.48
Fixation R	1	3	11957155433	11957314568	159135	1230.04	350.66	6	27	-1	13.19	13.19
Saccade L	1	3	11957314568	11957354306	39738	1231.87	348.67	822.66	657.40	4.83	310.84	1.00	121.66	7484.20	-7189.70	5940.41
Saccade R	1	3	11957314568	11957354306	39738	1231.87	348.67	822.66	657.40	4.83	310.84	1.00	121.66	7484.20	-7189.70	5940.41
Fixation L	1	4	11957354306	11957811806	457500	814.12	694.01	19	76	-1	10.45	10.45
Fixation R	1	4	11957354306	11957811806	457500	814.12	694.01	19	76	-1	11.13	11.13
Saccade L	1	4	11957811806	11957831788	19982	820.19	633.26	819.45	550.42	0.91	83.80	1.00	45.70	1697.09	-1762.01	1407.80
Saccade R	1	4	11957811806	11957831788	19982	820.19	633.26	819.45	550.42	0.91	83.80	1.00	45.70	1697.09	-1762.01	1407.80
Fixation L	1	5	11957831788	11958110151	278363	818.43	512.69	7	53	-1	10.56	10.56
Fixation R	1	5	11957831788	11958110151	278363	818.43	512.69	7	53	-1	11.44	11.44
Saccade L	1	5	11958110151	11958130025	19874	814.11	497.23	787.70	384.39	0.75	117.22	1.00	37.88	2871.72	-2119.01	1782.85
Saccade R	1	5	11958110151	11958130025	19874	814.11	497.23	787.70	384.39	0.75	117.22	1.00	37.88	2871.72	-2119.01	1782.85
Fixation L	1	6	11958130025	11958388636	258611	755.53	360.19	45	44	-1	10.26	10.26
Fixation R	1	6	11958130025	11958388636	258611	755.53	360.19	45	44	-1	11.27	11.27
Saccade L	1	6	11958388636	11958408515	19879	758.17	392.37	762.87	535.69	0.95	145.04	1.00	47.88	3590.64	-3403.00	2641.19
Saccade R	1	6	11958388636	11958408515	19879	758.17	392.37	762.87	535.69	0.95	145.04	1.00	47.88	3590.64	-3403.00	2641.19
Fixation L	1	7	11958408515	11958766619	358104	773.31	554.59	23	55	-1	10.75	10.75
Fixation R	1	7	11958408515	11958766619	358104	773.31	554.59	23	55	-1	11.74	11.74
Saccade L	1	7	11958766619	11958786494	19875	771.49	536.26	747.58	452.41	0.77	88.20	1.00	38.51	1742.64	-1976.34	1563.20
Saccade R	1	7	11958766619	11958786494	19875	771.49	536.26	747.58	452.41	0.77	88.20	1.00	38.51	1742.64	-1976.34	1563.20
Fixation L	1	8	11958786494	11959025108	238614	740.57	441.07	22	26	-1	11.33	11.33
Fixation R	1	8	11958786494	11959025108	238614	740.57	441.07	22	26	-1	12.17	12.17
Saccade L	1	8	11959025108	11959064858	39750	731.18	429.92	690.38	238.34	1.79	102.46	0.50	45.15	2548.63	-2085.97	2212.60
Saccade R	1	8	11959025108	11959064858	39750	731.18	429.92	690.38	238.34	1.79	102.46	0.50	45.15	2548.63	-2085.97	2212.60
Fixation L	1	9	11959064858	11959224107	159249	690.97	244.82	29	21	-1	10.85	10.85
Fixation R	1	9	11959064858	11959224107	159249	690.97	244.82	29	21	-1	11.76	11.76
Saccade L	1	9	11959224107	11959263874	39767	680.12	250.94	1260.78	260.36	5.01	305.01	1.00	125.99	7495.49	-7222.97	6981.16
Saccade R	1	9	11959224107	11959263874	39767	680.12	250.94	1260.78	260.36	5.01	305.01	1.00	125.99	7495.49	-7222.97	6981.16
Fixation L	1	10	11959263874	11959522340	258466	1272.85	237.89	16	45	-1	10.89	10.89
Fixation R	1	10	11959263874	11959522340	258466	1272.85	237.89	16	45	-1	11.35	11.35
Saccade L	1	10	11959522340	11959562209	39869	1270.43	220.88	1552.27	232.26	2.48	195.35	1.00	62.19	4535.84	-4630.98	3360.32
Saccade R	1	10	11959522340	11959562209	39869	1270.43	220.88	1552.27	232.26	2.48	195.35	1.00	62.19	4535.84	-4630.98	3360.32
Fixation L	1	11	11959562209	11959800830	238621	1556.47	255.07	14	43	-1	11.36	11.36
Fixation R	1	11	11959562209	11959800830	238621	1556.47	255.07	14	43	-1	11.50	11.50
Saccade L	1	11	11959800830	11959860576	59746	1565.69	270.52	801.23	738.34	9.32	487.34	0.67	156.04	12029.56	-11817.99	6831.76
Saccade R	1	11	11959800830	11959860576	59746	1565.69	270.52	801.23	738.34	9.32	487.34	0.67	156.04	12029.56	-11817.99	6831.76
Fixation L	1	12	11959860576	11960198687	338111	784.83	757.33	23	31	-1	11.90	11.90
Fixation R	1	12	11959860576	11960198687	338111	784.83	757.33	23	31	-1	12.31	12.31
Saccade L	1	12	11960198687	11960238435	39748	783.55	767.09	329.65	1025.56	4.44	279.38	1.00	111.71	6748.26	-6388.71	6265.18
Saccade R	1	12	11960198687	11960238435	39748	783.55	767.09	329.65	1025.56	4.44	279.38	1.00	111.71	6748.26	-6388.71	6265.18
Fixation L	1	13	11960238435	11960437289	198854	292.57	1048.18	64	34	-1	11.22	11.22
Fixation R	1	13	11960238435	11960437289	198854	292.57	1048.18	64	34	-1	12.01	12.01
Saccade L	1	13	11960437289	11960497048	59759	279.47	1059.62	702.04	411.92	8.11	438.03	0.67	135.71	10547.72	-10843.50	5972.30
Saccade R	1	13	11960437289	11960497048	59759	279.47	1059.62	702.04	411.92	8.11	438.03	0.67	135.71	10547.72	-10843.50	5972.30
Fixation L	1	14	11960497048	11960636286	139238	703.02	372.13	14	70	-1	11.05	11.05
Fixation R	1	14	11960497048	11960636286	139238	703.02	372.13	14	70	-1	11.92	11.92
