[BeGaze]
Converted from:	C:\Documents and Settings\iViewX\Desktop\EXPERIMENTATIONS\Experiments\results\finaleart\S20H24222-finaleart-1.idf
Date:	27.03.2019 15:53:16
Version:	BeGaze 2.5.77
Sample Rate:	50
Subject:	S20H24222
Description:	Hugo Brument

Table Header for Fixations:
Event Type	Trial	Number	Start	End	Duration	Location X	Location Y	Dispersion X	Dispersion Y	Plane	Avg. Pupil Size X	Avg. Pupil Size Y

Table Header for Saccades:
Event Type	Trial	Number	Start	End	Duration	Start Loc.X	Start Loc.Y	End Loc.X	End Loc.Y	Amplitude	Peak Speed	Peak Speed At	Average Speed	Peak Accel.	Peak Decel.	Average Accel.

Table Header for Blinks:
Event Type	Trial	Number	Start	End	Duration

Table Header for User Events:
Event Type	Trial	Number	Start	Description

UserEvent	1	1	11820033018	# Message: void.jpg
Fixation L	1	1	11820033049	11820172288	139239	897.39	437.38	36	17	-1	15.13	15.13
Fixation R	1	1	11820033049	11820172288	139239	897.39	437.38	36	17	-1	16.86	16.86
Saccade L	1	1	11820172288	11820192301	20013	867.11	432.95	647.73	416.78	1.39	222.41	1.00	69.37	5495.21	-5223.57	3692.36
Saccade R	1	1	11820172288	11820192301	20013	867.11	432.95	647.73	416.78	1.39	222.41	1.00	69.37	5495.21	-5223.57	3692.36
Fixation L	1	2	11820192301	11820669516	477215	606.15	413.37	54	32	-1	14.15	14.15
Fixation R	1	2	11820192301	11820669516	477215	606.15	413.37	54	32	-1	16.19	16.19
Saccade L	1	2	11820669516	11820689386	19870	609.46	411.63	610.31	372.07	0.28	40.02	1.00	14.08	789.36	-639.88	478.50
Saccade R	1	2	11820669516	11820689386	19870	609.46	411.63	610.31	372.07	0.28	40.02	1.00	14.08	789.36	-639.88	478.50
Fixation L	1	3	11820689386	11820828638	139252	612.69	368.76	6	15	-1	12.86	12.86
Fixation R	1	3	11820689386	11820828638	139252	612.69	368.76	6	15	-1	14.44	14.44
Blink L	1	1	11820828638	11821087246	258608
Blink R	1	1	11820828638	11821087246	258608
Fixation L	1	4	11821087246	11821465113	377867	994.47	524.83	17	65	-1	14.25	14.25
Fixation R	1	4	11821087246	11821465113	377867	994.47	524.83	17	65	-1	13.67	13.67
Saccade L	1	3	11821465113	11821484980	19867	983.30	526.66	832.16	531.92	0.95	152.95	1.00	47.71	3465.73	-3619.88	2407.19
Saccade R	1	3	11821465113	11821484980	19867	983.30	526.66	832.16	531.92	0.95	152.95	1.00	47.71	3465.73	-3619.88	2407.19
Fixation L	1	5	11821484980	11822022085	537105	833.81	543.63	21	57	-1	14.63	14.63
Fixation R	1	5	11821484980	11822022085	537105	833.81	543.63	21	57	-1	14.40	14.40
