[BeGaze]
Converted from:	C:\Documents and Settings\iViewX\Desktop\EXPERIMENTATIONS\Experiments\results\finaleart\S20H24222-finaleart-1.idf
Date:	27.03.2019 15:52:31
Version:	BeGaze 2.5.77
Sample Rate:	50
Subject:	S20H24222
Description:	Hugo Brument

Table Header for Fixations:
Event Type	Trial	Number	Start	End	Duration	Location X	Location Y	Dispersion X	Dispersion Y	Plane	Avg. Pupil Size X	Avg. Pupil Size Y

Table Header for Saccades:
Event Type	Trial	Number	Start	End	Duration	Start Loc.X	Start Loc.Y	End Loc.X	End Loc.Y	Amplitude	Peak Speed	Peak Speed At	Average Speed	Peak Accel.	Peak Decel.	Average Accel.

Table Header for Blinks:
Event Type	Trial	Number	Start	End	Duration

Table Header for User Events:
Event Type	Trial	Number	Start	Description

UserEvent	1	1	11296896063	# Message: void.jpg
Fixation L	1	1	11296897860	11297355322	457462	744.79	337.63	14	17	-1	13.61	13.61
Fixation R	1	1	11296897860	11297355322	457462	744.79	337.63	14	17	-1	15.28	15.28
Blink L	1	1	11297355322	11297554326	199004
Blink R	1	1	11297355322	11297554326	199004
Blink L	1	2	11297574185	11297653686	79501
Blink R	1	2	11297574185	11297653686	79501
Fixation L	1	2	11297653686	11298230532	576846	931.05	784.17	17	39	-1	14.09	14.09
Fixation R	1	2	11297653686	11298230532	576846	931.05	784.17	17	39	-1	15.06	15.06
Saccade L	1	1	11298230532	11298270283	39751	934.92	799.23	861.04	545.37	2.46	143.69	0.50	61.96	3552.09	-2769.63	3048.40
Saccade R	1	1	11298230532	11298270283	39751	934.92	799.23	861.04	545.37	2.46	143.69	0.50	61.96	3552.09	-2769.63	3048.40
Fixation L	1	3	11298270283	11298608394	338111	860.28	547.06	15	52	-1	13.11	13.11
Fixation R	1	3	11298270283	11298608394	338111	860.28	547.06	15	52	-1	14.27	14.27
Saccade L	1	2	11298608394	11298648276	39882	859.10	566.36	720.01	484.03	1.68	125.07	0.50	42.05	2845.89	-2747.50	1682.90
Saccade R	1	2	11298608394	11298648276	39882	859.10	566.36	720.01	484.03	1.68	125.07	0.50	42.05	2845.89	-2747.50	1682.90
Fixation L	1	4	11298648276	11298886883	238607	708.89	447.57	25	58	-1	13.24	13.24
Fixation R	1	4	11298648276	11298886883	238607	708.89	447.57	25	58	-1	14.58	14.58
