[BeGaze]
Converted from:	C:\Documents and Settings\iViewX\Desktop\EXPERIMENTATIONS\Experiments\results\finaleart\S20H24222-finaleart-1.idf
Date:	27.03.2019 15:53:07
Version:	BeGaze 2.5.77
Sample Rate:	50
Subject:	S20H24222
Description:	Hugo Brument

Table Header for Fixations:
Event Type	Trial	Number	Start	End	Duration	Location X	Location Y	Dispersion X	Dispersion Y	Plane	Avg. Pupil Size X	Avg. Pupil Size Y

Table Header for Saccades:
Event Type	Trial	Number	Start	End	Duration	Start Loc.X	Start Loc.Y	End Loc.X	End Loc.Y	Amplitude	Peak Speed	Peak Speed At	Average Speed	Peak Accel.	Peak Decel.	Average Accel.

Table Header for Blinks:
Event Type	Trial	Number	Start	End	Duration

Table Header for User Events:
Event Type	Trial	Number	Start	Description

UserEvent	1	1	11711311556	# Message: void.jpg
Fixation L	1	1	11711313700	11711810998	497298	776.61	795.23	6	47	-1	13.10	13.10
Fixation R	1	1	11711313700	11711810998	497298	776.61	795.23	6	47	-1	13.95	13.95
Blink L	1	1	11711810998	11711990022	179024
Blink R	1	1	11711810998	11711990022	179024
Fixation L	1	2	11711990022	11712467358	477336	833.51	296.71	16	61	-1	12.85	12.85
Fixation R	1	2	11711990022	11712467358	477336	833.51	296.71	16	61	-1	12.71	12.71
Saccade L	1	1	11712467358	11712487230	19872	821.64	332.90	774.86	489.05	1.18	164.85	1.00	59.17	4025.75	-3907.58	2824.74
Saccade R	1	1	11712467358	11712487230	19872	821.64	332.90	774.86	489.05	1.18	164.85	1.00	59.17	4025.75	-3907.58	2824.74
Fixation L	1	3	11712487230	11713064081	576851	736.62	456.60	48	48	-1	11.74	11.74
Fixation R	1	3	11712487230	11713064081	576851	736.62	456.60	48	48	-1	12.21	12.21
Saccade L	1	2	11713064081	11713083950	19869	736.57	476.26	778.57	480.18	0.39	42.67	1.00	19.79	925.99	-793.06	809.19
Saccade R	1	2	11713064081	11713083950	19869	736.57	476.26	778.57	480.18	0.39	42.67	1.00	19.79	925.99	-793.06	809.19
Fixation L	1	4	11713083950	11713302685	218735	807.92	502.62	36	34	-1	11.99	11.99
Fixation R	1	4	11713083950	11713302685	218735	807.92	502.62	36	34	-1	12.34	12.34
