[BeGaze]
Converted from:	C:\Documents and Settings\iViewX\Desktop\EXPERIMENTATIONS\Experiments\results\finaleart\S20H24222-finaleart-1.idf
Date:	27.03.2019 15:53:11
Version:	BeGaze 2.5.77
Sample Rate:	50
Subject:	S20H24222
Description:	Hugo Brument

Table Header for Fixations:
Event Type	Trial	Number	Start	End	Duration	Location X	Location Y	Dispersion X	Dispersion Y	Plane	Avg. Pupil Size X	Avg. Pupil Size Y

Table Header for Saccades:
Event Type	Trial	Number	Start	End	Duration	Start Loc.X	Start Loc.Y	End Loc.X	End Loc.Y	Amplitude	Peak Speed	Peak Speed At	Average Speed	Peak Accel.	Peak Decel.	Average Accel.

Table Header for Blinks:
Event Type	Trial	Number	Start	End	Duration

Table Header for User Events:
Event Type	Trial	Number	Start	Description

UserEvent	1	1	11743953616	# Message: still-life-fruits-on-a-table_manet_1864.jpg
Saccade L	1	1	11743973256	11743993111	19855	865.59	478.30	885.79	522.96	0.59	49.58	1.00	29.54	976.34	-1040.13	672.16
Saccade R	1	1	11743973256	11743993111	19855	865.59	478.30	885.79	522.96	0.59	49.58	1.00	29.54	976.34	-1040.13	672.16
Fixation L	1	1	11743993111	11744450604	457493	917.62	556.83	40	39	-1	13.16	13.16
Fixation R	1	1	11743993111	11744450604	457493	917.62	556.83	40	39	-1	13.33	13.33
Saccade L	1	2	11744450604	11744490340	39736	913.25	555.35	692.30	705.75	2.29	197.86	0.50	57.62	4797.57	-4672.64	3225.49
Saccade R	1	2	11744450604	11744490340	39736	913.25	555.35	692.30	705.75	2.29	197.86	0.50	57.62	4797.57	-4672.64	3225.49
Fixation L	1	2	11744490340	11744689330	198990	696.81	675.26	10	67	-1	12.00	12.00
Fixation R	1	2	11744490340	11744689330	198990	696.81	675.26	10	67	-1	12.14	12.14
Saccade L	1	3	11744689330	11744749005	59675	695.82	668.18	330.61	777.70	4.22	308.56	0.67	70.74	7577.82	-7394.88	3406.85
Saccade R	1	3	11744689330	11744749005	59675	695.82	668.18	330.61	777.70	4.22	308.56	0.67	70.74	7577.82	-7394.88	3406.85
Fixation L	1	3	11744749005	11745345671	596666	326.90	803.03	13	36	-1	10.30	10.30
Fixation R	1	3	11744749005	11745345671	596666	326.90	803.03	13	36	-1	10.66	10.66
Saccade L	1	4	11745345671	11745385421	39750	328.05	796.49	610.32	523.25	3.47	216.67	0.50	87.25	5323.00	-4782.69	4586.21
Saccade R	1	4	11745345671	11745385421	39750	328.05	796.49	610.32	523.25	3.47	216.67	0.50	87.25	5323.00	-4782.69	4586.21
Fixation L	1	4	11745385421	11745743433	358012	634.13	473.82	30	64	-1	10.45	10.45
Fixation R	1	4	11745385421	11745743433	358012	634.13	473.82	30	64	-1	11.15	11.15
Saccade L	1	5	11745743433	11745783273	39840	632.58	459.24	728.62	422.09	1.38	98.12	1.00	34.53	2396.85	-2050.10	1384.85
Saccade R	1	5	11745743433	11745783273	39840	632.58	459.24	728.62	422.09	1.38	98.12	1.00	34.53	2396.85	-2050.10	1384.85
Fixation L	1	5	11745783273	11746081642	298369	714.03	398.88	39	36	-1	11.34	11.34
Fixation R	1	5	11745783273	11746081642	298369	714.03	398.88	39	36	-1	11.78	11.78
Saccade L	1	6	11746081642	11746161135	79493	718.77	385.78	1447.26	822.25	10.42	343.26	0.50	131.07	8499.25	-7148.78	5288.71
Saccade R	1	6	11746081642	11746161135	79493	718.77	385.78	1447.26	822.25	10.42	343.26	0.50	131.07	8499.25	-7148.78	5288.71
Fixation L	1	6	11746161135	11746459504	298369	1454.85	850.65	34	50	-1	11.68	11.68
Fixation R	1	6	11746161135	11746459504	298369	1454.85	850.65	34	50	-1	11.75	11.75
Saccade L	1	7	11746459504	11746479371	19867	1443.40	864.08	1588.32	979.93	1.32	187.62	1.00	66.38	4573.74	-4335.09	3558.28
Saccade R	1	7	11746459504	11746479371	19867	1443.40	864.08	1588.32	979.93	1.32	187.62	1.00	66.38	4573.74	-4335.09	3558.28
Fixation L	1	7	11746479371	11746718116	238745	1589.12	1035.48	24	69	-1	11.23	11.23
Fixation R	1	7	11746479371	11746718116	238745	1589.12	1035.48	24	69	-1	10.79	10.79
Saccade L	1	8	11746718116	11746777734	59618	1595.66	1038.72	1539.08	470.81	5.89	279.23	0.67	98.81	6950.84	-6713.39	4249.11
Saccade R	1	8	11746718116	11746777734	59618	1595.66	1038.72	1539.08	470.81	5.89	279.23	0.67	98.81	6950.84	-6713.39	4249.11
Fixation L	1	8	11746777734	11747175590	397856	1512.72	467.32	43	20	-1	11.01	11.01
Fixation R	1	8	11746777734	11747175590	397856	1512.72	467.32	43	20	-1	10.74	10.74
Saccade L	1	9	11747175590	11747195472	19882	1495.66	460.06	1471.35	345.10	0.76	118.85	1.00	38.42	2949.05	-2843.72	2038.41
Saccade R	1	9	11747175590	11747195472	19882	1495.66	460.06	1471.35	345.10	0.76	118.85	1.00	38.42	2949.05	-2843.72	2038.41
Fixation L	1	9	11747195472	11747493834	298362	1434.79	344.84	51	6	-1	11.36	11.36
Fixation R	1	9	11747195472	11747493834	298362	1434.79	344.84	51	6	-1	11.19	11.19
Saccade L	1	10	11747493834	11747533580	39746	1420.04	347.63	957.59	569.20	4.23	305.40	0.50	106.50	7578.83	-7455.16	6272.48
Saccade R	1	10	11747493834	11747533580	39746	1420.04	347.63	957.59	569.20	4.23	305.40	0.50	106.50	7578.83	-7455.16	6272.48
Fixation L	1	10	11747533580	11747951314	417734	959.09	611.36	5	58	-1	12.20	12.20
Fixation R	1	10	11747533580	11747951314	417734	959.09	611.36	5	58	-1	12.49	12.49
