[BeGaze]
Converted from:	C:\Documents and Settings\iViewX\Desktop\EXPERIMENTATIONS\Experiments\results\finaleart\S20H24222-finaleart-1.idf
Date:	27.03.2019 15:54:00
Version:	BeGaze 2.5.77
Sample Rate:	50
Subject:	S20H24222
Description:	Hugo Brument

Table Header for Fixations:
Event Type	Trial	Number	Start	End	Duration	Location X	Location Y	Dispersion X	Dispersion Y	Plane	Avg. Pupil Size X	Avg. Pupil Size Y

Table Header for Saccades:
Event Type	Trial	Number	Start	End	Duration	Start Loc.X	Start Loc.Y	End Loc.X	End Loc.Y	Amplitude	Peak Speed	Peak Speed At	Average Speed	Peak Accel.	Peak Decel.	Average Accel.

Table Header for Blinks:
Event Type	Trial	Number	Start	End	Duration

Table Header for User Events:
Event Type	Trial	Number	Start	Description

UserEvent	1	1	12291063503	# Message: void.jpg
Fixation L	1	1	12291068665	12291466500	397835	1199.69	367.92	20	21	-1	14.63	14.63
Fixation R	1	1	12291068665	12291466500	397835	1199.69	367.92	20	21	-1	14.93	14.93
Blink L	1	1	12291466500	12291665383	198883
Blink R	1	1	12291466500	12291665383	198883
Fixation L	1	2	12291665383	12292301842	636459	971.22	567.10	14	26	-1	15.21	15.21
Fixation R	1	2	12291665383	12292301842	636459	971.22	567.10	14	26	-1	14.19	14.19
Saccade L	1	1	12292301842	12292321721	19879	975.97	562.10	1091.29	548.89	0.71	117.41	1.00	35.91	2796.10	-2753.75	1856.83
Saccade R	1	1	12292301842	12292321721	19879	975.97	562.10	1091.29	548.89	0.71	117.41	1.00	35.91	2796.10	-2753.75	1856.83
Fixation L	1	3	12292321721	12292639960	318239	1099.68	562.00	12	33	-1	15.45	15.45
Fixation R	1	3	12292321721	12292639960	318239	1099.68	562.00	12	33	-1	14.50	14.50
Saccade L	1	2	12292639960	12292659825	19865	1094.38	564.25	950.17	571.51	0.90	146.05	1.00	45.31	3446.57	-3348.49	2339.34
Saccade R	1	2	12292639960	12292659825	19865	1094.38	564.25	950.17	571.51	0.90	146.05	1.00	45.31	3446.57	-3348.49	2339.34
Fixation L	1	4	12292659825	12293037806	377981	921.62	573.80	42	48	-1	15.69	15.69
Fixation R	1	4	12292659825	12293037806	377981	921.62	573.80	42	48	-1	14.62	14.62
Saccade L	1	3	12293037806	12293057692	19886	908.91	564.92	963.90	553.56	0.66	56.80	1.00	33.10	574.00	0.00	287.00
Saccade R	1	3	12293037806	12293057692	19886	908.91	564.92	963.90	553.56	0.66	56.80	1.00	33.10	574.00	0.00	287.00
