[BeGaze]
Converted from:	C:\Documents and Settings\iViewX\Desktop\EXPERIMENTATIONS\Experiments\results\finaleart\S20H24222-finaleart-1.idf
Date:	27.03.2019 15:53:50
Version:	BeGaze 2.5.77
Sample Rate:	50
Subject:	S20H24222
Description:	Hugo Brument

Table Header for Fixations:
Event Type	Trial	Number	Start	End	Duration	Location X	Location Y	Dispersion X	Dispersion Y	Plane	Avg. Pupil Size X	Avg. Pupil Size Y

Table Header for Saccades:
Event Type	Trial	Number	Start	End	Duration	Start Loc.X	Start Loc.Y	End Loc.X	End Loc.Y	Amplitude	Peak Speed	Peak Speed At	Average Speed	Peak Accel.	Peak Decel.	Average Accel.

Table Header for Blinks:
Event Type	Trial	Number	Start	End	Duration

Table Header for User Events:
Event Type	Trial	Number	Start	Description

UserEvent	1	1	12194021720	# Message: Kiprensky-standing-sitter-with-a-stick-sitter-on-a-rock-1801.jpg
Fixation L	1	1	12194023501	12194580469	556968	1001.32	543.68	22	28	-1	12.27	12.27
Fixation R	1	1	12194023501	12194580469	556968	1001.32	543.68	22	28	-1	12.67	12.67
Saccade L	1	1	12194580469	12194620216	39747	1013.25	540.48	668.06	540.38	3.07	230.77	1.00	77.30	5720.79	-5510.77	4064.73
Saccade R	1	1	12194580469	12194620216	39747	1013.25	540.48	668.06	540.38	3.07	230.77	1.00	77.30	5720.79	-5510.77	4064.73
Fixation L	1	2	12194620216	12194878712	258496	618.62	532.60	60	30	-1	10.22	10.22
Fixation R	1	2	12194620216	12194878712	258496	618.62	532.60	60	30	-1	10.89	10.89
Saccade L	1	2	12194878712	12194918587	39875	607.58	509.63	602.50	131.41	3.40	207.61	1.00	85.25	4723.79	-4284.53	4364.07
Saccade R	1	2	12194878712	12194918587	39875	607.58	509.63	602.50	131.41	3.40	207.61	1.00	85.25	4723.79	-4284.53	4364.07
Fixation L	1	3	12194918587	12195097578	178991	590.68	175.98	29	61	-1	8.84	8.84
Fixation R	1	3	12194918587	12195097578	178991	590.68	175.98	29	61	-1	9.55	9.55
Saccade L	1	3	12195097578	12195157195	59617	572.53	184.90	1328.16	339.11	8.21	437.68	0.67	137.65	10831.35	-10342.90	7240.65
Saccade R	1	3	12195097578	12195157195	59617	572.53	184.90	1328.16	339.11	8.21	437.68	0.67	137.65	10831.35	-10342.90	7240.65
Fixation L	1	4	12195157195	12195654427	497232	1347.50	331.79	30	27	-1	9.18	9.18
Fixation R	1	4	12195157195	12195654427	497232	1347.50	331.79	30	27	-1	9.57	9.57
Saccade L	1	4	12195654427	12195674449	20022	1353.90	331.17	1355.16	422.35	0.61	92.24	1.00	30.40	2236.22	-2244.09	1680.21
Saccade R	1	4	12195654427	12195674449	20022	1353.90	331.17	1355.16	422.35	0.61	92.24	1.00	30.40	2236.22	-2244.09	1680.21
Fixation L	1	5	12195674449	12195773794	99345	1357.23	453.99	3	89	-1	10.18	10.18
Fixation R	1	5	12195674449	12195773794	99345	1357.23	453.99	3	89	-1	10.24	10.24
Saccade L	1	5	12195773794	12195793665	19871	1357.69	511.46	1356.35	685.91	1.32	176.42	1.00	66.59	4363.90	-4001.36	3146.57
Saccade R	1	5	12195773794	12195793665	19871	1357.69	511.46	1356.35	685.91	1.32	176.42	1.00	66.59	4363.90	-4001.36	3146.57
Fixation L	1	6	12195793665	12196032413	238748	1356.85	722.70	13	54	-1	10.84	10.84
Fixation R	1	6	12195793665	12196032413	238748	1356.85	722.70	13	54	-1	11.03	11.03
Saccade L	1	6	12196032413	12196052288	19875	1366.30	722.43	1498.29	786.96	0.96	148.60	1.00	48.29	3550.07	-3589.93	2462.83
Saccade R	1	6	12196032413	12196052288	19875	1366.30	722.43	1498.29	786.96	0.96	148.60	1.00	48.29	3550.07	-3589.93	2462.83
Fixation L	1	7	12196052288	12196350646	298358	1474.55	801.11	29	23	-1	10.94	10.94
Fixation R	1	7	12196052288	12196350646	298358	1474.55	801.11	29	23	-1	11.17	11.17
Saccade L	1	7	12196350646	12196390399	39753	1470.53	798.30	1595.01	713.36	1.52	98.90	0.50	38.30	2420.40	-2021.81	1958.60
Saccade R	1	7	12196350646	12196390399	39753	1470.53	798.30	1595.01	713.36	1.52	98.90	0.50	38.30	2420.40	-2021.81	1958.60
Fixation L	1	8	12196390399	12196708631	318232	1612.14	712.82	22	14	-1	10.94	10.94
Fixation R	1	8	12196390399	12196708631	318232	1612.14	712.82	22	14	-1	10.79	10.79
Saccade L	1	8	12196708631	12196748380	39749	1605.96	711.43	1354.89	891.08	2.88	195.94	1.00	72.41	4694.86	-4738.71	3835.83
Saccade R	1	8	12196708631	12196748380	39749	1605.96	711.43	1354.89	891.08	2.88	195.94	1.00	72.41	4694.86	-4738.71	3835.83
Fixation L	1	9	12196748380	12196927503	179123	1348.75	888.09	18	8	-1	10.24	10.24
Fixation R	1	9	12196748380	12196927503	179123	1348.75	888.09	18	8	-1	10.24	10.24
Saccade L	1	9	12196927503	12196987116	59613	1352.35	892.69	695.13	892.60	6.77	378.35	0.67	113.57	9392.00	-9402.14	5275.70
Saccade R	1	9	12196927503	12196987116	59613	1352.35	892.69	695.13	892.60	6.77	378.35	0.67	113.57	9392.00	-9402.14	5275.70
Fixation L	1	10	12196987116	12197166111	178995	686.88	884.49	21	24	-1	10.38	10.38
Fixation R	1	10	12196987116	12197166111	178995	686.88	884.49	21	24	-1	10.62	10.62
Saccade L	1	10	12197166111	12197185990	19879	673.73	868.00	593.37	644.65	1.34	239.98	1.00	67.21	5938.66	-5768.35	3918.55
Saccade R	1	10	12197166111	12197185990	19879	673.73	868.00	593.37	644.65	1.34	239.98	1.00	67.21	5938.66	-5768.35	3918.55
Fixation L	1	11	12197185990	12197504220	318230	572.04	616.30	31	37	-1	10.03	10.03
Fixation R	1	11	12197185990	12197504220	318230	572.04	616.30	31	37	-1	10.83	10.83
Saccade L	1	11	12197504220	12197544092	39872	561.71	613.71	564.59	152.43	3.82	242.56	1.00	95.81	5934.42	-5794.54	5684.22
Saccade R	1	11	12197504220	12197544092	39872	561.71	613.71	564.59	152.43	3.82	242.56	1.00	95.81	5934.42	-5794.54	5684.22
Fixation L	1	12	12197544092	12198021449	477357	569.23	181.67	10	47	-1	9.16	9.16
Fixation R	1	12	12197544092	12198021449	477357	569.23	181.67	10	47	-1	10.41	10.41
