[BeGaze]
Converted from:	C:\Documents and Settings\iViewX\Desktop\EXPERIMENTATIONS\Experiments\results\finaleart\S20H24222-finaleart-1.idf
Date:	27.03.2019 15:54:15
Version:	BeGaze 2.5.77
Sample Rate:	50
Subject:	S20H24222
Description:	Hugo Brument

Table Header for Fixations:
Event Type	Trial	Number	Start	End	Duration	Location X	Location Y	Dispersion X	Dispersion Y	Plane	Avg. Pupil Size X	Avg. Pupil Size Y

Table Header for Saccades:
Event Type	Trial	Number	Start	End	Duration	Start Loc.X	Start Loc.Y	End Loc.X	End Loc.Y	Amplitude	Peak Speed	Peak Speed At	Average Speed	Peak Accel.	Peak Decel.	Average Accel.

Table Header for Blinks:
Event Type	Trial	Number	Start	End	Duration

Table Header for User Events:
Event Type	Trial	Number	Start	Description

UserEvent	1	1	12403129495	# Message: still-life-with-fish_bazille_1866.jpg
Fixation L	1	1	12403129533	12403229019	99486	977.70	599.41	8	11	-1	14.50	14.50
Fixation R	1	1	12403129533	12403229019	99486	977.70	599.41	8	11	-1	14.09	14.09
Saccade L	1	1	12403229019	12403248903	19884	972.13	600.79	868.47	587.11	0.73	105.77	1.00	36.96	2492.08	-2028.95	1688.50
Saccade R	1	1	12403229019	12403248903	19884	972.13	600.79	868.47	587.11	0.73	105.77	1.00	36.96	2492.08	-2028.95	1688.50
Fixation L	1	2	12403248903	12403626752	377849	845.18	596.73	28	27	-1	14.47	14.47
Fixation R	1	2	12403248903	12403626752	377849	845.18	596.73	28	27	-1	14.07	14.07
Saccade L	1	2	12403626752	12403666506	39754	843.42	594.81	639.25	729.75	2.21	142.45	1.00	55.69	3469.20	-3342.66	3066.34
Saccade R	1	2	12403626752	12403666506	39754	843.42	594.81	639.25	729.75	2.21	142.45	1.00	55.69	3469.20	-3342.66	3066.34
Fixation L	1	3	12403666506	12403905241	238735	641.46	732.81	49	44	-1	14.26	14.26
Fixation R	1	3	12403666506	12403905241	238735	641.46	732.81	49	44	-1	14.02	14.02
Saccade L	1	3	12403905241	12403925116	19875	610.47	762.50	612.19	777.74	0.35	22.53	1.00	17.37	173.85	-175.14	166.16
Saccade R	1	3	12403905241	12403925116	19875	610.47	762.50	612.19	777.74	0.35	22.53	1.00	17.37	173.85	-175.14	166.16
Fixation L	1	4	12403925116	12404064355	139239	600.46	787.12	28	52	-1	13.61	13.61
Fixation R	1	4	12403925116	12404064355	139239	600.46	787.12	28	52	-1	13.66	13.66
Saccade L	1	4	12404064355	12404084227	19872	583.21	813.93	559.01	814.45	0.34	26.64	0.00	17.19	483.43	-524.27	453.73
Saccade R	1	4	12404064355	12404084227	19872	583.21	813.93	559.01	814.45	0.34	26.64	0.00	17.19	483.43	-524.27	453.73
Fixation L	1	5	12404084227	12404223473	139246	553.67	830.53	10	30	-1	13.16	13.16
Fixation R	1	5	12404084227	12404223473	139246	553.67	830.53	10	30	-1	13.27	13.27
Saccade L	1	5	12404223473	12404243344	19871	548.97	828.59	539.40	694.91	0.99	135.56	1.00	49.76	3003.89	-3274.30	2452.30
Saccade R	1	5	12404223473	12404243344	19871	548.97	828.59	539.40	694.91	0.99	135.56	1.00	49.76	3003.89	-3274.30	2452.30
Fixation L	1	6	12404243344	12404521831	278487	507.80	646.85	42	56	-1	12.97	12.97
Fixation R	1	6	12404243344	12404521831	278487	507.80	646.85	42	56	-1	12.90	12.90
Saccade L	1	6	12404521831	12404561580	39749	500.63	640.50	367.10	494.71	1.82	129.48	0.50	45.87	3120.22	-3163.99	2629.80
Saccade R	1	6	12404521831	12404561580	39749	500.63	640.50	367.10	494.71	1.82	129.48	0.50	45.87	3120.22	-3163.99	2629.80
Fixation L	1	7	12404561580	12405019052	457472	376.06	488.34	18	27	-1	13.33	13.33
Fixation R	1	7	12404561580	12405019052	457472	376.06	488.34	18	27	-1	13.59	13.59
Saccade L	1	7	12405019052	12405038936	19884	377.50	487.24	505.28	455.18	0.89	133.25	1.00	44.83	3133.42	-2658.94	2059.74
Saccade R	1	7	12405019052	12405038936	19884	377.50	487.24	505.28	455.18	0.89	133.25	1.00	44.83	3133.42	-2658.94	2059.74
Fixation L	1	8	12405038936	12405277671	238735	500.41	415.61	12	57	-1	14.02	14.02
Fixation R	1	8	12405038936	12405277671	238735	500.41	415.61	12	57	-1	14.12	14.12
Saccade L	1	8	12405277671	12405317435	39764	499.97	398.10	887.11	400.68	3.40	199.13	0.50	85.60	4759.69	-4361.05	4520.94
Saccade R	1	8	12405277671	12405317435	39764	499.97	398.10	887.11	400.68	3.40	199.13	0.50	85.60	4759.69	-4361.05	4520.94
Fixation L	1	9	12405317435	12405536160	218725	918.83	389.94	48	31	-1	14.42	14.42
Fixation R	1	9	12405317435	12405536160	218725	918.83	389.94	48	31	-1	14.47	14.47
Saccade L	1	9	12405536160	12405556034	19874	935.43	369.46	1126.17	401.23	1.39	195.54	1.00	69.97	4743.69	-4564.36	3340.94
Saccade R	1	9	12405536160	12405556034	19874	935.43	369.46	1126.17	401.23	1.39	195.54	1.00	69.97	4743.69	-4564.36	3340.94
Fixation L	1	10	12405556034	12405794795	238761	1175.67	417.83	57	25	-1	14.99	14.99
Fixation R	1	10	12405556034	12405794795	238761	1175.67	417.83	57	25	-1	14.47	14.47
Saccade L	1	10	12405794795	12405834511	39716	1183.44	414.24	1375.14	661.43	3.16	194.43	1.00	79.59	4594.58	-4746.79	4400.31
Saccade R	1	10	12405794795	12405834511	39716	1183.44	414.24	1375.14	661.43	3.16	194.43	1.00	79.59	4594.58	-4746.79	4400.31
Fixation L	1	11	12405834511	12406272130	437619	1397.72	679.18	30	39	-1	15.54	15.54
Fixation R	1	11	12405834511	12406272130	437619	1397.72	679.18	30	39	-1	14.66	14.66
Saccade L	1	11	12406272130	12406311875	39745	1404.65	674.15	1519.58	930.63	2.65	174.54	0.50	66.60	4178.63	-3973.49	3677.12
Saccade R	1	11	12406272130	12406311875	39745	1404.65	674.15	1519.58	930.63	2.65	174.54	0.50	66.60	4178.63	-3973.49	3677.12
Fixation L	1	12	12406311875	12406451122	139247	1519.04	919.05	11	17	-1	14.54	14.54
Fixation R	1	12	12406311875	12406451122	139247	1519.04	919.05	11	17	-1	13.29	13.29
Saccade L	1	12	12406451122	12406490876	39754	1512.72	923.26	1575.15	1134.78	2.04	123.09	0.50	51.21	2884.85	-2529.72	2427.22
Saccade R	1	12	12406451122	12406490876	39754	1512.72	923.26	1575.15	1134.78	2.04	123.09	0.50	51.21	2884.85	-2529.72	2427.22
Fixation L	1	13	12406490876	12406809228	318352	1573.64	1122.75	73	22	-1	14.43	14.43
Fixation R	1	13	12406490876	12406809228	318352	1573.64	1122.75	73	22	-1	13.06	13.06
Saccade L	1	13	12406809228	12406829106	19878	1518.18	1130.02	1511.18	1130.51	0.39	32.64	0.00	19.84	-46.63	-525.43	365.04
Saccade R	1	13	12406809228	12406829106	19878	1518.18	1130.02	1511.18	1130.51	0.39	32.64	0.00	19.84	-46.63	-525.43	365.04
Fixation L	1	14	12406829106	12406928497	99391	1502.38	1125.98	83	12	-1	14.23	14.23
Fixation R	1	14	12406829106	12406928497	99391	1502.38	1125.98	83	12	-1	12.93	12.93
Saccade L	1	14	12406928497	12406988226	59729	1439.24	1118.20	665.78	726.43	9.93	374.55	0.33	166.28	9161.62	-8015.45	6655.74
Saccade R	1	14	12406928497	12406988226	59729	1439.24	1118.20	665.78	726.43	9.93	374.55	0.33	166.28	9161.62	-8015.45	6655.74
Fixation L	1	15	12406988226	12407127464	139238	656.73	755.36	15	50	-1	13.90	13.90
Fixation R	1	15	12406988226	12407127464	139238	656.73	755.36	15	50	-1	13.10	13.10
