[BeGaze]
Converted from:	C:\Documents and Settings\iViewX\Desktop\EXPERIMENTATIONS\Experiments\results\finaleart\S20H24222-finaleart-1.idf
Date:	27.03.2019 15:52:13
Version:	BeGaze 2.5.77
Sample Rate:	50
Subject:	S20H24222
Description:	Hugo Brument

Table Header for Fixations:
Event Type	Trial	Number	Start	End	Duration	Location X	Location Y	Dispersion X	Dispersion Y	Plane	Avg. Pupil Size X	Avg. Pupil Size Y

Table Header for Saccades:
Event Type	Trial	Number	Start	End	Duration	Start Loc.X	Start Loc.Y	End Loc.X	End Loc.Y	Amplitude	Peak Speed	Peak Speed At	Average Speed	Peak Accel.	Peak Decel.	Average Accel.

Table Header for Blinks:
Event Type	Trial	Number	Start	End	Duration

Table Header for User Events:
Event Type	Trial	Number	Start	Description

UserEvent	1	1	11105685270	# Message: the-wood_cross_907.jpg
Fixation L	1	1	11105693324	11105852427	159103	1037.98	570.65	34	9	-1	13.63	13.63
Fixation R	1	1	11105693324	11105852427	159103	1037.98	570.65	34	9	-1	14.22	14.22
Saccade L	1	1	11105852427	11105872299	19872	1012.05	567.97	872.95	583.88	0.98	141.61	1.00	49.47	3401.38	-3306.06	2297.51
Saccade R	1	1	11105852427	11105872299	19872	1012.05	567.97	872.95	583.88	0.98	141.61	1.00	49.47	3401.38	-3306.06	2297.51
Fixation L	1	2	11105872299	11106130795	258496	872.74	565.44	9	52	-1	13.59	13.59
Fixation R	1	2	11105872299	11106130795	258496	872.74	565.44	9	52	-1	13.77	13.77
Saccade L	1	2	11106130795	11106170662	39867	878.69	584.36	1115.30	673.17	2.68	193.20	1.00	67.10	4379.30	-4618.55	2945.07
Saccade R	1	2	11106130795	11106170662	39867	878.69	584.36	1115.30	673.17	2.68	193.20	1.00	67.10	4379.30	-4618.55	2945.07
Fixation L	1	3	11106170662	11106548528	377866	1112.93	665.44	6	53	-1	12.02	12.02
Fixation R	1	3	11106170662	11106548528	377866	1112.93	665.44	6	53	-1	12.43	12.43
Saccade L	1	3	11106548528	11106568394	19866	1114.20	648.38	959.49	538.63	1.34	191.82	1.00	67.36	4714.78	-4463.97	3604.31
Saccade R	1	3	11106548528	11106568394	19866	1114.20	648.38	959.49	538.63	1.34	191.82	1.00	67.36	4714.78	-4463.97	3604.31
Fixation L	1	4	11106568394	11106747384	178990	936.24	487.29	30	65	-1	10.14	10.14
Fixation R	1	4	11106568394	11106747384	178990	936.24	487.29	30	65	-1	10.52	10.52
Saccade L	1	4	11106747384	11106767384	20000	938.04	473.36	935.10	466.70	0.11	7.37	1.00	5.62	87.87	-109.57	85.42
Saccade R	1	4	11106747384	11106767384	20000	938.04	473.36	935.10	466.70	0.11	7.37	1.00	5.62	87.87	-109.57	85.42
Fixation L	1	5	11106767384	11107006003	238619	932.82	452.68	8	27	-1	9.63	9.63
Fixation R	1	5	11106767384	11107006003	238619	932.82	452.68	8	27	-1	10.13	10.13
Saccade L	1	5	11107006003	11107045749	39746	934.03	439.11	767.32	315.38	2.02	138.24	0.50	50.79	3359.40	-2990.90	2660.50
Saccade R	1	5	11107006003	11107045749	39746	934.03	439.11	767.32	315.38	2.02	138.24	0.50	50.79	3359.40	-2990.90	2660.50
Fixation L	1	6	11107045749	11107304358	258609	760.38	300.30	11	22	-1	9.85	9.85
Fixation R	1	6	11107045749	11107304358	258609	760.38	300.30	11	22	-1	10.25	10.25
Saccade L	1	6	11107304358	11107324228	19870	760.84	305.23	630.19	303.42	0.98	132.16	1.00	49.11	3272.41	-3180.83	2591.48
Saccade R	1	6	11107304358	11107324228	19870	760.84	305.23	630.19	303.42	0.98	132.16	1.00	49.11	3272.41	-3180.83	2591.48
Fixation L	1	7	11107324228	11107503228	179000	571.76	293.61	72	24	-1	9.86	9.86
Fixation R	1	7	11107324228	11107503228	179000	571.76	293.61	72	24	-1	10.60	10.60
Saccade L	1	7	11107503228	11107523092	19864	562.91	279.82	558.64	274.97	0.12	7.81	1.00	5.92	98.39	2.19	42.47
Saccade R	1	7	11107503228	11107523092	19864	562.91	279.82	558.64	274.97	0.12	7.81	1.00	5.92	98.39	2.19	42.47
Fixation L	1	8	11107523092	11107642466	119374	562.24	265.90	7	14	-1	10.25	10.25
Fixation R	1	8	11107523092	11107642466	119374	562.24	265.90	7	14	-1	10.79	10.79
Saccade L	1	8	11107642466	11107722094	79628	560.78	260.62	1324.66	1033.86	13.09	449.66	0.50	164.33	11117.44	-8631.87	6410.56
Saccade R	1	8	11107642466	11107722094	79628	560.78	260.62	1324.66	1033.86	13.09	449.66	0.50	164.33	11117.44	-8631.87	6410.56
Fixation L	1	9	11107722094	11107861345	139251	1321.88	1035.85	9	8	-1	10.98	10.98
Fixation R	1	9	11107722094	11107861345	139251	1321.88	1035.85	9	8	-1	11.15	11.15
Saccade L	1	9	11107861345	11107881210	19865	1316.00	1040.91	1336.43	1131.35	0.59	93.78	1.00	29.72	2193.46	-1779.86	1386.94
Saccade R	1	9	11107861345	11107881210	19865	1316.00	1040.91	1336.43	1131.35	0.59	93.78	1.00	29.72	2193.46	-1779.86	1386.94
Fixation L	1	10	11107881210	11108179566	298356	1375.19	1147.44	53	31	-1	11.39	11.39
Fixation R	1	10	11107881210	11108179566	298356	1375.19	1147.44	53	31	-1	11.26	11.26
Saccade L	1	10	11108179566	11108199446	19880	1385.90	1145.19	1431.14	1138.72	0.35	46.23	1.00	17.84	1061.49	-1108.05	848.06
Saccade R	1	10	11108179566	11108199446	19880	1385.90	1145.19	1431.14	1138.72	0.35	46.23	1.00	17.84	1061.49	-1108.05	848.06
Fixation L	1	11	11108199446	11108358581	159135	1448.15	1126.79	25	26	-1	11.24	11.24
Fixation R	1	11	11108199446	11108358581	159135	1448.15	1126.79	25	26	-1	10.94	10.94
Saccade L	1	11	11108358581	11108378437	19856	1451.79	1128.55	1549.90	1120.34	0.68	99.59	1.00	34.25	2077.45	-2109.31	1561.59
Saccade R	1	11	11108358581	11108378437	19856	1451.79	1128.55	1549.90	1120.34	0.68	99.59	1.00	34.25	2077.45	-2109.31	1561.59
Fixation L	1	12	11108378437	11108557435	178998	1547.04	1121.90	21	10	-1	11.38	11.38
Fixation R	1	12	11108378437	11108557435	178998	1547.04	1121.90	21	10	-1	11.18	11.18
Saccade L	1	12	11108557435	11108617052	59617	1550.34	1121.87	1484.85	494.93	6.60	385.46	0.67	110.77	9476.24	-9288.60	5115.85
Saccade R	1	12	11108557435	11108617052	59617	1550.34	1121.87	1484.85	494.93	6.60	385.46	0.67	110.77	9476.24	-9288.60	5115.85
Fixation L	1	13	11108617052	11108955292	338240	1480.56	503.23	35	23	-1	12.20	12.20
Fixation R	1	13	11108617052	11108955292	338240	1480.56	503.23	35	23	-1	11.82	11.82
Saccade L	1	13	11108955292	11108995025	39733	1485.56	496.29	1505.15	225.22	2.24	147.46	1.00	56.47	3641.67	-3297.88	3292.15
Saccade R	1	13	11108955292	11108995025	39733	1485.56	496.29	1505.15	225.22	2.24	147.46	1.00	56.47	3641.67	-3297.88	3292.15
Fixation L	1	14	11108995025	11109372890	377865	1516.68	218.56	27	34	-1	12.45	12.45
Fixation R	1	14	11108995025	11109372890	377865	1516.68	218.56	27	34	-1	11.96	11.96
Saccade L	1	14	11109372890	11109412764	39874	1527.71	229.48	1205.59	276.51	2.77	205.08	1.00	69.59	5024.38	-4745.31	3903.58
Saccade R	1	14	11109372890	11109412764	39874	1527.71	229.48	1205.59	276.51	2.77	205.08	1.00	69.59	5024.38	-4745.31	3903.58
Fixation L	1	15	11109412764	11109551895	139131	1193.03	314.94	20	70	-1	12.97	12.97
Fixation R	1	15	11109412764	11109551895	139131	1193.03	314.94	20	70	-1	12.89	12.89
Saccade L	1	15	11109551895	11109671260	119365	1184.77	347.10	428.48	206.78	13.08	309.72	0.17	109.55	7572.91	-6914.47	4172.86
Saccade R	1	15	11109551895	11109671260	119365	1184.77	347.10	428.48	206.78	13.08	309.72	0.17	109.55	7572.91	-6914.47	4172.86
