[BeGaze]
Converted from:	C:\Documents and Settings\iViewX\Desktop\EXPERIMENTATIONS\Experiments\results\finaleart\S20H24222-finaleart-1.idf
Date:	27.03.2019 15:53:42
Version:	BeGaze 2.5.77
Sample Rate:	50
Subject:	S20H24222
Description:	Hugo Brument

Table Header for Fixations:
Event Type	Trial	Number	Start	End	Duration	Location X	Location Y	Dispersion X	Dispersion Y	Plane	Avg. Pupil Size X	Avg. Pupil Size Y

Table Header for Saccades:
Event Type	Trial	Number	Start	End	Duration	Start Loc.X	Start Loc.Y	End Loc.X	End Loc.Y	Amplitude	Peak Speed	Peak Speed At	Average Speed	Peak Accel.	Peak Decel.	Average Accel.

Table Header for Blinks:
Event Type	Trial	Number	Start	End	Duration

Table Header for User Events:
Event Type	Trial	Number	Start	Description

UserEvent	1	1	12139042548	# Message: bathers_cross_1902.jpg
Fixation L	1	1	12139047270	12139624116	576846	871.32	664.62	11	76	-1	13.45	13.45
Fixation R	1	1	12139047270	12139624116	576846	871.32	664.62	11	76	-1	13.32	13.32
Saccade L	1	1	12139624116	12139643992	19876	866.35	605.14	872.90	427.53	1.58	179.74	1.00	79.50	4282.41	-3556.55	2686.52
Saccade R	1	1	12139624116	12139643992	19876	866.35	605.14	872.90	427.53	1.58	179.74	1.00	79.50	4282.41	-3556.55	2686.52
Fixation L	1	2	12139643992	12139822988	178996	883.40	386.42	18	66	-1	11.38	11.38
Fixation R	1	2	12139643992	12139822988	178996	883.40	386.42	18	66	-1	10.95	10.95
Saccade L	1	2	12139822988	12139882601	59613	889.79	396.40	930.89	221.95	2.42	77.83	0.67	40.63	1540.28	-1166.24	1039.32
Saccade R	1	2	12139822988	12139882601	59613	889.79	396.40	930.89	221.95	2.42	77.83	0.67	40.63	1540.28	-1166.24	1039.32
Fixation L	1	3	12139882601	12140081470	198869	946.62	227.75	22	64	-1	9.77	9.77
Fixation R	1	3	12139882601	12140081470	198869	946.62	227.75	22	64	-1	9.13	9.13
Saccade L	1	3	12140081470	12140240590	159120	945.92	231.28	879.19	238.73	5.38	88.10	1.00	33.78	1855.84	-1396.83	1226.49
Saccade R	1	3	12140081470	12140240590	159120	945.92	231.28	879.19	238.73	5.38	88.10	1.00	33.78	1855.84	-1396.83	1226.49
Blink L	1	1	12140240590	12140379834	139244
Blink R	1	1	12140240590	12140379834	139244
Fixation L	1	4	12140379834	12140499203	119369	859.04	263.64	26	53	-1	12.60	12.60
Fixation R	1	4	12140379834	12140499203	119369	859.04	263.64	26	53	-1	12.51	12.51
Saccade L	1	4	12140499203	12140519075	19872	841.80	292.69	823.27	304.92	0.40	31.15	0.00	20.10	451.93	-218.81	229.23
Saccade R	1	4	12140499203	12140519075	19872	841.80	292.69	823.27	304.92	0.40	31.15	0.00	20.10	451.93	-218.81	229.23
Fixation L	1	5	12140519075	12140737946	218871	810.95	326.00	25	34	-1	14.03	14.03
Fixation R	1	5	12140519075	12140737946	218871	810.95	326.00	25	34	-1	13.78	13.78
Saccade L	1	5	12140737946	12140757814	19868	803.47	339.58	862.81	391.35	0.67	79.66	1.00	33.86	1878.21	-1307.56	1413.35
Saccade R	1	5	12140737946	12140757814	19868	803.47	339.58	862.81	391.35	0.67	79.66	1.00	33.86	1878.21	-1307.56	1413.35
Fixation L	1	6	12140757814	12140976555	218741	876.08	452.67	20	78	-1	14.47	14.47
Fixation R	1	6	12140757814	12140976555	218741	876.08	452.67	20	78	-1	13.87	13.87
Saccade L	1	6	12140976555	12141016309	39754	882.31	451.99	1229.87	621.58	3.29	254.31	1.00	82.79	6338.40	-5403.50	4529.44
Saccade R	1	6	12140976555	12141016309	39754	882.31	451.99	1229.87	621.58	3.29	254.31	1.00	82.79	6338.40	-5403.50	4529.44
Fixation L	1	7	12141016309	12141434040	417731	1249.81	650.46	25	49	-1	14.81	14.81
Fixation R	1	7	12141016309	12141434040	417731	1249.81	650.46	25	49	-1	14.01	14.01
Saccade L	1	7	12141434040	12141493786	59746	1251.76	642.35	961.83	447.99	4.34	189.19	0.67	72.61	4684.64	-4404.93	3128.93
Saccade R	1	7	12141434040	12141493786	59746	1251.76	642.35	961.83	447.99	4.34	189.19	0.67	72.61	4684.64	-4404.93	3128.93
Fixation L	1	8	12141493786	12142189880	696094	967.58	471.79	26	49	-1	14.28	14.28
Fixation R	1	8	12141493786	12142189880	696094	967.58	471.79	26	49	-1	13.46	13.46
Blink L	1	2	12142189880	12142309244	119364
Blink R	1	2	12142189880	12142309244	119364
Fixation L	1	9	12142309244	12142627486	318242	956.21	454.97	24	47	-1	15.03	15.03
Fixation R	1	9	12142309244	12142627486	318242	956.21	454.97	24	47	-1	14.20	14.20
Saccade L	1	8	12142627486	12142647363	19877	975.50	456.08	1122.47	364.24	1.14	175.27	1.00	57.50	4332.44	-4092.60	2880.80
Saccade R	1	8	12142627486	12142647363	19877	975.50	456.08	1122.47	364.24	1.14	175.27	1.00	57.50	4332.44	-4092.60	2880.80
Fixation L	1	10	12142647363	12142985491	338128	1134.88	338.92	18	38	-1	13.88	13.88
Fixation R	1	10	12142647363	12142985491	338128	1134.88	338.92	18	38	-1	13.41	13.41
Saccade L	1	9	12142985491	12143045223	59732	1133.63	331.65	837.29	350.27	3.76	151.66	0.33	62.97	3729.10	-3564.42	2753.96
Saccade R	1	9	12142985491	12143045223	59732	1133.63	331.65	837.29	350.27	3.76	151.66	0.33	62.97	3729.10	-3564.42	2753.96
