[BeGaze]
Converted from:	C:\Documents and Settings\iViewX\Desktop\EXPERIMENTATIONS\Experiments\results\finaleart\S20H24222-finaleart-1.idf
Date:	27.03.2019 15:53:34
Version:	BeGaze 2.5.77
Sample Rate:	50
Subject:	S20H24222
Description:	Hugo Brument

Table Header for Fixations:
Event Type	Trial	Number	Start	End	Duration	Location X	Location Y	Dispersion X	Dispersion Y	Plane	Avg. Pupil Size X	Avg. Pupil Size Y

Table Header for Saccades:
Event Type	Trial	Number	Start	End	Duration	Start Loc.X	Start Loc.Y	End Loc.X	End Loc.Y	Amplitude	Peak Speed	Peak Speed At	Average Speed	Peak Accel.	Peak Decel.	Average Accel.

Table Header for Blinks:
Event Type	Trial	Number	Start	End	Duration

Table Header for User Events:
Event Type	Trial	Number	Start	Description

UserEvent	1	1	11954613724	# Message: void.jpg
Fixation L	1	1	11954629430	11954729035	99605	620.62	1079.22	32	3	-1	14.18	14.18
Fixation R	1	1	11954629430	11954729035	99605	620.62	1079.22	32	3	-1	15.07	15.07
Saccade L	1	1	11954729035	11954768682	39647	645.78	1077.69	1171.42	962.05	4.75	345.43	0.50	119.81	8495.07	-8160.47	6493.60
Saccade R	1	1	11954729035	11954768682	39647	645.78	1077.69	1171.42	962.05	4.75	345.43	0.50	119.81	8495.07	-8160.47	6493.60
Fixation L	1	2	11954768682	11955027284	258602	1197.34	958.85	35	4	-1	14.09	14.09
Fixation R	1	2	11954768682	11955027284	258602	1197.34	958.85	35	4	-1	14.44	14.44
Blink L	1	1	11955027284	11955265889	238605
Blink R	1	1	11955027284	11955265889	238605
Fixation L	1	3	11955265889	11955643881	377992	933.75	897.07	61	33	-1	13.46	13.46
Fixation R	1	3	11955265889	11955643881	377992	933.75	897.07	61	33	-1	14.21	14.21
Saccade L	1	2	11955643881	11955663763	19882	989.30	887.55	1182.81	884.05	1.62	195.71	1.00	81.52	4802.75	-4692.20	3223.97
Saccade R	1	2	11955643881	11955663763	19882	989.30	887.55	1182.81	884.05	1.62	195.71	1.00	81.52	4802.75	-4692.20	3223.97
Fixation L	1	4	11955663763	11955803003	139240	1246.21	878.40	82	13	-1	13.36	13.36
Fixation R	1	4	11955663763	11955803003	139240	1246.21	878.40	82	13	-1	14.73	14.73
Saccade L	1	3	11955803003	11955822878	19875	1256.30	870.86	1256.31	866.54	0.13	9.35	0.00	6.56	254.78	-70.88	122.20
Saccade R	1	3	11955803003	11955822878	19875	1256.30	870.86	1256.31	866.54	0.13	9.35	0.00	6.56	254.78	-70.88	122.20
Fixation L	1	5	11955822878	11955942122	119244	1261.51	867.70	8	14	-1	13.58	13.58
Fixation R	1	5	11955822878	11955942122	119244	1261.51	867.70	8	14	-1	14.82	14.82
Saccade L	1	4	11955942122	11955962119	19997	1264.99	869.16	1390.03	1019.40	1.12	197.65	1.00	56.11	4919.55	-4478.53	3317.99
Saccade R	1	4	11955942122	11955962119	19997	1264.99	869.16	1390.03	1019.40	1.12	197.65	1.00	56.11	4919.55	-4478.53	3317.99
Fixation L	1	6	11955962119	11956220603	258484	1365.86	1044.36	33	32	-1	13.90	13.90
Fixation R	1	6	11955962119	11956220603	258484	1365.86	1044.36	33	32	-1	14.57	14.57
Blink L	1	2	11956220603	11956419598	198995
Blink R	1	2	11956220603	11956419598	198995
Fixation L	1	7	11956419598	11956598589	178991	913.25	384.50	28	39	-1	13.47	13.47
Fixation R	1	7	11956419598	11956598589	178991	913.25	384.50	28	39	-1	14.24	14.24
