[BeGaze]
Converted from:	C:\Documents and Settings\iViewX\Desktop\EXPERIMENTATIONS\Experiments\results\finaleart\S20H24222-finaleart-1.idf
Date:	27.03.2019 15:52:51
Version:	BeGaze 2.5.77
Sample Rate:	50
Subject:	S20H24222
Description:	Hugo Brument

Table Header for Fixations:
Event Type	Trial	Number	Start	End	Duration	Location X	Location Y	Dispersion X	Dispersion Y	Plane	Avg. Pupil Size X	Avg. Pupil Size Y

Table Header for Saccades:
Event Type	Trial	Number	Start	End	Duration	Start Loc.X	Start Loc.Y	End Loc.X	End Loc.Y	Amplitude	Peak Speed	Peak Speed At	Average Speed	Peak Accel.	Peak Decel.	Average Accel.

Table Header for Blinks:
Event Type	Trial	Number	Start	End	Duration

Table Header for User Events:
Event Type	Trial	Number	Start	Description

UserEvent	1	1	11433375540	# Message: Rapids_on_the_Petite_Creuse_at_Fresselines_Monet_1889.jpg
Fixation L	1	1	11433383777	11433841247	457470	967.95	376.37	17	25	-1	13.32	13.32
Fixation R	1	1	11433383777	11433841247	457470	967.95	376.37	17	25	-1	14.47	14.47
Saccade L	1	1	11433841247	11433880999	39752	966.20	373.92	751.20	485.90	2.24	154.41	0.50	56.38	3768.82	-3120.60	2825.73
Saccade R	1	1	11433841247	11433880999	39752	966.20	373.92	751.20	485.90	2.24	154.41	0.50	56.38	3768.82	-3120.60	2825.73
Fixation L	1	2	11433880999	11434079994	198995	773.51	462.01	29	39	-1	12.78	12.78
Fixation R	1	2	11433880999	11434079994	198995	773.51	462.01	29	39	-1	13.81	13.81
Saccade L	1	2	11434079994	11434119751	39757	774.52	449.17	387.97	320.65	3.50	232.41	0.50	87.95	5554.67	-5675.30	5005.61
Saccade R	1	2	11434079994	11434119751	39757	774.52	449.17	387.97	320.65	3.50	232.41	0.50	87.95	5554.67	-5675.30	5005.61
Fixation L	1	3	11434119751	11434338483	218732	398.85	317.49	19	21	-1	11.43	11.43
Fixation R	1	3	11434119751	11434338483	218732	398.85	317.49	19	21	-1	12.80	12.80
Saccade L	1	3	11434338483	11434378227	39744	403.47	307.10	716.88	444.25	2.99	252.65	1.00	75.31	6205.63	-6031.55	4229.30
Saccade R	1	3	11434338483	11434378227	39744	403.47	307.10	716.88	444.25	2.99	252.65	1.00	75.31	6205.63	-6031.55	4229.30
Fixation L	1	4	11434378227	11434795951	417724	725.84	471.26	19	77	-1	10.90	10.90
Fixation R	1	4	11434378227	11434795951	417724	725.84	471.26	19	77	-1	12.39	12.39
Saccade L	1	4	11434795951	11434835708	39757	728.37	499.84	1317.07	371.15	5.19	316.74	0.50	130.64	7734.77	-7590.72	7380.97
Saccade R	1	4	11434795951	11434835708	39757	728.37	499.84	1317.07	371.15	5.19	316.74	0.50	130.64	7734.77	-7590.72	7380.97
Fixation L	1	5	11434835708	11435193809	358101	1321.82	377.38	26	14	-1	11.78	11.78
Fixation R	1	5	11434835708	11435193809	358101	1321.82	377.38	26	14	-1	12.94	12.94
Saccade L	1	5	11435193809	11435233564	39755	1330.14	373.07	895.31	556.65	3.93	253.54	1.00	98.86	6094.38	-5901.98	5795.99
Saccade R	1	5	11435193809	11435233564	39755	1330.14	373.07	895.31	556.65	3.93	253.54	1.00	98.86	6094.38	-5901.98	5795.99
Fixation L	1	6	11435233564	11435452296	218732	880.47	561.89	26	23	-1	11.61	11.61
Fixation R	1	6	11435233564	11435452296	218732	880.47	561.89	26	23	-1	12.52	12.52
Saccade L	1	6	11435452296	11435512046	59750	876.33	553.72	354.04	874.44	6.80	388.05	0.67	113.72	9456.95	-9382.47	5605.37
Saccade R	1	6	11435452296	11435512046	59750	876.33	553.72	354.04	874.44	6.80	388.05	0.67	113.72	9456.95	-9382.47	5605.37
Fixation L	1	7	11435512046	11435790531	278485	349.04	894.15	16	29	-1	12.40	12.40
Fixation R	1	7	11435512046	11435790531	278485	349.04	894.15	16	29	-1	13.52	13.52
Saccade L	1	7	11435790531	11435850169	59638	345.05	903.11	858.54	793.62	5.48	281.57	0.67	91.94	6952.01	-6852.54	4328.46
Saccade R	1	7	11435790531	11435850169	59638	345.05	903.11	858.54	793.62	5.48	281.57	0.67	91.94	6952.01	-6852.54	4328.46
Fixation L	1	8	11435850169	11436108765	258596	849.54	769.03	12	62	-1	12.20	12.20
Fixation R	1	8	11435850169	11436108765	258596	849.54	769.03	12	62	-1	13.79	13.79
Saccade L	1	8	11436108765	11436168398	59633	850.04	750.20	1287.04	790.04	4.76	311.30	0.67	79.87	7709.55	-7102.82	3847.03
Saccade R	1	8	11436108765	11436168398	59633	850.04	750.20	1287.04	790.04	4.76	311.30	0.67	79.87	7709.55	-7102.82	3847.03
Fixation L	1	9	11436168398	11436407130	238732	1302.03	820.72	25	44	-1	11.33	11.33
Fixation R	1	9	11436168398	11436407130	238732	1302.03	820.72	25	44	-1	12.56	12.56
Saccade L	1	9	11436407130	11436427014	19884	1312.77	825.35	1492.07	831.36	1.08	181.43	1.00	54.45	4461.11	-4458.66	3141.65
Saccade R	1	9	11436407130	11436427014	19884	1312.77	825.35	1492.07	831.36	1.08	181.43	1.00	54.45	4461.11	-4458.66	3141.65
Fixation L	1	10	11436427014	11436526375	99361	1521.45	826.59	47	8	-1	10.82	10.82
Fixation R	1	10	11436427014	11436526375	99361	1521.45	826.59	47	8	-1	11.68	11.68
Saccade L	1	10	11436526375	11436586128	59753	1539.72	825.16	1546.89	192.79	6.53	282.88	0.33	109.33	6971.99	-5336.15	4789.63
Saccade R	1	10	11436526375	11436586128	59753	1539.72	825.16	1546.89	192.79	6.53	282.88	0.33	109.33	6971.99	-5336.15	4789.63
Fixation L	1	11	11436586128	11436824763	238635	1545.35	216.54	18	37	-1	10.46	10.46
Fixation R	1	11	11436586128	11436824763	238635	1545.35	216.54	18	37	-1	11.06	11.06
Saccade L	1	11	11436824763	11436864482	39719	1533.10	226.08	1153.98	134.42	3.49	230.68	0.50	87.89	5609.84	-5446.90	4572.41
Saccade R	1	11	11436824763	11436864482	39719	1533.10	226.08	1153.98	134.42	3.49	230.68	0.50	87.89	5609.84	-5446.90	4572.41
Fixation L	1	12	11436864482	11437302099	437617	1128.30	161.01	35	56	-1	11.22	11.22
Fixation R	1	12	11436864482	11437302099	437617	1128.30	161.01	35	56	-1	12.02	12.02
Saccade L	1	12	11437302099	11437361855	59756	1120.91	152.63	869.05	203.03	3.23	172.71	0.67	54.13	4304.23	0.00	1395.19
Saccade R	1	12	11437302099	11437361855	59756	1120.91	152.63	869.05	203.03	3.23	172.71	0.67	54.13	4304.23	0.00	1395.19
