[BeGaze]
Converted from:	C:\Documents and Settings\iViewX\Desktop\EXPERIMENTATIONS\Experiments\results\finaleart\S20H24222-finaleart-1.idf
Date:	27.03.2019 15:54:08
Version:	BeGaze 2.5.77
Sample Rate:	50
Subject:	S20H24222
Description:	Hugo Brument

Table Header for Fixations:
Event Type	Trial	Number	Start	End	Duration	Location X	Location Y	Dispersion X	Dispersion Y	Plane	Avg. Pupil Size X	Avg. Pupil Size Y

Table Header for Saccades:
Event Type	Trial	Number	Start	End	Duration	Start Loc.X	Start Loc.Y	End Loc.X	End Loc.Y	Amplitude	Peak Speed	Peak Speed At	Average Speed	Peak Accel.	Peak Decel.	Average Accel.

Table Header for Blinks:
Event Type	Trial	Number	Start	End	Duration

Table Header for User Events:
Event Type	Trial	Number	Start	Description

UserEvent	1	1	12352151041	# Message: void.jpg
Fixation L	1	1	12352151246	12352250615	99369	684.84	804.89	2	15	-1	12.80	12.80
Fixation R	1	1	12352151246	12352250615	99369	684.84	804.89	2	15	-1	12.34	12.34
Saccade L	1	1	12352250615	12352290496	39881	684.22	796.97	1127.87	809.01	3.76	285.40	1.00	94.30	7060.33	-6751.44	5459.54
Saccade R	1	1	12352250615	12352290496	39881	684.22	796.97	1127.87	809.01	3.76	285.40	1.00	94.30	7060.33	-6751.44	5459.54
Fixation L	1	2	12352290496	12352827471	536975	1122.79	828.35	9	32	-1	12.74	12.74
Fixation R	1	2	12352290496	12352827471	536975	1122.79	828.35	9	32	-1	11.95	11.95
Saccade L	1	2	12352827471	12352847330	19859	1118.94	836.44	974.22	832.39	1.02	146.43	1.00	51.34	3621.16	-3249.11	2748.16
Saccade R	1	2	12352827471	12352847330	19859	1118.94	836.44	974.22	832.39	1.02	146.43	1.00	51.34	3621.16	-3249.11	2748.16
Fixation L	1	3	12352847330	12353444056	596726	924.14	808.07	58	39	-1	13.44	13.44
Fixation R	1	3	12352847330	12353444056	596726	924.14	808.07	58	39	-1	12.62	12.62
Saccade L	1	3	12353444056	12353483803	39747	924.28	816.23	677.08	581.29	3.06	205.27	0.50	77.00	4792.12	-4811.83	4051.54
Saccade R	1	3	12353444056	12353483803	39747	924.28	816.23	677.08	581.29	3.06	205.27	0.50	77.00	4792.12	-4811.83	4051.54
Fixation L	1	4	12353483803	12353782159	298356	665.60	576.60	20	18	-1	13.06	13.06
Fixation R	1	4	12353483803	12353782159	298356	665.60	576.60	20	18	-1	12.83	12.83
Blink L	1	1	12353782159	12353981028	198869
Blink R	1	1	12353782159	12353981028	198869
Fixation L	1	5	12353981028	12354140148	159120	769.83	584.89	6	37	-1	13.99	13.99
Fixation R	1	5	12353981028	12354140148	159120	769.83	584.89	6	37	-1	13.62	13.62
