[BeGaze]
Converted from:	C:\Documents and Settings\iViewX\Desktop\EXPERIMENTATIONS\Experiments\results\finaleart\S20H24222-finaleart-1.idf
Date:	27.03.2019 15:53:02
Version:	BeGaze 2.5.77
Sample Rate:	50
Subject:	S20H24222
Description:	Hugo Brument

Table Header for Fixations:
Event Type	Trial	Number	Start	End	Duration	Location X	Location Y	Dispersion X	Dispersion Y	Plane	Avg. Pupil Size X	Avg. Pupil Size Y

Table Header for Saccades:
Event Type	Trial	Number	Start	End	Duration	Start Loc.X	Start Loc.Y	End Loc.X	End Loc.Y	Amplitude	Peak Speed	Peak Speed At	Average Speed	Peak Accel.	Peak Decel.	Average Accel.

Table Header for Blinks:
Event Type	Trial	Number	Start	End	Duration

Table Header for User Events:
Event Type	Trial	Number	Start	Description

UserEvent	1	1	11674624833	# Message: void.jpg
Saccade L	1	1	11674636380	11674755889	119509	555.09	1006.12	1320.26	1008.66	11.84	356.45	0.67	99.04	8858.20	-7448.82	4086.15
Saccade R	1	1	11674636380	11674755889	119509	555.09	1006.12	1320.26	1008.66	11.84	356.45	0.67	99.04	8858.20	-7448.82	4086.15
Fixation L	1	1	11674755889	11674934741	178852	1318.40	1006.06	11	17	-1	10.58	10.58
Fixation R	1	1	11674755889	11674934741	178852	1318.40	1006.06	11	17	-1	10.91	10.91
Saccade L	1	2	11674934741	11674954613	19872	1325.27	1002.15	1459.31	986.05	0.79	136.54	1.00	39.82	3282.84	-3189.22	2202.59
Saccade R	1	2	11674934741	11674954613	19872	1325.27	1002.15	1459.31	986.05	0.79	136.54	1.00	39.82	3282.84	-3189.22	2202.59
Fixation L	1	2	11674954613	11675133605	178992	1467.88	974.91	16	22	-1	10.17	10.17
Fixation R	1	2	11674954613	11675133605	178992	1467.88	974.91	16	22	-1	10.28	10.28
Blink L	1	1	11675133605	11675412097	278492
Blink R	1	1	11675133605	11675272860	139255
Blink R	1	2	11675292750	11675412097	119347
Fixation L	1	3	11675412097	11675571213	159116	746.65	1256.16	8	13	-1	12.33	12.33
Fixation R	1	3	11675412097	11675571213	159116	746.65	1256.16	8	13	-1	12.01	12.01
Blink L	1	2	11675571213	11675750209	178996
Blink R	1	3	11675571213	11675750209	178996
Fixation L	1	4	11675750209	11676346931	596722	1074.92	470.52	26	22	-1	12.14	12.14
Fixation R	1	4	11675750209	11676346931	596722	1074.92	470.52	26	22	-1	13.08	13.08
Saccade L	1	3	11676346931	11676366801	19870	1077.21	473.56	942.61	473.73	0.74	136.14	1.00	37.05	3296.65	-3333.82	2243.22
Saccade R	1	3	11676346931	11676366801	19870	1077.21	473.56	942.61	473.73	0.74	136.14	1.00	37.05	3296.65	-3333.82	2243.22
Fixation L	1	5	11676366801	11676605543	238742	931.61	478.33	20	12	-1	12.25	12.25
Fixation R	1	5	11676366801	11676605543	238742	931.61	478.33	20	12	-1	13.03	13.03
