[BeGaze]
Converted from:	C:\Documents and Settings\iViewX\Desktop\EXPERIMENTATIONS\Experiments\results\finaleart\S20H24222-finaleart-1.idf
Date:	27.03.2019 15:52:26
Version:	BeGaze 2.5.77
Sample Rate:	50
Subject:	S20H24222
Description:	Hugo Brument

Table Header for Fixations:
Event Type	Trial	Number	Start	End	Duration	Location X	Location Y	Dispersion X	Dispersion Y	Plane	Avg. Pupil Size X	Avg. Pupil Size Y

Table Header for Saccades:
Event Type	Trial	Number	Start	End	Duration	Start Loc.X	Start Loc.Y	End Loc.X	End Loc.Y	Amplitude	Peak Speed	Peak Speed At	Average Speed	Peak Accel.	Peak Decel.	Average Accel.

Table Header for Blinks:
Event Type	Trial	Number	Start	End	Duration

Table Header for User Events:
Event Type	Trial	Number	Start	Description

UserEvent	1	1	11195330545	# Message: void.jpg
Fixation L	1	1	11195338023	11195835257	497234	1455.21	280.12	33	39	-1	11.59	11.59
Fixation R	1	1	11195338023	11195835257	497234	1455.21	280.12	33	39	-1	12.39	12.39
Saccade L	1	1	11195835257	11195855133	19876	1457.77	272.51	1607.12	270.19	0.87	151.07	1.00	43.57	3752.09	-3541.58	2582.80
Saccade R	1	1	11195835257	11195855133	19876	1457.77	272.51	1607.12	270.19	0.87	151.07	1.00	43.57	3752.09	-3541.58	2582.80
Fixation L	1	2	11195855133	11196113732	258599	1621.14	308.42	27	52	-1	12.04	12.04
Fixation R	1	2	11195855133	11196113732	258599	1621.14	308.42	27	52	-1	12.88	12.88
Blink L	1	1	11196113732	11196292723	178991
Blink R	1	1	11196113732	11196292723	178991
Fixation L	1	3	11196292723	11196909334	616611	1554.15	368.27	42	45	-1	13.15	13.15
Fixation R	1	3	11196292723	11196909334	616611	1554.15	368.27	42	45	-1	14.53	14.53
Saccade L	1	2	11196909334	11196968954	59620	1531.39	377.43	1169.78	412.36	4.29	159.72	0.67	71.96	3602.59	-3147.55	2584.24
Saccade R	1	2	11196909334	11196968954	59620	1531.39	377.43	1169.78	412.36	4.29	159.72	0.67	71.96	3602.59	-3147.55	2584.24
Fixation L	1	4	11196968954	11197227568	258614	1144.13	419.85	40	14	-1	13.54	13.54
Fixation R	1	4	11196968954	11197227568	258614	1144.13	419.85	40	14	-1	15.14	15.14
Saccade L	1	3	11197227568	11197327052	99484	1129.47	418.62	973.16	477.54	3.04	141.45	0.20	30.60	3344.32	-3047.95	1204.51
Saccade R	1	3	11197227568	11197327052	99484	1129.47	418.62	973.16	477.54	3.04	141.45	0.20	30.60	3344.32	-3047.95	1204.51
