[BeGaze]
Converted from:	C:\Documents and Settings\iViewX\Desktop\EXPERIMENTATIONS\Experiments\results\finaleart\S20H24222-finaleart-1.idf
Date:	27.03.2019 15:52:59
Version:	BeGaze 2.5.77
Sample Rate:	50
Subject:	S20H24222
Description:	Hugo Brument

Table Header for Fixations:
Event Type	Trial	Number	Start	End	Duration	Location X	Location Y	Dispersion X	Dispersion Y	Plane	Avg. Pupil Size X	Avg. Pupil Size Y

Table Header for Saccades:
Event Type	Trial	Number	Start	End	Duration	Start Loc.X	Start Loc.Y	End Loc.X	End Loc.Y	Amplitude	Peak Speed	Peak Speed At	Average Speed	Peak Accel.	Peak Decel.	Average Accel.

Table Header for Blinks:
Event Type	Trial	Number	Start	End	Duration

Table Header for User Events:
Event Type	Trial	Number	Start	Description

UserEvent	1	1	11652236378	# Message: manet-the-salmon-1868.jpg
Fixation L	1	1	11652240125	11652757319	517194	983.66	588.77	29	54	-1	12.02	12.02
Fixation R	1	1	11652240125	11652757319	517194	983.66	588.77	29	54	-1	13.71	13.71
Saccade L	1	1	11652757319	11652777089	19770	1004.23	595.55	1042.98	666.35	0.65	81.64	1.00	32.96	1898.19	-1540.41	1149.13
Saccade R	1	1	11652757319	11652777089	19770	1004.23	595.55	1042.98	666.35	0.65	81.64	1.00	32.96	1898.19	-1540.41	1149.13
Fixation L	1	2	11652777089	11653035695	258606	1043.01	613.21	24	72	-1	11.03	11.03
Fixation R	1	2	11652777089	11653035695	258606	1043.01	613.21	24	72	-1	12.53	12.53
Saccade L	1	2	11653035695	11653075458	39763	1051.37	607.74	1248.69	410.51	2.49	159.96	0.50	62.63	3849.40	-3709.35	3499.01
Saccade R	1	2	11653035695	11653075458	39763	1051.37	607.74	1248.69	410.51	2.49	159.96	0.50	62.63	3849.40	-3709.35	3499.01
Fixation L	1	3	11653075458	11653433563	358105	1256.14	415.08	18	38	-1	9.73	9.73
Fixation R	1	3	11653075458	11653433563	358105	1256.14	415.08	18	38	-1	10.69	10.69
Saccade L	1	3	11653433563	11653453427	19864	1249.75	441.21	1161.98	413.29	0.58	93.16	1.00	29.24	2247.06	-1488.87	1315.00
Saccade R	1	3	11653433563	11653453427	19864	1249.75	441.21	1161.98	413.29	0.58	93.16	1.00	29.24	2247.06	-1488.87	1315.00
Fixation L	1	4	11653453427	11653612562	159135	1164.84	386.36	32	49	-1	10.17	10.17
Fixation R	1	4	11653453427	11653612562	159135	1164.84	386.36	32	49	-1	11.24	11.24
Saccade L	1	4	11653612562	11653652293	39731	1160.36	364.13	995.99	555.55	2.33	142.38	1.00	58.75	3355.73	-3306.99	2945.06
Saccade R	1	4	11653612562	11653652293	39731	1160.36	364.13	995.99	555.55	2.33	142.38	1.00	58.75	3355.73	-3306.99	2945.06
Fixation L	1	5	11653652293	11653990426	338133	1008.83	576.92	21	32	-1	11.31	11.31
Fixation R	1	5	11653652293	11653990426	338133	1008.83	576.92	21	32	-1	12.52	12.52
Saccade L	1	5	11653990426	11654050154	59728	1013.77	588.00	488.47	697.37	5.75	287.38	0.67	96.21	6909.35	-6939.73	4401.76
Saccade R	1	5	11653990426	11654050154	59728	1013.77	588.00	488.47	697.37	5.75	287.38	0.67	96.21	6909.35	-6939.73	4401.76
Fixation L	1	6	11654050154	11654249018	198864	493.83	699.58	12	7	-1	11.58	11.58
Fixation R	1	6	11654050154	11654249018	198864	493.83	699.58	12	7	-1	12.74	12.74
Saccade L	1	6	11654249018	11654288761	39743	494.79	698.58	265.29	951.24	2.90	191.00	1.00	72.97	4712.71	-4437.79	4201.54
Saccade R	1	6	11654249018	11654288761	39743	494.79	698.58	265.29	951.24	2.90	191.00	1.00	72.97	4712.71	-4437.79	4201.54
Fixation L	1	7	11654288761	11654487633	198872	275.49	943.46	13	17	-1	11.40	11.40
Fixation R	1	7	11654288761	11654487633	198872	275.49	943.46	13	17	-1	13.20	13.20
Saccade L	1	7	11654487633	11654547378	59745	277.69	935.29	1298.87	733.24	10.74	472.54	0.33	179.82	11791.47	-9120.95	8278.62
Saccade R	1	7	11654487633	11654547378	59745	277.69	935.29	1298.87	733.24	10.74	472.54	0.33	179.82	11791.47	-9120.95	8278.62
Fixation L	1	8	11654547378	11654726367	178989	1298.58	704.49	11	71	-1	11.51	11.51
Fixation R	1	8	11654547378	11654726367	178989	1298.58	704.49	11	71	-1	13.11	13.11
Saccade L	1	8	11654726367	11654766123	39756	1299.72	679.16	1347.81	540.98	1.32	80.23	0.50	33.15	1863.62	-1867.06	1695.98
Saccade R	1	8	11654726367	11654766123	39756	1299.72	679.16	1347.81	540.98	1.32	80.23	0.50	33.15	1863.62	-1867.06	1695.98
Fixation L	1	9	11654766123	11655024740	258617	1346.00	539.57	31	13	-1	10.91	10.91
Fixation R	1	9	11654766123	11655024740	258617	1346.00	539.57	31	13	-1	12.06	12.06
Saccade L	1	9	11655024740	11655064487	39747	1358.23	535.64	1094.65	415.07	2.64	202.29	1.00	66.45	4949.18	-4859.44	3430.78
Saccade R	1	9	11655024740	11655064487	39747	1358.23	535.64	1094.65	415.07	2.64	202.29	1.00	66.45	4949.18	-4859.44	3430.78
Fixation L	1	10	11655064487	11655342971	278484	1076.73	377.37	28	69	-1	10.45	10.45
Fixation R	1	10	11655064487	11655342971	278484	1076.73	377.37	28	69	-1	11.45	11.45
Saccade L	1	10	11655342971	11655422464	79493	1082.34	345.93	617.60	336.62	5.60	241.96	0.75	70.50	5907.67	-5695.52	3742.61
Saccade R	1	10	11655342971	11655422464	79493	1082.34	345.93	617.60	336.62	5.60	241.96	0.75	70.50	5907.67	-5695.52	3742.61
Fixation L	1	11	11655422464	11656218055	795591	584.55	349.55	44	44	-1	11.62	11.62
Fixation R	1	11	11655422464	11656218055	795591	584.55	349.55	44	44	-1	13.31	13.31
