[BeGaze]
Converted from:	C:\Documents and Settings\iViewX\Desktop\EXPERIMENTATIONS\Experiments\results\finaleart\S20H24222-finaleart-1.idf
Date:	27.03.2019 15:53:18
Version:	BeGaze 2.5.77
Sample Rate:	50
Subject:	S20H24222
Description:	Hugo Brument

Table Header for Fixations:
Event Type	Trial	Number	Start	End	Duration	Location X	Location Y	Dispersion X	Dispersion Y	Plane	Avg. Pupil Size X	Avg. Pupil Size Y

Table Header for Saccades:
Event Type	Trial	Number	Start	End	Duration	Start Loc.X	Start Loc.Y	End Loc.X	End Loc.Y	Amplitude	Peak Speed	Peak Speed At	Average Speed	Peak Accel.	Peak Decel.	Average Accel.

Table Header for Blinks:
Event Type	Trial	Number	Start	End	Duration

Table Header for User Events:
Event Type	Trial	Number	Start	Description

UserEvent	1	1	11834296693	# Message: Upper_Mississippi_Kensett_1855.jpg
Fixation L	1	1	11834314176	11834851150	536974	918.61	528.10	14	46	-1	13.88	13.88
Fixation R	1	1	11834314176	11834851150	536974	918.61	528.10	14	46	-1	14.69	14.69
Saccade L	1	1	11834851150	11834891029	39879	920.44	540.45	586.20	610.11	3.07	182.46	0.50	76.98	4399.32	-3823.89	3981.15
Saccade R	1	1	11834851150	11834891029	39879	920.44	540.45	586.20	610.11	3.07	182.46	0.50	76.98	4399.32	-3823.89	3981.15
Fixation L	1	2	11834891029	11835070023	178994	597.00	625.27	17	43	-1	10.95	10.95
Fixation R	1	2	11834891029	11835070023	178994	597.00	625.27	17	43	-1	11.88	11.88
Saccade L	1	2	11835070023	11835109767	39744	595.70	602.96	216.50	619.12	3.34	223.13	0.50	84.08	5411.43	-5362.01	4401.53
Saccade R	1	2	11835070023	11835109767	39744	595.70	602.96	216.50	619.12	3.34	223.13	0.50	84.08	5411.43	-5362.01	4401.53
Fixation L	1	3	11835109767	11835368374	258607	190.18	587.96	40	55	-1	9.15	9.15
Fixation R	1	3	11835109767	11835368374	258607	190.18	587.96	40	55	-1	10.42	10.42
Saccade L	1	3	11835368374	11835427997	59623	177.84	573.99	559.35	302.50	5.24	242.33	0.67	87.95	6002.45	-5574.01	3735.20
Saccade R	1	3	11835368374	11835427997	59623	177.84	573.99	559.35	302.50	5.24	242.33	0.67	87.95	6002.45	-5574.01	3735.20
Fixation L	1	4	11835427997	11835567242	139245	551.66	300.11	13	18	-1	9.07	9.07
Fixation R	1	4	11835427997	11835567242	139245	551.66	300.11	13	18	-1	10.29	10.29
Saccade L	1	4	11835567242	11835626864	59622	552.65	293.39	1112.67	100.18	6.46	314.24	0.67	108.34	7719.27	-6856.45	4932.76
Saccade R	1	4	11835567242	11835626864	59622	552.65	293.39	1112.67	100.18	6.46	314.24	0.67	108.34	7719.27	-6856.45	4932.76
Fixation L	1	5	11835626864	11835825859	198995	1115.63	140.63	12	60	-1	9.49	9.49
Fixation R	1	5	11835626864	11835825859	198995	1115.63	140.63	12	60	-1	10.76	10.76
Saccade L	1	5	11835825859	11835885473	59614	1109.03	160.34	1574.80	685.10	7.53	374.44	0.67	126.26	9233.40	-8855.15	6135.66
Saccade R	1	5	11835825859	11835885473	59614	1109.03	160.34	1574.80	685.10	7.53	374.44	0.67	126.26	9233.40	-8855.15	6135.66
Fixation L	1	6	11835885473	11836044596	159123	1555.72	685.20	28	21	-1	10.38	10.38
Fixation R	1	6	11835885473	11836044596	159123	1555.72	685.20	28	21	-1	10.79	10.79
Saccade L	1	6	11836044596	11836104212	59616	1551.68	687.03	849.31	651.33	7.66	399.32	0.67	128.55	9891.85	-8781.97	6168.09
Saccade R	1	6	11836044596	11836104212	59616	1551.68	687.03	849.31	651.33	7.66	399.32	0.67	128.55	9891.85	-8781.97	6168.09
Fixation L	1	7	11836104212	11836303209	198997	846.66	611.66	15	58	-1	10.41	10.41
Fixation R	1	7	11836104212	11836303209	198997	846.66	611.66	15	58	-1	11.07	11.07
Saccade L	1	7	11836303209	11836323079	19870	837.23	617.11	579.39	689.75	1.81	270.79	1.00	91.00	6709.89	-6614.83	4968.49
Saccade R	1	7	11836303209	11836323079	19870	837.23	617.11	579.39	689.75	1.81	270.79	1.00	91.00	6709.89	-6614.83	4968.49
Fixation L	1	8	11836323079	11836422450	99371	524.61	702.00	74	23	-1	10.65	10.65
Fixation R	1	8	11836323079	11836422450	99371	524.61	702.00	74	23	-1	11.41	11.41
Saccade L	1	8	11836422450	11836442445	19995	506.66	701.34	506.17	716.30	0.38	22.86	1.00	19.25	135.95	-288.66	195.42
Saccade R	1	8	11836422450	11836442445	19995	506.66	701.34	506.17	716.30	0.38	22.86	1.00	19.25	135.95	-288.66	195.42
Fixation L	1	9	11836442445	11836641313	198868	503.27	706.90	9	25	-1	10.87	10.87
Fixation R	1	9	11836442445	11836641313	198868	503.27	706.90	9	25	-1	11.55	11.55
Saccade L	1	9	11836641313	11836681068	39755	502.16	718.56	1168.77	907.85	6.07	397.15	1.00	152.80	9747.37	-9277.69	8662.73
Saccade R	1	9	11836641313	11836681068	39755	502.16	718.56	1168.77	907.85	6.07	397.15	1.00	152.80	9747.37	-9277.69	8662.73
Fixation L	1	10	11836681068	11836899809	218741	1218.50	924.31	69	26	-1	11.52	11.52
Fixation R	1	10	11836681068	11836899809	218741	1218.50	924.31	69	26	-1	12.31	12.31
Saccade L	1	10	11836899809	11836939697	39888	1222.43	934.18	1590.52	938.73	3.08	188.88	1.00	77.12	4630.54	-4656.38	4554.00
Saccade R	1	10	11836899809	11836939697	39888	1222.43	934.18	1590.52	938.73	3.08	188.88	1.00	77.12	4630.54	-4656.38	4554.00
Fixation L	1	11	11836939697	11837357287	417590	1599.77	926.84	21	22	-1	11.25	11.25
Fixation R	1	11	11836939697	11837357287	417590	1599.77	926.84	21	22	-1	11.33	11.33
Saccade L	1	11	11837357287	11837417030	59743	1606.55	921.94	1038.00	819.09	6.14	255.08	0.67	102.78	6343.48	-5836.95	4605.71
Saccade R	1	11	11837357287	11837417030	59743	1606.55	921.94	1038.00	819.09	6.14	255.08	0.67	102.78	6343.48	-5836.95	4605.71
Fixation L	1	12	11837417030	11837635784	218754	1036.27	827.86	24	61	-1	10.69	10.69
Fixation R	1	12	11837417030	11837635784	218754	1036.27	827.86	24	61	-1	10.71	10.71
Saccade L	1	12	11837635784	11837695530	59746	1028.58	817.58	639.01	666.01	4.82	214.00	1.00	80.64	3902.70	-5116.37	3500.03
Saccade R	1	12	11837635784	11837695530	59746	1028.58	817.58	639.01	666.01	4.82	214.00	1.00	80.64	3902.70	-5116.37	3500.03
Fixation L	1	13	11837695530	11838292142	596612	624.09	625.90	21	60	-1	9.67	9.67
Fixation R	1	13	11837695530	11838292142	596612	624.09	625.90	21	60	-1	10.53	10.53
