[BeGaze]
Converted from:	C:\Documents and Settings\iViewX\Desktop\EXPERIMENTATIONS\Experiments\results\finaleart\S20H24222-finaleart-1.idf
Date:	27.03.2019 15:52:25
Version:	BeGaze 2.5.77
Sample Rate:	50
Subject:	S20H24222
Description:	Hugo Brument

Table Header for Fixations:
Event Type	Trial	Number	Start	End	Duration	Location X	Location Y	Dispersion X	Dispersion Y	Plane	Avg. Pupil Size X	Avg. Pupil Size Y

Table Header for Saccades:
Event Type	Trial	Number	Start	End	Duration	Start Loc.X	Start Loc.Y	End Loc.X	End Loc.Y	Amplitude	Peak Speed	Peak Speed At	Average Speed	Peak Accel.	Peak Decel.	Average Accel.

Table Header for Blinks:
Event Type	Trial	Number	Start	End	Duration

Table Header for User Events:
Event Type	Trial	Number	Start	Description

UserEvent	1	1	11191267240	# Message: The_Augustan_Bridge_at_Narni_Corot_1826.jpg
Fixation L	1	1	11191280459	11191916933	636474	888.75	599.63	27	18	-1	13.46	13.46
Fixation R	1	1	11191280459	11191916933	636474	888.75	599.63	27	18	-1	14.97	14.97
Saccade L	1	1	11191916933	11191956677	39744	910.82	590.74	1178.22	567.17	2.40	218.15	0.50	60.41	5393.48	-5264.60	3055.04
Saccade R	1	1	11191916933	11191956677	39744	910.82	590.74	1178.22	567.17	2.40	218.15	0.50	60.41	5393.48	-5264.60	3055.04
Fixation L	1	2	11191956677	11192453898	497221	1206.42	533.52	34	63	-1	11.08	11.08
Fixation R	1	2	11191956677	11192453898	497221	1206.42	533.52	34	63	-1	12.28	12.28
Saccade L	1	2	11192453898	11192473894	19996	1208.71	509.89	1212.19	507.41	0.08	5.14	1.00	4.08	77.05	-17.82	35.64
Saccade R	1	2	11192453898	11192473894	19996	1208.71	509.89	1212.19	507.41	0.08	5.14	1.00	4.08	77.05	-17.82	35.64
Fixation L	1	3	11192473894	11192573269	99375	1224.48	504.92	65	11	-1	11.60	11.60
Fixation R	1	3	11192473894	11192573269	99375	1224.48	504.92	65	11	-1	12.74	12.74
Saccade L	1	3	11192573269	11192593146	19877	1278.14	511.24	1313.88	532.74	0.65	64.98	0.00	32.68	1000.71	-1089.28	1023.04
Saccade R	1	3	11192573269	11192593146	19877	1278.14	511.24	1313.88	532.74	0.65	64.98	0.00	32.68	1000.71	-1089.28	1023.04
Fixation L	1	4	11192593146	11192871654	278508	1317.39	572.25	6	59	-1	12.33	12.33
Fixation R	1	4	11192593146	11192871654	278508	1317.39	572.25	6	59	-1	13.55	13.55
Saccade L	1	4	11192871654	11192931265	59611	1316.57	589.78	526.68	753.22	8.36	350.56	0.67	140.23	8707.79	-8486.41	5980.99
Saccade R	1	4	11192871654	11192931265	59611	1316.57	589.78	526.68	753.22	8.36	350.56	0.67	140.23	8707.79	-8486.41	5980.99
Fixation L	1	5	11192931265	11193189866	258601	517.88	742.86	13	15	-1	12.90	12.90
Fixation R	1	5	11192931265	11193189866	258601	517.88	742.86	13	15	-1	14.22	14.22
Saccade L	1	5	11193189866	11193209741	19875	513.13	741.58	379.20	735.36	1.00	135.61	1.00	50.56	3288.02	-3223.57	2623.69
Saccade R	1	5	11193189866	11193209741	19875	513.13	741.58	379.20	735.36	1.00	135.61	1.00	50.56	3288.02	-3223.57	2623.69
Fixation L	1	6	11193209741	11193329111	119370	332.80	715.43	57	36	-1	12.71	12.71
Fixation R	1	6	11193209741	11193329111	119370	332.80	715.43	57	36	-1	14.41	14.41
Saccade L	1	6	11193329111	11193348984	19873	332.90	719.66	317.76	696.74	0.24	27.79	1.00	11.91	655.11	-686.54	586.68
Saccade R	1	6	11193329111	11193348984	19873	332.90	719.66	317.76	696.74	0.24	27.79	1.00	11.91	655.11	-686.54	586.68
Fixation L	1	7	11193348984	11193647340	298356	317.36	684.69	15	74	-1	12.00	12.00
Fixation R	1	7	11193348984	11193647340	298356	317.36	684.69	15	74	-1	14.16	14.16
Saccade L	1	7	11193647340	11193667221	19881	318.97	621.85	315.13	608.91	0.73	67.76	1.00	36.61	568.79	152.14	326.15
Saccade R	1	7	11193647340	11193667221	19881	318.97	621.85	315.13	608.91	0.73	67.76	1.00	36.61	568.79	152.14	326.15
Fixation L	1	8	11193667221	11193945710	278489	324.56	644.50	18	66	-1	11.72	11.72
Fixation R	1	8	11193667221	11193945710	278489	324.56	644.50	18	66	-1	14.09	14.09
Saccade L	1	8	11193945710	11193965583	19873	327.29	651.53	318.67	575.12	0.51	77.79	1.00	25.56	1671.09	-1180.70	1022.52
Saccade R	1	8	11193945710	11193965583	19873	327.29	651.53	318.67	575.12	0.51	77.79	1.00	25.56	1671.09	-1180.70	1022.52
Fixation L	1	9	11193965583	11194184326	218743	309.09	532.80	21	66	-1	12.48	12.48
Fixation R	1	9	11193965583	11194184326	218743	309.09	532.80	21	66	-1	14.58	14.58
Saccade L	1	9	11194184326	11194204202	19876	309.42	521.45	361.42	378.37	0.99	153.97	1.00	49.93	3669.66	-3595.29	2639.13
Saccade R	1	9	11194184326	11194204202	19876	309.42	521.45	361.42	378.37	0.99	153.97	1.00	49.93	3669.66	-3595.29	2639.13
Fixation L	1	10	11194204202	11194542450	338248	406.71	365.55	57	24	-1	12.89	12.89
Fixation R	1	10	11194204202	11194542450	338248	406.71	365.55	57	24	-1	15.10	15.10
Saccade L	1	10	11194542450	11194621926	79476	419.03	359.22	521.76	280.17	5.56	149.07	0.75	69.99	2738.12	-3328.26	1988.85
Saccade R	1	10	11194542450	11194621926	79476	419.03	359.22	521.76	280.17	5.56	149.07	0.75	69.99	2738.12	-3328.26	1988.85
Fixation L	1	11	11194621926	11194999910	377984	551.49	284.59	38	57	-1	12.19	12.19
Fixation R	1	11	11194621926	11194999910	377984	551.49	284.59	38	57	-1	13.89	13.89
Saccade L	1	11	11194999910	11195039660	39750	558.11	279.25	1129.33	290.53	5.12	309.68	0.50	128.87	7696.58	-6219.65	6631.93
Saccade R	1	11	11194999910	11195039660	39750	558.11	279.25	1129.33	290.53	5.12	309.68	0.50	128.87	7696.58	-6219.65	6631.93
Fixation L	1	12	11195039660	11195158906	119246	1180.67	308.02	64	31	-1	11.97	11.97
Fixation R	1	12	11195039660	11195158906	119246	1180.67	308.02	64	31	-1	13.41	13.41
Saccade L	1	12	11195158906	11195258395	99489	1194.09	306.78	1201.11	309.85	1.02	21.58	0.60	10.25	261.63	-326.17	139.92
Saccade R	1	12	11195158906	11195258395	99489	1194.09	306.78	1201.11	309.85	1.02	21.58	0.60	10.25	261.63	-326.17	139.92
