[BeGaze]
Converted from:	C:\Documents and Settings\iViewX\Desktop\EXPERIMENTATIONS\Experiments\results\finaleart\S20H24222-finaleart-1.idf
Date:	27.03.2019 15:52:13
Version:	BeGaze 2.5.77
Sample Rate:	50
Subject:	S20H24222
Description:	Hugo Brument

Table Header for Fixations:
Event Type	Trial	Number	Start	End	Duration	Location X	Location Y	Dispersion X	Dispersion Y	Plane	Avg. Pupil Size X	Avg. Pupil Size Y

Table Header for Saccades:
Event Type	Trial	Number	Start	End	Duration	Start Loc.X	Start Loc.Y	End Loc.X	End Loc.Y	Amplitude	Peak Speed	Peak Speed At	Average Speed	Peak Accel.	Peak Decel.	Average Accel.

Table Header for Blinks:
Event Type	Trial	Number	Start	End	Duration

Table Header for User Events:
Event Type	Trial	Number	Start	Description

UserEvent	1	1	11103621912	# Message: void.jpg
Saccade L	1	1	11103624653	11103644526	19873	1470.27	413.94	1361.59	352.16	1.33	126.45	1.00	66.95	1859.77	-2713.27	1524.35
Saccade R	1	1	11103624653	11103644526	19873	1470.27	413.94	1361.59	352.16	1.33	126.45	1.00	66.95	1859.77	-2713.27	1524.35
Fixation L	1	1	11103644526	11103783952	139426	1348.95	287.84	18	80	-1	11.08	11.08
Fixation R	1	1	11103644526	11103783952	139426	1348.95	287.84	18	80	-1	10.65	10.65
Saccade L	1	2	11103783952	11103803635	19683	1343.58	274.58	1339.84	272.14	0.07	4.51	1.00	3.70	43.75	-89.72	51.86
Saccade R	1	2	11103783952	11103803635	19683	1343.58	274.58	1339.84	272.14	0.07	4.51	1.00	3.70	43.75	-89.72	51.86
Fixation L	1	2	11103803635	11104042374	238739	1320.98	280.00	32	18	-1	10.99	10.99
Fixation R	1	2	11103803635	11104042374	238739	1320.98	280.00	32	18	-1	10.80	10.80
Saccade L	1	3	11104042374	11104181645	139271	1307.32	289.16	684.18	755.43	25.51	430.18	0.43	183.16	6756.04	-5617.20	3957.03
Blink R	1	1	11104042374	11104261120	218746
Fixation L	1	3	11104181645	11104559470	377825	722.09	723.45	46	48	-1	12.84	12.84
Fixation R	1	3	11104261120	11104559470	298350	725.41	719.42	11	27	-1	13.38	13.38
Saccade L	1	4	11104559470	11104599354	39884	728.14	733.25	1008.02	853.88	2.86	177.53	0.50	71.65	4366.26	-3709.66	3814.74
Saccade R	1	3	11104559470	11104599354	39884	728.14	733.25	1008.02	853.88	2.86	177.53	0.50	71.65	4366.26	-3709.66	3814.74
Fixation L	1	4	11104599354	11104837962	238608	988.93	835.12	24	26	-1	13.52	13.52
Fixation R	1	4	11104599354	11104837962	238608	988.93	835.12	24	26	-1	13.81	13.81
Blink L	1	1	11104837962	11105016975	179013
Blink R	1	2	11104837962	11105016975	179013
Fixation L	1	5	11105016975	11105116451	99476	1177.30	711.54	14	25	-1	13.42	13.42
Fixation R	1	5	11105016975	11105116451	99476	1177.30	711.54	14	25	-1	14.67	14.67
Blink L	1	2	11105116451	11105315318	198867
Blink R	1	3	11105116451	11105315318	198867
Blink L	1	3	11105315318	11105434688	119370
Blink R	1	4	11105315318	11105434688	119370
Fixation L	1	6	11105434688	11105613681	178993	1042.28	564.41	25	64	-1	14.71	14.71
Fixation R	1	6	11105434688	11105613681	178993	1042.28	564.41	25	64	-1	14.49	14.49
