[BeGaze]
Converted from:	C:\Documents and Settings\iViewX\Desktop\EXPERIMENTATIONS\Experiments\results\finaleart\S20H24222-finaleart-1.idf
Date:	27.03.2019 15:52:11
Version:	BeGaze 2.5.77
Sample Rate:	50
Subject:	S20H24222
Description:	Hugo Brument

Table Header for Fixations:
Event Type	Trial	Number	Start	End	Duration	Location X	Location Y	Dispersion X	Dispersion Y	Plane	Avg. Pupil Size X	Avg. Pupil Size Y

Table Header for Saccades:
Event Type	Trial	Number	Start	End	Duration	Start Loc.X	Start Loc.Y	End Loc.X	End Loc.Y	Amplitude	Peak Speed	Peak Speed At	Average Speed	Peak Accel.	Peak Decel.	Average Accel.

Table Header for Blinks:
Event Type	Trial	Number	Start	End	Duration

Table Header for User Events:
Event Type	Trial	Number	Start	Description

UserEvent	1	1	11091396522	# Message: void.jpg
Saccade L	1	1	11091412185	11091491686	79501	376.82	211.22	382.28	372.43	2.73	160.71	1.00	34.40	3929.69	-3134.21	1311.29
Saccade R	1	1	11091412185	11091491686	79501	376.82	211.22	382.28	372.43	2.73	160.71	1.00	34.40	3929.69	-3134.21	1311.29
Fixation L	1	1	11091491686	11091611045	119359	405.48	417.29	36	62	-1	12.03	12.03
Fixation R	1	1	11091491686	11091611045	119359	405.48	417.29	36	62	-1	13.54	13.54
Saccade L	1	2	11091611045	11091630916	19871	418.96	420.15	422.89	428.27	0.14	9.12	1.00	7.24	82.69	-136.56	82.20
Saccade R	1	2	11091611045	11091630916	19871	418.96	420.15	422.89	428.27	0.14	9.12	1.00	7.24	82.69	-136.56	82.20
Fixation L	1	2	11091630916	11091829909	198993	434.83	436.72	21	18	-1	12.53	12.53
Fixation R	1	2	11091630916	11091829909	198993	434.83	436.72	21	18	-1	13.68	13.68
Saccade L	1	3	11091829909	11091949148	119239	444.18	445.33	836.37	967.05	9.86	181.29	0.50	82.66	3231.50	-3099.64	1836.78
Saccade R	1	3	11091829909	11091949148	119239	444.18	445.33	836.37	967.05	9.86	181.29	0.50	82.66	3231.50	-3099.64	1836.78
Fixation L	1	3	11091949148	11092645372	696224	843.18	973.05	17	25	-1	13.33	13.33
Fixation R	1	3	11091949148	11092645372	696224	843.18	973.05	17	25	-1	14.26	14.26
Saccade L	1	4	11092645372	11092665253	19881	834.10	972.62	918.63	822.54	1.30	174.19	1.00	65.32	4189.92	-4225.53	3385.53
Saccade R	1	4	11092645372	11092665253	19881	834.10	972.62	918.63	822.54	1.30	174.19	1.00	65.32	4189.92	-4225.53	3385.53
Fixation L	1	4	11092665253	11092804493	139240	935.92	763.90	22	72	-1	13.16	13.16
Fixation R	1	4	11092665253	11092804493	139240	935.92	763.90	22	72	-1	14.12	14.12
Saccade L	1	5	11092804493	11092824392	19899	940.91	753.44	950.26	740.30	0.18	16.32	1.00	9.07	282.40	-315.65	227.70
Saccade R	1	5	11092804493	11092824392	19899	940.91	753.44	950.26	740.30	0.18	16.32	1.00	9.07	282.40	-315.65	227.70
Fixation L	1	5	11092824392	11092923866	99474	944.54	740.43	8	10	-1	12.90	12.90
Fixation R	1	5	11092824392	11092923866	99474	944.54	740.43	8	10	-1	13.90	13.90
Saccade L	1	6	11092923866	11092963605	39739	942.93	734.49	1046.60	515.07	2.21	167.82	0.50	55.61	4055.36	-3965.22	2934.76
Saccade R	1	6	11092923866	11092963605	39739	942.93	734.49	1046.60	515.07	2.21	167.82	0.50	55.61	4055.36	-3965.22	2934.76
Fixation L	1	6	11092963605	11093182357	218752	1020.69	495.29	48	49	-1	13.18	13.18
Fixation R	1	6	11092963605	11093182357	218752	1020.69	495.29	48	49	-1	14.00	14.00
Saccade L	1	7	11093182357	11093202230	19873	1010.85	490.40	869.63	573.65	1.03	165.79	1.00	52.01	3819.58	-3567.44	2573.89
Saccade R	1	7	11093182357	11093202230	19873	1010.85	490.40	869.63	573.65	1.03	165.79	1.00	52.01	3819.58	-3567.44	2573.89
Fixation L	1	7	11093202230	11093381343	179113	872.62	604.71	7	81	-1	13.19	13.19
Fixation R	1	7	11093202230	11093381343	179113	872.62	604.71	7	81	-1	14.11	14.11
