[BeGaze]
Converted from:	C:\Documents and Settings\iViewX\Desktop\EXPERIMENTATIONS\Experiments\results\finaleart\S12H22222-finaleart-1.idf
Date:	27.03.2019 15:40:40
Version:	BeGaze 2.5.77
Sample Rate:	50
Subject:	S12H22222
Description:	aurele barriere

Table Header for Fixations:
Event Type	Trial	Number	Start	End	Duration	Location X	Location Y	Dispersion X	Dispersion Y	Plane	Avg. Pupil Size X	Avg. Pupil Size Y

Table Header for Saccades:
Event Type	Trial	Number	Start	End	Duration	Start Loc.X	Start Loc.Y	End Loc.X	End Loc.Y	Amplitude	Peak Speed	Peak Speed At	Average Speed	Peak Accel.	Peak Decel.	Average Accel.

Table Header for Blinks:
Event Type	Trial	Number	Start	End	Duration

Table Header for User Events:
Event Type	Trial	Number	Start	Description

UserEvent	1	1	23695062708	# Message: study_of_a_reclining_nude_Delacroix_1824.jpg
Fixation L	1	1	23695065922	23695364268	298346	975.30	532.90	81	15	-1	14.24	14.24
Fixation R	1	1	23695065922	23695364268	298346	975.30	532.90	81	15	-1	13.52	13.52
Saccade L	1	1	23695364268	23695384150	19882	960.60	530.32	959.90	522.04	0.11	8.41	1.00	5.51	7.59	-42.02	18.42
Saccade R	1	1	23695364268	23695384150	19882	960.60	530.32	959.90	522.04	0.11	8.41	1.00	5.51	7.59	-42.02	18.42
Fixation L	1	2	23695384150	23695503521	119371	959.54	518.84	2	22	-1	14.23	14.23
Fixation R	1	2	23695384150	23695503521	119371	959.54	518.84	2	22	-1	13.69	13.69
Saccade L	1	2	23695503521	23695543274	39753	960.02	528.39	1243.04	490.60	2.56	177.58	1.00	64.35	4331.97	-3397.98	3172.52
Saccade R	1	2	23695503521	23695543274	39753	960.02	528.39	1243.04	490.60	2.56	177.58	1.00	64.35	4331.97	-3397.98	3172.52
Fixation L	1	3	23695543274	23695841636	298362	1269.97	474.76	39	30	-1	13.78	13.78
Fixation R	1	3	23695543274	23695841636	298362	1269.97	474.76	39	30	-1	13.27	13.27
Saccade L	1	3	23695841636	23695861502	19866	1276.73	478.31	1112.56	557.60	1.05	184.37	1.00	52.88	4528.24	-3897.20	2849.92
Saccade R	1	3	23695841636	23695861502	19866	1276.73	478.31	1112.56	557.60	1.05	184.37	1.00	52.88	4528.24	-3897.20	2849.92
Fixation L	1	4	23695861502	23696100245	238743	1096.91	552.98	19	29	-1	13.86	13.86
Fixation R	1	4	23695861502	23696100245	238743	1096.91	552.98	19	29	-1	13.66	13.66
Saccade L	1	4	23696100245	23696120116	19871	1095.82	556.95	980.84	647.16	0.85	147.81	1.00	42.61	3615.52	-3437.18	2463.56
Saccade R	1	4	23696100245	23696120116	19871	1095.82	556.95	980.84	647.16	0.85	147.81	1.00	42.61	3615.52	-3437.18	2463.56
Fixation L	1	5	23696120116	23696338863	218747	995.46	637.43	17	21	-1	14.46	14.46
Fixation R	1	5	23696120116	23696338863	218747	995.46	637.43	17	21	-1	14.29	14.29
Saccade L	1	5	23696338863	23696378734	39871	997.79	637.85	645.92	789.19	3.45	199.54	0.50	86.51	4980.75	-4616.44	4604.81
Saccade R	1	5	23696338863	23696378734	39871	997.79	637.85	645.92	789.19	3.45	199.54	0.50	86.51	4980.75	-4616.44	4604.81
Fixation L	1	6	23696378734	23696756601	377867	639.19	819.35	18	40	-1	15.06	15.06
Fixation R	1	6	23696378734	23696756601	377867	639.19	819.35	18	40	-1	14.50	14.50
Saccade L	1	6	23696756601	23696776465	19864	643.16	826.58	772.09	701.37	1.07	181.75	1.00	53.72	4495.84	-3911.88	3033.55
Saccade R	1	6	23696756601	23696776465	19864	643.16	826.58	772.09	701.37	1.07	181.75	1.00	53.72	4495.84	-3911.88	3033.55
Fixation L	1	7	23696776465	23696915706	139241	800.53	661.31	38	59	-1	14.84	14.84
Fixation R	1	7	23696776465	23696915706	139241	800.53	661.31	38	59	-1	14.32	14.32
Saccade L	1	7	23696915706	23697054947	139241	809.32	641.54	1079.90	634.83	4.12	150.58	1.00	29.56	3706.79	-3664.99	1456.60
Saccade R	1	7	23696915706	23697054947	139241	809.32	641.54	1079.90	634.83	4.12	150.58	1.00	29.56	3706.79	-3664.99	1456.60
Fixation L	1	8	23697054947	23697353319	298372	1084.62	623.03	29	26	-1	15.39	15.39
Fixation R	1	8	23697054947	23697353319	298372	1084.62	623.03	29	26	-1	15.02	15.02
Saccade L	1	8	23697353319	23697393084	39765	1104.00	608.05	1348.85	347.82	3.33	256.39	0.50	83.72	6307.18	-5765.92	4142.85
Saccade R	1	8	23697353319	23697393084	39765	1104.00	608.05	1348.85	347.82	3.33	256.39	0.50	83.72	6307.18	-5765.92	4142.85
Fixation L	1	9	23697393084	23698009657	616573	1323.75	383.87	32	44	-1	15.39	15.39
Fixation R	1	9	23697393084	23698009657	616573	1323.75	383.87	32	44	-1	14.84	14.84
Saccade L	1	9	23698009657	23698148925	139268	1319.84	386.21	931.12	628.95	6.98	210.04	0.14	50.15	5213.58	-5092.98	2604.59
Saccade R	1	9	23698009657	23698148925	139268	1319.84	386.21	931.12	628.95	6.98	210.04	0.14	50.15	5213.58	-5092.98	2604.59
Fixation L	1	10	23698148925	23698546757	397832	932.69	646.89	18	33	-1	16.32	16.32
Fixation R	1	10	23698148925	23698546757	397832	932.69	646.89	18	33	-1	15.80	15.80
Saccade L	1	10	23698546757	23698586512	39755	924.51	656.62	1461.07	846.68	4.90	348.17	1.00	123.22	8640.60	-8234.13	7227.04
Saccade R	1	10	23698546757	23698586512	39755	924.51	656.62	1461.07	846.68	4.90	348.17	1.00	123.22	8640.60	-8234.13	7227.04
Fixation L	1	11	23698586512	23698924620	338108	1477.35	867.52	31	33	-1	16.40	16.40
Fixation R	1	11	23698586512	23698924620	338108	1477.35	867.52	31	33	-1	15.53	15.53
Saccade L	1	11	23698924620	23699063864	139244	1476.36	875.10	1620.90	548.60	7.10	197.04	0.14	50.99	4851.23	-4883.13	2324.51
Saccade R	1	11	23698924620	23699063864	139244	1476.36	875.10	1620.90	548.60	7.10	197.04	0.14	50.99	4851.23	-4883.13	2324.51
