[BeGaze]
Converted from:	C:\Documents and Settings\iViewX\Desktop\EXPERIMENTATIONS\Experiments\results\finaleart\S12H22222-finaleart-1.idf
Date:	27.03.2019 15:40:25
Version:	BeGaze 2.5.77
Sample Rate:	50
Subject:	S12H22222
Description:	aurele barriere

Table Header for Fixations:
Event Type	Trial	Number	Start	End	Duration	Location X	Location Y	Dispersion X	Dispersion Y	Plane	Avg. Pupil Size X	Avg. Pupil Size Y

Table Header for Saccades:
Event Type	Trial	Number	Start	End	Duration	Start Loc.X	Start Loc.Y	End Loc.X	End Loc.Y	Amplitude	Peak Speed	Peak Speed At	Average Speed	Peak Accel.	Peak Decel.	Average Accel.

Table Header for Blinks:
Event Type	Trial	Number	Start	End	Duration

Table Header for User Events:
Event Type	Trial	Number	Start	Description

UserEvent	1	1	23464816915	# Message: void.jpg
Saccade L	1	1	23464818052	23464877673	59621	931.89	221.52	1283.71	183.72	4.47	279.53	0.67	74.93	6988.17	-6835.10	3562.14
Saccade R	1	1	23464818052	23464877673	59621	931.89	221.52	1283.71	183.72	4.47	279.53	0.67	74.93	6988.17	-6835.10	3562.14
Fixation L	1	1	23464877673	23465295407	417734	1291.73	177.53	13	35	-1	13.34	13.34
Fixation R	1	1	23464877673	23465295407	417734	1291.73	177.53	13	35	-1	12.57	12.57
Saccade L	1	2	23465295407	23465355146	59739	1292.29	200.98	1133.36	366.65	2.92	98.12	0.33	48.88	2301.54	-1610.59	1637.49
Saccade R	1	2	23465295407	23465355146	59739	1292.29	200.98	1133.36	366.65	2.92	98.12	0.33	48.88	2301.54	-1610.59	1637.49
Fixation L	1	2	23465355146	23465494298	139152	1103.60	383.73	49	39	-1	13.42	13.42
Fixation R	1	2	23465355146	23465494298	139152	1103.60	383.73	49	39	-1	12.56	12.56
Saccade L	1	3	23465494298	23465514271	19973	1083.48	401.54	1080.54	415.14	0.24	20.36	1.00	11.94	-107.43	-323.15	195.85
Saccade R	1	3	23465494298	23465514271	19973	1083.48	401.54	1080.54	415.14	0.24	20.36	1.00	11.94	-107.43	-323.15	195.85
Fixation L	1	3	23465514271	23466787214	1272943	1059.75	434.07	67	31	-1	13.96	13.96
Fixation R	1	3	23465514271	23466787214	1272943	1059.75	434.07	67	31	-1	13.12	13.12
Saccade L	1	4	23466787214	23466807109	19895	1013.10	433.04	1011.13	431.13	0.05	3.00	1.00	2.74	0.00	-5.74	2.87
Saccade R	1	4	23466787214	23466807109	19895	1013.10	433.04	1011.13	431.13	0.05	3.00	1.00	2.74	0.00	-5.74	2.87
