[BeGaze]
Converted from:	C:\Documents and Settings\iViewX\Desktop\EXPERIMENTATIONS\Experiments\results\finaleart\S12H22222-finaleart-1.idf
Date:	27.03.2019 15:40:07
Version:	BeGaze 2.5.77
Sample Rate:	50
Subject:	S12H22222
Description:	aurele barriere

Table Header for Fixations:
Event Type	Trial	Number	Start	End	Duration	Location X	Location Y	Dispersion X	Dispersion Y	Plane	Avg. Pupil Size X	Avg. Pupil Size Y

Table Header for Saccades:
Event Type	Trial	Number	Start	End	Duration	Start Loc.X	Start Loc.Y	End Loc.X	End Loc.Y	Amplitude	Peak Speed	Peak Speed At	Average Speed	Peak Accel.	Peak Decel.	Average Accel.

Table Header for Blinks:
Event Type	Trial	Number	Start	End	Duration

Table Header for User Events:
Event Type	Trial	Number	Start	Description

UserEvent	1	1	23137996650	# Message: void.jpg
Fixation L	1	1	23138003775	23138163102	159327	934.98	804.91	23	46	-1	12.73	12.73
Fixation R	1	1	23138003775	23138163102	159327	934.98	804.91	23	46	-1	12.77	12.77
Saccade L	1	1	23138163102	23138222504	59402	933.79	824.01	665.98	208.25	7.41	305.10	0.33	124.66	7015.40	-7068.82	5677.29
Saccade R	1	1	23138163102	23138222504	59402	933.79	824.01	665.98	208.25	7.41	305.10	0.33	124.66	7015.40	-7068.82	5677.29
Fixation L	1	2	23138222504	23138640249	417745	655.17	231.03	29	56	-1	12.12	12.12
Fixation R	1	2	23138222504	23138620234	397730	654.07	230.03	17	56	-1	11.90	11.90
Blink R	1	1	23138620234	23138779364	159130
Saccade L	1	2	23138640249	23138799370	159121	678.21	252.09	952.37	613.47	14.79	264.33	0.50	92.93	4690.78	-6064.10	2599.46
Saccade R	1	2	23138779364	23138799370	20006	950.72	509.84	952.37	613.47	1.24	104.84	1.00	62.11	869.95	-2536.81	1205.29
Fixation L	1	3	23138799370	23139515324	715954	956.01	593.75	14	40	-1	14.27	14.27
Fixation R	1	3	23138799370	23139515324	715954	956.01	593.75	14	40	-1	14.06	14.06
Saccade L	1	3	23139515324	23139555066	39742	954.02	607.68	898.53	557.24	1.67	98.27	0.50	42.05	2317.90	-1259.74	1547.75
Saccade R	1	3	23139515324	23139555066	39742	954.02	607.68	898.53	557.24	1.67	98.27	0.50	42.05	2317.90	-1259.74	1547.75
Fixation L	1	4	23139555066	23139992677	437611	873.56	514.67	35	59	-1	14.53	14.53
Fixation R	1	4	23139555066	23139992677	437611	873.56	514.67	35	59	-1	14.37	14.37
