[BeGaze]
Converted from:	C:\Documents and Settings\iViewX\Desktop\EXPERIMENTATIONS\Experiments\results\finaleart\S12H22222-finaleart-1.idf
Date:	27.03.2019 15:40:27
Version:	BeGaze 2.5.77
Sample Rate:	50
Subject:	S12H22222
Description:	aurele barriere

Table Header for Fixations:
Event Type	Trial	Number	Start	End	Duration	Location X	Location Y	Dispersion X	Dispersion Y	Plane	Avg. Pupil Size X	Avg. Pupil Size Y

Table Header for Saccades:
Event Type	Trial	Number	Start	End	Duration	Start Loc.X	Start Loc.Y	End Loc.X	End Loc.Y	Amplitude	Peak Speed	Peak Speed At	Average Speed	Peak Accel.	Peak Decel.	Average Accel.

Table Header for Blinks:
Event Type	Trial	Number	Start	End	Duration

Table Header for User Events:
Event Type	Trial	Number	Start	Description

UserEvent	1	1	23485215064	# Message: goya-Nature-morte-avec-Bouteilles-et-Pains-1826.jpg
Fixation L	1	1	23485225295	23485643015	417720	908.07	555.46	10	32	-1	13.31	13.31
Fixation R	1	1	23485225295	23485643015	417720	908.07	555.46	10	32	-1	12.80	12.80
Saccade L	1	1	23485643015	23485682779	39764	910.87	569.62	810.61	797.32	2.18	161.94	1.00	54.91	4002.52	-3718.53	3055.56
Saccade R	1	1	23485643015	23485682779	39764	910.87	569.62	810.61	797.32	2.18	161.94	1.00	54.91	4002.52	-3718.53	3055.56
Fixation L	1	2	23485682779	23486001004	318225	815.41	814.27	13	27	-1	12.91	12.91
Fixation R	1	2	23485682779	23486001004	318225	815.41	814.27	13	27	-1	12.36	12.36
Saccade L	1	2	23486001004	23486040747	39743	820.82	816.30	651.33	579.83	2.77	179.62	0.50	69.59	4432.18	-3565.29	3459.83
Saccade R	1	2	23486001004	23486040747	39743	820.82	816.30	651.33	579.83	2.77	179.62	0.50	69.59	4432.18	-3565.29	3459.83
Fixation L	1	3	23486040747	23486199865	159118	620.54	558.34	39	26	-1	12.10	12.10
Fixation R	1	3	23486040747	23486199865	159118	620.54	558.34	39	26	-1	11.72	11.72
Saccade L	1	3	23486199865	23486219881	20016	613.03	557.44	610.24	503.44	0.57	57.01	1.00	28.70	1396.55	-1125.31	1280.41
Saccade R	1	3	23486199865	23486219881	20016	613.03	557.44	610.24	503.44	0.57	57.01	1.00	28.70	1396.55	-1125.31	1280.41
Fixation L	1	4	23486219881	23486339120	119239	596.05	446.44	25	71	-1	12.08	12.08
Fixation R	1	4	23486219881	23486339120	119239	596.05	446.44	25	71	-1	11.73	11.73
Saccade L	1	4	23486339120	23486358991	19871	584.65	433.86	581.15	432.21	0.06	4.51	1.00	3.14	51.24	-64.15	43.46
Saccade R	1	4	23486339120	23486358991	19871	584.65	433.86	581.15	432.21	0.06	4.51	1.00	3.14	51.24	-64.15	43.46
Fixation L	1	5	23486358991	23486657360	298369	588.76	442.14	28	30	-1	12.70	12.70
Fixation R	1	5	23486358991	23486657360	298369	588.76	442.14	28	30	-1	12.33	12.33
Saccade L	1	5	23486657360	23486717102	59742	605.18	458.41	1073.22	462.68	4.89	200.67	0.67	81.77	4984.92	-4681.35	3664.36
Saccade R	1	5	23486657360	23486717102	59742	605.18	458.41	1073.22	462.68	4.89	200.67	0.67	81.77	4984.92	-4681.35	3664.36
Fixation L	1	6	23486717102	23486995581	278479	1052.01	487.15	56	36	-1	14.39	14.39
Fixation R	1	6	23486717102	23486995581	278479	1052.01	487.15	56	36	-1	13.36	13.36
Saccade L	1	6	23486995581	23487035334	39753	1094.87	487.82	1506.19	630.36	3.93	296.79	0.50	98.90	7358.92	-7362.02	5200.40
Saccade R	1	6	23486995581	23487035334	39753	1094.87	487.82	1506.19	630.36	3.93	296.79	0.50	98.90	7358.92	-7362.02	5200.40
Fixation L	1	7	23487035334	23487413214	377880	1485.32	659.69	52	42	-1	13.49	13.49
Fixation R	1	7	23487035334	23487413214	377880	1485.32	659.69	52	42	-1	12.30	12.30
Saccade L	1	7	23487413214	23487433064	19850	1514.19	663.57	1525.83	663.34	0.15	11.78	1.00	7.78	179.97	-258.56	184.31
Saccade R	1	7	23487413214	23487433064	19850	1514.19	663.57	1525.83	663.34	0.15	11.78	1.00	7.78	179.97	-258.56	184.31
Fixation L	1	8	23487433064	23487572309	139245	1498.22	665.20	78	16	-1	12.63	12.63
Fixation R	1	8	23487433064	23487572309	139245	1498.22	665.20	78	16	-1	11.42	11.42
Saccade L	1	8	23487572309	23487592185	19876	1451.73	673.15	1446.65	685.17	0.22	15.08	1.00	11.09	176.81	-280.43	195.36
Saccade R	1	8	23487572309	23487592185	19876	1451.73	673.15	1446.65	685.17	0.22	15.08	1.00	11.09	176.81	-280.43	195.36
Fixation L	1	9	23487592185	23487731428	139243	1449.84	680.69	6	19	-1	12.39	12.39
Fixation R	1	9	23487592185	23487731428	139243	1449.84	680.69	6	19	-1	11.48	11.48
Saccade L	1	9	23487731428	23487791178	59750	1445.74	689.34	839.16	759.87	6.46	295.41	0.67	108.12	7272.91	-6918.42	4666.30
Saccade R	1	9	23487731428	23487791178	59750	1445.74	689.34	839.16	759.87	6.46	295.41	0.67	108.12	7272.91	-6918.42	4666.30
Fixation L	1	10	23487791178	23488089531	298353	841.51	787.44	10	49	-1	12.37	12.37
Fixation R	1	10	23487791178	23488089531	298353	841.51	787.44	10	49	-1	11.79	11.79
Saccade L	1	10	23488089531	23488109419	19888	835.99	809.07	620.18	804.70	1.34	218.26	1.00	67.44	5248.66	-5380.35	3817.66
Saccade R	1	10	23488089531	23488109419	19888	835.99	809.07	620.18	804.70	1.34	218.26	1.00	67.44	5248.66	-5380.35	3817.66
Fixation L	1	11	23488109419	23488527013	417594	579.01	800.18	49	15	-1	12.27	12.27
Fixation R	1	11	23488109419	23488527013	417594	579.01	800.18	49	15	-1	11.88	11.88
Saccade L	1	11	23488527013	23488586762	59749	582.72	808.83	938.90	546.76	4.98	210.65	0.67	83.28	5179.26	-4426.91	3110.93
Saccade R	1	11	23488527013	23488586762	59749	582.72	808.83	938.90	546.76	4.98	210.65	0.67	83.28	5179.26	-4426.91	3110.93
Fixation L	1	12	23488586762	23488785632	198870	924.91	578.03	25	45	-1	12.94	12.94
Fixation R	1	12	23488586762	23488785632	198870	924.91	578.03	25	45	-1	12.44	12.44
Saccade L	1	12	23488785632	23488805506	19874	923.60	578.15	1070.65	478.75	1.13	179.51	1.00	56.75	4118.60	-4246.57	3022.04
Saccade R	1	12	23488785632	23488805506	19874	923.60	578.15	1070.65	478.75	1.13	179.51	1.00	56.75	4118.60	-4246.57	3022.04
Fixation L	1	13	23488805506	23489203370	397864	1097.80	442.66	35	49	-1	12.95	12.95
Fixation R	1	13	23488805506	23489203370	397864	1097.80	442.66	35	49	-1	12.52	12.52
