[BeGaze]
Converted from:	C:\Documents and Settings\iViewX\Desktop\EXPERIMENTATIONS\Experiments\results\finaleart\S12H22222-finaleart-1.idf
Date:	27.03.2019 15:40:27
Version:	BeGaze 2.5.77
Sample Rate:	50
Subject:	S12H22222
Description:	aurele barriere

Table Header for Fixations:
Event Type	Trial	Number	Start	End	Duration	Location X	Location Y	Dispersion X	Dispersion Y	Plane	Avg. Pupil Size X	Avg. Pupil Size Y

Table Header for Saccades:
Event Type	Trial	Number	Start	End	Duration	Start Loc.X	Start Loc.Y	End Loc.X	End Loc.Y	Amplitude	Peak Speed	Peak Speed At	Average Speed	Peak Accel.	Peak Decel.	Average Accel.

Table Header for Blinks:
Event Type	Trial	Number	Start	End	Duration

Table Header for User Events:
Event Type	Trial	Number	Start	Description

UserEvent	1	1	23489281295	# Message: void.jpg
Fixation L	1	1	23489282862	23489382352	99490	1100.75	434.05	2	12	-1	13.66	13.66
Fixation R	1	1	23489282862	23489382352	99490	1100.75	434.05	2	12	-1	13.26	13.26
Saccade L	1	1	23489382352	23489441996	59644	1099.19	442.92	1442.51	947.64	6.48	327.07	0.67	108.57	7978.76	-7811.27	4802.95
Saccade R	1	1	23489382352	23489441996	59644	1099.19	442.92	1442.51	947.64	6.48	327.07	0.67	108.57	7978.76	-7811.27	4802.95
Fixation L	1	2	23489441996	23489780092	338096	1459.95	959.00	26	18	-1	13.23	13.23
Fixation R	1	2	23489441996	23489780092	338096	1459.95	959.00	26	18	-1	12.51	12.51
Saccade L	1	2	23489780092	23490118331	338239	1468.88	953.62	1034.40	510.27	34.37	301.58	0.53	101.62	4612.01	-5927.63	1809.67
Saccade R	1	2	23489780092	23490118331	338239	1468.88	953.62	1034.40	510.27	34.37	301.58	0.53	101.62	4612.01	-5927.63	1809.67
Fixation L	1	3	23490118331	23490436557	318226	1040.02	466.70	19	76	-1	12.70	12.70
Fixation R	1	3	23490118331	23490436557	318226	1040.02	466.70	19	76	-1	12.28	12.28
Saccade L	1	3	23490436557	23490456431	19874	1030.37	464.05	1025.79	464.82	0.13	10.06	1.00	6.62	89.50	23.80	55.21
Saccade R	1	3	23490436557	23490456431	19874	1030.37	464.05	1025.79	464.82	0.13	10.06	1.00	6.62	89.50	23.80	55.21
Fixation L	1	4	23490456431	23490854163	397732	1020.44	508.55	35	60	-1	13.10	13.10
Fixation R	1	4	23490456431	23490854163	397732	1020.44	508.55	35	60	-1	12.60	12.60
Saccade L	1	4	23490854163	23490874044	19881	990.58	524.87	986.02	526.24	0.18	14.24	0.00	9.29	121.01	-82.87	87.69
Saccade R	1	4	23490854163	23490874044	19881	990.58	524.87	986.02	526.24	0.18	14.24	0.00	9.29	121.01	-82.87	87.69
Fixation L	1	5	23490874044	23491271907	397863	966.18	547.70	27	32	-1	12.42	12.42
Fixation R	1	5	23490874044	23491271907	397863	966.18	547.70	27	32	-1	11.97	11.97
