[BeGaze]
Converted from:	C:\Documents and Settings\iViewX\Desktop\EXPERIMENTATIONS\Experiments\results\finaleart\S12H22222-finaleart-1.idf
Date:	27.03.2019 15:40:22
Version:	BeGaze 2.5.77
Sample Rate:	50
Subject:	S12H22222
Description:	aurele barriere

Table Header for Fixations:
Event Type	Trial	Number	Start	End	Duration	Location X	Location Y	Dispersion X	Dispersion Y	Plane	Avg. Pupil Size X	Avg. Pupil Size Y

Table Header for Saccades:
Event Type	Trial	Number	Start	End	Duration	Start Loc.X	Start Loc.Y	End Loc.X	End Loc.Y	Amplitude	Peak Speed	Peak Speed At	Average Speed	Peak Accel.	Peak Decel.	Average Accel.

Table Header for Blinks:
Event Type	Trial	Number	Start	End	Duration

Table Header for User Events:
Event Type	Trial	Number	Start	Description

UserEvent	1	1	23428134665	# Message: void.jpg
Fixation L	1	1	23428140792	23428299894	159102	1148.68	509.25	2	11	-1	14.17	14.17
Fixation R	1	1	23428140792	23428299894	159102	1148.68	509.25	2	11	-1	13.25	13.25
Saccade L	1	1	23428299894	23428359502	59608	1149.78	514.00	837.30	1003.96	6.12	396.29	0.67	102.60	9863.23	-9781.20	5027.31
Saccade R	1	1	23428299894	23428359502	59608	1149.78	514.00	837.30	1003.96	6.12	396.29	0.67	102.60	9863.23	-9781.20	5027.31
Fixation L	1	2	23428359502	23428717513	358011	833.26	998.71	14	15	-1	14.20	14.20
Fixation R	1	2	23428359502	23428717513	358011	833.26	998.71	14	15	-1	13.40	13.40
Saccade L	1	2	23428717513	23428797108	79595	822.98	992.33	692.53	835.32	3.46	81.38	0.50	43.53	1859.42	-1106.95	1098.15
Saccade R	1	2	23428717513	23428797108	79595	822.98	992.33	692.53	835.32	3.46	81.38	0.50	43.53	1859.42	-1106.95	1098.15
Fixation L	1	3	23428797108	23429115350	318242	650.81	863.62	53	45	-1	14.17	14.17
Fixation R	1	3	23428797108	23429115350	318242	650.81	863.62	53	45	-1	13.85	13.85
Saccade L	1	3	23429115350	23429135224	19874	638.63	875.06	637.21	875.20	0.03	2.71	1.00	1.63	-9.46	-31.70	18.50
Saccade R	1	3	23429115350	23429135224	19874	638.63	875.06	637.21	875.20	0.03	2.71	1.00	1.63	-9.46	-31.70	18.50
Fixation L	1	4	23429135224	23429433590	298366	630.91	884.27	35	57	-1	15.16	15.16
Fixation R	1	4	23429135224	23429433590	298366	630.91	884.27	35	57	-1	14.59	14.59
Saccade L	1	4	23429433590	23429453459	19869	603.38	931.48	606.14	946.09	0.26	21.74	1.00	12.93	-167.57	-318.86	245.39
Saccade R	1	4	23429433590	23429453459	19869	603.38	931.48	606.14	946.09	0.26	21.74	1.00	12.93	-167.57	-318.86	245.39
Fixation L	1	5	23429453459	23429930820	477361	596.55	951.55	36	16	-1	15.42	15.42
Fixation R	1	5	23429453459	23429930820	477361	596.55	951.55	36	16	-1	14.78	14.78
Saccade L	1	5	23429930820	23429990435	59615	599.62	947.61	1044.62	556.44	6.45	290.47	0.33	108.27	7105.84	-3900.62	4283.64
Saccade R	1	5	23429930820	23429990435	59615	599.62	947.61	1044.62	556.44	6.45	290.47	0.33	108.27	7105.84	-3900.62	4283.64
Fixation L	1	6	23429990435	23430129698	139263	1048.97	550.46	11	23	-1	14.27	14.27
Fixation R	1	6	23429990435	23430129698	139263	1048.97	550.46	11	23	-1	13.98	13.98
