[BeGaze]
Converted from:	C:\Documents and Settings\iViewX\Desktop\EXPERIMENTATIONS\Experiments\results\finaleart\S12H22222-finaleart-1.idf
Date:	27.03.2019 15:41:04
Version:	BeGaze 2.5.77
Sample Rate:	50
Subject:	S12H22222
Description:	aurele barriere

Table Header for Fixations:
Event Type	Trial	Number	Start	End	Duration	Location X	Location Y	Dispersion X	Dispersion Y	Plane	Avg. Pupil Size X	Avg. Pupil Size Y

Table Header for Saccades:
Event Type	Trial	Number	Start	End	Duration	Start Loc.X	Start Loc.Y	End Loc.X	End Loc.Y	Amplitude	Peak Speed	Peak Speed At	Average Speed	Peak Accel.	Peak Decel.	Average Accel.

Table Header for Blinks:
Event Type	Trial	Number	Start	End	Duration

Table Header for User Events:
Event Type	Trial	Number	Start	Description

UserEvent	1	1	24170855170	# Message: lair_of_the_sea_serpent_vedder_1899.jpg
Fixation L	1	1	24170874729	24171312225	437496	1050.77	522.36	14	64	-1	14.68	14.68
Fixation R	1	1	24170874729	24171312225	437496	1050.77	522.36	14	64	-1	13.90	13.90
Saccade L	1	1	24171312225	24171352087	39862	1040.16	552.11	778.86	705.06	2.74	241.93	0.50	68.83	5824.57	-5659.96	3509.56
Saccade R	1	1	24171312225	24171352087	39862	1040.16	552.11	778.86	705.06	2.74	241.93	0.50	68.83	5824.57	-5659.96	3509.56
Fixation L	1	2	24171352087	24171550945	198858	773.98	707.98	9	33	-1	13.23	13.23
Fixation R	1	2	24171352087	24171550945	198858	773.98	707.98	9	33	-1	12.54	12.54
Saccade L	1	2	24171550945	24171590689	39744	774.11	704.45	983.50	658.67	2.05	110.48	1.00	51.59	2707.00	-2037.32	2279.30
Saccade R	1	2	24171550945	24171590689	39744	774.11	704.45	983.50	658.67	2.05	110.48	1.00	51.59	2707.00	-2037.32	2279.30
Fixation L	1	3	24171590689	24171849306	258617	1000.49	650.45	25	48	-1	10.95	10.95
Fixation R	1	3	24171590689	24171849306	258617	1000.49	650.45	25	48	-1	10.79	10.79
Saccade L	1	3	24171849306	24171968676	119370	1009.43	666.72	1533.74	573.74	9.09	262.39	0.17	76.15	6009.91	-6377.09	3355.24
Saccade R	1	3	24171849306	24171968676	119370	1009.43	666.72	1533.74	573.74	9.09	262.39	0.17	76.15	6009.91	-6377.09	3355.24
Fixation L	1	4	24171968676	24172326662	357986	1556.14	622.90	30	60	-1	11.06	11.06
Fixation R	1	4	24171968676	24172326662	357986	1556.14	622.90	30	60	-1	10.49	10.49
Saccade L	1	4	24172326662	24172366412	39750	1562.63	626.61	1721.58	604.56	1.43	134.34	1.00	35.89	3174.66	-2744.37	1775.91
Saccade R	1	4	24172326662	24172366412	39750	1562.63	626.61	1721.58	604.56	1.43	134.34	1.00	35.89	3174.66	-2744.37	1775.91
Fixation L	1	5	24172366412	24172605149	238737	1717.21	586.65	10	26	-1	11.64	11.64
Fixation R	1	5	24172366412	24172605149	238737	1717.21	586.65	10	26	-1	10.78	10.78
Saccade L	1	5	24172605149	24172664788	59639	1712.50	590.32	937.58	597.95	7.99	372.93	0.67	133.99	9115.13	-9157.30	6009.42
Saccade R	1	5	24172605149	24172664788	59639	1712.50	590.32	937.58	597.95	7.99	372.93	0.67	133.99	9115.13	-9157.30	6009.42
Fixation L	1	6	24172664788	24172823897	159109	925.54	594.64	20	13	-1	11.34	11.34
Fixation R	1	6	24172664788	24172823897	159109	925.54	594.64	20	13	-1	10.95	10.95
Saccade L	1	6	24172823897	24172843758	19861	917.01	592.25	830.95	585.45	0.55	87.32	1.00	27.65	1963.24	-2003.83	1388.75
Saccade R	1	6	24172823897	24172843758	19861	917.01	592.25	830.95	585.45	0.55	87.32	1.00	27.65	1963.24	-2003.83	1388.75
Fixation L	1	7	24172843758	24173520106	676348	800.12	602.88	43	54	-1	11.70	11.70
Fixation R	1	7	24172843758	24173520106	676348	800.12	602.88	43	54	-1	11.53	11.53
Saccade L	1	7	24173520106	24173639378	119272	787.43	623.33	1863.26	506.03	17.06	367.04	0.50	143.05	9103.35	-8027.84	4382.77
Saccade R	1	7	24173520106	24173639378	119272	787.43	623.33	1863.26	506.03	17.06	367.04	0.50	143.05	9103.35	-8027.84	4382.77
Fixation L	1	8	24173639378	24173838352	198974	1828.40	541.33	48	48	-1	11.97	11.97
Fixation R	1	8	24173639378	24173838352	198974	1828.40	541.33	48	48	-1	11.72	11.72
Saccade L	1	8	24173838352	24173878100	39748	1819.36	550.05	1490.60	646.32	3.24	294.25	1.00	81.54	7352.63	-7082.58	4292.78
Saccade R	1	8	24173838352	24173878100	39748	1819.36	550.05	1490.60	646.32	3.24	294.25	1.00	81.54	7352.63	-7082.58	4292.78
Fixation L	1	9	24173878100	24174057080	178980	1526.70	621.95	52	37	-1	11.88	11.88
Fixation R	1	9	24173878100	24174057080	178980	1526.70	621.95	52	37	-1	11.43	11.43
Saccade L	1	9	24174057080	24174176479	119399	1543.11	610.41	1374.57	601.67	3.67	177.77	1.00	30.70	4336.21	-4212.64	1260.81
Saccade R	1	9	24174057080	24174176479	119399	1543.11	610.41	1374.57	601.67	3.67	177.77	1.00	30.70	4336.21	-4212.64	1260.81
Fixation L	1	10	24174176479	24174434940	258461	1337.90	634.87	46	46	-1	11.77	11.77
Fixation R	1	10	24174176479	24174434940	258461	1337.90	634.87	46	46	-1	11.53	11.53
Saccade L	1	10	24174434940	24174474820	39880	1340.35	646.66	1123.23	645.85	2.17	147.44	1.00	54.41	3631.98	-3427.28	2358.46
Saccade R	1	10	24174434940	24174474820	39880	1340.35	646.66	1123.23	645.85	2.17	147.44	1.00	54.41	3631.98	-3427.28	2358.46
Fixation L	1	11	24174474820	24174653810	178990	1065.33	633.91	74	25	-1	12.02	12.02
Fixation R	1	11	24174474820	24174653810	178990	1065.33	633.91	74	25	-1	11.44	11.44
Saccade L	1	11	24174653810	24174713435	59625	1049.12	630.55	911.87	405.20	3.03	151.09	0.67	50.79	3656.87	-3283.98	2225.76
Saccade R	1	11	24174653810	24174713435	59625	1049.12	630.55	911.87	405.20	3.03	151.09	0.67	50.79	3656.87	-3283.98	2225.76
Fixation L	1	12	24174713435	24174852673	139238	918.22	416.59	8	20	-1	11.52	11.52
Fixation R	1	12	24174713435	24174852673	139238	918.22	416.59	8	20	-1	11.47	11.47
