[BeGaze]
Converted from:	C:\Documents and Settings\iViewX\Desktop\EXPERIMENTATIONS\Experiments\results\finaleart\S12H22222-finaleart-1.idf
Date:	27.03.2019 15:41:07
Version:	BeGaze 2.5.77
Sample Rate:	50
Subject:	S12H22222
Description:	aurele barriere

Table Header for Fixations:
Event Type	Trial	Number	Start	End	Duration	Location X	Location Y	Dispersion X	Dispersion Y	Plane	Avg. Pupil Size X	Avg. Pupil Size Y

Table Header for Saccades:
Event Type	Trial	Number	Start	End	Duration	Start Loc.X	Start Loc.Y	End Loc.X	End Loc.Y	Amplitude	Peak Speed	Peak Speed At	Average Speed	Peak Accel.	Peak Decel.	Average Accel.

Table Header for Blinks:
Event Type	Trial	Number	Start	End	Duration

Table Header for User Events:
Event Type	Trial	Number	Start	Description

UserEvent	1	1	24213681928	# Message: madrazo-y-kuntz-Man-Holding-a-Dagger-1850.jpg
Fixation L	1	1	24213698122	24214095847	397725	970.03	427.03	25	48	-1	11.97	11.97
Fixation R	1	1	24213698122	24214095847	397725	970.03	427.03	25	48	-1	11.63	11.63
Saccade L	1	1	24214095847	24214135652	39805	972.01	457.83	1247.50	333.57	2.75	203.75	0.50	68.97	4965.00	-4970.83	3802.25
Saccade R	1	1	24214095847	24214135652	39805	972.01	457.83	1247.50	333.57	2.75	203.75	0.50	68.97	4965.00	-4970.83	3802.25
Fixation L	1	2	24214135652	24214314712	179060	1258.55	349.27	36	57	-1	11.75	11.75
Fixation R	1	2	24214135652	24214314712	179060	1258.55	349.27	36	57	-1	11.25	11.25
Saccade L	1	2	24214314712	24214334591	19879	1282.37	313.22	1271.98	298.77	0.52	50.00	1.00	26.06	134.11	-800.13	404.37
Saccade R	1	2	24214314712	24214334591	19879	1282.37	313.22	1271.98	298.77	0.52	50.00	1.00	26.06	134.11	-800.13	404.37
Fixation L	1	3	24214334591	24214513585	178994	1298.81	289.32	38	23	-1	10.88	10.88
Fixation R	1	3	24214334591	24214513585	178994	1298.81	289.32	38	23	-1	10.40	10.40
Saccade L	1	3	24214513585	24214553331	39746	1302.73	305.40	844.17	760.49	5.74	497.33	0.50	144.33	12326.30	-11334.07	7786.88
Saccade R	1	3	24214513585	24214553331	39746	1302.73	305.40	844.17	760.49	5.74	497.33	0.50	144.33	12326.30	-11334.07	7786.88
Fixation L	1	4	24214553331	24215010818	457487	839.06	775.43	9	46	-1	11.45	11.45
Fixation R	1	4	24214553331	24215010818	457487	839.06	775.43	9	46	-1	11.35	11.35
Saccade L	1	4	24215010818	24215030680	19862	845.51	782.89	824.18	877.32	0.90	97.92	1.00	45.43	2415.66	-1629.32	1577.14
Saccade R	1	4	24215010818	24215030680	19862	845.51	782.89	824.18	877.32	0.90	97.92	1.00	45.43	2415.66	-1629.32	1577.14
Fixation L	1	5	24215030680	24215567780	537100	797.81	863.55	43	52	-1	12.62	12.62
Fixation R	1	5	24215030680	24215567780	537100	797.81	863.55	43	52	-1	12.07	12.07
Saccade L	1	5	24215567780	24215627404	59624	780.50	867.59	1373.91	216.53	9.33	372.27	0.33	156.48	9296.79	-7626.92	6725.13
Saccade R	1	5	24215567780	24215627404	59624	780.50	867.59	1373.91	216.53	9.33	372.27	0.33	156.48	9296.79	-7626.92	6725.13
Fixation L	1	6	24215627404	24216084884	457480	1340.96	247.79	43	52	-1	12.67	12.67
Fixation R	1	6	24215627404	24216084884	457480	1340.96	247.79	43	52	-1	12.02	12.02
Saccade L	1	6	24216084884	24216104752	19868	1334.56	245.16	1324.22	244.03	0.13	10.53	1.00	6.74	196.61	-41.62	90.82
Saccade R	1	6	24216084884	24216104752	19868	1334.56	245.16	1324.22	244.03	0.13	10.53	1.00	6.74	196.61	-41.62	90.82
Fixation L	1	7	24216104752	24216283749	178997	1314.29	238.56	21	15	-1	13.15	13.15
Fixation R	1	7	24216104752	24216283749	178997	1314.29	238.56	21	15	-1	12.16	12.16
Saccade L	1	7	24216283749	24216303637	19888	1308.86	243.10	1263.80	563.82	1.87	327.27	1.00	94.18	8061.99	-7894.62	5469.55
Saccade R	1	7	24216283749	24216303637	19888	1308.86	243.10	1263.80	563.82	1.87	327.27	1.00	94.18	8061.99	-7894.62	5469.55
Fixation L	1	8	24216303637	24216403126	99489	1259.23	574.35	65	32	-1	13.49	13.49
Fixation R	1	8	24216303637	24216403126	99489	1259.23	574.35	65	32	-1	12.46	12.46
Saccade L	1	8	24216403126	24216423000	19874	1296.65	562.02	1228.86	614.10	0.89	86.48	1.00	44.60	422.86	-1634.21	793.07
Saccade R	1	8	24216403126	24216423000	19874	1296.65	562.02	1228.86	614.10	0.89	86.48	1.00	44.60	422.86	-1634.21	793.07
Fixation L	1	9	24216423000	24216621866	198866	1224.96	618.80	41	23	-1	13.41	13.41
Fixation R	1	9	24216423000	24216621866	198866	1224.96	618.80	41	23	-1	12.27	12.27
Saccade L	1	9	24216621866	24216641863	19997	1189.36	611.18	1137.86	603.86	0.57	52.62	1.00	28.32	1087.67	-1064.37	1028.54
Saccade R	1	9	24216621866	24216641863	19997	1189.36	611.18	1137.86	603.86	0.57	52.62	1.00	28.32	1087.67	-1064.37	1028.54
Fixation L	1	10	24216641863	24216800984	159121	1131.47	589.78	14	25	-1	12.90	12.90
Fixation R	1	10	24216641863	24216800984	159121	1131.47	589.78	14	25	-1	12.01	12.01
Saccade L	1	10	24216800984	24216840752	39768	1130.38	578.13	1118.21	869.49	2.50	216.62	0.50	62.77	5141.58	-5263.89	3540.89
Saccade R	1	10	24216800984	24216840752	39768	1130.38	578.13	1118.21	869.49	2.50	216.62	0.50	62.77	5141.58	-5263.89	3540.89
Fixation L	1	11	24216840752	24217139092	298340	1099.97	878.08	25	14	-1	12.71	12.71
Fixation R	1	11	24216840752	24217139092	298340	1099.97	878.08	25	14	-1	11.55	11.55
Saccade L	1	11	24217139092	24217258329	119237	1098.15	883.24	425.23	386.74	14.84	367.35	0.33	124.47	9069.44	-5302.40	4048.28
Saccade R	1	11	24217139092	24217258329	119237	1098.15	883.24	425.23	386.74	14.84	367.35	0.33	124.47	9069.44	-5302.40	4048.28
Fixation L	1	12	24217258329	24217616441	358112	446.08	415.69	30	62	-1	12.30	12.30
Fixation R	1	12	24217258329	24217616441	358112	446.08	415.69	30	62	-1	11.71	11.71
Saccade L	1	12	24217616441	24217676065	59624	452.50	413.33	746.10	156.32	5.08	275.60	0.33	85.12	6883.14	-6528.81	4115.80
Saccade R	1	12	24217616441	24217676065	59624	452.50	413.33	746.10	156.32	5.08	275.60	0.33	85.12	6883.14	-6528.81	4115.80
