[BeGaze]
Converted from:	C:\Documents and Settings\iViewX\Desktop\EXPERIMENTATIONS\Experiments\results\finaleart\S12H22222-finaleart-1.idf
Date:	27.03.2019 15:40:00
Version:	BeGaze 2.5.77
Sample Rate:	50
Subject:	S12H22222
Description:	aurele barriere

Table Header for Fixations:
Event Type	Trial	Number	Start	End	Duration	Location X	Location Y	Dispersion X	Dispersion Y	Plane	Avg. Pupil Size X	Avg. Pupil Size Y

Table Header for Saccades:
Event Type	Trial	Number	Start	End	Duration	Start Loc.X	Start Loc.Y	End Loc.X	End Loc.Y	Amplitude	Peak Speed	Peak Speed At	Average Speed	Peak Accel.	Peak Decel.	Average Accel.

Table Header for Blinks:
Event Type	Trial	Number	Start	End	Duration

Table Header for User Events:
Event Type	Trial	Number	Start	Description

UserEvent	1	1	22963302068	# Message: void.jpg
Fixation L	1	1	22963317369	22963516231	198862	1152.48	580.03	5	48	-1	15.69	15.69
Fixation R	1	1	22963317369	22963516231	198862	1152.48	580.03	5	48	-1	14.71	14.71
Saccade L	1	1	22963516231	22963556105	39874	1152.83	591.64	1564.20	612.45	3.82	240.72	1.00	95.84	5817.72	-5756.43	4750.15
Saccade R	1	1	22963516231	22963556105	39874	1152.83	591.64	1564.20	612.45	3.82	240.72	1.00	95.84	5817.72	-5756.43	4750.15
Fixation L	1	2	22963556105	22963774835	218730	1518.53	629.35	55	24	-1	15.08	15.08
Fixation R	1	2	22963556105	22963774835	218730	1518.53	629.35	55	24	-1	14.00	14.00
Saccade L	1	2	22963774835	22963834583	59748	1509.09	636.07	1024.79	594.35	5.55	190.10	1.00	92.89	4236.01	-4709.57	2892.80
Saccade R	1	2	22963774835	22963834583	59748	1509.09	636.07	1024.79	594.35	5.55	190.10	1.00	92.89	4236.01	-4709.57	2892.80
Fixation L	1	3	22963834583	22963953830	119247	985.21	559.06	49	50	-1	15.00	15.00
Fixation R	1	3	22963834583	22963953830	119247	985.21	559.06	49	50	-1	14.38	14.38
Saccade L	1	3	22963953830	22963973712	19882	975.76	548.57	974.58	548.21	0.09	10.52	1.00	4.71	34.53	-231.71	123.88
Saccade R	1	3	22963953830	22963973712	19882	975.76	548.57	974.58	548.21	0.09	10.52	1.00	4.71	34.53	-231.71	123.88
Fixation L	1	4	22963973712	22964132828	159116	972.80	535.14	4	91	-1	14.99	14.99
Fixation R	1	4	22963973712	22964132828	159116	972.80	535.14	4	91	-1	14.45	14.45
Saccade L	1	4	22964132828	22964232324	99496	971.23	457.13	1044.25	459.06	3.39	84.73	0.00	34.04	974.02	-1265.32	432.84
Saccade R	1	4	22964132828	22964232324	99496	971.23	457.13	1044.25	459.06	3.39	84.73	0.00	34.04	974.02	-1265.32	432.84
Fixation L	1	5	22964232324	22964789298	556974	1041.13	487.90	36	53	-1	16.25	16.25
Fixation R	1	5	22964232324	22964789298	556974	1041.13	487.90	36	53	-1	15.59	15.59
Saccade L	1	5	22964789298	22964809171	19873	1014.57	489.57	1000.48	493.20	0.28	34.92	1.00	13.97	-16.88	-505.03	227.26
Saccade R	1	5	22964789298	22964809171	19873	1014.57	489.57	1000.48	493.20	0.28	34.92	1.00	13.97	-16.88	-505.03	227.26
Fixation L	1	6	22964809171	22965286528	477357	983.73	484.62	22	18	-1	15.77	15.77
Fixation R	1	6	22964809171	22965286528	477357	983.73	484.62	22	18	-1	15.21	15.21
