[BeGaze]
Converted from:	C:\Documents and Settings\iViewX\Desktop\EXPERIMENTATIONS\Experiments\results\finaleart\S12H22222-finaleart-1.idf
Date:	27.03.2019 15:40:46
Version:	BeGaze 2.5.77
Sample Rate:	50
Subject:	S12H22222
Description:	aurele barriere

Table Header for Fixations:
Event Type	Trial	Number	Start	End	Duration	Location X	Location Y	Dispersion X	Dispersion Y	Plane	Avg. Pupil Size X	Avg. Pupil Size Y

Table Header for Saccades:
Event Type	Trial	Number	Start	End	Duration	Start Loc.X	Start Loc.Y	End Loc.X	End Loc.Y	Amplitude	Peak Speed	Peak Speed At	Average Speed	Peak Accel.	Peak Decel.	Average Accel.

Table Header for Blinks:
Event Type	Trial	Number	Start	End	Duration

Table Header for User Events:
Event Type	Trial	Number	Start	Description

UserEvent	1	1	23804227276	# Message: void.jpg
Fixation L	1	1	23804243800	23804383067	139267	1038.31	715.25	4	19	-1	13.95	13.95
Fixation R	1	1	23804243800	23804383067	139267	1038.31	715.25	4	19	-1	13.41	13.41
Saccade L	1	1	23804383067	23804422794	39727	1037.29	703.16	683.37	772.84	3.29	216.49	1.00	82.72	5289.12	-4883.99	4195.99
Saccade R	1	1	23804383067	23804422794	39727	1037.29	703.16	683.37	772.84	3.29	216.49	1.00	82.72	5289.12	-4883.99	4195.99
Fixation L	1	2	23804422794	23804542146	119352	640.06	767.20	60	20	-1	13.85	13.85
Fixation R	1	2	23804422794	23804542146	119352	640.06	767.20	60	20	-1	13.36	13.36
Saccade L	1	2	23804542146	23804581922	39776	622.85	773.58	380.75	631.04	2.61	196.24	0.50	65.52	4780.83	-4574.33	3695.76
Saccade R	1	2	23804542146	23804581922	39776	622.85	773.58	380.75	631.04	2.61	196.24	0.50	65.52	4780.83	-4574.33	3695.76
Fixation L	1	3	23804581922	23804741014	159092	366.41	631.37	21	26	-1	13.71	13.71
Fixation R	1	3	23804581922	23804741014	159092	366.41	631.37	21	26	-1	13.31	13.31
Blink L	1	1	23804741014	23804880266	139252
Blink R	1	1	23804741014	23805079128	338114
Blink L	1	2	23804900146	23805079128	178982
Saccade L	1	3	23805079128	23805099006	19878	982.84	393.85	886.46	427.50	1.13	103.27	1.00	56.90	495.21	-2176.43	996.72
Saccade R	1	3	23805079128	23805099006	19878	982.84	393.85	886.46	427.50	1.13	103.27	1.00	56.90	495.21	-2176.43	996.72
Fixation L	1	4	23805099006	23805278126	179120	908.17	459.65	40	51	-1	14.15	14.15
Fixation R	1	4	23805099006	23805278126	179120	908.17	459.65	40	51	-1	13.75	13.75
Saccade L	1	4	23805278126	23805297992	19866	907.25	479.22	903.48	490.88	0.11	12.39	1.00	5.33	239.96	-153.47	148.72
Saccade R	1	4	23805278126	23805297992	19866	907.25	479.22	903.48	490.88	0.11	12.39	1.00	5.33	239.96	-153.47	148.72
Fixation L	1	5	23805297992	23806212948	914956	906.25	483.00	11	87	-1	14.76	14.76
Fixation R	1	5	23805297992	23806212948	914956	906.25	483.00	11	87	-1	14.29	14.29
