[BeGaze]
Converted from:	C:\Documents and Settings\iViewX\Desktop\EXPERIMENTATIONS\Experiments\results\finaleart\S12H22222-finaleart-1.idf
Date:	27.03.2019 15:40:57
Version:	BeGaze 2.5.77
Sample Rate:	50
Subject:	S12H22222
Description:	aurele barriere

Table Header for Fixations:
Event Type	Trial	Number	Start	End	Duration	Location X	Location Y	Dispersion X	Dispersion Y	Plane	Avg. Pupil Size X	Avg. Pupil Size Y

Table Header for Saccades:
Event Type	Trial	Number	Start	End	Duration	Start Loc.X	Start Loc.Y	End Loc.X	End Loc.Y	Amplitude	Peak Speed	Peak Speed At	Average Speed	Peak Accel.	Peak Decel.	Average Accel.

Table Header for Blinks:
Event Type	Trial	Number	Start	End	Duration

Table Header for User Events:
Event Type	Trial	Number	Start	Description

UserEvent	1	1	23926475811	# Message: void.jpg
Fixation L	1	1	23926488375	23926985574	497199	909.40	640.21	15	70	-1	11.21	11.21
Fixation R	1	1	23926488375	23926985574	497199	909.40	640.21	15	70	-1	10.96	10.96
Saccade L	1	1	23926985574	23927025456	39882	922.02	671.80	986.64	555.96	1.41	80.55	1.00	35.38	1730.92	-1848.77	1508.18
Saccade R	1	1	23926985574	23927025456	39882	922.02	671.80	986.64	555.96	1.41	80.55	1.00	35.38	1730.92	-1848.77	1508.18
Fixation L	1	2	23927025456	23927164580	139124	994.78	552.53	10	73	-1	11.21	11.21
Fixation R	1	2	23927025456	23927164580	139124	994.78	552.53	10	73	-1	11.17	11.17
Saccade L	1	2	23927164580	23927184568	19988	995.63	511.12	1000.12	468.27	0.55	43.59	1.00	27.30	737.09	-995.93	864.14
Saccade R	1	2	23927164580	23927184568	19988	995.63	511.12	1000.12	468.27	0.55	43.59	1.00	27.30	737.09	-995.93	864.14
Fixation L	1	3	23927184568	23927622051	437483	1035.09	471.84	56	42	-1	12.26	12.26
Fixation R	1	3	23927184568	23927622051	437483	1035.09	471.84	56	42	-1	11.91	11.91
Saccade L	1	3	23927622051	23927641921	19870	1053.63	496.60	1051.40	499.75	0.05	3.91	1.00	2.52	84.41	-74.02	55.15
Saccade R	1	3	23927622051	23927641921	19870	1053.63	496.60	1051.40	499.75	0.05	3.91	1.00	2.52	84.41	-74.02	55.15
Fixation L	1	4	23927641921	23928477383	835462	997.74	517.15	68	28	-1	13.19	13.19
Fixation R	1	4	23927641921	23928477383	835462	997.74	517.15	68	28	-1	12.83	12.83
