[BeGaze]
Converted from:	C:\Documents and Settings\iViewX\Desktop\EXPERIMENTATIONS\Experiments\results\finaleart\S12H22222-finaleart-1.idf
Date:	27.03.2019 15:41:04
Version:	BeGaze 2.5.77
Sample Rate:	50
Subject:	S12H22222
Description:	aurele barriere

Table Header for Fixations:
Event Type	Trial	Number	Start	End	Duration	Location X	Location Y	Dispersion X	Dispersion Y	Plane	Avg. Pupil Size X	Avg. Pupil Size Y

Table Header for Saccades:
Event Type	Trial	Number	Start	End	Duration	Start Loc.X	Start Loc.Y	End Loc.X	End Loc.Y	Amplitude	Peak Speed	Peak Speed At	Average Speed	Peak Accel.	Peak Decel.	Average Accel.

Table Header for Blinks:
Event Type	Trial	Number	Start	End	Duration

Table Header for User Events:
Event Type	Trial	Number	Start	Description

UserEvent	1	1	24176963020	# Message: Alfalfa_St-Denis_Seurat_1886.jpg
Fixation L	1	1	24176980966	24177617425	636459	965.27	468.96	12	31	-1	12.55	12.55
Fixation R	1	1	24176980966	24177617425	636459	965.27	468.96	12	31	-1	12.25	12.25
Saccade L	1	1	24177617425	24177657177	39752	965.93	481.31	988.33	675.71	1.80	114.48	0.50	45.16	2680.39	-2561.39	2264.06
Saccade R	1	1	24177617425	24177657177	39752	965.93	481.31	988.33	675.71	1.80	114.48	0.50	45.16	2680.39	-2561.39	2264.06
Fixation L	1	2	24177657177	24177856039	198862	1005.58	671.06	26	14	-1	10.19	10.19
Fixation R	1	2	24177657177	24177856039	198862	1005.58	671.06	26	14	-1	10.01	10.01
Saccade L	1	2	24177856039	24177895792	39753	1011.60	672.16	1149.82	933.80	2.73	221.25	0.50	68.58	5457.83	-4842.99	3455.29
Saccade R	1	2	24177856039	24177895792	39753	1011.60	672.16	1149.82	933.80	2.73	221.25	0.50	68.58	5457.83	-4842.99	3455.29
Fixation L	1	3	24177895792	24178154403	258611	1155.96	934.38	25	50	-1	9.86	9.86
Fixation R	1	3	24177895792	24178154403	258611	1155.96	934.38	25	50	-1	9.74	9.74
Saccade L	1	3	24178154403	24178194158	39755	1151.42	952.71	1140.11	571.41	3.40	232.47	1.00	85.60	5656.69	-5377.37	4449.80
Saccade R	1	3	24178154403	24178194158	39755	1151.42	952.71	1140.11	571.41	3.40	232.47	1.00	85.60	5656.69	-5377.37	4449.80
Fixation L	1	4	24178194158	24178472642	278484	1113.02	584.08	37	32	-1	10.29	10.29
Fixation R	1	4	24178194158	24178472642	278484	1113.02	584.08	37	32	-1	10.23	10.23
Saccade L	1	4	24178472642	24178631756	159114	1103.26	580.96	1417.60	325.83	9.53	212.04	0.25	59.87	5284.38	-5090.63	2490.50
Saccade R	1	4	24178472642	24178631756	159114	1103.26	580.96	1417.60	325.83	9.53	212.04	0.25	59.87	5284.38	-5090.63	2490.50
Fixation L	1	5	24178631756	24178751135	119379	1419.77	325.41	8	11	-1	10.40	10.40
Fixation R	1	5	24178631756	24178751135	119379	1419.77	325.41	8	11	-1	10.11	10.11
Saccade L	1	5	24178751135	24178810906	59771	1416.72	329.72	1029.44	300.43	4.46	187.81	0.33	74.62	4555.48	-3687.87	3241.85
Saccade R	1	5	24178751135	24178810906	59771	1416.72	329.72	1029.44	300.43	4.46	187.81	0.33	74.62	4555.48	-3687.87	3241.85
Fixation L	1	6	24178810906	24179148993	338087	1022.76	286.82	14	51	-1	10.36	10.36
Fixation R	1	6	24178810906	24179148993	338087	1022.76	286.82	14	51	-1	10.29	10.29
Saccade L	1	6	24179148993	24179188736	39743	1017.22	286.92	914.76	436.64	2.08	128.88	1.00	52.25	3155.03	-2716.68	2534.95
Saccade R	1	6	24179148993	24179188736	39743	1017.22	286.92	914.76	436.64	2.08	128.88	1.00	52.25	3155.03	-2716.68	2534.95
Fixation L	1	7	24179188736	24179785485	596749	887.78	443.11	35	64	-1	10.66	10.66
Fixation R	1	7	24179188736	24179785485	596749	887.78	443.11	35	64	-1	10.87	10.87
Saccade L	1	7	24179785485	24179805343	19858	882.83	398.82	885.14	398.32	0.06	8.22	0.00	3.17	44.30	-193.88	86.13
Saccade R	1	7	24179785485	24179805343	19858	882.83	398.82	885.14	398.32	0.06	8.22	0.00	3.17	44.30	-193.88	86.13
Fixation L	1	8	24179805343	24180203068	397725	892.18	436.01	11	66	-1	10.90	10.90
Fixation R	1	8	24179805343	24180203068	397725	892.18	436.01	11	66	-1	11.11	11.11
Saccade L	1	8	24180203068	24180262812	59744	886.68	453.63	1220.72	207.05	4.60	227.74	0.67	76.93	5558.46	-5221.98	3165.59
Saccade R	1	8	24180203068	24180262812	59744	886.68	453.63	1220.72	207.05	4.60	227.74	0.67	76.93	5558.46	-5221.98	3165.59
Fixation L	1	9	24180262812	24180521432	258620	1239.95	221.49	59	38	-1	10.91	10.91
Fixation R	1	9	24180262812	24180521432	258620	1239.95	221.49	59	38	-1	10.81	10.81
