[BeGaze]
Converted from:	C:\Documents and Settings\iViewX\Desktop\EXPERIMENTATIONS\Experiments\results\finaleart\S12H22222-finaleart-1.idf
Date:	27.03.2019 15:40:19
Version:	BeGaze 2.5.77
Sample Rate:	50
Subject:	S12H22222
Description:	aurele barriere

Table Header for Fixations:
Event Type	Trial	Number	Start	End	Duration	Location X	Location Y	Dispersion X	Dispersion Y	Plane	Avg. Pupil Size X	Avg. Pupil Size Y

Table Header for Saccades:
Event Type	Trial	Number	Start	End	Duration	Start Loc.X	Start Loc.Y	End Loc.X	End Loc.Y	Amplitude	Peak Speed	Peak Speed At	Average Speed	Peak Accel.	Peak Decel.	Average Accel.

Table Header for Blinks:
Event Type	Trial	Number	Start	End	Duration

Table Header for User Events:
Event Type	Trial	Number	Start	Description

UserEvent	1	1	23387372492	# Message: pears-and-grapes_gauguin_1875.jpg
Fixation L	1	1	23387385814	23387823410	437596	971.45	572.50	9	35	-1	15.19	15.19
Fixation R	1	1	23387385814	23387823410	437596	971.45	572.50	9	35	-1	14.51	14.51
Saccade L	1	1	23387823410	23387863150	39740	977.44	571.36	676.06	785.27	3.18	193.10	1.00	80.12	4744.10	-4630.81	4579.22
Saccade R	1	1	23387823410	23387863150	39740	977.44	571.36	676.06	785.27	3.18	193.10	1.00	80.12	4744.10	-4630.81	4579.22
Fixation L	1	2	23387863150	23388082005	218855	665.91	778.35	18	12	-1	14.96	14.96
Fixation R	1	2	23387863150	23388082005	218855	665.91	778.35	18	12	-1	14.52	14.52
Saccade L	1	2	23388082005	23388101879	19874	657.52	773.91	542.82	777.64	0.67	116.09	1.00	33.47	2863.16	-2753.96	1965.21
Saccade R	1	2	23388082005	23388101879	19874	657.52	773.91	542.82	777.64	0.67	116.09	1.00	33.47	2863.16	-2753.96	1965.21
Fixation L	1	3	23388101879	23388400245	298366	513.17	779.07	44	24	-1	13.60	13.60
Fixation R	1	3	23388101879	23388400245	298366	513.17	779.07	44	24	-1	13.62	13.62
Saccade L	1	3	23388400245	23388420115	19870	498.00	794.60	616.45	884.34	0.93	150.30	1.00	46.72	3556.54	-3604.77	2570.35
Saccade R	1	3	23388400245	23388420115	19870	498.00	794.60	616.45	884.34	0.93	150.30	1.00	46.72	3556.54	-3604.77	2570.35
Fixation L	1	4	23388420115	23388698613	278498	615.69	923.64	6	53	-1	13.26	13.26
Fixation R	1	4	23388420115	23388698613	278498	615.69	923.64	6	53	-1	13.01	13.01
Saccade L	1	4	23388698613	23388758234	59621	616.08	937.52	1174.96	841.94	6.04	268.38	0.67	101.33	6661.69	-6163.75	4120.37
Saccade R	1	4	23388698613	23388758234	59621	616.08	937.52	1174.96	841.94	6.04	268.38	0.67	101.33	6661.69	-6163.75	4120.37
Fixation L	1	5	23388758234	23388977099	218865	1188.74	804.41	17	52	-1	13.72	13.72
Fixation R	1	5	23388758234	23388977099	218865	1188.74	804.41	17	52	-1	13.29	13.29
Saccade L	1	5	23388977099	23388996969	19870	1191.64	791.20	1365.94	790.20	1.06	176.28	1.00	53.48	4279.23	-4314.35	3090.34
Saccade R	1	5	23388977099	23388996969	19870	1191.64	791.20	1365.94	790.20	1.06	176.28	1.00	53.48	4279.23	-4314.35	3090.34
Fixation L	1	6	23388996969	23389494193	497224	1379.94	795.13	47	48	-1	13.66	13.66
Fixation R	1	6	23388996969	23389494193	497224	1379.94	795.13	47	48	-1	13.11	13.11
Saccade L	1	6	23389494193	23389533952	39759	1350.99	765.34	1352.40	611.15	1.37	149.65	1.00	34.55	3686.73	-3619.25	1842.91
Saccade R	1	6	23389494193	23389533952	39759	1350.99	765.34	1352.40	611.15	1.37	149.65	1.00	34.55	3686.73	-3619.25	1842.91
Fixation L	1	7	23389533952	23389713077	179125	1359.01	613.16	11	12	-1	13.30	13.30
Fixation R	1	7	23389533952	23389713077	179125	1359.01	613.16	11	12	-1	12.99	12.99
Saccade L	1	7	23389713077	23389792563	79486	1363.54	610.57	1477.10	348.45	4.69	139.94	0.50	59.05	3457.51	-2806.94	1756.70
Saccade R	1	7	23389713077	23389792563	79486	1363.54	610.57	1477.10	348.45	4.69	139.94	0.50	59.05	3457.51	-2806.94	1756.70
Fixation L	1	8	23389792563	23389991429	198866	1479.15	291.22	16	83	-1	13.04	13.04
Fixation R	1	8	23389792563	23389991429	198866	1479.15	291.22	16	83	-1	12.69	12.69
Saccade L	1	8	23389991429	23390011297	19868	1483.33	301.04	1491.40	294.36	0.26	23.09	1.00	13.28	46.84	-312.21	129.63
Saccade R	1	8	23389991429	23390011297	19868	1483.33	301.04	1491.40	294.36	0.26	23.09	1.00	13.28	46.84	-312.21	129.63
Fixation L	1	9	23390011297	23390230167	218870	1498.89	306.58	22	22	-1	13.51	13.51
Fixation R	1	9	23390011297	23390230167	218870	1498.89	306.58	22	22	-1	12.75	12.75
Saccade L	1	9	23390230167	23390289793	59626	1508.74	300.10	1185.79	534.94	4.19	224.99	0.67	70.27	5597.84	-5294.41	3187.72
Saccade R	1	9	23390230167	23390289793	59626	1508.74	300.10	1185.79	534.94	4.19	224.99	0.67	70.27	5597.84	-5294.41	3187.72
Fixation L	1	10	23390289793	23390488783	198990	1177.56	546.38	11	14	-1	14.47	14.47
Fixation R	1	10	23390289793	23390488783	198990	1177.56	546.38	11	14	-1	13.87	13.87
Saccade L	1	10	23390488783	23390528529	39746	1175.79	539.12	1106.64	345.31	2.05	123.44	0.50	51.70	3039.99	-2229.91	2230.29
Saccade R	1	10	23390488783	23390528529	39746	1175.79	539.12	1106.64	345.31	2.05	123.44	0.50	51.70	3039.99	-2229.91	2230.29
Fixation L	1	11	23390528529	23390807019	278490	1097.55	370.20	22	33	-1	14.50	14.50
Fixation R	1	11	23390528529	23390807019	278490	1097.55	370.20	22	33	-1	13.74	13.74
Saccade L	1	11	23390807019	23390846764	39745	1088.15	377.70	1255.58	741.34	3.67	272.18	1.00	92.40	6778.47	-6123.83	4543.44
Saccade R	1	11	23390807019	23390846764	39745	1088.15	377.70	1255.58	741.34	3.67	272.18	1.00	92.40	6778.47	-6123.83	4543.44
Fixation L	1	12	23390846764	23391165003	318239	1292.21	777.28	50	45	-1	14.89	14.89
Fixation R	1	12	23390846764	23391165003	318239	1292.21	777.28	50	45	-1	14.06	14.06
Saccade L	1	12	23391165003	23391184891	19888	1302.15	786.43	1178.45	787.59	0.98	125.12	1.00	49.17	3074.33	-2916.50	2505.63
Saccade R	1	12	23391165003	23391184891	19888	1302.15	786.43	1178.45	787.59	0.98	125.12	1.00	49.17	3074.33	-2916.50	2505.63
Fixation L	1	13	23391184891	23391363870	178979	1120.75	797.10	67	21	-1	14.47	14.47
Fixation R	1	13	23391184891	23391363870	178979	1120.75	797.10	67	21	-1	13.88	13.88
