[BeGaze]
Converted from:	C:\Documents and Settings\iViewX\Desktop\EXPERIMENTATIONS\Experiments\results\finaleart\S12H22222-finaleart-1.idf
Date:	27.03.2019 15:40:54
Version:	BeGaze 2.5.77
Sample Rate:	50
Subject:	S12H22222
Description:	aurele barriere

Table Header for Fixations:
Event Type	Trial	Number	Start	End	Duration	Location X	Location Y	Dispersion X	Dispersion Y	Plane	Avg. Pupil Size X	Avg. Pupil Size Y

Table Header for Saccades:
Event Type	Trial	Number	Start	End	Duration	Start Loc.X	Start Loc.Y	End Loc.X	End Loc.Y	Amplitude	Peak Speed	Peak Speed At	Average Speed	Peak Accel.	Peak Decel.	Average Accel.

Table Header for Blinks:
Event Type	Trial	Number	Start	End	Duration

Table Header for User Events:
Event Type	Trial	Number	Start	Description

UserEvent	1	1	23895896145	# Message: void.jpg
Fixation L	1	1	23895897430	23896056553	159123	1020.20	299.72	15	5	-1	14.94	14.94
Fixation R	1	1	23895897430	23896056553	159123	1020.20	299.72	15	5	-1	14.09	14.09
Saccade L	1	1	23896056553	23896076424	19871	1024.55	297.56	879.33	313.15	0.93	147.72	1.00	46.69	3573.92	-3051.08	2481.97
Saccade R	1	1	23896056553	23896076424	19871	1024.55	297.56	879.33	313.15	0.93	147.72	1.00	46.69	3573.92	-3051.08	2481.97
Fixation L	1	2	23896076424	23896237605	161181	843.11	348.86	49	48	-1	14.54	14.54
Fixation R	1	2	23896076424	23896237605	161181	843.11	348.86	49	48	-1	14.37	14.37
Saccade L	1	2	23896237605	23896255431	17826	830.61	361.86	831.77	364.43	0.09	13.76	1.00	5.01	59.78	-272.83	125.12
Saccade R	1	2	23896237605	23896255431	17826	830.61	361.86	831.77	364.43	0.09	13.76	1.00	5.01	59.78	-272.83	125.12
Fixation L	1	3	23896255431	23896454272	198841	838.30	368.65	55	42	-1	14.76	14.76
Fixation R	1	3	23896255431	23896454272	198841	838.30	368.65	55	42	-1	14.32	14.32
Saccade L	1	3	23896454272	23896494023	39751	880.84	359.35	917.34	381.35	1.75	71.19	1.00	44.12	502.58	-1447.05	744.97
Saccade R	1	3	23896454272	23896494023	39751	880.84	359.35	917.34	381.35	1.75	71.19	1.00	44.12	502.58	-1447.05	744.97
Fixation L	1	4	23896494023	23896593531	99508	925.50	373.55	35	52	-1	14.54	14.54
Fixation R	1	4	23896494023	23896593531	99508	925.50	373.55	35	52	-1	14.46	14.46
Saccade L	1	4	23896593531	23896613401	19870	947.62	378.51	939.03	421.26	0.55	44.11	1.00	27.68	435.36	-919.95	572.47
Saccade R	1	4	23896593531	23896613401	19870	947.62	378.51	939.03	421.26	0.55	44.11	1.00	27.68	435.36	-919.95	572.47
Fixation L	1	5	23896613401	23897230006	616605	966.63	436.90	42	56	-1	15.42	15.42
Fixation R	1	5	23896613401	23897230006	616605	966.63	436.90	42	56	-1	14.67	14.67
Saccade L	1	5	23897230006	23897249873	19867	972.70	457.63	968.15	460.24	0.08	5.31	1.00	4.05	81.90	-26.61	46.03
Saccade R	1	5	23897230006	23897249873	19867	972.70	457.63	968.15	460.24	0.08	5.31	1.00	4.05	81.90	-26.61	46.03
Fixation L	1	6	23897249873	23897886346	636473	971.62	464.70	24	16	-1	15.10	15.10
Fixation R	1	6	23897249873	23897886346	636473	971.62	464.70	24	16	-1	14.47	14.47
