[BeGaze]
Converted from:	C:\Documents and Settings\iViewX\Desktop\EXPERIMENTATIONS\Experiments\results\finaleart\S12H22222-finaleart-1.idf
Date:	27.03.2019 15:41:06
Version:	BeGaze 2.5.77
Sample Rate:	50
Subject:	S12H22222
Description:	aurele barriere

Table Header for Fixations:
Event Type	Trial	Number	Start	End	Duration	Location X	Location Y	Dispersion X	Dispersion Y	Plane	Avg. Pupil Size X	Avg. Pupil Size Y

Table Header for Saccades:
Event Type	Trial	Number	Start	End	Duration	Start Loc.X	Start Loc.Y	End Loc.X	End Loc.Y	Amplitude	Peak Speed	Peak Speed At	Average Speed	Peak Accel.	Peak Decel.	Average Accel.

Table Header for Blinks:
Event Type	Trial	Number	Start	End	Duration

Table Header for User Events:
Event Type	Trial	Number	Start	Description

UserEvent	1	1	24199409178	# Message: void.jpg
Fixation L	1	1	24199416987	24199556401	139414	1170.61	700.59	4	8	-1	14.27	14.27
Fixation R	1	1	24199416987	24199556401	139414	1170.61	700.59	4	8	-1	13.57	13.57
Saccade L	1	1	24199556401	24199595991	39590	1169.92	700.46	1472.56	1016.94	3.92	260.97	0.50	98.93	6354.94	-5738.90	5297.81
Saccade R	1	1	24199556401	24199595991	39590	1169.92	700.46	1472.56	1016.94	3.92	260.97	0.50	98.93	6354.94	-5738.90	5297.81
Fixation L	1	2	24199595991	24199874467	278476	1448.60	1029.84	39	22	-1	13.75	13.75
Fixation R	1	2	24199595991	24199874467	278476	1448.60	1029.84	39	22	-1	12.66	12.66
Saccade L	1	2	24199874467	24200073328	198861	1432.58	1012.73	1088.45	560.14	11.24	103.45	0.70	56.50	1529.66	-1890.91	769.61
Saccade R	1	2	24199874467	24200073328	198861	1432.58	1012.73	1088.45	560.14	11.24	103.45	0.70	56.50	1529.66	-1890.91	769.61
Fixation L	1	3	24200073328	24200312061	238733	1061.82	519.01	40	56	-1	11.07	11.07
Fixation R	1	3	24200073328	24200312061	238733	1061.82	519.01	40	56	-1	10.71	10.71
Saccade L	1	3	24200312061	24200331945	19884	1047.73	503.70	1048.37	484.25	0.16	19.68	1.00	8.11	414.13	75.48	189.11
Saccade R	1	3	24200312061	24200331945	19884	1047.73	503.70	1048.37	484.25	0.16	19.68	1.00	8.11	414.13	75.48	189.11
Fixation L	1	4	24200331945	24200928683	596738	1043.52	445.75	38	56	-1	11.46	11.46
Fixation R	1	4	24200331945	24200928683	596738	1043.52	445.75	38	56	-1	11.16	11.16
Saccade L	1	4	24200928683	24200948538	19855	1015.69	466.16	1009.99	468.31	0.09	6.48	1.00	4.76	78.99	-42.89	66.53
Saccade R	1	4	24200928683	24200948538	19855	1015.69	466.16	1009.99	468.31	0.09	6.48	1.00	4.76	78.99	-42.89	66.53
Fixation L	1	5	24200948538	24201286651	338113	1006.56	473.00	37	58	-1	11.88	11.88
Fixation R	1	5	24200948538	24201286651	338113	1006.56	473.00	37	58	-1	11.66	11.66
Saccade L	1	5	24201286651	24201406026	119375	1032.14	449.15	1064.52	362.05	1.92	42.08	0.67	16.12	906.33	-693.81	278.65
Saccade R	1	5	24201286651	24201406026	119375	1032.14	449.15	1064.52	362.05	1.92	42.08	0.67	16.12	906.33	-693.81	278.65
