[BeGaze]
Converted from:	C:\Documents and Settings\iViewX\Desktop\EXPERIMENTATIONS\Experiments\results\finaleart\S12H22222-finaleart-1.idf
Date:	27.03.2019 15:40:39
Version:	BeGaze 2.5.77
Sample Rate:	50
Subject:	S12H22222
Description:	aurele barriere

Table Header for Fixations:
Event Type	Trial	Number	Start	End	Duration	Location X	Location Y	Dispersion X	Dispersion Y	Plane	Avg. Pupil Size X	Avg. Pupil Size Y

Table Header for Saccades:
Event Type	Trial	Number	Start	End	Duration	Start Loc.X	Start Loc.Y	End Loc.X	End Loc.Y	Amplitude	Peak Speed	Peak Speed At	Average Speed	Peak Accel.	Peak Decel.	Average Accel.

Table Header for Blinks:
Event Type	Trial	Number	Start	End	Duration

Table Header for User Events:
Event Type	Trial	Number	Start	Description

UserEvent	1	1	23688962007	# Message: chase-a-study-in-curves-1890.jpg
Fixation L	1	1	23688979572	23689456910	477338	935.24	605.71	10	41	-1	13.78	13.78
Fixation R	1	1	23688979572	23689456910	477338	935.24	605.71	10	41	-1	13.51	13.51
Saccade L	1	1	23689456910	23689516664	59754	936.59	616.16	390.00	600.15	5.66	251.11	0.33	94.76	6247.76	-5546.29	4704.05
Saccade R	1	1	23689456910	23689516664	59754	936.59	616.16	390.00	600.15	5.66	251.11	0.33	94.76	6247.76	-5546.29	4704.05
Fixation L	1	2	23689516664	23690232621	715957	377.55	612.28	63	35	-1	13.50	13.50
Fixation R	1	2	23689516664	23690232621	715957	377.55	612.28	63	35	-1	13.39	13.39
Saccade L	1	2	23690232621	23690252490	19869	352.17	628.13	349.16	627.83	0.07	3.92	1.00	3.46	21.10	-18.59	17.88
Saccade R	1	2	23690232621	23690252490	19869	352.17	628.13	349.16	627.83	0.07	3.92	1.00	3.46	21.10	-18.59	17.88
Fixation L	1	3	23690252490	23690570729	318239	352.07	632.21	9	13	-1	14.19	14.19
Fixation R	1	3	23690252490	23690570729	318239	352.07	632.21	9	13	-1	13.80	13.80
Saccade L	1	3	23690570729	23690590609	19880	357.46	641.40	473.61	628.18	0.69	118.25	1.00	34.86	2831.46	-2805.93	1977.81
Saccade R	1	3	23690570729	23690590609	19880	357.46	641.40	473.61	628.18	0.69	118.25	1.00	34.86	2831.46	-2805.93	1977.81
Fixation L	1	4	23690590609	23690769734	179125	491.77	624.42	23	24	-1	14.34	14.34
Fixation R	1	4	23690590609	23690769734	179125	491.77	624.42	23	24	-1	14.21	14.21
Saccade L	1	4	23690769734	23690789602	19868	497.61	609.49	573.76	553.17	0.65	95.81	1.00	32.67	2288.89	-2115.14	1472.95
Saccade R	1	4	23690769734	23690789602	19868	497.61	609.49	573.76	553.17	0.65	95.81	1.00	32.67	2288.89	-2115.14	1472.95
Fixation L	1	5	23690789602	23691485693	696091	585.15	519.79	29	64	-1	14.13	14.13
Fixation R	1	5	23690789602	23691485693	696091	585.15	519.79	29	64	-1	13.88	13.88
Saccade L	1	5	23691485693	23691525437	39744	598.32	496.37	992.12	395.35	3.99	301.34	0.50	100.51	7377.51	-6215.05	4472.79
Saccade R	1	5	23691485693	23691525437	39744	598.32	496.37	992.12	395.35	3.99	301.34	0.50	100.51	7377.51	-6215.05	4472.79
Fixation L	1	6	23691525437	23691843804	318367	974.14	386.74	24	61	-1	14.04	14.04
Fixation R	1	6	23691525437	23691843804	318367	974.14	386.74	24	61	-1	13.53	13.53
Saccade L	1	6	23691843804	23691883544	39740	975.38	405.41	988.03	718.62	2.85	266.77	1.00	71.63	6534.33	-6439.42	3646.47
Saccade R	1	6	23691843804	23691883544	39740	975.38	405.41	988.03	718.62	2.85	266.77	1.00	71.63	6534.33	-6439.42	3646.47
Fixation L	1	7	23691883544	23692281282	397738	1010.79	714.38	33	23	-1	14.99	14.99
Fixation R	1	7	23691883544	23692281282	397738	1010.79	714.38	33	23	-1	14.18	14.18
Saccade L	1	7	23692281282	23692321163	39881	1021.15	712.73	823.98	737.70	2.05	136.81	0.50	51.35	3331.34	-2335.89	2187.84
Saccade R	1	7	23692281282	23692321163	39881	1021.15	712.73	823.98	737.70	2.05	136.81	0.50	51.35	3331.34	-2335.89	2187.84
Fixation L	1	8	23692321163	23692559770	238607	823.78	774.74	26	58	-1	14.69	14.69
Fixation R	1	8	23692321163	23692559770	238607	823.78	774.74	26	58	-1	14.45	14.45
Saccade L	1	8	23692559770	23692579644	19874	818.62	795.90	597.02	886.93	1.54	242.21	1.00	77.58	5989.31	-5989.56	4397.21
Saccade R	1	8	23692559770	23692579644	19874	818.62	795.90	597.02	886.93	1.54	242.21	1.00	77.58	5989.31	-5989.56	4397.21
Fixation L	1	9	23692579644	23692957621	377977	569.26	938.04	37	60	-1	15.08	15.08
Fixation R	1	9	23692579644	23692957621	377977	569.26	938.04	37	60	-1	14.52	14.52
