[BeGaze]
Converted from:	C:\Documents and Settings\iViewX\Desktop\EXPERIMENTATIONS\Experiments\results\finaleart\S12H22222-finaleart-1.idf
Date:	27.03.2019 15:40:13
Version:	BeGaze 2.5.77
Sample Rate:	50
Subject:	S12H22222
Description:	aurele barriere

Table Header for Fixations:
Event Type	Trial	Number	Start	End	Duration	Location X	Location Y	Dispersion X	Dispersion Y	Plane	Avg. Pupil Size X	Avg. Pupil Size Y

Table Header for Saccades:
Event Type	Trial	Number	Start	End	Duration	Start Loc.X	Start Loc.Y	End Loc.X	End Loc.Y	Amplitude	Peak Speed	Peak Speed At	Average Speed	Peak Accel.	Peak Decel.	Average Accel.

Table Header for Blinks:
Event Type	Trial	Number	Start	End	Duration

Table Header for User Events:
Event Type	Trial	Number	Start	Description

UserEvent	1	1	23207200701	# Message: courbet-female-nude-with-a-dog-portrait-of-leotine-renaude-1866.jpg
Fixation L	1	1	23207201386	23207698603	497217	924.32	494.83	10	52	-1	14.12	14.12
Fixation R	1	1	23207201386	23207698603	497217	924.32	494.83	10	52	-1	13.89	13.89
Saccade L	1	1	23207698603	23207718484	19881	925.99	460.74	930.63	339.92	0.72	122.30	1.00	36.45	2989.96	-2791.70	2040.40
Saccade R	1	1	23207698603	23207718484	19881	925.99	460.74	930.63	339.92	0.72	122.30	1.00	36.45	2989.96	-2791.70	2040.40
Fixation L	1	2	23207718484	23207857729	139245	934.34	343.24	9	20	-1	14.31	14.31
Fixation R	1	2	23207718484	23207857729	139245	934.34	343.24	9	20	-1	13.50	13.50
Saccade L	1	2	23207857729	23207877597	19868	938.59	356.95	1028.73	368.09	0.65	91.87	1.00	32.85	2078.57	-2083.36	1496.70
Saccade R	1	2	23207857729	23207877597	19868	938.59	356.95	1028.73	368.09	0.65	91.87	1.00	32.85	2078.57	-2083.36	1496.70
Fixation L	1	3	23207877597	23208076605	199008	1035.63	349.29	11	26	-1	14.12	14.12
Fixation R	1	3	23207877597	23208076605	199008	1035.63	349.29	11	26	-1	13.18	13.18
Saccade L	1	3	23208076605	23208096467	19862	1039.67	349.52	1153.74	451.94	0.92	155.04	1.00	46.27	3768.45	-3653.30	2644.01
Saccade R	1	3	23208076605	23208096467	19862	1039.67	349.52	1153.74	451.94	0.92	155.04	1.00	46.27	3768.45	-3653.30	2644.01
Fixation L	1	4	23208096467	23208573820	477353	1120.26	450.69	55	35	-1	14.95	14.95
Fixation R	1	4	23208096467	23208573820	477353	1120.26	450.69	55	35	-1	14.27	14.27
Saccade L	1	4	23208573820	23208613567	39747	1099.54	438.93	788.47	474.17	2.84	211.40	1.00	71.39	5249.62	-4786.10	3582.59
Saccade R	1	4	23208573820	23208613567	39747	1099.54	438.93	788.47	474.17	2.84	211.40	1.00	71.39	5249.62	-4786.10	3582.59
Fixation L	1	5	23208613567	23209289910	676343	809.89	508.67	35	59	-1	15.84	15.84
Fixation R	1	5	23208613567	23209289910	676343	809.89	508.67	35	59	-1	15.20	15.20
Saccade L	1	5	23209289910	23209329661	39751	818.19	527.85	505.90	529.24	2.59	250.81	1.00	65.22	6218.18	-6020.24	3820.14
Saccade R	1	5	23209289910	23209329661	39751	818.19	527.85	505.90	529.24	2.59	250.81	1.00	65.22	6218.18	-6020.24	3820.14
Fixation L	1	6	23209329661	23209568277	238616	508.98	556.60	15	48	-1	15.47	15.47
Fixation R	1	6	23209329661	23209568277	238616	508.98	556.60	15	48	-1	15.12	15.12
Saccade L	1	6	23209568277	23209588151	19874	513.82	577.91	473.47	813.90	1.44	242.05	1.00	72.50	5969.50	-5599.72	4171.06
Saccade R	1	6	23209568277	23209588151	19874	513.82	577.91	473.47	813.90	1.44	242.05	1.00	72.50	5969.50	-5599.72	4171.06
Fixation L	1	7	23209588151	23210045623	457472	478.26	793.69	47	50	-1	15.66	15.66
Fixation R	1	7	23209588151	23210045623	457472	478.26	793.69	47	50	-1	15.47	15.47
Saccade L	1	7	23210045623	23210085512	39889	514.82	763.56	1102.43	268.95	6.67	498.70	0.50	167.24	12399.61	-12278.93	9290.65
Saccade R	1	7	23210045623	23210085512	39889	514.82	763.56	1102.43	268.95	6.67	498.70	0.50	167.24	12399.61	-12278.93	9290.65
Fixation L	1	8	23210085512	23210264496	178984	1094.74	300.30	31	63	-1	15.69	15.69
Fixation R	1	8	23210085512	23210264496	178984	1094.74	300.30	31	63	-1	15.52	15.52
Saccade L	1	8	23210264496	23210284370	19874	1071.35	332.91	1046.86	336.07	0.34	30.42	0.00	16.89	557.61	-522.87	468.83
Saccade R	1	8	23210264496	23210284370	19874	1071.35	332.91	1046.86	336.07	0.34	30.42	0.00	16.89	557.61	-522.87	468.83
Fixation L	1	9	23210284370	23210841342	556972	1038.50	346.35	24	45	-1	16.33	16.33
Fixation R	1	9	23210284370	23210841342	556972	1038.50	346.35	24	45	-1	15.92	15.92
Saccade L	1	9	23210841342	23210900964	59622	1032.17	381.17	1358.07	965.10	6.99	367.04	0.67	117.28	8947.93	-9030.88	5685.86
Saccade R	1	9	23210841342	23210900964	59622	1032.17	381.17	1358.07	965.10	6.99	367.04	0.67	117.28	8947.93	-9030.88	5685.86
Fixation L	1	10	23210900964	23211119704	218740	1365.01	955.50	34	46	-1	17.35	17.35
Fixation R	1	10	23210900964	23211119704	218740	1365.01	955.50	34	46	-1	16.59	16.59
Saccade L	1	10	23211119704	23211199336	79632	1338.05	919.05	1332.82	904.52	1.69	46.40	1.00	21.21	94.18	-796.90	265.18
Saccade R	1	10	23211119704	23211199336	79632	1338.05	919.05	1332.82	904.52	1.69	46.40	1.00	21.21	94.18	-796.90	265.18
