[BeGaze]
Converted from:	C:\Documents and Settings\iViewX\Desktop\EXPERIMENTATIONS\Experiments\results\finaleart\S12H22222-finaleart-1.idf
Date:	27.03.2019 15:40:32
Version:	BeGaze 2.5.77
Sample Rate:	50
Subject:	S12H22222
Description:	aurele barriere

Table Header for Fixations:
Event Type	Trial	Number	Start	End	Duration	Location X	Location Y	Dispersion X	Dispersion Y	Plane	Avg. Pupil Size X	Avg. Pupil Size Y

Table Header for Saccades:
Event Type	Trial	Number	Start	End	Duration	Start Loc.X	Start Loc.Y	End Loc.X	End Loc.Y	Amplitude	Peak Speed	Peak Speed At	Average Speed	Peak Accel.	Peak Decel.	Average Accel.

Table Header for Blinks:
Event Type	Trial	Number	Start	End	Duration

Table Header for User Events:
Event Type	Trial	Number	Start	Description

UserEvent	1	1	23601294724	# Message: void.jpg
Saccade L	1	1	23601303992	23601343742	39750	785.79	837.37	783.54	326.60	5.36	263.38	0.50	134.87	6333.97	-6291.58	4660.27
Saccade R	1	1	23601303992	23601343742	39750	785.79	837.37	783.54	326.60	5.36	263.38	0.50	134.87	6333.97	-6291.58	4660.27
Fixation L	1	1	23601343742	23601602347	258605	803.22	302.55	40	33	-1	15.09	15.09
Fixation R	1	1	23601343742	23601602347	258605	803.22	302.55	40	33	-1	14.23	14.23
Saccade L	1	2	23601602347	23601622233	19886	823.92	297.74	973.52	303.30	0.86	151.42	1.00	43.26	3768.28	-3690.82	2574.04
Saccade R	1	2	23601602347	23601622233	19886	823.92	297.74	973.52	303.30	0.86	151.42	1.00	43.26	3768.28	-3690.82	2574.04
Fixation L	1	2	23601622233	23602099598	477365	972.15	310.27	7	40	-1	15.56	15.56
Fixation R	1	2	23601622233	23602099598	477365	972.15	310.27	7	40	-1	14.88	14.88
Saccade L	1	3	23602099598	23602119456	19858	975.69	343.51	971.90	503.62	1.03	161.97	1.00	51.88	3713.86	-3690.60	2529.36
Saccade R	1	3	23602099598	23602119456	19858	975.69	343.51	971.90	503.62	1.03	161.97	1.00	51.88	3713.86	-3690.60	2529.36
Fixation L	1	3	23602119456	23602915043	795587	978.16	531.47	43	56	-1	16.71	16.71
Fixation R	1	3	23602119456	23602915043	795587	978.16	531.47	43	56	-1	15.81	15.81
Saccade L	1	4	23602915043	23602934911	19868	943.21	531.38	936.29	533.34	0.23	23.85	1.00	11.44	103.74	-414.33	232.15
Saccade R	1	4	23602915043	23602934911	19868	943.21	531.38	936.29	533.34	0.23	23.85	1.00	11.44	103.74	-414.33	232.15
Fixation L	1	4	23602934911	23603293029	358118	928.15	538.79	16	15	-1	16.89	16.89
Fixation R	1	4	23602934911	23603293029	358118	928.15	538.79	16	15	-1	15.93	15.93
