[BeGaze]
Converted from:	C:\Documents and Settings\iViewX\Desktop\EXPERIMENTATIONS\Experiments\results\finaleart\S12H22222-finaleart-1.idf
Date:	27.03.2019 15:39:54
Version:	BeGaze 2.5.77
Sample Rate:	50
Subject:	S12H22222
Description:	aurele barriere

Table Header for Fixations:
Event Type	Trial	Number	Start	End	Duration	Location X	Location Y	Dispersion X	Dispersion Y	Plane	Avg. Pupil Size X	Avg. Pupil Size Y

Table Header for Saccades:
Event Type	Trial	Number	Start	End	Duration	Start Loc.X	Start Loc.Y	End Loc.X	End Loc.Y	Amplitude	Peak Speed	Peak Speed At	Average Speed	Peak Accel.	Peak Decel.	Average Accel.

Table Header for Blinks:
Event Type	Trial	Number	Start	End	Duration

Table Header for User Events:
Event Type	Trial	Number	Start	Description

UserEvent	1	1	22889925649	# Message: void.jpg
Fixation L	1	1	22889942809	22890161564	218755	737.98	318.40	3	16	-1	14.02	14.02
Fixation R	1	1	22889942809	22890161564	218755	737.98	318.40	3	16	-1	13.70	13.70
Saccade L	1	1	22890161564	22890201417	39853	738.58	323.61	1232.51	312.29	4.50	285.16	1.00	112.81	7095.60	-6706.99	5735.87
Saccade R	1	1	22890161564	22890201417	39853	738.58	323.61	1232.51	312.29	4.50	285.16	1.00	112.81	7095.60	-6706.99	5735.87
Fixation L	1	2	22890201417	22890360533	159116	1297.91	315.61	81	13	-1	14.14	14.14
Fixation R	1	2	22890201417	22890360533	159116	1297.91	315.61	81	13	-1	13.59	13.59
Saccade L	1	2	22890360533	22890380404	19871	1298.83	323.92	1297.02	330.67	0.12	7.08	1.00	5.97	64.79	-152.55	85.71
Saccade R	1	2	22890360533	22890380404	19871	1298.83	323.92	1297.02	330.67	0.12	7.08	1.00	5.97	64.79	-152.55	85.71
Fixation L	1	3	22890380404	22890599177	218773	1290.14	337.34	15	12	-1	14.05	14.05
Fixation R	1	3	22890380404	22890599177	218773	1290.14	337.34	15	12	-1	13.75	13.75
Saccade L	1	3	22890599177	22890638893	39716	1281.16	337.70	1002.95	414.72	2.64	245.27	0.50	66.54	5983.21	-5809.09	3555.50
Saccade R	1	3	22890599177	22890638893	39716	1281.16	337.70	1002.95	414.72	2.64	245.27	0.50	66.54	5983.21	-5809.09	3555.50
Fixation L	1	4	22890638893	22891275381	636488	993.77	432.28	23	32	-1	14.99	14.99
Fixation R	1	4	22890638893	22891275381	636488	993.77	432.28	23	32	-1	14.63	14.63
Saccade L	1	4	22891275381	22891295364	19983	984.30	446.93	926.54	499.33	0.55	78.89	1.00	27.30	1853.88	-1736.03	1306.97
Saccade R	1	4	22891275381	22891295364	19983	984.30	446.93	926.54	499.33	0.55	78.89	1.00	27.30	1853.88	-1736.03	1306.97
Fixation L	1	5	22891295364	22891911971	616607	911.78	537.45	20	57	-1	16.25	16.25
Fixation R	1	5	22891295364	22891911971	616607	911.78	537.45	20	57	-1	15.99	15.99
