[BeGaze]
Converted from:	C:\Documents and Settings\iViewX\Desktop\EXPERIMENTATIONS\Experiments\results\finaleart\S12H22222-finaleart-1.idf
Date:	27.03.2019 15:41:01
Version:	BeGaze 2.5.77
Sample Rate:	50
Subject:	S12H22222
Description:	aurele barriere

Table Header for Fixations:
Event Type	Trial	Number	Start	End	Duration	Location X	Location Y	Dispersion X	Dispersion Y	Plane	Avg. Pupil Size X	Avg. Pupil Size Y

Table Header for Saccades:
Event Type	Trial	Number	Start	End	Duration	Start Loc.X	Start Loc.Y	End Loc.X	End Loc.Y	Amplitude	Peak Speed	Peak Speed At	Average Speed	Peak Accel.	Peak Decel.	Average Accel.

Table Header for Blinks:
Event Type	Trial	Number	Start	End	Duration

Table Header for User Events:
Event Type	Trial	Number	Start	Description

UserEvent	1	1	24146373719	# Message: The_Girl_From_Rat_Mort_Vlaminck_1905.jpg
Fixation L	1	1	24146389917	24146807673	417756	997.89	510.35	23	30	-1	13.08	13.08
Fixation R	1	1	24146389917	24146807673	417756	997.89	510.35	23	30	-1	13.05	13.05
Saccade L	1	1	24146807673	24146847396	39723	995.30	500.91	712.10	503.18	2.37	174.36	1.00	59.66	4305.10	-4009.53	3418.78
Saccade R	1	1	24146807673	24146847396	39723	995.30	500.91	712.10	503.18	2.37	174.36	1.00	59.66	4305.10	-4009.53	3418.78
Fixation L	1	2	24146847396	24147483872	636476	698.93	493.93	23	53	-1	11.37	11.37
Fixation R	1	2	24146847396	24147483872	636476	698.93	493.93	23	53	-1	11.43	11.43
Saccade L	1	2	24147483872	24147543614	59742	689.33	516.80	420.11	590.91	3.26	200.36	0.67	54.59	4811.74	-4791.35	2385.11
Saccade R	1	2	24147483872	24147543614	59742	689.33	516.80	420.11	590.91	3.26	200.36	0.67	54.59	4811.74	-4791.35	2385.11
Fixation L	1	3	24147543614	24147722607	178993	413.97	616.69	11	49	-1	12.67	12.67
Fixation R	1	3	24147543614	24147722607	178993	413.97	616.69	11	49	-1	12.36	12.36
Saccade L	1	3	24147722607	24147762360	39753	408.73	633.54	677.41	507.29	2.77	221.80	0.50	69.60	5465.22	-4675.17	3546.83
Saccade R	1	3	24147722607	24147762360	39753	408.73	633.54	677.41	507.29	2.77	221.80	0.50	69.60	5465.22	-4675.17	3546.83
Fixation L	1	4	24147762360	24148219834	457474	683.81	472.78	16	58	-1	13.26	13.26
Fixation R	1	4	24147762360	24148219834	457474	683.81	472.78	16	58	-1	13.06	13.06
Saccade L	1	4	24148219834	24148259578	39744	693.81	486.27	1037.70	740.42	3.91	335.90	0.50	98.49	8165.04	-8292.53	5127.50
Saccade R	1	4	24148219834	24148259578	39744	693.81	486.27	1037.70	740.42	3.91	335.90	0.50	98.49	8165.04	-8292.53	5127.50
Fixation L	1	5	24148259578	24148418700	159122	1027.44	762.76	14	46	-1	14.29	14.29
Fixation R	1	5	24148259578	24148418700	159122	1027.44	762.76	14	46	-1	13.23	13.23
Saccade L	1	5	24148418700	24148438585	19885	1023.08	766.50	934.52	760.07	0.62	89.82	1.00	31.41	1831.61	-1770.62	1296.35
Saccade R	1	5	24148418700	24148438585	19885	1023.08	766.50	934.52	760.07	0.62	89.82	1.00	31.41	1831.61	-1770.62	1296.35
Fixation L	1	6	24148438585	24148617569	178984	931.26	736.04	8	36	-1	13.88	13.88
Fixation R	1	6	24148438585	24148617569	178984	931.26	736.04	8	36	-1	13.15	13.15
Saccade L	1	6	24148617569	24148657433	39864	931.75	742.13	1403.57	781.54	4.18	333.91	0.50	104.87	7958.64	-8120.15	5668.38
Saccade R	1	6	24148617569	24148657433	39864	931.75	742.13	1403.57	781.54	4.18	333.91	0.50	104.87	7958.64	-8120.15	5668.38
Fixation L	1	7	24148657433	24148955807	298374	1413.73	798.54	33	24	-1	13.49	13.49
Fixation R	1	7	24148657433	24148955807	298374	1413.73	798.54	33	24	-1	12.56	12.56
Saccade L	1	7	24148955807	24148975671	19864	1392.11	791.03	1364.73	632.53	1.22	162.68	1.00	61.21	3905.91	-3645.31	2550.38
Saccade R	1	7	24148955807	24148975671	19864	1392.11	791.03	1364.73	632.53	1.22	162.68	1.00	61.21	3905.91	-3645.31	2550.38
Fixation L	1	8	24148975671	24149214291	238620	1344.57	591.59	34	50	-1	13.09	13.09
Fixation R	1	8	24148975671	24149214291	238620	1344.57	591.59	34	50	-1	12.26	12.26
Saccade L	1	8	24149214291	24149274038	59747	1339.44	593.93	1600.28	607.52	3.94	235.62	0.33	66.03	5767.30	-4067.98	2840.10
Saccade R	1	8	24149214291	24149274038	59747	1339.44	593.93	1600.28	607.52	3.94	235.62	0.33	66.03	5767.30	-4067.98	2840.10
Fixation L	1	9	24149274038	24149413277	139239	1614.32	604.21	22	17	-1	13.39	13.39
Fixation R	1	9	24149274038	24149413277	139239	1614.32	604.21	22	17	-1	12.18	12.18
Saccade L	1	9	24149413277	24149572399	159122	1607.99	594.62	1616.36	202.21	10.74	171.65	0.12	67.50	3847.98	-3115.93	1623.73
Saccade R	1	9	24149413277	24149572399	159122	1607.99	594.62	1616.36	202.21	10.74	171.65	0.12	67.50	3847.98	-3115.93	1623.73
Fixation L	1	10	24149572399	24149691664	119265	1594.71	239.55	33	58	-1	13.46	13.46
Fixation R	1	10	24149572399	24149691664	119265	1594.71	239.55	33	58	-1	12.63	12.63
Saccade L	1	10	24149691664	24149870760	179096	1582.83	261.13	1561.63	243.09	4.85	61.48	1.00	27.08	1415.38	-836.18	561.36
Saccade R	1	10	24149691664	24149870760	179096	1582.83	261.13	1561.63	243.09	4.85	61.48	1.00	27.08	1415.38	-836.18	561.36
Fixation L	1	11	24149870760	24149970132	99372	1552.97	200.82	34	60	-1	13.69	13.69
Fixation R	1	11	24149870760	24149970132	99372	1552.97	200.82	34	60	-1	12.76	12.76
Saccade L	1	11	24149970132	24149990009	19877	1533.20	191.56	1526.94	196.13	0.17	11.13	1.00	8.54	89.88	-82.29	67.93
Saccade R	1	11	24149970132	24149990009	19877	1533.20	191.56	1526.94	196.13	0.17	11.13	1.00	8.54	89.88	-82.29	67.93
Fixation L	1	12	24149990009	24150149119	159110	1528.14	194.13	90	8	-1	13.42	13.42
Fixation R	1	12	24149990009	24150149119	159110	1528.14	194.13	90	8	-1	12.66	12.66
Saccade L	1	12	24150149119	24150268491	119372	1594.09	196.28	1543.65	986.11	12.66	342.00	0.83	106.06	8248.87	-7832.53	3832.91
Saccade R	1	12	24150149119	24150268491	119372	1594.09	196.28	1543.65	986.11	12.66	342.00	0.83	106.06	8248.87	-7832.53	3832.91
Fixation L	1	13	24150268491	24150367863	99372	1533.63	1006.91	21	28	-1	13.65	13.65
Fixation R	1	13	24150268491	24150367863	99372	1533.63	1006.91	21	28	-1	12.33	12.33
