[BeGaze]
Converted from:	C:\Documents and Settings\iViewX\Desktop\EXPERIMENTATIONS\Experiments\results\finaleart\S12H22222-finaleart-1.idf
Date:	27.03.2019 15:40:30
Version:	BeGaze 2.5.77
Sample Rate:	50
Subject:	S12H22222
Description:	aurele barriere

Table Header for Fixations:
Event Type	Trial	Number	Start	End	Duration	Location X	Location Y	Dispersion X	Dispersion Y	Plane	Avg. Pupil Size X	Avg. Pupil Size Y

Table Header for Saccades:
Event Type	Trial	Number	Start	End	Duration	Start Loc.X	Start Loc.Y	End Loc.X	End Loc.Y	Amplitude	Peak Speed	Peak Speed At	Average Speed	Peak Accel.	Peak Decel.	Average Accel.

Table Header for Blinks:
Event Type	Trial	Number	Start	End	Duration

Table Header for User Events:
Event Type	Trial	Number	Start	Description

UserEvent	1	1	23584987156	# Message: REJECTED_Volga_Lagoon_Vassiliev_1870.jpg
Fixation L	1	1	23584994090	23585272560	278470	996.13	600.93	12	21	-1	16.17	16.17
Fixation R	1	1	23584994090	23585272560	278470	996.13	600.93	12	21	-1	15.74	15.74
Saccade L	1	1	23585272560	23585292434	19874	1001.23	608.66	916.08	613.83	0.51	86.29	1.00	25.42	2120.67	-1721.81	1381.69
Saccade R	1	1	23585272560	23585292434	19874	1001.23	608.66	916.08	613.83	0.51	86.29	1.00	25.42	2120.67	-1721.81	1381.69
Fixation L	1	2	23585292434	23585531174	238740	901.25	650.14	19	59	-1	16.27	16.27
Fixation R	1	2	23585292434	23585531174	238740	901.25	650.14	19	59	-1	15.86	15.86
Saccade L	1	2	23585531174	23585551072	19898	898.48	666.15	949.58	767.87	0.70	115.15	1.00	35.31	2757.34	-2272.54	1720.51
Saccade R	1	2	23585531174	23585551072	19898	898.48	666.15	949.58	767.87	0.70	115.15	1.00	35.31	2757.34	-2272.54	1720.51
Fixation L	1	3	23585551072	23585730040	178968	978.66	777.59	39	31	-1	13.66	13.66
Fixation R	1	3	23585551072	23585730040	178968	978.66	777.59	39	31	-1	13.46	13.46
Saccade L	1	3	23585730040	23585749911	19871	988.90	782.97	995.38	707.84	0.48	76.29	1.00	24.16	1835.02	-1465.33	1126.99
Saccade R	1	3	23585730040	23585749911	19871	988.90	782.97	995.38	707.84	0.48	76.29	1.00	24.16	1835.02	-1465.33	1126.99
Fixation L	1	4	23585749911	23585968659	218748	1014.52	694.66	29	59	-1	12.42	12.42
Fixation R	1	4	23585749911	23585968659	218748	1014.52	694.66	29	59	-1	12.37	12.37
Saccade L	1	4	23585968659	23585988530	19871	1022.17	647.93	1020.03	529.76	0.96	119.55	1.00	48.28	2895.29	-2930.36	2229.45
Saccade R	1	4	23585968659	23585988530	19871	1022.17	647.93	1020.03	529.76	0.96	119.55	1.00	48.28	2895.29	-2930.36	2229.45
Fixation L	1	5	23585988530	23586187524	198994	1014.50	543.01	9	20	-1	11.90	11.90
Fixation R	1	5	23585988530	23586187524	198994	1014.50	543.01	9	20	-1	12.00	12.00
Saccade L	1	5	23586187524	23586207393	19869	1015.35	543.21	931.79	839.31	1.96	310.93	1.00	98.56	7633.25	-7268.39	5545.53
Saccade R	1	5	23586187524	23586207393	19869	1015.35	543.21	931.79	839.31	1.96	310.93	1.00	98.56	7633.25	-7268.39	5545.53
Fixation L	1	6	23586207393	23586346649	139256	921.63	895.53	18	74	-1	11.87	11.87
Fixation R	1	6	23586207393	23586346649	139256	921.63	895.53	18	74	-1	12.25	12.25
Saccade L	1	6	23586346649	23586485884	139235	915.80	913.94	535.14	985.36	7.00	229.62	0.86	50.28	5662.63	-5291.30	2048.05
Saccade R	1	6	23586346649	23586485884	139235	915.80	913.94	535.14	985.36	7.00	229.62	0.86	50.28	5662.63	-5291.30	2048.05
Fixation L	1	7	23586485884	23586684749	198865	543.11	1004.52	12	24	-1	12.03	12.03
Fixation R	1	7	23586485884	23586684749	198865	543.11	1004.52	12	24	-1	12.23	12.23
Saccade L	1	7	23586684749	23586744370	59621	546.14	1008.70	1506.92	717.79	10.20	398.82	0.33	171.07	9886.10	-8449.54	7302.85
Saccade R	1	7	23586684749	23586744370	59621	546.14	1008.70	1506.92	717.79	10.20	398.82	0.33	171.07	9886.10	-8449.54	7302.85
Fixation L	1	8	23586744370	23587062605	318235	1489.63	717.21	27	18	-1	12.39	12.39
Fixation R	1	8	23586744370	23587062605	318235	1489.63	717.21	27	18	-1	11.97	11.97
Saccade L	1	8	23587062605	23587082600	19995	1499.87	711.62	1522.04	661.82	0.46	55.15	1.00	22.83	1319.81	-1195.86	1015.16
Saccade R	1	8	23587062605	23587082600	19995	1499.87	711.62	1522.04	661.82	0.46	55.15	1.00	22.83	1319.81	-1195.86	1015.16
Fixation L	1	9	23587082600	23587221730	139130	1518.52	670.53	11	28	-1	12.31	12.31
Fixation R	1	9	23587082600	23587221730	139130	1518.52	670.53	11	28	-1	11.78	11.78
Saccade L	1	9	23587221730	23587281469	59739	1523.68	672.50	1483.48	393.51	3.25	106.62	0.67	54.49	2430.06	-2156.79	1888.36
Saccade R	1	9	23587221730	23587281469	59739	1523.68	672.50	1483.48	393.51	3.25	106.62	0.67	54.49	2430.06	-2156.79	1888.36
Fixation L	1	10	23587281469	23587539962	258493	1478.12	373.28	32	33	-1	12.65	12.65
Fixation R	1	10	23587281469	23587539962	258493	1478.12	373.28	32	33	-1	12.33	12.33
Saccade L	1	10	23587539962	23587579839	39877	1466.98	364.45	1672.84	913.72	5.35	408.94	1.00	134.18	10175.47	-9535.07	7028.85
Saccade R	1	10	23587539962	23587579839	39877	1466.98	364.45	1672.84	913.72	5.35	408.94	1.00	134.18	10175.47	-9535.07	7028.85
Fixation L	1	11	23587579839	23587699083	119244	1678.13	984.50	8	91	-1	13.04	13.04
Fixation R	1	11	23587579839	23587699083	119244	1678.13	984.50	8	91	-1	12.60	12.60
Saccade L	1	11	23587699083	23587719077	19994	1678.13	1005.25	1678.65	1005.82	0.03	2.72	1.00	1.62	34.49	-21.67	18.74
Saccade R	1	11	23587699083	23587719077	19994	1678.13	1005.25	1678.65	1005.82	0.03	2.72	1.00	1.62	34.49	-21.67	18.74
Fixation L	1	12	23587719077	23587838354	119277	1678.33	1006.07	6	1	-1	13.40	13.40
Fixation R	1	12	23587719077	23587838354	119277	1678.33	1006.07	6	1	-1	12.85	12.85
Saccade L	1	12	23587838354	23587917949	79595	1676.02	1005.37	1102.42	519.42	8.87	358.80	0.50	111.46	8921.99	-6455.59	4797.74
Saccade R	1	12	23587838354	23587917949	79595	1676.02	1005.37	1102.42	519.42	8.87	358.80	0.50	111.46	8921.99	-6455.59	4797.74
Fixation L	1	13	23587917949	23588096938	178989	1111.14	511.21	15	17	-1	13.13	13.13
Fixation R	1	13	23587917949	23588096938	178989	1111.14	511.21	15	17	-1	12.79	12.79
Saccade L	1	13	23588096938	23588136684	39746	1113.47	502.25	832.74	637.68	2.91	209.96	1.00	73.30	5129.85	-5000.07	3747.21
Saccade R	1	13	23588096938	23588136684	39746	1113.47	502.25	832.74	637.68	2.91	209.96	1.00	73.30	5129.85	-5000.07	3747.21
Fixation L	1	14	23588136684	23588295806	159122	793.73	632.35	46	11	-1	13.47	13.47
Fixation R	1	14	23588136684	23588295806	159122	793.73	632.35	46	11	-1	13.15	13.15
Saccade L	1	14	23588295806	23588335688	39882	786.85	636.60	418.95	606.19	3.13	268.55	0.50	78.55	6577.99	-6419.76	4512.36
Saccade R	1	14	23588295806	23588335688	39882	786.85	636.60	418.95	606.19	3.13	268.55	0.50	78.55	6577.99	-6419.76	4512.36
Fixation L	1	15	23588335688	23588633912	298224	429.11	616.78	17	16	-1	13.36	13.36
Fixation R	1	15	23588335688	23588633912	298224	429.11	616.78	17	16	-1	13.20	13.20
Saccade L	1	15	23588633912	23588653921	20009	436.88	620.53	438.70	483.89	0.81	138.21	1.00	40.47	3403.26	-2985.91	2202.89
Saccade R	1	15	23588633912	23588653921	20009	436.88	620.53	438.70	483.89	0.81	138.21	1.00	40.47	3403.26	-2985.91	2202.89
Fixation L	1	16	23588653921	23588972150	318229	453.11	444.33	20	51	-1	12.77	12.77
Fixation R	1	16	23588653921	23588972150	318229	453.11	444.33	20	51	-1	12.37	12.37
