[BeGaze]
Converted from:	C:\Documents and Settings\iViewX\Desktop\EXPERIMENTATIONS\Experiments\results\finaleart\S12H22222-finaleart-1.idf
Date:	27.03.2019 15:41:00
Version:	BeGaze 2.5.77
Sample Rate:	50
Subject:	S12H22222
Description:	aurele barriere

Table Header for Fixations:
Event Type	Trial	Number	Start	End	Duration	Location X	Location Y	Dispersion X	Dispersion Y	Plane	Avg. Pupil Size X	Avg. Pupil Size Y

Table Header for Saccades:
Event Type	Trial	Number	Start	End	Duration	Start Loc.X	Start Loc.Y	End Loc.X	End Loc.Y	Amplitude	Peak Speed	Peak Speed At	Average Speed	Peak Accel.	Peak Decel.	Average Accel.

Table Header for Blinks:
Event Type	Trial	Number	Start	End	Duration

Table Header for User Events:
Event Type	Trial	Number	Start	Description

UserEvent	1	1	24134148346	# Message: parrot-tulips-(II)_matisse_1905.jpg
Fixation L	1	1	24134157593	24134694561	536968	806.82	486.69	26	54	-1	14.60	14.60
Fixation R	1	1	24134157593	24134694561	536968	806.82	486.69	26	54	-1	14.00	14.00
Saccade L	1	1	24134694561	24134734294	39733	802.40	498.55	948.09	654.26	1.87	185.29	1.00	47.09	4602.94	-4223.43	2572.63
Saccade R	1	1	24134694561	24134734294	39733	802.40	498.55	948.09	654.26	1.87	185.29	1.00	47.09	4602.94	-4223.43	2572.63
Fixation L	1	2	24134734294	24135052527	318233	963.07	689.94	25	55	-1	12.43	12.43
Fixation R	1	2	24134734294	24135052527	318233	963.07	689.94	25	55	-1	11.93	11.93
Saccade L	1	2	24135052527	24135092405	39878	945.75	680.87	788.32	507.14	2.44	173.73	0.50	61.17	4253.57	-4306.13	3134.77
Saccade R	1	2	24135052527	24135092405	39878	945.75	680.87	788.32	507.14	2.44	173.73	0.50	61.17	4253.57	-4306.13	3134.77
Fixation L	1	3	24135092405	24135370768	278363	781.97	507.44	23	41	-1	11.45	11.45
Fixation R	1	3	24135092405	24135370768	278363	781.97	507.44	23	41	-1	11.16	11.16
Saccade L	1	3	24135370768	24135410639	39871	780.61	479.19	1009.51	493.89	2.15	145.93	0.50	54.00	3455.78	-3397.66	2660.08
Saccade R	1	3	24135370768	24135410639	39871	780.61	479.19	1009.51	493.89	2.15	145.93	0.50	54.00	3455.78	-3397.66	2660.08
Fixation L	1	4	24135410639	24135589632	178993	1009.14	496.29	5	41	-1	11.90	11.90
Fixation R	1	4	24135410639	24135589632	178993	1009.14	496.29	5	41	-1	11.57	11.57
Saccade L	1	4	24135589632	24135709003	119371	1011.62	526.33	1177.08	444.12	3.57	83.67	1.00	29.92	1963.90	-1827.48	979.89
Saccade R	1	4	24135589632	24135709003	119371	1011.62	526.33	1177.08	444.12	3.57	83.67	1.00	29.92	1963.90	-1827.48	979.89
Fixation L	1	5	24135709003	24136086863	377860	1181.56	434.83	15	56	-1	11.92	11.92
Fixation R	1	5	24135709003	24136086863	377860	1181.56	434.83	15	56	-1	11.49	11.49
Saccade L	1	5	24136086863	24136126608	39745	1181.70	460.96	1345.16	401.76	1.98	103.60	0.50	49.79	2450.53	-1704.72	1724.67
Saccade R	1	5	24136086863	24136126608	39745	1181.70	460.96	1345.16	401.76	1.98	103.60	0.50	49.79	2450.53	-1704.72	1724.67
Fixation L	1	6	24136126608	24136345472	218864	1351.15	338.35	12	77	-1	12.03	12.03
Fixation R	1	6	24136126608	24136345472	218864	1351.15	338.35	12	77	-1	11.53	11.53
Saccade L	1	6	24136345472	24136444846	99374	1346.27	324.82	1221.29	316.33	3.39	129.41	1.00	34.07	3156.76	-3144.18	1488.03
Saccade R	1	6	24136345472	24136444846	99374	1346.27	324.82	1221.29	316.33	3.39	129.41	1.00	34.07	3156.76	-3144.18	1488.03
Fixation L	1	7	24136444846	24136623836	178990	1161.57	322.91	82	16	-1	11.66	11.66
Fixation R	1	7	24136444846	24136623836	178990	1161.57	322.91	82	16	-1	11.40	11.40
Saccade L	1	7	24136623836	24136643840	20004	1160.26	332.03	1160.58	333.68	0.07	7.19	1.00	3.37	124.28	-17.20	73.94
Saccade R	1	7	24136623836	24136643840	20004	1160.26	332.03	1160.58	333.68	0.07	7.19	1.00	3.37	124.28	-17.20	73.94
Fixation L	1	8	24136643840	24136763083	119243	1159.30	340.15	5	11	-1	11.59	11.59
Fixation R	1	8	24136643840	24136763083	119243	1159.30	340.15	5	11	-1	11.35	11.35
Saccade L	1	8	24136763083	24136802970	39887	1158.74	345.26	971.76	390.12	1.92	120.05	0.50	48.16	2941.85	-1975.77	2130.78
Saccade R	1	8	24136763083	24136802970	39887	1158.74	345.26	971.76	390.12	1.92	120.05	0.50	48.16	2941.85	-1975.77	2130.78
Fixation L	1	9	24136802970	24137081335	278365	959.96	435.72	18	63	-1	11.74	11.74
Fixation R	1	9	24136802970	24137081335	278365	959.96	435.72	18	63	-1	11.47	11.47
Saccade L	1	9	24137081335	24137101317	19982	957.58	453.81	930.67	440.93	0.26	30.18	1.00	13.19	714.20	-440.14	499.47
Saccade R	1	9	24137081335	24137101317	19982	957.58	453.81	930.67	440.93	0.26	30.18	1.00	13.19	714.20	-440.14	499.47
Fixation L	1	10	24137101317	24137300184	198867	930.67	417.01	33	40	-1	11.75	11.75
Fixation R	1	10	24137101317	24137300184	198867	930.67	417.01	33	40	-1	11.29	11.29
Saccade L	1	10	24137300184	24137320053	19869	911.90	400.39	866.56	402.24	0.41	45.91	1.00	20.39	1078.06	-955.84	732.31
Saccade R	1	10	24137300184	24137320053	19869	911.90	400.39	866.56	402.24	0.41	45.91	1.00	20.39	1078.06	-955.84	732.31
Fixation L	1	11	24137320053	24137638292	318239	835.11	373.34	40	53	-1	11.50	11.50
Fixation R	1	11	24137320053	24137638292	318239	835.11	373.34	40	53	-1	11.48	11.48
Saccade L	1	11	24137638292	24137658169	19877	829.03	354.48	831.32	341.23	0.11	13.61	1.00	5.61	274.57	-135.29	138.63
Saccade R	1	11	24137638292	24137658169	19877	829.03	354.48	831.32	341.23	0.11	13.61	1.00	5.61	274.57	-135.29	138.63
Fixation L	1	12	24137658169	24137976401	318232	842.07	334.94	30	42	-1	11.49	11.49
Fixation R	1	12	24137658169	24137976401	318232	842.07	334.94	30	42	-1	11.22	11.22
Saccade L	1	12	24137976401	24137996278	19877	861.81	366.79	866.53	404.95	0.48	38.90	1.00	24.13	457.65	-642.04	457.13
Saccade R	1	12	24137976401	24137996278	19877	861.81	366.79	866.53	404.95	0.48	38.90	1.00	24.13	457.65	-642.04	457.13
Fixation L	1	13	24137996278	24138135522	139244	871.26	393.88	8	54	-1	11.65	11.65
Fixation R	1	13	24137996278	24138135522	139244	871.26	393.88	8	54	-1	11.44	11.44
