[BeGaze]
Converted from:	C:\Documents and Settings\iViewX\Desktop\EXPERIMENTATIONS\Experiments\results\finaleart\S12H22222-finaleart-1.idf
Date:	27.03.2019 15:40:02
Version:	BeGaze 2.5.77
Sample Rate:	50
Subject:	S12H22222
Description:	aurele barriere

Table Header for Fixations:
Event Type	Trial	Number	Start	End	Duration	Location X	Location Y	Dispersion X	Dispersion Y	Plane	Avg. Pupil Size X	Avg. Pupil Size Y

Table Header for Saccades:
Event Type	Trial	Number	Start	End	Duration	Start Loc.X	Start Loc.Y	End Loc.X	End Loc.Y	Amplitude	Peak Speed	Peak Speed At	Average Speed	Peak Accel.	Peak Decel.	Average Accel.

Table Header for Blinks:
Event Type	Trial	Number	Start	End	Duration

Table Header for User Events:
Event Type	Trial	Number	Start	Description

UserEvent	1	1	22989844891	# Message: Hayet-Nature-morte-1888.jpg
Fixation L	1	1	22989850845	22990268433	417588	903.98	398.41	14	42	-1	17.42	17.42
Fixation R	1	1	22989850845	22990268433	417588	903.98	398.41	14	42	-1	16.62	16.62
Saccade L	1	1	22990268433	22990288308	19875	899.37	393.69	993.96	488.14	1.07	135.20	1.00	54.04	3342.33	-3216.11	2613.04
Saccade R	1	1	22990268433	22990288308	19875	899.37	393.69	993.96	488.14	1.07	135.20	1.00	54.04	3342.33	-3216.11	2613.04
Fixation L	1	2	22990288308	22990586678	298370	1045.91	508.51	64	34	-1	16.07	16.07
Fixation R	1	2	22990288308	22990586678	298370	1045.91	508.51	64	34	-1	15.35	15.35
Saccade L	1	2	22990586678	22990606558	19880	1049.05	521.35	1051.74	525.48	0.05	4.99	1.00	2.54	81.29	32.98	50.99
Saccade R	1	2	22990586678	22990606558	19880	1049.05	521.35	1051.74	525.48	0.05	4.99	1.00	2.54	81.29	32.98	50.99
Fixation L	1	3	22990606558	22990825422	218864	1055.96	521.73	12	12	-1	14.07	14.07
Fixation R	1	3	22990606558	22990825422	218864	1055.96	521.73	12	12	-1	13.51	13.51
Saccade L	1	3	22990825422	22990865171	39749	1063.99	515.56	1223.09	355.77	2.24	144.30	0.50	56.32	3578.09	-3361.99	3034.94
Saccade R	1	3	22990825422	22990865171	39749	1063.99	515.56	1223.09	355.77	2.24	144.30	0.50	56.32	3578.09	-3361.99	3034.94
Fixation L	1	4	22990865171	22991044167	178996	1233.62	382.15	19	35	-1	13.38	13.38
Fixation R	1	4	22990865171	22991044167	178996	1233.62	382.15	19	35	-1	12.95	12.95
Saccade L	1	4	22991044167	22991103905	59738	1240.90	386.07	1403.50	266.49	2.75	133.20	0.67	45.97	3171.80	-2132.56	1852.09
Saccade R	1	4	22991044167	22991103905	59738	1240.90	386.07	1403.50	266.49	2.75	133.20	0.67	45.97	3171.80	-2132.56	1852.09
Fixation L	1	5	22991103905	22991263020	159115	1383.23	316.55	27	70	-1	13.37	13.37
Fixation R	1	5	22991103905	22991263020	159115	1383.23	316.55	27	70	-1	12.47	12.47
Saccade L	1	5	22991263020	22991282902	19882	1376.02	320.80	1372.64	322.11	0.07	4.99	1.00	3.29	131.93	49.51	78.51
Saccade R	1	5	22991263020	22991282902	19882	1376.02	320.80	1372.64	322.11	0.07	4.99	1.00	3.29	131.93	49.51	78.51
Fixation L	1	6	22991282902	22991581270	298368	1381.29	307.43	15	32	-1	13.46	13.46
Fixation R	1	6	22991282902	22991581270	298368	1381.29	307.43	15	32	-1	12.53	12.53
Saccade L	1	6	22991581270	22991601130	19860	1385.70	298.13	1488.47	299.49	0.76	103.96	1.00	38.10	2402.39	-2291.31	1820.60
Saccade R	1	6	22991581270	22991601130	19860	1385.70	298.13	1488.47	299.49	0.76	103.96	1.00	38.10	2402.39	-2291.31	1820.60
Fixation L	1	7	22991601130	22991780118	178988	1471.08	324.40	33	41	-1	14.43	14.43
Fixation R	1	7	22991601130	22991780118	178988	1471.08	324.40	33	41	-1	13.68	13.68
Saccade L	1	7	22991780118	22991839742	59624	1471.13	341.17	805.64	346.93	7.10	321.89	0.67	119.06	7792.91	-7587.45	4975.14
Saccade R	1	7	22991780118	22991839742	59624	1471.13	341.17	805.64	346.93	7.10	321.89	0.67	119.06	7792.91	-7587.45	4975.14
Fixation L	1	8	22991839742	22992297246	457504	788.98	317.07	21	49	-1	15.15	15.15
Fixation R	1	8	22991839742	22992297246	457504	788.98	317.07	21	49	-1	14.36	14.36
Saccade L	1	8	22992297246	22992337117	39871	784.98	330.56	782.07	620.82	2.47	185.93	0.50	61.85	4559.22	-4417.29	3519.12
Saccade R	1	8	22992297246	22992337117	39871	784.98	330.56	782.07	620.82	2.47	185.93	0.50	61.85	4559.22	-4417.29	3519.12
Fixation L	1	9	22992337117	22992734834	397717	771.94	637.76	14	23	-1	15.34	15.34
Fixation R	1	9	22992337117	22992734834	397717	771.94	637.76	14	23	-1	14.67	14.67
Saccade L	1	9	22992734834	22992774591	39757	770.35	644.43	474.95	780.84	2.83	234.91	0.50	71.28	5701.82	-5636.09	3984.27
Saccade R	1	9	22992734834	22992774591	39757	770.35	644.43	474.95	780.84	2.83	234.91	0.50	71.28	5701.82	-5636.09	3984.27
Fixation L	1	10	22992774591	22993112822	338231	485.25	785.01	14	55	-1	15.10	15.10
Fixation R	1	10	22992774591	22993112822	338231	485.25	785.01	14	55	-1	14.85	14.85
Saccade L	1	10	22993112822	22993132691	19869	486.07	739.04	562.46	820.14	0.90	112.70	1.00	45.51	2800.71	-2255.23	2040.96
Saccade R	1	10	22993112822	22993132691	19869	486.07	739.04	562.46	820.14	0.90	112.70	1.00	45.51	2800.71	-2255.23	2040.96
Fixation L	1	11	22993132691	22993470813	338122	578.67	840.24	39	30	-1	14.69	14.69
Fixation R	1	11	22993132691	22993470813	338122	578.67	840.24	39	30	-1	14.49	14.49
Saccade L	1	11	22993470813	22993570166	99353	577.55	845.84	1233.24	503.92	10.65	238.64	0.40	107.22	5888.06	-3834.59	3021.10
Saccade R	1	11	22993470813	22993570166	99353	577.55	845.84	1233.24	503.92	10.65	238.64	0.40	107.22	5888.06	-3834.59	3021.10
Fixation L	1	12	22993570166	22993828783	258617	1209.52	540.23	41	51	-1	14.23	14.23
Fixation R	1	12	22993570166	22993828783	258617	1209.52	540.23	41	51	-1	14.13	14.13
