[BeGaze]
Converted from:	C:\Documents and Settings\iViewX\Desktop\EXPERIMENTATIONS\Experiments\results\finaleart\S12H22222-finaleart-1.idf
Date:	27.03.2019 15:40:05
Version:	BeGaze 2.5.77
Sample Rate:	50
Subject:	S12H22222
Description:	aurele barriere

Table Header for Fixations:
Event Type	Trial	Number	Start	End	Duration	Location X	Location Y	Dispersion X	Dispersion Y	Plane	Avg. Pupil Size X	Avg. Pupil Size Y

Table Header for Saccades:
Event Type	Trial	Number	Start	End	Duration	Start Loc.X	Start Loc.Y	End Loc.X	End Loc.Y	Amplitude	Peak Speed	Peak Speed At	Average Speed	Peak Accel.	Peak Decel.	Average Accel.

Table Header for Blinks:
Event Type	Trial	Number	Start	End	Duration

Table Header for User Events:
Event Type	Trial	Number	Start	Description

UserEvent	1	1	23113571928	# Message: void.jpg
Fixation L	1	1	23113578712	23113857059	278347	1036.22	305.04	21	19	-1	16.04	16.04
Fixation R	1	1	23113578712	23113857059	278347	1036.22	305.04	21	19	-1	15.38	15.38
Saccade L	1	1	23113857059	23113877064	20005	1050.53	316.76	1325.57	316.56	1.49	278.02	1.00	74.44	6935.14	-6703.52	4587.49
Saccade R	1	1	23113857059	23113877064	20005	1050.53	316.76	1325.57	316.56	1.49	278.02	1.00	74.44	6935.14	-6703.52	4587.49
Fixation L	1	2	23113877064	23114215204	338140	1333.44	330.78	19	76	-1	15.88	15.88
Fixation R	1	2	23113877064	23114215204	338140	1333.44	330.78	19	76	-1	15.21	15.21
Saccade L	1	2	23114215204	23114473660	258456	1344.37	275.92	938.88	444.95	12.07	237.14	0.54	46.71	5856.87	-5716.33	1570.97
Saccade R	1	2	23114215204	23114473660	258456	1344.37	275.92	938.88	444.95	12.07	237.14	0.54	46.71	5856.87	-5716.33	1570.97
Fixation L	1	3	23114473660	23114672652	198992	937.74	499.72	22	73	-1	16.62	16.62
Fixation R	1	3	23114473660	23114672652	198992	937.74	499.72	22	73	-1	15.76	15.76
Saccade L	1	3	23114672652	23114692523	19871	931.05	518.88	933.36	522.89	0.08	4.68	1.00	3.84	66.06	-15.30	29.43
Saccade R	1	3	23114672652	23114692523	19871	931.05	518.88	933.36	522.89	0.08	4.68	1.00	3.84	66.06	-15.30	29.43
Fixation L	1	4	23114692523	23115189753	497230	931.22	533.01	44	21	-1	16.90	16.90
Fixation R	1	4	23114692523	23115189753	497230	931.22	533.01	44	21	-1	15.80	15.80
Saccade L	1	4	23115189753	23115209636	19883	892.18	518.88	864.03	473.92	0.57	53.67	1.00	28.73	1196.58	-1069.86	901.63
Saccade R	1	4	23115189753	23115209636	19883	892.18	518.88	864.03	473.92	0.57	53.67	1.00	28.73	1196.58	-1069.86	901.63
Fixation L	1	5	23115209636	23115507995	298359	844.94	456.73	48	28	-1	16.76	16.76
Fixation R	1	5	23115209636	23115507995	298359	844.94	456.73	48	28	-1	15.58	15.58
Saccade L	1	5	23115507995	23115567620	59625	885.31	452.28	923.08	458.19	1.05	44.28	0.00	17.60	632.46	-826.33	500.70
Saccade R	1	5	23115507995	23115567620	59625	885.31	452.28	923.08	458.19	1.05	44.28	0.00	17.60	632.46	-826.33	500.70
