[BeGaze]
Converted from:	C:\Documents and Settings\iViewX\Desktop\EXPERIMENTATIONS\Experiments\results\finaleart\S12H22222-finaleart-1.idf
Date:	27.03.2019 15:40:42
Version:	BeGaze 2.5.77
Sample Rate:	50
Subject:	S12H22222
Description:	aurele barriere

Table Header for Fixations:
Event Type	Trial	Number	Start	End	Duration	Location X	Location Y	Dispersion X	Dispersion Y	Plane	Avg. Pupil Size X	Avg. Pupil Size Y

Table Header for Saccades:
Event Type	Trial	Number	Start	End	Duration	Start Loc.X	Start Loc.Y	End Loc.X	End Loc.Y	Amplitude	Peak Speed	Peak Speed At	Average Speed	Peak Accel.	Peak Decel.	Average Accel.

Table Header for Blinks:
Event Type	Trial	Number	Start	End	Duration

Table Header for User Events:
Event Type	Trial	Number	Start	Description

UserEvent	1	1	23719534360	# Message: Still-life-of-Sheep-s-Ribs-and-Head-The-Butchers-conter_Goya_1812.jpg
Fixation L	1	1	23719550609	23720087701	537092	986.04	554.31	26	35	-1	13.22	13.22
Fixation R	1	1	23719550609	23720087701	537092	986.04	554.31	26	35	-1	12.89	12.89
Saccade L	1	1	23720087701	23720107570	19869	1004.84	544.74	1054.65	592.12	0.50	69.54	1.00	25.23	1661.15	-1184.00	978.87
Saccade R	1	1	23720087701	23720107570	19869	1004.84	544.74	1054.65	592.12	0.50	69.54	1.00	25.23	1661.15	-1184.00	978.87
Fixation L	1	2	23720107570	23720445685	338115	1068.48	622.63	30	60	-1	13.16	13.16
Fixation R	1	2	23720107570	23720445685	338115	1068.48	622.63	30	60	-1	13.03	13.03
Saccade L	1	2	23720445685	23720485432	39747	1046.76	651.05	553.62	654.34	4.29	300.43	0.50	108.04	7363.35	-7221.71	5798.41
Saccade R	1	2	23720445685	23720485432	39747	1046.76	651.05	553.62	654.34	4.29	300.43	0.50	108.04	7363.35	-7221.71	5798.41
Fixation L	1	3	23720485432	23720744045	258613	549.07	665.62	33	46	-1	13.37	13.37
Fixation R	1	3	23720485432	23720744045	258613	549.07	665.62	33	46	-1	13.00	13.00
Saccade L	1	3	23720744045	23720803791	59746	538.15	669.13	1078.26	544.81	6.39	295.06	0.33	106.97	7072.91	-5555.52	4980.77
Saccade R	1	3	23720744045	23720803791	59746	538.15	669.13	1078.26	544.81	6.39	295.06	0.33	106.97	7072.91	-5555.52	4980.77
Fixation L	1	4	23720803791	23721102030	298239	1093.04	549.77	25	27	-1	13.82	13.82
Fixation R	1	4	23720803791	23721102030	298239	1093.04	549.77	25	27	-1	13.45	13.45
Saccade L	1	4	23721102030	23721161774	59744	1103.94	551.78	554.65	736.38	6.19	349.53	0.33	103.64	8595.51	-7863.55	5428.33
Saccade R	1	4	23721102030	23721161774	59744	1103.94	551.78	554.65	736.38	6.19	349.53	0.33	103.64	8595.51	-7863.55	5428.33
Fixation L	1	5	23721161774	23721440262	278488	531.61	759.11	54	33	-1	14.35	14.35
Fixation R	1	5	23721161774	23721440262	278488	531.61	759.11	54	33	-1	13.97	13.97
Saccade L	1	5	23721440262	23721460141	19879	571.27	770.26	704.06	774.79	0.98	134.39	1.00	49.42	3316.70	-2912.67	2477.33
Saccade R	1	5	23721440262	23721460141	19879	571.27	770.26	704.06	774.79	0.98	134.39	1.00	49.42	3316.70	-2912.67	2477.33
Fixation L	1	6	23721460141	23721778380	318239	708.63	802.70	8	39	-1	14.36	14.36
Fixation R	1	6	23721460141	23721778380	318239	708.63	802.70	8	39	-1	14.16	14.16
Saccade L	1	6	23721778380	23721837999	59619	711.60	808.72	1409.25	794.88	7.22	330.50	0.67	121.10	8196.14	-7898.38	5501.50
Saccade R	1	6	23721778380	23721837999	59619	711.60	808.72	1409.25	794.88	7.22	330.50	0.67	121.10	8196.14	-7898.38	5501.50
Fixation L	1	7	23721837999	23722096633	258634	1412.10	769.37	13	35	-1	15.13	15.13
Fixation R	1	7	23721837999	23722096633	258634	1412.10	769.37	13	35	-1	14.17	14.17
Saccade L	1	7	23722096633	23722116485	19852	1412.21	761.19	1343.48	760.57	0.39	69.54	1.00	19.82	1635.58	-1557.91	1071.51
Saccade R	1	7	23722096633	23722116485	19852	1412.21	761.19	1343.48	760.57	0.39	69.54	1.00	19.82	1635.58	-1557.91	1071.51
Fixation L	1	8	23722116485	23722613710	497225	1327.26	770.55	24	27	-1	14.84	14.84
Fixation R	1	8	23722116485	23722613710	497225	1327.26	770.55	24	27	-1	13.61	13.61
Saccade L	1	8	23722613710	23722653464	39754	1329.84	755.45	1295.36	467.06	2.53	164.01	0.50	63.77	4067.23	-3746.86	3387.46
Saccade R	1	8	23722613710	23722653464	39754	1329.84	755.45	1295.36	467.06	2.53	164.01	0.50	63.77	4067.23	-3746.86	3387.46
Fixation L	1	9	23722653464	23722832577	179113	1266.88	480.80	38	26	-1	14.93	14.93
Fixation R	1	9	23722653464	23722832577	179113	1266.88	480.80	38	26	-1	14.24	14.24
Saccade L	1	9	23722832577	23722852459	19882	1256.88	486.08	1140.50	507.72	1.04	119.73	1.00	52.35	2706.55	-2971.05	2407.30
Saccade R	1	9	23722832577	23722852459	19882	1256.88	486.08	1140.50	507.72	1.04	119.73	1.00	52.35	2706.55	-2971.05	2407.30
Fixation L	1	10	23722852459	23723190565	338106	1152.71	557.53	19	68	-1	15.03	15.03
Fixation R	1	10	23722852459	23723190565	338106	1152.71	557.53	19	68	-1	14.01	14.01
Saccade L	1	10	23723190565	23723230340	39775	1147.97	552.25	902.67	494.82	2.69	181.92	0.50	67.63	4518.86	-2770.84	2737.64
Saccade R	1	10	23723190565	23723230340	39775	1147.97	552.25	902.67	494.82	2.69	181.92	0.50	67.63	4518.86	-2770.84	2737.64
Fixation L	1	11	23723230340	23723409305	178965	855.67	472.53	61	33	-1	14.64	14.64
Fixation R	1	11	23723230340	23723409305	178965	855.67	472.53	61	33	-1	13.78	13.78
Saccade L	1	11	23723409305	23723528668	119363	852.24	472.74	516.11	744.82	7.35	257.82	0.33	61.54	6365.93	-5991.52	2831.41
Saccade R	1	11	23723409305	23723528668	119363	852.24	472.74	516.11	744.82	7.35	257.82	0.33	61.54	6365.93	-5991.52	2831.41
