[BeGaze]
Converted from:	C:\Documents and Settings\iViewX\Desktop\EXPERIMENTATIONS\Experiments\results\finaleart\S12H22222-finaleart-1.idf
Date:	27.03.2019 15:40:23
Version:	BeGaze 2.5.77
Sample Rate:	50
Subject:	S12H22222
Description:	aurele barriere

Table Header for Fixations:
Event Type	Trial	Number	Start	End	Duration	Location X	Location Y	Dispersion X	Dispersion Y	Plane	Avg. Pupil Size X	Avg. Pupil Size Y

Table Header for Saccades:
Event Type	Trial	Number	Start	End	Duration	Start Loc.X	Start Loc.Y	End Loc.X	End Loc.Y	Amplitude	Peak Speed	Peak Speed At	Average Speed	Peak Accel.	Peak Decel.	Average Accel.

Table Header for Blinks:
Event Type	Trial	Number	Start	End	Duration

Table Header for User Events:
Event Type	Trial	Number	Start	Description

UserEvent	1	1	23442406277	# Message: goya-Bodegones-con-pargos-dorados-1812.jpg
Fixation L	1	1	23442421799	23442819627	397828	979.59	443.38	15	48	-1	14.59	14.59
Fixation R	1	1	23442421799	23442819627	397828	979.59	443.38	15	48	-1	14.14	14.14
Saccade L	1	1	23442819627	23442839508	19881	968.55	473.41	964.28	560.84	0.65	88.54	1.00	32.55	2155.09	-2126.05	1705.69
Saccade R	1	1	23442819627	23442839508	19881	968.55	473.41	964.28	560.84	0.65	88.54	1.00	32.55	2155.09	-2126.05	1705.69
Fixation L	1	2	23442839508	23442998619	159111	950.74	565.09	64	9	-1	14.58	14.58
Fixation R	1	2	23442839508	23442998619	159111	950.74	565.09	64	9	-1	14.39	14.39
Saccade L	1	2	23442998619	23443018495	19876	900.05	570.43	873.16	570.14	0.47	57.32	0.00	23.73	591.87	-1261.68	821.32
Saccade R	1	2	23442998619	23443018495	19876	900.05	570.43	873.16	570.14	0.47	57.32	0.00	23.73	591.87	-1261.68	821.32
Fixation L	1	3	23443018495	23443694713	676218	852.55	592.19	30	40	-1	15.10	15.10
Fixation R	1	3	23443018495	23443694713	676218	852.55	592.19	30	40	-1	14.81	14.81
Saccade L	1	3	23443694713	23443774362	79649	846.92	609.25	1089.14	728.87	4.61	236.48	0.25	57.87	5887.53	-5362.52	2495.01
Saccade R	1	3	23443694713	23443774362	79649	846.92	609.25	1089.14	728.87	4.61	236.48	0.25	57.87	5887.53	-5362.52	2495.01
Fixation L	1	4	23443774362	23443913579	139217	1102.08	716.37	20	27	-1	15.61	15.61
Fixation R	1	4	23443774362	23443913579	139217	1102.08	716.37	20	27	-1	15.00	15.00
Saccade L	1	4	23443913579	23443933458	19879	1109.04	701.67	1161.49	694.61	0.35	53.55	1.00	17.42	1240.00	-1099.15	808.76
Saccade R	1	4	23443913579	23443933458	19879	1109.04	701.67	1161.49	694.61	0.35	53.55	1.00	17.42	1240.00	-1099.15	808.76
Fixation L	1	5	23443933458	23444072694	139236	1139.26	692.10	42	38	-1	15.58	15.58
Fixation R	1	5	23443933458	23444072694	139236	1139.26	692.10	42	38	-1	14.85	14.85
Saccade L	1	5	23444072694	23444132321	59627	1118.87	722.22	815.15	710.81	3.99	136.26	0.33	66.94	3359.06	-2615.15	2152.22
Saccade R	1	5	23444072694	23444132321	59627	1118.87	722.22	815.15	710.81	3.99	136.26	0.33	66.94	3359.06	-2615.15	2152.22
Fixation L	1	6	23444132321	23444410810	278489	798.57	735.93	19	52	-1	15.21	15.21
Fixation R	1	6	23444132321	23444410810	278489	798.57	735.93	19	52	-1	14.80	14.80
Saccade L	1	6	23444410810	23444530185	119375	798.68	752.74	683.98	786.02	5.23	166.79	0.33	43.84	4047.19	-4092.18	2052.33
Saccade R	1	6	23444410810	23444530185	119375	798.68	752.74	683.98	786.02	5.23	166.79	0.33	43.84	4047.19	-4092.18	2052.33
Fixation L	1	7	23444530185	23444709172	178987	685.64	794.49	44	55	-1	14.89	14.89
Fixation R	1	7	23444530185	23444709172	178987	685.64	794.49	44	55	-1	14.43	14.43
Saccade L	1	7	23444709172	23444729050	19878	650.96	838.83	630.14	862.44	0.56	64.28	0.00	28.21	683.79	-1301.75	856.18
Saccade R	1	7	23444709172	23444729050	19878	650.96	838.83	630.14	862.44	0.56	64.28	0.00	28.21	683.79	-1301.75	856.18
Fixation L	1	8	23444729050	23444947781	218731	611.36	868.11	26	11	-1	15.11	15.11
Fixation R	1	8	23444729050	23444947781	218731	611.36	868.11	26	11	-1	14.73	14.73
Saccade L	1	8	23444947781	23444967794	20013	618.78	868.43	874.18	708.07	1.69	304.79	1.00	84.49	7534.74	-7326.56	4973.19
Saccade R	1	8	23444947781	23444967794	20013	618.78	868.43	874.18	708.07	1.69	304.79	1.00	84.49	7534.74	-7326.56	4973.19
Fixation L	1	9	23444967794	23445146776	178982	899.29	717.39	33	14	-1	15.27	15.27
Fixation R	1	9	23444967794	23445146776	178982	899.29	717.39	33	14	-1	14.94	14.94
Saccade L	1	9	23445146776	23445186531	39755	907.73	712.16	1373.42	660.11	4.06	298.30	0.50	102.06	7423.55	-6678.89	5677.08
Saccade R	1	9	23445146776	23445186531	39755	907.73	712.16	1373.42	660.11	4.06	298.30	0.50	102.06	7423.55	-6678.89	5677.08
Fixation L	1	10	23445186531	23445723506	536975	1366.95	653.13	65	32	-1	15.08	15.08
Fixation R	1	10	23445186531	23445723506	536975	1366.95	653.13	65	32	-1	14.34	14.34
Saccade L	1	10	23445723506	23445763371	39865	1401.18	663.73	1553.51	609.48	1.49	124.91	1.00	37.33	2968.59	-2405.78	1724.03
Saccade R	1	10	23445723506	23445763371	39865	1401.18	663.73	1553.51	609.48	1.49	124.91	1.00	37.33	2968.59	-2405.78	1724.03
Fixation L	1	11	23445763371	23445902621	139250	1547.89	612.94	16	41	-1	15.77	15.77
Fixation R	1	11	23445763371	23445902621	139250	1547.89	612.94	16	41	-1	14.94	14.94
Saccade L	1	11	23445902621	23445942370	39749	1549.97	614.88	962.05	602.98	5.17	361.70	0.50	130.12	8908.40	-8081.59	7017.64
Saccade R	1	11	23445902621	23445942370	39749	1549.97	614.88	962.05	602.98	5.17	361.70	0.50	130.12	8908.40	-8081.59	7017.64
Fixation L	1	12	23445942370	23446220858	278488	914.98	573.59	57	40	-1	15.96	15.96
Fixation R	1	12	23445942370	23446220858	278488	914.98	573.59	57	40	-1	15.43	15.43
Saccade L	1	12	23446220858	23446240725	19867	904.11	566.54	902.66	561.08	0.06	5.71	1.00	2.99	84.56	-91.31	69.99
Saccade R	1	12	23446220858	23446240725	19867	904.11	566.54	902.66	561.08	0.06	5.71	1.00	2.99	84.56	-91.31	69.99
Fixation L	1	13	23446240725	23446399848	159123	898.44	557.59	6	5	-1	15.87	15.87
Fixation R	1	13	23446240725	23446399848	159123	898.44	557.59	6	5	-1	15.63	15.63
