[BeGaze]
Converted from:	C:\Documents and Settings\iViewX\Desktop\EXPERIMENTATIONS\Experiments\results\finaleart\S12H22222-finaleart-1.idf
Date:	27.03.2019 15:40:05
Version:	BeGaze 2.5.77
Sample Rate:	50
Subject:	S12H22222
Description:	aurele barriere

Table Header for Fixations:
Event Type	Trial	Number	Start	End	Duration	Location X	Location Y	Dispersion X	Dispersion Y	Plane	Avg. Pupil Size X	Avg. Pupil Size Y

Table Header for Saccades:
Event Type	Trial	Number	Start	End	Duration	Start Loc.X	Start Loc.Y	End Loc.X	End Loc.Y	Amplitude	Peak Speed	Peak Speed At	Average Speed	Peak Accel.	Peak Decel.	Average Accel.

Table Header for Blinks:
Event Type	Trial	Number	Start	End	Duration

Table Header for User Events:
Event Type	Trial	Number	Start	Description

UserEvent	1	1	23109504953	# Message: A_Highland_Landscape_Landseer_1830.jpg
Fixation L	1	1	23109521126	23110137727	616601	965.26	485.45	6	29	-1	15.94	15.94
Fixation R	1	1	23109521126	23110137727	616601	965.26	485.45	6	29	-1	15.08	15.08
Saccade L	1	1	23110137727	23110177473	39746	965.92	478.16	1079.09	361.84	1.62	108.55	0.50	40.78	2685.62	-2204.49	2016.94
Saccade R	1	1	23110137727	23110177473	39746	965.92	478.16	1079.09	361.84	1.62	108.55	0.50	40.78	2685.62	-2204.49	2016.94
Fixation L	1	2	23110177473	23110455964	278491	1080.11	372.42	5	53	-1	14.79	14.79
Fixation R	1	2	23110177473	23110455964	278491	1080.11	372.42	5	53	-1	13.83	13.83
Saccade L	1	2	23110455964	23110475836	19872	1077.76	378.10	1041.16	329.45	0.56	61.58	1.00	28.01	1292.19	-1403.39	1129.06
Saccade R	1	2	23110455964	23110475836	19872	1077.76	378.10	1041.16	329.45	0.56	61.58	1.00	28.01	1292.19	-1403.39	1129.06
Fixation L	1	3	23110475836	23110674700	198864	1009.73	291.69	39	48	-1	14.17	14.17
Fixation R	1	3	23110475836	23110674700	198864	1009.73	291.69	39	48	-1	13.38	13.38
Saccade L	1	3	23110674700	23110813965	139265	1002.28	281.99	1457.01	256.28	10.02	298.90	0.29	71.98	7454.28	-6968.66	2923.72
Saccade R	1	3	23110674700	23110813965	139265	1002.28	281.99	1457.01	256.28	10.02	298.90	0.29	71.98	7454.28	-6968.66	2923.72
Fixation L	1	4	23110813965	23110953187	139222	1484.63	215.52	38	59	-1	14.53	14.53
Fixation R	1	4	23110813965	23110953187	139222	1484.63	215.52	38	59	-1	13.45	13.45
Saccade L	1	4	23110953187	23111032701	79514	1490.06	198.04	1493.93	785.13	7.18	350.85	0.75	90.27	8090.84	-8433.96	3836.78
Saccade R	1	4	23110953187	23111032701	79514	1490.06	198.04	1493.93	785.13	7.18	350.85	0.75	90.27	8090.84	-8433.96	3836.78
Fixation L	1	5	23111032701	23111350928	318227	1510.46	795.44	30	12	-1	15.04	15.04
Fixation R	1	5	23111032701	23111350928	318227	1510.46	795.44	30	12	-1	13.85	13.85
Saccade L	1	5	23111350928	23111410672	59744	1515.14	794.61	1502.41	253.08	5.60	244.73	0.67	93.72	6092.37	-5843.95	4376.83
Saccade R	1	5	23111350928	23111410672	59744	1515.14	794.61	1502.41	253.08	5.60	244.73	0.67	93.72	6092.37	-5843.95	4376.83
Fixation L	1	6	23111410672	23111709031	298359	1473.86	270.44	40	38	-1	14.67	14.67
Fixation R	1	6	23111410672	23111709031	298359	1473.86	270.44	40	38	-1	13.41	13.41
Saccade L	1	6	23111709031	23111768656	59625	1462.14	290.52	1372.18	822.38	5.73	354.53	0.67	96.06	8711.01	-8550.89	4632.28
Saccade R	1	6	23111709031	23111768656	59625	1462.14	290.52	1372.18	822.38	5.73	354.53	0.67	96.06	8711.01	-8550.89	4632.28
Fixation L	1	7	23111768656	23112027267	258611	1373.55	818.90	8	20	-1	15.38	15.38
Fixation R	1	7	23111768656	23112027267	258611	1373.55	818.90	8	20	-1	14.03	14.03
Saccade L	1	7	23112027267	23112067022	39755	1375.70	814.16	1003.20	816.57	3.21	225.57	1.00	80.73	5620.34	-5098.17	4404.89
Saccade R	1	7	23112027267	23112067022	39755	1375.70	814.16	1003.20	816.57	3.21	225.57	1.00	80.73	5620.34	-5098.17	4404.89
Fixation L	1	8	23112067022	23112464743	397721	993.81	829.11	25	27	-1	15.41	15.41
Fixation R	1	8	23112067022	23112464743	397721	993.81	829.11	25	27	-1	14.31	14.31
Saccade L	1	8	23112464743	23112504626	39883	977.79	834.46	418.52	910.34	4.95	351.54	0.50	124.22	8639.98	-7979.23	6718.34
Saccade R	1	8	23112464743	23112504626	39883	977.79	834.46	418.52	910.34	4.95	351.54	0.50	124.22	8639.98	-7979.23	6718.34
Fixation L	1	9	23112504626	23112842749	338123	438.53	925.09	29	20	-1	16.21	16.21
Fixation R	1	9	23112504626	23112842749	338123	438.53	925.09	29	20	-1	15.28	15.28
Saccade L	1	9	23112842749	23112882488	39739	441.75	921.53	468.13	480.69	3.71	304.11	0.50	93.34	7565.10	-7432.95	5314.28
Saccade R	1	9	23112842749	23112882488	39739	441.75	921.53	468.13	480.69	3.71	304.11	0.50	93.34	7565.10	-7432.95	5314.28
Fixation L	1	10	23112882488	23113081370	198882	493.06	481.73	36	25	-1	15.40	15.40
Fixation R	1	10	23112882488	23113081370	198882	493.06	481.73	36	25	-1	14.71	14.71
Saccade L	1	10	23113081370	23113121221	39851	504.31	480.99	819.84	382.17	3.06	192.78	0.50	76.86	4479.65	-4475.79	4024.64
Saccade R	1	10	23113081370	23113121221	39851	504.31	480.99	819.84	382.17	3.06	192.78	0.50	76.86	4479.65	-4475.79	4024.64
Fixation L	1	11	23113121221	23113459335	338114	831.72	358.85	16	34	-1	15.64	15.64
Fixation R	1	11	23113121221	23113459335	338114	831.72	358.85	16	34	-1	15.11	15.11
Saccade L	1	11	23113459335	23113499077	39742	829.36	366.12	1029.27	313.60	2.19	141.06	0.50	55.23	3463.23	0.00	1750.84
Saccade R	1	11	23113459335	23113499077	39742	829.36	366.12	1029.27	313.60	2.19	141.06	0.50	55.23	3463.23	0.00	1750.84
