[BeGaze]
Converted from:	C:\Documents and Settings\iViewX\Desktop\EXPERIMENTATIONS\Experiments\results\finaleart\S12H22222-finaleart-1.idf
Date:	27.03.2019 15:40:43
Version:	BeGaze 2.5.77
Sample Rate:	50
Subject:	S12H22222
Description:	aurele barriere

Table Header for Fixations:
Event Type	Trial	Number	Start	End	Duration	Location X	Location Y	Dispersion X	Dispersion Y	Plane	Avg. Pupil Size X	Avg. Pupil Size Y

Table Header for Saccades:
Event Type	Trial	Number	Start	End	Duration	Start Loc.X	Start Loc.Y	End Loc.X	End Loc.Y	Amplitude	Peak Speed	Peak Speed At	Average Speed	Peak Accel.	Peak Decel.	Average Accel.

Table Header for Blinks:
Event Type	Trial	Number	Start	End	Duration

Table Header for User Events:
Event Type	Trial	Number	Start	Description

UserEvent	1	1	23735844583	# Message: void.jpg
Fixation L	1	1	23735860523	23736119139	258616	651.68	240.91	11	52	-1	12.61	12.61
Fixation R	1	1	23735860523	23736119139	258616	651.68	240.91	11	52	-1	12.40	12.40
Saccade L	1	1	23736119139	23736138998	19859	659.38	242.99	675.68	301.34	0.64	61.28	1.00	32.22	504.98	-1490.29	739.07
Saccade R	1	1	23736119139	23736138998	19859	659.38	242.99	675.68	301.34	0.64	61.28	1.00	32.22	504.98	-1490.29	739.07
Fixation L	1	2	23736138998	23736357737	218739	682.73	299.83	68	28	-1	12.59	12.59
Fixation R	1	2	23736138998	23736357737	218739	682.73	299.83	68	28	-1	12.46	12.46
Saccade L	1	2	23736357737	23736496986	139249	739.65	318.21	1029.45	383.17	7.02	144.88	0.14	50.41	29132.14	-1757.10	4316.32
Saccade R	1	2	23736357737	23736496986	139249	739.65	318.21	1029.45	383.17	7.02	144.88	0.14	50.41	29132.14	-1757.10	4316.32
Blink L	1	1	23736496986	23736675977	178991
Blink R	1	1	23736496986	23736675977	178991
Fixation L	1	3	23736675977	23737034087	358110	1059.83	428.68	25	57	-1	13.69	13.69
Fixation R	1	3	23736675977	23737034087	358110	1059.83	428.68	25	57	-1	13.36	13.36
Saccade L	1	3	23737034087	23737252828	218741	1051.58	441.48	1007.87	250.75	13.20	154.80	0.45	60.36	2916.72	-2335.72	1302.77
Blink R	1	2	23737034087	23737213083	178996
Saccade R	1	3	23737213083	23737252828	39745	972.57	273.62	1007.87	250.75	2.57	87.93	1.00	64.67	1896.70	-1190.15	927.33
Fixation L	1	4	23737252828	23737511437	258609	1034.04	285.24	34	65	-1	14.16	14.16
Fixation R	1	4	23737252828	23737511437	258609	1034.04	285.24	34	65	-1	13.64	13.64
Saccade L	1	4	23737511437	23737531318	19881	1037.46	299.26	1036.34	317.75	0.22	18.74	1.00	11.08	289.37	-380.02	313.36
Saccade R	1	4	23737511437	23737531318	19881	1037.46	299.26	1036.34	317.75	0.22	18.74	1.00	11.08	289.37	-380.02	313.36
Fixation L	1	5	23737531318	23737690431	159113	1041.06	329.90	10	22	-1	14.13	14.13
Fixation R	1	5	23737531318	23737690431	159113	1041.06	329.90	10	22	-1	13.69	13.69
Saccade L	1	5	23737690431	23737710308	19877	1046.64	336.83	1028.62	422.21	0.54	88.27	1.00	27.27	2096.76	-2008.63	1399.43
Saccade R	1	5	23737690431	23737710308	19877	1046.64	336.83	1028.62	422.21	0.54	88.27	1.00	27.27	2096.76	-2008.63	1399.43
Fixation L	1	6	23737710308	23737829677	119369	1034.40	427.45	9	32	-1	14.21	14.21
Fixation R	1	6	23737710308	23737829677	119369	1034.40	427.45	9	32	-1	13.82	13.82
