[BeGaze]
Converted from:	C:\Documents and Settings\iViewX\Desktop\EXPERIMENTATIONS\Experiments\results\finaleart\S12H22222-finaleart-1.idf
Date:	27.03.2019 15:41:09
Version:	BeGaze 2.5.77
Sample Rate:	50
Subject:	S12H22222
Description:	aurele barriere

Table Header for Fixations:
Event Type	Trial	Number	Start	End	Duration	Location X	Location Y	Dispersion X	Dispersion Y	Plane	Avg. Pupil Size X	Avg. Pupil Size Y

Table Header for Saccades:
Event Type	Trial	Number	Start	End	Duration	Start Loc.X	Start Loc.Y	End Loc.X	End Loc.Y	Amplitude	Peak Speed	Peak Speed At	Average Speed	Peak Accel.	Peak Decel.	Average Accel.

Table Header for Blinks:
Event Type	Trial	Number	Start	End	Duration

Table Header for User Events:
Event Type	Trial	Number	Start	Description

UserEvent	1	1	24238148990	# Message: stilleven-met-vis_dubois-pillet_1885.jpg
Fixation L	1	1	24238162947	24238699897	536950	1023.74	498.26	14	46	-1	12.50	12.50
Fixation R	1	1	24238162947	24238699897	536950	1023.74	498.26	14	46	-1	12.28	12.28
Saccade L	1	1	24238699897	24238719804	19907	1027.70	503.44	1175.93	498.71	0.89	149.99	1.00	44.47	3635.58	-3408.62	2389.05
Saccade R	1	1	24238699897	24238719804	19907	1027.70	503.44	1175.93	498.71	0.89	149.99	1.00	44.47	3635.58	-3408.62	2389.05
Fixation L	1	2	24238719804	24238958512	238708	1178.90	504.88	47	45	-1	11.23	11.23
Fixation R	1	2	24238719804	24238958512	238708	1178.90	504.88	47	45	-1	10.98	10.98
Saccade L	1	2	24238958512	24238998255	39743	1219.76	478.04	1279.27	234.31	2.55	164.24	0.50	64.21	4060.86	-3868.02	2671.01
Saccade R	1	2	24238958512	24238998255	39743	1219.76	478.04	1279.27	234.31	2.55	164.24	0.50	64.21	4060.86	-3868.02	2671.01
Fixation L	1	3	24238998255	24239117650	119395	1280.36	251.22	6	26	-1	10.41	10.41
Fixation R	1	3	24238998255	24239117650	119395	1280.36	251.22	6	26	-1	10.12	10.12
Saccade L	1	3	24239117650	24239157383	39733	1281.81	260.76	1214.91	798.68	4.64	282.11	0.50	116.80	6915.18	-6351.00	6526.01
Saccade R	1	3	24239117650	24239157383	39733	1281.81	260.76	1214.91	798.68	4.64	282.11	0.50	116.80	6915.18	-6351.00	6526.01
Fixation L	1	4	24239157383	24239376241	218858	1179.62	805.67	45	13	-1	11.32	11.32
Fixation R	1	4	24239157383	24239376241	218858	1179.62	805.67	45	13	-1	11.06	11.06
Saccade L	1	4	24239376241	24239415992	39751	1169.27	811.75	675.22	857.98	4.29	357.70	0.50	107.82	8824.20	-8499.14	6098.20
Saccade R	1	4	24239376241	24239415992	39751	1169.27	811.75	675.22	857.98	4.29	357.70	0.50	107.82	8824.20	-8499.14	6098.20
Fixation L	1	5	24239415992	24239714357	298365	683.66	839.96	17	51	-1	11.73	11.73
Fixation R	1	5	24239415992	24239714357	298365	683.66	839.96	17	51	-1	11.52	11.52
Saccade L	1	5	24239714357	24239773976	59619	678.22	818.29	677.41	432.50	4.25	174.63	1.00	71.31	4158.68	-3954.48	3146.16
Saccade R	1	5	24239714357	24239773976	59619	678.22	818.29	677.41	432.50	4.25	174.63	1.00	71.31	4158.68	-3954.48	3146.16
Fixation L	1	6	24239773976	24239913218	139242	673.69	485.08	6	90	-1	11.32	11.32
Fixation R	1	6	24239773976	24239913218	139242	673.69	485.08	6	90	-1	11.39	11.39
Saccade L	1	6	24239913218	24240012713	99495	673.45	523.02	753.13	325.40	3.34	108.84	1.00	33.62	1888.98	-2167.79	818.42
Saccade R	1	6	24239913218	24240012713	99495	673.45	523.02	753.13	325.40	3.34	108.84	1.00	33.62	1888.98	-2167.79	818.42
Fixation L	1	7	24240012713	24240271206	258493	766.92	363.66	23	59	-1	11.64	11.64
Fixation R	1	7	24240012713	24240271206	258493	766.92	363.66	23	59	-1	11.64	11.64
Saccade L	1	7	24240271206	24240291204	19998	774.67	352.87	807.98	347.27	0.39	34.17	1.00	19.55	812.42	-751.27	716.99
Saccade R	1	7	24240271206	24240291204	19998	774.67	352.87	807.98	347.27	0.39	34.17	1.00	19.55	812.42	-751.27	716.99
Fixation L	1	8	24240291204	24240569576	278372	778.49	360.55	34	60	-1	12.43	12.43
Fixation R	1	8	24240291204	24240569576	278372	778.49	360.55	34	60	-1	12.39	12.39
Saccade L	1	8	24240569576	24240589443	19867	773.25	320.96	771.39	285.54	0.50	35.87	1.00	25.06	309.14	-838.09	638.63
Saccade R	1	8	24240569576	24240589443	19867	773.25	320.96	771.39	285.54	0.50	35.87	1.00	25.06	309.14	-838.09	638.63
Fixation L	1	9	24240589443	24240867929	278486	763.92	285.45	22	59	-1	12.46	12.46
Fixation R	1	9	24240589443	24240867929	278486	763.92	285.45	22	59	-1	12.31	12.31
Saccade L	1	9	24240867929	24240887811	19882	750.67	329.51	748.30	346.85	0.35	28.25	1.00	17.52	474.52	-263.72	311.94
Saccade R	1	9	24240867929	24240887811	19882	750.67	329.51	748.30	346.85	0.35	28.25	1.00	17.52	474.52	-263.72	311.94
Fixation L	1	10	24240887811	24241027046	139235	720.78	376.95	42	52	-1	12.22	12.22
Fixation R	1	10	24240887811	24241027046	139235	720.78	376.95	42	52	-1	12.17	12.17
Saccade L	1	10	24241027046	24241046918	19872	706.26	399.44	703.01	404.18	0.08	5.81	1.00	4.16	70.21	-87.93	63.74
Saccade R	1	10	24241027046	24241046918	19872	706.26	399.44	703.01	404.18	0.08	5.81	1.00	4.16	70.21	-87.93	63.74
Fixation L	1	11	24241046918	24241146416	99498	706.61	406.83	38	5	-1	12.28	12.28
Fixation R	1	11	24241046918	24241146416	99498	706.61	406.83	38	5	-1	12.08	12.08
Saccade L	1	11	24241146416	24241166293	19877	735.64	404.52	778.11	378.11	0.59	50.59	1.00	29.88	1134.19	-1131.15	786.67
Saccade R	1	11	24241146416	24241166293	19877	735.64	404.52	778.11	378.11	0.59	50.59	1.00	29.88	1134.19	-1131.15	786.67
Fixation L	1	12	24241166293	24241325414	159121	805.20	364.92	34	20	-1	12.37	12.37
Fixation R	1	12	24241166293	24241325414	159121	805.20	364.92	34	20	-1	12.22	12.22
Saccade L	1	12	24241325414	24241385163	59749	812.34	357.39	1238.61	162.25	5.22	194.08	0.67	87.28	4741.34	-3907.92	3264.06
Saccade R	1	12	24241325414	24241385163	59749	812.34	357.39	1238.61	162.25	5.22	194.08	0.67	87.28	4741.34	-3907.92	3264.06
Fixation L	1	13	24241385163	24241683529	298366	1257.99	123.46	38	59	-1	12.01	12.01
Fixation R	1	13	24241385163	24241683529	298366	1257.99	123.46	38	59	-1	12.00	12.00
Saccade L	1	13	24241683529	24241703407	19878	1268.42	139.45	1230.22	140.64	0.30	38.65	1.00	15.15	802.56	-337.34	472.21
Saccade R	1	13	24241683529	24241703407	19878	1268.42	139.45	1230.22	140.64	0.30	38.65	1.00	15.15	802.56	-337.34	472.21
Fixation L	1	14	24241703407	24241961882	258475	1264.47	125.09	67	28	-1	11.91	11.91
Fixation R	1	14	24241703407	24241961882	258475	1264.47	125.09	67	28	-1	11.81	11.81
Saccade L	1	14	24241961882	24242140897	179015	1294.63	117.50	1049.05	455.68	10.84	257.71	0.11	60.54	6217.39	-4746.71	2054.87
Saccade R	1	14	24241961882	24242140897	179015	1294.63	117.50	1049.05	455.68	10.84	257.71	0.11	60.54	6217.39	-4746.71	2054.87
