[BeGaze]
Converted from:	C:\Documents and Settings\iViewX\Desktop\EXPERIMENTATIONS\Experiments\results\finaleart\S12H22222-finaleart-1.idf
Date:	27.03.2019 15:40:55
Version:	BeGaze 2.5.77
Sample Rate:	50
Subject:	S12H22222
Description:	aurele barriere

Table Header for Fixations:
Event Type	Trial	Number	Start	End	Duration	Location X	Location Y	Dispersion X	Dispersion Y	Plane	Avg. Pupil Size X	Avg. Pupil Size Y

Table Header for Saccades:
Event Type	Trial	Number	Start	End	Duration	Start Loc.X	Start Loc.Y	End Loc.X	End Loc.Y	Amplitude	Peak Speed	Peak Speed At	Average Speed	Peak Accel.	Peak Decel.	Average Accel.

Table Header for Blinks:
Event Type	Trial	Number	Start	End	Duration

Table Header for User Events:
Event Type	Trial	Number	Start	Description

UserEvent	1	1	23902010908	# Message: void.jpg
Saccade L	1	1	23902023550	23902063280	39730	1081.03	684.86	1172.08	682.22	1.00	89.48	1.00	25.22	2237.06	-2099.93	1106.94
Saccade R	1	1	23902023550	23902063280	39730	1081.03	684.86	1172.08	682.22	1.00	89.48	1.00	25.22	2237.06	-2099.93	1106.94
Fixation L	1	1	23902063280	23902520761	457481	1184.71	693.06	23	43	-1	12.63	12.63
Fixation R	1	1	23902063280	23902520761	457481	1184.71	693.06	23	43	-1	12.55	12.55
Saccade L	1	2	23902520761	23902580517	59756	1195.44	668.81	1256.17	456.50	2.93	112.36	1.00	49.07	2137.74	-2596.03	1172.16
Saccade R	1	2	23902520761	23902580517	59756	1195.44	668.81	1256.17	456.50	2.93	112.36	1.00	49.07	2137.74	-2596.03	1172.16
Fixation L	1	2	23902580517	23902918624	338107	1230.67	457.89	47	52	-1	13.24	13.24
Fixation R	1	2	23902580517	23902918624	338107	1230.67	457.89	47	52	-1	12.80	12.80
Saccade L	1	3	23902918624	23902998124	79500	1209.09	485.50	1093.05	502.32	2.01	111.75	1.00	25.24	2557.85	-2672.99	1047.81
Saccade R	1	3	23902918624	23902998124	79500	1209.09	485.50	1093.05	502.32	2.01	111.75	1.00	25.24	2557.85	-2672.99	1047.81
Fixation L	1	3	23902998124	23903376111	377987	1062.33	510.50	39	25	-1	14.66	14.66
Fixation R	1	3	23902998124	23903376111	377987	1062.33	510.50	39	25	-1	13.91	13.91
Saccade L	1	4	23903376111	23903395975	19864	1064.83	528.15	1001.94	528.68	0.44	63.62	1.00	22.14	1488.68	-1368.02	953.54
Saccade R	1	4	23903376111	23903395975	19864	1064.83	528.15	1001.94	528.68	0.44	63.62	1.00	22.14	1488.68	-1368.02	953.54
Fixation L	1	4	23903395975	23904012589	616614	973.01	541.20	40	39	-1	14.45	14.45
Fixation R	1	4	23903395975	23904012589	616614	973.01	541.20	40	39	-1	14.24	14.24
