[BeGaze]
Converted from:	C:\Documents and Settings\iViewX\Desktop\EXPERIMENTATIONS\Experiments\results\finaleart\S12H22222-finaleart-1.idf
Date:	27.03.2019 15:40:24
Version:	BeGaze 2.5.77
Sample Rate:	50
Subject:	S12H22222
Description:	aurele barriere

Table Header for Fixations:
Event Type	Trial	Number	Start	End	Duration	Location X	Location Y	Dispersion X	Dispersion Y	Plane	Avg. Pupil Size X	Avg. Pupil Size Y

Table Header for Saccades:
Event Type	Trial	Number	Start	End	Duration	Start Loc.X	Start Loc.Y	End Loc.X	End Loc.Y	Amplitude	Peak Speed	Peak Speed At	Average Speed	Peak Accel.	Peak Decel.	Average Accel.

Table Header for Blinks:
Event Type	Trial	Number	Start	End	Duration

Table Header for User Events:
Event Type	Trial	Number	Start	Description

UserEvent	1	1	23448524758	# Message: Matejko-Akt-meski.jpg
Fixation L	1	1	23448528014	23448965612	437598	997.68	516.65	13	11	-1	15.55	15.55
Fixation R	1	1	23448528014	23448965612	437598	997.68	516.65	13	11	-1	14.72	14.72
Saccade L	1	1	23448965612	23448985483	19871	990.61	517.10	819.86	521.00	0.93	172.73	1.00	46.63	4282.40	-4169.00	2904.17
Saccade R	1	1	23448965612	23448985483	19871	990.61	517.10	819.86	521.00	0.93	172.73	1.00	46.63	4282.40	-4169.00	2904.17
Fixation L	1	2	23448985483	23449184478	198995	802.39	530.75	33	28	-1	15.77	15.77
Fixation R	1	2	23448985483	23449184478	198995	802.39	530.75	33	28	-1	14.70	14.70
Saccade L	1	2	23449184478	23449204352	19874	802.81	514.30	809.23	319.27	1.46	197.33	1.00	73.26	4480.14	-4865.01	3577.59
Saccade R	1	2	23449184478	23449204352	19874	802.81	514.30	809.23	319.27	1.46	197.33	1.00	73.26	4480.14	-4865.01	3577.59
Fixation L	1	3	23449204352	23449582209	377857	828.53	286.90	34	65	-1	14.75	14.75
Fixation R	1	3	23449204352	23449582209	377857	828.53	286.90	34	65	-1	14.05	14.05
Saccade L	1	3	23449582209	23449721451	139242	843.68	310.11	752.61	753.32	6.71	294.78	0.86	48.21	7312.59	-7269.62	2483.33
Saccade R	1	3	23449582209	23449721451	139242	843.68	310.11	752.61	753.32	6.71	294.78	0.86	48.21	7312.59	-7269.62	2483.33
Fixation L	1	4	23449721451	23449920321	198870	753.59	759.96	4	83	-1	15.81	15.81
Fixation R	1	4	23449721451	23449920321	198870	753.59	759.96	4	83	-1	15.25	15.25
Saccade L	1	4	23449920321	23449940327	20006	755.02	692.75	784.58	318.35	2.52	379.37	1.00	125.79	9467.37	-8960.22	6417.83
Saccade R	1	4	23449920321	23449940327	20006	755.02	692.75	784.58	318.35	2.52	379.37	1.00	125.79	9467.37	-8960.22	6417.83
Fixation L	1	5	23449940327	23450238552	298225	829.51	296.26	59	39	-1	15.36	15.36
Fixation R	1	5	23449940327	23450238552	298225	829.51	296.26	59	39	-1	14.59	14.59
Saccade L	1	5	23450238552	23450258555	20003	844.19	284.30	848.36	288.49	0.08	5.98	1.00	3.81	110.42	1.72	43.36
Saccade R	1	5	23450238552	23450258555	20003	844.19	284.30	848.36	288.49	0.08	5.98	1.00	3.81	110.42	1.72	43.36
Fixation L	1	6	23450258555	23450974526	715971	855.88	291.98	18	59	-1	15.35	15.35
Fixation R	1	6	23450258555	23450974526	715971	855.88	291.98	18	59	-1	14.61	14.61
Saccade L	1	6	23450974526	23451034265	59739	847.52	283.11	1304.04	589.88	6.39	304.87	0.67	107.02	7608.38	-7134.60	4649.69
Saccade R	1	6	23450974526	23451034265	59739	847.52	283.11	1304.04	589.88	6.39	304.87	0.67	107.02	7608.38	-7134.60	4649.69
Fixation L	1	7	23451034265	23451332523	298258	1290.09	621.26	31	54	-1	16.23	16.23
Fixation R	1	7	23451034265	23451332523	298258	1290.09	621.26	31	54	-1	15.42	15.42
Saccade L	1	7	23451332523	23451412125	79602	1295.61	644.58	732.85	847.69	9.09	395.27	0.50	114.17	9836.97	-7639.41	4490.87
Saccade R	1	7	23451332523	23451412125	79602	1295.61	644.58	732.85	847.69	9.09	395.27	0.50	114.17	9836.97	-7639.41	4490.87
Fixation L	1	8	23451412125	23451591124	178999	729.39	897.81	8	65	-1	15.92	15.92
Fixation R	1	8	23451412125	23451591124	178999	729.39	897.81	8	65	-1	14.92	14.92
Saccade L	1	8	23451591124	23451610998	19874	734.11	913.35	773.78	906.46	0.34	40.74	1.00	17.18	781.22	-887.07	675.41
Saccade R	1	8	23451591124	23451610998	19874	734.11	913.35	773.78	906.46	0.34	40.74	1.00	17.18	781.22	-887.07	675.41
Fixation L	1	9	23451610998	23451849734	238736	775.38	915.47	29	16	-1	15.63	15.63
Fixation R	1	9	23451610998	23451849734	238736	775.38	915.47	29	16	-1	14.83	14.83
Saccade L	1	9	23451849734	23451869610	19876	787.14	922.61	772.68	1228.53	1.73	309.52	1.00	86.80	7695.31	-7592.66	5333.99
Saccade R	1	9	23451849734	23451869610	19876	787.14	922.61	772.68	1228.53	1.73	309.52	1.00	86.80	7695.31	-7592.66	5333.99
Fixation L	1	10	23451869610	23452148105	278495	737.76	1197.75	46	52	-1	14.68	14.68
Fixation R	1	10	23451869610	23452148105	278495	737.76	1197.75	46	52	-1	14.76	14.76
Saccade L	1	10	23452148105	23452267343	119238	726.04	1176.10	683.99	572.63	8.56	367.22	0.83	71.81	9089.44	-8470.93	3173.19
Saccade R	1	10	23452148105	23452267343	119238	726.04	1176.10	683.99	572.63	8.56	367.22	0.83	71.81	9089.44	-8470.93	3173.19
Fixation L	1	11	23452267343	23452486205	218862	666.44	573.67	23	69	-1	14.58	14.58
Fixation R	1	11	23452267343	23452486205	218862	666.44	573.67	23	69	-1	14.72	14.72
Saccade L	1	11	23452486205	23452525963	39758	662.73	616.22	664.73	634.37	0.28	11.87	0.50	6.94	121.83	0.00	76.65
Saccade R	1	11	23452486205	23452525963	39758	662.73	616.22	664.73	634.37	0.28	11.87	0.50	6.94	121.83	0.00	76.65
