[BeGaze]
Converted from:	C:\Documents and Settings\iViewX\Desktop\EXPERIMENTATIONS\Experiments\results\finaleart\S12H22222-finaleart-1.idf
Date:	27.03.2019 15:40:00
Version:	BeGaze 2.5.77
Sample Rate:	50
Subject:	S12H22222
Description:	aurele barriere

Table Header for Fixations:
Event Type	Trial	Number	Start	End	Duration	Location X	Location Y	Dispersion X	Dispersion Y	Plane	Avg. Pupil Size X	Avg. Pupil Size Y

Table Header for Saccades:
Event Type	Trial	Number	Start	End	Duration	Start Loc.X	Start Loc.Y	End Loc.X	End Loc.Y	Amplitude	Peak Speed	Peak Speed At	Average Speed	Peak Accel.	Peak Decel.	Average Accel.

Table Header for Blinks:
Event Type	Trial	Number	Start	End	Duration

Table Header for User Events:
Event Type	Trial	Number	Start	Description

UserEvent	1	1	22965351382	# Message: martin-vase-of-flowers-in-a-window.jpg
Fixation L	1	1	22965366025	22965863377	497352	982.65	486.56	22	44	-1	15.67	15.67
Fixation R	1	1	22965366025	22965863377	497352	982.65	486.56	22	44	-1	14.93	14.93
Saccade L	1	1	22965863377	22965883249	19872	997.37	509.73	937.82	558.89	0.69	78.11	1.00	34.66	1797.74	-1598.99	1447.77
Saccade R	1	1	22965863377	22965883249	19872	997.37	509.73	937.82	558.89	0.69	78.11	1.00	34.66	1797.74	-1598.99	1447.77
Fixation L	1	2	22965883249	22966022490	139241	902.14	600.17	45	53	-1	14.95	14.95
Fixation R	1	2	22965883249	22966022490	139241	902.14	600.17	45	53	-1	14.44	14.44
Saccade L	1	2	22966022490	22966141736	119246	894.95	612.73	854.02	505.83	2.41	115.96	1.00	20.22	2787.06	-2517.45	779.50
Saccade R	1	2	22966022490	22966141736	119246	894.95	612.73	854.02	505.83	2.41	115.96	1.00	20.22	2787.06	-2517.45	779.50
Fixation L	1	3	22966141736	22966300860	159124	839.15	481.28	24	39	-1	13.63	13.63
Fixation R	1	3	22966141736	22966300860	159124	839.15	481.28	24	39	-1	12.95	12.95
Saccade L	1	3	22966300860	22966340732	39872	829.14	465.92	1176.37	468.11	3.17	282.06	1.00	79.59	6947.93	-6943.23	4070.52
Saccade R	1	3	22966300860	22966340732	39872	829.14	465.92	1176.37	468.11	3.17	282.06	1.00	79.59	6947.93	-6943.23	4070.52
Fixation L	1	4	22966340732	22966599234	258502	1213.60	470.28	44	38	-1	13.52	13.52
Fixation R	1	4	22966340732	22966599234	258502	1213.60	470.28	44	38	-1	12.59	12.59
Saccade L	1	4	22966599234	22966619094	19860	1207.94	500.81	1086.34	827.08	1.93	351.80	1.00	97.07	8774.15	-7831.24	5747.56
Saccade R	1	4	22966599234	22966619094	19860	1207.94	500.81	1086.34	827.08	1.93	351.80	1.00	97.07	8774.15	-7831.24	5747.56
Fixation L	1	5	22966619094	22966937349	318255	1083.11	837.94	27	37	-1	13.68	13.68
Fixation R	1	5	22966619094	22966937349	318255	1083.11	837.94	27	37	-1	12.89	12.89
Saccade L	1	5	22966937349	22966957335	19986	1064.49	828.08	810.49	822.43	1.65	256.84	1.00	82.41	6385.57	-6176.84	4314.72
Saccade R	1	5	22966937349	22966957335	19986	1064.49	828.08	810.49	822.43	1.65	256.84	1.00	82.41	6385.57	-6176.84	4314.72
Fixation L	1	6	22966957335	22967176067	218732	792.83	777.46	22	56	-1	13.48	13.48
Fixation R	1	6	22966957335	22967176067	218732	792.83	777.46	22	56	-1	12.81	12.81
Saccade L	1	6	22967176067	22967235693	59626	789.80	767.84	685.09	272.06	5.21	277.40	0.67	87.33	6819.66	-6824.02	4693.77
Saccade R	1	6	22967176067	22967235693	59626	789.80	767.84	685.09	272.06	5.21	277.40	0.67	87.33	6819.66	-6824.02	4693.77
Fixation L	1	7	22967235693	22967474435	238742	675.03	280.52	19	21	-1	13.26	13.26
Fixation R	1	7	22967235693	22967474435	238742	675.03	280.52	19	21	-1	12.82	12.82
Saccade L	1	7	22967474435	22967494302	19867	666.30	272.98	485.70	254.20	1.13	183.62	1.00	56.72	4382.93	-4283.84	2901.62
Saccade R	1	7	22967474435	22967494302	19867	666.30	272.98	485.70	254.20	1.13	183.62	1.00	56.72	4382.93	-4283.84	2901.62
Fixation L	1	8	22967494302	22967971659	477357	476.78	295.05	24	73	-1	14.20	14.20
Fixation R	1	8	22967494302	22967971659	477357	476.78	295.05	24	73	-1	13.62	13.62
Saccade L	1	8	22967971659	22968011404	39745	475.22	321.89	630.07	330.99	1.93	147.76	1.00	48.45	3631.32	-3622.86	2286.21
Saccade R	1	8	22967971659	22968011404	39745	475.22	321.89	630.07	330.99	1.93	147.76	1.00	48.45	3631.32	-3622.86	2286.21
Fixation L	1	9	22968011404	22968130773	119369	699.71	328.05	84	10	-1	14.54	14.54
Fixation R	1	9	22968011404	22968130773	119369	699.71	328.05	84	10	-1	14.51	14.51
Saccade L	1	9	22968130773	22968150645	19872	714.91	323.83	716.77	320.45	0.08	8.41	1.00	4.28	174.06	13.80	82.82
Saccade R	1	9	22968130773	22968150645	19872	714.91	323.83	716.77	320.45	0.08	8.41	1.00	4.28	174.06	13.80	82.82
Fixation L	1	10	22968150645	22968309769	159124	712.48	300.26	6	33	-1	14.53	14.53
Fixation R	1	10	22968150645	22968309769	159124	712.48	300.26	6	33	-1	14.69	14.69
Saccade L	1	10	22968309769	22968369513	59744	709.77	286.54	1186.16	341.83	4.99	204.97	0.33	83.53	4992.44	-4580.76	3842.93
Saccade R	1	10	22968309769	22968369513	59744	709.77	286.54	1186.16	341.83	4.99	204.97	0.33	83.53	4992.44	-4580.76	3842.93
Fixation L	1	11	22968369513	22968588254	218741	1187.68	357.62	10	25	-1	15.28	15.28
Fixation R	1	11	22968369513	22968588254	218741	1187.68	357.62	10	25	-1	14.90	14.90
Saccade L	1	11	22968588254	22968608147	19893	1195.90	367.55	1456.89	368.36	1.38	263.85	1.00	69.24	6563.33	-6412.55	4370.20
Saccade R	1	11	22968588254	22968608147	19893	1195.90	367.55	1456.89	368.36	1.38	263.85	1.00	69.24	6563.33	-6412.55	4370.20
Fixation L	1	12	22968608147	22968926370	318223	1467.31	374.54	22	46	-1	14.64	14.64
Fixation R	1	12	22968608147	22968926370	318223	1467.31	374.54	22	46	-1	14.13	14.13
Saccade L	1	12	22968926370	22968966113	39743	1464.35	401.05	1099.83	437.80	3.14	237.45	0.50	79.00	5789.22	-5533.84	4459.59
Saccade R	1	12	22968926370	22968966113	39743	1464.35	401.05	1099.83	437.80	3.14	237.45	0.50	79.00	5789.22	-5533.84	4459.59
Fixation L	1	13	22968966113	22969284478	318365	1087.44	428.47	61	24	-1	14.28	14.28
Fixation R	1	13	22968966113	22969284478	318365	1087.44	428.47	61	24	-1	13.79	13.79
Saccade L	1	13	22969284478	22969344098	59620	1038.52	413.50	857.43	388.86	2.99	153.54	0.33	50.22	3778.29	-3449.69	2057.81
Saccade R	1	13	22969284478	22969344098	59620	1038.52	413.50	857.43	388.86	2.99	153.54	0.33	50.22	3778.29	-3449.69	2057.81
