[BeGaze]
Converted from:	C:\Documents and Settings\iViewX\Desktop\EXPERIMENTATIONS\Experiments\results\finaleart\S12H22222-finaleart-1.idf
Date:	27.03.2019 15:41:11
Version:	BeGaze 2.5.77
Sample Rate:	50
Subject:	S12H22222
Description:	aurele barriere

Table Header for Fixations:
Event Type	Trial	Number	Start	End	Duration	Location X	Location Y	Dispersion X	Dispersion Y	Plane	Avg. Pupil Size X	Avg. Pupil Size Y

Table Header for Saccades:
Event Type	Trial	Number	Start	End	Duration	Start Loc.X	Start Loc.Y	End Loc.X	End Loc.Y	Amplitude	Peak Speed	Peak Speed At	Average Speed	Peak Accel.	Peak Decel.	Average Accel.

Table Header for Blinks:
Event Type	Trial	Number	Start	End	Duration

Table Header for User Events:
Event Type	Trial	Number	Start	Description

UserEvent	1	1	24250361256	# Message: nature_morte_aux_oranges_Vlaminck_1909.jpg
Fixation L	1	1	24250375399	24250813009	437610	1092.19	446.95	30	38	-1	13.88	13.88
Fixation R	1	1	24250375399	24250813009	437610	1092.19	446.95	30	38	-1	13.29	13.29
Saccade L	1	1	24250813009	24250832872	19863	1066.35	462.28	957.42	478.56	0.77	111.41	1.00	38.93	2703.86	-2476.71	1872.88
Saccade R	1	1	24250813009	24250832872	19863	1066.35	462.28	957.42	478.56	0.77	111.41	1.00	38.93	2703.86	-2476.71	1872.88
Fixation L	1	2	24250832872	24251051734	218862	965.73	475.06	12	17	-1	13.10	13.10
Fixation R	1	2	24250832872	24251051734	218862	965.73	475.06	12	17	-1	12.54	12.54
Saccade L	1	2	24251051734	24251091511	39777	966.29	470.28	1146.21	715.61	2.57	229.85	0.50	64.55	5699.28	-5628.17	3426.49
Saccade R	1	2	24251051734	24251091511	39777	966.29	470.28	1146.21	715.61	2.57	229.85	0.50	64.55	5699.28	-5628.17	3426.49
Fixation L	1	3	24251091511	24251250607	159096	1143.58	722.20	20	77	-1	11.98	11.98
Fixation R	1	3	24251091511	24251250607	159096	1143.58	722.20	20	77	-1	11.57	11.57
Saccade L	1	3	24251250607	24251389846	139239	1136.29	726.49	758.30	885.28	7.09	241.86	0.86	50.92	5919.56	-5850.54	1875.42
Saccade R	1	3	24251250607	24251389846	139239	1136.29	726.49	758.30	885.28	7.09	241.86	0.86	50.92	5919.56	-5850.54	1875.42
Fixation L	1	4	24251389846	24251489216	99370	753.78	889.98	7	8	-1	11.27	11.27
Fixation R	1	4	24251389846	24251489216	99370	753.78	889.98	7	8	-1	11.56	11.56
Saccade L	1	4	24251489216	24251548963	59747	755.47	893.49	719.23	362.58	5.83	224.11	1.00	97.63	4277.65	-5064.90	3302.99
Saccade R	1	4	24251489216	24251548963	59747	755.47	893.49	719.23	362.58	5.83	224.11	1.00	97.63	4277.65	-5064.90	3302.99
Fixation L	1	5	24251548963	24251906952	357989	714.29	353.11	13	40	-1	11.15	11.15
Fixation R	1	5	24251548963	24251906952	357989	714.29	353.11	13	40	-1	10.92	10.92
Saccade L	1	5	24251906952	24251946699	39747	710.29	358.48	489.87	690.73	3.46	307.94	0.50	87.15	7626.28	-7396.89	5043.95
Saccade R	1	5	24251906952	24251946699	39747	710.29	358.48	489.87	690.73	3.46	307.94	0.50	87.15	7626.28	-7396.89	5043.95
Fixation L	1	6	24251946699	24252404178	457479	484.37	708.46	10	28	-1	11.67	11.67
Fixation R	1	6	24251946699	24252404178	457479	484.37	708.46	10	28	-1	11.62	11.62
Saccade L	1	6	24252404178	24252463926	59748	479.10	705.49	749.20	349.50	4.96	199.32	0.67	82.98	4891.26	-4513.32	3310.86
Saccade R	1	6	24252404178	24252463926	59748	479.10	705.49	749.20	349.50	4.96	199.32	0.67	82.98	4891.26	-4513.32	3310.86
Fixation L	1	7	24252463926	24252702541	238615	748.92	393.61	29	69	-1	11.51	11.51
Fixation R	1	7	24252463926	24252702541	238615	748.92	393.61	29	69	-1	11.60	11.60
Saccade L	1	7	24252702541	24252722422	19881	764.80	418.37	764.69	420.15	0.10	8.27	1.00	4.85	-6.16	-161.66	84.06
Saccade R	1	7	24252702541	24252722422	19881	764.80	418.37	764.69	420.15	0.10	8.27	1.00	4.85	-6.16	-161.66	84.06
Fixation L	1	8	24252722422	24252861663	139241	774.27	423.48	55	20	-1	11.73	11.73
Fixation R	1	8	24252722422	24252861663	139241	774.27	423.48	55	20	-1	11.76	11.76
Saccade L	1	8	24252861663	24252881533	19870	820.68	438.05	888.49	433.07	0.69	68.78	1.00	34.71	1506.06	-1510.45	1343.03
Saccade R	1	8	24252861663	24252881533	19870	820.68	438.05	888.49	433.07	0.69	68.78	1.00	34.71	1506.06	-1510.45	1343.03
Fixation L	1	9	24252881533	24253199783	318250	891.34	448.40	20	48	-1	12.68	12.68
Fixation R	1	9	24252881533	24253199783	318250	891.34	448.40	20	48	-1	12.36	12.36
Saccade L	1	9	24253199783	24253219772	19989	895.31	480.80	922.68	492.97	0.36	30.30	1.00	17.85	655.62	-276.55	365.95
Saccade R	1	9	24253199783	24253219772	19989	895.31	480.80	922.68	492.97	0.36	30.30	1.00	17.85	655.62	-276.55	365.95
Fixation L	1	10	24253219772	24253617498	397726	935.80	513.51	39	50	-1	13.54	13.54
Fixation R	1	10	24253219772	24253617498	397726	935.80	513.51	39	50	-1	12.78	12.78
Saccade L	1	10	24253617498	24253637378	19880	958.96	522.72	975.80	528.74	0.24	20.66	0.00	12.27	404.28	-306.40	269.62
Saccade R	1	10	24253617498	24253637378	19880	958.96	522.72	975.80	528.74	0.24	20.66	0.00	12.27	404.28	-306.40	269.62
Fixation L	1	11	24253637378	24254134601	497223	997.59	539.64	49	37	-1	13.68	13.68
Fixation R	1	11	24253637378	24254134601	497223	997.59	539.64	49	37	-1	12.97	12.97
Saccade L	1	11	24254134601	24254174482	39881	1017.70	556.56	1209.29	687.62	2.18	137.54	1.00	54.59	3397.46	-3047.78	2822.86
Saccade R	1	11	24254134601	24254174482	39881	1017.70	556.56	1209.29	687.62	2.18	137.54	1.00	54.59	3397.46	-3047.78	2822.86
Fixation L	1	12	24254174482	24254353470	178988	1208.65	687.81	3	33	-1	13.15	13.15
Fixation R	1	12	24254174482	24254353470	178988	1208.65	687.81	3	33	-1	12.89	12.89
