[BeGaze]
Converted from:	C:\Documents and Settings\iViewX\Desktop\EXPERIMENTATIONS\Experiments\results\finaleart\S12H22222-finaleart-1.idf
Date:	27.03.2019 15:40:33
Version:	BeGaze 2.5.77
Sample Rate:	50
Subject:	S12H22222
Description:	aurele barriere

Table Header for Fixations:
Event Type	Trial	Number	Start	End	Duration	Location X	Location Y	Dispersion X	Dispersion Y	Plane	Avg. Pupil Size X	Avg. Pupil Size Y

Table Header for Saccades:
Event Type	Trial	Number	Start	End	Duration	Start Loc.X	Start Loc.Y	End Loc.X	End Loc.Y	Amplitude	Peak Speed	Peak Speed At	Average Speed	Peak Accel.	Peak Decel.	Average Accel.

Table Header for Blinks:
Event Type	Trial	Number	Start	End	Duration

Table Header for User Events:
Event Type	Trial	Number	Start	Description

UserEvent	1	1	23615569573	# Message: The_Blue_Nude_Souvenir_of_Biskra_Matisse_1907.jpg
Fixation L	1	1	23615585127	23616062473	477346	933.43	574.15	33	13	-1	16.56	16.56
Fixation R	1	1	23615585127	23616062473	477346	933.43	574.15	33	13	-1	15.63	15.63
Saccade L	1	1	23616062473	23616082344	19871	904.37	568.76	645.37	567.87	1.62	261.83	1.00	81.53	6476.42	-6433.34	4323.41
Saccade R	1	1	23616062473	23616082344	19871	904.37	568.76	645.37	567.87	1.62	261.83	1.00	81.53	6476.42	-6433.34	4323.41
Fixation L	1	2	23616082344	23616241464	159120	612.47	553.11	44	29	-1	15.26	15.26
Fixation R	1	2	23616082344	23616241464	159120	612.47	553.11	44	29	-1	14.14	14.14
Saccade L	1	2	23616241464	23616281211	39747	601.25	538.01	399.51	362.66	2.60	145.58	0.50	65.47	3523.93	-2827.03	3052.68
Saccade R	1	2	23616241464	23616281211	39747	601.25	538.01	399.51	362.66	2.60	145.58	0.50	65.47	3523.93	-2827.03	3052.68
Fixation L	1	3	23616281211	23616420460	139249	410.27	383.22	25	73	-1	13.09	13.09
Fixation R	1	3	23616281211	23616420460	139249	410.27	383.22	25	73	-1	11.97	11.97
Saccade L	1	3	23616420460	23616440327	19867	424.63	427.24	426.05	432.10	0.16	23.08	0.00	7.90	78.19	-542.34	222.53
Saccade R	1	3	23616420460	23616440327	19867	424.63	427.24	426.05	432.10	0.16	23.08	0.00	7.90	78.19	-542.34	222.53
Fixation L	1	4	23616440327	23617156423	716096	439.41	406.00	19	67	-1	13.72	13.72
Fixation R	1	4	23616440327	23617156423	716096	439.41	406.00	19	67	-1	12.98	12.98
Saccade L	1	4	23617156423	23617295669	139246	444.78	444.87	1030.54	711.62	10.38	325.53	1.00	74.57	7579.66	-7651.26	3227.93
Saccade R	1	4	23617156423	23617295669	139246	444.78	444.87	1030.54	711.62	10.38	325.53	1.00	74.57	7579.66	-7651.26	3227.93
Fixation L	1	5	23617295669	23617534280	238611	1092.89	702.99	78	21	-1	15.95	15.95
Fixation R	1	5	23617295669	23617534280	238611	1092.89	702.99	78	21	-1	14.91	14.91
Saccade L	1	5	23617534280	23617554151	19871	1108.97	703.04	1325.24	714.66	1.25	219.00	1.00	62.99	5374.86	-5317.06	3713.08
Saccade R	1	5	23617534280	23617554151	19871	1108.97	703.04	1325.24	714.66	1.25	219.00	1.00	62.99	5374.86	-5317.06	3713.08
Fixation L	1	6	23617554151	23617753146	198995	1325.48	759.82	8	60	-1	15.08	15.08
Fixation R	1	6	23617554151	23617753146	198995	1325.48	759.82	8	60	-1	13.90	13.90
Saccade L	1	6	23617753146	23617792896	39750	1323.10	774.42	1648.75	732.91	2.83	173.51	0.50	71.28	4298.56	-3822.73	3949.88
Saccade R	1	6	23617753146	23617792896	39750	1323.10	774.42	1648.75	732.91	2.83	173.51	0.50	71.28	4298.56	-3822.73	3949.88
Fixation L	1	7	23617792896	23618071388	278492	1630.54	743.55	32	45	-1	14.95	14.95
Fixation R	1	7	23617792896	23618071388	278492	1630.54	743.55	32	45	-1	13.45	13.45
Saccade L	1	7	23618071388	23618091258	19870	1622.52	745.56	1619.53	830.18	0.71	85.64	1.00	35.64	1189.95	-2087.53	1174.19
Saccade R	1	7	23618071388	23618091258	19870	1622.52	745.56	1619.53	830.18	0.71	85.64	1.00	35.64	1189.95	-2087.53	1174.19
Fixation L	1	8	23618091258	23618210644	119386	1617.18	823.80	32	17	-1	15.06	15.06
Fixation R	1	8	23618091258	23618210644	119386	1617.18	823.80	32	17	-1	13.37	13.37
Saccade L	1	8	23618210644	23618270262	59618	1590.73	833.63	594.08	599.92	10.99	474.93	0.33	184.30	11720.08	-8405.61	7806.99
Saccade R	1	8	23618210644	23618270262	59618	1590.73	833.63	594.08	599.92	10.99	474.93	0.33	184.30	11720.08	-8405.61	7806.99
Fixation L	1	9	23618270262	23618488989	218727	600.54	596.23	14	50	-1	15.11	15.11
Fixation R	1	9	23618270262	23618488989	218727	600.54	596.23	14	50	-1	13.91	13.91
Saccade L	1	9	23618488989	23618508990	20001	598.67	580.12	758.76	556.83	1.02	163.61	1.00	50.98	3727.93	-3949.39	2623.42
Saccade R	1	9	23618488989	23618508990	20001	598.67	580.12	758.76	556.83	1.02	163.61	1.00	50.98	3727.93	-3949.39	2623.42
Fixation L	1	10	23618508990	23618707858	198868	742.22	544.32	21	20	-1	15.27	15.27
Fixation R	1	10	23618508990	23618707858	198868	742.22	544.32	21	20	-1	14.43	14.43
Saccade L	1	10	23618707858	23618747607	39749	741.81	538.53	504.63	751.89	2.85	242.43	1.00	71.77	5976.27	-5923.86	4144.12
Saccade R	1	10	23618707858	23618747607	39749	741.81	538.53	504.63	751.89	2.85	242.43	1.00	71.77	5976.27	-5923.86	4144.12
Fixation L	1	11	23618747607	23619026093	278486	511.36	758.98	31	24	-1	15.65	15.65
Fixation R	1	11	23618747607	23619026093	278486	511.36	758.98	31	24	-1	14.91	14.91
Saccade L	1	11	23619026093	23619045968	19875	488.89	768.68	350.96	804.32	0.91	144.09	1.00	45.76	3569.99	-3547.53	2596.03
Saccade R	1	11	23619026093	23619045968	19875	488.89	768.68	350.96	804.32	0.91	144.09	1.00	45.76	3569.99	-3547.53	2596.03
Fixation L	1	12	23619045968	23619523320	477352	341.91	808.93	42	36	-1	15.55	15.55
Fixation R	1	12	23619045968	23619523320	477352	341.91	808.93	42	36	-1	14.54	14.54
Saccade L	1	12	23619523320	23619563070	39750	368.22	828.23	700.46	1015.53	4.43	331.15	0.50	111.49	8208.63	-9.88	2739.51
Saccade R	1	12	23619523320	23619563070	39750	368.22	828.23	700.46	1015.53	4.43	331.15	0.50	111.49	8208.63	-9.88	2739.51
