[BeGaze]
Converted from:	C:\Documents and Settings\iViewX\Desktop\EXPERIMENTATIONS\Experiments\results\finaleart\S12H22222-finaleart-1.idf
Date:	27.03.2019 15:41:01
Version:	BeGaze 2.5.77
Sample Rate:	50
Subject:	S12H22222
Description:	aurele barriere

Table Header for Fixations:
Event Type	Trial	Number	Start	End	Duration	Location X	Location Y	Dispersion X	Dispersion Y	Plane	Avg. Pupil Size X	Avg. Pupil Size Y

Table Header for Saccades:
Event Type	Trial	Number	Start	End	Duration	Start Loc.X	Start Loc.Y	End Loc.X	End Loc.Y	Amplitude	Peak Speed	Peak Speed At	Average Speed	Peak Accel.	Peak Decel.	Average Accel.

Table Header for Blinks:
Event Type	Trial	Number	Start	End	Duration

Table Header for User Events:
Event Type	Trial	Number	Start	Description

UserEvent	1	1	24138219330	# Message: void.jpg
Fixation L	1	1	24138235029	24138354566	119537	921.92	372.86	25	11	-1	11.62	11.62
Fixation R	1	1	24138235029	24138354566	119537	921.92	372.86	25	11	-1	11.32	11.32
Saccade L	1	1	24138354566	24138394147	39581	903.34	375.23	576.03	450.74	3.37	237.83	0.50	85.15	5700.58	-4698.03	3704.35
Saccade R	1	1	24138354566	24138394147	39581	903.34	375.23	576.03	450.74	3.37	237.83	0.50	85.15	5700.58	-4698.03	3704.35
Fixation L	1	2	24138394147	24138493506	99359	546.98	428.49	52	43	-1	11.81	11.81
Fixation R	1	2	24138394147	24138493506	99359	546.98	428.49	52	43	-1	11.77	11.77
Saccade L	1	2	24138493506	24138513521	20015	523.38	435.89	515.23	485.11	0.51	50.47	1.00	25.31	612.07	-576.49	457.64
Saccade R	1	2	24138493506	24138513521	20015	523.38	435.89	515.23	485.11	0.51	50.47	1.00	25.31	612.07	-576.49	457.64
Fixation L	1	3	24138513521	24138732248	218727	504.18	477.30	41	42	-1	12.04	12.04
Fixation R	1	3	24138513521	24138732248	218727	504.18	477.30	41	42	-1	12.09	12.09
Saccade L	1	3	24138732248	24139090244	357996	530.10	475.65	865.17	370.23	11.85	67.46	0.33	33.11	1277.57	-794.19	310.34
Saccade R	1	3	24138732248	24139090244	357996	530.10	475.65	865.17	370.23	11.85	67.46	0.33	33.11	1277.57	-794.19	310.34
Fixation L	1	4	24139090244	24139309095	218851	901.26	389.92	52	29	-1	12.88	12.88
Fixation R	1	4	24139090244	24139309095	218851	901.26	389.92	52	29	-1	12.42	12.42
Saccade L	1	4	24139309095	24139328971	19876	917.57	373.24	922.09	353.37	0.23	20.62	1.00	11.47	409.05	-242.82	220.01
Saccade R	1	4	24139309095	24139328971	19876	917.57	373.24	922.09	353.37	0.23	20.62	1.00	11.47	409.05	-242.82	220.01
Fixation L	1	5	24139328971	24140204063	875092	938.19	353.38	29	50	-1	13.34	13.34
Fixation R	1	5	24139328971	24140204063	875092	938.19	353.38	29	50	-1	12.78	12.78
