[BeGaze]
Converted from:	C:\Documents and Settings\iViewX\Desktop\EXPERIMENTATIONS\Experiments\results\finaleart\S12H22222-finaleart-1.idf
Date:	27.03.2019 15:40:54
Version:	BeGaze 2.5.77
Sample Rate:	50
Subject:	S12H22222
Description:	aurele barriere

Table Header for Fixations:
Event Type	Trial	Number	Start	End	Duration	Location X	Location Y	Dispersion X	Dispersion Y	Plane	Avg. Pupil Size X	Avg. Pupil Size Y

Table Header for Saccades:
Event Type	Trial	Number	Start	End	Duration	Start Loc.X	Start Loc.Y	End Loc.X	End Loc.Y	Amplitude	Peak Speed	Peak Speed At	Average Speed	Peak Accel.	Peak Decel.	Average Accel.

Table Header for Blinks:
Event Type	Trial	Number	Start	End	Duration

Table Header for User Events:
Event Type	Trial	Number	Start	Description

UserEvent	1	1	23891833791	# Message: Odalisque_Matisse.jpg
Fixation L	1	1	23891839864	23892177973	338109	953.74	538.04	60	39	-1	13.61	13.61
Fixation R	1	1	23891839864	23892177973	338109	953.74	538.04	60	39	-1	13.86	13.86
Saccade L	1	1	23892177973	23892197856	19883	993.41	523.15	1000.09	521.65	0.17	11.77	1.00	8.77	-79.38	-175.35	125.27
Saccade R	1	1	23892177973	23892197856	19883	993.41	523.15	1000.09	521.65	0.17	11.77	1.00	8.77	-79.38	-175.35	125.27
Fixation L	1	2	23892197856	23892317211	119355	1001.97	515.59	4	11	-1	13.89	13.89
Fixation R	1	2	23892197856	23892317211	119355	1001.97	515.59	4	11	-1	13.64	13.64
Saccade L	1	2	23892317211	23892356977	39766	1004.24	510.28	658.91	442.78	3.20	218.92	1.00	80.44	5437.77	-5049.99	4127.02
Saccade R	1	2	23892317211	23892356977	39766	1004.24	510.28	658.91	442.78	3.20	218.92	1.00	80.44	5437.77	-5049.99	4127.02
Fixation L	1	3	23892356977	23892595571	238594	630.92	414.25	52	41	-1	12.94	12.94
Fixation R	1	3	23892356977	23892595571	238594	630.92	414.25	52	41	-1	13.28	13.28
Saccade L	1	3	23892595571	23892615583	20012	606.18	412.66	597.99	414.61	0.22	17.15	1.00	11.01	27.83	-215.68	108.05
Saccade R	1	3	23892595571	23892615583	20012	606.18	412.66	597.99	414.61	0.22	17.15	1.00	11.01	27.83	-215.68	108.05
Fixation L	1	4	23892615583	23892893928	278345	596.77	415.93	16	11	-1	12.87	12.87
Fixation R	1	4	23892615583	23892893928	278345	596.77	415.93	16	11	-1	12.95	12.95
Saccade L	1	4	23892893928	23892913810	19882	601.98	415.51	698.37	458.23	0.75	106.64	1.00	37.62	2509.14	-2433.05	1932.80
Saccade R	1	4	23892893928	23892913810	19882	601.98	415.51	698.37	458.23	0.75	106.64	1.00	37.62	2509.14	-2433.05	1932.80
Fixation L	1	5	23892913810	23893072929	159119	710.32	478.87	15	31	-1	13.43	13.43
Fixation R	1	5	23892913810	23893072929	159119	710.32	478.87	15	31	-1	13.64	13.64
Saccade L	1	5	23893072929	23893112798	39869	709.48	477.95	519.76	386.28	2.02	128.79	1.00	50.77	3210.73	-2942.03	2640.30
Saccade R	1	5	23893072929	23893112798	39869	709.48	477.95	519.76	386.28	2.02	128.79	1.00	50.77	3210.73	-2942.03	2640.30
Fixation L	1	6	23893112798	23893431037	318239	556.81	400.59	69	28	-1	14.15	14.15
Fixation R	1	6	23893112798	23893431037	318239	556.81	400.59	69	28	-1	14.12	14.12
Saccade L	1	6	23893431037	23893530405	99368	589.45	412.08	753.33	579.39	3.13	226.16	1.00	31.52	5577.60	-5437.27	1602.10
Saccade R	1	6	23893431037	23893530405	99368	589.45	412.08	753.33	579.39	3.13	226.16	1.00	31.52	5577.60	-5437.27	1602.10
Fixation L	1	7	23893530405	23894127133	596728	774.29	579.91	36	53	-1	15.60	15.60
Fixation R	1	7	23893530405	23894127133	596728	774.29	579.91	36	53	-1	15.16	15.16
Saccade L	1	7	23894127133	23894186878	59745	762.20	555.76	1336.31	641.27	6.14	280.08	0.33	102.83	6980.95	-6094.90	5215.50
Saccade R	1	7	23894127133	23894186878	59745	762.20	555.76	1336.31	641.27	6.14	280.08	0.33	102.83	6980.95	-6094.90	5215.50
Fixation L	1	8	23894186878	23894485242	298364	1347.81	663.12	21	34	-1	15.42	15.42
Fixation R	1	8	23894186878	23894485242	298364	1347.81	663.12	21	34	-1	14.71	14.71
Saccade L	1	8	23894485242	23894505114	19872	1358.23	669.55	1463.38	556.60	0.82	156.08	1.00	41.28	3867.19	-3863.45	2611.53
Saccade R	1	8	23894485242	23894505114	19872	1358.23	669.55	1463.38	556.60	0.82	156.08	1.00	41.28	3867.19	-3863.45	2611.53
Fixation L	1	9	23894505114	23894803495	298381	1469.28	575.79	9	36	-1	14.25	14.25
Fixation R	1	9	23894505114	23894803495	298381	1469.28	575.79	9	36	-1	13.71	13.71
Saccade L	1	9	23894803495	23894843221	39726	1472.52	593.12	1325.45	398.39	2.27	165.65	1.00	57.24	4107.46	-3778.22	2834.21
Saccade R	1	9	23894803495	23894843221	39726	1472.52	593.12	1325.45	398.39	2.27	165.65	1.00	57.24	4107.46	-3778.22	2834.21
Fixation L	1	10	23894843221	23895022241	179020	1304.87	359.02	28	53	-1	14.26	14.26
Fixation R	1	10	23894843221	23895022241	179020	1304.87	359.02	28	53	-1	13.62	13.62
Saccade L	1	10	23895022241	23895081838	59597	1303.18	349.11	1211.03	342.39	1.85	91.67	1.00	31.03	1462.28	-2060.41	1048.02
Saccade R	1	10	23895022241	23895081838	59597	1303.18	349.11	1211.03	342.39	1.85	91.67	1.00	31.03	1462.28	-2060.41	1048.02
Fixation L	1	11	23895081838	23895181349	99511	1219.89	331.21	17	23	-1	14.70	14.70
Fixation R	1	11	23895081838	23895181349	99511	1219.89	331.21	17	23	-1	13.66	13.66
Saccade L	1	11	23895181349	23895221082	39733	1220.26	318.70	1482.14	267.66	2.65	159.22	0.50	66.68	3765.12	-2678.23	2923.63
Saccade R	1	11	23895181349	23895221082	39733	1220.26	318.70	1482.14	267.66	2.65	159.22	0.50	66.68	3765.12	-2678.23	2923.63
Fixation L	1	12	23895221082	23895420077	198995	1524.97	238.71	54	36	-1	14.49	14.49
Fixation R	1	12	23895221082	23895420077	198995	1524.97	238.71	54	36	-1	13.94	13.94
Saccade L	1	12	23895420077	23895459822	39745	1523.33	236.20	864.13	251.69	5.63	420.29	0.50	141.73	10419.38	-10300.89	8328.13
Saccade R	1	12	23895420077	23895459822	39745	1523.33	236.20	864.13	251.69	5.63	420.29	0.50	141.73	10419.38	-10300.89	8328.13
Fixation L	1	13	23895459822	23895778062	318240	838.61	271.96	36	40	-1	15.01	15.01
Fixation R	1	13	23895459822	23895778062	318240	838.61	271.96	36	40	-1	14.71	14.71
Saccade L	1	13	23895778062	23895837685	59623	828.84	287.43	1006.97	294.70	2.25	143.63	0.33	37.81	3543.21	-3520.05	1998.42
Saccade R	1	13	23895778062	23895837685	59623	828.84	287.43	1006.97	294.70	2.25	143.63	0.33	37.81	3543.21	-3520.05	1998.42
