[BeGaze]
Converted from:	C:\Documents and Settings\iViewX\Desktop\EXPERIMENTATIONS\Experiments\results\finaleart\S12H22222-finaleart-1.idf
Date:	27.03.2019 15:40:06
Version:	BeGaze 2.5.77
Sample Rate:	50
Subject:	S12H22222
Description:	aurele barriere

Table Header for Fixations:
Event Type	Trial	Number	Start	End	Duration	Location X	Location Y	Dispersion X	Dispersion Y	Plane	Avg. Pupil Size X	Avg. Pupil Size Y

Table Header for Saccades:
Event Type	Trial	Number	Start	End	Duration	Start Loc.X	Start Loc.Y	End Loc.X	End Loc.Y	Amplitude	Peak Speed	Peak Speed At	Average Speed	Peak Accel.	Peak Decel.	Average Accel.

Table Header for Blinks:
Event Type	Trial	Number	Start	End	Duration

Table Header for User Events:
Event Type	Trial	Number	Start	Description

UserEvent	1	1	23125775166	# Message: void.jpg
Fixation L	1	1	23125791193	23125950309	159116	1140.85	970.42	10	8	-1	16.59	16.59
Fixation R	1	1	23125791193	23125950309	159116	1140.85	970.42	10	8	-1	16.39	16.39
Saccade L	1	1	23125950309	23125990049	39740	1143.70	971.35	1599.98	856.63	3.97	245.19	0.50	99.98	6082.27	-5948.51	5985.94
Saccade R	1	1	23125950309	23125990049	39740	1143.70	971.35	1599.98	856.63	3.97	245.19	0.50	99.98	6082.27	-5948.51	5985.94
Fixation L	1	2	23125990049	23126268528	278479	1584.71	848.74	33	12	-1	16.55	16.55
Fixation R	1	2	23125990049	23126268528	278479	1584.71	848.74	33	12	-1	16.59	16.59
Saccade L	1	2	23126268528	23126328274	59746	1570.90	846.60	1269.70	663.09	4.29	153.68	0.33	71.76	3789.01	-3010.26	1888.46
Saccade R	1	2	23126268528	23126328274	59746	1570.90	846.60	1269.70	663.09	4.29	153.68	0.33	71.76	3789.01	-3010.26	1888.46
Fixation L	1	3	23126328274	23126606637	278363	1237.44	618.35	39	60	-1	14.96	14.96
Fixation R	1	3	23126328274	23126606637	278363	1237.44	618.35	39	60	-1	14.51	14.51
Saccade L	1	3	23126606637	23126686252	79615	1236.47	605.29	862.03	584.08	10.16	494.83	1.00	127.67	33889.45	-5891.27	9679.13
Saccade R	1	3	23126606637	23126686252	79615	1236.47	605.29	862.03	584.08	10.16	494.83	1.00	127.67	33889.45	-5891.27	9679.13
Blink L	1	1	23126686252	23126825503	139251
Blink R	1	1	23126686252	23126825503	139251
Fixation L	1	4	23126825503	23127740464	914961	773.51	390.21	35	61	-1	16.05	16.05
Fixation R	1	4	23126825503	23127740464	914961	773.51	390.21	35	61	-1	15.87	15.87
Saccade L	1	4	23127740464	23127760335	19871	786.95	409.59	786.49	424.52	0.12	15.11	1.00	5.83	345.29	0.00	172.64
Saccade R	1	4	23127740464	23127760335	19871	786.95	409.59	786.49	424.52	0.12	15.11	1.00	5.83	345.29	0.00	172.64
