[BeGaze]
Converted from:	C:\Documents and Settings\iViewX\Desktop\EXPERIMENTATIONS\Experiments\results\finaleart\S12H22222-finaleart-1.idf
Date:	27.03.2019 15:40:51
Version:	BeGaze 2.5.77
Sample Rate:	50
Subject:	S12H22222
Description:	aurele barriere

Table Header for Fixations:
Event Type	Trial	Number	Start	End	Duration	Location X	Location Y	Dispersion X	Dispersion Y	Plane	Avg. Pupil Size X	Avg. Pupil Size Y

Table Header for Saccades:
Event Type	Trial	Number	Start	End	Duration	Start Loc.X	Start Loc.Y	End Loc.X	End Loc.Y	Amplitude	Peak Speed	Peak Speed At	Average Speed	Peak Accel.	Peak Decel.	Average Accel.

Table Header for Blinks:
Event Type	Trial	Number	Start	End	Duration

Table Header for User Events:
Event Type	Trial	Number	Start	Description

UserEvent	1	1	23861244742	# Message: renoir-still-life-with-peaches-and-grapes-1881.jpg
Fixation L	1	1	23861248832	23861825673	576841	900.67	361.56	13	85	-1	15.34	15.34
Fixation R	1	1	23861248832	23861825673	576841	900.67	361.56	13	85	-1	14.25	14.25
Saccade L	1	1	23861825673	23861984783	159110	908.78	399.98	1285.56	732.18	8.20	292.28	0.88	51.51	7154.53	-7235.48	2061.76
Saccade R	1	1	23861825673	23861984783	159110	908.78	399.98	1285.56	732.18	8.20	292.28	0.88	51.51	7154.53	-7235.48	2061.76
Fixation L	1	2	23861984783	23862501884	517101	1279.84	771.81	24	69	-1	12.24	12.24
Fixation R	1	2	23861984783	23862501884	517101	1279.84	771.81	24	69	-1	11.13	11.13
Saccade L	1	2	23862501884	23862581369	79485	1266.86	797.42	518.62	1011.75	9.48	326.15	0.50	119.32	8066.33	-6192.76	4674.60
Saccade R	1	2	23862501884	23862581369	79485	1266.86	797.42	518.62	1011.75	9.48	326.15	0.50	119.32	8066.33	-6192.76	4674.60
Fixation L	1	3	23862581369	23862760498	179129	526.23	1002.65	46	45	-1	12.55	12.55
Fixation R	1	3	23862581369	23862760498	179129	526.23	1002.65	46	45	-1	12.11	12.11
Saccade L	1	3	23862760498	23862780372	19874	494.74	1030.40	485.73	1040.48	0.42	35.13	0.00	21.17	-68.34	-470.05	228.43
Saccade R	1	3	23862760498	23862780372	19874	494.74	1030.40	485.73	1040.48	0.42	35.13	0.00	21.17	-68.34	-470.05	228.43
Fixation L	1	4	23862780372	23862999114	218742	477.52	1055.70	24	22	-1	12.32	12.32
Fixation R	1	4	23862780372	23862999114	218742	477.52	1055.70	24	22	-1	11.92	11.92
Saccade L	1	4	23862999114	23863078730	79616	472.61	1063.09	567.98	391.69	8.29	297.61	0.50	104.10	7380.23	-4841.24	3912.77
Saccade R	1	4	23862999114	23863078730	79616	472.61	1063.09	567.98	391.69	8.29	297.61	0.50	104.10	7380.23	-4841.24	3912.77
Fixation L	1	5	23863078730	23863536210	457480	584.91	423.94	43	52	-1	11.87	11.87
Fixation R	1	5	23863078730	23863536210	457480	584.91	423.94	43	52	-1	11.69	11.69
Saccade L	1	5	23863536210	23863575963	39753	601.93	444.69	842.65	438.26	2.22	140.62	0.50	55.74	3488.92	-2731.95	2644.39
Saccade R	1	5	23863536210	23863575963	39753	601.93	444.69	842.65	438.26	2.22	140.62	0.50	55.74	3488.92	-2731.95	2644.39
Fixation L	1	6	23863575963	23863735091	159128	875.76	404.18	42	53	-1	12.82	12.82
Fixation R	1	6	23863575963	23863735091	159128	875.76	404.18	42	53	-1	12.47	12.47
Saccade L	1	6	23863735091	23863754949	19858	885.64	384.96	891.53	385.66	0.15	13.83	0.00	7.38	8.47	-248.76	87.50
Saccade R	1	6	23863735091	23863754949	19858	885.64	384.96	891.53	385.66	0.15	13.83	0.00	7.38	8.47	-248.76	87.50
Fixation L	1	7	23863754949	23864550545	795596	892.98	377.76	25	21	-1	13.20	13.20
Fixation R	1	7	23863754949	23864550545	795596	892.98	377.76	25	21	-1	12.63	12.63
Saccade L	1	7	23864550545	23864570414	19869	875.90	380.81	870.44	451.60	0.73	71.82	1.00	36.56	1595.27	-1520.78	1481.99
Saccade R	1	7	23864550545	23864570414	19869	875.90	380.81	870.44	451.60	0.73	71.82	1.00	36.56	1595.27	-1520.78	1481.99
Fixation L	1	8	23864570414	23865087645	517231	880.12	407.72	33	59	-1	13.73	13.73
Fixation R	1	8	23864570414	23865087645	517231	880.12	407.72	33	59	-1	12.82	12.82
Saccade L	1	8	23865087645	23865107520	19875	896.62	392.51	921.27	409.73	0.27	30.43	1.00	13.58	686.79	-115.87	409.11
Saccade R	1	8	23865087645	23865107520	19875	896.62	392.51	921.27	409.73	0.27	30.43	1.00	13.58	686.79	-115.87	409.11
Fixation L	1	9	23865107520	23865226771	119251	945.93	418.42	34	28	-1	13.10	13.10
Fixation R	1	9	23865107520	23865226771	119251	945.93	418.42	34	28	-1	12.41	12.41
