[BeGaze]
Converted from:	C:\Documents and Settings\iViewX\Desktop\EXPERIMENTATIONS\Experiments\results\finaleart\S12H22222-finaleart-1.idf
Date:	27.03.2019 15:40:21
Version:	BeGaze 2.5.77
Sample Rate:	50
Subject:	S12H22222
Description:	aurele barriere

Table Header for Fixations:
Event Type	Trial	Number	Start	End	Duration	Location X	Location Y	Dispersion X	Dispersion Y	Plane	Avg. Pupil Size X	Avg. Pupil Size Y

Table Header for Saccades:
Event Type	Trial	Number	Start	End	Duration	Start Loc.X	Start Loc.Y	End Loc.X	End Loc.Y	Amplitude	Peak Speed	Peak Speed At	Average Speed	Peak Accel.	Peak Decel.	Average Accel.

Table Header for Blinks:
Event Type	Trial	Number	Start	End	Duration

Table Header for User Events:
Event Type	Trial	Number	Start	Description

UserEvent	1	1	23415911131	# Message: void.jpg
Saccade L	1	1	23415928185	23416007808	79623	423.30	1010.11	1537.82	145.36	19.37	427.41	0.25	243.32	10654.68	-9446.50	5206.64
Saccade R	1	1	23415928185	23416007808	79623	423.30	1010.11	1537.82	145.36	19.37	427.41	0.25	243.32	10654.68	-9446.50	5206.64
Fixation L	1	1	23416007808	23416226548	218740	1517.04	181.73	46	52	-1	12.13	12.13
Fixation R	1	1	23416007808	23416226548	218740	1517.04	181.73	46	52	-1	11.94	11.94
Saccade L	1	2	23416226548	23416246412	19864	1491.64	196.38	1487.71	206.92	0.27	25.29	1.00	13.47	457.74	29.10	238.58
Saccade R	1	2	23416226548	23416246412	19864	1491.64	196.38	1487.71	206.92	0.27	25.29	1.00	13.47	457.74	29.10	238.58
Fixation L	1	2	23416246412	23416445280	198868	1488.31	227.66	34	53	-1	12.52	12.52
Fixation R	1	2	23416246412	23416445280	198868	1488.31	227.66	34	53	-1	12.12	12.12
Saccade L	1	3	23416445280	23416524923	79643	1479.78	257.77	1029.43	438.98	6.15	165.80	0.75	77.20	2932.50	-3793.89	2176.01
Saccade R	1	3	23416445280	23416524923	79643	1479.78	257.77	1029.43	438.98	6.15	165.80	0.75	77.20	2932.50	-3793.89	2176.01
Fixation L	1	3	23416524923	23416723769	198846	1057.60	453.07	37	30	-1	13.40	13.40
Fixation R	1	3	23416524923	23416723769	198846	1057.60	453.07	37	30	-1	12.74	12.74
Saccade L	1	4	23416723769	23416743643	19874	1062.50	469.16	1061.69	515.43	0.35	46.82	1.00	17.78	1088.00	-923.59	707.91
Saccade R	1	4	23416723769	23416743643	19874	1062.50	469.16	1061.69	515.43	0.35	46.82	1.00	17.78	1088.00	-923.59	707.91
Fixation L	1	4	23416743643	23417439853	696210	1059.91	499.13	8	78	-1	14.62	14.62
Fixation R	1	4	23416743643	23417439853	696210	1059.91	499.13	8	78	-1	14.04	14.04
Saccade L	1	5	23417439853	23417459735	19882	1055.40	515.99	932.15	520.38	0.73	124.74	1.00	36.77	3068.00	-3087.14	2110.41
Saccade R	1	5	23417439853	23417459735	19882	1055.40	515.99	932.15	520.38	0.73	124.74	1.00	36.77	3068.00	-3087.14	2110.41
Fixation L	1	5	23417459735	23417897341	437606	908.49	531.46	32	18	-1	15.05	15.05
Fixation R	1	5	23417459735	23417897341	437606	908.49	531.46	32	18	-1	14.52	14.52
