[BeGaze]
Converted from:	C:\Documents and Settings\iViewX\Desktop\EXPERIMENTATIONS\Experiments\results\finaleart\S12H22222-finaleart-1.idf
Date:	27.03.2019 15:40:23
Version:	BeGaze 2.5.77
Sample Rate:	50
Subject:	S12H22222
Description:	aurele barriere

Table Header for Fixations:
Event Type	Trial	Number	Start	End	Duration	Location X	Location Y	Dispersion X	Dispersion Y	Plane	Avg. Pupil Size X	Avg. Pupil Size Y

Table Header for Saccades:
Event Type	Trial	Number	Start	End	Duration	Start Loc.X	Start Loc.Y	End Loc.X	End Loc.Y	Amplitude	Peak Speed	Peak Speed At	Average Speed	Peak Accel.	Peak Decel.	Average Accel.

Table Header for Blinks:
Event Type	Trial	Number	Start	End	Duration

Table Header for User Events:
Event Type	Trial	Number	Start	Description

UserEvent	1	1	23440354724	# Message: void.jpg
Saccade L	1	1	23440373113	23440432758	59645	1333.15	660.27	1517.62	863.52	3.65	189.93	1.00	61.20	4559.23	-4637.00	2823.43
Saccade R	1	1	23440373113	23440432758	59645	1333.15	660.27	1517.62	863.52	3.65	189.93	1.00	61.20	4559.23	-4637.00	2823.43
Fixation L	1	1	23440432758	23440810715	377957	1513.58	873.13	8	19	-1	13.91	13.91
Fixation R	1	1	23440432758	23440810715	377957	1513.58	873.13	8	19	-1	12.97	12.97
Saccade L	1	2	23440810715	23440890208	79493	1509.29	879.50	1089.11	520.44	6.92	225.69	0.25	87.08	5585.24	-2831.56	3244.27
Saccade R	1	2	23440810715	23440890208	79493	1509.29	879.50	1089.11	520.44	6.92	225.69	0.25	87.08	5585.24	-2831.56	3244.27
Fixation L	1	2	23440890208	23441506816	616608	1068.26	537.17	39	33	-1	14.25	14.25
Fixation R	1	2	23440890208	23441506816	616608	1068.26	537.17	39	33	-1	13.70	13.70
Blink L	1	1	23441506816	23441665930	159114
Blink R	1	1	23441506816	23441665930	159114
Fixation L	1	3	23441665930	23442242773	576843	977.47	472.98	19	66	-1	15.21	15.21
Fixation R	1	3	23441665930	23442242773	576843	977.47	472.98	19	66	-1	14.70	14.70
Saccade L	1	3	23442242773	23442262658	19885	974.86	447.72	977.45	433.54	0.15	14.58	1.00	7.75	90.29	-303.99	142.13
Saccade R	1	3	23442242773	23442262658	19885	974.86	447.72	977.45	433.54	0.15	14.58	1.00	7.75	90.29	-303.99	142.13
Fixation L	1	4	23442262658	23442362158	99500	979.52	428.40	5	9	-1	15.12	15.12
Fixation R	1	4	23442262658	23442362158	99500	979.52	428.40	5	9	-1	14.63	14.63
