[BeGaze]
Converted from:	C:\Documents and Settings\iViewX\Desktop\EXPERIMENTATIONS\Experiments\results\finaleart\S12H22222-finaleart-1.idf
Date:	27.03.2019 15:39:56
Version:	BeGaze 2.5.77
Sample Rate:	50
Subject:	S12H22222
Description:	aurele barriere

Table Header for Fixations:
Event Type	Trial	Number	Start	End	Duration	Location X	Location Y	Dispersion X	Dispersion Y	Plane	Avg. Pupil Size X	Avg. Pupil Size Y

Table Header for Saccades:
Event Type	Trial	Number	Start	End	Duration	Start Loc.X	Start Loc.Y	End Loc.X	End Loc.Y	Amplitude	Peak Speed	Peak Speed At	Average Speed	Peak Accel.	Peak Decel.	Average Accel.

Table Header for Blinks:
Event Type	Trial	Number	Start	End	Duration

Table Header for User Events:
Event Type	Trial	Number	Start	Description

UserEvent	1	1	22920495898	# Message: void.jpg
Fixation L	1	1	22920513852	22920633354	119502	654.93	917.87	73	25	-1	14.28	14.28
Fixation R	1	1	22920513852	22920633354	119502	654.93	917.87	73	25	-1	14.28	14.28
Saccade L	1	1	22920633354	22920653224	19870	594.10	898.07	607.57	891.58	0.58	72.67	0.00	29.33	215.97	-1240.76	573.21
Saccade R	1	1	22920633354	22920653224	19870	594.10	898.07	607.57	891.58	0.58	72.67	0.00	29.33	215.97	-1240.76	573.21
Fixation L	1	2	22920653224	22921031075	377851	580.38	862.05	34	37	-1	14.30	14.30
Fixation R	1	2	22920653224	22921031075	377851	580.38	862.05	34	37	-1	14.15	14.15
Saccade L	1	2	22921031075	22921150322	119247	579.60	860.53	813.09	520.72	6.64	108.73	0.33	55.67	2667.45	-2396.26	1311.55
Saccade R	1	2	22921031075	22921150322	119247	579.60	860.53	813.09	520.72	6.64	108.73	0.33	55.67	2667.45	-2396.26	1311.55
Fixation L	1	3	22921150322	22921568047	417725	830.52	549.09	23	43	-1	14.42	14.42
Fixation R	1	3	22921150322	22921568047	417725	830.52	549.09	23	43	-1	14.64	14.64
Saccade L	1	3	22921568047	22921607809	39762	824.70	563.83	980.36	490.63	2.07	122.51	0.50	52.09	3032.40	-1938.89	2165.99
Saccade R	1	3	22921568047	22921607809	39762	824.70	563.83	980.36	490.63	2.07	122.51	0.50	52.09	3032.40	-1938.89	2165.99
Fixation L	1	4	22921607809	22922085151	477342	981.27	506.18	12	52	-1	15.17	15.17
Fixation R	1	4	22921607809	22922085151	477342	981.27	506.18	12	52	-1	15.14	15.14
Saccade L	1	4	22922085151	22922105038	19887	977.54	503.79	932.10	506.83	0.28	46.07	1.00	14.01	1109.94	-647.94	609.97
Saccade R	1	4	22922085151	22922105038	19887	977.54	503.79	932.10	506.83	0.28	46.07	1.00	14.01	1109.94	-647.94	609.97
Fixation L	1	5	22922105038	22922483016	377978	908.46	527.35	29	32	-1	14.69	14.69
Fixation R	1	5	22922105038	22922483016	377978	908.46	527.35	29	32	-1	15.02	15.02
