[BeGaze]
Converted from:	C:\Documents and Settings\iViewX\Desktop\EXPERIMENTATIONS\Experiments\results\finaleart\S12H22222-finaleart-1.idf
Date:	27.03.2019 15:40:59
Version:	BeGaze 2.5.77
Sample Rate:	50
Subject:	S12H22222
Description:	aurele barriere

Table Header for Fixations:
Event Type	Trial	Number	Start	End	Duration	Location X	Location Y	Dispersion X	Dispersion Y	Plane	Avg. Pupil Size X	Avg. Pupil Size Y

Table Header for Saccades:
Event Type	Trial	Number	Start	End	Duration	Start Loc.X	Start Loc.Y	End Loc.X	End Loc.Y	Amplitude	Peak Speed	Peak Speed At	Average Speed	Peak Accel.	Peak Decel.	Average Accel.

Table Header for Blinks:
Event Type	Trial	Number	Start	End	Duration

Table Header for User Events:
Event Type	Trial	Number	Start	Description

UserEvent	1	1	24121890907	# Message: Naked_man_reversed_on_the_ground_Gericault_1817.jpg
Fixation L	1	1	24121905230	24123078676	1173446	1021.08	506.13	22	63	-1	12.81	12.81
Fixation R	1	1	24121905230	24123078676	1173446	1021.08	506.13	22	63	-1	12.05	12.05
Saccade L	1	1	24123078676	24123098553	19877	1031.03	467.43	1068.21	441.64	0.46	45.77	1.00	23.20	1093.79	-658.87	864.06
Saccade R	1	1	24123078676	24123098553	19877	1031.03	467.43	1068.21	441.64	0.46	45.77	1.00	23.20	1093.79	-658.87	864.06
Fixation L	1	2	24123098553	24123357163	258610	1080.37	419.57	20	38	-1	12.96	12.96
Fixation R	1	2	24123098553	24123357163	258610	1080.37	419.57	20	38	-1	12.09	12.09
Saccade L	1	2	24123357163	24123416792	59629	1078.80	424.56	636.80	270.61	5.46	282.25	0.67	91.64	6867.35	-6704.98	4451.11
Saccade R	1	2	24123357163	24123416792	59629	1078.80	424.56	636.80	270.61	5.46	282.25	0.67	91.64	6867.35	-6704.98	4451.11
Fixation L	1	3	24123416792	24123635668	218876	653.53	273.11	21	23	-1	13.47	13.47
Fixation R	1	3	24123416792	24123635668	218876	653.53	273.11	21	23	-1	12.59	12.59
Saccade L	1	3	24123635668	24123655524	19856	657.69	290.99	570.23	262.90	0.73	92.92	1.00	36.91	2234.14	-1510.13	1459.85
Saccade R	1	3	24123635668	24123655524	19856	657.69	290.99	570.23	262.90	0.73	92.92	1.00	36.91	2234.14	-1510.13	1459.85
Fixation L	1	4	24123655524	24123953892	298368	552.94	225.88	25	68	-1	13.72	13.72
Fixation R	1	4	24123655524	24123953892	298368	552.94	225.88	25	68	-1	13.17	13.17
Saccade L	1	4	24123953892	24123973763	19871	568.92	266.91	521.95	192.73	0.61	88.81	1.00	30.92	2087.50	-2070.71	1420.52
Saccade R	1	4	24123953892	24123973763	19871	568.92	266.91	521.95	192.73	0.61	88.81	1.00	30.92	2087.50	-2070.71	1420.52
Fixation L	1	5	24123973763	24124391518	417755	514.78	182.64	23	40	-1	13.69	13.69
Fixation R	1	5	24123973763	24124391518	417755	514.78	182.64	23	40	-1	12.94	12.94
Saccade L	1	5	24124391518	24124451117	59599	517.68	178.57	722.03	722.16	6.49	262.23	1.00	108.85	5150.46	-6427.45	4544.00
Saccade R	1	5	24124391518	24124451117	59599	517.68	178.57	722.03	722.16	6.49	262.23	1.00	108.85	5150.46	-6427.45	4544.00
Fixation L	1	6	24124451117	24124868845	417728	698.25	686.12	34	64	-1	13.88	13.88
Fixation R	1	6	24124451117	24124868845	417728	698.25	686.12	34	64	-1	13.42	13.42
Saccade L	1	6	24124868845	24124908595	39750	690.36	671.24	1103.73	651.49	3.49	297.12	0.50	87.84	7292.49	-7381.66	5072.51
Saccade R	1	6	24124868845	24124908595	39750	690.36	671.24	1103.73	651.49	3.49	297.12	0.50	87.84	7292.49	-7381.66	5072.51
Fixation L	1	7	24124908595	24125147215	238620	1104.79	648.66	14	15	-1	13.79	13.79
Fixation R	1	7	24124908595	24125147215	238620	1104.79	648.66	14	15	-1	13.06	13.06
Saccade L	1	7	24125147215	24125167082	19867	1112.10	639.40	1193.06	627.53	0.80	82.77	1.00	40.06	2009.16	-1570.19	1585.69
Saccade R	1	7	24125147215	24125167082	19867	1112.10	639.40	1193.06	627.53	0.80	82.77	1.00	40.06	2009.16	-1570.19	1585.69
Fixation L	1	8	24125167082	24125286454	119372	1251.31	634.79	71	23	-1	13.52	13.52
Fixation R	1	8	24125167082	24125286454	119372	1251.31	634.79	71	23	-1	12.65	12.65
Saccade L	1	8	24125286454	24125306474	20020	1264.41	628.39	1266.92	623.18	0.08	7.96	0.00	4.16	112.99	-161.77	105.92
Saccade R	1	8	24125286454	24125306474	20020	1264.41	628.39	1266.92	623.18	0.08	7.96	0.00	4.16	112.99	-161.77	105.92
Fixation L	1	9	24125306474	24125803714	497240	1309.04	629.10	72	23	-1	13.26	13.26
Fixation R	1	9	24125306474	24125803714	497240	1309.04	629.10	72	23	-1	12.44	12.44
Saccade L	1	9	24125803714	24125883181	79467	1292.23	616.77	1159.70	429.90	4.37	150.18	0.25	55.05	3450.83	-3597.73	1917.30
Saccade R	1	9	24125803714	24125883181	79467	1292.23	616.77	1159.70	429.90	4.37	150.18	0.25	55.05	3450.83	-3597.73	1917.30
