[BeGaze]
Converted from:	C:\Documents and Settings\iViewX\Desktop\EXPERIMENTATIONS\Experiments\results\finaleart\S12H22222-finaleart-1.idf
Date:	27.03.2019 15:40:53
Version:	BeGaze 2.5.77
Sample Rate:	50
Subject:	S12H22222
Description:	aurele barriere

Table Header for Fixations:
Event Type	Trial	Number	Start	End	Duration	Location X	Location Y	Dispersion X	Dispersion Y	Plane	Avg. Pupil Size X	Avg. Pupil Size Y

Table Header for Saccades:
Event Type	Trial	Number	Start	End	Duration	Start Loc.X	Start Loc.Y	End Loc.X	End Loc.Y	Amplitude	Peak Speed	Peak Speed At	Average Speed	Peak Accel.	Peak Decel.	Average Accel.

Table Header for Blinks:
Event Type	Trial	Number	Start	End	Duration

Table Header for User Events:
Event Type	Trial	Number	Start	Description

UserEvent	1	1	23883691149	# Message: void.jpg
Fixation L	1	1	23883704844	23884003072	298228	370.52	664.11	12	5	-1	14.92	14.92
Fixation R	1	1	23883704844	23884003072	298228	370.52	664.11	12	5	-1	14.21	14.21
Saccade L	1	1	23884003072	23884023069	19997	371.52	663.77	438.25	573.61	0.65	113.45	1.00	32.43	2820.61	-2167.26	1750.67
Saccade R	1	1	23884003072	23884023069	19997	371.52	663.77	438.25	573.61	0.65	113.45	1.00	32.43	2820.61	-2167.26	1750.67
Fixation L	1	2	23884023069	23884202061	178992	448.77	590.91	25	33	-1	15.24	15.24
Fixation R	1	2	23884023069	23884202061	178992	448.77	590.91	25	33	-1	14.74	14.74
Saccade L	1	2	23884202061	23884361206	159145	457.98	590.75	994.64	361.50	11.87	126.44	0.12	74.60	3091.88	-2475.09	1157.28
Saccade R	1	2	23884202061	23884361206	159145	457.98	590.75	994.64	361.50	11.87	126.44	0.12	74.60	3091.88	-2475.09	1157.28
Fixation L	1	3	23884361206	23884659429	298223	1019.86	392.87	36	51	-1	14.41	14.41
Fixation R	1	3	23884361206	23884659429	298223	1019.86	392.87	36	51	-1	14.06	14.06
Saccade L	1	3	23884659429	23884679417	19988	1027.46	413.45	1021.49	426.41	0.26	22.09	1.00	12.80	313.81	-123.83	223.28
Saccade R	1	3	23884659429	23884679417	19988	1027.46	413.45	1021.49	426.41	0.26	22.09	1.00	12.80	313.81	-123.83	223.28
Fixation L	1	4	23884679417	23885673873	994456	1009.98	464.68	27	53	-1	14.80	14.80
Fixation R	1	4	23884679417	23885673873	994456	1009.98	464.68	27	53	-1	14.21	14.21
