[BeGaze]
Converted from:	C:\Documents and Settings\iViewX\Desktop\EXPERIMENTATIONS\Experiments\results\finaleart\S12H22222-finaleart-1.idf
Date:	27.03.2019 15:39:53
Version:	BeGaze 2.5.77
Sample Rate:	50
Subject:	S12H22222
Description:	aurele barriere

Table Header for Fixations:
Event Type	Trial	Number	Start	End	Duration	Location X	Location Y	Dispersion X	Dispersion Y	Plane	Avg. Pupil Size X	Avg. Pupil Size Y

Table Header for Saccades:
Event Type	Trial	Number	Start	End	Duration	Start Loc.X	Start Loc.Y	End Loc.X	End Loc.Y	Amplitude	Peak Speed	Peak Speed At	Average Speed	Peak Accel.	Peak Decel.	Average Accel.

Table Header for Blinks:
Event Type	Trial	Number	Start	End	Duration

Table Header for User Events:
Event Type	Trial	Number	Start	Description

UserEvent	1	1	22879765931	# Message: Georges-braque-still-life-with-jugs-and-pipe-1906.jpg
Fixation L	1	1	22879778881	22880455219	676338	902.29	500.13	37	48	-1	17.12	17.12
Fixation R	1	1	22879778881	22880455219	676338	902.29	500.13	37	48	-1	16.53	16.53
Saccade L	1	1	22880455219	22880494965	39746	912.66	524.40	724.01	437.80	2.13	165.25	0.50	53.68	4009.53	-3811.71	2840.50
Saccade R	1	1	22880455219	22880494965	39746	912.66	524.40	724.01	437.80	2.13	165.25	0.50	53.68	4009.53	-3811.71	2840.50
Fixation L	1	2	22880494965	22881051937	556972	710.16	437.26	32	26	-1	12.81	12.81
Fixation R	1	2	22880494965	22881051937	556972	710.16	437.26	32	26	-1	12.45	12.45
Saccade L	1	2	22881051937	22881091688	39751	734.67	455.69	1180.69	784.32	5.15	336.53	0.50	129.61	8323.45	-7194.85	6361.79
Saccade R	1	2	22881051937	22881091688	39751	734.67	455.69	1180.69	784.32	5.15	336.53	0.50	129.61	8323.45	-7194.85	6361.79
Fixation L	1	3	22881091688	22881230934	139246	1210.58	812.88	40	41	-1	13.30	13.30
Fixation R	1	3	22881091688	22881230934	139246	1210.58	812.88	40	41	-1	12.75	12.75
Saccade L	1	3	22881230934	22881290556	59622	1218.27	816.94	874.77	376.44	6.32	256.16	0.33	106.06	6294.57	-4430.47	4355.06
Saccade R	1	3	22881230934	22881290556	59622	1218.27	816.94	874.77	376.44	6.32	256.16	0.33	106.06	6294.57	-4430.47	4355.06
Fixation L	1	4	22881290556	22881489424	198868	870.30	415.82	10	51	-1	13.65	13.65
Fixation R	1	4	22881290556	22881489424	198868	870.30	415.82	10	51	-1	13.18	13.18
Saccade L	1	4	22881489424	22881509416	19992	865.45	423.27	735.23	269.45	1.19	203.79	1.00	59.61	5041.33	-4956.66	3571.17
Saccade R	1	4	22881489424	22881509416	19992	865.45	423.27	735.23	269.45	1.19	203.79	1.00	59.61	5041.33	-4956.66	3571.17
Fixation L	1	5	22881509416	22881688410	178994	713.85	247.90	28	31	-1	13.51	13.51
Fixation R	1	5	22881509416	22881688410	178994	713.85	247.90	28	31	-1	13.13	13.13
Saccade L	1	5	22881688410	22881728159	39749	729.33	249.25	1154.98	996.73	7.42	533.61	0.50	186.63	13271.03	-12451.71	10339.11
Saccade R	1	5	22881688410	22881728159	39749	729.33	249.25	1154.98	996.73	7.42	533.61	0.50	186.63	13271.03	-12451.71	10339.11
Fixation L	1	6	22881728159	22882026522	298363	1211.17	1011.73	69	29	-1	14.51	14.51
Fixation R	1	6	22881728159	22882026522	298363	1211.17	1011.73	69	29	-1	13.94	13.94
Saccade L	1	6	22882026522	22882046399	19877	1222.16	1026.67	1219.93	1031.47	0.09	5.54	1.00	4.31	-4.87	-103.16	59.93
Saccade R	1	6	22882026522	22882046399	19877	1222.16	1026.67	1219.93	1031.47	0.09	5.54	1.00	4.31	-4.87	-103.16	59.93
Fixation L	1	7	22882046399	22882464145	417746	1231.58	1032.82	38	9	-1	13.91	13.91
Fixation R	1	7	22882046399	22882464145	417746	1231.58	1032.82	38	9	-1	13.23	13.23
Saccade L	1	7	22882464145	22882563495	99350	1256.45	1032.73	1235.42	449.86	8.37	290.03	0.40	84.29	7210.25	-6358.05	3664.00
Saccade R	1	7	22882464145	22882563495	99350	1256.45	1032.73	1235.42	449.86	8.37	290.03	0.40	84.29	7210.25	-6358.05	3664.00
Fixation L	1	8	22882563495	22882782362	218867	1236.00	385.52	11	86	-1	13.40	13.40
Fixation R	1	8	22882563495	22882782362	218867	1236.00	385.52	11	86	-1	12.78	12.78
Saccade L	1	8	22882782362	22882822123	39761	1237.07	373.55	942.13	363.22	2.69	158.27	1.00	67.60	3830.57	-3371.01	3351.73
Saccade R	1	8	22882782362	22882822123	39761	1237.07	373.55	942.13	363.22	2.69	158.27	1.00	67.60	3830.57	-3371.01	3351.73
Fixation L	1	9	22882822123	22883677326	855203	913.67	337.01	37	61	-1	14.59	14.59
Fixation R	1	9	22882822123	22883677326	855203	913.67	337.01	37	61	-1	13.88	13.88
Saccade L	1	9	22883677326	22883756947	79621	918.00	370.10	919.99	378.80	0.22	4.08	1.00	2.78	0.00	-28.50	16.17
Saccade R	1	9	22883677326	22883756947	79621	918.00	370.10	919.99	378.80	0.22	4.08	1.00	2.78	0.00	-28.50	16.17
