[BeGaze]
Converted from:	C:\Documents and Settings\iViewX\Desktop\EXPERIMENTATIONS\Experiments\results\finaleart\S12H22222-finaleart-1.idf
Date:	27.03.2019 15:39:58
Version:	BeGaze 2.5.77
Sample Rate:	50
Subject:	S12H22222
Description:	aurele barriere

Table Header for Fixations:
Event Type	Trial	Number	Start	End	Duration	Location X	Location Y	Dispersion X	Dispersion Y	Plane	Avg. Pupil Size X	Avg. Pupil Size Y

Table Header for Saccades:
Event Type	Trial	Number	Start	End	Duration	Start Loc.X	Start Loc.Y	End Loc.X	End Loc.Y	Amplitude	Peak Speed	Peak Speed At	Average Speed	Peak Accel.	Peak Decel.	Average Accel.

Table Header for Blinks:
Event Type	Trial	Number	Start	End	Duration

Table Header for User Events:
Event Type	Trial	Number	Start	Description

UserEvent	1	1	22940886270	# Message: ronde_cross_1905.jpg
Fixation L	1	1	22940901223	22941318971	417748	935.80	534.44	10	16	-1	15.58	15.58
Fixation R	1	1	22940901223	22941318971	417748	935.80	534.44	10	16	-1	15.31	15.31
Saccade L	1	1	22941318971	22941338824	19853	928.26	543.35	838.58	545.90	0.60	90.75	1.00	30.10	2250.33	-2188.26	1660.35
Saccade R	1	1	22941318971	22941338824	19853	928.26	543.35	838.58	545.90	0.60	90.75	1.00	30.10	2250.33	-2188.26	1660.35
Fixation L	1	2	22941338824	22941537679	198855	814.21	537.98	31	17	-1	15.13	15.13
Fixation R	1	2	22941338824	22941537679	198855	814.21	537.98	31	17	-1	14.98	14.98
Saccade L	1	2	22941537679	22941557555	19876	807.47	528.57	801.17	667.28	1.06	140.43	1.00	53.29	3463.93	-3403.78	2795.37
Saccade R	1	2	22941537679	22941557555	19876	807.47	528.57	801.17	667.28	1.06	140.43	1.00	53.29	3463.93	-3403.78	2795.37
Fixation L	1	3	22941557555	22942074786	517231	797.01	718.04	10	85	-1	12.95	12.95
Fixation R	1	3	22941557555	22942074786	517231	797.01	718.04	10	85	-1	13.25	13.25
Saccade L	1	3	22942074786	22942114535	39749	793.43	695.03	1279.71	617.72	4.16	257.20	0.50	104.70	6407.53	-5965.09	6065.51
Saccade R	1	3	22942074786	22942114535	39749	793.43	695.03	1279.71	617.72	4.16	257.20	0.50	104.70	6407.53	-5965.09	6065.51
Fixation L	1	4	22942114535	22942353271	238736	1254.00	627.31	32	40	-1	12.79	12.79
Fixation R	1	4	22942114535	22942353271	238736	1254.00	627.31	32	40	-1	13.21	13.21
Saccade L	1	4	22942353271	22942393027	39756	1249.40	630.87	1159.30	587.61	0.98	66.25	1.00	24.63	1610.87	-1362.37	1068.04
Saccade R	1	4	22942353271	22942393027	39756	1249.40	630.87	1159.30	587.61	0.98	66.25	1.00	24.63	1610.87	-1362.37	1068.04
Fixation L	1	5	22942393027	22942810627	417600	1161.43	579.99	31	67	-1	13.52	13.52
Fixation R	1	5	22942393027	22942810627	417600	1161.43	579.99	31	67	-1	13.50	13.50
Saccade L	1	5	22942810627	22942830628	20001	1181.52	630.43	1188.57	641.48	0.47	53.33	0.00	23.35	-142.23	-1136.97	504.23
Saccade R	1	5	22942810627	22942830628	20001	1181.52	630.43	1188.57	641.48	0.47	53.33	0.00	23.35	-142.23	-1136.97	504.23
Fixation L	1	6	22942830628	22942969740	139112	1201.58	645.63	20	8	-1	14.08	14.08
Fixation R	1	6	22942830628	22942969740	139112	1201.58	645.63	20	8	-1	13.72	13.72
Saccade L	1	6	22942969740	22943009618	39878	1204.01	648.60	1315.23	499.56	1.90	113.41	0.50	47.77	2755.60	-2695.41	2702.09
Saccade R	1	6	22942969740	22943009618	39878	1204.01	648.60	1315.23	499.56	1.90	113.41	0.50	47.77	2755.60	-2695.41	2702.09
Fixation L	1	7	22943009618	22943347723	338105	1319.71	496.26	9	19	-1	13.99	13.99
Fixation R	1	7	22943009618	22943347723	338105	1319.71	496.26	9	19	-1	13.83	13.83
Saccade L	1	7	22943347723	22943367607	19884	1317.23	489.80	1184.79	358.69	1.19	188.46	1.00	59.61	4676.35	-4571.65	3353.95
Saccade R	1	7	22943347723	22943367607	19884	1317.23	489.80	1184.79	358.69	1.19	188.46	1.00	59.61	4676.35	-4571.65	3353.95
Fixation L	1	8	22943367607	22943566470	198863	1165.57	335.98	23	35	-1	14.04	14.04
Fixation R	1	8	22943367607	22943566470	198863	1165.57	335.98	23	35	-1	13.74	13.74
Saccade L	1	8	22943566470	22943606349	39879	1161.65	334.50	1024.12	109.80	2.30	174.87	0.50	57.74	4233.24	-4118.55	3185.68
Saccade R	1	8	22943566470	22943606349	39879	1161.65	334.50	1024.12	109.80	2.30	174.87	0.50	57.74	4233.24	-4118.55	3185.68
Fixation L	1	9	22943606349	22943864831	258482	1028.42	96.67	10	20	-1	14.18	14.18
Fixation R	1	9	22943606349	22943864831	258482	1028.42	96.67	10	20	-1	13.71	13.71
Saccade L	1	9	22943864831	22943924582	59751	1028.46	108.13	478.05	595.48	7.66	427.09	0.67	128.23	10492.07	-10492.86	6445.03
Saccade R	1	9	22943864831	22943924582	59751	1028.46	108.13	478.05	595.48	7.66	427.09	0.67	128.23	10492.07	-10492.86	6445.03
Fixation L	1	10	22943924582	22944521182	596600	476.48	599.01	23	31	-1	14.37	14.37
Fixation R	1	10	22943924582	22944521182	596600	476.48	599.01	23	31	-1	14.07	14.07
Saccade L	1	10	22944521182	22944561052	39870	463.53	583.21	526.58	682.97	1.43	86.87	0.50	35.81	2154.64	-1179.27	1371.57
Saccade R	1	10	22944521182	22944561052	39870	463.53	583.21	526.58	682.97	1.43	86.87	0.50	35.81	2154.64	-1179.27	1371.57
Fixation L	1	11	22944561052	22944819553	258501	540.87	706.47	20	34	-1	13.96	13.96
Fixation R	1	11	22944561052	22944819553	258501	540.87	706.47	20	34	-1	14.22	14.22
Saccade L	1	11	22944819553	22944879290	59737	540.66	704.49	798.87	529.04	4.41	220.16	0.33	73.81	5335.11	-4952.95	3273.83
Saccade R	1	11	22944819553	22944879290	59737	540.66	704.49	798.87	529.04	4.41	220.16	0.33	73.81	5335.11	-4952.95	3273.83
