[BeGaze]
Converted from:	C:\Documents and Settings\iViewX\Desktop\EXPERIMENTATIONS\Experiments\results\finaleart\S12H22222-finaleart-1.idf
Date:	27.03.2019 15:39:55
Version:	BeGaze 2.5.77
Sample Rate:	50
Subject:	S12H22222
Description:	aurele barriere

Table Header for Fixations:
Event Type	Trial	Number	Start	End	Duration	Location X	Location Y	Dispersion X	Dispersion Y	Plane	Avg. Pupil Size X	Avg. Pupil Size Y

Table Header for Saccades:
Event Type	Trial	Number	Start	End	Duration	Start Loc.X	Start Loc.Y	End Loc.X	End Loc.Y	Amplitude	Peak Speed	Peak Speed At	Average Speed	Peak Accel.	Peak Decel.	Average Accel.

Table Header for Blinks:
Event Type	Trial	Number	Start	End	Duration

Table Header for User Events:
Event Type	Trial	Number	Start	Description

UserEvent	1	1	22898078111	# Message: cows_at_a_pond_Bilders_1856.jpg
Fixation L	1	1	22898097706	22898495583	397877	906.30	523.04	5	49	-1	16.54	16.54
Fixation R	1	1	22898097706	22898495583	397877	906.30	523.04	5	49	-1	15.94	15.94
Saccade L	1	1	22898495583	22898535311	39728	906.72	553.30	947.33	713.40	1.75	113.79	0.50	43.93	2701.75	-1937.73	1843.78
Saccade R	1	1	22898495583	22898535311	39728	906.72	553.30	947.33	713.40	1.75	113.79	0.50	43.93	2701.75	-1937.73	1843.78
Fixation L	1	2	22898535311	22898674549	139238	979.92	712.48	40	11	-1	16.42	16.42
Fixation R	1	2	22898535311	22898674549	139238	979.92	712.48	40	11	-1	15.74	15.74
Saccade L	1	2	22898674549	22898694436	19887	987.90	715.81	831.65	707.18	1.01	158.27	1.00	50.82	3883.99	-3586.53	2754.00
Saccade R	1	2	22898674549	22898694436	19887	987.90	715.81	831.65	707.18	1.01	158.27	1.00	50.82	3883.99	-3586.53	2754.00
Fixation L	1	3	22898694436	22898813797	119361	801.58	679.85	36	49	-1	14.51	14.51
Fixation R	1	3	22898694436	22898813797	119361	801.58	679.85	36	49	-1	14.06	14.06
Saccade L	1	3	22898813797	22898833667	19870	794.70	657.38	791.83	644.88	0.13	12.97	1.00	6.42	76.04	-227.48	102.82
Saccade R	1	3	22898813797	22898833667	19870	794.70	657.38	791.83	644.88	0.13	12.97	1.00	6.42	76.04	-227.48	102.82
Fixation L	1	4	22898833667	22899211526	377859	746.96	651.50	77	19	-1	13.76	13.76
Fixation R	1	4	22898833667	22899211526	377859	746.96	651.50	77	19	-1	13.56	13.56
Saccade L	1	4	22899211526	22899231521	19995	719.24	659.73	719.98	664.57	0.11	8.63	0.00	5.31	54.10	-93.96	73.09
Saccade R	1	4	22899211526	22899231521	19995	719.24	659.73	719.98	664.57	0.11	8.63	0.00	5.31	54.10	-93.96	73.09
Fixation L	1	5	22899231521	22899529761	298240	723.85	662.05	5	6	-1	14.05	14.05
Fixation R	1	5	22899231521	22899529761	298240	723.85	662.05	5	6	-1	14.35	14.35
Saccade L	1	5	22899529761	22899549757	19996	724.74	665.24	828.41	660.27	0.56	104.98	1.00	27.98	2597.36	-2600.06	1772.09
Saccade R	1	5	22899529761	22899549757	19996	724.74	665.24	828.41	660.27	0.56	104.98	1.00	27.98	2597.36	-2600.06	1772.09
Fixation L	1	6	22899549757	22899768496	218739	828.91	663.77	4	5	-1	14.27	14.27
Fixation R	1	6	22899549757	22899768496	218739	828.91	663.77	4	5	-1	14.47	14.47
Saccade L	1	6	22899768496	22899808262	39766	830.76	662.79	1247.63	673.75	3.46	217.85	0.50	86.95	5433.02	-5163.51	5122.31
Saccade R	1	6	22899768496	22899808262	39766	830.76	662.79	1247.63	673.75	3.46	217.85	0.50	86.95	5433.02	-5163.51	5122.31
Fixation L	1	7	22899808262	22899967367	159105	1267.29	675.84	33	13	-1	14.29	14.29
Fixation R	1	7	22899808262	22899967367	159105	1267.29	675.84	33	13	-1	14.47	14.47
Saccade L	1	7	22899967367	22900007245	39878	1281.01	679.95	1757.89	460.10	4.65	357.24	1.00	116.60	8822.71	-8495.21	6440.27
Saccade R	1	7	22899967367	22900007245	39878	1281.01	679.95	1757.89	460.10	4.65	357.24	1.00	116.60	8822.71	-8495.21	6440.27
Fixation L	1	8	22900007245	22900106621	99376	1725.09	472.36	43	51	-1	14.53	14.53
Fixation R	1	8	22900007245	22900106621	99376	1725.09	472.36	43	51	-1	14.11	14.11
Saccade L	1	8	22900106621	22900126486	19865	1716.38	505.15	1705.83	536.01	0.39	32.99	1.00	19.88	493.63	-762.00	526.80
Saccade R	1	8	22900106621	22900126486	19865	1716.38	505.15	1705.83	536.01	0.39	32.99	1.00	19.88	493.63	-762.00	526.80
Fixation L	1	9	22900126486	22900404973	278487	1690.66	539.72	29	24	-1	14.20	14.20
Fixation R	1	9	22900126486	22900404973	278487	1690.66	539.72	29	24	-1	13.85	13.85
Saccade L	1	9	22900404973	22900484599	79626	1676.60	550.19	391.49	435.10	15.45	407.35	0.25	194.05	10133.12	-7440.74	6141.96
Saccade R	1	9	22900404973	22900484599	79626	1676.60	550.19	391.49	435.10	15.45	407.35	0.25	194.05	10133.12	-7440.74	6141.96
Fixation L	1	10	22900484599	22900902201	417602	355.17	401.00	45	49	-1	14.10	14.10
Fixation R	1	10	22900484599	22900902201	417602	355.17	401.00	45	49	-1	13.67	13.67
Saccade L	1	10	22900902201	22900922076	19875	348.94	410.60	314.70	408.48	0.24	34.70	1.00	11.99	817.05	-367.44	449.51
Saccade R	1	10	22900902201	22900922076	19875	348.94	410.60	314.70	408.48	0.24	34.70	1.00	11.99	817.05	-367.44	449.51
Fixation L	1	11	22900922076	22901339812	417736	293.25	399.67	29	22	-1	13.87	13.87
Fixation R	1	11	22900922076	22901339812	417736	293.25	399.67	29	22	-1	13.62	13.62
Saccade L	1	11	22901339812	22901379548	39736	301.08	389.72	371.34	825.18	3.82	348.63	1.00	96.02	8385.34	-8397.32	5341.86
Saccade R	1	11	22901339812	22901379548	39736	301.08	389.72	371.34	825.18	3.82	348.63	1.00	96.02	8385.34	-8397.32	5341.86
Fixation L	1	12	22901379548	22901697792	318244	360.17	844.78	17	26	-1	14.51	14.51
Fixation R	1	12	22901379548	22901697792	318244	360.17	844.78	17	26	-1	14.49	14.49
Saccade L	1	12	22901697792	22901757536	59744	367.09	844.20	1195.94	767.01	8.81	378.12	0.34	147.52	9376.96	-7634.23	6818.18
Saccade R	1	12	22901697792	22901757536	59744	367.09	844.20	1195.94	767.01	8.81	378.12	0.34	147.52	9376.96	-7634.23	6818.18
Fixation L	1	13	22901757536	22901916658	159122	1195.15	763.35	9	22	-1	14.69	14.69
Fixation R	1	13	22901757536	22901916658	159122	1195.15	763.35	9	22	-1	14.45	14.45
Saccade L	1	13	22901916658	22901936552	19894	1192.92	772.41	1050.92	735.98	0.89	148.27	1.00	44.94	3655.88	-3454.23	2560.94
Saccade R	1	13	22901916658	22901936552	19894	1192.92	772.41	1050.92	735.98	0.89	148.27	1.00	44.94	3655.88	-3454.23	2560.94
Fixation L	1	14	22901936552	22902075773	139221	1031.51	714.10	29	33	-1	15.14	15.14
Fixation R	1	14	22901936552	22902075773	139221	1031.51	714.10	29	33	-1	14.69	14.69
