[BeGaze]
Converted from:	C:\Documents and Settings\iViewX\Desktop\EXPERIMENTATIONS\Experiments\results\finaleart\S12H22222-finaleart-1.idf
Date:	27.03.2019 15:40:35
Version:	BeGaze 2.5.77
Sample Rate:	50
Subject:	S12H22222
Description:	aurele barriere

Table Header for Fixations:
Event Type	Trial	Number	Start	End	Duration	Location X	Location Y	Dispersion X	Dispersion Y	Plane	Avg. Pupil Size X	Avg. Pupil Size Y

Table Header for Saccades:
Event Type	Trial	Number	Start	End	Duration	Start Loc.X	Start Loc.Y	End Loc.X	End Loc.Y	Amplitude	Peak Speed	Peak Speed At	Average Speed	Peak Accel.	Peak Decel.	Average Accel.

Table Header for Blinks:
Event Type	Trial	Number	Start	End	Duration

Table Header for User Events:
Event Type	Trial	Number	Start	Description

UserEvent	1	1	23646128899	# Message: Nature_Morte_Au_Citron_Matisse_1917.jpg
Fixation L	1	1	23646136299	23646573904	437605	980.34	555.16	12	31	-1	13.91	13.91
Fixation R	1	1	23646136299	23646573904	437605	980.34	555.16	12	31	-1	13.15	13.15
Saccade L	1	1	23646573904	23646613647	39743	974.57	564.14	770.74	558.58	1.70	121.31	1.00	42.87	2980.40	-2646.22	2438.09
Saccade R	1	1	23646573904	23646613647	39743	974.57	564.14	770.74	558.58	1.70	121.31	1.00	42.87	2980.40	-2646.22	2438.09
Fixation L	1	2	23646613647	23647210367	596720	742.12	549.64	70	16	-1	12.80	12.80
Fixation R	1	2	23646613647	23647210367	596720	742.12	549.64	70	16	-1	12.83	12.83
Saccade L	1	2	23647210367	23647250115	39748	705.93	547.07	704.99	749.67	1.88	109.60	1.00	47.36	2607.07	-2663.50	2355.33
Saccade R	1	2	23647210367	23647250115	39748	705.93	547.07	704.99	749.67	1.88	109.60	1.00	47.36	2607.07	-2663.50	2355.33
Fixation L	1	3	23647250115	23647409230	159115	701.33	732.00	15	24	-1	12.76	12.76
Fixation R	1	3	23647250115	23647409230	159115	701.33	732.00	15	24	-1	13.48	13.48
Saccade L	1	3	23647409230	23647448982	39752	691.90	728.67	1166.68	707.73	4.04	285.00	0.50	101.63	6992.49	-6690.56	5720.68
Saccade R	1	3	23647409230	23647448982	39752	691.90	728.67	1166.68	707.73	4.04	285.00	0.50	101.63	6992.49	-6690.56	5720.68
Fixation L	1	4	23647448982	23647807090	358108	1193.86	706.32	40	21	-1	13.47	13.47
Fixation R	1	4	23647448982	23647807090	358108	1193.86	706.32	40	21	-1	13.43	13.43
Saccade L	1	4	23647807090	23647826969	19879	1161.24	699.16	1128.03	599.07	0.81	106.67	1.00	40.66	2480.34	-2416.91	1860.67
Saccade R	1	4	23647807090	23647826969	19879	1161.24	699.16	1128.03	599.07	0.81	106.67	1.00	40.66	2480.34	-2416.91	1860.67
Fixation L	1	5	23647826969	23648304317	477348	1131.20	580.93	19	25	-1	13.33	13.33
Fixation R	1	5	23647826969	23648304317	477348	1131.20	580.93	19	25	-1	13.24	13.24
Saccade L	1	5	23648304317	23648324202	19885	1121.42	573.33	1021.83	482.60	0.84	136.26	1.00	42.31	3377.81	-3253.50	2345.57
Saccade R	1	5	23648304317	23648324202	19885	1121.42	573.33	1021.83	482.60	0.84	136.26	1.00	42.31	3377.81	-3253.50	2345.57
Fixation L	1	6	23648324202	23648602682	278480	1002.19	463.64	25	22	-1	13.64	13.64
Fixation R	1	6	23648324202	23648602682	278480	1002.19	463.64	25	22	-1	13.33	13.33
Saccade L	1	6	23648602682	23648622556	19874	1004.49	461.18	1087.90	453.52	0.62	84.74	1.00	31.16	2083.14	-1800.22	1484.09
Saccade R	1	6	23648602682	23648622556	19874	1004.49	461.18	1087.90	453.52	0.62	84.74	1.00	31.16	2083.14	-1800.22	1484.09
Fixation L	1	7	23648622556	23648901050	278494	1082.12	430.23	31	35	-1	13.57	13.57
Fixation R	1	7	23648622556	23648901050	278494	1082.12	430.23	31	35	-1	13.35	13.35
Saccade L	1	7	23648901050	23648960670	59620	1092.04	421.85	658.99	310.20	5.39	211.92	0.67	90.46	5279.95	-3828.38	3274.85
Saccade R	1	7	23648901050	23648960670	59620	1092.04	421.85	658.99	310.20	5.39	211.92	0.67	90.46	5279.95	-3828.38	3274.85
Fixation L	1	8	23648960670	23649159530	198860	653.23	361.12	16	83	-1	13.18	13.18
Fixation R	1	8	23648960670	23649159530	198860	653.23	361.12	16	83	-1	13.38	13.38
Saccade L	1	8	23649159530	23649179539	20009	658.49	362.28	659.56	366.34	0.06	4.24	1.00	3.10	53.33	27.53	40.04
Saccade R	1	8	23649159530	23649179539	20009	658.49	362.28	659.56	366.34	0.06	4.24	1.00	3.10	53.33	27.53	40.04
Fixation L	1	9	23649179539	23649318645	139106	665.16	367.43	7	16	-1	13.23	13.23
Fixation R	1	9	23649179539	23649318645	139106	665.16	367.43	7	16	-1	13.25	13.25
Saccade L	1	9	23649318645	23649358526	39881	667.35	376.58	554.30	223.46	1.67	124.23	0.50	41.78	3072.82	-2892.53	2288.27
Saccade R	1	9	23649318645	23649358526	39881	667.35	376.58	554.30	223.46	1.67	124.23	0.50	41.78	3072.82	-2892.53	2288.27
Fixation L	1	10	23649358526	23649696631	338105	556.10	247.49	29	53	-1	13.65	13.65
Fixation R	1	10	23649358526	23649696631	338105	556.10	247.49	29	53	-1	13.35	13.35
Saccade L	1	10	23649696631	23649756250	59619	572.77	276.70	770.67	789.57	6.04	308.89	0.67	101.39	7476.90	-7045.83	4807.70
Saccade R	1	10	23649696631	23649756250	59619	572.77	276.70	770.67	789.57	6.04	308.89	0.67	101.39	7476.90	-7045.83	4807.70
Fixation L	1	11	23649756250	23650074489	318239	782.39	758.37	14	41	-1	14.77	14.77
Fixation R	1	11	23649756250	23650074489	318239	782.39	758.37	14	41	-1	14.57	14.57
Saccade L	1	11	23650074489	23650114366	39877	785.02	752.61	1090.24	961.12	3.90	201.12	0.50	97.72	4994.31	0.00	3182.54
Saccade R	1	11	23650074489	23650114366	39877	785.02	752.61	1090.24	961.12	3.90	201.12	0.50	97.72	4994.31	0.00	3182.54
