[BeGaze]
Converted from:	C:\Documents and Settings\iViewX\Desktop\EXPERIMENTATIONS\Experiments\results\finaleart\S12H22222-finaleart-1.idf
Date:	27.03.2019 15:39:57
Version:	BeGaze 2.5.77
Sample Rate:	50
Subject:	S12H22222
Description:	aurele barriere

Table Header for Fixations:
Event Type	Trial	Number	Start	End	Duration	Location X	Location Y	Dispersion X	Dispersion Y	Plane	Avg. Pupil Size X	Avg. Pupil Size Y

Table Header for Saccades:
Event Type	Trial	Number	Start	End	Duration	Start Loc.X	Start Loc.Y	End Loc.X	End Loc.Y	Amplitude	Peak Speed	Peak Speed At	Average Speed	Peak Accel.	Peak Decel.	Average Accel.

Table Header for Blinks:
Event Type	Trial	Number	Start	End	Duration

Table Header for User Events:
Event Type	Trial	Number	Start	Description

UserEvent	1	1	22926619064	# Message: void.jpg
Saccade L	1	1	22926620099	22926739457	119358	1117.85	488.45	959.37	338.91	4.21	148.70	0.83	35.28	3595.42	-3600.96	1565.21
Saccade R	1	1	22926620099	22926739457	119358	1117.85	488.45	959.37	338.91	4.21	148.70	0.83	35.28	3595.42	-3600.96	1565.21
Fixation L	1	1	22926739457	22927236675	497218	952.92	370.13	13	84	-1	17.49	17.49
Fixation R	1	1	22926739457	22927236675	497218	952.92	370.13	13	84	-1	17.17	17.17
Saccade L	1	2	22927236675	22927256679	20004	961.06	421.17	963.91	416.79	0.11	7.38	1.00	5.40	127.43	-33.53	59.76
Saccade R	1	2	22927236675	22927256679	20004	961.06	421.17	963.91	416.79	0.11	7.38	1.00	5.40	127.43	-33.53	59.76
Fixation L	1	2	22927256679	22927614668	357989	973.75	415.12	16	15	-1	16.35	16.35
Fixation R	1	2	22927256679	22927614668	357989	973.75	415.12	16	15	-1	16.42	16.42
Blink L	1	1	22927614668	22927694162	79494
Blink R	1	1	22927614668	22927694162	79494
Blink L	1	2	22927694162	22927873284	179122
Blink R	1	2	22927694162	22927873284	179122
Fixation L	1	3	22927873284	22928410252	536968	989.43	479.10	11	40	-1	16.56	16.56
Fixation R	1	3	22927873284	22928410252	536968	989.43	479.10	11	40	-1	16.80	16.80
Saccade L	1	3	22928410252	22928430132	19880	983.66	483.02	891.32	495.77	0.57	94.29	1.00	28.75	2202.31	-2160.81	1511.64
Saccade R	1	3	22928410252	22928430132	19880	983.66	483.02	891.32	495.77	0.57	94.29	1.00	28.75	2202.31	-2160.81	1511.64
Fixation L	1	4	22928430132	22928609120	178988	885.29	495.80	10	6	-1	16.15	16.15
Fixation R	1	4	22928430132	22928609120	178988	885.29	495.80	10	6	-1	16.14	16.14
