[BeGaze]
Converted from:	C:\Documents and Settings\iViewX\Desktop\EXPERIMENTATIONS\Experiments\results\finaleart\S12H22222-finaleart-1.idf
Date:	27.03.2019 15:40:28
Version:	BeGaze 2.5.77
Sample Rate:	50
Subject:	S12H22222
Description:	aurele barriere

Table Header for Fixations:
Event Type	Trial	Number	Start	End	Duration	Location X	Location Y	Dispersion X	Dispersion Y	Plane	Avg. Pupil Size X	Avg. Pupil Size Y

Table Header for Saccades:
Event Type	Trial	Number	Start	End	Duration	Start Loc.X	Start Loc.Y	End Loc.X	End Loc.Y	Amplitude	Peak Speed	Peak Speed At	Average Speed	Peak Accel.	Peak Decel.	Average Accel.

Table Header for Blinks:
Event Type	Trial	Number	Start	End	Duration

Table Header for User Events:
Event Type	Trial	Number	Start	Description

UserEvent	1	1	23497466158	# Message: woman-at-her-toilette_degas_1877.jpg
Fixation L	1	1	23497477639	23497935106	457467	963.87	557.81	19	21	-1	14.99	14.99
Fixation R	1	1	23497477639	23497935106	457467	963.87	557.81	19	21	-1	14.47	14.47
Saccade L	1	1	23497935106	23497974863	39757	950.48	559.69	1022.89	416.57	1.60	92.26	0.50	40.23	2164.41	-1983.58	1998.16
Saccade R	1	1	23497935106	23497974863	39757	950.48	559.69	1022.89	416.57	1.60	92.26	0.50	40.23	2164.41	-1983.58	1998.16
Fixation L	1	2	23497974863	23498253352	278489	1031.35	411.72	13	71	-1	13.16	13.16
Fixation R	1	2	23497974863	23498253352	278489	1031.35	411.72	13	71	-1	12.67	12.67
Saccade L	1	2	23498253352	23498273227	19875	1036.71	351.04	1043.95	318.87	0.62	72.61	0.00	31.27	742.91	-1428.27	932.14
Saccade R	1	2	23498253352	23498273227	19875	1036.71	351.04	1043.95	318.87	0.62	72.61	0.00	31.27	742.91	-1428.27	932.14
Fixation L	1	3	23498273227	23498611329	338102	1074.61	319.18	60	34	-1	11.99	11.99
Fixation R	1	3	23498273227	23498611329	338102	1074.61	319.18	60	34	-1	11.74	11.74
Saccade L	1	3	23498611329	23498631221	19892	1104.90	298.13	1109.47	295.65	0.11	7.98	0.00	5.34	13.07	-114.49	79.44
Saccade R	1	3	23498611329	23498631221	19892	1104.90	298.13	1109.47	295.65	0.11	7.98	0.00	5.34	13.07	-114.49	79.44
Fixation L	1	4	23498631221	23499108560	477339	1122.60	308.26	19	34	-1	13.35	13.35
Fixation R	1	4	23498631221	23499108560	477339	1122.60	308.26	19	34	-1	12.77	12.77
Saccade L	1	4	23499108560	23499148430	39870	1119.95	327.41	1099.99	777.88	3.89	280.55	0.50	97.61	6821.77	-6759.02	5456.16
Saccade R	1	4	23499108560	23499148430	39870	1119.95	327.41	1099.99	777.88	3.89	280.55	0.50	97.61	6821.77	-6759.02	5456.16
Fixation L	1	5	23499148430	23499287559	139129	1087.20	763.74	19	22	-1	15.20	15.20
Fixation R	1	5	23499148430	23499287559	139129	1087.20	763.74	19	22	-1	13.90	13.90
Saccade L	1	5	23499287559	23499307546	19987	1084.70	755.62	1072.78	676.85	0.62	80.59	1.00	30.92	1852.50	-1408.71	1316.57
Saccade R	1	5	23499287559	23499307546	19987	1084.70	755.62	1072.78	676.85	0.62	80.59	1.00	30.92	1852.50	-1408.71	1316.57
Fixation L	1	6	23499307546	23499566037	258491	1058.44	672.03	28	34	-1	14.88	14.88
Fixation R	1	6	23499307546	23499566037	258491	1058.44	672.03	28	34	-1	13.93	13.93
Saccade L	1	6	23499566037	23499605913	39876	1050.87	677.03	1512.15	438.61	4.32	328.29	0.50	108.22	8136.69	-8092.01	6491.40
Saccade R	1	6	23499566037	23499605913	39876	1050.87	677.03	1512.15	438.61	4.32	328.29	0.50	108.22	8136.69	-8092.01	6491.40
Fixation L	1	7	23499605913	23499983771	377858	1499.34	450.76	65	31	-1	14.29	14.29
Fixation R	1	7	23499605913	23499983771	377858	1499.34	450.76	65	31	-1	13.27	13.27
Saccade L	1	7	23499983771	23500003646	19875	1451.53	430.85	1437.95	438.99	0.42	48.46	1.00	21.10	166.65	-810.99	358.60
Saccade R	1	7	23499983771	23500003646	19875	1451.53	430.85	1437.95	438.99	0.42	48.46	1.00	21.10	166.65	-810.99	358.60
Fixation L	1	8	23500003646	23500262262	258616	1429.35	405.31	26	54	-1	14.64	14.64
Fixation R	1	8	23500003646	23500262262	258616	1429.35	405.31	26	54	-1	13.44	13.44
Saccade L	1	8	23500262262	23500282135	19873	1451.19	384.41	1449.91	311.60	0.63	73.66	1.00	31.54	1765.37	-1391.99	1096.42
Saccade R	1	8	23500262262	23500282135	19873	1451.19	384.41	1449.91	311.60	0.63	73.66	1.00	31.54	1765.37	-1391.99	1096.42
Fixation L	1	9	23500282135	23500421376	139241	1465.88	316.16	24	34	-1	14.56	14.56
Fixation R	1	9	23500282135	23500421376	139241	1465.88	316.16	24	34	-1	13.59	13.59
Saccade L	1	9	23500421376	23500461125	39749	1469.88	331.95	1124.39	978.78	6.33	412.22	0.50	159.22	9986.81	-9905.01	9064.57
Saccade R	1	9	23500421376	23500461125	39749	1469.88	331.95	1124.39	978.78	6.33	412.22	0.50	159.22	9986.81	-9905.01	9064.57
Fixation L	1	10	23500461125	23500679864	218739	1131.71	1000.33	22	41	-1	15.24	15.24
Fixation R	1	10	23500461125	23500679864	218739	1131.71	1000.33	22	41	-1	14.17	14.17
Saccade L	1	10	23500679864	23500699869	20005	1113.30	1019.85	1116.02	1064.25	0.48	45.00	1.00	23.89	1033.74	-918.58	839.50
Saccade R	1	10	23500679864	23500699869	20005	1113.30	1019.85	1116.02	1064.25	0.48	45.00	1.00	23.89	1033.74	-918.58	839.50
Fixation L	1	11	23500699869	23500858981	159112	1098.65	1069.93	25	17	-1	15.11	15.11
Fixation R	1	11	23500699869	23500858981	159112	1098.65	1069.93	25	17	-1	13.94	13.94
Saccade L	1	11	23500858981	23500938479	79498	1093.29	1074.16	1095.23	515.58	6.56	270.85	0.50	82.55	6701.82	-4542.36	3161.45
Saccade R	1	11	23500858981	23500938479	79498	1093.29	1074.16	1095.23	515.58	6.56	270.85	0.50	82.55	6701.82	-4542.36	3161.45
Fixation L	1	12	23500938479	23501097595	159116	1088.24	511.42	14	51	-1	14.63	14.63
Fixation R	1	12	23500938479	23501097595	159116	1088.24	511.42	14	51	-1	13.71	13.71
Saccade L	1	12	23501097595	23501117471	19876	1080.89	469.86	1081.68	300.22	1.26	171.56	1.00	63.21	4230.69	-3845.93	2806.86
Saccade R	1	12	23501097595	23501117471	19876	1080.89	469.86	1081.68	300.22	1.26	171.56	1.00	63.21	4230.69	-3845.93	2806.86
Fixation L	1	13	23501117471	23501455579	338108	1073.31	335.61	20	49	-1	14.28	14.28
Fixation R	1	13	23501117471	23501455579	338108	1073.31	335.61	20	49	-1	13.32	13.32
