[BeGaze]
Converted from:	C:\Documents and Settings\iViewX\Desktop\EXPERIMENTATIONS\Experiments\results\finaleart\S12H22222-finaleart-1.idf
Date:	27.03.2019 15:41:09
Version:	BeGaze 2.5.77
Sample Rate:	50
Subject:	S12H22222
Description:	aurele barriere

Table Header for Fixations:
Event Type	Trial	Number	Start	End	Duration	Location X	Location Y	Dispersion X	Dispersion Y	Plane	Avg. Pupil Size X	Avg. Pupil Size Y

Table Header for Saccades:
Event Type	Trial	Number	Start	End	Duration	Start Loc.X	Start Loc.Y	End Loc.X	End Loc.Y	Amplitude	Peak Speed	Peak Speed At	Average Speed	Peak Accel.	Peak Decel.	Average Accel.

Table Header for Blinks:
Event Type	Trial	Number	Start	End	Duration

Table Header for User Events:
Event Type	Trial	Number	Start	Description

UserEvent	1	1	24232024507	# Message: garlic-cloves-and-knife-on-the-corner-of-a-table_caillebotte_1871.jpg
Fixation L	1	1	24232036828	24232494170	457342	966.22	481.83	9	20	-1	12.53	12.53
Fixation R	1	1	24232036828	24232494170	457342	966.22	481.83	9	20	-1	12.39	12.39
Saccade L	1	1	24232494170	24232514165	19995	965.35	496.60	1163.01	706.62	1.72	291.51	1.00	86.18	7250.91	-6974.23	4876.18
Saccade R	1	1	24232494170	24232514165	19995	965.35	496.60	1163.01	706.62	1.72	291.51	1.00	86.18	7250.91	-6974.23	4876.18
Fixation L	1	2	24232514165	24232872153	357988	1140.78	747.83	43	54	-1	12.47	12.47
Fixation R	1	2	24232514165	24232872153	357988	1140.78	747.83	43	54	-1	12.48	12.48
Saccade L	1	2	24232872153	24233011395	139242	1119.11	743.83	820.43	791.13	5.02	152.26	0.86	36.04	3770.70	-3524.39	1633.75
Saccade R	1	2	24232872153	24233011395	139242	1119.11	743.83	820.43	791.13	5.02	152.26	0.86	36.04	3770.70	-3524.39	1633.75
Fixation L	1	3	24233011395	24233289889	278494	823.71	797.92	6	25	-1	12.61	12.61
Fixation R	1	3	24233011395	24233289889	278494	823.71	797.92	6	25	-1	12.07	12.07
Saccade L	1	3	24233289889	24233329631	39742	820.40	787.86	1110.01	723.00	2.68	152.64	0.50	67.32	3780.90	-3682.48	3584.31
Saccade R	1	3	24233289889	24233329631	39742	820.40	787.86	1110.01	723.00	2.68	152.64	0.50	67.32	3780.90	-3682.48	3584.31
Fixation L	1	4	24233329631	24233826871	497240	1138.20	715.07	59	33	-1	12.74	12.74
Fixation R	1	4	24233329631	24233826871	497240	1138.20	715.07	59	33	-1	12.50	12.50
Saccade L	1	4	24233826871	24233846744	19873	1169.77	734.75	1312.38	699.11	1.06	148.68	1.00	53.16	3647.84	-3226.03	2389.47
Saccade R	1	4	24233826871	24233846744	19873	1169.77	734.75	1312.38	699.11	1.06	148.68	1.00	53.16	3647.84	-3226.03	2389.47
Fixation L	1	5	24233846744	24234065603	218859	1332.92	657.29	33	66	-1	12.43	12.43
Fixation R	1	5	24233846744	24234065603	218859	1332.92	657.29	33	66	-1	12.10	12.10
Saccade L	1	5	24234065603	24234105350	39747	1345.39	632.73	1293.43	632.05	0.54	55.45	1.00	13.55	1321.45	-805.18	577.92
Saccade R	1	5	24234065603	24234105350	39747	1345.39	632.73	1293.43	632.05	0.54	55.45	1.00	13.55	1321.45	-805.18	577.92
Fixation L	1	6	24234105350	24234582708	477358	1264.84	631.06	38	41	-1	11.54	11.54
Fixation R	1	6	24234105350	24234582708	477358	1264.84	631.06	38	41	-1	11.33	11.33
Saccade L	1	6	24234582708	24234642350	59642	1254.44	616.80	664.15	648.24	6.83	260.00	0.67	114.47	6455.15	-4572.60	4019.22
Saccade R	1	6	24234582708	24234642350	59642	1254.44	616.80	664.15	648.24	6.83	260.00	0.67	114.47	6455.15	-4572.60	4019.22
Fixation L	1	7	24234642350	24234781565	139215	593.16	644.62	82	15	-1	11.26	11.26
Fixation R	1	7	24234642350	24234781565	139215	593.16	644.62	82	15	-1	11.26	11.26
Saccade L	1	7	24234781565	24234861197	79632	582.72	649.08	483.23	648.42	1.27	92.46	1.00	16.00	2239.35	-2265.58	820.29
Saccade R	1	7	24234781565	24234861197	79632	582.72	649.08	483.23	648.42	1.27	92.46	1.00	16.00	2239.35	-2265.58	820.29
Fixation L	1	8	24234861197	24235139557	278360	481.97	640.40	51	25	-1	11.33	11.33
Fixation R	1	8	24234861197	24235139557	278360	481.97	640.40	51	25	-1	11.52	11.52
Saccade L	1	8	24235139557	24235179448	39891	524.61	628.74	808.30	794.65	3.26	213.42	1.00	81.69	4925.67	-4737.69	3595.98
Saccade R	1	8	24235139557	24235179448	39891	524.61	628.74	808.30	794.65	3.26	213.42	1.00	81.69	4925.67	-4737.69	3595.98
Fixation L	1	9	24235179448	24235418040	238592	811.36	792.70	11	44	-1	12.11	12.11
Fixation R	1	9	24235179448	24235418040	238592	811.36	792.70	11	44	-1	11.94	11.94
Saccade L	1	9	24235418040	24235457920	39880	815.19	797.91	650.24	743.62	1.77	128.43	0.50	44.29	3020.20	-2704.99	2149.71
Saccade R	1	9	24235418040	24235457920	39880	815.19	797.91	650.24	743.62	1.77	128.43	0.50	44.29	3020.20	-2704.99	2149.71
Fixation L	1	10	24235457920	24235835777	377857	640.18	761.50	19	54	-1	12.56	12.56
Fixation R	1	10	24235457920	24235835777	377857	640.18	761.50	19	54	-1	12.63	12.63
Saccade L	1	10	24235835777	24236014767	178990	642.58	765.64	1068.16	605.53	8.45	108.42	0.11	47.21	2386.63	-1998.84	950.48
Saccade R	1	10	24235835777	24236014767	178990	642.58	765.64	1068.16	605.53	8.45	108.42	0.11	47.21	2386.63	-1998.84	950.48
