[BeGaze]
Converted from:	C:\Documents and Settings\iViewX\Desktop\EXPERIMENTATIONS\Experiments\results\finaleart\S12H22222-finaleart-1.idf
Date:	27.03.2019 15:40:04
Version:	BeGaze 2.5.77
Sample Rate:	50
Subject:	S12H22222
Description:	aurele barriere

Table Header for Fixations:
Event Type	Trial	Number	Start	End	Duration	Location X	Location Y	Dispersion X	Dispersion Y	Plane	Avg. Pupil Size X	Avg. Pupil Size Y

Table Header for Saccades:
Event Type	Trial	Number	Start	End	Duration	Start Loc.X	Start Loc.Y	End Loc.X	End Loc.Y	Amplitude	Peak Speed	Peak Speed At	Average Speed	Peak Accel.	Peak Decel.	Average Accel.

Table Header for Blinks:
Event Type	Trial	Number	Start	End	Duration

Table Header for User Events:
Event Type	Trial	Number	Start	Description

UserEvent	1	1	23101266342	# Message: void.jpg
Fixation L	1	1	23101266773	23101405858	139085	1609.45	189.37	25	51	-1	13.79	13.79
Fixation R	1	1	23101266773	23101405858	139085	1609.45	189.37	25	51	-1	13.25	13.25
Saccade L	1	1	23101405858	23101485479	79621	1605.95	203.24	745.76	491.90	11.02	268.06	0.75	138.37	6318.08	-6000.14	4235.32
Saccade R	1	1	23101405858	23101485479	79621	1605.95	203.24	745.76	491.90	11.02	268.06	0.75	138.37	6318.08	-6000.14	4235.32
Fixation L	1	2	23101485479	23101863336	377857	718.66	480.53	40	56	-1	14.39	14.39
Fixation R	1	2	23101485479	23101863336	377857	718.66	480.53	40	56	-1	13.92	13.92
Saccade L	1	2	23101863336	23101982706	119370	710.28	467.65	1014.64	487.08	6.36	96.40	0.50	53.29	2105.23	-1794.32	1297.66
Saccade R	1	2	23101863336	23101982706	119370	710.28	467.65	1014.64	487.08	6.36	96.40	0.50	53.29	2105.23	-1794.32	1297.66
Fixation L	1	3	23101982706	23102539682	556976	1028.90	500.41	26	52	-1	14.70	14.70
Fixation R	1	3	23101982706	23102539682	556976	1028.90	500.41	26	52	-1	14.67	14.67
Saccade L	1	3	23102539682	23102559557	19875	1027.55	527.72	946.08	526.06	0.55	82.43	1.00	27.51	2057.37	-1955.63	1414.75
Saccade R	1	3	23102539682	23102559557	19875	1027.55	527.72	946.08	526.06	0.55	82.43	1.00	27.51	2057.37	-1955.63	1414.75
Fixation L	1	4	23102559557	23103255654	696097	932.03	531.16	21	22	-1	14.90	14.90
Fixation R	1	4	23102559557	23103255654	696097	932.03	531.16	21	22	-1	14.95	14.95
