[BeGaze]
Converted from:	C:\Documents and Settings\iViewX\Desktop\EXPERIMENTATIONS\Experiments\results\finaleart\S12H22222-finaleart-1.idf
Date:	27.03.2019 15:40:36
Version:	BeGaze 2.5.77
Sample Rate:	50
Subject:	S12H22222
Description:	aurele barriere

Table Header for Fixations:
Event Type	Trial	Number	Start	End	Duration	Location X	Location Y	Dispersion X	Dispersion Y	Plane	Avg. Pupil Size X	Avg. Pupil Size Y

Table Header for Saccades:
Event Type	Trial	Number	Start	End	Duration	Start Loc.X	Start Loc.Y	End Loc.X	End Loc.Y	Amplitude	Peak Speed	Peak Speed At	Average Speed	Peak Accel.	Peak Decel.	Average Accel.

Table Header for Blinks:
Event Type	Trial	Number	Start	End	Duration

Table Header for User Events:
Event Type	Trial	Number	Start	Description

UserEvent	1	1	23652236546	# Message: les-deux-amies_marevna_0.jpg
Fixation L	1	1	23652242545	23652739746	497201	926.45	566.92	31	53	-1	13.74	13.74
Fixation R	1	1	23652242545	23652739746	497201	926.45	566.92	31	53	-1	13.52	13.52
Saccade L	1	1	23652739746	23652779630	39884	922.97	594.19	1292.59	406.01	3.75	228.27	0.50	94.02	5668.90	-4751.66	4984.37
Saccade R	1	1	23652739746	23652779630	39884	922.97	594.19	1292.59	406.01	3.75	228.27	0.50	94.02	5668.90	-4751.66	4984.37
Fixation L	1	2	23652779630	23652938737	159107	1311.83	363.88	29	55	-1	11.61	11.61
Fixation R	1	2	23652779630	23652938737	159107	1311.83	363.88	29	55	-1	11.46	11.46
Saccade L	1	2	23652938737	23652998366	59629	1320.82	350.14	1456.84	294.83	1.83	68.21	1.00	30.65	1071.50	-1578.84	885.76
Saccade R	1	2	23652938737	23652998366	59629	1320.82	350.14	1456.84	294.83	1.83	68.21	1.00	30.65	1071.50	-1578.84	885.76
Fixation L	1	3	23652998366	23653197226	198860	1437.11	307.86	36	61	-1	10.41	10.41
Fixation R	1	3	23652998366	23653197226	198860	1437.11	307.86	36	61	-1	10.57	10.57
Saccade L	1	3	23653197226	23653217115	19889	1432.27	333.92	1424.89	344.25	0.14	12.84	1.00	6.82	282.14	-187.03	218.39
Saccade R	1	3	23653197226	23653217115	19889	1432.27	333.92	1424.89	344.25	0.14	12.84	1.00	6.82	282.14	-187.03	218.39
Fixation L	1	4	23653217115	23653396224	179109	1422.21	347.05	4	6	-1	10.68	10.68
Fixation R	1	4	23653217115	23653396224	179109	1422.21	347.05	4	6	-1	10.84	10.84
Saccade L	1	4	23653396224	23653435975	39751	1422.49	349.11	1090.65	397.93	3.16	228.18	0.50	79.43	5649.12	-5633.10	4815.55
Saccade R	1	4	23653396224	23653435975	39751	1422.49	349.11	1090.65	397.93	3.16	228.18	0.50	79.43	5649.12	-5633.10	4815.55
Fixation L	1	5	23653435975	23653614963	178988	1090.04	377.56	13	80	-1	11.41	11.41
Fixation R	1	5	23653435975	23653614963	178988	1090.04	377.56	13	80	-1	11.40	11.40
Saccade L	1	5	23653614963	23653793957	178994	1097.94	341.21	814.91	545.16	15.17	321.12	0.89	84.73	7844.35	-7919.03	3744.99
Saccade R	1	5	23653614963	23653793957	178994	1097.94	341.21	814.91	545.16	15.17	321.12	0.89	84.73	7844.35	-7919.03	3744.99
Fixation L	1	6	23653793957	23653992824	198867	825.17	538.32	16	14	-1	12.56	12.56
Fixation R	1	6	23653793957	23653992824	198867	825.17	538.32	16	14	-1	12.12	12.12
Saccade L	1	6	23653992824	23654052567	59743	827.52	530.53	416.86	219.51	5.96	244.20	0.67	99.84	5943.78	-5558.34	4237.02
Saccade R	1	6	23653992824	23654052567	59743	827.52	530.53	416.86	219.51	5.96	244.20	0.67	99.84	5943.78	-5558.34	4237.02
Fixation L	1	7	23654052567	23654291190	238623	411.80	235.33	15	29	-1	12.80	12.80
Fixation R	1	7	23654052567	23654291190	238623	411.80	235.33	15	29	-1	12.49	12.49
Saccade L	1	7	23654291190	23654331085	39895	408.84	244.97	420.37	253.59	1.79	103.04	1.00	44.98	2563.48	-2494.70	2230.06
Saccade R	1	7	23654291190	23654331085	39895	408.84	244.97	420.37	253.59	1.79	103.04	1.00	44.98	2563.48	-2494.70	2230.06
Fixation L	1	8	23654331085	23654529939	198854	409.58	241.41	29	37	-1	12.91	12.91
Fixation R	1	8	23654331085	23654529939	198854	409.58	241.41	29	37	-1	12.40	12.40
Saccade L	1	8	23654529939	23654549808	19869	421.15	265.92	427.18	328.26	0.64	63.35	1.00	32.31	1370.53	-1154.12	969.32
Saccade R	1	8	23654529939	23654549808	19869	421.15	265.92	427.18	328.26	0.64	63.35	1.00	32.31	1370.53	-1154.12	969.32
Fixation L	1	9	23654549808	23654868031	318223	426.09	289.05	23	55	-1	13.61	13.61
Fixation R	1	9	23654549808	23654868031	318223	426.09	289.05	23	55	-1	13.07	13.07
Saccade L	1	9	23654868031	23654987400	119369	411.34	288.91	1384.23	697.28	18.04	404.59	0.67	151.14	10021.73	-8080.96	4741.38
Saccade R	1	9	23654868031	23654987400	119369	411.34	288.91	1384.23	697.28	18.04	404.59	0.67	151.14	10021.73	-8080.96	4741.38
Fixation L	1	10	23654987400	23655206152	218752	1370.10	744.63	21	78	-1	15.08	15.08
Fixation R	1	10	23654987400	23655206152	218752	1370.10	744.63	21	78	-1	14.17	14.17
Saccade L	1	10	23655206152	23655226025	19873	1363.17	749.13	1005.45	848.31	1.98	374.99	1.00	99.47	9215.56	-8897.45	6059.73
Saccade R	1	10	23655206152	23655226025	19873	1363.17	749.13	1005.45	848.31	1.98	374.99	1.00	99.47	9215.56	-8897.45	6059.73
Fixation L	1	11	23655226025	23655544258	318233	970.24	859.76	47	21	-1	14.50	14.50
Fixation R	1	11	23655226025	23655544258	318233	970.24	859.76	47	21	-1	14.01	14.01
Saccade L	1	11	23655544258	23655623873	79615	958.26	857.04	1417.83	534.06	7.67	214.77	0.50	96.32	5161.70	-4274.60	3294.36
Saccade R	1	11	23655544258	23655623873	79615	958.26	857.04	1417.83	534.06	7.67	214.77	0.50	96.32	5161.70	-4274.60	3294.36
Fixation L	1	12	23655623873	23656021613	397740	1436.33	563.64	25	47	-1	13.45	13.45
Fixation R	1	12	23655623873	23656021613	397740	1436.33	563.64	25	47	-1	12.66	12.66
Saccade L	1	12	23656021613	23656041611	19998	1438.52	556.83	1364.63	567.76	0.46	75.55	1.00	23.23	1864.87	-1464.57	1210.53
Saccade R	1	12	23656021613	23656041611	19998	1438.52	556.83	1364.63	567.76	0.46	75.55	1.00	23.23	1864.87	-1464.57	1210.53
Fixation L	1	13	23656041611	23656160850	119239	1353.38	599.25	21	47	-1	13.50	13.50
Fixation R	1	13	23656041611	23656160850	119239	1353.38	599.25	21	47	-1	12.93	12.93
Saccade L	1	13	23656160850	23656220600	59750	1357.28	613.06	1547.29	622.42	2.64	187.86	0.33	44.19	4579.64	-4529.16	2316.70
Saccade R	1	13	23656160850	23656220600	59750	1357.28	613.06	1547.29	622.42	2.64	187.86	0.33	44.19	4579.64	-4529.16	2316.70
