[BeGaze]
Converted from:	C:\Documents and Settings\iViewX\Desktop\EXPERIMENTATIONS\Experiments\results\finaleart\S12H22222-finaleart-1.idf
Date:	27.03.2019 15:40:38
Version:	BeGaze 2.5.77
Sample Rate:	50
Subject:	S12H22222
Description:	aurele barriere

Table Header for Fixations:
Event Type	Trial	Number	Start	End	Duration	Location X	Location Y	Dispersion X	Dispersion Y	Plane	Avg. Pupil Size X	Avg. Pupil Size Y

Table Header for Saccades:
Event Type	Trial	Number	Start	End	Duration	Start Loc.X	Start Loc.Y	End Loc.X	End Loc.Y	Amplitude	Peak Speed	Peak Speed At	Average Speed	Peak Accel.	Peak Decel.	Average Accel.

Table Header for Blinks:
Event Type	Trial	Number	Start	End	Duration

Table Header for User Events:
Event Type	Trial	Number	Start	Description

UserEvent	1	1	23676719236	# Message: morning_in_a_pine_forest_Ivan_Shishkin_1889.jpg
Fixation L	1	1	23676727217	23677204692	477475	933.59	556.98	12	22	-1	13.78	13.78
Fixation R	1	1	23676727217	23677204692	477475	933.59	556.98	12	22	-1	13.32	13.32
Saccade L	1	1	23677204692	23677244443	39751	931.97	565.84	1199.15	752.08	2.75	238.65	0.50	69.14	5892.63	-5816.05	3959.88
Saccade R	1	1	23677204692	23677244443	39751	931.97	565.84	1199.15	752.08	2.75	238.65	0.50	69.14	5892.63	-5816.05	3959.88
Fixation L	1	2	23677244443	23677502931	258488	1203.79	760.28	6	23	-1	13.63	13.63
Fixation R	1	2	23677244443	23677502931	258488	1203.79	760.28	6	23	-1	13.31	13.31
Saccade L	1	2	23677502931	23677542802	39871	1205.63	767.88	891.85	522.55	4.08	252.95	1.00	102.25	6300.47	-5807.05	4919.85
Saccade R	1	2	23677502931	23677542802	39871	1205.63	767.88	891.85	522.55	4.08	252.95	1.00	102.25	6300.47	-5807.05	4919.85
Fixation L	1	3	23677542802	23677900778	357976	876.39	477.72	19	63	-1	13.46	13.46
Fixation R	1	3	23677542802	23677900778	357976	876.39	477.72	19	63	-1	13.02	13.02
Saccade L	1	3	23677900778	23677920669	19891	872.19	480.47	770.33	597.86	1.00	157.19	1.00	50.20	3876.18	-3719.45	2737.53
Saccade R	1	3	23677900778	23677920669	19891	872.19	480.47	770.33	597.86	1.00	157.19	1.00	50.20	3876.18	-3719.45	2737.53
Fixation L	1	4	23677920669	23678238900	318231	742.05	633.79	34	52	-1	14.54	14.54
Fixation R	1	4	23677920669	23678238900	318231	742.05	633.79	34	52	-1	13.90	13.90
Saccade L	1	4	23678238900	23678258769	19869	737.26	636.82	797.19	760.37	0.95	138.89	1.00	47.93	3428.02	-3039.66	2468.47
Saccade R	1	4	23678238900	23678258769	19869	737.26	636.82	797.19	760.37	0.95	138.89	1.00	47.93	3428.02	-3039.66	2468.47
Fixation L	1	5	23678258769	23678616877	358108	802.18	772.78	58	38	-1	15.24	15.24
Fixation R	1	5	23678258769	23678616877	358108	802.18	772.78	58	38	-1	14.87	14.87
Saccade L	1	5	23678616877	23678636751	19874	766.80	760.02	763.91	754.63	0.07	6.18	1.00	3.73	41.48	-65.64	56.21
Saccade R	1	5	23678616877	23678636751	19874	766.80	760.02	763.91	754.63	0.07	6.18	1.00	3.73	41.48	-65.64	56.21
Fixation L	1	6	23678636751	23678875362	238611	761.77	748.93	3	10	-1	15.70	15.70
Fixation R	1	6	23678636751	23678875362	238611	761.77	748.93	3	10	-1	15.17	15.17
Saccade L	1	6	23678875362	23678895257	19895	760.57	743.93	568.41	889.58	1.52	243.78	1.00	76.19	6085.12	-5899.38	4454.10
Saccade R	1	6	23678875362	23678895257	19895	760.57	743.93	568.41	889.58	1.52	243.78	1.00	76.19	6085.12	-5899.38	4454.10
Fixation L	1	7	23678895257	23679114108	218851	552.60	944.56	21	65	-1	15.93	15.93
Fixation R	1	7	23678895257	23679114108	218851	552.60	944.56	21	65	-1	15.33	15.33
Saccade L	1	7	23679114108	23679153858	39750	546.61	954.63	311.23	714.10	3.02	226.26	0.50	76.02	5555.44	-5191.05	4272.83
Saccade R	1	7	23679114108	23679153858	39750	546.61	954.63	311.23	714.10	3.02	226.26	0.50	76.02	5555.44	-5191.05	4272.83
Fixation L	1	8	23679153858	23679452217	298359	325.06	712.24	18	30	-1	15.42	15.42
Fixation R	1	8	23679153858	23679452217	298359	325.06	712.24	18	30	-1	14.70	14.70
Saccade L	1	8	23679452217	23679472089	19872	322.20	692.63	517.47	956.03	1.70	331.33	1.00	85.36	8168.97	-7973.00	5383.75
Saccade R	1	8	23679452217	23679472089	19872	322.20	692.63	517.47	956.03	1.70	331.33	1.00	85.36	8168.97	-7973.00	5383.75
Fixation L	1	9	23679472089	23679710833	238744	530.51	973.18	21	29	-1	15.17	15.17
Fixation R	1	9	23679472089	23679710833	238744	530.51	973.18	21	29	-1	14.91	14.91
Saccade L	1	9	23679710833	23679790324	79491	535.74	984.39	1587.10	913.04	12.55	489.58	0.50	157.92	12215.63	-7803.44	6709.74
Saccade R	1	9	23679710833	23679790324	79491	535.74	984.39	1587.10	913.04	12.55	489.58	0.50	157.92	12215.63	-7803.44	6709.74
Fixation L	1	10	23679790324	23679929575	139251	1556.04	903.30	45	21	-1	15.27	15.27
Fixation R	1	10	23679790324	23679929575	139251	1556.04	903.30	45	21	-1	14.83	14.83
Saccade L	1	10	23679929575	23679949444	19869	1562.95	891.14	1638.95	903.10	0.87	77.82	1.00	43.80	1759.50	-1921.38	1738.83
Saccade R	1	10	23679929575	23679949444	19869	1562.95	891.14	1638.95	903.10	0.87	77.82	1.00	43.80	1759.50	-1921.38	1738.83
Fixation L	1	11	23679949444	23680128436	178992	1577.19	890.74	74	23	-1	15.29	15.29
Fixation R	1	11	23679949444	23680128436	178992	1577.19	890.74	74	23	-1	14.37	14.37
Saccade L	1	11	23680128436	23680148321	19885	1575.51	879.12	1569.55	709.57	0.98	171.58	1.00	49.31	4246.20	-3864.82	2717.89
Saccade R	1	11	23680128436	23680148321	19885	1575.51	879.12	1569.55	709.57	0.98	171.58	1.00	49.31	4246.20	-3864.82	2717.89
Fixation L	1	12	23680148321	23680327422	179101	1555.60	732.76	41	56	-1	14.75	14.75
Fixation R	1	12	23680148321	23680327422	179101	1555.60	732.76	41	56	-1	13.27	13.27
Saccade L	1	12	23680327422	23680367179	39757	1527.69	731.15	1207.58	572.25	3.59	246.69	0.50	90.37	5209.76	-5944.14	3988.36
Saccade R	1	12	23680327422	23680367179	39757	1527.69	731.15	1207.58	572.25	3.59	246.69	0.50	90.37	5209.76	-5944.14	3988.36
Fixation L	1	13	23680367179	23680566045	198866	1206.99	554.56	9	28	-1	14.39	14.39
Fixation R	1	13	23680367179	23680566045	198866	1206.99	554.56	9	28	-1	13.68	13.68
Saccade L	1	13	23680566045	23680605790	39745	1204.98	545.81	1141.95	328.06	2.15	173.69	0.50	54.08	4237.88	-3471.35	2375.83
Saccade R	1	13	23680566045	23680605790	39745	1204.98	545.81	1141.95	328.06	2.15	173.69	0.50	54.08	4237.88	-3471.35	2375.83
Fixation L	1	14	23680605790	23680705279	99489	1130.83	313.25	34	36	-1	14.00	14.00
Fixation R	1	14	23680605790	23680705279	99489	1130.83	313.25	34	36	-1	12.94	12.94
