[BeGaze]
Converted from:	C:\Documents and Settings\iViewX\Desktop\EXPERIMENTATIONS\Experiments\results\finaleart\S12H22222-finaleart-1.idf
Date:	27.03.2019 15:40:52
Version:	BeGaze 2.5.77
Sample Rate:	50
Subject:	S12H22222
Description:	aurele barriere

Table Header for Fixations:
Event Type	Trial	Number	Start	End	Duration	Location X	Location Y	Dispersion X	Dispersion Y	Plane	Avg. Pupil Size X	Avg. Pupil Size Y

Table Header for Saccades:
Event Type	Trial	Number	Start	End	Duration	Start Loc.X	Start Loc.Y	End Loc.X	End Loc.Y	Amplitude	Peak Speed	Peak Speed At	Average Speed	Peak Accel.	Peak Decel.	Average Accel.

Table Header for Blinks:
Event Type	Trial	Number	Start	End	Duration

Table Header for User Events:
Event Type	Trial	Number	Start	Description

UserEvent	1	1	23865301098	# Message: void.jpg
Fixation L	1	1	23865306395	23865405882	99487	960.77	436.69	5	5	-1	12.69	12.69
Fixation R	1	1	23865306395	23865405882	99487	960.77	436.69	5	5	-1	12.08	12.08
Saccade L	1	1	23865405882	23865445640	39758	963.26	438.77	1118.24	743.29	2.98	196.16	0.50	74.91	4785.78	-4690.90	4374.28
Saccade R	1	1	23865405882	23865445640	39758	963.26	438.77	1118.24	743.29	2.98	196.16	0.50	74.91	4785.78	-4690.90	4374.28
Fixation L	1	2	23865445640	23865803610	357970	1133.73	737.63	33	9	-1	12.79	12.79
Fixation R	1	2	23865445640	23865803610	357970	1133.73	737.63	33	9	-1	12.27	12.27
Saccade L	1	2	23865803610	23865883233	79623	1140.59	736.88	1011.87	414.93	4.52	125.05	0.50	56.74	2839.36	-1214.15	1449.26
Saccade R	1	2	23865803610	23865883233	79623	1140.59	736.88	1011.87	414.93	4.52	125.05	0.50	56.74	2839.36	-1214.15	1449.26
Fixation L	1	3	23865883233	23866340717	457484	1037.42	379.82	43	56	-1	12.53	12.53
Fixation R	1	3	23865883233	23866340717	457484	1037.42	379.82	43	56	-1	11.95	11.95
Saccade L	1	3	23866340717	23866360593	19876	1049.32	400.97	1051.78	398.79	0.11	9.82	1.00	5.68	70.26	-162.18	87.14
Saccade R	1	3	23866340717	23866360593	19876	1049.32	400.97	1051.78	398.79	0.11	9.82	1.00	5.68	70.26	-162.18	87.14
Fixation L	1	4	23866360593	23867295437	934844	1048.00	417.10	30	49	-1	13.57	13.57
Fixation R	1	4	23866360593	23867295437	934844	1048.00	417.10	30	49	-1	13.00	13.00
