[BeGaze]
Converted from:	C:\Documents and Settings\iViewX\Desktop\EXPERIMENTATIONS\Experiments\results\finaleart\S12H22222-finaleart-1.idf
Date:	27.03.2019 15:41:10
Version:	BeGaze 2.5.77
Sample Rate:	50
Subject:	S12H22222
Description:	aurele barriere

Table Header for Fixations:
Event Type	Trial	Number	Start	End	Duration	Location X	Location Y	Dispersion X	Dispersion Y	Plane	Avg. Pupil Size X	Avg. Pupil Size Y

Table Header for Saccades:
Event Type	Trial	Number	Start	End	Duration	Start Loc.X	Start Loc.Y	End Loc.X	End Loc.Y	Amplitude	Peak Speed	Peak Speed At	Average Speed	Peak Accel.	Peak Decel.	Average Accel.

Table Header for Blinks:
Event Type	Trial	Number	Start	End	Duration

Table Header for User Events:
Event Type	Trial	Number	Start	Description

UserEvent	1	1	24248304227	# Message: void.jpg
Saccade L	1	1	24248306868	24248366483	59615	1257.21	579.28	1104.09	414.72	3.98	140.01	0.67	66.80	3500.30	-3177.32	2424.68
Saccade R	1	1	24248306868	24248366483	59615	1257.21	579.28	1104.09	414.72	3.98	140.01	0.67	66.80	3500.30	-3177.32	2424.68
Fixation L	1	1	24248366483	24248903602	537119	1085.12	394.80	35	52	-1	13.93	13.93
Fixation R	1	1	24248366483	24248903602	537119	1085.12	394.80	35	52	-1	13.09	13.09
Saccade L	1	2	24248903602	24249142205	238603	1068.45	362.50	1043.61	353.28	10.61	89.45	0.50	44.48	1537.02	-1285.06	799.07
Saccade R	1	2	24248903602	24249142205	238603	1068.45	362.50	1043.61	353.28	10.61	89.45	0.50	44.48	1537.02	-1285.06	799.07
Fixation L	1	2	24249142205	24249599677	457472	1069.95	353.18	32	59	-1	13.65	13.65
Fixation R	1	2	24249142205	24249599677	457472	1069.95	353.18	32	59	-1	13.12	13.12
Saccade L	1	3	24249599677	24249619547	19870	1071.95	351.07	1070.31	387.41	0.29	36.80	1.00	14.54	852.81	-741.36	674.93
Saccade R	1	3	24249599677	24249619547	19870	1071.95	351.07	1070.31	387.41	0.29	36.80	1.00	14.54	852.81	-741.36	674.93
Fixation L	1	3	24249619547	24250295898	676351	1076.91	413.15	30	49	-1	14.12	14.12
Fixation R	1	3	24249619547	24250295898	676351	1076.91	413.15	30	49	-1	13.35	13.35
