[BeGaze]
Converted from:	C:\Documents and Settings\iViewX\Desktop\EXPERIMENTATIONS\Experiments\results\finaleart\S12H22222-finaleart-1.idf
Date:	27.03.2019 15:40:22
Version:	BeGaze 2.5.77
Sample Rate:	50
Subject:	S12H22222
Description:	aurele barriere

Table Header for Fixations:
Event Type	Trial	Number	Start	End	Duration	Location X	Location Y	Dispersion X	Dispersion Y	Plane	Avg. Pupil Size X	Avg. Pupil Size Y

Table Header for Saccades:
Event Type	Trial	Number	Start	End	Duration	Start Loc.X	Start Loc.Y	End Loc.X	End Loc.Y	Amplitude	Peak Speed	Peak Speed At	Average Speed	Peak Accel.	Peak Decel.	Average Accel.

Table Header for Blinks:
Event Type	Trial	Number	Start	End	Duration

Table Header for User Events:
Event Type	Trial	Number	Start	Description

UserEvent	1	1	23430173371	# Message: Fleurs_et_fruits_camoin_1942.jpg
Fixation L	1	1	23430189433	23430766154	576721	1050.93	546.56	41	35	-1	14.43	14.43
Fixation R	1	1	23430189433	23430766154	576721	1050.93	546.56	41	35	-1	13.95	13.95
Saccade L	1	1	23430766154	23430786154	20000	1086.68	565.29	1113.30	569.84	0.43	40.58	0.00	21.41	597.11	-656.85	611.78
Saccade R	1	1	23430766154	23430786154	20000	1086.68	565.29	1113.30	569.84	0.43	40.58	0.00	21.41	597.11	-656.85	611.78
Fixation L	1	2	23430786154	23431004892	218738	1130.33	593.27	22	38	-1	13.85	13.85
Fixation R	1	2	23430786154	23431004892	218738	1130.33	593.27	22	38	-1	13.19	13.19
Saccade L	1	2	23431004892	23431044655	39763	1136.22	601.77	1072.51	298.99	2.71	171.20	0.50	68.11	4165.11	-3793.97	3721.82
Saccade R	1	2	23431004892	23431044655	39763	1136.22	601.77	1072.51	298.99	2.71	171.20	0.50	68.11	4165.11	-3793.97	3721.82
Fixation L	1	3	23431044655	23431700992	656337	1040.57	294.68	41	47	-1	13.71	13.71
Fixation R	1	3	23431044655	23431700992	656337	1040.57	294.68	41	47	-1	12.99	12.99
Saccade L	1	3	23431700992	23431720987	19995	1045.32	318.89	1098.56	534.38	1.66	224.44	1.00	82.93	5428.59	-5245.68	3685.07
Saccade R	1	3	23431700992	23431720987	19995	1045.32	318.89	1098.56	534.38	1.66	224.44	1.00	82.93	5428.59	-5245.68	3685.07
Fixation L	1	4	23431720987	23431840233	119246	1113.44	591.71	27	71	-1	14.33	14.33
Fixation R	1	4	23431720987	23431840233	119246	1113.44	591.71	27	71	-1	13.85	13.85
Saccade L	1	4	23431840233	23431860108	19875	1124.71	605.77	1125.72	607.11	0.07	7.27	1.00	3.31	162.99	-45.62	70.77
Saccade R	1	4	23431840233	23431860108	19875	1124.71	605.77	1125.72	607.11	0.07	7.27	1.00	3.31	162.99	-45.62	70.77
Fixation L	1	5	23431860108	23431979472	119364	1126.10	615.71	1	18	-1	14.45	14.45
Fixation R	1	5	23431860108	23431979472	119364	1126.10	615.71	1	18	-1	13.93	13.93
Saccade L	1	5	23431979472	23431999349	19877	1125.78	625.14	1159.81	681.72	0.53	66.79	1.00	26.82	1440.92	-1108.89	1059.08
Saccade R	1	5	23431979472	23431999349	19877	1125.78	625.14	1159.81	681.72	0.53	66.79	1.00	26.82	1440.92	-1108.89	1059.08
Fixation L	1	6	23431999349	23432218210	218861	1178.40	684.44	44	30	-1	14.36	14.36
Fixation R	1	6	23431999349	23432218210	218861	1178.40	684.44	44	30	-1	13.51	13.51
Saccade L	1	6	23432218210	23432257960	39750	1191.61	678.69	1269.48	434.07	2.21	142.97	1.00	55.67	3539.06	-2913.86	3011.58
Saccade R	1	6	23432218210	23432257960	39750	1191.61	678.69	1269.48	434.07	2.21	142.97	1.00	55.67	3539.06	-2913.86	3011.58
Fixation L	1	7	23432257960	23432496711	238751	1285.59	422.52	35	36	-1	13.67	13.67
Fixation R	1	7	23432257960	23432496711	238751	1285.59	422.52	35	36	-1	13.03	13.03
Saccade L	1	7	23432496711	23432536454	39743	1296.13	414.81	813.10	472.67	4.13	277.44	0.50	103.87	6882.98	-6330.71	5848.01
Saccade R	1	7	23432496711	23432536454	39743	1296.13	414.81	813.10	472.67	4.13	277.44	0.50	103.87	6882.98	-6330.71	5848.01
Fixation L	1	8	23432536454	23433033684	497230	774.40	500.20	44	55	-1	13.73	13.73
Fixation R	1	8	23432536454	23433033684	497230	774.40	500.20	44	55	-1	13.05	13.05
Saccade L	1	8	23433033684	23433053553	19869	769.47	525.35	738.54	658.82	0.92	138.58	1.00	46.26	3411.24	-3266.23	2342.38
Saccade R	1	8	23433033684	23433053553	19869	769.47	525.35	738.54	658.82	0.92	138.58	1.00	46.26	3411.24	-3266.23	2342.38
Fixation L	1	9	23433053553	23433312172	258619	717.67	658.93	27	16	-1	14.07	14.07
Fixation R	1	9	23433053553	23433312172	258619	717.67	658.93	27	16	-1	13.73	13.73
Saccade L	1	9	23433312172	23433351913	39741	712.36	664.44	959.05	534.36	2.58	168.81	0.50	64.88	4171.69	-3684.02	3424.46
Saccade R	1	9	23433312172	23433351913	39741	712.36	664.44	959.05	534.36	2.58	168.81	0.50	64.88	4171.69	-3684.02	3424.46
Fixation L	1	10	23433351913	23433570653	218740	962.93	554.36	11	40	-1	14.35	14.35
Fixation R	1	10	23433351913	23433570653	218740	962.93	554.36	11	40	-1	13.95	13.95
Saccade L	1	10	23433570653	23433590660	20007	967.31	556.49	1122.79	595.34	0.97	162.08	1.00	48.36	3914.82	-3594.29	2509.80
Saccade R	1	10	23433570653	23433590660	20007	967.31	556.49	1122.79	595.34	0.97	162.08	1.00	48.36	3914.82	-3594.29	2509.80
Fixation L	1	11	23433590660	23433888885	298225	1105.50	642.82	27	71	-1	14.60	14.60
Fixation R	1	11	23433590660	23433888885	298225	1105.50	642.82	27	71	-1	14.10	14.10
Saccade L	1	11	23433888885	23433908899	20014	1095.55	664.75	871.87	671.74	1.25	226.28	1.00	62.39	5624.01	-5409.67	3830.96
Saccade R	1	11	23433888885	23433908899	20014	1095.55	664.75	871.87	671.74	1.25	226.28	1.00	62.39	5624.01	-5409.67	3830.96
Fixation L	1	12	23433908899	23434167384	258485	848.16	687.40	35	25	-1	14.49	14.49
Fixation R	1	12	23433908899	23434167384	258485	848.16	687.40	35	25	-1	13.79	13.79
