[BeGaze]
Converted from:	C:\Documents and Settings\iViewX\Desktop\EXPERIMENTATIONS\Experiments\results\finaleart\S5121332-finaleart-1.idf
Date:	27.03.2019 15:35:17
Version:	BeGaze 2.5.77
Sample Rate:	50
Subject:	S5121332
Description:	Dylan Marinho

Table Header for Fixations:
Event Type	Trial	Number	Start	End	Duration	Location X	Location Y	Dispersion X	Dispersion Y	Plane	Avg. Pupil Size X	Avg. Pupil Size Y

Table Header for Saccades:
Event Type	Trial	Number	Start	End	Duration	Start Loc.X	Start Loc.Y	End Loc.X	End Loc.Y	Amplitude	Peak Speed	Peak Speed At	Average Speed	Peak Accel.	Peak Decel.	Average Accel.

Table Header for Blinks:
Event Type	Trial	Number	Start	End	Duration

Table Header for User Events:
Event Type	Trial	Number	Start	Description

UserEvent	1	1	9814956940	# Message: Nature-morte-Maurice-de-Vlaminck.jpg
Fixation L	1	1	9814965971	9815503099	537128	907.47	478.30	13	29	-1	14.28	14.28
Fixation R	1	1	9814965971	9815503099	537128	907.47	478.30	13	29	-1	14.01	14.01
Saccade L	1	1	9815503099	9815542810	39711	910.05	483.49	745.47	693.21	2.29	180.15	0.50	57.64	4429.36	-4223.59	3238.76
Saccade R	1	1	9815503099	9815542810	39711	910.05	483.49	745.47	693.21	2.29	180.15	0.50	57.64	4429.36	-4223.59	3238.76
Fixation L	1	2	9815542810	9815801421	258611	748.75	676.24	7	27	-1	14.39	14.39
Fixation R	1	2	9815542810	9815801421	258611	748.75	676.24	7	27	-1	14.66	14.66
Saccade L	1	2	9815801421	9815841166	39745	751.48	678.73	1074.51	616.09	2.87	200.23	0.50	72.17	4949.80	-4457.46	3932.36
Saccade R	1	2	9815801421	9815841166	39745	751.48	678.73	1074.51	616.09	2.87	200.23	0.50	72.17	4949.80	-4457.46	3932.36
Fixation L	1	3	9815841166	9816099769	258603	1095.29	604.57	29	18	-1	14.53	14.53
Fixation R	1	3	9815841166	9816099769	258603	1095.29	604.57	29	18	-1	14.71	14.71
Blink L	1	1	9816099769	9816278753	178984
Blink R	1	1	9816099769	9816278753	178984
Fixation L	1	4	9816278753	9816557239	278486	1152.05	217.77	4	65	-1	14.61	14.61
Fixation R	1	4	9816278753	9816557239	278486	1152.05	217.77	4	65	-1	14.97	14.97
Saccade L	1	3	9816557239	9816577107	19868	1151.50	239.32	1084.60	170.71	0.62	96.93	1.00	31.22	2355.01	-2241.34	1652.70
Saccade R	1	3	9816557239	9816577107	19868	1151.50	239.32	1084.60	170.71	0.62	96.93	1.00	31.22	2355.01	-2241.34	1652.70
Fixation L	1	5	9816577107	9817054463	477356	1055.60	146.11	41	44	-1	14.70	14.70
Fixation R	1	5	9816577107	9817054463	477356	1055.60	146.11	41	44	-1	14.66	14.66
Saccade L	1	4	9817054463	9817094215	39752	1053.61	126.18	952.17	367.20	2.70	157.42	1.00	68.02	3821.45	-3833.03	2893.42
Saccade R	1	4	9817054463	9817094215	39752	1053.61	126.18	952.17	367.20	2.70	157.42	1.00	68.02	3821.45	-3833.03	2893.42
Fixation L	1	6	9817094215	9817372692	278477	944.43	403.46	11	66	-1	15.28	15.28
Fixation R	1	6	9817094215	9817372692	278477	944.43	403.46	11	66	-1	15.42	15.42
Blink L	1	2	9817372692	9817730674	357982
Blink R	1	2	9817372692	9817730674	357982
Fixation L	1	7	9817730674	9817830185	99511	862.12	624.92	50	44	-1	17.24	17.24
Fixation R	1	7	9817730674	9817830185	99511	862.12	624.92	50	44	-1	17.25	17.25
Blink L	1	3	9817830185	9818088774	258589
Blink R	1	3	9817830185	9818088774	258589
Fixation L	1	8	9818088774	9818685362	596588	790.49	689.10	14	27	-1	15.07	15.07
Fixation R	1	8	9818088774	9818685362	596588	790.49	689.10	14	27	-1	15.69	15.69
Saccade L	1	5	9818685362	9818725235	39873	793.75	697.67	1040.45	675.06	2.49	155.17	1.00	62.37	3779.98	-3709.31	2708.19
Saccade R	1	5	9818685362	9818725235	39873	793.75	697.67	1040.45	675.06	2.49	155.17	1.00	62.37	3779.98	-3709.31	2708.19
Fixation L	1	9	9818725235	9818943974	218739	1093.87	667.60	61	13	-1	14.59	14.59
Fixation R	1	9	9818725235	9818943974	218739	1093.87	667.60	61	13	-1	14.94	14.94
