[BeGaze]
Converted from:	C:\Documents and Settings\iViewX\Desktop\EXPERIMENTATIONS\Experiments\results\finaleart\S5121332-finaleart-1.idf
Date:	27.03.2019 15:35:18
Version:	BeGaze 2.5.77
Sample Rate:	50
Subject:	S5121332
Description:	Dylan Marinho

Table Header for Fixations:
Event Type	Trial	Number	Start	End	Duration	Location X	Location Y	Dispersion X	Dispersion Y	Plane	Avg. Pupil Size X	Avg. Pupil Size Y

Table Header for Saccades:
Event Type	Trial	Number	Start	End	Duration	Start Loc.X	Start Loc.Y	End Loc.X	End Loc.Y	Amplitude	Peak Speed	Peak Speed At	Average Speed	Peak Accel.	Peak Decel.	Average Accel.

Table Header for Blinks:
Event Type	Trial	Number	Start	End	Duration

Table Header for User Events:
Event Type	Trial	Number	Start	Description

UserEvent	1	1	9839408733	# Message: still-life_matisse_0.jpg
Fixation L	1	1	9839425003	9840180821	755818	934.32	565.37	19	45	-1	15.08	15.08
Fixation R	1	1	9839425003	9840180821	755818	934.32	565.37	19	45	-1	14.61	14.61
Saccade L	1	1	9840180821	9840200703	19882	938.86	540.45	1002.14	407.32	1.25	149.08	1.00	62.94	3564.97	-3130.73	2239.36
Saccade R	1	1	9840180821	9840200703	19882	938.86	540.45	1002.14	407.32	1.25	149.08	1.00	62.94	3564.97	-3130.73	2239.36
Fixation L	1	2	9840200703	9840598547	397844	1011.90	392.43	26	40	-1	15.26	15.26
Fixation R	1	2	9840200703	9840598547	397844	1011.90	392.43	26	40	-1	14.82	14.82
Saccade L	1	2	9840598547	9840658159	59612	1014.61	394.08	1318.63	534.96	3.58	193.26	0.67	60.11	4792.96	-4519.92	2614.71
Saccade R	1	2	9840598547	9840658159	59612	1014.61	394.08	1318.63	534.96	3.58	193.26	0.67	60.11	4792.96	-4519.92	2614.71
Fixation L	1	3	9840658159	9841036142	377983	1313.19	537.01	16	22	-1	14.77	14.77
Fixation R	1	3	9840658159	9841036142	377983	1313.19	537.01	16	22	-1	14.37	14.37
Blink L	1	1	9841036142	9841195263	159121
Blink R	1	1	9841036142	9841195263	159121
Fixation L	1	4	9841195263	9841433871	238608	748.07	460.62	6	50	-1	15.18	15.18
Fixation R	1	4	9841195263	9841433871	238608	748.07	460.62	6	50	-1	14.55	14.55
Saccade L	1	3	9841433871	9841473612	39741	750.04	474.21	730.73	692.30	1.95	158.66	0.50	49.15	3924.83	-3500.02	2517.04
Saccade R	1	3	9841433871	9841473612	39741	750.04	474.21	730.73	692.30	1.95	158.66	0.50	49.15	3924.83	-3500.02	2517.04
Fixation L	1	5	9841473612	9841752111	278499	704.76	697.96	32	18	-1	15.80	15.80
Fixation R	1	5	9841473612	9841752111	278499	704.76	697.96	32	18	-1	15.38	15.38
Saccade L	1	4	9841752111	9841791856	39745	704.83	695.31	942.99	866.85	2.61	170.58	1.00	65.61	4116.92	-4071.11	3750.14
Saccade R	1	4	9841752111	9841791856	39745	704.83	695.31	942.99	866.85	2.61	170.58	1.00	65.61	4116.92	-4071.11	3750.14
Fixation L	1	6	9841791856	9842448313	656457	931.32	832.73	15	43	-1	16.01	16.01
Fixation R	1	6	9841791856	9842448313	656457	931.32	832.73	15	43	-1	15.78	15.78
Saccade L	1	5	9842448313	9842488052	39739	927.59	828.85	1256.51	876.32	2.92	174.51	0.50	73.45	4331.27	-3753.57	3941.59
Saccade R	1	5	9842448313	9842488052	39739	927.59	828.85	1256.51	876.32	2.92	174.51	0.50	73.45	4331.27	-3753.57	3941.59
Fixation L	1	7	9842488052	9842746659	258607	1269.95	913.16	21	47	-1	16.47	16.47
Fixation R	1	7	9842488052	9842746659	258607	1269.95	913.16	21	47	-1	15.98	15.98
Blink L	1	2	9842746659	9842905780	159121
Blink R	1	2	9842746659	9842905780	159121
Saccade L	1	6	9842905780	9842925654	19874	1199.40	497.39	1194.04	483.80	0.48	48.59	1.00	24.18	1143.20	-392.47	574.68
Saccade R	1	6	9842905780	9842925654	19874	1199.40	497.39	1194.04	483.80	0.48	48.59	1.00	24.18	1143.20	-392.47	574.68
Fixation L	1	8	9842925654	9843243883	318229	1179.18	547.19	19	78	-1	15.06	15.06
Fixation R	1	8	9842925654	9843243883	318229	1179.18	547.19	19	78	-1	14.71	14.71
Saccade L	1	7	9843243883	9843283628	39745	1177.16	553.32	969.63	564.93	1.82	121.69	0.50	45.70	2908.08	-2829.53	2462.71
Saccade R	1	7	9843243883	9843283628	39745	1177.16	553.32	969.63	564.93	1.82	121.69	0.50	45.70	2908.08	-2829.53	2462.71
Fixation L	1	9	9843283628	9843403000	119372	968.65	582.29	4	28	-1	14.95	14.95
Fixation R	1	9	9843283628	9843403000	119372	968.65	582.29	4	28	-1	14.69	14.69
