[BeGaze]
Converted from:	C:\Documents and Settings\iViewX\Desktop\EXPERIMENTATIONS\Experiments\results\finaleart\S5121332-finaleart-1.idf
Date:	27.03.2019 15:35:08
Version:	BeGaze 2.5.77
Sample Rate:	50
Subject:	S5121332
Description:	Dylan Marinho

Table Header for Fixations:
Event Type	Trial	Number	Start	End	Duration	Location X	Location Y	Dispersion X	Dispersion Y	Plane	Avg. Pupil Size X	Avg. Pupil Size Y

Table Header for Saccades:
Event Type	Trial	Number	Start	End	Duration	Start Loc.X	Start Loc.Y	End Loc.X	End Loc.Y	Amplitude	Peak Speed	Peak Speed At	Average Speed	Peak Accel.	Peak Decel.	Average Accel.

Table Header for Blinks:
Event Type	Trial	Number	Start	End	Duration

Table Header for User Events:
Event Type	Trial	Number	Start	Description

UserEvent	1	1	9494810338	# Message: sargent-male-model-resting.jpg
Fixation L	1	1	9494822539	9495041270	218731	947.62	515.38	88	10	-1	16.11	16.11
Fixation R	1	1	9494822539	9495041270	218731	947.62	515.38	88	10	-1	16.09	16.09
Saccade L	1	1	9495041270	9495120770	79500	909.91	518.81	909.02	521.12	12.11	1048.13	1.00	152.32	26127.24	-78.26	4379.27
Saccade R	1	1	9495041270	9495120770	79500	909.91	518.81	909.02	521.12	12.11	1048.13	1.00	152.32	26127.24	-78.26	4379.27
Blink L	1	1	9495120770	9495240134	119364
Blink R	1	1	9495120770	9495240134	119364
Fixation L	1	2	9495240134	9495399243	159109	935.22	485.47	22	40	-1	16.65	16.65
Fixation R	1	2	9495240134	9495399243	159109	935.22	485.47	22	40	-1	16.54	16.54
Saccade L	1	2	9495399243	9495419116	19873	920.17	499.49	705.66	625.69	1.41	251.61	1.00	71.03	6195.48	-6065.36	4208.55
Saccade R	1	2	9495399243	9495419116	19873	920.17	499.49	705.66	625.69	1.41	251.61	1.00	71.03	6195.48	-6065.36	4208.55
Fixation L	1	3	9495419116	9495657873	238757	696.37	645.02	13	26	-1	16.98	16.98
Fixation R	1	3	9495419116	9495657873	238757	696.37	645.02	13	26	-1	16.92	16.92
Saccade L	1	3	9495657873	9495717481	59608	692.62	648.76	1298.99	624.07	6.19	244.81	0.67	103.81	6028.99	-6032.55	4237.37
Saccade R	1	3	9495657873	9495717481	59608	692.62	648.76	1298.99	624.07	6.19	244.81	0.67	103.81	6028.99	-6032.55	4237.37
Fixation L	1	4	9495717481	9495876609	159128	1301.03	615.84	4	20	-1	17.26	17.26
Fixation R	1	4	9495717481	9495876609	159128	1301.03	615.84	4	20	-1	16.81	16.81
Saccade L	1	4	9495876609	9495916472	39863	1301.24	605.18	1359.28	466.08	1.38	78.15	0.50	34.52	1887.55	-1793.26	1794.54
Saccade R	1	4	9495876609	9495916472	39863	1301.24	605.18	1359.28	466.08	1.38	78.15	0.50	34.52	1887.55	-1793.26	1794.54
Fixation L	1	5	9495916472	9496831284	914812	1395.08	459.59	52	22	-1	16.69	16.69
Fixation R	1	5	9495916472	9496831284	914812	1395.08	459.59	52	22	-1	16.26	16.26
Blink L	1	2	9496831284	9497050151	218867
Blink R	1	2	9496831284	9497050151	218867
Fixation L	1	6	9497050151	9497408131	357980	1024.67	327.43	26	60	-1	18.11	18.11
Fixation R	1	6	9497050151	9497408131	357980	1024.67	327.43	26	60	-1	17.90	17.90
Saccade L	1	5	9497408131	9497427996	19865	1009.15	275.30	1001.02	234.93	0.60	61.02	0.00	30.34	953.17	-1146.44	983.46
Saccade R	1	5	9497408131	9497427996	19865	1009.15	275.30	1001.02	234.93	0.60	61.02	0.00	30.34	953.17	-1146.44	983.46
Fixation L	1	7	9497427996	9497766114	338118	977.10	219.51	34	19	-1	17.95	17.95
Fixation R	1	7	9497427996	9497766114	338118	977.10	219.51	34	19	-1	17.60	17.60
Saccade L	1	6	9497766114	9497805973	39859	966.38	227.05	753.65	283.68	2.29	178.41	0.50	57.38	4442.71	-3754.54	2543.92
Saccade R	1	6	9497766114	9497805973	39859	966.38	227.05	753.65	283.68	2.29	178.41	0.50	57.38	4442.71	-3754.54	2543.92
Fixation L	1	8	9497805973	9498084467	278494	733.64	306.16	27	68	-1	17.92	17.92
Fixation R	1	8	9497805973	9498084467	278494	733.64	306.16	27	68	-1	17.83	17.83
Saccade L	1	7	9498084467	9498124205	39738	727.51	336.04	732.77	682.10	3.13	233.07	0.50	78.87	5711.19	-5535.54	4039.53
Saccade R	1	7	9498084467	9498124205	39738	727.51	336.04	732.77	682.10	3.13	233.07	0.50	78.87	5711.19	-5535.54	4039.53
Fixation L	1	9	9498124205	9498303204	178999	744.14	663.79	20	30	-1	18.66	18.66
Fixation R	1	9	9498124205	9498303204	178999	744.14	663.79	20	30	-1	18.59	18.59
Blink L	1	3	9498303204	9498502063	198859
Blink R	1	3	9498303204	9498502063	198859
Fixation L	1	10	9498502063	9498800412	298349	1237.18	642.50	6	10	-1	17.37	17.37
Fixation R	1	10	9498502063	9498800412	298349	1237.18	642.50	6	10	-1	17.90	17.90
