[BeGaze]
Converted from:	C:\Documents and Settings\iViewX\Desktop\EXPERIMENTATIONS\Experiments\results\finaleart\S5121332-finaleart-1.idf
Date:	27.03.2019 15:34:56
Version:	BeGaze 2.5.77
Sample Rate:	50
Subject:	S5121332
Description:	Dylan Marinho

Table Header for Fixations:
Event Type	Trial	Number	Start	End	Duration	Location X	Location Y	Dispersion X	Dispersion Y	Plane	Avg. Pupil Size X	Avg. Pupil Size Y

Table Header for Saccades:
Event Type	Trial	Number	Start	End	Duration	Start Loc.X	Start Loc.Y	End Loc.X	End Loc.Y	Amplitude	Peak Speed	Peak Speed At	Average Speed	Peak Accel.	Peak Decel.	Average Accel.

Table Header for Blinks:
Event Type	Trial	Number	Start	End	Duration

Table Header for User Events:
Event Type	Trial	Number	Start	Description

UserEvent	1	1	9005329344	# Message: landschaft_mit_dem_ondregenbogen_caspar_david_friedrich_1810.jpg
Fixation L	1	1	9005335703	9005872668	536965	970.88	586.11	28	18	-1	17.44	17.44
Fixation R	1	1	9005335703	9005872668	536965	970.88	586.11	28	18	-1	17.44	17.44
Saccade L	1	1	9005872668	9005892564	19896	951.21	584.98	913.82	499.16	0.81	94.70	1.00	40.78	2286.81	-2204.19	1771.87
Saccade R	1	1	9005872668	9005892564	19896	951.21	584.98	913.82	499.16	0.81	94.70	1.00	40.78	2286.81	-2204.19	1771.87
Fixation L	1	2	9005892564	9006011915	119351	888.47	462.55	34	46	-1	17.16	17.16
Fixation R	1	2	9005892564	9006011915	119351	888.47	462.55	34	46	-1	17.40	17.40
Saccade L	1	2	9006011915	9006031787	19872	879.59	461.54	806.43	459.58	0.70	74.04	1.00	35.03	1767.54	-1538.44	1487.00
Saccade R	1	2	9006011915	9006031787	19872	879.59	461.54	806.43	459.58	0.70	74.04	1.00	35.03	1767.54	-1538.44	1487.00
Fixation L	1	3	9006031787	9006389764	357977	744.71	445.83	70	22	-1	17.17	17.17
Fixation R	1	3	9006031787	9006389764	357977	744.71	445.83	70	22	-1	17.14	17.14
Saccade L	1	3	9006389764	9006449504	59740	744.54	449.63	303.20	636.43	5.07	228.06	0.67	84.85	5664.78	-5667.53	3946.22
Saccade R	1	3	9006389764	9006449504	59740	744.54	449.63	303.20	636.43	5.07	228.06	0.67	84.85	5664.78	-5667.53	3946.22
Fixation L	1	4	9006449504	9007066092	616588	298.49	633.98	25	59	-1	15.92	15.92
Fixation R	1	4	9006449504	9007066092	616588	298.49	633.98	25	59	-1	16.42	16.42
Saccade L	1	4	9007066092	9007145595	79503	280.59	660.26	1062.37	935.06	9.84	337.21	0.50	123.77	8026.80	-7037.16	5117.82
Saccade R	1	4	9007066092	9007145595	79503	280.59	660.26	1062.37	935.06	9.84	337.21	0.50	123.77	8026.80	-7037.16	5117.82
Fixation L	1	5	9007145595	9007364463	218868	1059.26	941.65	9	9	-1	17.00	17.00
Fixation R	1	5	9007145595	9007364463	218868	1059.26	941.65	9	9	-1	17.44	17.44
Saccade L	1	5	9007364463	9007384320	19857	1058.02	942.93	1071.09	1039.99	0.57	99.07	1.00	28.52	2417.40	-2433.22	1705.34
Saccade R	1	5	9007364463	9007384320	19857	1058.02	942.93	1071.09	1039.99	0.57	99.07	1.00	28.52	2417.40	-2433.22	1705.34
Fixation L	1	6	9007384320	9008239526	855206	1079.91	1037.33	20	15	-1	17.56	17.56
Fixation R	1	6	9007384320	9008239526	855206	1079.91	1037.33	20	15	-1	17.67	17.67
Saccade L	1	6	9008239526	9008279399	39873	1084.82	1034.02	1075.40	857.97	1.58	105.13	0.50	39.71	2613.38	-2197.06	2041.02
Saccade R	1	6	9008239526	9008279399	39873	1084.82	1034.02	1075.40	857.97	1.58	105.13	0.50	39.71	2613.38	-2197.06	2041.02
Fixation L	1	7	9008279399	9008657249	377850	1040.59	861.08	44	13	-1	17.79	17.79
Fixation R	1	7	9008279399	9008657249	377850	1040.59	861.08	44	13	-1	17.79	17.79
Blink L	1	1	9008657249	9008856102	198853
Blink R	1	1	9008657249	9008856102	198853
Fixation L	1	8	9008856102	9009333446	477344	954.71	540.56	13	57	-1	17.86	17.86
Fixation R	1	8	9008856102	9009333446	477344	954.71	540.56	13	57	-1	17.96	17.96
