[BeGaze]
Converted from:	C:\Documents and Settings\iViewX\Desktop\EXPERIMENTATIONS\Experiments\results\finaleart\S5121332-finaleart-1.idf
Date:	27.03.2019 15:35:31
Version:	BeGaze 2.5.77
Sample Rate:	50
Subject:	S5121332
Description:	Dylan Marinho

Table Header for Fixations:
Event Type	Trial	Number	Start	End	Duration	Location X	Location Y	Dispersion X	Dispersion Y	Plane	Avg. Pupil Size X	Avg. Pupil Size Y

Table Header for Saccades:
Event Type	Trial	Number	Start	End	Duration	Start Loc.X	Start Loc.Y	End Loc.X	End Loc.Y	Amplitude	Peak Speed	Peak Speed At	Average Speed	Peak Accel.	Peak Decel.	Average Accel.

Table Header for Blinks:
Event Type	Trial	Number	Start	End	Duration

Table Header for User Events:
Event Type	Trial	Number	Start	Description

UserEvent	1	1	10372313148	# Message: void.jpg
Fixation L	1	1	10372316994	10372734705	417711	951.56	837.74	35	52	-1	14.52	14.52
Fixation R	1	1	10372316994	10372734705	417711	951.56	837.74	35	52	-1	14.20	14.20
Blink L	1	1	10372734705	10372933551	198846
Blink R	1	1	10372734705	10372933551	198846
Fixation L	1	2	10372933551	10373152291	218740	906.53	542.29	51	42	-1	14.37	14.37
Fixation R	1	2	10372933551	10373152291	218740	906.53	542.29	51	42	-1	13.99	13.99
Saccade L	1	1	10373152291	10373212043	59752	948.84	555.94	963.45	555.91	1.31	68.06	1.00	21.85	28784.51	-769.22	6273.57
Saccade R	1	1	10373152291	10373212043	59752	948.84	555.94	963.45	555.91	1.31	68.06	1.00	21.85	28784.51	-769.22	6273.57
Blink L	1	2	10373212043	10373430773	218730
Blink R	1	2	10373212043	10373430773	218730
Fixation L	1	3	10373430773	10374067236	636463	1013.31	509.31	14	34	-1	14.42	14.42
Fixation R	1	3	10373430773	10374067236	636463	1013.31	509.31	14	34	-1	13.83	13.83
Saccade L	1	2	10374067236	10374087121	19885	1005.10	533.16	963.19	552.73	0.35	46.79	1.00	17.66	1120.70	-883.81	746.00
Saccade R	1	2	10374067236	10374087121	19885	1005.10	533.16	963.19	552.73	0.35	46.79	1.00	17.66	1120.70	-883.81	746.00
Fixation L	1	4	10374087121	10374305988	218867	948.33	564.51	21	23	-1	14.49	14.49
Fixation R	1	4	10374087121	10374305988	218867	948.33	564.51	21	23	-1	13.94	13.94
