[BeGaze]
Converted from:	C:\Documents and Settings\iViewX\Desktop\EXPERIMENTATIONS\Experiments\results\finaleart\S5121332-finaleart-1.idf
Date:	27.03.2019 15:35:17
Version:	BeGaze 2.5.77
Sample Rate:	50
Subject:	S5121332
Description:	Dylan Marinho

Table Header for Fixations:
Event Type	Trial	Number	Start	End	Duration	Location X	Location Y	Dispersion X	Dispersion Y	Plane	Avg. Pupil Size X	Avg. Pupil Size Y

Table Header for Saccades:
Event Type	Trial	Number	Start	End	Duration	Start Loc.X	Start Loc.Y	End Loc.X	End Loc.Y	Amplitude	Peak Speed	Peak Speed At	Average Speed	Peak Accel.	Peak Decel.	Average Accel.

Table Header for Blinks:
Event Type	Trial	Number	Start	End	Duration

Table Header for User Events:
Event Type	Trial	Number	Start	Description

UserEvent	1	1	9821044428	# Message: The_Orchard_Vlaminck_1905.jpg
Fixation L	1	1	9821052359	9821708678	656319	891.70	552.16	20	22	-1	16.42	16.42
Fixation R	1	1	9821052359	9821708678	656319	891.70	552.16	20	22	-1	15.02	15.02
Blink L	1	1	9821708678	9821847930	139252
Blink R	1	1	9821708678	9821847930	139252
Fixation L	1	2	9821847930	9822007043	159113	1083.27	535.33	16	32	-1	13.92	13.92
Fixation R	1	2	9821847930	9822007043	159113	1083.27	535.33	16	32	-1	13.95	13.95
Saccade L	1	1	9822007043	9822026906	19863	1087.34	528.75	1106.93	412.50	0.88	119.24	1.00	44.07	2715.47	-2771.06	1920.45
Saccade R	1	1	9822007043	9822026906	19863	1087.34	528.75	1106.93	412.50	0.88	119.24	1.00	44.07	2715.47	-2771.06	1920.45
Fixation L	1	3	9822026906	9822265529	238623	1125.66	382.01	30	44	-1	13.64	13.64
Fixation R	1	3	9822026906	9822265529	238623	1125.66	382.01	30	44	-1	13.99	13.99
Saccade L	1	2	9822265529	9822285524	19995	1135.90	384.69	1138.67	215.71	0.96	170.91	1.00	48.20	4246.59	-4231.40	2906.70
Saccade R	1	2	9822265529	9822285524	19995	1135.90	384.69	1138.67	215.71	0.96	170.91	1.00	48.20	4246.59	-4231.40	2906.70
Fixation L	1	4	9822285524	9822563880	278356	1130.06	202.95	41	17	-1	13.08	13.08
Fixation R	1	4	9822285524	9822563880	278356	1130.06	202.95	41	17	-1	13.19	13.19
Saccade L	1	3	9822563880	9822583769	19889	1097.30	203.91	967.84	202.58	0.90	130.95	1.00	45.24	3166.57	-3042.93	2203.16
Saccade R	1	3	9822563880	9822583769	19889	1097.30	203.91	967.84	202.58	0.90	130.95	1.00	45.24	3166.57	-3042.93	2203.16
Fixation L	1	5	9822583769	9823001484	417715	939.78	200.18	34	27	-1	12.64	12.64
Fixation R	1	5	9822583769	9823001484	417715	939.78	200.18	34	27	-1	12.79	12.79
Saccade L	1	4	9823001484	9823041220	39736	933.18	216.62	767.63	273.29	1.67	132.13	0.50	42.11	3106.22	-2702.70	1963.19
Saccade R	1	4	9823001484	9823041220	39736	933.18	216.62	767.63	273.29	1.67	132.13	0.50	42.11	3106.22	-2702.70	1963.19
Fixation L	1	6	9823041220	9823498707	457487	760.47	295.41	16	34	-1	13.31	13.31
Fixation R	1	6	9823041220	9823498707	457487	760.47	295.41	16	34	-1	13.61	13.61
Saccade L	1	5	9823498707	9823558450	59743	754.15	298.66	1081.61	485.84	4.06	214.99	0.67	67.89	5227.72	-5295.76	3017.55
Saccade R	1	5	9823498707	9823558450	59743	754.15	298.66	1081.61	485.84	4.06	214.99	0.67	67.89	5227.72	-5295.76	3017.55
Fixation L	1	7	9823558450	9823777193	218743	1083.34	477.49	5	23	-1	14.36	14.36
Fixation R	1	7	9823558450	9823777193	218743	1083.34	477.49	5	23	-1	14.82	14.82
Saccade L	1	6	9823777193	9823816936	39743	1086.12	488.18	1236.97	865.84	3.40	257.06	0.50	85.52	6392.38	-6358.62	5013.42
Saccade R	1	6	9823777193	9823816936	39743	1086.12	488.18	1236.97	865.84	3.40	257.06	0.50	85.52	6392.38	-6358.62	5013.42
Fixation L	1	8	9823816936	9823976054	159118	1240.32	865.44	9	12	-1	14.85	14.85
Fixation R	1	8	9823816936	9823976054	159118	1240.32	865.44	9	12	-1	15.09	15.09
Blink L	1	2	9823976054	9824115294	139240
Blink R	1	2	9823976054	9824115294	139240
Fixation L	1	9	9824115294	9824234647	119353	914.56	718.23	22	41	-1	15.08	15.08
Fixation R	1	9	9824115294	9824234647	119353	914.56	718.23	22	41	-1	15.62	15.62
Blink L	1	3	9824234647	9824413662	179015
Blink R	1	3	9824234647	9824413662	179015
Fixation L	1	10	9824413662	9825030235	616573	902.46	721.36	10	39	-1	14.33	14.33
Fixation R	1	10	9824413662	9825030235	616573	902.46	721.36	10	39	-1	14.02	14.02
