[BeGaze]
Converted from:	C:\Documents and Settings\iViewX\Desktop\EXPERIMENTATIONS\Experiments\results\finaleart\S5121332-finaleart-1.idf
Date:	27.03.2019 15:35:07
Version:	BeGaze 2.5.77
Sample Rate:	50
Subject:	S5121332
Description:	Dylan Marinho

Table Header for Fixations:
Event Type	Trial	Number	Start	End	Duration	Location X	Location Y	Dispersion X	Dispersion Y	Plane	Avg. Pupil Size X	Avg. Pupil Size Y

Table Header for Saccades:
Event Type	Trial	Number	Start	End	Duration	Start Loc.X	Start Loc.Y	End Loc.X	End Loc.Y	Amplitude	Peak Speed	Peak Speed At	Average Speed	Peak Accel.	Peak Decel.	Average Accel.

Table Header for Blinks:
Event Type	Trial	Number	Start	End	Duration

Table Header for User Events:
Event Type	Trial	Number	Start	Description

UserEvent	1	1	9366330009	# Message: void.jpg
Fixation L	1	1	9366335167	9366514151	178984	1227.17	538.27	48	29	-1	15.15	15.15
Fixation R	1	1	9366335167	9366514151	178984	1227.17	538.27	48	29	-1	14.72	14.72
Saccade L	1	1	9366514151	9366534196	20045	1248.98	528.99	1381.85	410.77	1.13	179.86	1.00	56.33	4385.46	-3738.90	2714.61
Saccade R	1	1	9366514151	9366534196	20045	1248.98	528.99	1381.85	410.77	1.13	179.86	1.00	56.33	4385.46	-3738.90	2714.61
Fixation L	1	2	9366534196	9366772759	238563	1415.23	370.13	39	53	-1	14.68	14.68
Fixation R	1	2	9366534196	9366772759	238563	1415.23	370.13	39	53	-1	14.53	14.53
Blink L	1	1	9366772759	9367011509	238750
Blink R	1	1	9366772759	9367011509	238750
Saccade L	1	2	9367011509	9367071114	59605	1032.68	605.51	1052.90	603.05	2.51	138.01	1.00	42.13	32069.00	-673.53	7208.72
Saccade R	1	2	9367011509	9367071114	59605	1032.68	605.51	1052.90	603.05	2.51	138.01	1.00	42.13	32069.00	-673.53	7208.72
Blink L	1	2	9367071114	9367309850	238736
Blink R	1	2	9367071114	9367309850	238736
Fixation L	1	3	9367309850	9367488853	179003	1002.19	552.48	4	12	-1	15.32	15.32
Fixation R	1	3	9367309850	9367488853	179003	1002.19	552.48	4	12	-1	14.94	14.94
Blink L	1	3	9367488853	9367647959	159106
Blink R	1	3	9367488853	9367647959	159106
Fixation L	1	4	9367647959	9368085426	437467	986.24	527.85	15	81	-1	15.47	15.47
Fixation R	1	4	9367647959	9368085426	437467	986.24	527.85	15	81	-1	15.15	15.15
Saccade L	1	3	9368085426	9368105428	20002	988.64	555.39	986.82	560.83	0.21	17.63	1.00	10.57	261.98	-147.27	162.43
Saccade R	1	3	9368085426	9368105428	20002	988.64	555.39	986.82	560.83	0.21	17.63	1.00	10.57	261.98	-147.27	162.43
Fixation L	1	5	9368105428	9368324166	218738	987.04	547.50	1	26	-1	15.17	15.17
Fixation R	1	5	9368105428	9368324166	218738	987.04	547.50	1	26	-1	14.99	14.99
