[BeGaze]
Converted from:	C:\Documents and Settings\iViewX\Desktop\EXPERIMENTATIONS\Experiments\results\finaleart\S5121332-finaleart-1.idf
Date:	27.03.2019 15:35:14
Version:	BeGaze 2.5.77
Sample Rate:	50
Subject:	S5121332
Description:	Dylan Marinho

Table Header for Fixations:
Event Type	Trial	Number	Start	End	Duration	Location X	Location Y	Dispersion X	Dispersion Y	Plane	Avg. Pupil Size X	Avg. Pupil Size Y

Table Header for Saccades:
Event Type	Trial	Number	Start	End	Duration	Start Loc.X	Start Loc.Y	End Loc.X	End Loc.Y	Amplitude	Peak Speed	Peak Speed At	Average Speed	Peak Accel.	Peak Decel.	Average Accel.

Table Header for Blinks:
Event Type	Trial	Number	Start	End	Duration

Table Header for User Events:
Event Type	Trial	Number	Start	Description

UserEvent	1	1	9615811590	# Message: void.jpg
Fixation L	1	1	9615827234	9615926730	99496	385.54	268.00	7	17	-1	13.22	13.22
Fixation R	1	1	9615827234	9615926730	99496	385.54	268.00	7	17	-1	13.74	13.74
Saccade L	1	1	9615926730	9615966561	39831	386.12	268.15	640.62	281.50	2.47	143.07	0.50	61.92	3396.15	-2693.81	2855.04
Saccade R	1	1	9615926730	9615966561	39831	386.12	268.15	640.62	281.50	2.47	143.07	0.50	61.92	3396.15	-2693.81	2855.04
Fixation L	1	2	9615966561	9616224955	258394	666.76	287.84	34	15	-1	12.72	12.72
Fixation R	1	2	9615966561	9616224955	258394	666.76	287.84	34	15	-1	13.17	13.17
Blink L	1	1	9616224955	9616443816	218861
Blink R	1	1	9616224955	9616443816	218861
Blink L	1	2	9616443816	9616722297	278481
Blink R	1	2	9616443816	9616722297	278481
Fixation L	1	3	9616722297	9617060403	338106	1043.13	387.77	11	54	-1	14.11	14.11
Fixation R	1	3	9616722297	9617060403	338106	1043.13	387.77	11	54	-1	14.23	14.23
Saccade L	1	2	9617060403	9617080278	19875	1041.25	413.99	965.46	439.54	0.66	80.90	1.00	33.07	1906.11	-1676.89	1317.04
Saccade R	1	2	9617060403	9617080278	19875	1041.25	413.99	965.46	439.54	0.66	80.90	1.00	33.07	1906.11	-1676.89	1317.04
Fixation L	1	4	9617080278	9617796359	716081	968.91	476.25	15	63	-1	14.40	14.40
Fixation R	1	4	9617080278	9617796359	716081	968.91	476.25	15	63	-1	14.27	14.27
