[BeGaze]
Converted from:	C:\Documents and Settings\iViewX\Desktop\EXPERIMENTATIONS\Experiments\results\finaleart\S5121332-finaleart-1.idf
Date:	27.03.2019 15:35:13
Version:	BeGaze 2.5.77
Sample Rate:	50
Subject:	S5121332
Description:	Dylan Marinho

Table Header for Fixations:
Event Type	Trial	Number	Start	End	Duration	Location X	Location Y	Dispersion X	Dispersion Y	Plane	Avg. Pupil Size X	Avg. Pupil Size Y

Table Header for Saccades:
Event Type	Trial	Number	Start	End	Duration	Start Loc.X	Start Loc.Y	End Loc.X	End Loc.Y	Amplitude	Peak Speed	Peak Speed At	Average Speed	Peak Accel.	Peak Decel.	Average Accel.

Table Header for Blinks:
Event Type	Trial	Number	Start	End	Duration

Table Header for User Events:
Event Type	Trial	Number	Start	Description

UserEvent	1	1	9605525942	# Message: Trouville_Black_Rocks_Boudin_1863.jpg
Fixation L	1	1	9605544223	9605902244	358021	991.23	541.31	38	57	-1	13.57	13.57
Fixation R	1	1	9605544223	9605902244	358021	991.23	541.31	38	57	-1	13.14	13.14
Saccade L	1	1	9605902244	9605922071	19827	1013.05	559.74	1019.01	564.55	0.17	17.69	0.00	8.36	59.31	-377.23	178.60
Saccade R	1	1	9605902244	9605922071	19827	1013.05	559.74	1019.01	564.55	0.17	17.69	0.00	8.36	59.31	-377.23	178.60
Fixation L	1	2	9605922071	9606021442	99371	1021.06	572.44	3	20	-1	13.61	13.61
Fixation R	1	2	9605922071	9606021442	99371	1021.06	572.44	3	20	-1	13.32	13.32
Saccade L	1	2	9606021442	9606061356	39914	1019.31	585.25	666.16	758.01	3.80	200.92	1.00	95.11	4959.02	-4470.21	4396.76
Saccade R	1	2	9606021442	9606061356	39914	1019.31	585.25	666.16	758.01	3.80	200.92	1.00	95.11	4959.02	-4470.21	4396.76
Fixation L	1	3	9606061356	9606280084	218728	618.59	774.44	54	40	-1	13.66	13.66
Fixation R	1	3	9606061356	9606280084	218728	618.59	774.44	54	40	-1	14.35	14.35
Saccade L	1	3	9606280084	9606299933	19849	613.98	765.17	571.70	764.33	0.46	44.87	1.00	22.99	1069.77	-1007.36	1030.20
Saccade R	1	3	9606280084	9606299933	19849	613.98	765.17	571.70	764.33	0.46	44.87	1.00	22.99	1069.77	-1007.36	1030.20
Fixation L	1	4	9606299933	9606657906	357973	532.68	752.11	46	28	-1	13.40	13.40
Fixation R	1	4	9606299933	9606657906	357973	532.68	752.11	46	28	-1	14.23	14.23
Saccade L	1	4	9606657906	9606677904	19998	525.34	735.46	618.44	746.22	0.67	94.80	1.00	33.69	2333.27	-1969.97	1641.03
Saccade R	1	4	9606657906	9606677904	19998	525.34	735.46	618.44	746.22	0.67	94.80	1.00	33.69	2333.27	-1969.97	1641.03
Fixation L	1	5	9606677904	9606817029	139125	658.00	771.66	53	44	-1	13.46	13.46
Fixation R	1	5	9606677904	9606817029	139125	658.00	771.66	53	44	-1	14.65	14.65
Saccade L	1	5	9606817029	9606896635	79606	669.08	790.53	673.88	807.74	12.49	1052.18	1.00	156.88	26186.98	-361.22	4533.39
Saccade R	1	5	9606817029	9606896635	79606	669.08	790.53	673.88	807.74	12.49	1052.18	1.00	156.88	26186.98	-361.22	4533.39
Blink L	1	1	9606896635	9607115386	218751
Blink R	1	1	9606896635	9607115386	218751
Fixation L	1	6	9607115386	9607294503	179117	689.66	757.56	19	11	-1	16.46	16.46
Fixation R	1	6	9607115386	9607294503	179117	689.66	757.56	19	11	-1	17.24	17.24
Saccade L	1	6	9607294503	9607334252	39749	696.24	760.84	889.77	887.93	2.03	135.63	0.50	51.18	3328.24	-2924.24	2732.77
Saccade R	1	6	9607294503	9607334252	39749	696.24	760.84	889.77	887.93	2.03	135.63	0.50	51.18	3328.24	-2924.24	2732.77
Fixation L	1	7	9607334252	9607771846	437594	872.86	891.64	38	15	-1	17.22	17.22
Fixation R	1	7	9607334252	9607771846	437594	872.86	891.64	38	15	-1	17.77	17.77
Saccade L	1	7	9607771846	9607811584	39738	871.66	883.56	1363.05	883.83	4.37	331.82	0.50	109.92	8222.76	-7595.76	5851.71
Saccade R	1	7	9607771846	9607811584	39738	871.66	883.56	1363.05	883.83	4.37	331.82	0.50	109.92	8222.76	-7595.76	5851.71
Fixation L	1	8	9607811584	9608288932	477348	1393.44	893.47	44	23	-1	16.90	16.90
Fixation R	1	8	9607811584	9608288932	477348	1393.44	893.47	44	23	-1	16.91	16.91
Saccade L	1	8	9608288932	9608328807	39875	1384.92	902.59	1180.60	695.98	2.61	200.72	0.50	65.41	4976.69	-4401.81	3553.32
Saccade R	1	8	9608288932	9608328807	39875	1384.92	902.59	1180.60	695.98	2.61	200.72	0.50	65.41	4976.69	-4401.81	3553.32
Fixation L	1	9	9608328807	9608706662	377855	1159.92	692.22	27	17	-1	15.69	15.69
Fixation R	1	9	9608328807	9608706662	377855	1159.92	692.22	27	17	-1	15.82	15.82
Saccade L	1	9	9608706662	9608746423	39761	1164.98	685.78	974.39	685.09	1.60	98.77	1.00	40.17	2398.90	-2386.03	2338.69
Saccade R	1	9	9608706662	9608746423	39761	1164.98	685.78	974.39	685.09	1.60	98.77	1.00	40.17	2398.90	-2386.03	2338.69
Fixation L	1	10	9608746423	9609005016	258593	968.38	673.78	12	33	-1	14.99	14.99
Fixation R	1	10	9608746423	9609005016	258593	968.38	673.78	12	33	-1	15.20	15.20
Blink L	1	2	9609005016	9609184007	178991
Blink R	1	2	9609005016	9609184007	178991
Fixation L	1	11	9609184007	9609303378	119371	633.41	868.67	17	60	-1	15.27	15.27
Fixation R	1	11	9609184007	9609303378	119371	633.41	868.67	17	60	-1	15.38	15.38
Saccade L	1	10	9609303378	9609522117	218739	643.40	843.33	711.72	373.56	42.48	1176.36	0.18	194.22	29041.99	-29408.97	9829.92
Saccade R	1	10	9609303378	9609522117	218739	643.40	843.33	711.72	373.56	42.48	1176.36	0.18	194.22	29041.99	-29408.97	9829.92
