[BeGaze]
Converted from:	C:\Documents and Settings\iViewX\Desktop\EXPERIMENTATIONS\Experiments\results\finaleart\S5121332-finaleart-1.idf
Date:	27.03.2019 15:34:53
Version:	BeGaze 2.5.77
Sample Rate:	50
Subject:	S5121332
Description:	Dylan Marinho

Table Header for Fixations:
Event Type	Trial	Number	Start	End	Duration	Location X	Location Y	Dispersion X	Dispersion Y	Plane	Avg. Pupil Size X	Avg. Pupil Size Y

Table Header for Saccades:
Event Type	Trial	Number	Start	End	Duration	Start Loc.X	Start Loc.Y	End Loc.X	End Loc.Y	Amplitude	Peak Speed	Peak Speed At	Average Speed	Peak Accel.	Peak Decel.	Average Accel.

Table Header for Blinks:
Event Type	Trial	Number	Start	End	Duration

Table Header for User Events:
Event Type	Trial	Number	Start	Description

UserEvent	1	1	8960119922	# Message: void.jpg
Fixation L	1	1	8960126230	8960345039	218809	788.98	592.27	4	16	-1	17.53	17.53
Fixation R	1	1	8960126230	8960345039	218809	788.98	592.27	4	16	-1	17.74	17.74
Saccade L	1	1	8960345039	8960384787	39748	786.90	595.22	1168.09	596.56	3.17	192.86	0.50	79.65	4807.58	-4704.08	4710.97
Saccade R	1	1	8960345039	8960384787	39748	786.90	595.22	1168.09	596.56	3.17	192.86	0.50	79.65	4807.58	-4704.08	4710.97
Fixation L	1	2	8960384787	8960623394	238607	1180.93	601.63	23	15	-1	17.35	17.35
Fixation R	1	2	8960384787	8960623394	238607	1180.93	601.63	23	15	-1	17.71	17.71
Saccade L	1	2	8960623394	8960643392	19998	1162.86	610.57	974.44	611.71	1.26	190.55	1.00	62.81	4702.06	-4533.76	3146.01
Saccade R	1	2	8960623394	8960643392	19998	1162.86	610.57	974.44	611.71	1.26	190.55	1.00	62.81	4702.06	-4533.76	3146.01
Fixation L	1	3	8960643392	8960742767	99375	944.58	598.46	39	20	-1	17.45	17.45
Fixation R	1	3	8960643392	8960742767	99375	944.58	598.46	39	20	-1	17.88	17.88
Blink L	1	1	8960742767	8960882017	139250
Blink R	1	1	8960742767	8960882017	139250
Fixation L	1	4	8960882017	8961140624	258607	860.32	594.36	45	30	-1	16.97	16.97
Fixation R	1	4	8960882017	8961140624	258607	860.32	594.36	45	30	-1	17.44	17.44
Saccade L	1	3	8961140624	8961160497	19873	897.39	599.95	930.20	593.09	0.51	46.45	0.00	25.51	789.72	-755.58	740.91
Saccade R	1	3	8961140624	8961160497	19873	897.39	599.95	930.20	593.09	0.51	46.45	0.00	25.51	789.72	-755.58	740.91
Fixation L	1	5	8961160497	8961458844	298347	947.94	583.83	21	15	-1	16.44	16.44
Fixation R	1	5	8961160497	8961458844	298347	947.94	583.83	21	15	-1	16.76	16.76
Saccade L	1	4	8961458844	8961478719	19875	944.62	584.76	841.86	582.17	0.62	103.97	1.00	31.39	2565.64	-2523.08	1726.77
Saccade R	1	4	8961458844	8961478719	19875	944.62	584.76	841.86	582.17	0.62	103.97	1.00	31.39	2565.64	-2523.08	1726.77
Fixation L	1	6	8961478719	8961816821	338102	827.55	581.13	22	11	-1	16.00	16.00
Fixation R	1	6	8961478719	8961816821	338102	827.55	581.13	22	11	-1	16.42	16.42
Saccade L	1	5	8961816821	8961836705	19884	844.76	573.78	908.61	569.47	0.47	64.73	1.00	23.89	1545.33	-1544.80	1103.24
Saccade R	1	5	8961816821	8961836705	19884	844.76	573.78	908.61	569.47	0.47	64.73	1.00	23.89	1545.33	-1544.80	1103.24
Fixation L	1	7	8961836705	8962174803	338098	902.01	568.60	28	22	-1	15.97	15.97
Fixation R	1	7	8961836705	8962174803	338098	902.01	568.60	28	22	-1	16.50	16.50
