[BeGaze]
Converted from:	C:\Documents and Settings\iViewX\Desktop\EXPERIMENTATIONS\Experiments\results\finaleart\S5121332-finaleart-1.idf
Date:	27.03.2019 15:35:32
Version:	BeGaze 2.5.77
Sample Rate:	50
Subject:	S5121332
Description:	Dylan Marinho

Table Header for Fixations:
Event Type	Trial	Number	Start	End	Duration	Location X	Location Y	Dispersion X	Dispersion Y	Plane	Avg. Pupil Size X	Avg. Pupil Size Y

Table Header for Saccades:
Event Type	Trial	Number	Start	End	Duration	Start Loc.X	Start Loc.Y	End Loc.X	End Loc.Y	Amplitude	Peak Speed	Peak Speed At	Average Speed	Peak Accel.	Peak Decel.	Average Accel.

Table Header for Blinks:
Event Type	Trial	Number	Start	End	Duration

Table Header for User Events:
Event Type	Trial	Number	Start	Description

UserEvent	1	1	10402892594	# Message: void.jpg
Fixation L	1	1	10402907373	10403205755	298382	612.79	962.24	5	13	-1	17.92	17.92
Fixation R	1	1	10402907373	10403205755	298382	612.79	962.24	5	13	-1	18.12	18.12
Saccade L	1	1	10403205755	10403285349	79594	608.88	954.28	565.68	840.45	3.39	144.68	1.00	42.60	27076.87	-2234.28	5867.50
Saccade R	1	1	10403205755	10403285349	79594	608.88	954.28	565.68	840.45	3.39	144.68	1.00	42.60	27076.87	-2234.28	5867.50
Blink L	1	1	10403285349	10403464335	178986
Blink R	1	1	10403285349	10403464335	178986
Saccade L	1	2	10403464335	10403524082	59747	880.31	654.08	883.30	637.78	22.00	1093.68	1.00	368.28	26978.92	-27119.74	10900.72
Saccade R	1	2	10403464335	10403524082	59747	880.31	654.08	883.30	637.78	22.00	1093.68	1.00	368.28	26978.92	-27119.74	10900.72
Blink L	1	2	10403524082	10403722940	198858
Blink R	1	2	10403524082	10403722940	198858
Fixation L	1	2	10403722940	10404259919	536979	949.55	553.66	26	68	-1	15.26	15.26
Fixation R	1	2	10403722940	10404259919	536979	949.55	553.66	26	68	-1	14.19	14.19
Saccade L	1	3	10404259919	10404279789	19870	928.50	572.17	922.04	579.69	0.12	10.02	1.00	6.06	109.09	-185.14	122.29
Saccade R	1	3	10404259919	10404279789	19870	928.50	572.17	922.04	579.69	0.12	10.02	1.00	6.06	109.09	-185.14	122.29
Fixation L	1	3	10404279789	10404717388	437599	917.53	594.67	8	26	-1	15.17	15.17
Fixation R	1	3	10404279789	10404717388	437599	917.53	594.67	8	26	-1	14.45	14.45
Saccade L	1	4	10404717388	10404916256	198868	918.90	601.61	952.26	542.09	36.68	1097.47	0.10	184.47	27411.50	-27436.63	9911.43
Saccade R	1	4	10404717388	10404916256	198868	918.90	601.61	952.26	542.09	36.68	1097.47	0.10	184.47	27411.50	-27436.63	9911.43
