[BeGaze]
Converted from:	C:\Documents and Settings\iViewX\Desktop\EXPERIMENTATIONS\Experiments\results\finaleart\S5121332-finaleart-1.idf
Date:	27.03.2019 15:35:04
Version:	BeGaze 2.5.77
Sample Rate:	50
Subject:	S5121332
Description:	Dylan Marinho

Table Header for Fixations:
Event Type	Trial	Number	Start	End	Duration	Location X	Location Y	Dispersion X	Dispersion Y	Plane	Avg. Pupil Size X	Avg. Pupil Size Y

Table Header for Saccades:
Event Type	Trial	Number	Start	End	Duration	Start Loc.X	Start Loc.Y	End Loc.X	End Loc.Y	Amplitude	Peak Speed	Peak Speed At	Average Speed	Peak Accel.	Peak Decel.	Average Accel.

Table Header for Blinks:
Event Type	Trial	Number	Start	End	Duration

Table Header for User Events:
Event Type	Trial	Number	Start	Description

UserEvent	1	1	9298730355	# Message: void.jpg
Fixation L	1	1	9298744377	9298843752	99375	1095.79	237.16	7	5	-1	14.05	14.05
Fixation R	1	1	9298744377	9298843752	99375	1095.79	237.16	7	5	-1	13.88	13.88
Saccade L	1	1	9298843752	9298883655	39903	1098.80	234.70	736.57	260.35	3.20	196.09	1.00	80.14	4869.07	-4529.96	4298.76
Saccade R	1	1	9298843752	9298883655	39903	1098.80	234.70	736.57	260.35	3.20	196.09	1.00	80.14	4869.07	-4529.96	4298.76
Fixation L	1	2	9298883655	9299281334	397679	708.42	298.33	32	53	-1	13.92	13.92
Fixation R	1	2	9298883655	9299281334	397679	708.42	298.33	32	53	-1	13.83	13.83
Blink L	1	1	9299281334	9299579704	298370
Blink R	1	1	9299281334	9299579704	298370
Saccade L	1	2	9299579704	9299639446	59742	938.17	446.65	935.95	459.84	1.44	76.15	1.00	24.13	26765.28	-551.03	5861.22
Saccade R	1	2	9299579704	9299639446	59742	938.17	446.65	935.95	459.84	1.44	76.15	1.00	24.13	26765.28	-551.03	5861.22
Blink L	1	2	9299639446	9299818434	178988
Blink R	1	2	9299639446	9299818434	178988
Fixation L	1	3	9299818434	9300076928	258494	934.34	456.94	9	42	-1	15.53	15.53
Fixation R	1	3	9299818434	9300076928	258494	934.34	456.94	9	42	-1	15.29	15.29
Blink L	1	3	9300076928	9300275904	198976
Blink R	1	3	9300076928	9300275904	198976
Fixation L	1	4	9300275904	9300713379	437475	957.13	476.48	11	54	-1	16.37	16.37
Fixation R	1	4	9300275904	9300713379	437475	957.13	476.48	11	54	-1	16.29	16.29
