[BeGaze]
Converted from:	C:\Documents and Settings\iViewX\Desktop\EXPERIMENTATIONS\Experiments\results\finaleart\S5121332-finaleart-1.idf
Date:	27.03.2019 15:35:24
Version:	BeGaze 2.5.77
Sample Rate:	50
Subject:	S5121332
Description:	Dylan Marinho

Table Header for Fixations:
Event Type	Trial	Number	Start	End	Duration	Location X	Location Y	Dispersion X	Dispersion Y	Plane	Avg. Pupil Size X	Avg. Pupil Size Y

Table Header for Saccades:
Event Type	Trial	Number	Start	End	Duration	Start Loc.X	Start Loc.Y	End Loc.X	End Loc.Y	Amplitude	Peak Speed	Peak Speed At	Average Speed	Peak Accel.	Peak Decel.	Average Accel.

Table Header for Blinks:
Event Type	Trial	Number	Start	End	Duration

Table Header for User Events:
Event Type	Trial	Number	Start	Description

UserEvent	1	1	10081593816	# Message: kneeling-nude_degas_1888.jpg
Fixation L	1	1	10081596384	10082193101	596717	919.81	534.43	21	71	-1	13.87	13.87
Fixation R	1	1	10081596384	10082193101	596717	919.81	534.43	21	71	-1	13.69	13.69
Saccade L	1	1	10082193101	10082332213	139112	903.98	584.26	1252.00	751.44	6.45	244.11	0.86	46.37	6066.64	-5813.16	2195.18
Saccade R	1	1	10082193101	10082332213	139112	903.98	584.26	1252.00	751.44	6.45	244.11	0.86	46.37	6066.64	-5813.16	2195.18
Fixation L	1	2	10082332213	10082570954	238741	1240.04	758.83	26	31	-1	12.56	12.56
Fixation R	1	2	10082332213	10082570954	238741	1240.04	758.83	26	31	-1	12.14	12.14
Saccade L	1	2	10082570954	10082590812	19858	1225.65	777.66	1195.29	802.33	0.33	39.57	1.00	16.47	948.04	-686.12	657.07
Saccade R	1	2	10082570954	10082590812	19858	1225.65	777.66	1195.29	802.33	0.33	39.57	1.00	16.47	948.04	-686.12	657.07
Fixation L	1	3	10082590812	10083426149	835337	1192.63	844.44	18	63	-1	13.32	13.32
Fixation R	1	3	10082590812	10083426149	835337	1192.63	844.44	18	63	-1	12.88	12.88
Blink L	1	1	10083426149	10083605259	179110
Blink R	1	1	10083426149	10083605259	179110
Fixation L	1	4	10083605259	10083784255	178996	1165.73	201.60	19	33	-1	14.53	14.53
Fixation R	1	4	10083605259	10083784255	178996	1165.73	201.60	19	33	-1	14.13	14.13
Saccade L	1	3	10083784255	10083823999	39744	1161.04	203.95	924.54	317.44	2.26	182.69	1.00	56.82	4543.41	-4536.32	3342.84
Saccade R	1	3	10083784255	10083823999	39744	1161.04	203.95	924.54	317.44	2.26	182.69	1.00	56.82	4543.41	-4536.32	3342.84
Fixation L	1	5	10083823999	10084042724	218725	927.79	320.38	13	28	-1	14.75	14.75
Fixation R	1	5	10083823999	10084042724	218725	927.79	320.38	13	28	-1	14.37	14.37
Saccade L	1	4	10084042724	10084082609	39885	925.45	341.63	779.09	602.85	2.68	206.12	0.50	67.26	5036.44	-4959.40	3558.50
Saccade R	1	4	10084042724	10084082609	39885	925.45	341.63	779.09	602.85	2.68	206.12	0.50	67.26	5036.44	-4959.40	3558.50
Fixation L	1	6	10084082609	10084380968	298359	767.25	592.13	14	21	-1	14.90	14.90
Fixation R	1	6	10084082609	10084380968	298359	767.25	592.13	14	21	-1	14.61	14.61
Saccade L	1	5	10084380968	10084400846	19878	768.69	586.82	774.32	710.09	0.90	124.81	1.00	45.04	3115.76	-2541.13	2300.37
Saccade R	1	5	10084380968	10084400846	19878	768.69	586.82	774.32	710.09	0.90	124.81	1.00	45.04	3115.76	-2541.13	2300.37
Fixation L	1	7	10084400846	10084719069	318223	808.50	703.22	61	37	-1	14.42	14.42
Fixation R	1	7	10084400846	10084719069	318223	808.50	703.22	61	37	-1	14.52	14.52
Saccade L	1	6	10084719069	10084738932	19863	812.02	713.63	811.97	715.41	0.04	4.08	1.00	1.87	81.99	0.69	35.81
Saccade R	1	6	10084719069	10084738932	19863	812.02	713.63	811.97	715.41	0.04	4.08	1.00	1.87	81.99	0.69	35.81
Fixation L	1	8	10084738932	10084858301	119369	811.11	726.51	2	20	-1	14.75	14.75
Fixation R	1	8	10084738932	10084858301	119369	811.11	726.51	2	20	-1	14.99	14.99
Saccade L	1	7	10084858301	10084878183	19882	809.63	727.15	799.57	825.76	0.88	100.26	1.00	44.22	2484.27	-2335.35	2102.08
Saccade R	1	7	10084858301	10084878183	19882	809.63	727.15	799.57	825.76	0.88	100.26	1.00	44.22	2484.27	-2335.35	2102.08
Fixation L	1	9	10084878183	10085196436	318253	786.81	888.90	20	72	-1	15.02	15.02
Fixation R	1	9	10084878183	10085196436	318253	786.81	888.90	20	72	-1	15.08	15.08
Saccade L	1	8	10085196436	10085216283	19847	796.95	882.99	827.62	867.07	0.36	34.96	1.00	18.18	854.63	-523.92	528.05
Saccade R	1	8	10085196436	10085216283	19847	796.95	882.99	827.62	867.07	0.36	34.96	1.00	18.18	854.63	-523.92	528.05
Fixation L	1	10	10085216283	10085534516	318233	863.98	831.79	43	55	-1	14.76	14.76
Fixation R	1	10	10085216283	10085534516	318233	863.98	831.79	43	55	-1	14.65	14.65
Saccade L	1	9	10085534516	10085594148	59632	869.77	811.33	868.79	810.18	0.07	2.42	1.00	1.22	0.00	-36.40	22.40
Saccade R	1	9	10085534516	10085594148	59632	869.77	811.33	868.79	810.18	0.07	2.42	1.00	1.22	0.00	-36.40	22.40
