[BeGaze]
Converted from:	C:\Documents and Settings\iViewX\Desktop\EXPERIMENTATIONS\Experiments\results\finaleart\S5121332-finaleart-1.idf
Date:	27.03.2019 15:35:29
Version:	BeGaze 2.5.77
Sample Rate:	50
Subject:	S5121332
Description:	Dylan Marinho

Table Header for Fixations:
Event Type	Trial	Number	Start	End	Duration	Location X	Location Y	Dispersion X	Dispersion Y	Plane	Avg. Pupil Size X	Avg. Pupil Size Y

Table Header for Saccades:
Event Type	Trial	Number	Start	End	Duration	Start Loc.X	Start Loc.Y	End Loc.X	End Loc.Y	Amplitude	Peak Speed	Peak Speed At	Average Speed	Peak Accel.	Peak Decel.	Average Accel.

Table Header for Blinks:
Event Type	Trial	Number	Start	End	Duration

Table Header for User Events:
Event Type	Trial	Number	Start	Description

UserEvent	1	1	10189741162	# Message: void.jpg
Saccade L	1	1	10189741743	10189801356	59613	591.13	565.49	679.51	486.80	1.88	73.14	1.00	31.51	1447.92	-1299.22	969.66
Saccade R	1	1	10189741743	10189801356	59613	591.13	565.49	679.51	486.80	1.88	73.14	1.00	31.51	1447.92	-1299.22	969.66
Fixation L	1	1	10189801356	10189980334	178978	693.76	449.38	29	68	-1	14.64	14.64
Fixation R	1	1	10189801356	10189980334	178978	693.76	449.38	29	68	-1	14.73	14.73
Saccade L	1	2	10189980334	10190000215	19881	708.93	417.93	774.89	298.55	0.86	137.94	1.00	43.05	3270.15	-3389.62	2398.25
Saccade R	1	2	10189980334	10190000215	19881	708.93	417.93	774.89	298.55	0.86	137.94	1.00	43.05	3270.15	-3389.62	2398.25
Fixation L	1	2	10190000215	10190179204	178989	776.98	308.13	12	17	-1	14.18	14.18
Fixation R	1	2	10190000215	10190179204	178989	776.98	308.13	12	17	-1	14.25	14.25
Blink L	1	1	10190179204	10190318448	139244
Blink R	1	1	10190179204	10190318448	139244
Fixation L	1	3	10190318448	10190437810	119362	812.40	324.00	16	8	-1	14.37	14.37
Fixation R	1	3	10190318448	10190437810	119362	812.40	324.00	16	8	-1	14.49	14.49
Blink L	1	2	10190437810	10190577066	139256
Blink R	1	2	10190437810	10190577066	139256
Fixation L	1	4	10190577066	10190815799	238733	978.57	378.88	16	44	-1	15.44	15.44
Fixation R	1	4	10190577066	10190815799	238733	978.57	378.88	16	44	-1	15.56	15.56
Blink L	1	3	10190815799	10190974912	159113
Blink R	1	3	10190815799	10190974912	159113
Fixation L	1	5	10190974912	10191352770	377858	976.70	404.53	9	23	-1	16.61	16.61
Fixation R	1	5	10190974912	10191352770	377858	976.70	404.53	9	23	-1	16.32	16.32
Saccade L	1	3	10191352770	10191372638	19868	974.00	413.14	920.53	467.57	0.51	77.18	1.00	25.79	1875.77	-1491.38	1264.01
Saccade R	1	3	10191352770	10191372638	19868	974.00	413.14	920.53	467.57	0.51	77.18	1.00	25.79	1875.77	-1491.38	1264.01
Fixation L	1	6	10191372638	10191730614	357976	879.88	476.90	50	29	-1	16.49	16.49
Fixation R	1	6	10191372638	10191730614	357976	879.88	476.90	50	29	-1	16.32	16.32
