[BeGaze]
Converted from:	C:\Documents and Settings\iViewX\Desktop\EXPERIMENTATIONS\Experiments\results\finaleart\S5121332-finaleart-1.idf
Date:	27.03.2019 15:35:20
Version:	BeGaze 2.5.77
Sample Rate:	50
Subject:	S5121332
Description:	Dylan Marinho

Table Header for Fixations:
Event Type	Trial	Number	Start	End	Duration	Location X	Location Y	Dispersion X	Dispersion Y	Plane	Avg. Pupil Size X	Avg. Pupil Size Y

Table Header for Saccades:
Event Type	Trial	Number	Start	End	Duration	Start Loc.X	Start Loc.Y	End Loc.X	End Loc.Y	Amplitude	Peak Speed	Peak Speed At	Average Speed	Peak Accel.	Peak Decel.	Average Accel.

Table Header for Blinks:
Event Type	Trial	Number	Start	End	Duration

Table Header for User Events:
Event Type	Trial	Number	Start	Description

UserEvent	1	1	9882504995	# Message: Still-life-of-Sheep-s-Ribs-and-Head-The-Butchers-conter_Goya_1812.jpg
Fixation L	1	1	9882516406	9882993747	477341	877.82	507.66	40	55	-1	13.63	13.63
Fixation R	1	1	9882516406	9882993747	477341	877.82	507.66	40	55	-1	13.09	13.09
Saccade L	1	1	9882993747	9883013628	19881	881.93	500.41	944.57	505.40	0.46	63.57	1.00	23.15	1539.57	-1224.89	925.03
Saccade R	1	1	9882993747	9883013628	19881	881.93	500.41	944.57	505.40	0.46	63.57	1.00	23.15	1539.57	-1224.89	925.03
Fixation L	1	2	9883013628	9883152859	139231	956.98	516.79	18	20	-1	14.03	14.03
Fixation R	1	2	9883013628	9883152859	139231	956.98	516.79	18	20	-1	13.52	13.52
Saccade L	1	2	9883152859	9883192603	39744	962.42	521.41	592.01	615.04	3.44	208.47	1.00	86.57	5115.65	-4936.17	4576.80
Saccade R	1	2	9883152859	9883192603	39744	962.42	521.41	592.01	615.04	3.44	208.47	1.00	86.57	5115.65	-4936.17	4576.80
Fixation L	1	3	9883192603	9883590446	397843	551.24	632.11	68	25	-1	15.02	15.02
Fixation R	1	3	9883192603	9883590446	397843	551.24	632.11	68	25	-1	14.60	14.60
Saccade L	1	3	9883590446	9883610323	19877	523.31	640.40	481.91	641.22	0.33	41.88	1.00	16.81	1006.77	-965.97	799.34
Saccade R	1	3	9883590446	9883610323	19877	523.31	640.40	481.91	641.22	0.33	41.88	1.00	16.81	1006.77	-965.97	799.34
Fixation L	1	4	9883610323	9883848931	238608	472.47	648.27	17	16	-1	15.67	15.67
Fixation R	1	4	9883610323	9883848931	238608	472.47	648.27	17	16	-1	15.35	15.35
Saccade L	1	4	9883848931	9883908677	59746	464.00	658.19	970.98	585.80	5.26	257.60	0.67	87.96	6373.69	-6312.70	4026.86
Saccade R	1	4	9883848931	9883908677	59746	464.00	658.19	970.98	585.80	5.26	257.60	0.67	87.96	6373.69	-6312.70	4026.86
Fixation L	1	5	9883908677	9884167164	258487	974.37	572.16	6	28	-1	15.94	15.94
Fixation R	1	5	9883908677	9884167164	258487	974.37	572.16	6	28	-1	15.99	15.99
Saccade L	1	5	9884167164	9884187045	19881	972.65	557.22	1062.04	554.44	0.67	90.47	1.00	33.69	2065.00	-2036.25	1506.87
Saccade R	1	5	9884167164	9884187045	19881	972.65	557.22	1062.04	554.44	0.67	90.47	1.00	33.69	2065.00	-2036.25	1506.87
Fixation L	1	6	9884187045	9884386023	198978	1086.29	551.65	32	19	-1	16.74	16.74
Fixation R	1	6	9884187045	9884386023	198978	1086.29	551.65	32	19	-1	15.99	15.99
Blink L	1	1	9884386023	9884545154	159131
Blink R	1	1	9884386023	9884545154	159131
Fixation L	1	7	9884545154	9884783756	238602	546.22	662.80	55	41	-1	16.74	16.74
Fixation R	1	7	9884545154	9884783756	238602	546.22	662.80	55	41	-1	17.09	17.09
Saccade L	1	6	9884783756	9884823493	39737	558.34	675.58	755.70	668.22	1.77	114.72	0.50	44.61	2805.02	-2375.14	2322.57
Saccade R	1	6	9884783756	9884823493	39737	558.34	675.58	755.70	668.22	1.77	114.72	0.50	44.61	2805.02	-2375.14	2322.57
Fixation L	1	8	9884823493	9885022490	198997	750.07	648.22	8	32	-1	16.75	16.75
Fixation R	1	8	9884823493	9885022490	198997	750.07	648.22	8	32	-1	17.03	17.03
Saccade L	1	7	9885022490	9885062241	39751	749.48	635.75	1170.69	677.56	3.78	229.82	0.50	95.10	5705.67	-4746.52	4993.19
Saccade R	1	7	9885022490	9885062241	39751	749.48	635.75	1170.69	677.56	3.78	229.82	0.50	95.10	5705.67	-4746.52	4993.19
Fixation L	1	9	9885062241	9885360585	298344	1207.72	708.56	49	45	-1	17.12	17.12
Fixation R	1	9	9885062241	9885360585	298344	1207.72	708.56	49	45	-1	17.57	17.57
Blink L	1	2	9885360585	9885499833	139248
Blink R	1	2	9885360585	9885499833	139248
Fixation L	1	10	9885499833	9886176052	676219	1149.21	526.38	38	35	-1	16.18	16.18
Fixation R	1	10	9885499833	9886176052	676219	1149.21	526.38	38	35	-1	16.24	16.24
Saccade L	1	8	9886176052	9886195929	19877	1145.11	526.58	1060.96	529.26	0.51	85.16	1.00	25.44	2052.67	-1980.23	1391.15
Saccade R	1	8	9886176052	9886195929	19877	1145.11	526.58	1060.96	529.26	0.51	85.16	1.00	25.44	2052.67	-1980.23	1391.15
Fixation L	1	11	9886195929	9886414778	218849	1059.35	537.21	6	14	-1	16.26	16.26
Fixation R	1	11	9886195929	9886414778	218849	1059.35	537.21	6	14	-1	15.83	15.83
Saccade L	1	9	9886414778	9886494272	79494	1059.79	544.14	986.78	778.68	3.48	124.37	0.25	43.80	3075.97	-2914.91	2357.02
Saccade R	1	9	9886414778	9886494272	79494	1059.79	544.14	986.78	778.68	3.48	124.37	0.25	43.80	3075.97	-2914.91	2357.02
