[BeGaze]
Converted from:	C:\Documents and Settings\iViewX\Desktop\EXPERIMENTATIONS\Experiments\results\finaleart\S5121332-finaleart-1.idf
Date:	27.03.2019 15:35:08
Version:	BeGaze 2.5.77
Sample Rate:	50
Subject:	S5121332
Description:	Dylan Marinho

Table Header for Fixations:
Event Type	Trial	Number	Start	End	Duration	Location X	Location Y	Dispersion X	Dispersion Y	Plane	Avg. Pupil Size X	Avg. Pupil Size Y

Table Header for Saccades:
Event Type	Trial	Number	Start	End	Duration	Start Loc.X	Start Loc.Y	End Loc.X	End Loc.Y	Amplitude	Peak Speed	Peak Speed At	Average Speed	Peak Accel.	Peak Decel.	Average Accel.

Table Header for Blinks:
Event Type	Trial	Number	Start	End	Duration

Table Header for User Events:
Event Type	Trial	Number	Start	Description

UserEvent	1	1	9492764688	# Message: void.jpg
Fixation L	1	1	9492773783	9493111895	338112	1210.02	794.97	37	52	-1	16.00	16.00
Fixation R	1	1	9492773783	9493111895	338112	1210.02	794.97	37	52	-1	15.88	15.88
Saccade L	1	1	9493111895	9493231261	119366	1213.36	787.04	985.35	781.16	4.54	189.69	0.33	38.04	32514.25	-4699.48	5652.88
Saccade R	1	1	9493111895	9493231261	119366	1213.36	787.04	985.35	781.16	4.54	189.69	0.33	38.04	32514.25	-4699.48	5652.88
Blink L	1	1	9493231261	9493410245	178984
Blink R	1	1	9493231261	9493410245	178984
Saccade L	1	2	9493410245	9493469989	59744	809.98	572.77	808.35	583.76	13.28	1010.40	1.00	222.22	29327.39	-24986.39	12298.44
Saccade R	1	2	9493410245	9493469989	59744	809.98	572.77	808.35	583.76	13.28	1010.40	1.00	222.22	29327.39	-24986.39	12298.44
Blink L	1	2	9493469989	9493728604	258615
Blink R	1	2	9493469989	9493728604	258615
Fixation L	1	2	9493728604	9494046834	318230	891.03	509.00	8	40	-1	16.70	16.70
Fixation R	1	2	9493728604	9494046834	318230	891.03	509.00	8	40	-1	16.30	16.30
Blink L	1	3	9494046834	9494205942	159108
Blink R	1	3	9494046834	9494205942	159108
Fixation L	1	3	9494205942	9494762784	556842	994.03	490.79	7	34	-1	16.32	16.32
Fixation R	1	3	9494205942	9494762784	556842	994.03	490.79	7	34	-1	16.39	16.39
