[BeGaze]
Converted from:	C:\Documents and Settings\iViewX\Desktop\EXPERIMENTATIONS\Experiments\results\finaleart\S5121332-finaleart-1.idf
Date:	27.03.2019 15:35:24
Version:	BeGaze 2.5.77
Sample Rate:	50
Subject:	S5121332
Description:	Dylan Marinho

Table Header for Fixations:
Event Type	Trial	Number	Start	End	Duration	Location X	Location Y	Dispersion X	Dispersion Y	Plane	Avg. Pupil Size X	Avg. Pupil Size Y

Table Header for Saccades:
Event Type	Trial	Number	Start	End	Duration	Start Loc.X	Start Loc.Y	End Loc.X	End Loc.Y	Amplitude	Peak Speed	Peak Speed At	Average Speed	Peak Accel.	Peak Decel.	Average Accel.

Table Header for Blinks:
Event Type	Trial	Number	Start	End	Duration

Table Header for User Events:
Event Type	Trial	Number	Start	Description

UserEvent	1	1	10091747955	# Message: void.jpg
Saccade L	1	1	10091766523	10091786392	19869	1078.72	669.93	1078.67	678.63	1.47	213.45	1.00	74.09	36397.46	0.00	13911.28
Saccade R	1	1	10091766523	10091786392	19869	1078.72	669.93	1078.67	678.63	1.47	213.45	1.00	74.09	36397.46	0.00	13911.28
Blink L	1	1	10091786392	10091985377	198985
Blink R	1	1	10091786392	10091985377	198985
Saccade L	1	2	10091985377	10092044995	59618	1067.49	572.87	1150.18	590.22	3.48	140.25	1.00	58.34	2939.32	-3143.12	2023.15
Saccade R	1	2	10091985377	10092044995	59618	1067.49	572.87	1150.18	590.22	3.48	140.25	1.00	58.34	2939.32	-3143.12	2023.15
Fixation L	1	1	10092044995	10092184236	139241	1137.20	594.64	19	14	-1	14.42	14.42
Fixation R	1	1	10092044995	10092184236	139241	1137.20	594.64	19	14	-1	13.97	13.97
Blink L	1	2	10092184236	10092661592	477356
Blink R	1	2	10092184236	10092661592	477356
Fixation L	1	2	10092661592	10092780961	119369	972.21	393.83	36	16	-1	14.10	14.10
Fixation R	1	2	10092661592	10092780961	119369	972.21	393.83	36	16	-1	13.88	13.88
Blink L	1	3	10092780961	10092999695	218734
Blink R	1	3	10092780961	10092999695	218734
Fixation L	1	3	10092999695	10093516909	517214	820.28	367.58	31	46	-1	13.61	13.61
Fixation R	1	3	10092999695	10093516909	517214	820.28	367.58	31	46	-1	13.15	13.15
Saccade L	1	3	10093516909	10093536791	19882	839.19	395.59	854.87	417.18	0.33	28.95	0.00	16.78	667.11	-452.08	498.29
Saccade R	1	3	10093516909	10093536791	19882	839.19	395.59	854.87	417.18	0.33	28.95	0.00	16.78	667.11	-452.08	498.29
Fixation L	1	4	10093536791	10093735650	198859	868.96	434.74	25	29	-1	13.32	13.32
Fixation R	1	4	10093536791	10093735650	198859	868.96	434.74	25	29	-1	12.90	12.90
