[BeGaze]
Converted from:	C:\Documents and Settings\iViewX\Desktop\EXPERIMENTATIONS\Experiments\results\finaleart\S5121332-finaleart-1.idf
Date:	27.03.2019 15:34:53
Version:	BeGaze 2.5.77
Sample Rate:	50
Subject:	S5121332
Description:	Dylan Marinho

Table Header for Fixations:
Event Type	Trial	Number	Start	End	Duration	Location X	Location Y	Dispersion X	Dispersion Y	Plane	Avg. Pupil Size X	Avg. Pupil Size Y

Table Header for Saccades:
Event Type	Trial	Number	Start	End	Duration	Start Loc.X	Start Loc.Y	End Loc.X	End Loc.Y	Amplitude	Peak Speed	Peak Speed At	Average Speed	Peak Accel.	Peak Decel.	Average Accel.

Table Header for Blinks:
Event Type	Trial	Number	Start	End	Duration

Table Header for User Events:
Event Type	Trial	Number	Start	Description

UserEvent	1	1	8893430013	# Message: REJECTED_landscape_cross_0.jpg
Fixation L	1	1	8893437602	8893994428	556826	862.26	585.85	47	38	-1	16.27	16.27
Fixation R	1	1	8893437602	8893994428	556826	862.26	585.85	47	38	-1	16.34	16.34
Saccade L	1	1	8893994428	8894014417	19989	903.96	577.04	964.40	573.00	0.54	61.29	1.00	26.82	1489.11	-1444.91	1283.80
Saccade R	1	1	8893994428	8894014417	19989	903.96	577.04	964.40	573.00	0.54	61.29	1.00	26.82	1489.11	-1444.91	1283.80
Fixation L	1	2	8894014417	8894272901	258484	965.58	579.25	11	13	-1	15.87	15.87
Fixation R	1	2	8894014417	8894272901	258484	965.58	579.25	11	13	-1	15.65	15.65
Saccade L	1	2	8894272901	8894292773	19872	957.57	577.76	814.28	531.22	0.92	152.37	1.00	46.48	3766.88	-3660.41	2554.40
Saccade R	1	2	8894272901	8894292773	19872	957.57	577.76	814.28	531.22	0.92	152.37	1.00	46.48	3766.88	-3660.41	2554.40
Fixation L	1	3	8894292773	8894650875	358102	828.29	532.08	38	18	-1	14.76	14.76
Fixation R	1	3	8894292773	8894650875	358102	828.29	532.08	38	18	-1	14.56	14.56
Saccade L	1	3	8894650875	8894670751	19876	796.80	534.91	578.42	544.49	1.32	221.03	1.00	66.44	5426.75	-5290.71	3736.32
Saccade R	1	3	8894650875	8894670751	19876	796.80	534.91	578.42	544.49	1.32	221.03	1.00	66.44	5426.75	-5290.71	3736.32
Fixation L	1	4	8894670751	8894929240	258489	569.20	584.39	14	71	-1	14.58	14.58
Fixation R	1	4	8894670751	8894929240	258489	569.20	584.39	14	71	-1	14.61	14.61
Saccade L	1	4	8894929240	8894969113	39873	568.30	616.34	576.44	771.80	1.45	133.39	1.00	36.44	2993.08	-3227.17	1789.73
Saccade R	1	4	8894929240	8894969113	39873	568.30	616.34	576.44	771.80	1.45	133.39	1.00	36.44	2993.08	-3227.17	1789.73
Fixation L	1	5	8894969113	8895287358	318245	589.17	775.98	24	25	-1	15.72	15.72
Fixation R	1	5	8894969113	8895287358	318245	589.17	775.98	24	25	-1	16.06	16.06
Saccade L	1	5	8895287358	8895327083	39725	600.66	790.44	1042.07	912.80	4.24	251.27	0.50	106.74	6224.30	-5221.18	5350.57
Saccade R	1	5	8895287358	8895327083	39725	600.66	790.44	1042.07	912.80	4.24	251.27	0.50	106.74	6224.30	-5221.18	5350.57
Fixation L	1	6	8895327083	8895625452	298369	1093.57	921.68	65	13	-1	16.82	16.82
Fixation R	1	6	8895327083	8895625452	298369	1093.57	921.68	65	13	-1	17.14	17.14
Saccade L	1	6	8895625452	8895665197	39745	1087.97	925.81	1250.98	812.80	2.25	125.56	0.50	56.49	3062.05	-1764.19	2058.92
Saccade R	1	6	8895625452	8895665197	39745	1087.97	925.81	1250.98	812.80	2.25	125.56	0.50	56.49	3062.05	-1764.19	2058.92
Fixation L	1	7	8895665197	8895923801	258604	1249.06	809.48	35	63	-1	17.49	17.49
Fixation R	1	7	8895665197	8895923801	258604	1249.06	809.48	35	63	-1	17.53	17.53
Saccade L	1	7	8895923801	8895943674	19873	1238.10	804.95	1236.48	804.74	0.05	4.61	0.00	2.38	9.05	-68.29	28.31
Saccade R	1	7	8895923801	8895943674	19873	1238.10	804.95	1236.48	804.74	0.05	4.61	0.00	2.38	9.05	-68.29	28.31
Fixation L	1	8	8895943674	8896082911	139237	1233.99	811.53	15	12	-1	17.53	17.53
Fixation R	1	8	8895943674	8896082911	139237	1233.99	811.53	15	12	-1	17.49	17.49
Saccade L	1	8	8896082911	8896102792	19881	1221.63	817.64	1127.19	816.67	0.56	95.53	1.00	28.00	2353.95	-2297.05	1635.44
Saccade R	1	8	8896082911	8896102792	19881	1221.63	817.64	1127.19	816.67	0.56	95.53	1.00	28.00	2353.95	-2297.05	1635.44
Fixation L	1	9	8896102792	8896281779	178987	1124.42	806.48	4	21	-1	17.60	17.60
Fixation R	1	9	8896102792	8896281779	178987	1124.42	806.48	4	21	-1	17.44	17.44
Saccade L	1	9	8896281779	8896301657	19878	1125.24	795.35	1032.62	752.61	0.80	103.18	1.00	40.44	2482.53	-2439.20	2059.76
Saccade R	1	9	8896281779	8896301657	19878	1125.24	795.35	1032.62	752.61	0.80	103.18	1.00	40.44	2482.53	-2439.20	2059.76
Fixation L	1	10	8896301657	8896460773	159116	1001.12	713.13	37	50	-1	16.94	16.94
Fixation R	1	10	8896301657	8896460773	159116	1001.12	713.13	37	50	-1	16.82	16.82
Saccade L	1	10	8896460773	8896480647	19874	995.92	701.81	989.68	659.43	0.37	43.34	1.00	18.52	1021.43	-553.20	725.68
Saccade R	1	10	8896460773	8896480647	19874	995.92	701.81	989.68	659.43	0.37	43.34	1.00	18.52	1021.43	-553.20	725.68
Fixation L	1	11	8896480647	8896659764	179117	955.16	630.26	47	37	-1	16.30	16.30
Fixation R	1	11	8896480647	8896659764	179117	955.16	630.26	47	37	-1	16.17	16.17
Saccade L	1	11	8896659764	8896679626	19862	942.87	622.16	937.90	601.08	0.21	21.90	1.00	10.81	423.97	-9.04	155.79
Saccade R	1	11	8896659764	8896679626	19862	942.87	622.16	937.90	601.08	0.21	21.90	1.00	10.81	423.97	-9.04	155.79
Fixation L	1	12	8896679626	8897176858	497232	926.31	578.41	19	32	-1	15.22	15.22
Fixation R	1	12	8896679626	8897176858	497232	926.31	578.41	19	32	-1	15.14	15.14
Saccade L	1	12	8897176858	8897196717	19859	918.83	568.97	871.25	470.27	0.83	110.83	1.00	41.90	2731.60	-2456.31	1995.76
Saccade R	1	12	8897176858	8897196717	19859	918.83	568.97	871.25	470.27	0.83	110.83	1.00	41.90	2731.60	-2456.31	1995.76
Fixation L	1	13	8897196717	8897455335	258618	834.86	429.70	44	49	-1	15.16	15.16
Fixation R	1	13	8897196717	8897455335	258618	834.86	429.70	44	49	-1	15.15	15.15
