[BeGaze]
Converted from:	C:\Documents and Settings\iViewX\Desktop\EXPERIMENTATIONS\Experiments\results\finaleart\S5121332-finaleart-1.idf
Date:	27.03.2019 15:35:12
Version:	BeGaze 2.5.77
Sample Rate:	50
Subject:	S5121332
Description:	Dylan Marinho

Table Header for Fixations:
Event Type	Trial	Number	Start	End	Duration	Location X	Location Y	Dispersion X	Dispersion Y	Plane	Avg. Pupil Size X	Avg. Pupil Size Y

Table Header for Saccades:
Event Type	Trial	Number	Start	End	Duration	Start Loc.X	Start Loc.Y	End Loc.X	End Loc.Y	Amplitude	Peak Speed	Peak Speed At	Average Speed	Peak Accel.	Peak Decel.	Average Accel.

Table Header for Blinks:
Event Type	Trial	Number	Start	End	Duration

Table Header for User Events:
Event Type	Trial	Number	Start	Description

UserEvent	1	1	9586973953	# Message: Nature_morte_a_la_cafetiere_rouge_Vlaminck.jpg
Fixation L	1	1	9586991729	9587628188	636459	981.16	494.64	16	25	-1	16.40	16.40
Fixation R	1	1	9586991729	9587628188	636459	981.16	494.64	16	25	-1	16.02	16.02
Saccade L	1	1	9587628188	9587648061	19873	986.29	512.05	988.23	571.81	0.53	60.49	1.00	26.46	1430.98	-1387.26	1006.24
Saccade R	1	1	9587628188	9587648061	19873	986.29	512.05	988.23	571.81	0.53	60.49	1.00	26.46	1430.98	-1387.26	1006.24
Fixation L	1	2	9587648061	9587846923	198862	988.37	583.34	8	16	-1	14.74	14.74
Fixation R	1	2	9587648061	9587846923	198862	988.37	583.34	8	16	-1	14.32	14.32
Saccade L	1	2	9587846923	9587866788	19865	989.11	584.27	1093.36	634.09	0.65	116.87	1.00	32.68	2830.74	-2684.59	1846.07
Saccade R	1	2	9587846923	9587866788	19865	989.11	584.27	1093.36	634.09	0.65	116.87	1.00	32.68	2830.74	-2684.59	1846.07
Fixation L	1	3	9587866788	9588045929	179141	1098.08	648.61	8	22	-1	13.95	13.95
Fixation R	1	3	9587866788	9588045929	179141	1098.08	648.61	8	22	-1	13.70	13.70
Blink L	1	1	9588045929	9588264661	218732
Blink R	1	1	9588045929	9588264661	218732
Fixation L	1	4	9588264661	9588423765	159104	983.94	420.13	12	9	-1	13.65	13.65
Fixation R	1	4	9588264661	9588423765	159104	983.94	420.13	12	9	-1	13.25	13.25
Blink L	1	2	9588423765	9588563005	139240
Blink R	1	2	9588423765	9588563005	139240
Fixation L	1	5	9588563005	9589119842	556837	986.40	422.97	42	56	-1	13.85	13.85
Fixation R	1	5	9588563005	9589119842	556837	986.40	422.97	42	56	-1	13.64	13.64
Saccade L	1	3	9589119842	9589219336	99494	954.39	458.91	750.17	493.19	3.32	197.28	1.00	33.34	4849.65	-4792.02	1531.53
Saccade R	1	3	9589119842	9589219336	99494	954.39	458.91	750.17	493.19	3.32	197.28	1.00	33.34	4849.65	-4792.02	1531.53
Fixation L	1	6	9589219336	9589438065	218729	719.62	523.00	40	42	-1	14.72	14.72
Fixation R	1	6	9589219336	9589438065	218729	719.62	523.00	40	42	-1	14.35	14.35
Saccade L	1	4	9589438065	9589458076	20011	715.46	535.71	931.92	508.86	1.48	220.55	1.00	73.85	5480.53	-5369.56	4120.03
Saccade R	1	4	9589438065	9589458076	20011	715.46	535.71	931.92	508.86	1.48	220.55	1.00	73.85	5480.53	-5369.56	4120.03
Fixation L	1	7	9589458076	9589597178	139102	994.67	499.51	75	23	-1	14.81	14.81
Fixation R	1	7	9589458076	9589597178	139102	994.67	499.51	75	23	-1	14.59	14.59
Saccade L	1	5	9589597178	9589617188	20010	1007.31	492.94	1008.53	488.83	0.09	11.50	1.00	4.38	26.52	-179.41	101.60
Saccade R	1	5	9589597178	9589617188	20010	1007.31	492.94	1008.53	488.83	0.09	11.50	1.00	4.38	26.52	-179.41	101.60
Fixation L	1	8	9589617188	9590969602	1352414	1006.43	481.08	15	18	-1	14.72	14.72
Fixation R	1	8	9589617188	9590969602	1352414	1006.43	481.08	15	18	-1	14.50	14.50
