[BeGaze]
Converted from:	C:\Documents and Settings\iViewX\Desktop\EXPERIMENTATIONS\Experiments\results\finaleart\S5121332-finaleart-1.idf
Date:	27.03.2019 15:35:36
Version:	BeGaze 2.5.77
Sample Rate:	50
Subject:	S5121332
Description:	Dylan Marinho

Table Header for Fixations:
Event Type	Trial	Number	Start	End	Duration	Location X	Location Y	Dispersion X	Dispersion Y	Plane	Avg. Pupil Size X	Avg. Pupil Size Y

Table Header for Saccades:
Event Type	Trial	Number	Start	End	Duration	Start Loc.X	Start Loc.Y	End Loc.X	End Loc.Y	Amplitude	Peak Speed	Peak Speed At	Average Speed	Peak Accel.	Peak Decel.	Average Accel.

Table Header for Blinks:
Event Type	Trial	Number	Start	End	Duration

Table Header for User Events:
Event Type	Trial	Number	Start	Description

UserEvent	1	1	10503575753	# Message: The_Joy_Of_Life_Matisse_1906.jpg
Fixation L	1	1	10503591301	10504128266	536965	975.44	572.79	45	15	-1	14.72	14.72
Fixation R	1	1	10503591301	10504128266	536965	975.44	572.79	45	15	-1	14.38	14.38
Saccade L	1	1	10504128266	10504168012	39746	984.00	571.05	1112.38	695.24	1.59	143.69	1.00	39.96	3509.38	-3438.96	2124.08
Saccade R	1	1	10504128266	10504168012	39746	984.00	571.05	1112.38	695.24	1.59	143.69	1.00	39.96	3509.38	-3438.96	2124.08
Fixation L	1	2	10504168012	10504347006	178994	1124.90	691.35	53	19	-1	14.16	14.16
Fixation R	1	2	10504168012	10504347006	178994	1124.90	691.35	53	19	-1	13.86	13.86
Saccade L	1	2	10504347006	10504367002	19996	1165.77	682.54	1194.25	681.31	0.43	45.15	0.00	21.59	676.93	-863.62	684.97
Saccade R	1	2	10504347006	10504367002	19996	1165.77	682.54	1194.25	681.31	0.43	45.15	0.00	21.59	676.93	-863.62	684.97
Fixation L	1	3	10504367002	10504545992	178990	1201.75	681.14	10	7	-1	13.40	13.40
Fixation R	1	3	10504367002	10504545992	178990	1201.75	681.14	10	7	-1	13.12	13.12
Blink L	1	1	10504545992	10504685233	139241
Blink R	1	1	10504545992	10504685233	139241
Fixation L	1	4	10504685233	10504864237	179004	1204.62	666.90	8	28	-1	13.21	13.21
Fixation R	1	4	10504685233	10504864237	179004	1204.62	666.90	8	28	-1	12.87	12.87
Saccade L	1	3	10504864237	10504903968	39731	1205.18	666.10	988.94	593.03	2.14	121.81	0.50	53.81	2938.16	-2727.13	2730.11
Saccade R	1	3	10504864237	10504903968	39731	1205.18	666.10	988.94	593.03	2.14	121.81	0.50	53.81	2938.16	-2727.13	2730.11
Fixation L	1	5	10504903968	10505182458	278490	984.27	563.76	12	36	-1	13.36	13.36
Fixation R	1	5	10504903968	10505182458	278490	984.27	563.76	12	36	-1	12.97	12.97
Blink L	1	2	10505182458	10505301814	119356
Blink R	1	2	10505182458	10505301814	119356
Fixation L	1	6	10505301814	10505421069	119255	823.22	540.18	9	18	-1	12.95	12.95
Fixation R	1	6	10505301814	10505421069	119255	823.22	540.18	9	18	-1	12.46	12.46
Saccade L	1	4	10505421069	10505440987	19918	815.92	541.48	621.67	541.34	1.24	196.43	1.00	62.21	4842.40	-4777.37	3451.05
Saccade R	1	4	10505421069	10505440987	19918	815.92	541.48	621.67	541.34	1.24	196.43	1.00	62.21	4842.40	-4777.37	3451.05
Fixation L	1	7	10505440987	10505858658	417671	586.96	563.16	39	30	-1	13.12	13.12
Fixation R	1	7	10505440987	10505858658	417671	586.96	563.16	39	30	-1	12.86	12.86
Saccade L	1	5	10505858658	10505898410	39752	587.11	565.79	477.32	853.17	2.92	211.80	1.00	73.36	5275.35	-4953.49	3472.34
Saccade R	1	5	10505858658	10505898410	39752	587.11	565.79	477.32	853.17	2.92	211.80	1.00	73.36	5275.35	-4953.49	3472.34
Fixation L	1	8	10505898410	10506097402	198992	467.88	887.54	39	52	-1	13.07	13.07
Fixation R	1	8	10505898410	10506097402	198992	467.88	887.54	39	52	-1	13.14	13.14
Saccade L	1	6	10506097402	10506137147	39745	495.92	895.42	893.29	1066.56	3.89	235.72	0.50	97.75	5836.22	-5720.33	5154.20
Saccade R	1	6	10506097402	10506137147	39745	495.92	895.42	893.29	1066.56	3.89	235.72	0.50	97.75	5836.22	-5720.33	5154.20
Fixation L	1	9	10506137147	10506316131	178984	902.64	1070.06	12	30	-1	13.29	13.29
Fixation R	1	9	10506137147	10506316131	178984	902.64	1070.06	12	30	-1	13.57	13.57
Saccade L	1	7	10506316131	10506336009	19878	905.60	1046.86	951.68	983.81	0.60	79.00	1.00	30.14	1919.81	-1783.06	1340.60
Saccade R	1	7	10506316131	10506336009	19878	905.60	1046.86	951.68	983.81	0.60	79.00	1.00	30.14	1919.81	-1783.06	1340.60
Fixation L	1	10	10506336009	10506574749	238740	975.16	973.31	31	15	-1	13.10	13.10
Fixation R	1	10	10506336009	10506574749	238740	975.16	973.31	31	15	-1	13.20	13.20
Saccade L	1	8	10506574749	10506614490	39741	983.65	976.97	1374.01	955.83	3.56	214.18	1.00	89.48	5312.16	-4829.89	4489.49
Saccade R	1	8	10506574749	10506614490	39741	983.65	976.97	1374.01	955.83	3.56	214.18	1.00	89.48	5312.16	-4829.89	4489.49
Fixation L	1	11	10506614490	10506912850	298360	1401.22	954.13	42	27	-1	13.59	13.59
Fixation R	1	11	10506614490	10506912850	298360	1401.22	954.13	42	27	-1	13.14	13.14
Saccade L	1	9	10506912850	10506932721	19871	1391.07	958.51	1441.41	901.89	0.51	76.64	1.00	25.89	1753.17	-1402.63	1176.43
Saccade R	1	9	10506912850	10506932721	19871	1391.07	958.51	1441.41	901.89	0.51	76.64	1.00	25.89	1753.17	-1402.63	1176.43
Fixation L	1	12	10506932721	10507410068	477347	1474.35	879.94	54	26	-1	13.64	13.64
Fixation R	1	12	10506932721	10507410068	477347	1474.35	879.94	54	26	-1	12.82	12.82
Saccade L	1	10	10507410068	10507449951	39883	1485.99	874.97	1272.72	682.35	2.59	177.08	1.00	64.94	4388.45	-4279.84	3411.43
Saccade R	1	10	10507410068	10507449951	39883	1485.99	874.97	1272.72	682.35	2.59	177.08	1.00	64.94	4388.45	-4279.84	3411.43
Fixation L	1	13	10507449951	10507569176	119225	1250.70	672.13	27	20	-1	12.99	12.99
Fixation R	1	13	10507449951	10507569176	119225	1250.70	672.13	27	20	-1	12.61	12.61
