[BeGaze]
Converted from:	C:\Documents and Settings\iViewX\Desktop\EXPERIMENTATIONS\Experiments\results\finaleart\S5121332-finaleart-1.idf
Date:	27.03.2019 15:35:34
Version:	BeGaze 2.5.77
Sample Rate:	50
Subject:	S5121332
Description:	Dylan Marinho

Table Header for Fixations:
Event Type	Trial	Number	Start	End	Duration	Location X	Location Y	Dispersion X	Dispersion Y	Plane	Avg. Pupil Size X	Avg. Pupil Size Y

Table Header for Saccades:
Event Type	Trial	Number	Start	End	Duration	Start Loc.X	Start Loc.Y	End Loc.X	End Loc.Y	Amplitude	Peak Speed	Peak Speed At	Average Speed	Peak Accel.	Peak Decel.	Average Accel.

Table Header for Blinks:
Event Type	Trial	Number	Start	End	Duration

Table Header for User Events:
Event Type	Trial	Number	Start	Description

UserEvent	1	1	10454261816	# Message: Un_Jardin_Maison_Baptiste_Butler_1895.jpg
Fixation L	1	1	10454272533	10454849365	576832	858.66	498.43	3	37	-1	13.33	13.33
Fixation R	1	1	10454272533	10454849365	576832	858.66	498.43	3	37	-1	13.52	13.52
Saccade L	1	1	10454849365	10454869246	19881	858.13	501.92	894.80	608.79	0.73	114.29	1.00	36.49	2757.02	-2654.69	1886.20
Saccade R	1	1	10454849365	10454869246	19881	858.13	501.92	894.80	608.79	0.73	114.29	1.00	36.49	2757.02	-2654.69	1886.20
Fixation L	1	2	10454869246	10455127845	258599	923.69	606.20	38	19	-1	11.76	11.76
Fixation R	1	2	10454869246	10455127845	258599	923.69	606.20	38	19	-1	12.61	12.61
Blink L	1	1	10455127845	10455306843	178998
Blink R	1	1	10455127845	10455306843	178998
Fixation L	1	3	10455306843	10455525573	218730	804.49	664.26	13	20	-1	12.72	12.72
Fixation R	1	3	10455306843	10455525573	218730	804.49	664.26	13	20	-1	13.30	13.30
Saccade L	1	2	10455525573	10455565449	39876	811.50	661.79	1073.13	763.94	2.79	173.88	1.00	70.01	4310.97	-4211.90	3112.44
Saccade R	1	2	10455525573	10455565449	39876	811.50	661.79	1073.13	763.94	2.79	173.88	1.00	70.01	4310.97	-4211.90	3112.44
Fixation L	1	4	10455565449	10455843799	278350	1094.67	819.77	32	63	-1	13.19	13.19
Fixation R	1	4	10455565449	10455843799	278350	1094.67	819.77	32	63	-1	14.22	14.22
Saccade L	1	3	10455843799	10455863805	20006	1105.71	819.98	1214.64	808.24	0.69	110.82	1.00	34.60	2729.90	-2624.70	1906.16
Saccade R	1	3	10455843799	10455863805	20006	1105.71	819.98	1214.64	808.24	0.69	110.82	1.00	34.60	2729.90	-2624.70	1906.16
Fixation L	1	5	10455863805	10456102417	238612	1228.37	781.99	21	36	-1	13.07	13.07
Fixation R	1	5	10455863805	10456102417	238612	1228.37	781.99	21	36	-1	13.99	13.99
Saccade L	1	4	10456102417	10456142178	39761	1235.91	772.19	1235.75	534.04	2.05	139.20	0.50	51.52	3401.50	-3302.70	2864.32
Saccade R	1	4	10456102417	10456142178	39761	1235.91	772.19	1235.75	534.04	2.05	139.20	0.50	51.52	3401.50	-3302.70	2864.32
Fixation L	1	6	10456142178	10456361025	218847	1230.21	542.31	33	30	-1	12.55	12.55
Fixation R	1	6	10456142178	10456361025	218847	1230.21	542.31	33	30	-1	13.13	13.13
Saccade L	1	5	10456361025	10456380897	19872	1204.18	525.42	1130.31	492.49	0.65	81.81	1.00	32.73	2015.34	-1983.09	1554.44
Saccade R	1	5	10456361025	10456380897	19872	1204.18	525.42	1130.31	492.49	0.65	81.81	1.00	32.73	2015.34	-1983.09	1554.44
Fixation L	1	7	10456380897	10456579764	198867	1121.42	481.10	11	16	-1	12.56	12.56
Fixation R	1	7	10456380897	10456579764	198867	1121.42	481.10	11	16	-1	12.80	12.80
Blink L	1	2	10456579764	10456719005	139241
Blink R	1	2	10456579764	10456719005	139241
Fixation L	1	8	10456719005	10457514572	795567	822.54	395.65	23	15	-1	13.12	13.12
Fixation R	1	8	10456719005	10457514572	795567	822.54	395.65	23	15	-1	12.82	12.82
Saccade L	1	6	10457514572	10457554330	39758	823.25	392.84	781.91	574.77	1.72	115.96	1.00	43.38	2843.96	-2623.00	2133.54
Saccade R	1	6	10457514572	10457554330	39758	823.25	392.84	781.91	574.77	1.72	115.96	1.00	43.38	2843.96	-2623.00	2133.54
Fixation L	1	9	10457554330	10458071545	517215	762.25	613.76	31	61	-1	13.31	13.31
Fixation R	1	9	10457554330	10458071545	517215	762.25	613.76	31	61	-1	13.30	13.30
Saccade L	1	7	10458071545	10458091423	19878	749.99	636.07	729.10	709.01	0.57	76.75	1.00	28.85	1852.86	-1754.57	1257.39
Saccade R	1	7	10458071545	10458091423	19878	749.99	636.07	729.10	709.01	0.57	76.75	1.00	28.85	1852.86	-1754.57	1257.39
Fixation L	1	10	10458091423	10458250542	159119	718.56	717.35	15	22	-1	13.57	13.57
Fixation R	1	10	10458091423	10458250542	159119	718.56	717.35	15	22	-1	13.61	13.61
