[BeGaze]
Converted from:	C:\Documents and Settings\iViewX\Desktop\EXPERIMENTATIONS\Experiments\results\finaleart\S5121332-finaleart-1.idf
Date:	27.03.2019 15:35:26
Version:	BeGaze 2.5.77
Sample Rate:	50
Subject:	S5121332
Description:	Dylan Marinho

Table Header for Fixations:
Event Type	Trial	Number	Start	End	Duration	Location X	Location Y	Dispersion X	Dispersion Y	Plane	Avg. Pupil Size X	Avg. Pupil Size Y

Table Header for Saccades:
Event Type	Trial	Number	Start	End	Duration	Start Loc.X	Start Loc.Y	End Loc.X	End Loc.Y	Amplitude	Peak Speed	Peak Speed At	Average Speed	Peak Accel.	Peak Decel.	Average Accel.

Table Header for Blinks:
Event Type	Trial	Number	Start	End	Duration

Table Header for User Events:
Event Type	Trial	Number	Start	Description

UserEvent	1	1	10130464890	# Message: The_Luxembourg_Gardens_Matisse_1901.jpg
Fixation R	1	1	10130526174	10131063266	537092	947.65	512.58	38	41	-1	12.15	12.15
Fixation L	1	1	10130565935	10131063266	497331	947.41	513.50	21	21	-1	12.51	12.51
Saccade L	1	1	10131063266	10131083144	19878	939.08	517.69	856.45	508.97	0.54	84.04	1.00	27.23	2012.76	-2055.43	1457.34
Saccade R	1	1	10131063266	10131083144	19878	939.08	517.69	856.45	508.97	0.54	84.04	1.00	27.23	2012.76	-2055.43	1457.34
Fixation L	1	2	10131083144	10131341626	258482	851.10	502.39	9	12	-1	11.15	11.15
Fixation R	1	2	10131083144	10131341626	258482	851.10	502.39	9	12	-1	10.77	10.77
Saccade L	1	2	10131341626	10131401380	59754	852.27	500.44	689.85	297.06	2.94	101.58	0.67	49.20	2475.96	-2209.47	1784.42
Saccade R	1	2	10131341626	10131401380	59754	852.27	500.44	689.85	297.06	2.94	101.58	0.67	49.20	2475.96	-2209.47	1784.42
Fixation L	1	3	10131401380	10131540619	139239	657.82	307.39	50	17	-1	11.54	11.54
Fixation R	1	3	10131401380	10131540619	139239	657.82	307.39	50	17	-1	10.94	10.94
Blink L	1	1	10131540619	10131998082	457463
Blink R	1	1	10131540619	10131998082	457463
Blink L	1	2	10132017967	10132137202	119235
Blink R	1	2	10132017967	10132137202	119235
Fixation L	1	4	10132137202	10132594669	457467	1343.32	189.10	38	35	-1	11.49	11.49
Fixation R	1	4	10132137202	10132594669	457467	1343.32	189.10	38	35	-1	10.45	10.45
Blink L	1	3	10132594669	10132913043	318374
Blink R	1	3	10132594669	10132913043	318374
Saccade L	1	3	10132913043	10133072145	159102	829.91	565.81	883.97	927.90	8.74	151.10	1.00	54.95	1577.01	-1562.94	847.32
Saccade R	1	3	10132913043	10133072145	159102	829.91	565.81	883.97	927.90	8.74	151.10	1.00	54.95	1577.01	-1562.94	847.32
Fixation L	1	5	10133072145	10133231259	159114	909.60	967.35	38	52	-1	15.10	15.10
Fixation R	1	5	10133072145	10133231259	159114	909.60	967.35	38	52	-1	14.86	14.86
Blink L	1	4	10133231259	10133489757	258498
Blink R	1	4	10133231259	10133489757	258498
Saccade L	1	4	10133489757	10133549498	59741	811.32	485.72	825.83	489.52	0.97	33.39	1.00	16.26	3710.37	-753.18	1025.24
Saccade R	1	4	10133489757	10133549498	59741	811.32	485.72	825.83	489.52	0.97	33.39	1.00	16.26	3710.37	-753.18	1025.24
Blink L	1	5	10133549498	10133827974	278476
Blink R	1	5	10133549498	10133827974	278476
Fixation L	1	6	10133827974	10133927350	99376	849.99	445.98	36	9	-1	13.94	13.94
Fixation R	1	6	10133827974	10133927350	99376	849.99	445.98	36	9	-1	14.94	14.94
Blink L	1	6	10133927350	10134126338	198988
Blink R	1	6	10133927350	10134126338	198988
Fixation L	1	7	10134126338	10134444574	318236	867.00	430.85	23	75	-1	14.09	14.09
Fixation R	1	7	10134126338	10134444574	318236	867.00	430.85	23	75	-1	13.80	13.80
Saccade L	1	5	10134444574	10134464438	19864	878.45	464.68	877.87	467.40	0.09	5.16	0.00	4.35	0.00	-56.60	28.30
Saccade R	1	5	10134444574	10134464438	19864	878.45	464.68	877.87	467.40	0.09	5.16	0.00	4.35	0.00	-56.60	28.30
