[BeGaze]
Converted from:	C:\Documents and Settings\iViewX\Desktop\EXPERIMENTATIONS\Experiments\results\finaleart\S5121332-finaleart-1.idf
Date:	27.03.2019 15:35:32
Version:	BeGaze 2.5.77
Sample Rate:	50
Subject:	S5121332
Description:	Dylan Marinho

Table Header for Fixations:
Event Type	Trial	Number	Start	End	Duration	Location X	Location Y	Dispersion X	Dispersion Y	Plane	Avg. Pupil Size X	Avg. Pupil Size Y

Table Header for Saccades:
Event Type	Trial	Number	Start	End	Duration	Start Loc.X	Start Loc.Y	End Loc.X	End Loc.Y	Amplitude	Peak Speed	Peak Speed At	Average Speed	Peak Accel.	Peak Decel.	Average Accel.

Table Header for Blinks:
Event Type	Trial	Number	Start	End	Duration

Table Header for User Events:
Event Type	Trial	Number	Start	Description

UserEvent	1	1	10392711770	# Message: les-deux-amies_marevna_0.jpg
Fixation L	1	1	10392723862	10393201208	477346	966.27	566.50	12	15	-1	15.86	15.86
Fixation R	1	1	10392723862	10393201208	477346	966.27	566.50	12	15	-1	15.00	15.00
Saccade L	1	1	10393201208	10393240962	39754	967.49	571.63	1222.05	497.33	2.24	148.14	0.50	56.45	3630.80	-3495.21	3249.12
Saccade R	1	1	10393201208	10393240962	39754	967.49	571.63	1222.05	497.33	2.24	148.14	0.50	56.45	3630.80	-3495.21	3249.12
Fixation L	1	2	10393240962	10393380206	139244	1227.72	486.99	11	14	-1	15.18	15.18
Fixation R	1	2	10393240962	10393380206	139244	1227.72	486.99	11	14	-1	14.52	14.52
Saccade L	1	2	10393380206	10393400082	19876	1233.35	482.80	1360.48	376.13	1.10	167.84	1.00	55.21	4154.12	-3674.92	2975.71
Saccade R	1	2	10393380206	10393400082	19876	1233.35	482.80	1360.48	376.13	1.10	167.84	1.00	55.21	4154.12	-3674.92	2975.71
Fixation L	1	3	10393400082	10393678555	278473	1393.88	334.00	39	60	-1	13.85	13.85
Fixation R	1	3	10393400082	10393678555	278473	1393.88	334.00	39	60	-1	13.10	13.10
Saccade L	1	3	10393678555	10393698434	19879	1399.09	334.37	1401.17	335.00	0.08	11.37	1.00	4.24	233.22	21.12	140.78
Saccade R	1	3	10393678555	10393698434	19879	1399.09	334.37	1401.17	335.00	0.08	11.37	1.00	4.24	233.22	21.12	140.78
Fixation L	1	4	10393698434	10394116156	417722	1435.10	331.51	43	31	-1	13.36	13.36
Fixation R	1	4	10393698434	10394116156	417722	1435.10	331.51	43	31	-1	12.46	12.46
Saccade L	1	4	10394116156	10394136028	19872	1443.84	333.98	1455.57	464.71	0.97	132.76	1.00	48.76	3254.64	-2999.56	2311.25
Saccade R	1	4	10394116156	10394136028	19872	1443.84	333.98	1455.57	464.71	0.97	132.76	1.00	48.76	3254.64	-2999.56	2311.25
Fixation L	1	5	10394136028	10394235523	99495	1483.29	505.68	43	55	-1	13.98	13.98
Fixation R	1	5	10394136028	10394235523	99495	1483.29	505.68	43	55	-1	13.14	13.14
Saccade L	1	5	10394235523	10394255395	19872	1498.67	519.76	1503.22	515.22	0.11	7.78	1.00	5.51	138.19	-45.19	69.51
Saccade R	1	5	10394235523	10394255395	19872	1498.67	519.76	1503.22	515.22	0.11	7.78	1.00	5.51	138.19	-45.19	69.51
Fixation L	1	6	10394255395	10394672996	417601	1478.15	530.22	51	23	-1	14.53	14.53
Fixation R	1	6	10394255395	10394672996	417601	1478.15	530.22	51	23	-1	13.68	13.68
Blink L	1	1	10394672996	10394971352	298356
Blink R	1	1	10394672996	10394971352	298356
Fixation L	1	7	10394971352	10395150464	179112	1141.38	539.18	14	30	-1	15.10	15.10
Fixation R	1	7	10394971352	10395150464	179112	1141.38	539.18	14	30	-1	14.97	14.97
Saccade L	1	6	10395150464	10395190217	39753	1136.61	551.18	931.40	553.10	1.74	127.19	1.00	43.69	3046.17	-3134.72	2516.18
Saccade R	1	6	10395150464	10395190217	39753	1136.61	551.18	931.40	553.10	1.74	127.19	1.00	43.69	3046.17	-3134.72	2516.18
Fixation L	1	8	10395190217	10395349328	159111	924.13	553.22	12	7	-1	15.42	15.42
Fixation R	1	8	10395190217	10395349328	159111	924.13	553.22	12	7	-1	15.40	15.40
Saccade L	1	7	10395349328	10395389068	39740	918.95	549.30	519.30	530.03	3.32	232.62	0.50	83.66	5772.86	-5607.66	4937.31
Saccade R	1	7	10395349328	10395389068	39740	918.95	549.30	519.30	530.03	3.32	232.62	0.50	83.66	5772.86	-5607.66	4937.31
Fixation L	1	9	10395389068	10395667564	278496	513.49	508.15	14	43	-1	15.14	15.14
Fixation R	1	9	10395389068	10395667564	278496	513.49	508.15	14	43	-1	15.48	15.48
Saccade L	1	8	10395667564	10395687426	19862	504.96	486.26	415.17	378.68	0.95	141.73	1.00	48.06	3533.64	-3283.19	2472.24
Saccade R	1	8	10395667564	10395687426	19862	504.96	486.26	415.17	378.68	0.95	141.73	1.00	48.06	3533.64	-3283.19	2472.24
Fixation L	1	10	10395687426	10396045409	357983	396.84	342.28	23	48	-1	14.75	14.75
Fixation R	1	10	10395687426	10396045409	357983	396.84	342.28	23	48	-1	15.16	15.16
Saccade L	1	9	10396045409	10396065284	19875	397.59	343.87	396.81	233.19	0.69	111.96	1.00	34.54	2781.88	-2338.21	1854.75
Saccade R	1	9	10396045409	10396065284	19875	397.59	343.87	396.81	233.19	0.69	111.96	1.00	34.54	2781.88	-2338.21	1854.75
Fixation L	1	11	10396065284	10396701877	636593	395.73	204.73	29	44	-1	15.01	15.01
Fixation R	1	11	10396065284	10396701877	636593	395.73	204.73	29	44	-1	15.24	15.24
