[BeGaze]
Converted from:	C:\Documents and Settings\iViewX\Desktop\EXPERIMENTATIONS\Experiments\results\finaleart\S5121332-finaleart-1.idf
Date:	27.03.2019 15:35:13
Version:	BeGaze 2.5.77
Sample Rate:	50
Subject:	S5121332
Description:	Dylan Marinho

Table Header for Fixations:
Event Type	Trial	Number	Start	End	Duration	Location X	Location Y	Dispersion X	Dispersion Y	Plane	Avg. Pupil Size X	Avg. Pupil Size Y

Table Header for Saccades:
Event Type	Trial	Number	Start	End	Duration	Start Loc.X	Start Loc.Y	End Loc.X	End Loc.Y	Amplitude	Peak Speed	Peak Speed At	Average Speed	Peak Accel.	Peak Decel.	Average Accel.

Table Header for Blinks:
Event Type	Trial	Number	Start	End	Duration

Table Header for User Events:
Event Type	Trial	Number	Start	Description

UserEvent	1	1	9591030881	# Message: void.jpg
Fixation L	1	1	9591049232	9591208343	159111	1005.09	486.37	4	6	-1	14.98	14.98
Fixation R	1	1	9591049232	9591208343	159111	1005.09	486.37	4	6	-1	14.98	14.98
Blink L	1	1	9591208343	9591407209	198866
Blink R	1	1	9591208343	9591407209	198866
Fixation L	1	2	9591407209	9591506698	99489	947.59	441.73	4	11	-1	15.10	15.10
Fixation R	1	2	9591407209	9591506698	99489	947.59	441.73	4	11	-1	14.94	14.94
Blink L	1	2	9591506698	9591745305	238607
Blink R	1	2	9591506698	9591745305	238607
Saccade L	1	1	9591745305	9591824933	79628	948.93	396.67	946.87	427.73	6.19	471.93	1.00	77.72	32493.19	-177.48	7368.04
Saccade R	1	1	9591745305	9591824933	79628	948.93	396.67	946.87	427.73	6.19	471.93	1.00	77.72	32493.19	-177.48	7368.04
Blink L	1	3	9591824933	9592063543	238610
Blink R	1	3	9591824933	9592063543	238610
Fixation L	1	3	9592063543	9592401765	338222	1046.22	422.81	44	50	-1	15.97	15.97
Fixation R	1	3	9592063543	9592401765	338222	1046.22	422.81	44	50	-1	15.71	15.71
Saccade L	1	2	9592401765	9592421651	19886	1037.88	452.14	964.99	472.16	0.49	76.47	1.00	24.57	1801.98	-1546.11	1164.15
Saccade R	1	2	9592401765	9592421651	19886	1037.88	452.14	964.99	472.16	0.49	76.47	1.00	24.57	1801.98	-1546.11	1164.15
Fixation L	1	4	9592421651	9593077981	656330	948.92	501.12	24	45	-1	15.46	15.46
Fixation R	1	4	9592421651	9593077981	656330	948.92	501.12	24	45	-1	14.82	14.82
