[BeGaze]
Converted from:	C:\Documents and Settings\iViewX\Desktop\EXPERIMENTATIONS\Experiments\results\finaleart\S5121332-finaleart-1.idf
Date:	27.03.2019 15:34:56
Version:	BeGaze 2.5.77
Sample Rate:	50
Subject:	S5121332
Description:	Dylan Marinho

Table Header for Fixations:
Event Type	Trial	Number	Start	End	Duration	Location X	Location Y	Dispersion X	Dispersion Y	Plane	Avg. Pupil Size X	Avg. Pupil Size Y

Table Header for Saccades:
Event Type	Trial	Number	Start	End	Duration	Start Loc.X	Start Loc.Y	End Loc.X	End Loc.Y	Amplitude	Peak Speed	Peak Speed At	Average Speed	Peak Accel.	Peak Decel.	Average Accel.

Table Header for Blinks:
Event Type	Trial	Number	Start	End	Duration

Table Header for User Events:
Event Type	Trial	Number	Start	Description

UserEvent	1	1	9011477208	# Message: Nature_Morte_Aux_Raisins_Sur_Un_Plat_Derain_1944.jpg
Saccade L	1	1	9011481599	9011541197	59598	964.55	542.89	947.47	558.01	0.93	51.07	1.00	15.54	1165.00	-484.26	458.95
Saccade R	1	1	9011481599	9011541197	59598	964.55	542.89	947.47	558.01	0.93	51.07	1.00	15.54	1165.00	-484.26	458.95
Fixation L	1	1	9011541197	9012078290	537093	893.84	573.15	62	37	-1	17.12	17.12
Fixation R	1	1	9011541197	9012078290	537093	893.84	573.15	62	37	-1	17.21	17.21
Saccade L	1	2	9012078290	9012098163	19873	884.86	548.05	877.48	544.23	0.25	18.35	0.00	12.54	7.64	-76.21	38.12
Saccade R	1	2	9012078290	9012098163	19873	884.86	548.05	877.48	544.23	0.25	18.35	0.00	12.54	7.64	-76.21	38.12
Fixation L	1	2	9012098163	9012297025	198862	869.18	545.61	31	36	-1	17.26	17.26
Fixation R	1	2	9012098163	9012297025	198862	869.18	545.61	31	36	-1	17.15	17.15
Saccade L	1	3	9012297025	9012316905	19880	845.87	522.51	791.71	397.55	1.13	137.75	1.00	56.74	3349.50	-3279.30	2455.96
Saccade R	1	3	9012297025	9012316905	19880	845.87	522.51	791.71	397.55	1.13	137.75	1.00	56.74	3349.50	-3279.30	2455.96
Fixation L	1	3	9012316905	9012635134	318229	761.55	362.85	36	50	-1	16.73	16.73
Fixation R	1	3	9012316905	9012635134	318229	761.55	362.85	36	50	-1	16.62	16.62
Saccade L	1	4	9012635134	9012655010	19876	757.28	364.87	714.13	365.91	0.54	63.86	1.00	27.37	1583.00	-863.63	1167.38
Saccade R	1	4	9012635134	9012655010	19876	757.28	364.87	714.13	365.91	0.54	63.86	1.00	27.37	1583.00	-863.63	1167.38
Fixation L	1	4	9012655010	9012993235	338225	639.62	372.95	86	12	-1	16.68	16.68
Fixation R	1	4	9012655010	9012993235	338225	639.62	372.95	86	12	-1	16.69	16.69
Saccade L	1	5	9012993235	9013052851	59616	627.28	372.10	1093.51	644.30	5.59	230.33	0.67	93.68	5719.61	-5499.65	3881.24
Saccade R	1	5	9012993235	9013052851	59616	627.28	372.10	1093.51	644.30	5.59	230.33	0.67	93.68	5719.61	-5499.65	3881.24
Fixation L	1	5	9013052851	9013709185	656334	1088.87	642.37	54	41	-1	16.82	16.82
Fixation R	1	5	9013052851	9013709185	656334	1088.87	642.37	54	41	-1	16.73	16.73
Saccade L	1	6	9013709185	9013729071	19886	1048.32	668.89	1044.48	672.31	0.12	9.98	1.00	5.84	136.45	-119.52	118.01
Saccade R	1	6	9013709185	9013729071	19886	1048.32	668.89	1044.48	672.31	0.12	9.98	1.00	5.84	136.45	-119.52	118.01
Fixation L	1	6	9013729071	9014226413	497342	1034.78	671.62	74	16	-1	16.95	16.95
Fixation R	1	6	9013729071	9014226413	497342	1034.78	671.62	74	16	-1	16.72	16.72
Saccade L	1	7	9014226413	9014246281	19868	969.95	679.27	876.30	679.24	0.86	94.73	1.00	43.50	2311.52	-2324.14	2158.55
Saccade R	1	7	9014226413	9014246281	19868	969.95	679.27	876.30	679.24	0.86	94.73	1.00	43.50	2311.52	-2324.14	2158.55
Fixation L	1	7	9014246281	9015379959	1133678	879.91	683.36	14	22	-1	17.55	17.55
Fixation R	1	7	9014246281	9015379959	1133678	879.91	683.36	14	22	-1	17.52	17.52
Saccade L	1	8	9015379959	9015459465	79506	876.83	677.81	711.31	675.33	2.36	133.14	0.25	29.65	3212.39	-3246.37	1461.90
Saccade R	1	8	9015379959	9015459465	79506	876.83	677.81	711.31	675.33	2.36	133.14	0.25	29.65	3212.39	-3246.37	1461.90
