[BeGaze]
Converted from:	C:\Documents and Settings\iViewX\Desktop\EXPERIMENTATIONS\Experiments\results\finaleart\S5121332-finaleart-1.idf
Date:	27.03.2019 15:34:54
Version:	BeGaze 2.5.77
Sample Rate:	50
Subject:	S5121332
Description:	Dylan Marinho

Table Header for Fixations:
Event Type	Trial	Number	Start	End	Duration	Location X	Location Y	Dispersion X	Dispersion Y	Plane	Avg. Pupil Size X	Avg. Pupil Size Y

Table Header for Saccades:
Event Type	Trial	Number	Start	End	Duration	Start Loc.X	Start Loc.Y	End Loc.X	End Loc.Y	Amplitude	Peak Speed	Peak Speed At	Average Speed	Peak Accel.	Peak Decel.	Average Accel.

Table Header for Blinks:
Event Type	Trial	Number	Start	End	Duration

Table Header for User Events:
Event Type	Trial	Number	Start	Description

UserEvent	1	1	8972461828	# Message: void.jpg
Fixation L	1	1	8972477807	8972577183	99376	1148.39	706.80	4	10	-1	19.14	19.14
Fixation R	1	1	8972477807	8972577183	99376	1148.39	706.80	4	10	-1	17.43	17.43
Saccade L	1	1	8972577183	8972597061	19878	1151.27	702.43	1167.01	631.85	0.49	73.15	1.00	24.70	1676.67	-1802.26	1188.05
Saccade R	1	1	8972577183	8972597061	19878	1151.27	702.43	1167.01	631.85	0.49	73.15	1.00	24.70	1676.67	-1802.26	1188.05
Fixation L	1	2	8972597061	8973074394	477333	1184.81	633.60	24	24	-1	18.29	18.29
Fixation R	1	2	8972597061	8973074394	477333	1184.81	633.60	24	24	-1	16.66	16.66
Blink L	1	1	8973074394	8973213646	139252
Blink R	1	1	8973074394	8973213646	139252
Fixation L	1	3	8973213646	8973432505	218859	1053.20	489.12	5	23	-1	15.71	15.71
Fixation R	1	3	8973213646	8973432505	218859	1053.20	489.12	5	23	-1	15.89	15.89
Blink L	1	2	8973432505	8973591615	159110
Blink R	1	2	8973432505	8973591615	159110
Fixation L	1	4	8973591615	8974009216	417601	1001.35	529.20	34	65	-1	17.03	17.03
Fixation R	1	4	8973591615	8974009216	417601	1001.35	529.20	34	65	-1	17.34	17.34
Saccade L	1	2	8974009216	8974029086	19870	991.42	530.12	988.67	534.38	0.18	20.62	1.00	8.84	803.38	61.62	402.29
Saccade R	1	2	8974009216	8974029086	19870	991.42	530.12	988.67	534.38	0.18	20.62	1.00	8.84	803.38	61.62	402.29
Fixation L	1	5	8974029086	8974446806	417720	917.56	532.69	83	12	-1	17.21	17.21
Fixation R	1	5	8974029086	8974446806	417720	917.56	532.69	83	12	-1	17.30	17.30
