[BeGaze]
Converted from:	C:\Documents and Settings\iViewX\Desktop\EXPERIMENTATIONS\Experiments\results\finaleart\S5121332-finaleart-1.idf
Date:	27.03.2019 15:35:34
Version:	BeGaze 2.5.77
Sample Rate:	50
Subject:	S5121332
Description:	Dylan Marinho

Table Header for Fixations:
Event Type	Trial	Number	Start	End	Duration	Location X	Location Y	Dispersion X	Dispersion Y	Plane	Avg. Pupil Size X	Avg. Pupil Size Y

Table Header for Saccades:
Event Type	Trial	Number	Start	End	Duration	Start Loc.X	Start Loc.Y	End Loc.X	End Loc.Y	Amplitude	Peak Speed	Peak Speed At	Average Speed	Peak Accel.	Peak Decel.	Average Accel.

Table Header for Blinks:
Event Type	Trial	Number	Start	End	Duration

Table Header for User Events:
Event Type	Trial	Number	Start	Description

UserEvent	1	1	10435785952	# Message: L'Ile_de_La_Grande_Jatte_Seurat_1884.jpg
Fixation L	1	1	10435797272	10436413853	616581	914.04	501.89	7	18	-1	11.50	11.50
Fixation R	1	1	10435797272	10436413853	616581	914.04	501.89	7	18	-1	10.96	10.96
Saccade L	1	1	10436413853	10436453727	39874	917.88	496.48	818.06	412.99	1.52	84.63	0.50	38.12	2011.08	-1964.79	1916.80
Saccade R	1	1	10436413853	10436453727	39874	917.88	496.48	818.06	412.99	1.52	84.63	0.50	38.12	2011.08	-1964.79	1916.80
Fixation L	1	2	10436453727	10436891188	437461	817.76	403.24	15	16	-1	10.72	10.72
Fixation R	1	2	10436453727	10436891188	437461	817.76	403.24	15	16	-1	9.99	9.99
Saccade L	1	2	10436891188	10436931073	39885	818.00	398.30	1112.75	332.46	2.69	232.57	0.50	67.53	5770.01	-5634.53	3809.76
Saccade R	1	2	10436891188	10436931073	39885	818.00	398.30	1112.75	332.46	2.69	232.57	0.50	67.53	5770.01	-5634.53	3809.76
Fixation L	1	3	10436931073	10437249301	318228	1108.84	321.66	15	66	-1	10.20	10.20
Fixation R	1	3	10436931073	10437129926	198853	1111.36	318.96	8	65	-1	8.03	8.03
Saccade R	1	3	10437169678	10437269172	99494	1106.93	315.18	1199.35	342.89	2.64	100.45	1.00	26.58	2282.84	-2417.32	909.65
Saccade L	1	3	10437249301	10437269172	19871	1100.27	336.16	1199.35	342.89	0.83	100.45	1.00	41.78	2282.84	-2417.32	1977.99
Fixation L	1	4	10437269172	10437428293	159121	1245.69	354.27	54	17	-1	11.12	11.12
Fixation R	1	4	10437269172	10437428293	159121	1245.69	354.27	54	17	-1	12.20	12.20
Blink L	1	1	10437428293	10437686775	258482
Blink R	1	1	10437428293	10437686775	258482
Fixation L	1	5	10437686775	10437786271	99496	1245.17	414.27	9	11	-1	13.53	13.53
Fixation R	1	5	10437686775	10437786271	99496	1245.17	414.27	9	11	-1	13.02	13.02
Blink L	1	2	10437786271	10437985135	198864
Blink R	1	2	10437786271	10437985135	198864
Fixation L	1	6	10437985135	10438263618	278483	1095.75	600.07	21	13	-1	14.11	14.11
Fixation R	1	6	10437985135	10438263618	278483	1095.75	600.07	21	13	-1	13.93	13.93
Saccade L	1	4	10438263618	10438283491	19873	1081.34	607.76	1006.78	650.70	0.61	87.04	1.00	30.81	1983.22	-1850.62	1349.51
Saccade R	1	4	10438263618	10438283491	19873	1081.34	607.76	1006.78	650.70	0.61	87.04	1.00	30.81	1983.22	-1850.62	1349.51
Fixation L	1	7	10438283491	10438880209	596718	982.11	648.66	43	51	-1	13.17	13.17
Fixation R	1	7	10438283491	10438880209	596718	982.11	648.66	43	51	-1	12.64	12.64
Saccade L	1	5	10438880209	10438919971	39762	963.52	684.00	789.44	1053.17	3.96	261.49	0.50	99.49	6482.99	-5720.47	4606.47
Saccade R	1	5	10438880209	10438919971	39762	963.52	684.00	789.44	1053.17	3.96	261.49	0.50	99.49	6482.99	-5720.47	4606.47
Fixation L	1	8	10438919971	10439218296	298325	781.34	1066.32	12	38	-1	12.72	12.72
Fixation R	1	8	10438919971	10439218296	298325	781.34	1066.32	12	38	-1	12.46	12.46
Saccade L	1	6	10439218296	10439258183	39887	780.13	1061.89	779.15	878.67	1.58	126.47	1.00	39.68	3093.74	-3048.12	2207.65
Saccade R	1	6	10439218296	10439258183	39887	780.13	1061.89	779.15	878.67	1.58	126.47	1.00	39.68	3093.74	-3048.12	2207.65
Fixation L	1	9	10439258183	10439536540	278357	779.57	885.50	78	16	-1	12.70	12.70
Fixation R	1	9	10439258183	10439536540	278357	779.57	885.50	78	16	-1	12.68	12.68
Saccade L	1	7	10439536540	10439636033	99493	719.42	875.01	880.28	741.86	4.55	100.94	1.00	45.69	1767.79	-2216.80	1344.97
Saccade R	1	7	10439536540	10439636033	99493	719.42	875.01	880.28	741.86	4.55	100.94	1.00	45.69	1767.79	-2216.80	1344.97
Fixation L	1	10	10439636033	10439775278	139245	910.23	751.79	39	16	-1	12.25	12.25
Fixation R	1	10	10439636033	10439775278	139245	910.23	751.79	39	16	-1	12.09	12.09
