[BeGaze]
Converted from:	C:\Documents and Settings\iViewX\Desktop\EXPERIMENTATIONS\Experiments\results\finaleart\S5121332-finaleart-1.idf
Date:	27.03.2019 15:35:19
Version:	BeGaze 2.5.77
Sample Rate:	50
Subject:	S5121332
Description:	Dylan Marinho

Table Header for Fixations:
Event Type	Trial	Number	Start	End	Duration	Location X	Location Y	Dispersion X	Dispersion Y	Plane	Avg. Pupil Size X	Avg. Pupil Size Y

Table Header for Saccades:
Event Type	Trial	Number	Start	End	Duration	Start Loc.X	Start Loc.Y	End Loc.X	End Loc.Y	Amplitude	Peak Speed	Peak Speed At	Average Speed	Peak Accel.	Peak Decel.	Average Accel.

Table Header for Blinks:
Event Type	Trial	Number	Start	End	Duration

Table Header for User Events:
Event Type	Trial	Number	Start	Description

UserEvent	1	1	9845511835	# Message: bacchante_sorolla_1886.jpg
Fixation L	1	1	9845521378	9846137956	616578	888.23	496.52	6	20	-1	13.45	13.45
Fixation R	1	1	9845521378	9846137956	616578	888.23	496.52	6	20	-1	13.24	13.24
Saccade L	1	1	9846137956	9846177709	39753	884.04	495.35	635.93	548.16	2.16	189.37	0.50	54.29	4703.14	-4684.10	3191.54
Saccade R	1	1	9846137956	9846177709	39753	884.04	495.35	635.93	548.16	2.16	189.37	0.50	54.29	4703.14	-4684.10	3191.54
Fixation L	1	2	9846177709	9846495943	318234	643.37	548.61	45	22	-1	13.10	13.10
Fixation R	1	2	9846177709	9846495943	318234	643.37	548.61	45	22	-1	13.03	13.03
Saccade L	1	2	9846495943	9846555688	59745	678.48	553.37	1095.10	292.05	5.57	255.42	0.33	93.17	6302.13	-4460.41	3925.51
Saccade R	1	2	9846495943	9846555688	59745	678.48	553.37	1095.10	292.05	5.57	255.42	0.33	93.17	6302.13	-4460.41	3925.51
Fixation L	1	3	9846555688	9846893797	338109	1093.81	302.10	59	40	-1	13.63	13.63
Fixation R	1	3	9846555688	9846893797	338109	1093.81	302.10	59	40	-1	13.57	13.57
Saccade L	1	3	9846893797	9847013040	119243	1135.99	319.57	1409.91	425.74	4.31	162.08	1.00	36.15	3990.76	-3769.89	1743.86
Saccade R	1	3	9846893797	9847013040	119243	1135.99	319.57	1409.91	425.74	4.31	162.08	1.00	36.15	3990.76	-3769.89	1743.86
Fixation L	1	4	9847013040	9847530254	517214	1393.51	420.86	45	52	-1	14.65	14.65
Fixation R	1	4	9847013040	9847530254	517214	1393.51	420.86	45	52	-1	14.46	14.46
Saccade L	1	4	9847530254	9847589869	59615	1367.53	390.01	1122.16	190.88	3.45	186.71	0.67	57.82	4589.20	-4239.00	2958.77
Saccade R	1	4	9847530254	9847589869	59615	1367.53	390.01	1122.16	190.88	3.45	186.71	0.67	57.82	4589.20	-4239.00	2958.77
Fixation L	1	5	9847589869	9847868350	278481	1115.63	179.65	74	15	-1	15.05	15.05
Fixation R	1	5	9847589869	9847868350	278481	1115.63	179.65	74	15	-1	14.75	14.75
Saccade L	1	5	9847868350	9847888237	19887	1057.58	186.81	1045.40	195.22	0.42	62.12	1.00	20.92	-85.79	-1178.56	476.42
Saccade R	1	5	9847868350	9847888237	19887	1057.58	186.81	1045.40	195.22	0.42	62.12	1.00	20.92	-85.79	-1178.56	476.42
Fixation L	1	6	9847888237	9848365586	477349	1038.49	214.45	25	34	-1	14.96	14.96
Fixation R	1	6	9847888237	9848365586	477349	1038.49	214.45	25	34	-1	14.68	14.68
Saccade L	1	6	9848365586	9848405327	39741	1020.22	229.41	739.29	287.11	2.45	220.67	1.00	61.54	5462.16	-5321.88	3471.50
Saccade R	1	6	9848365586	9848405327	39741	1020.22	229.41	739.29	287.11	2.45	220.67	1.00	61.54	5462.16	-5321.88	3471.50
Fixation L	1	7	9848405327	9848803178	397851	725.12	302.92	18	26	-1	15.02	15.02
Fixation R	1	7	9848405327	9848803178	397851	725.12	302.92	18	26	-1	15.08	15.08
Blink L	1	1	9848803178	9848942419	139241
Blink R	1	1	9848803178	9848942419	139241
Fixation L	1	8	9848942419	9849041904	99485	734.12	249.07	9	19	-1	15.65	15.65
Fixation R	1	8	9848942419	9849041904	99485	734.12	249.07	9	19	-1	15.58	15.58
Saccade L	1	7	9849041904	9849101535	59631	737.28	257.44	456.73	630.03	5.05	286.61	0.67	84.64	7097.19	-7122.66	3855.79
Saccade R	1	7	9849041904	9849101535	59631	737.28	257.44	456.73	630.03	5.05	286.61	0.67	84.64	7097.19	-7122.66	3855.79
Fixation L	1	9	9849101535	9849459523	357988	453.99	611.61	19	29	-1	15.76	15.76
Fixation R	1	9	9849101535	9849459523	357988	453.99	611.61	19	29	-1	15.61	15.61
Saccade L	1	8	9849459523	9849559008	99485	469.29	623.11	860.66	931.48	7.58	272.83	0.20	76.17	6666.09	-6310.30	3775.49
Saccade R	1	8	9849459523	9849559008	99485	469.29	623.11	860.66	931.48	7.58	272.83	0.20	76.17	6666.09	-6310.30	3775.49
