[BeGaze]
Converted from:	C:\Documents and Settings\iViewX\Desktop\EXPERIMENTATIONS\Experiments\results\finaleart\S5121332-finaleart-1.idf
Date:	27.03.2019 15:35:19
Version:	BeGaze 2.5.77
Sample Rate:	50
Subject:	S5121332
Description:	Dylan Marinho

Table Header for Fixations:
Event Type	Trial	Number	Start	End	Duration	Location X	Location Y	Dispersion X	Dispersion Y	Plane	Avg. Pupil Size X	Avg. Pupil Size Y

Table Header for Saccades:
Event Type	Trial	Number	Start	End	Duration	Start Loc.X	Start Loc.Y	End Loc.X	End Loc.Y	Amplitude	Peak Speed	Peak Speed At	Average Speed	Peak Accel.	Peak Decel.	Average Accel.

Table Header for Blinks:
Event Type	Trial	Number	Start	End	Duration

Table Header for User Events:
Event Type	Trial	Number	Start	Description

UserEvent	1	1	9863886210	# Message: cross-La-fuite-des-nymphes-1906.jpg
Fixation L	1	1	9863899524	9864416603	517079	916.53	537.97	76	12	-1	14.84	14.84
Fixation R	1	1	9863899524	9864416603	517079	916.53	537.97	76	12	-1	14.72	14.72
Saccade L	1	1	9864416603	9864436472	19869	985.89	534.15	1004.78	533.11	0.50	57.93	0.00	24.96	19.70	-1337.20	575.29
Saccade R	1	1	9864416603	9864436472	19869	985.89	534.15	1004.78	533.11	0.50	57.93	0.00	24.96	19.70	-1337.20	575.29
Fixation L	1	2	9864436472	9864535971	99499	999.33	530.44	8	12	-1	14.83	14.83
Fixation R	1	2	9864436472	9864535971	99499	999.33	530.44	8	12	-1	14.72	14.72
Saccade L	1	2	9864535971	9864575726	39755	998.85	523.38	1073.11	375.79	1.69	117.52	0.50	42.55	2913.74	-2370.20	2064.81
Saccade R	1	2	9864535971	9864575726	39755	998.85	523.38	1073.11	375.79	1.69	117.52	0.50	42.55	2913.74	-2370.20	2064.81
Fixation L	1	3	9864575726	9864774713	198987	1084.76	362.52	15	19	-1	13.84	13.84
Fixation R	1	3	9864575726	9864774713	198987	1084.76	362.52	15	19	-1	13.68	13.68
Saccade L	1	3	9864774713	9864814455	39742	1085.97	364.21	1265.71	350.69	1.67	111.70	1.00	41.92	2758.61	-2635.76	2069.95
Saccade R	1	3	9864774713	9864814455	39742	1085.97	364.21	1265.71	350.69	1.67	111.70	1.00	41.92	2758.61	-2635.76	2069.95
Fixation L	1	4	9864814455	9865172429	357974	1292.49	328.33	55	38	-1	13.41	13.41
Fixation R	1	4	9864814455	9865172429	357974	1292.49	328.33	55	38	-1	13.26	13.26
Saccade L	1	4	9865172429	9865192304	19875	1319.07	325.23	1328.49	323.66	0.16	12.75	1.00	8.13	15.95	-115.16	69.43
Saccade R	1	4	9865172429	9865192304	19875	1319.07	325.23	1328.49	323.66	0.16	12.75	1.00	8.13	15.95	-115.16	69.43
Fixation L	1	5	9865192304	9865490669	298365	1338.80	328.21	44	40	-1	13.41	13.41
Fixation R	1	5	9865192304	9865490669	298365	1338.80	328.21	44	40	-1	13.28	13.28
Saccade L	1	5	9865490669	9865510530	19861	1371.47	300.28	1388.84	309.61	0.33	25.77	0.00	16.57	175.80	-452.27	355.47
Saccade R	1	5	9865490669	9865510530	19861	1371.47	300.28	1388.84	309.61	0.33	25.77	0.00	16.57	175.80	-452.27	355.47
Fixation L	1	6	9865510530	9865808903	298373	1401.62	310.81	25	29	-1	14.15	14.15
Fixation R	1	6	9865510530	9865808903	298373	1401.62	310.81	25	29	-1	14.12	14.12
Saccade L	1	6	9865808903	9865848653	39750	1414.09	299.91	1476.74	142.09	1.80	97.53	0.50	45.21	2372.45	-2058.30	1804.76
Saccade R	1	6	9865808903	9865848653	39750	1414.09	299.91	1476.74	142.09	1.80	97.53	0.50	45.21	2372.45	-2058.30	1804.76
Fixation L	1	7	9865848653	9866206752	358099	1487.60	143.94	17	71	-1	14.28	14.28
Fixation R	1	7	9865848653	9866206752	358099	1487.60	143.94	17	71	-1	14.03	14.03
Saccade L	1	7	9866206752	9866226633	19881	1482.43	187.46	1492.64	98.43	0.71	90.64	1.00	35.53	2117.30	-2024.59	1679.50
Saccade R	1	7	9866206752	9866226633	19881	1482.43	187.46	1492.64	98.43	0.71	90.64	1.00	35.53	2117.30	-2024.59	1679.50
Fixation L	1	8	9866226633	9866485236	258603	1482.48	80.74	19	61	-1	13.07	13.07
Fixation R	1	8	9866226633	9866485236	258603	1482.48	80.74	19	61	-1	13.92	13.92
Blink R	1	1	9866485236	9866584601	99365
Saccade L	1	8	9866524983	9866544851	19868	0.00	2.91	0.00	1.31	14.24	1461.43	1.00	716.69	34839.31	-36495.22	23921.57
Fixation L	1	9	9866584601	9866982459	397858	1229.96	641.71	17	15	-1	15.14	15.14
Fixation R	1	9	9866584601	9866982459	397858	1229.96	641.71	17	15	-1	14.67	14.67
Saccade L	1	9	9866982459	9867022199	39740	1224.05	650.73	870.98	653.46	2.96	204.13	0.50	74.59	5019.52	-4877.83	4351.94
Saccade R	1	8	9866982459	9867022199	39740	1224.05	650.73	870.98	653.46	2.96	204.13	0.50	74.59	5019.52	-4877.83	4351.94
Fixation L	1	10	9867022199	9867459801	437602	889.41	641.70	38	55	-1	15.18	15.18
Fixation R	1	10	9867022199	9867459801	437602	889.41	641.70	38	55	-1	14.47	14.47
Saccade L	1	10	9867459801	9867479680	19879	909.32	598.92	929.64	548.68	0.56	54.82	1.00	28.37	1162.57	-1324.41	905.60
Saccade R	1	9	9867459801	9867479680	19879	909.32	598.92	929.64	548.68	0.56	54.82	1.00	28.37	1162.57	-1324.41	905.60
Fixation L	1	11	9867479680	9867817775	338095	943.38	538.96	18	21	-1	14.66	14.66
Fixation R	1	11	9867479680	9867817775	338095	943.38	538.96	18	21	-1	13.90	13.90
Saccade L	1	11	9867817775	9867877392	59617	937.38	540.81	643.34	450.22	3.97	195.14	0.33	66.63	4802.91	-4826.28	3158.30
Saccade R	1	10	9867817775	9867877392	59617	937.38	540.81	643.34	450.22	3.97	195.14	0.33	66.63	4802.91	-4826.28	3158.30
