[BeGaze]
Converted from:	C:\Documents and Settings\iViewX\Desktop\EXPERIMENTATIONS\Experiments\results\finaleart\S5121332-finaleart-1.idf
Date:	27.03.2019 15:35:34
Version:	BeGaze 2.5.77
Sample Rate:	50
Subject:	S5121332
Description:	Dylan Marinho

Table Header for Fixations:
Event Type	Trial	Number	Start	End	Duration	Location X	Location Y	Dispersion X	Dispersion Y	Plane	Avg. Pupil Size X	Avg. Pupil Size Y

Table Header for Saccades:
Event Type	Trial	Number	Start	End	Duration	Start Loc.X	Start Loc.Y	End Loc.X	End Loc.Y	Amplitude	Peak Speed	Peak Speed At	Average Speed	Peak Accel.	Peak Decel.	Average Accel.

Table Header for Blinks:
Event Type	Trial	Number	Start	End	Duration

Table Header for User Events:
Event Type	Trial	Number	Start	Description

UserEvent	1	1	10439842835	# Message: void.jpg
Fixation L	1	1	10439854770	10439994107	139337	1157.14	754.60	18	9	-1	12.20	12.20
Fixation R	1	1	10439854770	10439994107	139337	1157.14	754.60	18	9	-1	11.71	11.71
Blink L	1	1	10439994107	10440192994	198887
Blink R	1	1	10439994107	10440192994	198887
Fixation L	1	2	10440192994	10440391864	198870	845.07	450.03	58	10	-1	12.37	12.37
Fixation R	1	2	10440192994	10440391864	198870	845.07	450.03	58	10	-1	12.39	12.39
Blink L	1	2	10440391864	10440789586	397722
Blink R	1	2	10440391864	10440789586	397722
Fixation L	1	3	10440789586	10441008452	218866	942.98	400.44	69	21	-1	12.86	12.86
Fixation R	1	3	10440789586	10441008452	218866	942.98	400.44	69	21	-1	12.59	12.59
Saccade L	1	1	10441008452	10441048214	39762	904.43	408.09	828.52	405.38	1.03	53.69	1.00	25.91	1142.53	-1241.04	684.45
Saccade R	1	1	10441008452	10441048214	39762	904.43	408.09	828.52	405.38	1.03	53.69	1.00	25.91	1142.53	-1241.04	684.45
Fixation L	1	4	10441048214	10441465919	417705	792.40	379.97	42	34	-1	13.29	13.29
Fixation R	1	4	10441048214	10441465919	417705	792.40	379.97	42	34	-1	12.96	12.96
Saccade L	1	2	10441465919	10441485800	19881	794.86	394.19	809.19	431.19	0.36	40.14	1.00	18.27	949.99	-799.27	583.93
Saccade R	1	2	10441465919	10441485800	19881	794.86	394.19	809.19	431.19	0.36	40.14	1.00	18.27	949.99	-799.27	583.93
Fixation L	1	5	10441485800	10441843773	357973	845.16	441.29	46	30	-1	13.60	13.60
Fixation R	1	5	10441485800	10441843773	357973	845.16	441.29	46	30	-1	13.01	13.01
