[BeGaze]
Converted from:	C:\Documents and Settings\iViewX\Desktop\EXPERIMENTATIONS\Experiments\results\finaleart\S5121332-finaleart-1.idf
Date:	27.03.2019 15:35:18
Version:	BeGaze 2.5.77
Sample Rate:	50
Subject:	S5121332
Description:	Dylan Marinho

Table Header for Fixations:
Event Type	Trial	Number	Start	End	Duration	Location X	Location Y	Dispersion X	Dispersion Y	Plane	Avg. Pupil Size X	Avg. Pupil Size Y

Table Header for Saccades:
Event Type	Trial	Number	Start	End	Duration	Start Loc.X	Start Loc.Y	End Loc.X	End Loc.Y	Amplitude	Peak Speed	Peak Speed At	Average Speed	Peak Accel.	Peak Decel.	Average Accel.

Table Header for Blinks:
Event Type	Trial	Number	Start	End	Duration

Table Header for User Events:
Event Type	Trial	Number	Start	Description

UserEvent	1	1	9833262018	# Message: martin-vase-of-flowers-in-a-window.jpg
Fixation L	1	1	9833279121	9833895703	616582	904.30	449.04	11	36	-1	13.19	13.19
Fixation R	1	1	9833279121	9833895703	616582	904.30	449.04	11	36	-1	12.34	12.34
Saccade L	1	1	9833895703	9833915576	19873	898.12	456.40	898.42	564.54	1.00	109.39	1.00	50.30	2197.34	-2588.58	2094.54
Saccade R	1	1	9833895703	9833915576	19873	898.12	456.40	898.42	564.54	1.00	109.39	1.00	50.30	2197.34	-2588.58	2094.54
Fixation L	1	2	9833915576	9834194060	278484	876.13	611.36	33	66	-1	12.91	12.91
Fixation R	1	2	9833915576	9834194060	278484	876.13	611.36	33	66	-1	12.14	12.14
Saccade L	1	2	9834194060	9834213933	19873	864.83	612.46	863.83	599.13	0.39	30.02	0.00	19.45	-43.96	-616.58	348.36
Saccade R	1	2	9834194060	9834213933	19873	864.83	612.46	863.83	599.13	0.39	30.02	0.00	19.45	-43.96	-616.58	348.36
Fixation L	1	3	9834213933	9834373048	159115	872.47	604.34	27	66	-1	12.95	12.95
Fixation R	1	3	9834213933	9834373048	159115	872.47	604.34	27	66	-1	11.80	11.80
Saccade L	1	3	9834373048	9834392915	19867	886.05	634.03	892.69	653.42	0.43	40.93	1.00	21.81	44.60	-504.75	194.67
Saccade R	1	3	9834373048	9834392915	19867	886.05	634.03	892.69	653.42	0.43	40.93	1.00	21.81	44.60	-504.75	194.67
Fixation L	1	4	9834392915	9834830509	437594	918.82	692.77	36	50	-1	13.43	13.43
Fixation R	1	4	9834392915	9834830509	437594	918.82	692.77	36	50	-1	12.74	12.74
Saccade L	1	4	9834830509	9834850388	19879	928.91	692.13	935.21	719.47	0.38	37.32	1.00	19.20	882.36	-524.05	629.71
Saccade R	1	4	9834830509	9834850388	19879	928.91	692.13	935.21	719.47	0.38	37.32	1.00	19.20	882.36	-524.05	629.71
Fixation L	1	5	9834850388	9834969762	119374	937.57	705.82	10	48	-1	13.44	13.44
Fixation R	1	5	9834850388	9834969762	119374	937.57	705.82	10	48	-1	12.40	12.40
Saccade L	1	5	9834969762	9834989638	19876	942.95	699.72	957.80	480.48	1.45	222.19	1.00	72.91	5147.34	-4773.76	3398.64
Saccade R	1	5	9834969762	9834989638	19876	942.95	699.72	957.80	480.48	1.45	222.19	1.00	72.91	5147.34	-4773.76	3398.64
Fixation L	1	6	9834989638	9835128878	139240	973.50	456.88	24	49	-1	13.03	13.03
Fixation R	1	6	9834989638	9835128878	139240	973.50	456.88	24	49	-1	12.54	12.54
Blink L	1	1	9835128878	9835347616	218738
Blink R	1	1	9835128878	9835347616	218738
Fixation L	1	7	9835347616	9835665849	318233	964.62	350.88	5	27	-1	16.11	16.11
Fixation R	1	7	9835347616	9835665849	318233	964.62	350.88	5	27	-1	14.84	14.84
Saccade L	1	6	9835665849	9835705595	39746	964.71	362.26	875.18	497.35	1.54	83.47	0.50	38.74	2007.07	-1912.50	1852.84
Saccade R	1	6	9835665849	9835705595	39746	964.71	362.26	875.18	497.35	1.54	83.47	0.50	38.74	2007.07	-1912.50	1852.84
Fixation L	1	8	9835705595	9836043827	338232	871.84	506.98	11	28	-1	15.89	15.89
Fixation R	1	8	9835705595	9836043827	338232	871.84	506.98	11	28	-1	14.71	14.71
Saccade L	1	7	9836043827	9836083571	39744	876.47	497.85	1106.06	668.01	2.61	187.39	0.50	65.58	4613.65	-4049.12	3346.20
Saccade R	1	7	9836043827	9836083571	39744	876.47	497.85	1106.06	668.01	2.61	187.39	0.50	65.58	4613.65	-4049.12	3346.20
Fixation L	1	9	9836083571	9836302308	218737	1113.19	692.85	15	31	-1	15.40	15.40
Fixation R	1	9	9836083571	9836302308	218737	1113.19	692.85	15	31	-1	14.42	14.42
Saccade L	1	8	9836302308	9836322183	19875	1111.30	695.75	1269.71	698.79	1.21	160.24	1.00	60.79	3949.35	-3754.76	3146.15
Saccade R	1	8	9836302308	9836322183	19875	1111.30	695.75	1269.71	698.79	1.21	160.24	1.00	60.79	3949.35	-3754.76	3146.15
Fixation L	1	10	9836322183	9836779639	457456	1331.57	707.34	74	18	-1	15.04	15.04
Fixation R	1	10	9836322183	9836779639	457456	1331.57	707.34	74	18	-1	13.99	13.99
Saccade L	1	9	9836779639	9836799526	19887	1325.02	700.18	1323.45	578.38	0.78	123.21	1.00	39.42	3013.95	-2898.19	2004.44
Saccade R	1	9	9836779639	9836799526	19887	1325.02	700.18	1323.45	578.38	0.78	123.21	1.00	39.42	3013.95	-2898.19	2004.44
Fixation L	1	11	9836799526	9837058149	258623	1324.92	566.51	8	20	-1	14.73	14.73
Fixation R	1	11	9836799526	9837058149	258623	1324.92	566.51	8	20	-1	13.49	13.49
