[BeGaze]
Converted from:	C:\Documents and Settings\iViewX\Desktop\EXPERIMENTATIONS\Experiments\results\finaleart\S5121332-finaleart-1.idf
Date:	27.03.2019 15:35:18
Version:	BeGaze 2.5.77
Sample Rate:	50
Subject:	S5121332
Description:	Dylan Marinho

Table Header for Fixations:
Event Type	Trial	Number	Start	End	Duration	Location X	Location Y	Dispersion X	Dispersion Y	Plane	Avg. Pupil Size X	Avg. Pupil Size Y

Table Header for Saccades:
Event Type	Trial	Number	Start	End	Duration	Start Loc.X	Start Loc.Y	End Loc.X	End Loc.Y	Amplitude	Peak Speed	Peak Speed At	Average Speed	Peak Accel.	Peak Decel.	Average Accel.

Table Header for Blinks:
Event Type	Trial	Number	Start	End	Duration

Table Header for User Events:
Event Type	Trial	Number	Start	Description

UserEvent	1	1	9827152313	# Message: Bank_Of_A_Lake_Pechstein_1910.jpg
Fixation L	1	1	9827158482	9827635835	477353	948.67	543.14	45	24	-1	14.79	14.79
Fixation R	1	1	9827158482	9827635835	477353	948.67	543.14	45	24	-1	14.58	14.58
Saccade L	1	1	9827635835	9827675591	39756	954.15	552.64	782.68	515.39	1.72	90.58	0.50	43.37	2159.00	-2051.59	1979.62
Saccade R	1	1	9827635835	9827675591	39756	954.15	552.64	782.68	515.39	1.72	90.58	0.50	43.37	2159.00	-2051.59	1979.62
Fixation L	1	2	9827675591	9827794942	119351	781.97	490.05	2	35	-1	15.11	15.11
Fixation R	1	2	9827675591	9827794942	119351	781.97	490.05	2	35	-1	14.69	14.69
Blink L	1	1	9827794942	9827914312	119370
Blink R	1	1	9827794942	9827914312	119370
Fixation L	1	3	9827914312	9828650143	735831	731.50	94.93	17	24	-1	13.65	13.65
Fixation R	1	3	9827914312	9828650143	735831	731.50	94.93	17	24	-1	13.25	13.25
Saccade L	1	2	9828650143	9828709884	59741	724.98	109.77	666.65	478.24	4.12	195.23	0.67	68.93	4381.77	-4538.04	2809.63
Saccade R	1	2	9828650143	9828709884	59741	724.98	109.77	666.65	478.24	4.12	195.23	0.67	68.93	4381.77	-4538.04	2809.63
Fixation L	1	4	9828709884	9828868995	159111	657.26	487.59	27	13	-1	14.80	14.80
Fixation R	1	4	9828709884	9828868995	159111	657.26	487.59	27	13	-1	14.36	14.36
Saccade L	1	3	9828868995	9828928628	59633	649.26	492.12	1223.37	612.30	6.06	236.65	0.67	101.68	5823.60	-5821.59	4498.43
Saccade R	1	3	9828868995	9828928628	59633	649.26	492.12	1223.37	612.30	6.06	236.65	0.67	101.68	5823.60	-5821.59	4498.43
Fixation L	1	5	9828928628	9829147355	218727	1227.95	616.89	35	17	-1	14.89	14.89
Fixation R	1	5	9828928628	9829147355	218727	1227.95	616.89	35	17	-1	14.54	14.54
Saccade L	1	4	9829147355	9829187239	39884	1257.75	621.24	1558.22	627.10	2.75	206.68	0.50	68.85	5100.25	-5126.77	3533.31
Saccade R	1	4	9829147355	9829187239	39884	1257.75	621.24	1558.22	627.10	2.75	206.68	0.50	68.85	5100.25	-5126.77	3533.31
Fixation L	1	6	9829187239	9829664578	477339	1558.11	639.87	18	43	-1	13.90	13.90
Fixation R	1	6	9829187239	9829664578	477339	1558.11	639.87	18	43	-1	13.52	13.52
Saccade L	1	5	9829664578	9829704321	39743	1561.19	663.61	1180.94	602.94	3.43	199.04	1.00	86.23	4899.58	-4852.05	4589.89
Saccade R	1	5	9829664578	9829704321	39743	1561.19	663.61	1180.94	602.94	3.43	199.04	1.00	86.23	4899.58	-4852.05	4589.89
Fixation L	1	7	9829704321	9829982813	278492	1162.56	596.90	36	35	-1	13.57	13.57
Fixation R	1	7	9829704321	9829982813	278492	1162.56	596.90	36	35	-1	12.95	12.95
Blink L	1	2	9829982813	9830161800	178987
Blink R	1	2	9829982813	9830161800	178987
Fixation L	1	8	9830161800	9830380544	218744	1136.86	482.49	17	35	-1	13.59	13.59
Fixation R	1	8	9830161800	9830380544	218744	1136.86	482.49	17	35	-1	13.03	13.03
Blink L	1	3	9830380544	9830579517	198973
Blink R	1	3	9830380544	9830579517	198973
Fixation L	1	9	9830579517	9830798267	218750	994.51	301.42	18	79	-1	13.89	13.89
Fixation R	1	9	9830579517	9830798267	218750	994.51	301.42	18	79	-1	13.54	13.54
Saccade L	1	6	9830798267	9830957385	159118	987.43	327.90	446.65	348.50	8.64	217.45	0.75	54.27	5296.89	-4907.07	2080.84
Saccade R	1	6	9830798267	9830957385	159118	987.43	327.90	446.65	348.50	8.64	217.45	0.75	54.27	5296.89	-4907.07	2080.84
Fixation L	1	10	9830957385	9831136367	178982	459.65	369.29	22	35	-1	13.64	13.64
Fixation R	1	10	9830957385	9831136367	178982	459.65	369.29	22	35	-1	13.61	13.61
