[BeGaze]
Converted from:	C:\Documents and Settings\iViewX\Desktop\EXPERIMENTATIONS\Experiments\results\finaleart\S5121332-finaleart-1.idf
Date:	27.03.2019 15:35:23
Version:	BeGaze 2.5.77
Sample Rate:	50
Subject:	S5121332
Description:	Dylan Marinho

Table Header for Fixations:
Event Type	Trial	Number	Start	End	Duration	Location X	Location Y	Dispersion X	Dispersion Y	Plane	Avg. Pupil Size X	Avg. Pupil Size Y

Table Header for Saccades:
Event Type	Trial	Number	Start	End	Duration	Start Loc.X	Start Loc.Y	End Loc.X	End Loc.Y	Amplitude	Peak Speed	Peak Speed At	Average Speed	Peak Accel.	Peak Decel.	Average Accel.

Table Header for Blinks:
Event Type	Trial	Number	Start	End	Duration

Table Header for User Events:
Event Type	Trial	Number	Start	Description

UserEvent	1	1	10069332701	# Message: Ma_Maison_Martin_XXXX.jpg
Fixation L	1	1	10069344242	10069921087	576845	941.87	526.93	25	58	-1	16.15	16.15
Fixation R	1	1	10069344242	10069921087	576845	941.87	526.93	25	58	-1	16.10	16.10
Saccade L	1	1	10069921087	10069980700	59613	936.93	546.48	1405.45	469.23	4.95	258.38	0.67	83.01	6404.05	-6191.66	3913.05
Saccade R	1	1	10069921087	10069980700	59613	936.93	546.48	1405.45	469.23	4.95	258.38	0.67	83.01	6404.05	-6191.66	3913.05
Fixation L	1	2	10069980700	10070179569	198869	1408.88	473.35	11	55	-1	14.93	14.93
Fixation R	1	2	10069980700	10070179569	198869	1408.88	473.35	11	55	-1	14.58	14.58
Saccade L	1	2	10070179569	10070199463	19894	1414.13	452.29	1423.53	366.87	0.58	86.92	1.00	29.31	2139.70	-1808.25	1413.44
Saccade R	1	2	10070179569	10070199463	19894	1414.13	452.29	1423.53	366.87	0.58	86.92	1.00	29.31	2139.70	-1808.25	1413.44
Fixation L	1	3	10070199463	10070378434	178971	1449.65	356.85	40	16	-1	13.70	13.70
Fixation R	1	3	10070199463	10070378434	178971	1449.65	356.85	40	16	-1	13.84	13.84
Blink L	1	1	10070378434	10070557548	179114
Blink R	1	1	10070378434	10070557548	179114
Fixation L	1	4	10070557548	10070796176	238628	959.44	300.21	27	29	-1	13.89	13.89
Fixation R	1	4	10070557548	10070796176	238628	959.44	300.21	27	29	-1	13.31	13.31
Saccade L	1	3	10070796176	10070816031	19855	948.68	313.70	876.62	310.29	0.66	72.98	1.00	33.06	1710.42	-1659.76	1555.59
Saccade R	1	3	10070796176	10070816031	19855	948.68	313.70	876.62	310.29	0.66	72.98	1.00	33.06	1710.42	-1659.76	1555.59
Fixation L	1	5	10070816031	10071114399	298368	829.54	289.65	57	40	-1	14.21	14.21
Fixation R	1	5	10070816031	10071114399	298368	829.54	289.65	57	40	-1	13.89	13.89
Saccade L	1	4	10071114399	10071134261	19862	829.12	269.81	829.39	265.11	0.09	4.76	1.00	4.52	9.02	-38.49	18.77
Saccade R	1	4	10071114399	10071134261	19862	829.12	269.81	829.39	265.11	0.09	4.76	1.00	4.52	9.02	-38.49	18.77
Fixation L	1	6	10071134261	10071313250	178989	826.50	265.26	34	20	-1	14.49	14.49
Fixation R	1	6	10071134261	10071313250	178989	826.50	265.26	34	20	-1	13.91	13.91
Saccade L	1	5	10071313250	10071333268	20018	796.35	280.52	733.86	314.06	0.60	71.75	1.00	29.95	1747.12	-1344.00	1311.80
Saccade R	1	5	10071313250	10071333268	20018	796.35	280.52	733.86	314.06	0.60	71.75	1.00	29.95	1747.12	-1344.00	1311.80
Fixation L	1	7	10071333268	10071571882	238614	719.57	332.06	19	25	-1	14.48	14.48
Fixation R	1	7	10071333268	10071571882	238614	719.57	332.06	19	25	-1	13.95	13.95
Saccade L	1	6	10071571882	10071611614	39732	715.37	337.98	611.97	623.00	2.74	165.93	1.00	68.94	4046.84	-3501.82	3515.49
Saccade R	1	6	10071571882	10071611614	39732	715.37	337.98	611.97	623.00	2.74	165.93	1.00	68.94	4046.84	-3501.82	3515.49
Fixation L	1	8	10071611614	10071830472	218858	605.87	667.59	22	56	-1	15.10	15.10
Fixation R	1	8	10071611614	10071830472	218858	605.87	667.59	22	56	-1	14.78	14.78
Blink L	1	2	10071830472	10071989586	159114
Blink R	1	2	10071830472	10071989586	159114
Fixation L	1	9	10071989586	10072566428	576842	802.28	795.94	19	65	-1	14.89	14.89
Fixation R	1	9	10071989586	10072566428	576842	802.28	795.94	19	65	-1	15.30	15.30
Saccade L	1	7	10072566428	10072586306	19878	811.21	788.91	847.81	789.05	0.38	37.03	1.00	19.19	913.69	-823.45	590.22
Saccade R	1	7	10072566428	10072586306	19878	811.21	788.91	847.81	789.05	0.38	37.03	1.00	19.19	913.69	-823.45	590.22
Fixation L	1	10	10072586306	10072785167	198861	873.20	791.84	37	5	-1	14.50	14.50
Fixation R	1	10	10072586306	10072785167	198861	873.20	791.84	37	5	-1	14.71	14.71
Saccade L	1	8	10072785167	10072824908	39741	885.19	794.14	1283.35	767.26	3.64	216.05	0.50	91.56	5370.01	-4431.10	4585.09
Saccade R	1	8	10072785167	10072824908	39741	885.19	794.14	1283.35	767.26	3.64	216.05	0.50	91.56	5370.01	-4431.10	4585.09
Fixation L	1	11	10072824908	10073063650	238742	1323.43	745.42	45	28	-1	14.33	14.33
Fixation R	1	11	10072824908	10073063650	238742	1323.43	745.42	45	28	-1	14.33	14.33
Blink L	1	3	10073063650	10073242635	178985
Blink R	1	3	10073063650	10073242635	178985
Saccade L	1	9	10073242635	10073322132	79497	1097.44	528.61	1097.14	524.34	1.11	55.41	1.00	13.96	30.42	-1251.29	336.82
Saccade R	1	9	10073242635	10073322132	79497	1097.44	528.61	1097.14	524.34	1.11	55.41	1.00	13.96	30.42	-1251.29	336.82
