[BeGaze]
Converted from:	C:\Documents and Settings\iViewX\Desktop\EXPERIMENTATIONS\Experiments\results\finaleart\S5121332-finaleart-1.idf
Date:	27.03.2019 15:34:57
Version:	BeGaze 2.5.77
Sample Rate:	50
Subject:	S5121332
Description:	Dylan Marinho

Table Header for Fixations:
Event Type	Trial	Number	Start	End	Duration	Location X	Location Y	Dispersion X	Dispersion Y	Plane	Avg. Pupil Size X	Avg. Pupil Size Y

Table Header for Saccades:
Event Type	Trial	Number	Start	End	Duration	Start Loc.X	Start Loc.Y	End Loc.X	End Loc.Y	Amplitude	Peak Speed	Peak Speed At	Average Speed	Peak Accel.	Peak Decel.	Average Accel.

Table Header for Blinks:
Event Type	Trial	Number	Start	End	Duration

Table Header for User Events:
Event Type	Trial	Number	Start	Description

UserEvent	1	1	9042133070	# Message: wright-vesuvius-from-posillipo-1774.jpg
Fixation L	1	1	9042151603	9042728466	576863	993.70	612.96	47	36	-1	18.05	18.05
Fixation R	1	1	9042151603	9042728466	576863	993.70	612.96	47	36	-1	17.52	17.52
Saccade L	1	1	9042728466	9042748349	19883	958.69	633.94	946.53	647.39	0.17	18.34	1.00	8.62	298.16	-159.93	153.49
Saccade R	1	1	9042728466	9042748349	19883	958.69	633.94	946.53	647.39	0.17	18.34	1.00	8.62	298.16	-159.93	153.49
Fixation L	1	2	9042748349	9043305282	556933	940.22	663.17	22	27	-1	18.70	18.70
Fixation R	1	2	9042748349	9043305282	556933	940.22	663.17	22	27	-1	18.27	18.27
Saccade L	1	2	9043305282	9043345029	39747	942.67	647.72	926.60	288.21	3.29	212.57	1.00	82.70	5239.82	-4821.54	4117.45
Saccade R	1	2	9043305282	9043345029	39747	942.67	647.72	926.60	288.21	3.29	212.57	1.00	82.70	5239.82	-4821.54	4117.45
Fixation L	1	3	9043345029	9043603644	258615	898.40	285.64	37	62	-1	17.75	17.75
Fixation R	1	3	9043345029	9043603644	258615	898.40	285.64	37	62	-1	17.85	17.85
Saccade L	1	3	9043603644	9043623510	19866	889.36	308.60	889.96	311.31	0.16	13.56	0.00	8.05	-30.02	-95.24	68.89
Saccade R	1	3	9043603644	9043623510	19866	889.36	308.60	889.96	311.31	0.16	13.56	0.00	8.05	-30.02	-95.24	68.89
Fixation L	1	4	9043623510	9043802494	178984	898.66	305.56	45	47	-1	17.54	17.54
Fixation R	1	4	9043623510	9043802494	178984	898.66	305.56	45	47	-1	17.19	17.19
Saccade L	1	4	9043802494	9043862129	59635	935.15	344.94	1451.94	681.97	7.03	216.41	0.67	117.81	5213.46	-4970.60	3828.74
Saccade R	1	4	9043802494	9043862129	59635	935.15	344.94	1451.94	681.97	7.03	216.41	0.67	117.81	5213.46	-4970.60	3828.74
Fixation L	1	5	9043862129	9044339471	477342	1452.26	716.02	7	91	-1	17.19	17.19
Fixation R	1	5	9043862129	9044339471	477342	1452.26	716.02	7	91	-1	16.73	16.73
Saccade L	1	5	9044339471	9044359347	19876	1451.90	773.41	1452.55	782.64	0.30	45.14	0.00	15.26	82.04	-1116.40	468.25
Saccade R	1	5	9044339471	9044359347	19876	1451.90	773.41	1452.55	782.64	0.30	45.14	0.00	15.26	82.04	-1116.40	468.25
Fixation L	1	6	9044359347	9044518588	159241	1451.14	791.43	3	18	-1	17.11	17.11
Fixation R	1	6	9044359347	9044518588	159241	1451.14	791.43	3	18	-1	16.46	16.46
Saccade L	1	6	9044518588	9044558329	39741	1448.59	799.63	1139.19	948.50	2.93	184.35	1.00	73.78	4563.86	-4275.93	4251.58
Saccade R	1	6	9044518588	9044558329	39741	1448.59	799.63	1139.19	948.50	2.93	184.35	1.00	73.78	4563.86	-4275.93	4251.58
Fixation L	1	7	9044558329	9045115178	556849	1166.81	954.65	34	15	-1	17.09	17.09
Fixation R	1	7	9044558329	9045115178	556849	1166.81	954.65	34	15	-1	16.66	16.66
Saccade L	1	7	9045115178	9045135044	19866	1146.80	946.69	1029.63	891.17	0.88	131.15	1.00	44.18	3253.96	-3187.67	2148.73
Saccade R	1	7	9045115178	9045135044	19866	1146.80	946.69	1029.63	891.17	0.88	131.15	1.00	44.18	3253.96	-3187.67	2148.73
Fixation L	1	8	9045135044	9045572649	437605	1025.31	897.74	45	46	-1	17.63	17.63
Fixation R	1	8	9045135044	9045572649	437605	1025.31	897.74	45	46	-1	17.29	17.29
Saccade L	1	8	9045572649	9045592521	19872	1034.06	923.54	1009.13	788.97	1.27	138.43	1.00	63.67	2307.29	-3089.76	2177.27
Saccade R	1	8	9045572649	9045592521	19872	1034.06	923.54	1009.13	788.97	1.27	138.43	1.00	63.67	2307.29	-3089.76	2177.27
Fixation L	1	9	9045592521	9045751640	159119	983.30	747.26	35	53	-1	17.83	17.83
Fixation R	1	9	9045592521	9045751640	159119	983.30	747.26	35	53	-1	17.53	17.53
Blink L	1	1	9045751640	9045890867	139227
Blink R	1	1	9045751640	9045890867	139227
Fixation L	1	10	9045890867	9046129615	238748	928.37	601.68	16	21	-1	17.36	17.36
Fixation R	1	10	9045890867	9046129615	238748	928.37	601.68	16	21	-1	17.90	17.90
