[BeGaze]
Converted from:	C:\Documents and Settings\iViewX\Desktop\EXPERIMENTATIONS\Experiments\results\finaleart\S5121332-finaleart-1.idf
Date:	27.03.2019 15:35:30
Version:	BeGaze 2.5.77
Sample Rate:	50
Subject:	S5121332
Description:	Dylan Marinho

Table Header for Fixations:
Event Type	Trial	Number	Start	End	Duration	Location X	Location Y	Dispersion X	Dispersion Y	Plane	Avg. Pupil Size X	Avg. Pupil Size Y

Table Header for Saccades:
Event Type	Trial	Number	Start	End	Duration	Start Loc.X	Start Loc.Y	End Loc.X	End Loc.Y	Amplitude	Peak Speed	Peak Speed At	Average Speed	Peak Accel.	Peak Decel.	Average Accel.

Table Header for Blinks:
Event Type	Trial	Number	Start	End	Duration

Table Header for User Events:
Event Type	Trial	Number	Start	Description

UserEvent	1	1	10216326127	# Message: Le_Chemin_De_Fer_Berlin_Potsdam_Menzel_1847.jpg
Fixation L	1	1	10216334384	10216950965	616581	911.39	475.33	18	50	-1	16.32	16.32
Fixation R	1	1	10216334384	10216950965	616581	911.39	475.33	18	50	-1	16.11	16.11
Saccade L	1	1	10216950965	10216970838	19873	915.95	487.84	924.71	525.28	0.49	38.90	1.00	24.77	897.91	-849.34	718.83
Saccade R	1	1	10216950965	10216970838	19873	915.95	487.84	924.71	525.28	0.49	38.90	1.00	24.77	897.91	-849.34	718.83
Fixation L	1	2	10216970838	10217408320	437482	931.79	569.02	16	53	-1	16.13	16.13
Fixation R	1	2	10216970838	10217408320	437482	931.79	569.02	16	53	-1	15.78	15.78
Saccade L	1	2	10217408320	10217448190	39870	937.62	562.80	861.43	927.89	3.30	236.69	1.00	82.65	5856.43	-5715.37	4439.56
Saccade R	1	2	10217408320	10217448190	39870	937.62	562.80	861.43	927.89	3.30	236.69	1.00	82.65	5856.43	-5715.37	4439.56
Fixation L	1	3	10217448190	10217905660	457470	851.21	936.61	13	73	-1	16.68	16.68
Fixation R	1	3	10217448190	10217905660	457470	851.21	936.61	13	73	-1	16.27	16.27
Saccade L	1	3	10217905660	10217925529	19869	856.14	886.24	866.98	781.87	0.78	106.13	1.00	39.27	2630.66	-2484.01	2002.55
Saccade R	1	3	10217905660	10217925529	19869	856.14	886.24	866.98	781.87	0.78	106.13	1.00	39.27	2630.66	-2484.01	2002.55
Fixation L	1	4	10217925529	10218184008	258479	892.69	796.89	63	32	-1	16.26	16.26
Fixation R	1	4	10217925529	10218184008	258479	892.69	796.89	63	32	-1	16.13	16.13
Saccade L	1	4	10218184008	10218223894	39886	930.14	799.56	1258.13	585.39	3.50	261.69	0.50	87.69	6436.83	-6407.17	4696.28
Saccade R	1	4	10218184008	10218223894	39886	930.14	799.56	1258.13	585.39	3.50	261.69	0.50	87.69	6436.83	-6407.17	4696.28
Fixation L	1	5	10218223894	10218542131	318237	1259.26	584.29	8	18	-1	15.48	15.48
Fixation R	1	5	10218223894	10218542131	318237	1259.26	584.29	8	18	-1	15.75	15.75
Blink L	1	1	10218542131	10218701246	159115
Blink R	1	1	10218542131	10218701246	159115
Saccade L	1	5	10218701246	10218721116	19870	1329.49	459.88	1299.16	397.86	7.50	1410.15	1.00	377.37	-147.95	-33507.70	11706.72
Saccade R	1	5	10218701246	10218721116	19870	1329.49	459.88	1299.16	397.86	7.50	1410.15	1.00	377.37	-147.95	-33507.70	11706.72
Fixation L	1	6	10218721116	10219695670	974554	1287.19	408.15	21	20	-1	13.71	13.71
Fixation R	1	6	10218721116	10219695670	974554	1287.19	408.15	21	20	-1	13.63	13.63
Saccade L	1	6	10219695670	10219715544	19874	1282.30	401.62	1171.67	372.20	0.70	115.79	1.00	35.39	2858.77	-2454.83	1901.75
Saccade R	1	6	10219695670	10219715544	19874	1282.30	401.62	1171.67	372.20	0.70	115.79	1.00	35.39	2858.77	-2454.83	1901.75
Fixation L	1	7	10219715544	10219854785	139241	1159.47	342.51	19	79	-1	14.19	14.19
Fixation R	1	7	10219715544	10219854785	139241	1159.47	342.51	19	79	-1	14.18	14.18
Saccade L	1	7	10219854785	10219974154	119369	1157.21	295.90	768.76	270.74	8.58	253.91	0.83	71.86	6043.97	-5842.83	3002.03
Saccade R	1	7	10219854785	10219974154	119369	1157.21	295.90	768.76	270.74	8.58	253.91	0.83	71.86	6043.97	-5842.83	3002.03
Fixation L	1	8	10219974154	10220153152	178998	804.22	301.07	48	50	-1	13.90	13.90
Fixation R	1	8	10219974154	10220153152	178998	804.22	301.07	48	50	-1	13.91	13.91
Saccade L	1	8	10220153152	10220173027	19875	817.16	321.27	816.45	327.84	0.08	6.68	1.00	3.94	64.04	-66.55	49.58
Saccade R	1	8	10220153152	10220173027	19875	817.16	321.27	816.45	327.84	0.08	6.68	1.00	3.94	64.04	-66.55	49.58
Fixation L	1	9	10220173027	10220312262	139235	818.02	331.47	5	12	-1	13.56	13.56
Fixation R	1	9	10220173027	10220312262	139235	818.02	331.47	5	12	-1	13.54	13.54
