[BeGaze]
Converted from:	C:\Documents and Settings\iViewX\Desktop\EXPERIMENTATIONS\Experiments\results\finaleart\S5121332-finaleart-1.idf
Date:	27.03.2019 15:35:28
Version:	BeGaze 2.5.77
Sample Rate:	50
Subject:	S5121332
Description:	Dylan Marinho

Table Header for Fixations:
Event Type	Trial	Number	Start	End	Duration	Location X	Location Y	Dispersion X	Dispersion Y	Plane	Avg. Pupil Size X	Avg. Pupil Size Y

Table Header for Saccades:
Event Type	Trial	Number	Start	End	Duration	Start Loc.X	Start Loc.Y	End Loc.X	End Loc.Y	Amplitude	Peak Speed	Peak Speed At	Average Speed	Peak Accel.	Peak Decel.	Average Accel.

Table Header for Blinks:
Event Type	Trial	Number	Start	End	Duration

Table Header for User Events:
Event Type	Trial	Number	Start	Description

UserEvent	1	1	10179519655	# Message: huisje_aan_een_sloot_mauve_1888.jpg
Fixation L	1	1	10179538225	10179955940	417715	942.00	540.63	38	37	-1	15.69	15.69
Fixation R	1	1	10179538225	10179955940	417715	942.00	540.63	38	37	-1	15.47	15.47
Saccade L	1	1	10179955940	10179975866	19926	915.78	565.77	898.26	578.11	0.31	25.24	0.00	15.40	507.49	-405.28	403.73
Saccade R	1	1	10179955940	10179975866	19926	915.78	565.77	898.26	578.11	0.31	25.24	0.00	15.40	507.49	-405.28	403.73
Fixation L	1	2	10179975866	10180254317	278451	887.97	589.40	18	36	-1	14.89	14.89
Fixation R	1	2	10179975866	10180254317	278451	887.97	589.40	18	36	-1	14.58	14.58
Saccade L	1	2	10180254317	10180274195	19878	890.89	600.14	887.55	698.56	0.57	99.62	1.00	28.73	2437.65	-2454.18	1673.14
Saccade R	1	2	10180254317	10180274195	19878	890.89	600.14	887.55	698.56	0.57	99.62	1.00	28.73	2437.65	-2454.18	1673.14
Fixation L	1	3	10180274195	10181049884	775689	879.17	682.60	17	35	-1	12.80	12.80
Fixation R	1	3	10180274195	10181049884	775689	879.17	682.60	17	35	-1	12.39	12.39
Saccade L	1	3	10181049884	10181069757	19873	873.68	678.97	805.96	689.33	0.56	69.31	1.00	28.15	1614.27	-1301.07	1125.31
Saccade R	1	3	10181049884	10181069757	19873	873.68	678.97	805.96	689.33	0.56	69.31	1.00	28.15	1614.27	-1301.07	1125.31
Fixation L	1	4	10181069757	10181248733	178976	791.57	711.57	24	31	-1	12.34	12.34
Fixation R	1	4	10181069757	10181248733	178976	791.57	711.57	24	31	-1	12.45	12.45
Blink L	1	1	10181248733	10181726090	477357
Blink R	1	1	10181248733	10181726090	477357
Fixation L	1	5	10181726090	10181865330	139240	1406.39	324.57	43	16	-1	13.68	13.68
Fixation R	1	5	10181726090	10181865330	139240	1406.39	324.57	43	16	-1	14.55	14.55
Saccade L	1	4	10181865330	10181885222	19892	1381.17	328.90	1301.29	340.69	0.57	81.68	1.00	28.74	1902.17	-1887.30	1339.76
Saccade R	1	4	10181865330	10181885222	19892	1381.17	328.90	1301.29	340.69	0.57	81.68	1.00	28.74	1902.17	-1887.30	1339.76
Fixation L	1	6	10181885222	10182143821	258599	1296.81	369.02	12	83	-1	13.87	13.87
Fixation R	1	6	10181885222	10182143821	258599	1296.81	369.02	12	83	-1	14.71	14.71
Saccade L	1	5	10182143821	10182163684	19863	1300.09	423.88	1297.96	570.09	1.21	147.89	1.00	60.89	3670.68	-3286.26	2349.53
Saccade R	1	5	10182143821	10182163684	19863	1300.09	423.88	1297.96	570.09	1.21	147.89	1.00	60.89	3670.68	-3286.26	2349.53
Fixation L	1	7	10182163684	10182382545	218861	1279.58	595.06	31	48	-1	13.47	13.47
Fixation R	1	7	10182163684	10182382545	218861	1279.58	595.06	31	48	-1	14.43	14.43
Blink L	1	2	10182382545	10182521662	139117
Blink R	1	2	10182382545	10182521662	139117
Blink L	1	3	10182541546	10182720663	179117
Blink R	1	3	10182541546	10182720663	179117
Fixation L	1	8	10182720663	10183516227	795564	614.23	570.15	11	86	-1	13.15	13.15
Fixation R	1	8	10182720663	10183516227	795564	614.23	570.15	11	86	-1	12.54	12.54
