[BeGaze]
Converted from:	C:\Documents and Settings\iViewX\Desktop\EXPERIMENTATIONS\Experiments\results\finaleart\S5121332-finaleart-1.idf
Date:	27.03.2019 15:35:08
Version:	BeGaze 2.5.77
Sample Rate:	50
Subject:	S5121332
Description:	Dylan Marinho

Table Header for Fixations:
Event Type	Trial	Number	Start	End	Duration	Location X	Location Y	Dispersion X	Dispersion Y	Plane	Avg. Pupil Size X	Avg. Pupil Size Y

Table Header for Saccades:
Event Type	Trial	Number	Start	End	Duration	Start Loc.X	Start Loc.Y	End Loc.X	End Loc.Y	Amplitude	Peak Speed	Peak Speed At	Average Speed	Peak Accel.	Peak Decel.	Average Accel.

Table Header for Blinks:
Event Type	Trial	Number	Start	End	Duration

Table Header for User Events:
Event Type	Trial	Number	Start	Description

UserEvent	1	1	9498899406	# Message: void.jpg
Saccade L	1	1	9498899936	9498919802	19866	1347.41	661.49	1405.82	732.72	0.72	93.18	1.00	36.28	391.37	-1988.25	793.21
Saccade R	1	1	9498899936	9498919802	19866	1347.41	661.49	1405.82	732.72	0.72	93.18	1.00	36.28	391.37	-1988.25	793.21
Fixation L	1	1	9498919802	9499098776	178974	1391.94	751.52	21	30	-1	16.90	16.90
Fixation R	1	1	9498919802	9499098776	178974	1391.94	751.52	21	30	-1	17.18	17.18
Saccade L	1	2	9499098776	9499118655	19879	1392.01	731.83	1393.83	603.62	0.81	129.70	1.00	40.51	3216.88	-3081.82	2323.37
Saccade R	1	2	9499098776	9499118655	19879	1392.01	731.83	1393.83	603.62	0.81	129.70	1.00	40.51	3216.88	-3081.82	2323.37
Fixation L	1	2	9499118655	9499377261	258606	1409.30	602.27	25	13	-1	16.77	16.77
Fixation R	1	2	9499118655	9499377261	258606	1409.30	602.27	25	13	-1	17.10	17.10
Blink L	1	1	9499377261	9499615873	238612
Blink R	1	1	9499377261	9499615873	238612
Saccade L	1	3	9499615873	9499675656	59783	1089.09	547.86	1095.19	578.28	13.51	1233.47	1.00	225.93	30364.88	-1747.43	6548.43
Saccade R	1	3	9499615873	9499675656	59783	1089.09	547.86	1095.19	578.28	13.51	1233.47	1.00	225.93	30364.88	-1747.43	6548.43
Blink L	1	2	9499675656	9499854601	178945
Blink R	1	2	9499675656	9499854601	178945
Fixation L	1	3	9499854601	9500650180	795579	1077.41	519.77	45	40	-1	16.54	16.54
Fixation R	1	3	9499854601	9500650180	795579	1077.41	519.77	45	40	-1	16.22	16.22
Saccade L	1	4	9500650180	9500670058	19878	1110.32	545.28	1125.54	553.37	0.16	17.44	1.00	7.97	286.33	-234.75	206.11
Saccade R	1	4	9500650180	9500670058	19878	1110.32	545.28	1125.54	553.37	0.16	17.44	1.00	7.97	286.33	-234.75	206.11
Fixation L	1	4	9500670058	9500789426	119368	1129.56	553.01	11	7	-1	16.69	16.69
Fixation R	1	4	9500670058	9500789426	119368	1129.56	553.01	11	7	-1	16.42	16.42
