[BeGaze]
Converted from:	C:\Documents and Settings\iViewX\Desktop\EXPERIMENTATIONS\Experiments\results\finaleart\S5121332-finaleart-1.idf
Date:	27.03.2019 15:35:28
Version:	BeGaze 2.5.77
Sample Rate:	50
Subject:	S5121332
Description:	Dylan Marinho

Table Header for Fixations:
Event Type	Trial	Number	Start	End	Duration	Location X	Location Y	Dispersion X	Dispersion Y	Plane	Avg. Pupil Size X	Avg. Pupil Size Y

Table Header for Saccades:
Event Type	Trial	Number	Start	End	Duration	Start Loc.X	Start Loc.Y	End Loc.X	End Loc.Y	Amplitude	Peak Speed	Peak Speed At	Average Speed	Peak Accel.	Peak Decel.	Average Accel.

Table Header for Blinks:
Event Type	Trial	Number	Start	End	Duration

Table Header for User Events:
Event Type	Trial	Number	Start	Description

UserEvent	1	1	10173341100	# Message: sisley-still-life-heron-with-spread-wings-1867.jpg
Fixation L	1	1	10173352481	10173630953	278472	950.49	541.06	34	15	-1	13.04	13.04
Fixation R	1	1	10173352481	10173630953	278472	950.49	541.06	34	15	-1	12.59	12.59
Saccade L	1	1	10173630953	10173650820	19867	978.23	535.45	1052.58	525.30	0.58	75.91	1.00	29.14	1827.33	-1764.31	1335.90
Saccade R	1	1	10173630953	10173650820	19867	978.23	535.45	1052.58	525.30	0.58	75.91	1.00	29.14	1827.33	-1764.31	1335.90
Fixation L	1	2	10173650820	10173909438	258618	1053.92	511.25	12	24	-1	13.48	13.48
Fixation R	1	2	10173650820	10173909438	258618	1053.92	511.25	12	24	-1	12.98	12.98
Saccade L	1	2	10173909438	10173949184	39746	1056.10	509.91	859.15	542.47	1.79	115.48	1.00	45.14	2797.45	-1972.35	2162.36
Saccade R	1	2	10173909438	10173949184	39746	1056.10	509.91	859.15	542.47	1.79	115.48	1.00	45.14	2797.45	-1972.35	2162.36
Fixation L	1	3	10173949184	10174168044	218860	873.99	562.09	20	56	-1	14.23	14.23
Fixation R	1	3	10173949184	10174168044	218860	873.99	562.09	20	56	-1	13.97	13.97
Saccade L	1	3	10174168044	10174207800	39756	875.95	572.19	698.39	790.32	2.53	202.97	0.50	63.71	4590.47	-4957.81	3459.27
Saccade R	1	3	10174168044	10174207800	39756	875.95	572.19	698.39	790.32	2.53	202.97	0.50	63.71	4590.47	-4957.81	3459.27
Fixation L	1	4	10174207800	10174645392	437592	691.18	796.86	20	18	-1	15.37	15.37
Fixation R	1	4	10174207800	10174645392	437592	691.18	796.86	20	18	-1	15.15	15.15
Blink R	1	1	10174645392	10174764637	119245
Saccade L	1	4	10174705018	10174724886	19868	7.02	0.00	4.98	0.00	5.91	1182.48	1.00	297.63	-33.02	-29510.30	9878.03
Saccade L	1	5	10174744754	10174784631	39877	3.83	0.00	2.57	0.00	6.59	822.23	1.00	165.35	20537.12	-33.02	5518.35
Saccade R	1	4	10174764637	10174784631	19994	3.09	0.00	2.57	0.00	4.12	822.23	1.00	206.17	20537.12	-15.89	7346.79
Fixation L	1	5	10174844253	10175182362	338109	784.39	322.72	16	51	-1	16.82	16.82
Fixation R	1	5	10174844253	10175182362	338109	784.39	322.72	16	51	-1	16.56	16.56
Saccade L	1	6	10175182362	10175202230	19868	787.98	339.34	795.32	468.14	0.72	130.48	1.00	36.18	3226.54	-2921.62	2105.05
Saccade R	1	5	10175182362	10175202230	19868	787.98	339.34	795.32	468.14	0.72	130.48	1.00	36.18	3226.54	-2921.62	2105.05
Fixation L	1	6	10175202230	10175480708	278478	813.11	471.85	24	17	-1	17.71	17.71
Fixation R	1	6	10175202230	10175480708	278478	813.11	471.85	24	17	-1	17.54	17.54
Saccade L	1	7	10175480708	10175520476	39768	814.86	475.07	813.75	703.47	2.00	146.75	1.00	50.17	3616.16	-3581.91	2742.24
Saccade R	1	6	10175480708	10175520476	39768	814.86	475.07	813.75	703.47	2.00	146.75	1.00	50.17	3616.16	-3581.91	2742.24
Fixation L	1	7	10175520476	10175779074	258598	826.24	723.38	24	25	-1	18.35	18.35
Fixation R	1	7	10175520476	10175779074	258598	826.24	723.38	24	25	-1	18.20	18.20
Blink L	1	1	10175779074	10175977944	198870
Blink R	1	2	10175779074	10175977944	198870
Fixation L	1	8	10175977944	10176296161	318217	1154.91	602.22	32	39	-1	18.27	18.27
Fixation R	1	8	10175977944	10176296161	318217	1154.91	602.22	32	39	-1	18.13	18.13
Saccade L	1	8	10176296161	10176316062	19901	1135.85	620.71	1069.66	627.21	0.50	67.28	1.00	24.91	1616.53	-1606.15	1087.58
Saccade R	1	7	10176296161	10176316062	19901	1135.85	620.71	1069.66	627.21	0.50	67.28	1.00	24.91	1616.53	-1606.15	1087.58
Fixation L	1	9	10176316062	10176534906	218844	1043.27	637.03	36	22	-1	18.44	18.44
Fixation R	1	9	10176316062	10176534906	218844	1043.27	637.03	36	22	-1	18.23	18.23
Saccade L	1	9	10176534906	10176614390	79484	1033.28	649.53	603.43	887.95	8.02	267.59	0.50	100.95	6590.93	-3590.87	3351.08
Saccade R	1	8	10176534906	10176614390	79484	1033.28	649.53	603.43	887.95	8.02	267.59	0.50	100.95	6590.93	-3590.87	3351.08
Fixation L	1	10	10176614390	10177151487	537097	616.04	885.46	56	29	-1	17.76	17.76
Fixation R	1	10	10176614390	10177151487	537097	616.04	885.46	56	29	-1	18.11	18.11
Saccade L	1	10	10177151487	10177330487	179000	647.44	878.35	584.26	622.56	36.82	1097.03	0.22	205.72	27372.91	-27425.77	11117.44
Saccade R	1	9	10177151487	10177330487	179000	647.44	878.35	584.26	622.56	36.82	1097.03	0.22	205.72	27372.91	-27425.77	11117.44
