[BeGaze]
Converted from:	C:\Documents and Settings\iViewX\Desktop\EXPERIMENTATIONS\Experiments\results\finaleart\S5121332-finaleart-1.idf
Date:	27.03.2019 15:35:14
Version:	BeGaze 2.5.77
Sample Rate:	50
Subject:	S5121332
Description:	Dylan Marinho

Table Header for Fixations:
Event Type	Trial	Number	Start	End	Duration	Location X	Location Y	Dispersion X	Dispersion Y	Plane	Avg. Pupil Size X	Avg. Pupil Size Y

Table Header for Saccades:
Event Type	Trial	Number	Start	End	Duration	Start Loc.X	Start Loc.Y	End Loc.X	End Loc.Y	Amplitude	Peak Speed	Peak Speed At	Average Speed	Peak Accel.	Peak Decel.	Average Accel.

Table Header for Blinks:
Event Type	Trial	Number	Start	End	Duration

Table Header for User Events:
Event Type	Trial	Number	Start	Description

UserEvent	1	1	9611706848	# Message: Young_Girls_Playing_With_A_Lion_Club_Valtat_1905.jpg
Fixation L	1	1	9611709990	9611908971	198981	958.74	556.72	23	76	-1	14.46	14.46
Fixation R	1	1	9611709990	9611908971	198981	958.74	556.72	23	76	-1	14.37	14.37
Saccade L	1	1	9611908971	9611928837	19866	947.24	568.01	942.13	571.90	0.16	14.38	0.00	8.02	-12.88	-254.34	134.37
Saccade R	1	1	9611908971	9611928837	19866	947.24	568.01	942.13	571.90	0.16	14.38	0.00	8.02	-12.88	-254.34	134.37
Fixation L	1	2	9611928837	9612207194	278357	940.94	580.32	11	23	-1	15.14	15.14
Fixation R	1	2	9611928837	9612207194	278357	940.94	580.32	11	23	-1	15.15	15.15
Saccade L	1	2	9612207194	9612227188	19994	949.42	591.19	1033.38	592.11	0.53	84.94	1.00	26.37	2080.63	-1953.80	1432.40
Saccade R	1	2	9612207194	9612227188	19994	949.42	591.19	1033.38	592.11	0.53	84.94	1.00	26.37	2080.63	-1953.80	1432.40
Fixation L	1	3	9612227188	9612624930	397742	1057.85	598.77	31	10	-1	15.04	15.04
Fixation R	1	3	9612227188	9612624930	397742	1057.85	598.77	31	10	-1	14.70	14.70
Saccade L	1	3	9612624930	9612644795	19865	1064.55	601.15	1139.38	611.63	0.61	76.43	1.00	30.84	1782.62	-1166.32	1246.06
Saccade R	1	3	9612624930	9612644795	19865	1064.55	601.15	1139.38	611.63	0.61	76.43	1.00	30.84	1782.62	-1166.32	1246.06
Fixation L	1	4	9612644795	9612883531	238736	1155.57	653.24	22	59	-1	14.77	14.77
Fixation R	1	4	9612644795	9612883531	238736	1155.57	653.24	22	59	-1	14.45	14.45
Saccade L	1	4	9612883531	9612903413	19882	1157.86	628.19	1157.27	553.55	0.57	75.50	1.00	28.63	1807.90	-1852.46	1446.99
Saccade R	1	4	9612883531	9612903413	19882	1157.86	628.19	1157.27	553.55	0.57	75.50	1.00	28.63	1807.90	-1852.46	1446.99
Fixation L	1	5	9612903413	9613102294	198881	1161.33	555.48	10	16	-1	15.18	15.18
Fixation R	1	5	9612903413	9613102294	198881	1161.33	555.48	10	16	-1	14.75	14.75
Saccade L	1	5	9613102294	9613142020	39726	1167.13	552.22	997.11	973.08	4.09	250.10	0.50	102.90	6224.51	-5490.21	5690.36
Saccade R	1	5	9613102294	9613142020	39726	1167.13	552.22	997.11	973.08	4.09	250.10	0.50	102.90	6224.51	-5490.21	5690.36
Fixation L	1	6	9613142020	9614235958	1093938	1019.48	1007.78	36	62	-1	15.85	15.85
Fixation R	1	6	9613142020	9614235958	1093938	1019.48	1007.78	36	62	-1	15.37	15.37
Saccade L	1	6	9614235958	9614275820	39862	1018.41	1014.60	692.24	1015.27	2.77	180.58	1.00	69.49	4393.01	-4358.11	3974.62
Saccade R	1	6	9614235958	9614275820	39862	1018.41	1014.60	692.24	1015.27	2.77	180.58	1.00	69.49	4393.01	-4358.11	3974.62
Fixation L	1	7	9614275820	9614514437	238617	684.65	1014.79	14	14	-1	16.04	16.04
Fixation R	1	7	9614275820	9614514437	238617	684.65	1014.79	14	14	-1	15.88	15.88
Saccade L	1	7	9614514437	9614534303	19866	682.10	1009.19	581.57	1007.26	0.58	101.70	1.00	29.40	2470.99	-2348.44	1700.38
Saccade R	1	7	9614514437	9614534303	19866	682.10	1009.19	581.57	1007.26	0.58	101.70	1.00	29.40	2470.99	-2348.44	1700.38
Fixation L	1	8	9614534303	9615051531	517228	570.02	1021.94	47	51	-1	15.48	15.48
Fixation R	1	8	9614534303	9615051531	517228	570.02	1021.94	47	51	-1	15.97	15.97
Saccade L	1	8	9615051531	9615071402	19871	571.50	1010.23	668.04	997.50	0.61	98.49	1.00	30.73	2410.28	-2045.67	1554.04
Saccade R	1	8	9615051531	9615071402	19871	571.50	1010.23	668.04	997.50	0.61	98.49	1.00	30.73	2410.28	-2045.67	1554.04
Fixation L	1	9	9615071402	9615250383	178981	654.85	991.75	22	17	-1	15.63	15.63
Fixation R	1	9	9615071402	9615250383	178981	654.85	991.75	22	17	-1	15.82	15.82
Blink L	1	1	9615250383	9615449251	198868
Blink R	1	1	9615250383	9615449251	198868
Fixation L	1	10	9615449251	9615648256	199005	443.67	551.56	32	55	-1	14.69	14.69
Fixation R	1	10	9615449251	9615648256	199005	443.67	551.56	32	55	-1	15.22	15.22
Saccade L	1	9	9615648256	9615747611	99355	458.82	517.95	391.87	244.34	4.52	153.53	0.80	45.51	3530.77	-228.07	1076.30
Saccade R	1	9	9615648256	9615747611	99355	458.82	517.95	391.87	244.34	4.52	153.53	0.80	45.51	3530.77	-228.07	1076.30
