[BeGaze]
Converted from:	C:\Documents and Settings\iViewX\Desktop\EXPERIMENTATIONS\Experiments\results\finaleart\S5121332-finaleart-1.idf
Date:	27.03.2019 15:35:36
Version:	BeGaze 2.5.77
Sample Rate:	50
Subject:	S5121332
Description:	Dylan Marinho

Table Header for Fixations:
Event Type	Trial	Number	Start	End	Duration	Location X	Location Y	Dispersion X	Dispersion Y	Plane	Avg. Pupil Size X	Avg. Pupil Size Y

Table Header for Saccades:
Event Type	Trial	Number	Start	End	Duration	Start Loc.X	Start Loc.Y	End Loc.X	End Loc.Y	Amplitude	Peak Speed	Peak Speed At	Average Speed	Peak Accel.	Peak Decel.	Average Accel.

Table Header for Blinks:
Event Type	Trial	Number	Start	End	Duration

Table Header for User Events:
Event Type	Trial	Number	Start	Description

UserEvent	1	1	10497380805	# Message: ronde_cross_1905.jpg
Fixation L	1	1	10497385683	10497902783	517100	969.41	590.39	50	38	-1	13.36	13.36
Fixation R	1	1	10497385683	10497902783	517100	969.41	590.39	50	38	-1	12.91	12.91
Saccade L	1	1	10497902783	10497942522	39739	939.38	615.75	812.50	520.22	1.51	132.42	1.00	37.93	3265.50	-2974.48	1765.05
Saccade R	1	1	10497902783	10497942522	39739	939.38	615.75	812.50	520.22	1.51	132.42	1.00	37.93	3265.50	-2974.48	1765.05
Fixation L	1	2	10497942522	10498201148	258626	793.92	518.36	22	13	-1	13.05	13.05
Fixation R	1	2	10497942522	10498201148	258626	793.92	518.36	22	13	-1	12.91	12.91
Blink L	1	1	10498201148	10498360237	159089
Blink R	1	1	10498201148	10498360237	159089
Fixation L	1	3	10498360237	10498479619	119382	746.51	497.21	4	22	-1	12.98	12.98
Fixation R	1	3	10498360237	10498479619	119382	746.51	497.21	4	22	-1	12.87	12.87
Saccade L	1	2	10498479619	10498519358	39739	748.83	508.62	510.29	512.66	2.09	164.45	1.00	52.52	4062.98	-4025.43	2867.14
Saccade R	1	2	10498479619	10498519358	39739	748.83	508.62	510.29	512.66	2.09	164.45	1.00	52.52	4062.98	-4025.43	2867.14
Fixation L	1	4	10498519358	10498857467	338109	501.42	515.34	28	10	-1	13.51	13.51
Fixation R	1	4	10498519358	10498857467	338109	501.42	515.34	28	10	-1	13.40	13.40
Saccade L	1	3	10498857467	10498897335	39868	524.97	513.61	1068.57	512.81	4.76	341.10	0.50	119.49	8512.61	-7956.21	6556.18
Saccade R	1	3	10498857467	10498897335	39868	524.97	513.61	1068.57	512.81	4.76	341.10	0.50	119.49	8512.61	-7956.21	6556.18
Fixation L	1	5	10498897335	10499235435	338100	1097.38	517.36	89	9	-1	13.24	13.24
Fixation R	1	5	10498897335	10499235435	338100	1097.38	517.36	89	9	-1	13.18	13.18
Saccade L	1	4	10499235435	10499255302	19867	1158.04	522.02	1183.28	522.96	0.45	62.05	0.00	22.78	613.08	-1488.52	890.90
Saccade R	1	4	10499235435	10499255302	19867	1158.04	522.02	1183.28	522.96	0.45	62.05	0.00	22.78	613.08	-1488.52	890.90
Fixation L	1	6	10499255302	10499792278	536976	1208.10	526.36	76	22	-1	13.12	13.12
Fixation R	1	6	10499255302	10499792278	536976	1208.10	526.36	76	22	-1	12.77	12.77
Saccade L	1	5	10499792278	10499812147	19869	1257.39	514.14	1258.48	512.47	0.04	3.32	1.00	2.21	16.40	-58.00	35.57
Saccade R	1	5	10499792278	10499812147	19869	1257.39	514.14	1258.48	512.47	0.04	3.32	1.00	2.21	16.40	-58.00	35.57
Fixation L	1	7	10499812147	10499951392	139245	1258.15	510.72	11	2	-1	13.33	13.33
Fixation R	1	7	10499812147	10499951392	139245	1258.15	510.72	11	2	-1	12.75	12.75
Saccade L	1	6	10499951392	10500110512	159120	1249.12	509.79	980.80	356.06	6.14	137.29	0.12	38.60	3392.22	-3215.89	1267.64
Saccade R	1	6	10499951392	10500110512	159120	1249.12	509.79	980.80	356.06	6.14	137.29	0.12	38.60	3392.22	-3215.89	1267.64
Fixation L	1	8	10500110512	10500249742	139230	950.84	344.91	46	23	-1	13.16	13.16
Fixation R	1	8	10500110512	10500249742	139230	950.84	344.91	46	23	-1	13.12	13.12
Blink L	1	2	10500249742	10500508361	258619
Blink R	1	2	10500249742	10500508361	258619
Fixation L	1	9	10500508361	10500746991	238630	737.10	273.05	5	22	-1	12.83	12.83
Fixation R	1	9	10500508361	10500746991	238630	737.10	273.05	5	22	-1	12.66	12.66
Blink L	1	3	10500746991	10500985701	238710
Blink R	1	3	10500746991	10500985701	238710
Saccade L	1	7	10500985701	10501065204	79503	800.27	606.19	800.40	670.60	12.50	996.32	1.00	157.22	2483.01	-24247.23	4514.63
Saccade R	1	7	10500985701	10501065204	79503	800.27	606.19	800.40	670.60	12.50	996.32	1.00	157.22	2483.01	-24247.23	4514.63
Blink L	1	4	10501065204	10501323816	258612
Blink R	1	4	10501065204	10501323816	258612
Fixation L	1	10	10501323816	10501423296	99480	812.18	656.53	4	34	-1	14.05	14.05
Fixation R	1	10	10501323816	10501423296	99480	812.18	656.53	4	34	-1	13.56	13.56
