[BeGaze]
Converted from:	C:\Documents and Settings\iViewX\Desktop\EXPERIMENTATIONS\Experiments\results\finaleart\S5121332-finaleart-1.idf
Date:	27.03.2019 15:35:07
Version:	BeGaze 2.5.77
Sample Rate:	50
Subject:	S5121332
Description:	Dylan Marinho

Table Header for Fixations:
Event Type	Trial	Number	Start	End	Duration	Location X	Location Y	Dispersion X	Dispersion Y	Plane	Avg. Pupil Size X	Avg. Pupil Size Y

Table Header for Saccades:
Event Type	Trial	Number	Start	End	Duration	Start Loc.X	Start Loc.Y	End Loc.X	End Loc.Y	Amplitude	Peak Speed	Peak Speed At	Average Speed	Peak Accel.	Peak Decel.	Average Accel.

Table Header for Blinks:
Event Type	Trial	Number	Start	End	Duration

Table Header for User Events:
Event Type	Trial	Number	Start	Description

UserEvent	1	1	9374558808	# Message: mother_and_child_by_the_sea_dahl_1830.jpg
Fixation L	1	1	9374569543	9375027019	457476	938.57	529.06	4	18	-1	16.08	16.08
Fixation R	1	1	9374569543	9375027019	457476	938.57	529.06	4	18	-1	16.55	16.55
Saccade L	1	1	9375027019	9375066763	39744	939.02	532.95	838.07	762.97	2.28	134.07	1.00	57.38	3345.42	-3184.60	2990.78
Saccade R	1	1	9375027019	9375066763	39744	939.02	532.95	838.07	762.97	2.28	134.07	1.00	57.38	3345.42	-3184.60	2990.78
Fixation L	1	2	9375066763	9375305502	238739	826.74	741.77	19	27	-1	16.78	16.78
Fixation R	1	2	9375066763	9375305502	238739	826.74	741.77	19	27	-1	17.20	17.20
Saccade L	1	2	9375305502	9375325366	19864	818.08	741.61	733.21	745.53	0.55	85.95	1.00	27.70	2083.67	-2053.91	1407.59
Saccade R	1	2	9375305502	9375325366	19864	818.08	741.61	733.21	745.53	0.55	85.95	1.00	27.70	2083.67	-2053.91	1407.59
Fixation L	1	3	9375325366	9375524233	198867	718.27	760.39	19	24	-1	17.21	17.21
Fixation R	1	3	9375325366	9375524233	198867	718.27	760.39	19	24	-1	17.52	17.52
Blink L	1	1	9375524233	9375743092	218859
Blink R	1	1	9375524233	9375743092	218859
Fixation L	1	4	9375743092	9376081197	338105	684.99	710.07	21	70	-1	18.65	18.65
Fixation R	1	4	9375743092	9376081197	338105	684.99	710.07	21	70	-1	19.76	19.76
Saccade L	1	3	9376081197	9376120946	39749	691.46	748.83	1059.89	636.45	3.36	231.36	1.00	84.65	5736.15	-5307.10	4638.23
Saccade R	1	3	9376081197	9376120946	39749	691.46	748.83	1059.89	636.45	3.36	231.36	1.00	84.65	5736.15	-5307.10	4638.23
Fixation L	1	5	9376120946	9376677910	556964	1087.25	664.50	57	38	-1	18.81	18.81
Fixation R	1	5	9376120946	9376677910	556964	1087.25	664.50	57	38	-1	19.47	19.47
Saccade L	1	4	9376677910	9376697789	19879	1117.70	674.84	1121.26	676.03	0.11	9.50	1.00	5.62	28.11	-142.60	61.53
Saccade R	1	4	9376677910	9376697789	19879	1117.70	674.84	1121.26	676.03	0.11	9.50	1.00	5.62	28.11	-142.60	61.53
Fixation L	1	6	9376697789	9377075650	377861	1124.37	723.14	7	91	-1	18.70	18.70
Fixation R	1	6	9376697789	9377075650	377861	1124.37	723.14	7	91	-1	19.43	19.43
Saccade L	1	5	9377075650	9377195004	119354	1121.27	768.01	943.42	575.58	3.76	137.03	0.83	31.54	3378.70	-3094.98	1588.28
Saccade R	1	5	9377075650	9377195004	119354	1121.27	768.01	943.42	575.58	3.76	137.03	0.83	31.54	3378.70	-3094.98	1588.28
Fixation L	1	7	9377195004	9377393874	198870	933.97	555.99	25	51	-1	18.62	18.62
Fixation R	1	7	9377195004	9377393874	198870	933.97	555.99	25	51	-1	18.95	18.95
Saccade L	1	6	9377393874	9377413743	19869	917.61	524.08	908.78	501.08	0.36	36.64	0.00	18.14	581.30	-682.65	539.79
Saccade R	1	6	9377393874	9377413743	19869	917.61	524.08	908.78	501.08	0.36	36.64	0.00	18.14	581.30	-682.65	539.79
Fixation L	1	8	9377413743	9377652477	238734	889.56	491.27	30	38	-1	18.02	18.02
Fixation R	1	8	9377413743	9377652477	238734	889.56	491.27	30	38	-1	18.02	18.02
Saccade L	1	7	9377652477	9377692231	39754	879.49	471.28	669.92	485.83	1.86	117.08	1.00	46.87	2635.60	-2861.90	2503.26
Saccade R	1	7	9377652477	9377692231	39754	879.49	471.28	669.92	485.83	1.86	117.08	1.00	46.87	2635.60	-2861.90	2503.26
Fixation L	1	9	9377692231	9377950835	258604	672.71	487.47	8	15	-1	16.94	16.94
Fixation R	1	9	9377692231	9377950835	258604	672.71	487.47	8	15	-1	17.30	17.30
Blink L	1	2	9377950835	9378109952	159117
Blink R	1	2	9377950835	9378109952	159117
Fixation L	1	10	9378109952	9378547546	437594	1008.06	809.18	29	46	-1	17.42	17.42
Fixation R	1	10	9378109952	9378547546	437594	1008.06	809.18	29	46	-1	17.42	17.42
