[BeGaze]
Converted from:	C:\Documents and Settings\iViewX\Desktop\EXPERIMENTATIONS\Experiments\results\finaleart\S6124332-finaleart-1.idf
Date:	27.03.2019 15:35:45
Version:	BeGaze 2.5.77
Sample Rate:	50
Subject:	S6124332
Description:	Romain Ferrand

Table Header for Fixations:
Event Type	Trial	Number	Start	End	Duration	Location X	Location Y	Dispersion X	Dispersion Y	Plane	Avg. Pupil Size X	Avg. Pupil Size Y

Table Header for Saccades:
Event Type	Trial	Number	Start	End	Duration	Start Loc.X	Start Loc.Y	End Loc.X	End Loc.Y	Amplitude	Peak Speed	Peak Speed At	Average Speed	Peak Accel.	Peak Decel.	Average Accel.

Table Header for Blinks:
Event Type	Trial	Number	Start	End	Duration

Table Header for User Events:
Event Type	Trial	Number	Start	Description

UserEvent	1	1	11580252288	# Message: resting-bacchante_sorolla_1887.jpg
Fixation L	1	1	11580257623	11580695231	437608	987.09	788.80	9	26	-1	19.92	19.92
Fixation R	1	1	11580257623	11580695231	437608	987.09	788.80	9	26	-1	19.61	19.61
Saccade L	1	1	11580695231	11580734973	39742	985.87	800.76	697.64	699.93	3.00	179.45	1.00	75.57	4376.23	-3895.36	3505.32
Saccade R	1	1	11580695231	11580734973	39742	985.87	800.76	697.64	699.93	3.00	179.45	1.00	75.57	4376.23	-3895.36	3505.32
Fixation L	1	2	11580734973	11580874205	139232	639.01	695.92	72	17	-1	19.15	19.15
Fixation R	1	2	11580734973	11580874205	139232	639.01	695.92	72	17	-1	19.08	19.08
Saccade L	1	2	11580874205	11580933830	59625	625.90	699.84	317.23	512.05	4.04	173.82	0.67	67.82	4282.53	-3737.39	2682.87
Saccade R	1	2	11580874205	11580933830	59625	625.90	699.84	317.23	512.05	4.04	173.82	0.67	67.82	4282.53	-3737.39	2682.87
Fixation L	1	3	11580933830	11581053208	119378	344.99	513.23	40	19	-1	16.96	16.96
Fixation R	1	3	11580933830	11581053208	119378	344.99	513.23	40	19	-1	16.85	16.85
Saccade L	1	3	11581053208	11581073078	19870	337.36	499.13	292.74	404.10	0.70	106.19	1.00	35.30	2551.71	-2378.61	1854.62
Saccade R	1	3	11581053208	11581073078	19870	337.36	499.13	292.74	404.10	0.70	106.19	1.00	35.30	2551.71	-2378.61	1854.62
Fixation L	1	4	11581073078	11581371429	298351	303.04	421.65	51	43	-1	15.90	15.90
Fixation R	1	4	11581073078	11581371429	298351	303.04	421.65	51	43	-1	16.28	16.28
Saccade L	1	4	11581371429	11581391296	19867	338.80	446.83	342.17	451.95	0.12	7.93	0.00	6.24	12.68	-72.82	52.16
Saccade R	1	4	11581371429	11581391296	19867	338.80	446.83	342.17	451.95	0.12	7.93	0.00	6.24	12.68	-72.82	52.16
Fixation L	1	5	11581391296	11581848781	457485	331.59	444.82	18	18	-1	16.06	16.06
Fixation R	1	5	11581391296	11581848781	457485	331.59	444.82	18	18	-1	16.41	16.41
Saccade L	1	5	11581848781	11582087381	238600	340.11	446.43	1127.41	721.75	15.69	303.43	0.08	65.77	7560.25	-6305.38	2870.64
Saccade R	1	5	11581848781	11582087381	238600	340.11	446.43	1127.41	721.75	15.69	303.43	0.08	65.77	7560.25	-6305.38	2870.64
Fixation L	1	6	11582087381	11582266518	179137	1127.25	730.27	5	18	-1	17.42	17.42
Fixation R	1	6	11582087381	11582266518	179137	1127.25	730.27	5	18	-1	17.22	17.22
Saccade L	1	6	11582266518	11582306248	39730	1129.88	739.82	1496.36	726.05	3.13	209.05	0.50	78.84	5181.10	-4916.37	4442.95
Saccade R	1	6	11582266518	11582306248	39730	1129.88	739.82	1496.36	726.05	3.13	209.05	0.50	78.84	5181.10	-4916.37	4442.95
Fixation L	1	7	11582306248	11582524982	218734	1482.79	725.07	41	32	-1	17.20	17.20
Fixation R	1	7	11582306248	11582524982	218734	1482.79	725.07	41	32	-1	16.59	16.59
Saccade L	1	7	11582524982	11582564860	39878	1513.75	703.17	1532.76	659.47	1.60	89.74	0.50	40.02	2124.14	-1981.68	1244.15
Saccade R	1	7	11582524982	11582564860	39878	1513.75	703.17	1532.76	659.47	1.60	89.74	0.50	40.02	2124.14	-1981.68	1244.15
Fixation L	1	8	11582564860	11582982467	417607	1539.62	658.03	20	73	-1	17.49	17.49
Fixation R	1	8	11582564860	11582982467	417607	1539.62	658.03	20	73	-1	16.76	16.76
Saccade L	1	8	11582982467	11583062077	79610	1539.04	641.45	770.59	760.80	9.26	298.67	0.25	116.37	7419.13	-4467.84	4174.73
Saccade R	1	8	11582982467	11583062077	79610	1539.04	641.45	770.59	760.80	9.26	298.67	0.25	116.37	7419.13	-4467.84	4174.73
Fixation L	1	9	11583062077	11583380301	318224	744.39	743.75	47	50	-1	18.20	18.20
Fixation R	1	9	11583062077	11583380301	318224	744.39	743.75	47	50	-1	17.79	17.79
Saccade L	1	9	11583380301	11583400180	19879	723.23	711.79	719.87	697.41	0.28	17.92	0.00	13.86	379.51	-248.99	212.07
Saccade R	1	9	11583380301	11583400180	19879	723.23	711.79	719.87	697.41	0.28	17.92	0.00	13.86	379.51	-248.99	212.07
Fixation L	1	10	11583400180	11583519551	119371	710.37	697.10	25	37	-1	17.44	17.44
Fixation R	1	10	11583400180	11583519551	119371	710.37	697.10	25	37	-1	17.77	17.77
Saccade L	1	10	11583519551	11583559302	39751	694.60	688.69	388.41	550.02	3.32	240.40	0.50	83.51	5578.69	-5310.94	4034.48
Saccade R	1	10	11583519551	11583559302	39751	694.60	688.69	388.41	550.02	3.32	240.40	0.50	83.51	5578.69	-5310.94	4034.48
Fixation L	1	11	11583559302	11583797899	238597	390.08	583.12	13	45	-1	17.42	17.42
Fixation R	1	11	11583559302	11583797899	238597	390.08	583.12	13	45	-1	17.53	17.53
Saccade L	1	11	11583797899	11583817907	20008	395.38	593.27	458.73	592.02	0.48	64.09	1.00	24.22	1535.66	-1386.38	1063.10
Saccade R	1	11	11583797899	11583817907	20008	395.38	593.27	458.73	592.02	0.48	64.09	1.00	24.22	1535.66	-1386.38	1063.10
Fixation L	1	12	11583817907	11583996906	178999	475.41	593.53	28	4	-1	17.56	17.56
Fixation R	1	12	11583817907	11583996906	178999	475.41	593.53	28	4	-1	17.63	17.63
Saccade L	1	12	11583996906	11584036633	39727	475.87	590.79	412.60	613.88	1.56	107.95	0.50	39.37	2563.48	-1846.80	1566.99
Saccade R	1	12	11583996906	11584036633	39727	475.87	590.79	412.60	613.88	1.56	107.95	0.50	39.37	2563.48	-1846.80	1566.99
Fixation L	1	13	11584036633	11584156020	119387	401.12	650.40	21	56	-1	17.86	17.86
Fixation R	1	13	11584036633	11584156020	119387	401.12	650.40	21	56	-1	17.98	17.98
Saccade L	1	13	11584156020	11584255384	99364	400.02	663.17	168.11	760.57	4.38	153.96	0.40	44.12	3603.13	-3695.72	1881.96
Saccade R	1	13	11584156020	11584255384	99364	400.02	663.17	168.11	760.57	4.38	153.96	0.40	44.12	3603.13	-3695.72	1881.96
