[BeGaze]
Converted from:	C:\Documents and Settings\iViewX\Desktop\EXPERIMENTATIONS\Experiments\results\finaleart\S6124332-finaleart-1.idf
Date:	27.03.2019 15:36:07
Version:	BeGaze 2.5.77
Sample Rate:	50
Subject:	S6124332
Description:	Romain Ferrand

Table Header for Fixations:
Event Type	Trial	Number	Start	End	Duration	Location X	Location Y	Dispersion X	Dispersion Y	Plane	Avg. Pupil Size X	Avg. Pupil Size Y

Table Header for Saccades:
Event Type	Trial	Number	Start	End	Duration	Start Loc.X	Start Loc.Y	End Loc.X	End Loc.Y	Amplitude	Peak Speed	Peak Speed At	Average Speed	Peak Accel.	Peak Decel.	Average Accel.

Table Header for Blinks:
Event Type	Trial	Number	Start	End	Duration

Table Header for User Events:
Event Type	Trial	Number	Start	Description

UserEvent	1	1	12355436103	# Message: bacchante_sorolla_1886.jpg
Fixation L	1	1	12355452503	12355929850	477347	865.26	860.98	12	24	-1	18.51	18.51
Fixation R	1	1	12355452503	12355929850	477347	865.26	860.98	12	24	-1	16.89	16.89
Saccade L	1	1	12355929850	12355969600	39750	860.77	857.10	955.51	596.28	2.52	150.44	0.50	63.52	3692.02	-3223.39	3372.79
Saccade R	1	1	12355929850	12355969600	39750	860.77	857.10	955.51	596.28	2.52	150.44	0.50	63.52	3692.02	-3223.39	3372.79
Fixation L	1	2	12355969600	12356327696	358096	960.46	551.79	25	72	-1	16.60	16.60
Fixation R	1	2	12355969600	12356327696	358096	960.46	551.79	25	72	-1	15.23	15.23
Saccade L	1	2	12356327696	12356347571	19875	952.07	528.32	931.10	533.09	0.51	42.66	1.00	25.53	779.80	-208.20	366.80
Saccade R	1	2	12356327696	12356347571	19875	952.07	528.32	931.10	533.09	0.51	42.66	1.00	25.53	779.80	-208.20	366.80
Fixation L	1	3	12356347571	12356506697	159126	891.50	561.13	48	48	-1	15.38	15.38
Fixation R	1	3	12356347571	12356506697	159126	891.50	561.13	48	48	-1	13.59	13.59
Saccade L	1	3	12356506697	12356526570	19873	886.03	581.14	880.22	586.86	0.10	8.25	1.00	4.97	71.47	-153.74	84.28
Saccade R	1	3	12356506697	12356526570	19873	886.03	581.14	880.22	586.86	0.10	8.25	1.00	4.97	71.47	-153.74	84.28
Fixation L	1	4	12356526570	12356904418	377848	878.67	581.91	9	16	-1	15.88	15.88
Fixation R	1	4	12356526570	12356904418	377848	878.67	581.91	9	16	-1	13.98	13.98
Saccade L	1	4	12356904418	12356944284	39866	884.26	572.58	1419.69	395.44	4.89	293.92	1.00	122.57	7289.39	-6814.46	7023.47
Saccade R	1	4	12356904418	12356944284	39866	884.26	572.58	1419.69	395.44	4.89	293.92	1.00	122.57	7289.39	-6814.46	7023.47
Fixation L	1	5	12356944284	12357043648	99364	1428.44	412.69	44	45	-1	16.58	16.58
Fixation R	1	5	12356944284	12357043648	99364	1428.44	412.69	44	45	-1	14.64	14.64
Saccade L	1	5	12357043648	12357063532	19884	1415.79	438.35	1409.32	447.03	0.18	15.62	1.00	9.01	278.90	-116.53	156.91
Saccade R	1	5	12357043648	12357063532	19884	1415.79	438.35	1409.32	447.03	0.18	15.62	1.00	9.01	278.90	-116.53	156.91
Fixation L	1	6	12357063532	12357421631	358099	1398.67	437.93	48	51	-1	16.96	16.96
Fixation R	1	6	12357063532	12357421631	358099	1398.67	437.93	48	51	-1	15.21	15.21
Saccade L	1	6	12357421631	12357521005	99374	1375.64	427.83	1378.83	412.60	3.06	94.79	0.80	30.82	2346.99	-2145.09	1377.21
Saccade R	1	6	12357421631	12357521005	99374	1375.64	427.83	1378.83	412.60	3.06	94.79	0.80	30.82	2346.99	-2145.09	1377.21
Fixation L	1	7	12357521005	12357700120	179115	1389.99	406.08	22	16	-1	16.77	16.77
Fixation R	1	7	12357521005	12357700120	179115	1389.99	406.08	22	16	-1	15.17	15.17
Saccade L	1	7	12357700120	12357759743	59623	1394.46	399.47	985.88	249.51	4.89	193.13	0.33	81.94	4467.27	-3313.12	3198.51
Saccade R	1	7	12357700120	12357759743	59623	1394.46	399.47	985.88	249.51	4.89	193.13	0.33	81.94	4467.27	-3313.12	3198.51
Fixation L	1	8	12357759743	12358157472	397729	990.67	223.00	22	42	-1	16.90	16.90
Fixation R	1	8	12357759743	12358157472	397729	990.67	223.00	22	42	-1	15.84	15.84
Saccade L	1	8	12358157472	12358177462	19990	1005.88	234.22	1007.28	286.96	0.47	53.38	1.00	23.62	696.03	-1201.38	720.34
Saccade R	1	8	12358157472	12358177462	19990	1005.88	234.22	1007.28	286.96	0.47	53.38	1.00	23.62	696.03	-1201.38	720.34
Fixation L	1	9	12358177462	12358336575	159113	1012.20	287.89	52	46	-1	17.34	17.34
Fixation R	1	9	12358177462	12358336575	159113	1012.20	287.89	52	46	-1	16.50	16.50
Saccade L	1	9	12358336575	12358356456	19881	1026.11	305.94	1029.07	306.40	0.10	7.95	1.00	4.87	126.16	-64.06	81.88
Saccade R	1	9	12358336575	12358356456	19881	1026.11	305.94	1029.07	306.40	0.10	7.95	1.00	4.87	126.16	-64.06	81.88
Fixation L	1	10	12358356456	12358575198	218742	1037.65	319.93	11	19	-1	17.71	17.71
Fixation R	1	10	12358356456	12358575198	218742	1037.65	319.93	11	19	-1	16.73	16.73
Saccade L	1	10	12358575198	12358634936	59738	1037.95	325.67	466.79	443.46	6.21	289.66	0.67	103.92	7171.89	-6631.03	5016.28
Saccade R	1	10	12358575198	12358634936	59738	1037.95	325.67	466.79	443.46	6.21	289.66	0.67	103.92	7171.89	-6631.03	5016.28
Fixation L	1	11	12358634936	12358853675	218739	446.67	470.78	43	56	-1	18.02	18.02
Fixation R	1	11	12358634936	12358853675	218739	446.67	470.78	43	56	-1	17.40	17.40
Saccade L	1	11	12358853675	12358873543	19868	423.25	499.56	360.03	603.51	0.90	123.06	1.00	45.22	2994.91	-2867.38	1990.00
Saccade R	1	11	12358853675	12358873543	19868	423.25	499.56	360.03	603.51	0.90	123.06	1.00	45.22	2994.91	-2867.38	1990.00
Fixation L	1	12	12358873543	12359450382	576839	333.09	602.01	35	44	-1	18.01	18.01
Fixation R	1	12	12358873543	12359450382	576839	333.09	602.01	35	44	-1	17.85	17.85
