[BeGaze]
Converted from:	C:\Documents and Settings\iViewX\Desktop\EXPERIMENTATIONS\Experiments\results\finaleart\S6124332-finaleart-1.idf
Date:	27.03.2019 15:36:06
Version:	BeGaze 2.5.77
Sample Rate:	50
Subject:	S6124332
Description:	Romain Ferrand

Table Header for Fixations:
Event Type	Trial	Number	Start	End	Duration	Location X	Location Y	Dispersion X	Dispersion Y	Plane	Avg. Pupil Size X	Avg. Pupil Size Y

Table Header for Saccades:
Event Type	Trial	Number	Start	End	Duration	Start Loc.X	Start Loc.Y	End Loc.X	End Loc.Y	Amplitude	Peak Speed	Peak Speed At	Average Speed	Peak Accel.	Peak Decel.	Average Accel.

Table Header for Blinks:
Event Type	Trial	Number	Start	End	Duration

Table Header for User Events:
Event Type	Trial	Number	Start	Description

UserEvent	1	1	12336894779	# Message: chase-a-study-in-curves-1890.jpg
Fixation L	1	1	12336895383	12337213593	318210	903.67	611.89	59	33	-1	18.07	18.07
Fixation R	1	1	12336895383	12337213593	318210	903.67	611.89	59	33	-1	16.93	16.93
Saccade L	1	1	12337213593	12337233474	19881	855.85	609.91	839.56	609.73	0.40	29.15	1.00	20.35	-233.95	-526.26	359.02
Saccade R	1	1	12337213593	12337233474	19881	855.85	609.91	839.56	609.73	0.40	29.15	1.00	20.35	-233.95	-526.26	359.02
Fixation L	1	2	12337233474	12337452245	218771	839.24	597.77	35	20	-1	18.58	18.58
Fixation R	1	2	12337233474	12337452245	218771	839.24	597.77	35	20	-1	17.01	17.01
Saccade L	1	2	12337452245	12337511953	59708	814.80	589.57	266.28	488.00	6.56	259.69	0.67	109.84	5893.97	-5417.35	4476.86
Saccade R	1	2	12337452245	12337511953	59708	814.80	589.57	266.28	488.00	6.56	259.69	0.67	109.84	5893.97	-5417.35	4476.86
Fixation L	1	3	12337511953	12337850063	338110	284.00	531.80	32	66	-1	17.38	17.38
Fixation R	1	3	12337511953	12337850063	338110	284.00	531.80	32	66	-1	17.33	17.33
Saccade L	1	3	12337850063	12337869947	19884	298.98	554.39	337.34	558.03	0.30	38.97	1.00	15.21	915.81	-596.13	624.90
Saccade R	1	3	12337850063	12337869947	19884	298.98	554.39	337.34	558.03	0.30	38.97	1.00	15.21	915.81	-596.13	624.90
Fixation L	1	4	12337869947	12338088804	218857	344.83	550.99	34	25	-1	17.46	17.46
Fixation R	1	4	12337869947	12338088804	218857	344.83	550.99	34	25	-1	17.93	17.93
Saccade L	1	4	12338088804	12338148412	59608	345.28	535.14	499.11	512.83	3.79	171.70	0.67	63.63	4135.99	-4152.26	2630.85
Saccade R	1	4	12338088804	12338148412	59608	345.28	535.14	499.11	512.83	3.79	171.70	0.67	63.63	4135.99	-4152.26	2630.85
Fixation L	1	5	12338148412	12338367154	218742	510.11	515.00	17	10	-1	18.38	18.38
Fixation R	1	5	12338148412	12338367154	218742	510.11	515.00	17	10	-1	18.27	18.27
Saccade L	1	5	12338367154	12338387144	19990	516.88	511.96	611.03	516.39	0.57	95.34	1.00	28.74	2250.01	-2215.46	1523.56
Saccade R	1	5	12338367154	12338387144	19990	516.88	511.96	611.03	516.39	0.57	95.34	1.00	28.74	2250.01	-2215.46	1523.56
Fixation L	1	6	12338387144	12338884377	497233	608.60	487.11	11	39	-1	18.61	18.61
Fixation R	1	6	12338387144	12338884377	497233	608.60	487.11	11	39	-1	17.82	17.82
Saccade L	1	6	12338884377	12338924114	39737	609.93	477.21	1005.32	479.28	3.68	227.28	1.00	92.72	5659.17	-5632.63	4587.44
Saccade R	1	6	12338884377	12338924114	39737	609.93	477.21	1005.32	479.28	3.68	227.28	1.00	92.72	5659.17	-5632.63	4587.44
Fixation L	1	7	12338924114	12339083238	159124	1064.39	477.99	69	8	-1	17.81	17.81
Fixation R	1	7	12338924114	12339083238	159124	1064.39	477.99	69	8	-1	18.04	18.04
Saccade L	1	7	12339083238	12339142861	59623	1074.24	482.80	1606.08	659.35	5.90	215.76	0.67	98.94	5378.19	-4843.90	4025.52
Saccade R	1	7	12339083238	12339142861	59623	1074.24	482.80	1606.08	659.35	5.90	215.76	0.67	98.94	5378.19	-4843.90	4025.52
Fixation L	1	8	12339142861	12339341849	198988	1588.02	704.02	30	64	-1	18.23	18.23
Fixation R	1	8	12339142861	12339341849	198988	1588.02	704.02	30	64	-1	16.92	16.92
Saccade L	1	8	12339341849	12339401466	59617	1575.09	724.20	1575.96	659.78	1.38	56.65	1.00	23.16	1312.87	-59.58	550.75
Saccade R	1	8	12339341849	12339401466	59617	1575.09	724.20	1575.96	659.78	1.38	56.65	1.00	23.16	1312.87	-59.58	550.75
Fixation L	1	9	12339401466	12340117544	716078	1582.78	648.50	54	40	-1	18.43	18.43
Fixation R	1	9	12339401466	12340117544	716078	1582.78	648.50	54	40	-1	16.99	16.99
Saccade L	1	9	12340117544	12340137429	19885	1591.03	657.34	1590.54	688.70	0.65	90.78	1.00	32.85	2209.23	-523.20	1121.03
Saccade R	1	9	12340117544	12340137429	19885	1591.03	657.34	1590.54	688.70	0.65	90.78	1.00	32.85	2209.23	-523.20	1121.03
Fixation L	1	10	12340137429	12340376034	238605	1591.60	759.53	6	89	-1	19.71	19.71
Fixation R	1	10	12340137429	12340376034	238605	1591.60	759.53	6	89	-1	18.28	18.28
Saccade L	1	10	12340376034	12340395913	19879	1588.48	757.51	1583.25	758.91	0.13	10.15	1.00	6.73	189.28	-100.21	123.38
Saccade R	1	10	12340376034	12340395913	19879	1588.48	757.51	1583.25	758.91	0.13	10.15	1.00	6.73	189.28	-100.21	123.38
Fixation L	1	11	12340395913	12340734138	338225	1574.02	748.14	19	19	-1	20.10	20.10
Fixation R	1	11	12340395913	12340734138	338225	1574.02	748.14	19	19	-1	18.46	18.46
Saccade L	1	11	12340734138	12340773884	39746	1563.81	741.40	1277.98	776.59	2.50	159.40	0.50	62.79	3904.63	-3658.02	3357.67
Saccade R	1	11	12340734138	12340773884	39746	1563.81	741.40	1277.98	776.59	2.50	159.40	0.50	62.79	3904.63	-3658.02	3357.67
Fixation L	1	12	12340773884	12340893255	119371	1293.20	757.66	24	30	-1	20.10	20.10
Fixation R	1	12	12340773884	12340893255	119371	1293.20	757.66	24	30	-1	18.97	18.97
