[BeGaze]
Converted from:	C:\Documents and Settings\iViewX\Desktop\EXPERIMENTATIONS\Experiments\results\finaleart\S6124332-finaleart-1.idf
Date:	27.03.2019 15:35:43
Version:	BeGaze 2.5.77
Sample Rate:	50
Subject:	S6124332
Description:	Romain Ferrand

Table Header for Fixations:
Event Type	Trial	Number	Start	End	Duration	Location X	Location Y	Dispersion X	Dispersion Y	Plane	Avg. Pupil Size X	Avg. Pupil Size Y

Table Header for Saccades:
Event Type	Trial	Number	Start	End	Duration	Start Loc.X	Start Loc.Y	End Loc.X	End Loc.Y	Amplitude	Peak Speed	Peak Speed At	Average Speed	Peak Accel.	Peak Decel.	Average Accel.

Table Header for Blinks:
Event Type	Trial	Number	Start	End	Duration

Table Header for User Events:
Event Type	Trial	Number	Start	Description

UserEvent	1	1	11531226840	# Message: red-mullets_monet_1869.jpg
Fixation L	1	1	11531229331	11531766298	536967	922.79	777.11	16	82	-1	19.66	19.66
Fixation R	1	1	11531229331	11531766298	536967	922.79	777.11	16	82	-1	19.27	19.27
Saccade L	1	1	11531766298	11531786178	19880	915.43	710.80	919.34	696.17	0.15	15.32	1.00	7.39	202.44	-18.42	117.99
Saccade R	1	1	11531766298	11531786178	19880	915.43	710.80	919.34	696.17	0.15	15.32	1.00	7.39	202.44	-18.42	117.99
Fixation L	1	2	11531786178	11531885665	99487	914.98	691.35	13	16	-1	18.24	18.24
Fixation R	1	2	11531786178	11531885665	99487	914.98	691.35	13	16	-1	18.12	18.12
Saccade L	1	2	11531885665	11531925413	39748	905.80	693.95	677.55	766.51	2.29	178.48	0.50	57.70	4419.57	-4181.78	2845.10
Saccade R	1	2	11531885665	11531925413	39748	905.80	693.95	677.55	766.51	2.29	178.48	0.50	57.70	4419.57	-4181.78	2845.10
Fixation L	1	3	11531925413	11532064666	139253	663.59	758.84	22	47	-1	16.97	16.97
Fixation R	1	3	11531925413	11532064666	139253	663.59	758.84	22	47	-1	16.78	16.78
Saccade L	1	3	11532064666	11532084529	19863	654.63	780.64	608.46	845.52	0.63	80.55	1.00	31.63	1921.64	-1493.71	1234.95
Saccade R	1	3	11532064666	11532084529	19863	654.63	780.64	608.46	845.52	0.63	80.55	1.00	31.63	1921.64	-1493.71	1234.95
Fixation L	1	4	11532084529	11532442638	358109	592.09	835.12	30	68	-1	16.45	16.45
Fixation R	1	4	11532084529	11532442638	358109	592.09	835.12	30	68	-1	16.86	16.86
Saccade L	1	4	11532442638	11532462497	19859	606.66	862.33	612.02	872.45	0.16	11.58	1.00	8.27	41.52	-226.44	164.38
Saccade R	1	4	11532442638	11532462497	19859	606.66	862.33	612.02	872.45	0.16	11.58	1.00	8.27	41.52	-226.44	164.38
Fixation L	1	5	11532462497	11532621621	159124	613.12	867.76	3	43	-1	17.03	17.03
Fixation R	1	5	11532462497	11532621621	159124	613.12	867.76	3	43	-1	17.47	17.47
Saccade L	1	5	11532621621	11532681241	59620	612.24	830.40	733.88	386.86	5.42	169.69	0.67	90.98	3665.00	-3641.48	2863.09
Saccade R	1	5	11532621621	11532681241	59620	612.24	830.40	733.88	386.86	5.42	169.69	0.67	90.98	3665.00	-3641.48	2863.09
Fixation L	1	6	11532681241	11532840354	159113	744.31	344.51	17	57	-1	16.68	16.68
Fixation R	1	6	11532681241	11532840354	159113	744.31	344.51	17	57	-1	17.63	17.63
Saccade L	1	6	11532840354	11532880103	39749	751.48	334.14	1030.70	223.75	2.66	155.23	1.00	66.92	3762.84	-3445.08	3537.42
Saccade R	1	6	11532840354	11532880103	39749	751.48	334.14	1030.70	223.75	2.66	155.23	1.00	66.92	3762.84	-3445.08	3537.42
Fixation L	1	7	11532880103	11533178464	298361	1029.82	208.79	12	35	-1	16.42	16.42
Fixation R	1	7	11532880103	11533178464	298361	1029.82	208.79	12	35	-1	16.68	16.68
Saccade L	1	7	11533178464	11533198342	19878	1029.41	203.35	1033.01	303.97	0.62	101.85	1.00	31.11	2465.02	-2360.10	1752.71
Saccade R	1	7	11533178464	11533198342	19878	1029.41	203.35	1033.01	303.97	0.62	101.85	1.00	31.11	2465.02	-2360.10	1752.71
Fixation L	1	8	11533198342	11533317702	119360	1058.01	306.50	43	13	-1	16.52	16.52
Fixation R	1	8	11533198342	11533317702	119360	1058.01	306.50	43	13	-1	16.22	16.22
Saccade L	1	8	11533317702	11533377450	59748	1076.57	313.11	1513.15	601.00	5.88	212.40	0.33	98.41	5132.05	-4604.96	3914.47
Saccade R	1	8	11533317702	11533377450	59748	1076.57	313.11	1513.15	601.00	5.88	212.40	0.33	98.41	5132.05	-4604.96	3914.47
Fixation L	1	9	11533377450	11533476822	99372	1505.77	612.93	12	28	-1	13.31	13.31
Fixation R	1	9	11533377450	11533476822	99372	1505.77	612.93	12	28	-1	16.23	16.23
Blink L	1	1	11533476822	11533616067	139245
Saccade R	1	9	11533476822	11533576316	99494	1500.81	629.74	1524.81	1045.68	8.15	228.44	0.80	81.88	3467.59	-5094.69	3223.57
Fixation R	1	10	11533576316	11533735433	159117	1543.37	1025.56	27	31	-1	16.72	16.72
Fixation L	1	10	11533616067	11533755301	139234	1547.46	1032.68	10	86	-1	18.39	18.39
Saccade R	1	10	11533735433	11533755301	19868	1550.50	1013.99	1548.80	1100.44	0.52	87.47	1.00	26.28	2087.85	-1921.40	1345.47
Saccade L	1	9	11533755301	11533775187	19886	1548.80	1100.44	1554.48	1103.03	0.56	87.47	0.00	27.95	-27.16	-1921.40	660.14
Fixation R	1	11	11533755301	11533894549	139248	1566.73	1115.32	30	29	-1	16.66	16.66
Fixation L	1	11	11533775187	11533894549	119362	1569.29	1117.45	24	27	-1	18.21	18.21
Saccade L	1	10	11533894549	11533914414	19865	1575.16	1130.23	1495.25	1121.62	0.49	81.31	1.00	24.67	1921.41	-1536.41	1205.67
Saccade R	1	11	11533894549	11533914414	19865	1575.16	1130.23	1495.25	1121.62	0.49	81.31	1.00	24.67	1921.41	-1536.41	1205.67
Fixation L	1	12	11533914414	11534332144	417730	1485.75	1108.67	42	33	-1	18.45	18.45
Fixation R	1	12	11533914414	11534332144	417730	1485.75	1108.67	42	33	-1	17.35	17.35
Saccade L	1	11	11534332144	11534411642	79498	1452.74	1098.55	554.43	1066.37	11.10	330.91	0.25	139.66	8258.19	-5173.82	4259.23
Saccade R	1	12	11534332144	11534411642	79498	1452.74	1098.55	554.43	1066.37	11.10	330.91	0.25	139.66	8258.19	-5173.82	4259.23
Fixation L	1	13	11534411642	11534610621	198979	541.38	1038.83	17	39	-1	18.74	18.74
Fixation R	1	13	11534411642	11534610621	198979	541.38	1038.83	17	39	-1	17.69	17.69
Saccade L	1	12	11534610621	11534630509	19888	538.18	1029.48	486.95	1085.76	0.61	76.98	1.00	30.81	1812.35	-1314.85	1347.88
Saccade R	1	13	11534610621	11534630509	19888	538.18	1029.48	486.95	1085.76	0.61	76.98	1.00	30.81	1812.35	-1314.85	1347.88
Fixation L	1	14	11534630509	11534849233	218724	443.35	1093.93	51	32	-1	17.82	17.82
Fixation R	1	14	11534630509	11534849233	218724	443.35	1093.93	51	32	-1	17.49	17.49
Saccade L	1	13	11534849233	11534869118	19885	436.66	1100.83	341.93	1102.54	0.65	95.84	1.00	32.70	2338.70	-1989.01	1700.21
Saccade R	1	14	11534849233	11534869118	19885	436.66	1100.83	341.93	1102.54	0.65	95.84	1.00	32.70	2338.70	-1989.01	1700.21
Fixation L	1	15	11534869118	11535247096	377978	296.02	1102.99	87	10	-1	16.91	16.91
Fixation R	1	15	11534869118	11535247096	377978	296.02	1102.99	87	10	-1	17.28	17.28
