[BeGaze]
Converted from:	C:\Documents and Settings\iViewX\Desktop\EXPERIMENTATIONS\Experiments\results\finaleart\S6124332-finaleart-1.idf
Date:	27.03.2019 15:35:42
Version:	BeGaze 2.5.77
Sample Rate:	50
Subject:	S6124332
Description:	Romain Ferrand

Table Header for Fixations:
Event Type	Trial	Number	Start	End	Duration	Location X	Location Y	Dispersion X	Dispersion Y	Plane	Avg. Pupil Size X	Avg. Pupil Size Y

Table Header for Saccades:
Event Type	Trial	Number	Start	End	Duration	Start Loc.X	Start Loc.Y	End Loc.X	End Loc.Y	Amplitude	Peak Speed	Peak Speed At	Average Speed	Peak Accel.	Peak Decel.	Average Accel.

Table Header for Blinks:
Event Type	Trial	Number	Start	End	Duration

Table Header for User Events:
Event Type	Trial	Number	Start	Description

UserEvent	1	1	11525123667	# Message: after_a_rain_country_road_Vasilyev_1869.jpg
Fixation L	1	1	11525143074	11525600550	457476	1093.80	808.51	74	5	-1	20.67	20.67
Fixation R	1	1	11525143074	11525600550	457476	1093.80	808.51	74	5	-1	20.76	20.76
Saccade L	1	1	11525600550	11525620416	19866	1029.82	810.54	870.03	812.12	1.39	161.62	1.00	69.84	4018.95	-3670.57	2681.28
Saccade R	1	1	11525600550	11525620416	19866	1029.82	810.54	870.03	812.12	1.39	161.62	1.00	69.84	4018.95	-3670.57	2681.28
Fixation L	1	2	11525620416	11525779537	159121	806.18	820.02	81	16	-1	20.29	20.29
Fixation R	1	2	11525620416	11525779537	159121	806.18	820.02	81	16	-1	20.58	20.58
Saccade L	1	2	11525779537	11525799412	19875	792.62	828.89	791.48	832.16	0.08	4.91	1.00	4.24	466.73	-12.85	163.06
Saccade R	1	2	11525779537	11525799412	19875	792.62	828.89	791.48	832.16	0.08	4.91	1.00	4.24	466.73	-12.85	163.06
Fixation L	1	3	11525799412	11526356377	556965	802.89	786.71	18	67	-1	18.25	18.25
Fixation R	1	3	11525799412	11526356377	556965	802.89	786.71	18	67	-1	18.78	18.78
Saccade L	1	3	11526356377	11526415997	59620	804.08	769.65	1259.51	754.73	4.75	222.48	0.67	79.70	5463.92	-5255.68	3581.05
Saccade R	1	3	11526356377	11526415997	59620	804.08	769.65	1259.51	754.73	4.75	222.48	0.67	79.70	5463.92	-5255.68	3581.05
Fixation L	1	4	11526415997	11526952965	536968	1227.42	735.62	72	25	-1	17.35	17.35
Fixation R	1	4	11526415997	11526952965	536968	1227.42	735.62	72	25	-1	17.24	17.24
Saccade L	1	4	11526952965	11526972972	20007	1191.34	736.59	1188.18	735.05	0.05	3.55	1.00	2.51	48.64	-38.64	32.51
Saccade R	1	4	11526952965	11526972972	20007	1191.34	736.59	1188.18	735.05	0.05	3.55	1.00	2.51	48.64	-38.64	32.51
Fixation L	1	5	11526972972	11527072321	99349	1185.53	738.40	4	5	-1	17.77	17.77
Fixation R	1	5	11526972972	11527072321	99349	1185.53	738.40	4	5	-1	17.23	17.23
Saccade L	1	5	11527072321	11527231444	159123	1183.70	740.24	487.58	701.27	10.43	230.01	0.25	65.52	5741.76	-5527.90	3254.82
Saccade R	1	5	11527072321	11527231444	159123	1183.70	740.24	487.58	701.27	10.43	230.01	0.25	65.52	5741.76	-5527.90	3254.82
Fixation L	1	6	11527231444	11527688926	457482	504.08	666.56	30	66	-1	17.71	17.71
Fixation R	1	6	11527231444	11527688926	457482	504.08	666.56	30	66	-1	17.87	17.87
Saccade L	1	6	11527688926	11527728669	39743	515.74	642.32	718.87	657.14	1.78	107.14	0.50	44.79	2642.77	-2411.37	2439.86
Saccade R	1	6	11527688926	11527728669	39743	515.74	642.32	718.87	657.14	1.78	107.14	0.50	44.79	2642.77	-2411.37	2439.86
Fixation L	1	7	11527728669	11527967404	238735	720.00	655.64	64	24	-1	17.77	17.77
Fixation R	1	7	11527728669	11527967404	238735	720.00	655.64	64	24	-1	18.12	18.12
Saccade L	1	7	11527967404	11527987277	19873	774.55	637.81	788.42	632.22	0.59	62.85	0.00	29.45	216.88	-737.66	354.24
Saccade R	1	7	11527967404	11527987277	19873	774.55	637.81	788.42	632.22	0.59	62.85	0.00	29.45	216.88	-737.66	354.24
Fixation L	1	8	11527987277	11528484499	497222	804.55	601.94	23	42	-1	17.21	17.21
Fixation R	1	8	11527987277	11528484499	497222	804.55	601.94	23	42	-1	17.43	17.43
Saccade L	1	8	11528484499	11528524238	39739	811.47	598.41	930.28	677.94	1.51	105.48	0.50	38.08	2611.44	-2270.75	1944.51
Saccade R	1	8	11528484499	11528524238	39739	811.47	598.41	930.28	677.94	1.51	105.48	0.50	38.08	2611.44	-2270.75	1944.51
Fixation L	1	9	11528524238	11528782855	258617	942.74	680.65	16	23	-1	16.79	16.79
Fixation R	1	9	11528524238	11528782855	258617	942.74	680.65	16	23	-1	16.82	16.82
Saccade L	1	9	11528782855	11528802719	19864	944.69	679.08	1066.31	693.65	0.87	123.89	1.00	44.04	2944.13	-2618.09	2195.00
Saccade R	1	9	11528782855	11528802719	19864	944.69	679.08	1066.31	693.65	0.87	123.89	1.00	44.04	2944.13	-2618.09	2195.00
Fixation L	1	10	11528802719	11529120956	318237	1116.72	684.95	66	18	-1	17.18	17.18
Fixation R	1	10	11528802719	11529120956	318237	1116.72	684.95	66	18	-1	16.82	16.82
