[BeGaze]
Converted from:	C:\Documents and Settings\iViewX\Desktop\EXPERIMENTATIONS\Experiments\results\finaleart\S6124332-finaleart-1.idf
Date:	27.03.2019 15:36:16
Version:	BeGaze 2.5.77
Sample Rate:	50
Subject:	S6124332
Description:	Romain Ferrand

Table Header for Fixations:
Event Type	Trial	Number	Start	End	Duration	Location X	Location Y	Dispersion X	Dispersion Y	Plane	Avg. Pupil Size X	Avg. Pupil Size Y

Table Header for Saccades:
Event Type	Trial	Number	Start	End	Duration	Start Loc.X	Start Loc.Y	End Loc.X	End Loc.Y	Amplitude	Peak Speed	Peak Speed At	Average Speed	Peak Accel.	Peak Decel.	Average Accel.

Table Header for Blinks:
Event Type	Trial	Number	Start	End	Duration

Table Header for User Events:
Event Type	Trial	Number	Start	Description

UserEvent	1	1	12577177231	# Message: still-life-fruits-on-a-table_manet_1864.jpg
Fixation L	1	1	12577195391	12578348937	1153546	1085.99	718.44	11	27	-1	19.73	19.73
Fixation R	1	1	12577195391	12578348937	1153546	1085.99	718.44	11	27	-1	19.07	19.07
Saccade L	1	1	12578348937	12578408685	59748	1081.00	717.04	667.43	719.03	4.68	170.05	1.00	78.39	3891.15	-4122.48	3074.64
Saccade R	1	1	12578348937	12578408685	59748	1081.00	717.04	667.43	719.03	4.68	170.05	1.00	78.39	3891.15	-4122.48	3074.64
Fixation L	1	2	12578408685	12578945642	536957	622.42	704.61	55	22	-1	18.85	18.85
Fixation R	1	2	12578408685	12578945642	536957	622.42	704.61	55	22	-1	18.27	18.27
Saccade L	1	2	12578945642	12579005267	59625	616.81	717.87	647.23	417.73	3.17	138.48	0.67	53.15	3381.45	-3354.61	2323.98
Saccade R	1	2	12578945642	12579005267	59625	616.81	717.87	647.23	417.73	3.17	138.48	0.67	53.15	3381.45	-3354.61	2323.98
Fixation L	1	3	12579005267	12579204260	198993	661.75	429.42	30	21	-1	18.41	18.41
Fixation R	1	3	12579005267	12579204260	198993	661.75	429.42	30	21	-1	17.83	17.83
Saccade L	1	3	12579204260	12579224121	19861	674.46	431.82	671.52	316.76	0.94	116.42	1.00	47.38	2806.18	-2532.63	2283.08
Saccade R	1	3	12579204260	12579224121	19861	674.46	431.82	671.52	316.76	0.94	116.42	1.00	47.38	2806.18	-2532.63	2283.08
Fixation L	1	4	12579224121	12579582104	357983	681.95	271.54	15	67	-1	17.99	17.99
Fixation R	1	4	12579224121	12579582104	357983	681.95	271.54	15	67	-1	17.35	17.35
Saccade L	1	4	12579582104	12579641857	59753	687.02	272.51	1436.95	270.64	7.97	276.12	1.00	133.30	6101.81	-6625.74	4873.00
Saccade R	1	4	12579582104	12579641857	59753	687.02	272.51	1436.95	270.64	7.97	276.12	1.00	133.30	6101.81	-6625.74	4873.00
Fixation L	1	5	12579641857	12579960090	318233	1438.95	322.81	17	81	-1	17.90	17.90
Fixation R	1	5	12579641857	12579960090	318233	1438.95	322.81	17	81	-1	17.47	17.47
Saccade L	1	5	12579960090	12579979950	19860	1428.60	344.94	1429.58	358.45	0.14	13.70	1.00	7.19	170.04	-139.25	110.96
Saccade R	1	5	12579960090	12579979950	19860	1428.60	344.94	1429.58	358.45	0.14	13.70	1.00	7.19	170.04	-139.25	110.96
Fixation L	1	6	12579979950	12580178827	198877	1445.97	351.52	28	21	-1	18.27	18.27
Fixation R	1	6	12579979950	12580178827	198877	1445.97	351.52	28	21	-1	17.66	17.66
Saccade L	1	6	12580178827	12580218576	39749	1454.22	338.77	1460.08	543.56	1.83	153.65	0.50	45.95	3806.12	-3552.15	2301.80
Saccade R	1	6	12580178827	12580218576	39749	1454.22	338.77	1460.08	543.56	1.83	153.65	0.50	45.95	3806.12	-3552.15	2301.80
Fixation L	1	7	12580218576	12580835149	616573	1460.51	572.94	38	54	-1	19.48	19.48
Fixation R	1	7	12580218576	12580835149	616573	1460.51	572.94	38	54	-1	17.93	17.93
Saccade L	1	7	12580835149	12580874904	39755	1456.29	585.11	1450.30	801.13	1.93	195.49	1.00	48.54	4769.91	-4411.72	2462.33
Saccade R	1	7	12580835149	12580874904	39755	1456.29	585.11	1450.30	801.13	1.93	195.49	1.00	48.54	4769.91	-4411.72	2462.33
Fixation L	1	8	12580874904	12581014144	139240	1433.03	818.99	24	31	-1	19.30	19.30
Fixation R	1	8	12580874904	12581014144	139240	1433.03	818.99	24	31	-1	18.00	18.00
Saccade L	1	8	12581014144	12581054020	39876	1426.38	821.19	1328.00	931.17	2.74	233.45	1.00	68.62	5765.26	-5576.12	3912.94
Saccade R	1	8	12581014144	12581054020	39876	1426.38	821.19	1328.00	931.17	2.74	233.45	1.00	68.62	5765.26	-5576.12	3912.94
Fixation L	1	9	12581054020	12581173252	119232	1311.74	938.05	28	25	-1	19.06	19.06
Fixation R	1	9	12581054020	12581173252	119232	1311.74	938.05	28	25	-1	17.27	17.27
