[BeGaze]
Converted from:	C:\Documents and Settings\iViewX\Desktop\EXPERIMENTATIONS\Experiments\results\finaleart\S6124332-finaleart-1.idf
Date:	27.03.2019 15:36:25
Version:	BeGaze 2.5.77
Sample Rate:	50
Subject:	S6124332
Description:	Romain Ferrand

Table Header for Fixations:
Event Type	Trial	Number	Start	End	Duration	Location X	Location Y	Dispersion X	Dispersion Y	Plane	Avg. Pupil Size X	Avg. Pupil Size Y

Table Header for Saccades:
Event Type	Trial	Number	Start	End	Duration	Start Loc.X	Start Loc.Y	End Loc.X	End Loc.Y	Amplitude	Peak Speed	Peak Speed At	Average Speed	Peak Accel.	Peak Decel.	Average Accel.

Table Header for Blinks:
Event Type	Trial	Number	Start	End	Duration

Table Header for User Events:
Event Type	Trial	Number	Start	Description

UserEvent	1	1	12820797314	# Message: void.jpg
Fixation L	1	1	12820799063	12820938305	139242	1518.24	803.14	7	5	-1	16.31	16.31
Fixation R	1	1	12820799063	12820938305	139242	1518.24	803.14	7	5	-1	15.88	15.88
Saccade L	1	1	12820938305	12821037798	99493	1520.82	805.35	490.52	1129.50	14.21	326.32	0.40	142.78	8078.08	-6094.69	4589.02
Saccade R	1	1	12820938305	12821037798	99493	1520.82	805.35	490.52	1129.50	14.21	326.32	0.40	142.78	8078.08	-6094.69	4589.02
Fixation L	1	2	12821037798	12821475382	437584	489.77	1167.13	9	68	-1	17.42	17.42
Fixation R	1	2	12821037798	12821475382	437584	489.77	1167.13	9	68	-1	16.83	16.83
Saccade L	1	2	12821475382	12821495269	19887	494.50	1189.31	497.34	1238.53	0.46	49.87	1.00	22.99	797.32	-237.09	393.42
Saccade R	1	2	12821475382	12821495269	19887	494.50	1189.31	497.34	1238.53	0.46	49.87	1.00	22.99	797.32	-237.09	393.42
Fixation L	1	3	12821495269	12821793630	298361	500.53	1205.39	11	62	-1	18.47	18.47
Fixation R	1	3	12821495269	12821793630	298361	500.53	1205.39	11	62	-1	18.37	18.37
Saccade L	1	3	12821793630	12821813516	19886	506.95	1196.90	514.40	1136.89	0.45	61.17	1.00	22.59	1466.45	-933.95	816.38
Saccade R	1	3	12821793630	12821813516	19886	506.95	1196.90	514.40	1136.89	0.45	61.17	1.00	22.59	1466.45	-933.95	816.38
Fixation L	1	4	12821813516	12822788066	974550	538.81	1144.24	31	51	-1	19.14	19.14
Fixation R	1	4	12821813516	12822788066	974550	538.81	1144.24	31	51	-1	19.25	19.25
