[BeGaze]
Converted from:	C:\Documents and Settings\iViewX\Desktop\EXPERIMENTATIONS\Experiments\results\finaleart\S6124332-finaleart-1.idf
Date:	27.03.2019 15:36:23
Version:	BeGaze 2.5.77
Sample Rate:	50
Subject:	S6124332
Description:	Romain Ferrand

Table Header for Fixations:
Event Type	Trial	Number	Start	End	Duration	Location X	Location Y	Dispersion X	Dispersion Y	Plane	Avg. Pupil Size X	Avg. Pupil Size Y

Table Header for Saccades:
Event Type	Trial	Number	Start	End	Duration	Start Loc.X	Start Loc.Y	End Loc.X	End Loc.Y	Amplitude	Peak Speed	Peak Speed At	Average Speed	Peak Accel.	Peak Decel.	Average Accel.

Table Header for Blinks:
Event Type	Trial	Number	Start	End	Duration

Table Header for User Events:
Event Type	Trial	Number	Start	Description

UserEvent	1	1	12784002812	# Message: void.jpg
Saccade L	1	1	12784022912	12784102421	79509	1064.33	238.52	1455.57	184.19	5.91	227.14	0.75	74.32	5414.52	-5095.85	3088.76
Saccade R	1	1	12784022912	12784102421	79509	1064.33	238.52	1455.57	184.19	5.91	227.14	0.75	74.32	5414.52	-5095.85	3088.76
Fixation L	1	1	12784102421	12784520133	417712	1461.71	223.07	17	78	-1	22.60	22.60
Fixation R	1	1	12784102421	12784520133	417712	1461.71	223.07	17	78	-1	21.79	21.79
Saccade L	1	2	12784520133	12784540004	19871	1460.11	242.42	1452.66	291.63	0.38	50.35	1.00	18.97	906.59	-236.74	420.55
Saccade R	1	2	12784520133	12784540004	19871	1460.11	242.42	1452.66	291.63	0.38	50.35	1.00	18.97	906.59	-236.74	420.55
Fixation L	1	2	12784540004	12784838357	298353	1446.82	271.07	21	39	-1	21.14	21.14
Fixation R	1	2	12784540004	12784838357	298353	1446.82	271.07	21	39	-1	20.23	20.23
Saccade L	1	3	12784838357	12784878105	39748	1436.17	269.10	1148.38	447.08	3.26	187.61	0.50	82.02	4264.73	-4138.90	4042.66
Saccade R	1	3	12784838357	12784878105	39748	1436.17	269.10	1148.38	447.08	3.26	187.61	0.50	82.02	4264.73	-4138.90	4042.66
Fixation L	1	3	12784878105	12785017350	139245	1122.52	429.40	32	47	-1	21.68	21.68
Fixation R	1	3	12784878105	12785017350	139245	1122.52	429.40	32	47	-1	20.29	20.29
Saccade L	1	4	12785017350	12785037211	19861	1117.21	399.66	1116.70	372.18	0.36	27.80	1.00	17.93	222.02	-260.72	221.42
Saccade R	1	4	12785017350	12785037211	19861	1117.21	399.66	1116.70	372.18	0.36	27.80	1.00	17.93	222.02	-260.72	221.42
Fixation L	1	4	12785037211	12785574317	537106	1124.73	358.70	21	42	-1	21.79	21.79
Fixation R	1	4	12785037211	12785574317	537106	1124.73	358.70	21	42	-1	20.03	20.03
Saccade L	1	5	12785574317	12785594181	19864	1132.78	348.95	1063.48	432.96	0.85	110.16	1.00	42.64	2599.78	-2592.69	1980.72
Saccade R	1	5	12785574317	12785594181	19864	1132.78	348.95	1063.48	432.96	0.85	110.16	1.00	42.64	2599.78	-2592.69	1980.72
Fixation L	1	5	12785594181	12786011912	417731	1019.45	460.84	51	37	-1	22.33	22.33
Fixation R	1	5	12785594181	12786011912	417731	1019.45	460.84	51	37	-1	20.61	20.61
