[BeGaze]
Converted from:	C:\Documents and Settings\iViewX\Desktop\EXPERIMENTATIONS\Experiments\results\finaleart\S6124332-finaleart-1.idf
Date:	27.03.2019 15:35:42
Version:	BeGaze 2.5.77
Sample Rate:	50
Subject:	S6124332
Description:	Romain Ferrand

Table Header for Fixations:
Event Type	Trial	Number	Start	End	Duration	Location X	Location Y	Dispersion X	Dispersion Y	Plane	Avg. Pupil Size X	Avg. Pupil Size Y

Table Header for Saccades:
Event Type	Trial	Number	Start	End	Duration	Start Loc.X	Start Loc.Y	End Loc.X	End Loc.Y	Amplitude	Peak Speed	Peak Speed At	Average Speed	Peak Accel.	Peak Decel.	Average Accel.

Table Header for Blinks:
Event Type	Trial	Number	Start	End	Duration

Table Header for User Events:
Event Type	Trial	Number	Start	Description

UserEvent	1	1	11523051944	# Message: void.jpg
Fixation L	1	1	11523054705	11523233570	178865	1165.75	756.60	10	12	-1	20.19	20.19
Fixation R	1	1	11523054705	11523233570	178865	1165.75	756.60	10	12	-1	20.42	20.42
Saccade L	1	1	11523233570	11523253566	19996	1169.00	752.93	1219.41	706.90	0.47	69.06	1.00	23.51	1699.69	-1156.07	1141.87
Saccade R	1	1	11523233570	11523253566	19996	1169.00	752.93	1219.41	706.90	0.47	69.06	1.00	23.51	1699.69	-1156.07	1141.87
Fixation L	1	2	11523253566	11523651285	397719	1237.46	693.20	33	58	-1	19.28	19.28
Fixation R	1	2	11523253566	11523651285	397719	1237.46	693.20	33	58	-1	19.71	19.71
Saccade L	1	2	11523651285	11523671161	19876	1246.30	670.99	1251.03	665.85	0.07	7.06	1.00	3.62	100.70	-7.58	69.39
Saccade R	1	2	11523651285	11523671161	19876	1246.30	670.99	1251.03	665.85	0.07	7.06	1.00	3.62	100.70	-7.58	69.39
Fixation L	1	3	11523671161	11523890029	218868	1246.64	665.90	8	17	-1	18.36	18.36
Fixation R	1	3	11523671161	11523890029	218868	1246.64	665.90	8	17	-1	18.67	18.67
Saccade L	1	3	11523890029	11523949647	59618	1244.29	670.59	1068.96	773.11	2.28	84.41	0.67	38.24	2039.93	-1858.20	1410.16
Saccade R	1	3	11523890029	11523949647	59618	1244.29	670.59	1068.96	773.11	2.28	84.41	0.67	38.24	2039.93	-1858.20	1410.16
Fixation L	1	4	11523949647	11525063459	1113812	1055.33	791.10	54	28	-1	20.22	20.22
Fixation R	1	4	11523949647	11525063459	1113812	1055.33	791.10	54	28	-1	20.02	20.02
