[BeGaze]
Converted from:	C:\Documents and Settings\iViewX\Desktop\EXPERIMENTATIONS\Experiments\results\finaleart\S6124332-finaleart-1.idf
Date:	27.03.2019 15:36:17
Version:	BeGaze 2.5.77
Sample Rate:	50
Subject:	S6124332
Description:	Romain Ferrand

Table Header for Fixations:
Event Type	Trial	Number	Start	End	Duration	Location X	Location Y	Dispersion X	Dispersion Y	Plane	Avg. Pupil Size X	Avg. Pupil Size Y

Table Header for Saccades:
Event Type	Trial	Number	Start	End	Duration	Start Loc.X	Start Loc.Y	End Loc.X	End Loc.Y	Amplitude	Peak Speed	Peak Speed At	Average Speed	Peak Accel.	Peak Decel.	Average Accel.

Table Header for Blinks:
Event Type	Trial	Number	Start	End	Duration

Table Header for User Events:
Event Type	Trial	Number	Start	Description

UserEvent	1	1	12601883376	# Message: The_Luxembourg_Gardens_Matisse_1901.jpg
Fixation L	1	1	12601898397	12602017811	119414	792.62	728.66	55	14	-1	19.87	19.87
Fixation R	1	1	12601898397	12602017811	119414	792.62	728.66	55	14	-1	20.13	20.13
Saccade L	1	1	12602017811	12602057688	39877	813.92	727.37	923.55	673.35	1.68	82.12	0.50	42.19	1896.14	-1387.39	1398.35
Saccade R	1	1	12602017811	12602057688	39877	813.92	727.37	923.55	673.35	1.68	82.12	0.50	42.19	1896.14	-1387.39	1398.35
Fixation L	1	2	12602057688	12602495111	437423	952.54	676.75	39	26	-1	20.25	20.25
Fixation R	1	2	12602057688	12602495111	437423	952.54	676.75	39	26	-1	20.14	20.14
Saccade L	1	2	12602495111	12602514981	19870	952.28	681.34	853.40	718.27	0.92	106.76	1.00	46.17	2294.50	-2266.95	1903.66
Saccade R	1	2	12602495111	12602514981	19870	952.28	681.34	853.40	718.27	0.92	106.76	1.00	46.17	2294.50	-2266.95	1903.66
Fixation L	1	3	12602514981	12602733832	218851	813.63	693.03	61	36	-1	20.70	20.70
Fixation R	1	3	12602514981	12602733832	218851	813.63	693.03	61	36	-1	20.29	20.29
Saccade L	1	3	12602733832	12602773579	39747	815.02	691.95	670.57	866.65	2.05	129.42	0.50	51.62	3166.52	-2997.05	2909.16
Saccade R	1	3	12602733832	12602773579	39747	815.02	691.95	670.57	866.65	2.05	129.42	0.50	51.62	3166.52	-2997.05	2909.16
Fixation L	1	4	12602773579	12603052064	278485	670.21	880.37	4	23	-1	20.63	20.63
Fixation R	1	4	12602773579	12603052064	278485	670.21	880.37	4	23	-1	20.64	20.64
Saccade L	1	4	12603052064	12603091820	39756	670.58	887.55	1085.11	812.61	3.61	261.01	0.50	90.81	6440.75	-6138.81	5217.90
Saccade R	1	4	12603052064	12603091820	39756	670.58	887.55	1085.11	812.61	3.61	261.01	0.50	90.81	6440.75	-6138.81	5217.90
Fixation L	1	5	12603091820	12604006768	914948	1091.17	792.51	46	33	-1	20.93	20.93
Fixation R	1	5	12603091820	12604006768	914948	1091.17	792.51	46	33	-1	20.31	20.31
Saccade L	1	5	12604006768	12604026636	19868	1067.13	805.53	1175.02	760.90	0.94	118.10	1.00	47.54	2940.39	-2352.48	2274.80
Saccade R	1	5	12604006768	12604026636	19868	1067.13	805.53	1175.02	760.90	0.94	118.10	1.00	47.54	2940.39	-2352.48	2274.80
Fixation L	1	6	12604026636	12604265370	238734	1205.80	726.38	36	60	-1	20.75	20.75
Fixation R	1	6	12604026636	12604265370	238734	1205.80	726.38	36	60	-1	20.56	20.56
Saccade L	1	6	12604265370	12604305116	39746	1211.52	723.66	1298.15	549.67	1.76	119.06	1.00	44.22	2823.08	-2936.45	2368.29
Saccade R	1	6	12604265370	12604305116	39746	1211.52	723.66	1298.15	549.67	1.76	119.06	1.00	44.22	2823.08	-2936.45	2368.29
Fixation L	1	7	12604305116	12604941577	636461	1297.48	547.41	41	37	-1	21.02	21.02
Fixation R	1	7	12604305116	12604941577	636461	1297.48	547.41	41	37	-1	20.69	20.69
Saccade L	1	7	12604941577	12604981334	39757	1265.93	559.05	1123.95	482.79	1.96	107.55	1.00	49.34	1839.18	-2424.09	1484.21
Saccade R	1	7	12604941577	12604981334	39757	1265.93	559.05	1123.95	482.79	1.96	107.55	1.00	49.34	1839.18	-2424.09	1484.21
Fixation L	1	8	12604981334	12605279683	298349	1073.60	492.60	58	18	-1	21.75	21.75
Fixation R	1	8	12604981334	12605279683	298349	1073.60	492.60	58	18	-1	20.80	20.80
Saccade L	1	8	12605279683	12605359306	79623	1073.60	500.70	819.65	439.16	3.27	125.17	0.50	41.10	3105.67	-1332.04	1271.06
Saccade R	1	8	12605279683	12605359306	79623	1073.60	500.70	819.65	439.16	3.27	125.17	0.50	41.10	3105.67	-1332.04	1271.06
Fixation L	1	9	12605359306	12605478547	119241	847.68	418.11	62	36	-1	21.79	21.79
Fixation R	1	9	12605359306	12605478547	119241	847.68	418.11	62	36	-1	21.06	21.06
Saccade L	1	9	12605478547	12605558169	79622	826.44	403.06	815.00	285.08	2.28	75.02	0.75	28.65	1641.53	-1395.37	725.67
Saccade R	1	9	12605478547	12605558169	79622	826.44	403.06	815.00	285.08	2.28	75.02	0.75	28.65	1641.53	-1395.37	725.67
Fixation L	1	10	12605558169	12605896289	338120	805.40	275.22	16	62	-1	21.15	21.15
Fixation R	1	10	12605558169	12605896289	338120	805.40	275.22	16	62	-1	20.96	20.96
