[BeGaze]
Converted from:	C:\Documents and Settings\iViewX\Desktop\EXPERIMENTATIONS\Experiments\results\finaleart\S6124332-finaleart-1.idf
Date:	27.03.2019 15:35:49
Version:	BeGaze 2.5.77
Sample Rate:	50
Subject:	S6124332
Description:	Romain Ferrand

Table Header for Fixations:
Event Type	Trial	Number	Start	End	Duration	Location X	Location Y	Dispersion X	Dispersion Y	Plane	Avg. Pupil Size X	Avg. Pupil Size Y

Table Header for Saccades:
Event Type	Trial	Number	Start	End	Duration	Start Loc.X	Start Loc.Y	End Loc.X	End Loc.Y	Amplitude	Peak Speed	Peak Speed At	Average Speed	Peak Accel.	Peak Decel.	Average Accel.

Table Header for Blinks:
Event Type	Trial	Number	Start	End	Duration

Table Header for User Events:
Event Type	Trial	Number	Start	Description

UserEvent	1	1	11758637147	# Message: void.jpg
Fixation L	1	1	11758638372	11758857233	218861	1559.18	695.10	29	11	-1	18.45	18.45
Fixation R	1	1	11758638372	11758857233	218861	1559.18	695.10	29	11	-1	17.10	17.10
Saccade L	1	1	11758857233	11758976587	119354	1539.22	701.75	571.19	473.91	13.84	241.39	0.33	115.93	5617.54	-2972.45	2720.20
Saccade R	1	1	11758857233	11758976587	119354	1539.22	701.75	571.19	473.91	13.84	241.39	0.33	115.93	5617.54	-2972.45	2720.20
Fixation L	1	2	11758976587	11759354429	377842	587.22	475.07	25	25	-1	17.33	17.33
Fixation R	1	2	11758976587	11759354429	377842	587.22	475.07	25	25	-1	16.95	16.95
Saccade L	1	2	11759354429	11759414084	59655	597.17	464.41	1096.42	596.38	9.71	392.48	1.00	162.71	4918.60	-639.20	3412.78
Saccade R	1	2	11759354429	11759672673	318244	597.17	464.41	891.27	1283.90	60.48	761.01	0.44	190.04	12731.83	-16283.79	4698.50
Blink L	1	1	11759414084	11759672673	258589
Fixation L	1	3	11759672673	11760030653	357980	893.46	1291.75	34	24	-1	17.25	17.25
Fixation R	1	3	11759672673	11760030653	357980	893.46	1291.75	34	24	-1	17.17	17.17
Saccade L	1	3	11760030653	11760110284	79631	898.20	1299.45	922.42	662.07	7.80	208.83	0.50	98.01	5184.40	-3826.79	3062.92
Saccade R	1	3	11760030653	11760110284	79631	898.20	1299.45	922.42	662.07	7.80	208.83	0.50	98.01	5184.40	-3826.79	3062.92
Fixation L	1	4	11760110284	11760567747	457463	904.06	611.52	28	65	-1	17.21	17.21
Fixation R	1	4	11760110284	11760567747	457463	904.06	611.52	28	65	-1	16.91	16.91
Saccade L	1	4	11760567747	11760667112	99365	924.56	653.17	1020.55	722.84	2.94	115.94	0.20	29.60	2864.05	-2501.30	1185.25
Saccade R	1	4	11760567747	11760667112	99365	924.56	653.17	1020.55	722.84	2.94	115.94	0.20	29.60	2864.05	-2501.30	1185.25
