[BeGaze]
Converted from:	C:\Documents and Settings\iViewX\Desktop\EXPERIMENTATIONS\Experiments\results\finaleart\S6124332-finaleart-1.idf
Date:	27.03.2019 15:36:13
Version:	BeGaze 2.5.77
Sample Rate:	50
Subject:	S6124332
Description:	Romain Ferrand

Table Header for Fixations:
Event Type	Trial	Number	Start	End	Duration	Location X	Location Y	Dispersion X	Dispersion Y	Plane	Avg. Pupil Size X	Avg. Pupil Size Y

Table Header for Saccades:
Event Type	Trial	Number	Start	End	Duration	Start Loc.X	Start Loc.Y	End Loc.X	End Loc.Y	Amplitude	Peak Speed	Peak Speed At	Average Speed	Peak Accel.	Peak Decel.	Average Accel.

Table Header for Blinks:
Event Type	Trial	Number	Start	End	Duration

Table Header for User Events:
Event Type	Trial	Number	Start	Description

UserEvent	1	1	12521803066	# Message: goya-still-life-plucked-turkey-and-pan-with-fish-1812.jpg
Fixation L	1	1	12521822224	12522359308	537084	870.19	848.46	6	11	-1	19.24	19.24
Fixation R	1	1	12521822224	12522359308	537084	870.19	848.46	6	11	-1	18.63	18.63
Saccade L	1	1	12522359308	12522399062	39754	870.42	853.57	645.22	960.43	2.17	132.48	1.00	54.63	3212.06	-3183.12	3145.79
Saccade R	1	1	12522359308	12522399062	39754	870.42	853.57	645.22	960.43	2.17	132.48	1.00	54.63	3212.06	-3183.12	3145.79
Fixation L	1	2	12522399062	12522597926	198864	632.31	970.41	18	16	-1	19.33	19.33
Fixation R	1	2	12522399062	12522597926	198864	632.31	970.41	18	16	-1	18.75	18.75
Saccade L	1	2	12522597926	12522617924	19998	627.95	976.92	556.85	975.11	0.45	71.94	1.00	22.66	1693.62	-1690.33	1197.85
Saccade R	1	2	12522597926	12522617924	19998	627.95	976.92	556.85	975.11	0.45	71.94	1.00	22.66	1693.62	-1690.33	1197.85
Fixation L	1	3	12522617924	12523035522	417598	559.44	977.61	21	8	-1	19.82	19.82
Fixation R	1	3	12522617924	12523035522	417598	559.44	977.61	21	8	-1	19.37	19.37
Saccade L	1	3	12523035522	12523135012	99490	571.62	980.75	1230.41	516.15	11.59	247.68	0.40	116.46	6084.83	-2972.02	3384.30
Saccade R	1	3	12523035522	12523135012	99490	571.62	980.75	1230.41	516.15	11.59	247.68	0.40	116.46	6084.83	-2972.02	3384.30
Fixation L	1	4	12523135012	12523254388	119376	1240.69	524.82	18	15	-1	20.15	20.15
Fixation R	1	4	12523135012	12523254388	119376	1240.69	524.82	18	15	-1	19.78	19.78
Saccade L	1	4	12523254388	12523592487	338099	1243.14	523.46	1512.73	169.65	15.02	148.59	0.65	44.43	3066.75	-2624.64	1192.97
Saccade R	1	4	12523254388	12523592487	338099	1243.14	523.46	1512.73	169.65	15.02	148.59	0.65	44.43	3066.75	-2624.64	1192.97
Fixation L	1	5	12523592487	12523771476	178989	1512.90	193.75	11	80	-1	20.08	20.08
Fixation R	1	5	12523592487	12523771476	178989	1512.90	193.75	11	80	-1	18.66	18.66
Saccade L	1	5	12523771476	12523950459	178983	1509.72	187.71	1666.66	7.31	13.14	172.35	0.67	73.43	4050.52	-1575.65	1412.21
Saccade R	1	5	12523771476	12523950459	178983	1509.72	187.71	1666.66	7.31	13.14	172.35	0.67	73.43	4050.52	-1575.65	1412.21
Fixation L	1	6	12523950459	12524069838	119379	1661.20	50.89	35	60	-1	19.44	19.44
Fixation R	1	6	12523950459	12524069838	119379	1661.20	50.89	35	60	-1	18.53	18.53
Saccade L	1	6	12524069838	12524209073	139235	1645.52	67.45	628.77	846.22	19.13	258.71	0.29	137.43	6404.67	-5126.94	2753.07
Saccade R	1	6	12524069838	12524209073	139235	1645.52	67.45	628.77	846.22	19.13	258.71	0.29	137.43	6404.67	-5126.94	2753.07
Fixation L	1	7	12524209073	12524368186	159113	612.61	862.51	23	20	-1	21.14	21.14
Fixation R	1	7	12524209073	12524368186	159113	612.61	862.51	23	20	-1	20.64	20.64
Saccade L	1	7	12524368186	12524388069	19883	604.89	864.56	508.82	860.69	0.75	97.26	1.00	37.68	2392.95	-2269.59	1951.22
Saccade R	1	7	12524368186	12524388069	19883	604.89	864.56	508.82	860.69	0.75	97.26	1.00	37.68	2392.95	-2269.59	1951.22
Fixation L	1	8	12524388069	12524686427	298358	454.44	850.74	63	31	-1	20.99	20.99
Fixation R	1	8	12524388069	12524686427	298358	454.44	850.74	63	31	-1	20.82	20.82
Saccade L	1	8	12524686427	12524706289	19862	453.20	829.53	454.92	822.64	0.21	16.35	0.00	10.65	81.03	-37.62	49.84
Saccade R	1	8	12524686427	12524706289	19862	453.20	829.53	454.92	822.64	0.21	16.35	0.00	10.65	81.03	-37.62	49.84
Fixation L	1	9	12524706289	12525024515	318226	483.30	798.67	61	37	-1	21.21	21.21
Fixation R	1	9	12524706289	12525024515	318226	483.30	798.67	61	37	-1	21.26	21.26
Saccade L	1	9	12525024515	12525044402	19887	516.28	792.22	519.03	794.74	0.11	8.09	1.00	5.47	110.66	-64.95	64.94
Saccade R	1	9	12525024515	12525044402	19887	516.28	792.22	519.03	794.74	0.11	8.09	1.00	5.47	110.66	-64.95	64.94
Fixation L	1	10	12525044402	12525263149	218747	520.79	791.89	3	11	-1	21.54	21.54
Fixation R	1	10	12525044402	12525263149	218747	520.79	791.89	3	11	-1	21.71	21.71
Saccade L	1	10	12525263149	12525283004	19855	522.00	791.95	689.22	794.45	0.90	169.13	1.00	45.25	4185.42	-3805.32	2671.09
Saccade R	1	10	12525263149	12525283004	19855	522.00	791.95	689.22	794.45	0.90	169.13	1.00	45.25	4185.42	-3805.32	2671.09
Fixation L	1	11	12525283004	12525521751	238747	710.11	793.67	28	9	-1	22.02	22.02
Fixation R	1	11	12525283004	12525521751	238747	710.11	793.67	28	9	-1	22.11	22.11
Saccade L	1	11	12525521751	12525541610	19859	717.39	790.02	862.07	829.45	1.17	151.66	1.00	58.99	3736.06	-3680.37	3098.57
Saccade R	1	11	12525521751	12525541610	19859	717.39	790.02	862.07	829.45	1.17	151.66	1.00	58.99	3736.06	-3680.37	3098.57
Fixation L	1	12	12525541610	12525760481	218871	868.32	908.16	10	89	-1	22.28	22.28
Fixation R	1	12	12525541610	12525760481	218871	868.32	908.16	10	89	-1	21.95	21.95
Saccade L	1	12	12525760481	12525820100	59619	872.38	918.66	886.01	951.95	0.53	37.84	1.00	8.82	858.79	-0.16	235.16
Saccade R	1	12	12525760481	12525820100	59619	872.38	918.66	886.01	951.95	0.53	37.84	1.00	8.82	858.79	-0.16	235.16
