[BeGaze]
Converted from:	C:\Documents and Settings\iViewX\Desktop\EXPERIMENTATIONS\Experiments\results\finaleart\S6124332-finaleart-1.idf
Date:	27.03.2019 15:36:04
Version:	BeGaze 2.5.77
Sample Rate:	50
Subject:	S6124332
Description:	Romain Ferrand

Table Header for Fixations:
Event Type	Trial	Number	Start	End	Duration	Location X	Location Y	Dispersion X	Dispersion Y	Plane	Avg. Pupil Size X	Avg. Pupil Size Y

Table Header for Saccades:
Event Type	Trial	Number	Start	End	Duration	Start Loc.X	Start Loc.Y	End Loc.X	End Loc.Y	Amplitude	Peak Speed	Peak Speed At	Average Speed	Peak Accel.	Peak Decel.	Average Accel.

Table Header for Blinks:
Event Type	Trial	Number	Start	End	Duration

Table Header for User Events:
Event Type	Trial	Number	Start	Description

UserEvent	1	1	12298059854	# Message: void.jpg
Fixation L	1	1	12298070594	12298169964	99370	1080.54	572.48	45	47	-1	22.30	22.30
Fixation R	1	1	12298070594	12298169964	99370	1080.54	572.48	45	47	-1	22.04	22.04
Saccade L	1	1	12298169964	12298189832	19868	1106.39	606.88	1116.38	614.65	0.32	26.14	1.00	16.00	-84.64	-533.75	317.28
Saccade R	1	1	12298169964	12298189832	19868	1106.39	606.88	1116.38	614.65	0.32	26.14	1.00	16.00	-84.64	-533.75	317.28
Fixation L	1	2	12298189832	12298707047	517215	1138.06	612.96	34	33	-1	21.89	21.89
Fixation R	1	2	12298189832	12298726918	537086	1137.14	613.30	37	33	-1	21.42	21.42
Blink L	1	1	12298707047	12298886033	178986
Saccade R	1	2	12298726918	12298826316	99398	1112.27	622.50	943.76	613.02	9.50	194.61	0.80	95.62	3727.09	-2582.11	1956.14
Fixation R	1	3	12298826316	12298945667	119351	945.25	552.20	6	90	-1	18.06	18.06
Fixation L	1	3	12298886033	12299383249	497216	941.91	555.79	50	48	-1	18.29	18.29
Saccade R	1	3	12298945667	12298965534	19867	941.33	545.97	937.84	539.94	0.12	7.93	0.00	6.17	120.93	-104.11	78.74
Fixation R	1	4	12298965534	12299383249	417715	941.47	557.84	50	48	-1	17.58	17.58
Saccade L	1	2	12299383249	12299403133	19884	979.07	588.25	984.85	584.35	0.16	11.07	1.00	8.21	52.52	-100.29	63.00
Saccade R	1	4	12299383249	12299403133	19884	979.07	588.25	984.85	584.35	0.16	11.07	1.00	8.21	52.52	-100.29	63.00
Fixation L	1	4	12299403133	12300059493	656360	989.40	616.90	8	54	-1	18.18	18.18
Fixation R	1	5	12299403133	12300059493	656360	989.40	616.90	8	54	-1	18.10	18.10
