[BeGaze]
Converted from:	C:\Documents and Settings\iViewX\Desktop\EXPERIMENTATIONS\Experiments\results\finaleart\S6124332-finaleart-1.idf
Date:	27.03.2019 15:35:49
Version:	BeGaze 2.5.77
Sample Rate:	50
Subject:	S6124332
Description:	Romain Ferrand

Table Header for Fixations:
Event Type	Trial	Number	Start	End	Duration	Location X	Location Y	Dispersion X	Dispersion Y	Plane	Avg. Pupil Size X	Avg. Pupil Size Y

Table Header for Saccades:
Event Type	Trial	Number	Start	End	Duration	Start Loc.X	Start Loc.Y	End Loc.X	End Loc.Y	Amplitude	Peak Speed	Peak Speed At	Average Speed	Peak Accel.	Peak Decel.	Average Accel.

Table Header for Blinks:
Event Type	Trial	Number	Start	End	Duration

Table Header for User Events:
Event Type	Trial	Number	Start	Description

UserEvent	1	1	11754584398	# Message: wright-vesuvius-from-posillipo-1774.jpg
Fixation L	1	1	11754600735	11755197443	596708	950.27	786.64	16	19	-1	18.98	18.98
Fixation R	1	1	11754600735	11755197443	596708	950.27	786.64	16	19	-1	17.92	17.92
Saccade L	1	1	11755197443	11755217318	19875	960.10	774.35	954.16	664.49	0.95	111.29	1.00	47.72	2744.56	-2529.48	2262.46
Saccade R	1	1	11755197443	11755217318	19875	960.10	774.35	954.16	664.49	0.95	111.29	1.00	47.72	2744.56	-2529.48	2262.46
Fixation L	1	2	11755217318	11755456054	238736	937.66	603.14	27	69	-1	19.29	19.29
Fixation R	1	2	11755217318	11755456054	238736	937.66	603.14	27	69	-1	18.12	18.12
Saccade L	1	2	11755456054	11755495808	39754	926.80	596.65	925.27	465.26	1.24	80.08	1.00	31.16	1960.05	-1905.21	1495.50
Saccade R	1	2	11755456054	11755495808	39754	926.80	596.65	925.27	465.26	1.24	80.08	1.00	31.16	1960.05	-1905.21	1495.50
Fixation L	1	3	11755495808	11755635029	139221	919.06	441.39	11	46	-1	18.92	18.92
Fixation R	1	3	11755495808	11755635029	139221	919.06	441.39	11	46	-1	17.87	17.87
Saccade L	1	3	11755635029	11755654938	19909	913.88	418.71	909.85	315.09	0.74	104.89	1.00	37.34	2587.62	-2513.52	1775.07
Saccade R	1	3	11755635029	11755654938	19909	913.88	418.71	909.85	315.09	0.74	104.89	1.00	37.34	2587.62	-2513.52	1775.07
Fixation L	1	4	11755654938	11755953262	298324	900.04	302.51	13	28	-1	17.94	17.94
Fixation R	1	4	11755654938	11755953262	298324	900.04	302.51	13	28	-1	17.12	17.12
Saccade L	1	4	11755953262	11756012897	59635	900.34	308.94	1442.04	776.63	7.50	293.15	0.67	125.82	7299.25	-6915.63	5414.26
Saccade R	1	4	11755953262	11756012897	59635	900.34	308.94	1442.04	776.63	7.50	293.15	0.67	125.82	7299.25	-6915.63	5414.26
Fixation L	1	5	11756012897	11756331142	318245	1454.61	801.92	16	42	-1	17.65	17.65
Fixation R	1	5	11756012897	11756331142	318245	1454.61	801.92	16	42	-1	16.51	16.51
Saccade L	1	5	11756331142	11756351001	19859	1457.26	793.24	1467.53	739.58	0.63	55.27	1.00	31.84	1288.27	-943.64	1013.37
Saccade R	1	5	11756331142	11756351001	19859	1457.26	793.24	1467.53	739.58	0.63	55.27	1.00	31.84	1288.27	-943.64	1013.37
Fixation L	1	6	11756351001	11756967586	616585	1508.27	717.52	54	44	-1	17.17	17.17
Fixation R	1	6	11756351001	11756967586	616585	1508.27	717.52	54	44	-1	15.81	15.81
Saccade L	1	6	11756967586	11757047206	79620	1503.16	696.82	1073.70	928.54	5.87	277.34	0.75	73.70	6793.97	-6888.78	3984.12
Saccade R	1	6	11756967586	11757047206	79620	1503.16	696.82	1073.70	928.54	5.87	277.34	0.75	73.70	6793.97	-6888.78	3984.12
Fixation L	1	7	11757047206	11757325704	278498	1069.99	924.08	31	16	-1	16.21	16.21
Fixation R	1	7	11757047206	11757325704	278498	1069.99	924.08	31	16	-1	15.10	15.10
Saccade L	1	7	11757325704	11757345565	19861	1095.54	918.19	1180.68	905.90	0.60	87.01	1.00	30.24	2152.20	-1764.68	1549.67
Saccade R	1	7	11757325704	11757345565	19861	1095.54	918.19	1180.68	905.90	0.60	87.01	1.00	30.24	2152.20	-1764.68	1549.67
Fixation L	1	8	11757345565	11758081542	735977	1203.67	912.45	52	39	-1	16.65	16.65
Fixation R	1	8	11757345565	11758081542	735977	1203.67	912.45	52	39	-1	16.17	16.17
Saccade L	1	8	11758081542	11758121259	39717	1195.89	926.86	1475.74	923.68	2.52	146.71	1.00	63.41	3585.53	-3501.64	3289.13
Saccade R	1	8	11758081542	11758121259	39717	1195.89	926.86	1475.74	923.68	2.52	146.71	1.00	63.41	3585.53	-3501.64	3289.13
Fixation L	1	9	11758121259	11758439495	318236	1511.58	918.05	43	12	-1	18.06	18.06
Fixation R	1	9	11758121259	11758439495	318236	1511.58	918.05	43	12	-1	16.99	16.99
Saccade L	1	9	11758439495	11758459374	19879	1515.90	922.50	1607.85	835.70	0.78	127.90	1.00	39.23	3130.33	-2756.87	2103.80
Saccade R	1	9	11758439495	11758459374	19879	1515.90	922.50	1607.85	835.70	0.78	127.90	1.00	39.23	3130.33	-2756.87	2103.80
Fixation L	1	10	11758459374	11758578728	119354	1613.57	814.20	11	36	-1	18.54	18.54
Fixation R	1	10	11758459374	11758578728	119354	1613.57	814.20	11	36	-1	16.79	16.79
