[BeGaze]
Converted from:	C:\Documents and Settings\iViewX\Desktop\EXPERIMENTATIONS\Experiments\results\finaleart\S6124332-finaleart-1.idf
Date:	27.03.2019 15:36:23
Version:	BeGaze 2.5.77
Sample Rate:	50
Subject:	S6124332
Description:	Romain Ferrand

Table Header for Fixations:
Event Type	Trial	Number	Start	End	Duration	Location X	Location Y	Dispersion X	Dispersion Y	Plane	Avg. Pupil Size X	Avg. Pupil Size Y

Table Header for Saccades:
Event Type	Trial	Number	Start	End	Duration	Start Loc.X	Start Loc.Y	End Loc.X	End Loc.Y	Amplitude	Peak Speed	Peak Speed At	Average Speed	Peak Accel.	Peak Decel.	Average Accel.

Table Header for Blinks:
Event Type	Trial	Number	Start	End	Duration

Table Header for User Events:
Event Type	Trial	Number	Start	Description

UserEvent	1	1	12790139745	# Message: void.jpg
Fixation L	1	1	12790148928	12790288206	139278	1579.61	364.95	9	61	-1	18.65	18.65
Fixation R	1	1	12790148928	12790288206	139278	1579.61	364.95	9	61	-1	16.96	16.96
Saccade L	1	1	12790288206	12790387645	99439	1583.32	376.52	1720.16	578.70	5.40	207.78	0.40	54.31	5127.81	-4232.22	1913.18
Saccade R	1	1	12790288206	12790387645	99439	1583.32	376.52	1720.16	578.70	5.40	207.78	0.40	54.31	5127.81	-4232.22	1913.18
Fixation L	1	2	12790387645	12790546755	159110	1698.56	606.87	36	56	-1	19.55	19.55
Fixation R	1	2	12790387645	12790546755	159110	1698.56	606.87	36	56	-1	17.75	17.75
Saccade L	1	2	12790546755	12790566635	19880	1683.64	634.87	1683.40	648.15	0.21	14.36	1.00	10.45	218.66	-258.96	201.11
Saccade R	1	2	12790546755	12790566635	19880	1683.64	634.87	1683.40	648.15	0.21	14.36	1.00	10.45	218.66	-258.96	201.11
Fixation L	1	3	12790566635	12791043982	477347	1660.72	650.45	36	39	-1	20.28	20.28
Fixation R	1	3	12790566635	12791043982	477347	1660.72	650.45	36	39	-1	18.37	18.37
Saccade L	1	3	12791043982	12791083725	39743	1664.34	676.62	1462.98	677.01	2.07	130.93	0.50	52.06	2979.61	-2955.55	2176.90
Saccade R	1	3	12791043982	12791083725	39743	1664.34	676.62	1462.98	677.01	2.07	130.93	0.50	52.06	2979.61	-2955.55	2176.90
Fixation L	1	4	12791083725	12791421821	338096	1467.73	686.97	19	27	-1	20.76	20.76
Fixation R	1	4	12791083725	12791421821	338096	1467.73	686.97	19	27	-1	18.93	18.93
Saccade L	1	4	12791421821	12791481571	59750	1476.80	680.77	1091.18	715.63	4.29	199.59	0.33	71.73	4954.47	-2942.08	2901.85
Saccade R	1	4	12791421821	12791481571	59750	1476.80	680.77	1091.18	715.63	4.29	199.59	0.33	71.73	4954.47	-2942.08	2901.85
Fixation L	1	5	12791481571	12791740077	258506	1085.17	723.13	14	66	-1	21.95	21.95
Fixation R	1	5	12791481571	12791740077	258506	1085.17	723.13	14	66	-1	20.08	20.08
Saccade L	1	5	12791740077	12791760077	20000	1095.68	678.85	1107.84	666.12	0.49	40.79	1.00	24.67	346.58	-29.22	164.22
Saccade R	1	5	12791740077	12791760077	20000	1095.68	678.85	1107.84	666.12	0.49	40.79	1.00	24.67	346.58	-29.22	164.22
Fixation L	1	6	12791760077	12792118039	357962	1087.37	687.77	24	37	-1	22.07	22.07
Fixation R	1	6	12791760077	12792118039	357962	1087.37	687.77	24	37	-1	20.25	20.25
Saccade L	1	6	12792118039	12792137913	19874	1085.10	693.67	1012.74	689.42	0.51	73.33	1.00	25.69	1804.32	0.00	902.16
Saccade R	1	6	12792118039	12792137913	19874	1085.10	693.67	1012.74	689.42	0.51	73.33	1.00	25.69	1804.32	0.00	902.16
