[BeGaze]
Converted from:	C:\Documents and Settings\iViewX\Desktop\EXPERIMENTATIONS\Experiments\results\finaleart\S6124332-finaleart-1.idf
Date:	27.03.2019 15:36:16
Version:	BeGaze 2.5.77
Sample Rate:	50
Subject:	S6124332
Description:	Romain Ferrand

Table Header for Fixations:
Event Type	Trial	Number	Start	End	Duration	Location X	Location Y	Dispersion X	Dispersion Y	Plane	Avg. Pupil Size X	Avg. Pupil Size Y

Table Header for Saccades:
Event Type	Trial	Number	Start	End	Duration	Start Loc.X	Start Loc.Y	End Loc.X	End Loc.Y	Amplitude	Peak Speed	Peak Speed At	Average Speed	Peak Accel.	Peak Decel.	Average Accel.

Table Header for Blinks:
Event Type	Trial	Number	Start	End	Duration

Table Header for User Events:
Event Type	Trial	Number	Start	Description

UserEvent	1	1	12575095400	# Message: void.jpg
Fixation L	1	1	12575106885	12575246126	139241	1178.38	464.98	66	16	-1	21.25	21.25
Fixation R	1	1	12575106885	12575246126	139241	1178.38	464.98	66	16	-1	21.36	21.36
Saccade L	1	1	12575246126	12575266003	19877	1234.74	472.44	1264.60	683.70	1.50	215.74	1.00	75.27	5341.26	-5079.71	3873.52
Saccade R	1	1	12575246126	12575266003	19877	1234.74	472.44	1264.60	683.70	1.50	215.74	1.00	75.27	5341.26	-5079.71	3873.52
Fixation L	1	2	12575266003	12576021828	755825	1276.81	676.26	17	43	-1	21.18	21.18
Fixation R	1	2	12575266003	12576021828	755825	1276.81	676.26	17	43	-1	20.35	20.35
Saccade L	1	2	12576021828	12576041687	19859	1271.41	702.75	1143.34	699.50	1.04	129.59	1.00	52.50	3110.75	-3060.19	2341.26
Saccade R	1	2	12576021828	12576041687	19859	1271.41	702.75	1143.34	699.50	1.04	129.59	1.00	52.50	3110.75	-3060.19	2341.26
Fixation L	1	3	12576041687	12576399806	358119	1093.55	705.87	60	38	-1	20.50	20.50
Fixation R	1	3	12576041687	12576399806	358119	1093.55	705.87	60	38	-1	19.77	19.77
Saccade L	1	3	12576399806	12576419671	19865	1087.34	718.79	1090.09	722.89	0.12	9.47	0.00	5.79	70.80	-93.52	71.67
Saccade R	1	3	12576399806	12576419671	19865	1087.34	718.79	1090.09	722.89	0.12	9.47	0.00	5.79	70.80	-93.52	71.67
Fixation L	1	4	12576419671	12577095892	676221	1085.70	739.48	13	34	-1	20.84	20.84
Fixation R	1	4	12576419671	12577095892	676221	1085.70	739.48	13	34	-1	20.44	20.44
