[BeGaze]
Converted from:	C:\Documents and Settings\iViewX\Desktop\EXPERIMENTATIONS\Experiments\results\finaleart\S6124332-finaleart-1.idf
Date:	27.03.2019 15:36:19
Version:	BeGaze 2.5.77
Sample Rate:	50
Subject:	S6124332
Description:	Romain Ferrand

Table Header for Fixations:
Event Type	Trial	Number	Start	End	Duration	Location X	Location Y	Dispersion X	Dispersion Y	Plane	Avg. Pupil Size X	Avg. Pupil Size Y

Table Header for Saccades:
Event Type	Trial	Number	Start	End	Duration	Start Loc.X	Start Loc.Y	End Loc.X	End Loc.Y	Amplitude	Peak Speed	Peak Speed At	Average Speed	Peak Accel.	Peak Decel.	Average Accel.

Table Header for Blinks:
Event Type	Trial	Number	Start	End	Duration

Table Header for User Events:
Event Type	Trial	Number	Start	Description

UserEvent	1	1	12636727115	# Message: void.jpg
Fixation L	1	1	12636745288	12637003894	258606	429.88	1007.73	18	29	-1	19.25	19.25
Fixation R	1	1	12636745288	12637003894	258606	429.88	1007.73	18	29	-1	18.89	18.89
Saccade L	1	1	12637003894	12637023767	19873	440.60	1008.06	475.58	924.32	0.66	91.80	1.00	33.42	2227.80	-2105.01	1487.06
Saccade R	1	1	12637003894	12637023767	19873	440.60	1008.06	475.58	924.32	0.66	91.80	1.00	33.42	2227.80	-2105.01	1487.06
Fixation L	1	2	12637023767	12637322119	298352	502.06	915.56	53	21	-1	19.06	19.06
Fixation R	1	2	12637023767	12637322119	298352	502.06	915.56	53	21	-1	19.01	19.01
Saccade L	1	2	12637322119	12637341996	19877	529.24	903.12	548.14	894.70	0.35	25.37	0.00	17.78	363.65	-256.32	264.66
Saccade R	1	2	12637322119	12637341996	19877	529.24	903.12	548.14	894.70	0.35	25.37	0.00	17.78	363.65	-256.32	264.66
Fixation L	1	3	12637341996	12637680103	338107	578.29	869.80	38	55	-1	19.04	19.04
Fixation R	1	3	12637341996	12637680103	338107	578.29	869.80	38	55	-1	18.99	18.99
Saccade L	1	3	12637680103	12637699977	19874	576.63	908.50	572.85	920.60	0.36	49.61	1.00	18.28	-87.69	-919.82	399.12
Saccade R	1	3	12637680103	12637699977	19874	576.63	908.50	572.85	920.60	0.36	49.61	1.00	18.28	-87.69	-919.82	399.12
Fixation L	1	4	12637699977	12637958586	258609	587.00	943.79	46	51	-1	19.18	19.18
Fixation R	1	4	12637699977	12637958586	258609	587.00	943.79	46	51	-1	19.19	19.19
Saccade L	1	4	12637958586	12637978464	19878	604.55	972.43	600.90	974.20	0.12	7.39	1.00	6.02	-7.08	-82.14	41.24
Saccade R	1	4	12637958586	12637978464	19878	604.55	972.43	600.90	974.20	0.12	7.39	1.00	6.02	-7.08	-82.14	41.24
Fixation L	1	5	12637978464	12638714418	735954	630.58	988.26	60	33	-1	19.58	19.58
Fixation R	1	5	12637978464	12638714418	735954	630.58	988.26	60	33	-1	19.13	19.13
