[BeGaze]
Converted from:	C:\Documents and Settings\iViewX\Desktop\EXPERIMENTATIONS\Experiments\results\finaleart\S6124332-finaleart-1.idf
Date:	27.03.2019 15:35:57
Version:	BeGaze 2.5.77
Sample Rate:	50
Subject:	S6124332
Description:	Romain Ferrand

Table Header for Fixations:
Event Type	Trial	Number	Start	End	Duration	Location X	Location Y	Dispersion X	Dispersion Y	Plane	Avg. Pupil Size X	Avg. Pupil Size Y

Table Header for Saccades:
Event Type	Trial	Number	Start	End	Duration	Start Loc.X	Start Loc.Y	End Loc.X	End Loc.Y	Amplitude	Peak Speed	Peak Speed At	Average Speed	Peak Accel.	Peak Decel.	Average Accel.

Table Header for Blinks:
Event Type	Trial	Number	Start	End	Duration

Table Header for User Events:
Event Type	Trial	Number	Start	Description

UserEvent	1	1	12002209162	# Message: storm_off_normandy_cost_isabey_1850.jpg
Saccade L	1	1	12002220799	12002320292	99493	594.11	981.84	685.23	953.33	1.65	59.91	1.00	16.57	1406.23	-1244.21	564.13
Saccade R	1	1	12002220799	12002320292	99493	594.11	981.84	685.23	953.33	1.65	59.91	1.00	16.57	1406.23	-1244.21	564.13
Fixation L	1	1	12002320292	12002658403	338111	703.40	932.72	23	30	-1	20.09	20.09
Fixation R	1	1	12002320292	12002658403	338111	703.40	932.72	23	30	-1	20.06	20.06
Saccade L	1	2	12002658403	12002718039	59636	709.07	926.28	369.24	693.50	4.42	175.36	1.00	74.16	3316.78	-4129.52	2905.48
Saccade R	1	2	12002658403	12002718039	59636	709.07	926.28	369.24	693.50	4.42	175.36	1.00	74.16	3316.78	-4129.52	2905.48
Fixation L	1	2	12002718039	12002857255	139216	373.07	710.14	8	23	-1	19.88	19.88
Fixation R	1	2	12002718039	12002857255	139216	373.07	710.14	8	23	-1	20.25	20.25
Saccade L	1	3	12002857255	12002936880	79625	373.25	715.69	1099.80	510.82	8.91	315.02	0.50	111.84	7795.66	-5649.74	4519.37
Saccade R	1	3	12002857255	12002936880	79625	373.25	715.69	1099.80	510.82	8.91	315.02	0.50	111.84	7795.66	-5649.74	4519.37
Fixation L	1	3	12002936880	12003135733	198853	1107.51	503.47	61	15	-1	20.62	20.62
Fixation R	1	3	12002936880	12003135733	198853	1107.51	503.47	61	15	-1	20.11	20.11
Saccade L	1	4	12003135733	12003155618	19885	1158.90	509.78	1205.64	624.33	1.16	125.13	1.00	58.48	3087.70	-2997.54	2053.33
Saccade R	1	4	12003135733	12003155618	19885	1158.90	509.78	1205.64	624.33	1.16	125.13	1.00	58.48	3087.70	-2997.54	2053.33
Fixation L	1	4	12003155618	12003394346	238728	1216.62	691.52	18	80	-1	20.67	20.67
Fixation R	1	4	12003155618	12003394346	238728	1216.62	691.52	18	80	-1	20.60	20.60
Saccade L	1	5	12003394346	12003414231	19885	1223.77	702.78	1223.53	707.19	0.06	4.46	1.00	3.19	47.88	-46.41	36.36
Saccade R	1	5	12003394346	12003414231	19885	1223.77	702.78	1223.53	707.19	0.06	4.46	1.00	3.19	47.88	-46.41	36.36
Fixation L	1	5	12003414231	12003871698	457467	1231.10	734.42	21	67	-1	21.09	21.09
Fixation R	1	5	12003414231	12003871698	457467	1231.10	734.42	21	67	-1	20.84	20.84
Saccade L	1	6	12003871698	12003891568	19870	1239.53	754.87	1266.59	742.73	0.20	29.99	1.00	10.03	712.96	-421.22	443.83
Saccade R	1	6	12003871698	12003891568	19870	1239.53	754.87	1266.59	742.73	0.20	29.99	1.00	10.03	712.96	-421.22	443.83
Fixation L	1	6	12003891568	12004110306	218738	1275.45	727.98	22	23	-1	21.35	21.35
Fixation R	1	6	12003891568	12004110306	218738	1275.45	727.98	22	23	-1	20.68	20.68
Saccade L	1	7	12004110306	12004150048	39742	1284.83	719.24	1067.17	717.28	1.87	126.70	0.50	46.95	3022.85	-3002.21	2646.88
Saccade R	1	7	12004110306	12004150048	39742	1284.83	719.24	1067.17	717.28	1.87	126.70	0.50	46.95	3022.85	-3002.21	2646.88
Fixation L	1	7	12004150048	12004289320	139272	1055.84	712.39	32	16	-1	22.18	22.18
Fixation R	1	7	12004150048	12004289320	139272	1055.84	712.39	32	16	-1	21.25	21.25
Saccade L	1	8	12004289320	12004349045	59725	1035.13	700.42	830.06	425.48	4.11	161.28	0.33	68.89	3975.65	-2430.14	2533.09
Saccade R	1	8	12004289320	12004349045	59725	1035.13	700.42	830.06	425.48	4.11	161.28	0.33	68.89	3975.65	-2430.14	2533.09
Fixation L	1	8	12004349045	12004607531	258486	807.72	429.91	68	25	-1	21.85	21.85
Fixation R	1	8	12004349045	12004607531	258486	807.72	429.91	68	25	-1	21.08	21.08
Saccade L	1	9	12004607531	12004627408	19877	761.85	444.02	605.90	442.54	1.08	157.73	1.00	54.26	3921.55	-3760.85	2856.97
Saccade R	1	9	12004607531	12004627408	19877	761.85	444.02	605.90	442.54	1.08	157.73	1.00	54.26	3921.55	-3760.85	2856.97
Fixation L	1	9	12004627408	12005602093	974685	589.89	405.99	26	72	-1	22.17	22.17
Fixation R	1	9	12004627408	12005602093	974685	589.89	405.99	26	72	-1	22.10	22.10
Saccade L	1	10	12005602093	12005621965	19872	597.38	412.73	610.99	420.76	0.29	18.39	1.00	14.41	265.32	-152.57	143.35
Saccade R	1	10	12005602093	12005621965	19872	597.38	412.73	610.99	420.76	0.29	18.39	1.00	14.41	265.32	-152.57	143.35
Fixation L	1	10	12005621965	12005781078	159113	631.55	404.00	37	23	-1	22.73	22.73
Fixation R	1	10	12005621965	12005781078	159113	631.55	404.00	37	23	-1	22.89	22.89
Saccade L	1	11	12005781078	12005840720	59642	648.12	401.13	1042.25	858.41	6.40	320.68	0.33	107.31	7986.96	-5287.85	5040.40
Saccade R	1	11	12005781078	12005840720	59642	648.12	401.13	1042.25	858.41	6.40	320.68	0.33	107.31	7986.96	-5287.85	5040.40
Fixation L	1	11	12005840720	12006139061	298341	1045.26	858.34	15	17	-1	23.26	23.26
Fixation R	1	11	12005840720	12006139061	298341	1045.26	858.34	15	17	-1	22.73	22.73
Saccade L	1	12	12006139061	12006198808	59747	1047.89	848.19	949.92	788.10	1.56	86.35	0.33	26.18	2137.17	-1969.21	1188.04
Saccade R	1	12	12006139061	12006198808	59747	1047.89	848.19	949.92	788.10	1.56	86.35	0.33	26.18	2137.17	-1969.21	1188.04
