[BeGaze]
Converted from:	C:\Documents and Settings\iViewX\Desktop\EXPERIMENTATIONS\Experiments\results\finaleart\S6124332-finaleart-1.idf
Date:	27.03.2019 15:36:27
Version:	BeGaze 2.5.77
Sample Rate:	50
Subject:	S6124332
Description:	Romain Ferrand

Table Header for Fixations:
Event Type	Trial	Number	Start	End	Duration	Location X	Location Y	Dispersion X	Dispersion Y	Plane	Avg. Pupil Size X	Avg. Pupil Size Y

Table Header for Saccades:
Event Type	Trial	Number	Start	End	Duration	Start Loc.X	Start Loc.Y	End Loc.X	End Loc.Y	Amplitude	Peak Speed	Peak Speed At	Average Speed	Peak Accel.	Peak Decel.	Average Accel.

Table Header for Blinks:
Event Type	Trial	Number	Start	End	Duration

Table Header for User Events:
Event Type	Trial	Number	Start	Description

UserEvent	1	1	12863734914	# Message: void.jpg
Saccade L	1	1	12863741108	12863820602	79494	491.84	419.14	689.41	278.14	3.96	151.67	0.75	49.78	3753.95	-3370.28	1800.99
Saccade R	1	1	12863741108	12863820602	79494	491.84	419.14	689.41	278.14	3.96	151.67	0.75	49.78	3753.95	-3370.28	1800.99
Fixation L	1	1	12863820602	12864039450	218848	712.08	269.39	30	24	-1	16.53	16.53
Fixation R	1	1	12863820602	12864039450	218848	712.08	269.39	30	24	-1	16.28	16.28
Saccade L	1	2	12864039450	12864059337	19887	719.86	269.92	718.53	174.85	0.77	96.18	1.00	38.49	2391.83	-1004.34	1534.34
Saccade R	1	2	12864039450	12864059337	19887	719.86	269.92	718.53	174.85	0.77	96.18	1.00	38.49	2391.83	-1004.34	1534.34
Fixation L	1	2	12864059337	12864278061	218724	711.17	198.55	10	56	-1	16.50	16.50
Fixation R	1	2	12864059337	12864278061	218724	711.17	198.55	10	56	-1	16.52	16.52
Blink L	1	1	12864278061	12865033887	755826
Blink R	1	1	12864278061	12865033887	755826
Fixation L	1	3	12865033887	12865411872	377985	893.06	669.49	10	25	-1	17.75	17.75
Fixation R	1	3	12865033887	12865411872	377985	893.06	669.49	10	25	-1	17.40	17.40
Saccade L	1	3	12865411872	12865451634	39762	894.76	670.57	985.80	539.07	2.01	118.94	1.00	50.48	2540.16	-2869.16	2070.99
Saccade R	1	3	12865411872	12865451634	39762	894.76	670.57	985.80	539.07	2.01	118.94	1.00	50.48	2540.16	-2869.16	2070.99
Fixation L	1	4	12865451634	12865730106	278472	1001.59	546.69	20	30	-1	15.98	15.98
Fixation R	1	4	12865451634	12865730106	278472	1001.59	546.69	20	30	-1	15.01	15.01
