[BeGaze]
Converted from:	C:\Documents and Settings\iViewX\Desktop\EXPERIMENTATIONS\Experiments\results\finaleart\S6124332-finaleart-1.idf
Date:	27.03.2019 15:36:27
Version:	BeGaze 2.5.77
Sample Rate:	50
Subject:	S6124332
Description:	Romain Ferrand

Table Header for Fixations:
Event Type	Trial	Number	Start	End	Duration	Location X	Location Y	Dispersion X	Dispersion Y	Plane	Avg. Pupil Size X	Avg. Pupil Size Y

Table Header for Saccades:
Event Type	Trial	Number	Start	End	Duration	Start Loc.X	Start Loc.Y	End Loc.X	End Loc.Y	Amplitude	Peak Speed	Peak Speed At	Average Speed	Peak Accel.	Peak Decel.	Average Accel.

Table Header for Blinks:
Event Type	Trial	Number	Start	End	Duration

Table Header for User Events:
Event Type	Trial	Number	Start	Description

UserEvent	1	1	12869841180	# Message: void.jpg
Saccade L	1	1	12869847233	12869926857	79624	550.92	494.65	1306.24	841.56	11.42	355.73	0.25	143.47	6912.93	-5450.79	3696.64
Saccade R	1	1	12869847233	12869926857	79624	550.92	494.65	1306.24	841.56	11.42	355.73	0.25	143.47	6912.93	-5450.79	3696.64
Fixation L	1	1	12869926857	12870304703	377846	1313.63	850.94	13	50	-1	19.76	19.76
Fixation R	1	1	12869926857	12870304703	377846	1313.63	850.94	13	50	-1	18.94	18.94
Saccade L	1	2	12870304703	12870324574	19871	1319.32	812.00	1346.09	677.83	0.98	138.38	1.00	49.49	3411.61	-3374.89	2374.00
Saccade R	1	2	12870304703	12870324574	19871	1319.32	812.00	1346.09	677.83	0.98	138.38	1.00	49.49	3411.61	-3374.89	2374.00
Fixation L	1	2	12870324574	12870722434	397860	1348.59	653.50	28	36	-1	19.82	19.82
Fixation R	1	2	12870324574	12870722434	397860	1348.59	653.50	28	36	-1	18.24	18.24
Blink L	1	1	12870722434	12871040658	318224
Blink R	1	1	12870722434	12871040658	318224
Saccade L	1	3	12871040658	12871199777	159119	1202.07	799.60	1128.55	964.45	4.96	95.72	1.00	31.15	2254.99	-2243.77	847.60
Saccade R	1	3	12871040658	12871199777	159119	1202.07	799.60	1128.55	964.45	4.96	95.72	1.00	31.15	2254.99	-2243.77	847.60
Fixation L	1	3	12871199777	12871557745	357968	1123.50	979.49	13	27	-1	20.79	20.79
Fixation R	1	3	12871199777	12871557745	357968	1123.50	979.49	13	27	-1	19.31	19.31
Saccade L	1	4	12871557745	12871577622	19877	1124.40	963.13	1147.04	825.61	0.96	140.97	1.00	48.33	3518.55	-2979.79	2274.46
Saccade R	1	4	12871557745	12871577622	19877	1124.40	963.13	1147.04	825.61	0.96	140.97	1.00	48.33	3518.55	-2979.79	2274.46
Fixation L	1	4	12871577622	12871696996	119374	1151.47	782.97	29	64	-1	20.05	20.05
Fixation R	1	4	12871577622	12871696996	119374	1151.47	782.97	29	64	-1	18.48	18.48
Saccade L	1	5	12871696996	12871716855	19859	1162.77	764.01	1163.92	745.33	0.18	18.93	1.00	9.28	340.38	-403.72	292.28
Saccade R	1	5	12871696996	12871716855	19859	1162.77	764.01	1163.92	745.33	0.18	18.93	1.00	9.28	340.38	-403.72	292.28
Fixation L	1	5	12871716855	12871836227	119372	1163.37	734.28	23	17	-1	19.43	19.43
Fixation R	1	5	12871716855	12871836227	119372	1163.37	734.28	23	17	-1	17.87	17.87
