[BeGaze]
Converted from:	C:\Documents and Settings\iViewX\Desktop\EXPERIMENTATIONS\Experiments\results\finaleart\S6124332-finaleart-1.idf
Date:	27.03.2019 15:35:40
Version:	BeGaze 2.5.77
Sample Rate:	50
Subject:	S6124332
Description:	Romain Ferrand

Table Header for Fixations:
Event Type	Trial	Number	Start	End	Duration	Location X	Location Y	Dispersion X	Dispersion Y	Plane	Avg. Pupil Size X	Avg. Pupil Size Y

Table Header for Saccades:
Event Type	Trial	Number	Start	End	Duration	Start Loc.X	Start Loc.Y	End Loc.X	End Loc.Y	Amplitude	Peak Speed	Peak Speed At	Average Speed	Peak Accel.	Peak Decel.	Average Accel.

Table Header for Blinks:
Event Type	Trial	Number	Start	End	Duration

Table Header for User Events:
Event Type	Trial	Number	Start	Description

UserEvent	1	1	11488260059	# Message: the-wood_cross_907.jpg
Saccade L	1	1	11488267427	11488327046	59619	1185.69	1003.84	1217.71	1015.04	3.04	112.33	0.67	51.07	2808.23	-2607.12	1986.30
Saccade R	1	1	11488267427	11488406682	139255	1185.69	1003.84	1203.86	1019.86	4.78	112.33	0.29	34.31	2808.23	-2607.12	1362.20
Fixation L	1	1	11488327046	11488426559	99513	1213.38	1019.96	27	21	-1	13.04	13.04
Blink R	1	1	11488406682	11488565784	159102
Saccade L	1	2	11488426559	11488506160	79601	1231.21	1033.64	1271.19	1036.22	9.16	284.13	0.75	115.02	5569.12	-5510.23	3992.29
Fixation L	1	2	11488506160	11488625414	119254	1265.80	1053.28	30	66	-1	11.13	11.13
Fixation R	1	1	11488565784	11488685152	119368	1275.04	1056.36	35	43	-1	17.57	17.57
Saccade L	1	3	11488625414	11488744776	119362	1276.40	1048.96	914.15	585.55	10.00	302.55	0.83	83.81	6265.66	-6902.49	3197.89
Saccade R	1	2	11488685152	11488744776	59624	1261.94	1046.71	914.15	585.55	7.09	302.55	0.67	118.88	6265.66	-6902.49	4836.18
Fixation L	1	3	11488744776	11488983497	238721	894.43	603.08	32	24	-1	19.58	19.58
Fixation R	1	2	11488744776	11488983497	238721	894.43	603.08	32	24	-1	18.43	18.43
Saccade L	1	4	11488983497	11489003367	19870	917.54	600.61	928.07	504.20	0.76	98.10	1.00	38.25	2370.82	-2351.15	1713.62
Saccade R	1	3	11488983497	11489003367	19870	917.54	600.61	928.07	504.20	0.76	98.10	1.00	38.25	2370.82	-2351.15	1713.62
Fixation L	1	4	11489003367	11489222128	218761	956.38	511.90	41	31	-1	18.32	18.32
Fixation R	1	3	11489003367	11489222128	218761	956.38	511.90	41	31	-1	17.50	17.50
Saccade L	1	5	11489222128	11489241983	19855	969.93	523.30	1055.94	560.76	0.58	94.89	1.00	29.09	2293.20	-1984.90	1493.08
Saccade R	1	4	11489222128	11489241983	19855	969.93	523.30	1055.94	560.76	0.58	94.89	1.00	29.09	2293.20	-1984.90	1493.08
Fixation L	1	5	11489241983	11489520474	278491	1081.04	591.90	34	65	-1	17.73	17.73
Fixation R	1	4	11489241983	11489520474	278491	1081.04	591.90	34	65	-1	16.54	16.54
Saccade L	1	6	11489520474	11489540337	19863	1090.10	625.23	1091.46	634.09	0.19	12.61	0.00	9.33	34.03	-116.15	85.13
Saccade R	1	5	11489520474	11489540337	19863	1090.10	625.23	1091.46	634.09	0.19	12.61	0.00	9.33	34.03	-116.15	85.13
Fixation L	1	6	11489540337	11489639842	99505	1089.48	639.55	17	38	-1	17.86	17.86
Fixation R	1	5	11489540337	11489639842	99505	1089.48	639.55	17	38	-1	16.78	16.78
Saccade L	1	7	11489639842	11489659729	19887	1075.60	664.90	954.23	749.27	0.98	149.50	1.00	49.14	3543.79	-3570.24	2488.96
Saccade R	1	6	11489639842	11489659729	19887	1075.60	664.90	954.23	749.27	0.98	149.50	1.00	49.14	3543.79	-3570.24	2488.96
Fixation L	1	7	11489659729	11489958069	298340	937.81	773.20	29	29	-1	18.24	18.24
Fixation R	1	6	11489659729	11489958069	298340	937.81	773.20	29	29	-1	17.89	17.89
Saccade L	1	8	11489958069	11489997822	39753	931.58	775.82	927.21	529.01	2.16	174.27	0.50	54.34	4332.65	-3957.45	2923.84
Saccade R	1	7	11489958069	11489997822	39753	931.58	775.82	927.21	529.01	2.16	174.27	0.50	54.34	4332.65	-3957.45	2923.84
Fixation L	1	8	11489997822	11490176797	178975	917.39	505.68	15	66	-1	18.27	18.27
Fixation R	1	7	11489997822	11490176797	178975	917.39	505.68	15	66	-1	18.06	18.06
Saccade L	1	9	11490176797	11490196684	19887	913.39	462.45	915.43	422.15	0.55	51.64	0.00	27.76	876.95	-970.42	911.59
Saccade R	1	8	11490176797	11490196684	19887	913.39	462.45	915.43	422.15	0.55	51.64	0.00	27.76	876.95	-970.42	911.59
Fixation L	1	9	11490196684	11490435423	238739	927.87	412.21	20	24	-1	18.63	18.63
Fixation R	1	8	11490196684	11490435423	238739	927.87	412.21	20	24	-1	18.31	18.31
Saccade L	1	10	11490435423	11490495036	59613	936.41	419.48	1422.75	635.68	5.79	258.97	0.33	97.21	6308.47	-5706.49	4807.30
Saccade R	1	9	11490435423	11490495036	59613	936.41	419.48	1422.75	635.68	5.79	258.97	0.33	97.21	6308.47	-5706.49	4807.30
Fixation L	1	10	11490495036	11490773523	278487	1426.61	678.41	11	61	-1	19.04	19.04
Fixation R	1	9	11490495036	11490773523	278487	1426.61	678.41	11	61	-1	18.30	18.30
Saccade L	1	11	11490773523	11490793409	19886	1428.61	689.17	1388.91	696.66	0.27	40.86	1.00	13.33	911.83	-595.59	542.16
Saccade R	1	10	11490773523	11490793409	19886	1428.61	689.17	1388.91	696.66	0.27	40.86	1.00	13.33	911.83	-595.59	542.16
Fixation L	1	11	11490793409	11491290745	497336	1377.85	724.10	48	37	-1	19.37	19.37
Fixation R	1	10	11490793409	11491290745	497336	1377.85	724.10	48	37	-1	18.49	18.49
Saccade L	1	12	11491290745	11491350360	59615	1406.91	734.07	838.66	820.96	6.08	238.80	0.67	101.97	5813.75	-5439.91	4114.01
Saccade R	1	11	11491290745	11491350360	59615	1406.91	734.07	838.66	820.96	6.08	238.80	0.67	101.97	5813.75	-5439.91	4114.01
Fixation L	1	12	11491350360	11491608977	258617	808.90	839.44	37	27	-1	20.08	20.08
Fixation R	1	11	11491350360	11491608977	258617	808.90	839.44	37	27	-1	19.09	19.09
Saccade L	1	13	11491608977	11491628843	19866	800.83	842.16	940.26	812.85	1.01	144.10	1.00	50.86	3601.08	-3404.23	2813.56
Saccade R	1	12	11491608977	11491628843	19866	800.83	842.16	940.26	812.85	1.01	144.10	1.00	50.86	3601.08	-3404.23	2813.56
Fixation L	1	13	11491628843	11491927205	298362	907.48	841.69	51	48	-1	19.76	19.76
Fixation R	1	12	11491628843	11491927205	298362	907.48	841.69	51	48	-1	19.13	19.13
Saccade L	1	14	11491927205	11492026576	99371	941.76	855.28	1024.68	881.79	1.81	72.05	1.00	18.26	1636.86	-1262.27	589.01
Saccade R	1	13	11491927205	11492026576	99371	941.76	855.28	1024.68	881.79	1.81	72.05	1.00	18.26	1636.86	-1262.27	589.01
Fixation L	1	14	11492026576	11492245451	218875	1022.52	911.15	27	43	-1	19.71	19.71
Fixation R	1	13	11492026576	11492245451	218875	1022.52	911.15	27	43	-1	18.95	18.95
