[BeGaze]
Converted from:	C:\Documents and Settings\iViewX\Desktop\EXPERIMENTATIONS\Experiments\results\finaleart\S6124332-finaleart-1.idf
Date:	27.03.2019 15:36:24
Version:	BeGaze 2.5.77
Sample Rate:	50
Subject:	S6124332
Description:	Romain Ferrand

Table Header for Fixations:
Event Type	Trial	Number	Start	End	Duration	Location X	Location Y	Dispersion X	Dispersion Y	Plane	Avg. Pupil Size X	Avg. Pupil Size Y

Table Header for Saccades:
Event Type	Trial	Number	Start	End	Duration	Start Loc.X	Start Loc.Y	End Loc.X	End Loc.Y	Amplitude	Peak Speed	Peak Speed At	Average Speed	Peak Accel.	Peak Decel.	Average Accel.

Table Header for Blinks:
Event Type	Trial	Number	Start	End	Duration

Table Header for User Events:
Event Type	Trial	Number	Start	Description

UserEvent	1	1	12808527153	# Message: void.jpg
Saccade L	1	1	12808546926	12808606686	59760	879.58	329.87	765.21	329.69	1.81	115.37	1.00	30.25	2849.63	-2533.67	1238.98
Saccade R	1	1	12808546926	12808606686	59760	879.58	329.87	765.21	329.69	1.81	115.37	1.00	30.25	2849.63	-2533.67	1238.98
Fixation L	1	1	12808606686	12808964650	357964	728.63	331.40	45	35	-1	21.02	21.02
Fixation R	1	1	12808606686	12808964650	357964	728.63	331.40	45	35	-1	19.87	19.87
Saccade L	1	2	12808964650	12809004393	39743	731.90	346.54	1009.25	389.05	2.49	195.58	0.50	62.65	4686.90	-4683.74	3322.21
Saccade R	1	2	12808964650	12809004393	39743	731.90	346.54	1009.25	389.05	2.49	195.58	0.50	62.65	4686.90	-4683.74	3322.21
Fixation L	1	2	12809004393	12809163511	159118	1009.55	396.95	9	28	-1	21.10	21.10
Fixation R	1	2	12809004393	12809163511	159118	1009.55	396.95	9	28	-1	19.36	19.36
Blink L	1	1	12809163511	12809442001	278490
Blink R	1	1	12809163511	12809442001	278490
Fixation L	1	3	12809442001	12809780098	338097	849.94	642.54	14	40	-1	19.91	19.91
Fixation R	1	3	12809442001	12809780098	338097	849.94	642.54	14	40	-1	18.41	18.41
Saccade L	1	3	12809780098	12809800103	20005	855.28	652.76	965.73	616.19	0.77	117.69	1.00	38.25	2916.56	-2626.13	2042.07
Saccade R	1	3	12809780098	12809800103	20005	855.28	652.76	965.73	616.19	0.77	117.69	1.00	38.25	2916.56	-2626.13	2042.07
Fixation L	1	4	12809800103	12810197820	397717	980.95	573.80	18	52	-1	19.18	19.18
Fixation R	1	4	12809800103	12810197820	397717	980.95	573.80	18	52	-1	17.59	17.59
Saccade L	1	4	12810197820	12810217703	19883	973.14	563.63	859.48	575.57	0.70	115.60	1.00	35.10	2799.72	-2781.93	1890.43
Saccade R	1	4	12810197820	12810217703	19883	973.14	563.63	859.48	575.57	0.70	115.60	1.00	35.10	2799.72	-2781.93	1890.43
Fixation L	1	5	12810217703	12810516056	298353	865.83	604.57	8	49	-1	19.11	19.11
Fixation R	1	5	12810217703	12810516056	298353	865.83	604.57	8	49	-1	17.64	17.64
