[BeGaze]
Converted from:	C:\Documents and Settings\iViewX\Desktop\EXPERIMENTATIONS\Experiments\results\finaleart\S6124332-finaleart-1.idf
Date:	27.03.2019 15:36:14
Version:	BeGaze 2.5.77
Sample Rate:	50
Subject:	S6124332
Description:	Romain Ferrand

Table Header for Fixations:
Event Type	Trial	Number	Start	End	Duration	Location X	Location Y	Dispersion X	Dispersion Y	Plane	Avg. Pupil Size X	Avg. Pupil Size Y

Table Header for Saccades:
Event Type	Trial	Number	Start	End	Duration	Start Loc.X	Start Loc.Y	End Loc.X	End Loc.Y	Amplitude	Peak Speed	Peak Speed At	Average Speed	Peak Accel.	Peak Decel.	Average Accel.

Table Header for Blinks:
Event Type	Trial	Number	Start	End	Duration

Table Header for User Events:
Event Type	Trial	Number	Start	Description

UserEvent	1	1	12546317181	# Message: female_nude_reclining_on-a_divan_delacroix_1826.jpg
Fixation L	1	1	12546326501	12546465617	139116	907.57	590.57	64	26	-1	21.23	21.23
Fixation R	1	1	12546326501	12546465617	139116	907.57	590.57	64	26	-1	20.17	20.17
Saccade L	1	1	12546465617	12546505493	39876	917.54	596.72	914.34	588.27	1.35	75.67	1.00	33.89	1741.84	-1823.25	1758.00
Saccade R	1	1	12546465617	12546505493	39876	917.54	596.72	914.34	588.27	1.35	75.67	1.00	33.89	1741.84	-1823.25	1758.00
Fixation L	1	2	12546505493	12546644714	139221	924.15	559.57	32	65	-1	21.40	21.40
Fixation R	1	2	12546505493	12546644714	139221	924.15	559.57	32	65	-1	20.40	20.40
Saccade L	1	2	12546644714	12546664596	19882	944.23	523.08	947.34	522.22	0.14	10.49	0.00	6.97	-30.29	-177.19	125.19
Saccade R	1	2	12546644714	12546664596	19882	944.23	523.08	947.34	522.22	0.14	10.49	0.00	6.97	-30.29	-177.19	125.19
Fixation L	1	3	12546664596	12546823717	159121	937.92	547.43	34	55	-1	21.57	21.57
Fixation R	1	3	12546664596	12546823717	159121	937.92	547.43	34	55	-1	20.42	20.42
Saccade L	1	3	12546823717	12546863462	39745	928.96	574.39	796.85	498.47	1.64	87.71	1.00	41.23	2022.55	-1996.75	1564.49
Saccade R	1	3	12546823717	12546863462	39745	928.96	574.39	796.85	498.47	1.64	87.71	1.00	41.23	2022.55	-1996.75	1564.49
Fixation L	1	4	12546863462	12547022577	159115	787.54	454.36	14	79	-1	20.63	20.63
Fixation R	1	4	12546863462	12547022577	159115	787.54	454.36	14	79	-1	19.45	19.45
Saccade L	1	4	12547022577	12547122072	99495	782.25	418.84	598.57	140.05	7.21	214.79	0.20	72.44	5300.85	-2805.36	2256.37
Saccade R	1	4	12547022577	12547122072	99495	782.25	418.84	598.57	140.05	7.21	214.79	0.20	72.44	5300.85	-2805.36	2256.37
Fixation L	1	5	12547122072	12547499924	377852	616.17	174.06	29	68	-1	18.67	18.67
Fixation R	1	5	12547122072	12547499924	377852	616.17	174.06	29	68	-1	17.85	17.85
Saccade L	1	5	12547499924	12547519793	19869	626.64	143.65	626.74	135.74	0.11	8.20	1.00	5.32	143.23	-71.65	73.26
Saccade R	1	5	12547499924	12547519793	19869	626.64	143.65	626.74	135.74	0.11	8.20	1.00	5.32	143.23	-71.65	73.26
Fixation L	1	6	12547519793	12547857901	338108	629.87	167.00	7	65	-1	18.52	18.52
Fixation R	1	6	12547519793	12547857901	338108	629.87	167.00	7	65	-1	18.03	18.03
Saccade L	1	6	12547857901	12547877895	19994	631.43	200.66	633.51	261.51	0.46	61.60	1.00	23.22	1511.37	-1290.63	987.65
Saccade R	1	6	12547857901	12547877895	19994	631.43	200.66	633.51	261.51	0.46	61.60	1.00	23.22	1511.37	-1290.63	987.65
Fixation L	1	7	12547877895	12548315368	437473	642.63	241.48	17	71	-1	18.77	18.77
Fixation R	1	7	12547877895	12548315368	437473	642.63	241.48	17	71	-1	18.21	18.21
Saccade L	1	7	12548315368	12548375110	59742	651.17	239.37	1295.86	331.62	7.01	301.79	0.67	117.42	7520.20	-6874.05	4526.49
Saccade R	1	7	12548315368	12548375110	59742	651.17	239.37	1295.86	331.62	7.01	301.79	0.67	117.42	7520.20	-6874.05	4526.49
Fixation L	1	8	12548375110	12548514364	139254	1284.62	345.10	17	79	-1	19.07	19.07
Fixation R	1	8	12548375110	12548514364	139254	1284.62	345.10	17	79	-1	19.00	19.00
Saccade L	1	8	12548514364	12548534226	19862	1278.00	385.64	1279.49	396.44	0.27	19.49	0.00	13.74	-133.94	-286.04	205.96
Saccade R	1	8	12548514364	12548534226	19862	1278.00	385.64	1279.49	396.44	0.27	19.49	0.00	13.74	-133.94	-286.04	205.96
Fixation L	1	9	12548534226	12548633629	99403	1281.61	400.89	3	13	-1	19.50	19.50
Fixation R	1	9	12548534226	12548633629	99403	1281.61	400.89	3	13	-1	19.12	19.12
Saccade L	1	9	12548633629	12548673486	39857	1283.12	406.08	1126.30	622.50	2.51	203.33	0.50	62.86	4769.76	-4769.68	2940.79
Saccade R	1	9	12548633629	12548673486	39857	1283.12	406.08	1126.30	622.50	2.51	203.33	0.50	62.86	4769.76	-4769.68	2940.79
Fixation L	1	10	12548673486	12548991714	318228	1124.00	627.60	32	55	-1	19.97	19.97
Fixation R	1	10	12548673486	12548991714	318228	1124.00	627.60	32	55	-1	19.23	19.23
Saccade L	1	10	12548991714	12549031455	39741	1116.16	649.15	952.50	629.74	1.45	102.02	0.50	36.48	2429.60	-2376.65	1949.68
Saccade R	1	10	12548991714	12549031455	39741	1116.16	649.15	952.50	629.74	1.45	102.02	0.50	36.48	2429.60	-2376.65	1949.68
Fixation L	1	11	12549031455	12549250195	218740	939.06	600.54	21	53	-1	20.40	20.40
Fixation R	1	11	12549031455	12549250195	218740	939.06	600.54	21	53	-1	18.87	18.87
Saccade L	1	11	12549250195	12549270186	19991	949.52	581.54	1119.77	579.41	1.14	172.19	1.00	57.20	4063.95	-4075.86	2817.04
Saccade R	1	11	12549250195	12549270186	19991	949.52	581.54	1119.77	579.41	1.14	172.19	1.00	57.20	4063.95	-4075.86	2817.04
Fixation L	1	12	12549270186	12549827035	556849	1150.08	576.01	39	38	-1	19.79	19.79
Fixation R	1	12	12549270186	12549827035	556849	1150.08	576.01	39	38	-1	18.95	18.95
Saccade L	1	12	12549827035	12549846904	19869	1158.60	578.39	1147.67	697.27	0.70	120.75	1.00	35.21	3006.70	-2720.31	2019.09
Saccade R	1	12	12549827035	12549846904	19869	1158.60	578.39	1147.67	697.27	0.70	120.75	1.00	35.21	3006.70	-2720.31	2019.09
Fixation L	1	13	12549846904	12550304375	457471	1105.86	727.36	51	41	-1	19.99	19.99
Fixation R	1	13	12549846904	12550304375	457471	1105.86	727.36	51	41	-1	19.01	19.01
