[BeGaze]
Converted from:	C:\Documents and Settings\iViewX\Desktop\EXPERIMENTATIONS\Experiments\results\finaleart\S6124332-finaleart-1.idf
Date:	27.03.2019 15:35:44
Version:	BeGaze 2.5.77
Sample Rate:	50
Subject:	S6124332
Description:	Romain Ferrand

Table Header for Fixations:
Event Type	Trial	Number	Start	End	Duration	Location X	Location Y	Dispersion X	Dispersion Y	Plane	Avg. Pupil Size X	Avg. Pupil Size Y

Table Header for Saccades:
Event Type	Trial	Number	Start	End	Duration	Start Loc.X	Start Loc.Y	End Loc.X	End Loc.Y	Amplitude	Peak Speed	Peak Speed At	Average Speed	Peak Accel.	Peak Decel.	Average Accel.

Table Header for Blinks:
Event Type	Trial	Number	Start	End	Duration

Table Header for User Events:
Event Type	Trial	Number	Start	Description

UserEvent	1	1	11555691837	# Message: monticelli-still-life-with-white-pitcher-1822.jpg
Fixation L	1	1	11555693740	11556171082	477342	817.00	626.84	11	25	-1	17.79	17.79
Fixation R	1	1	11555693740	11556171082	477342	817.00	626.84	11	25	-1	17.95	17.95
Saccade L	1	1	11556171082	11556190961	19879	817.39	622.77	961.03	577.02	0.88	152.47	1.00	44.33	3777.71	-3288.35	2422.22
Saccade R	1	1	11556171082	11556190961	19879	817.39	622.77	961.03	577.02	0.88	152.47	1.00	44.33	3777.71	-3288.35	2422.22
Fixation L	1	2	11556190961	11556588793	397832	993.72	557.03	41	43	-1	17.51	17.51
Fixation R	1	2	11556190961	11556588793	397832	993.72	557.03	41	43	-1	17.46	17.46
Saccade L	1	2	11556588793	11556608676	19883	993.33	536.20	900.11	535.91	0.67	94.29	1.00	33.49	2209.35	-2127.90	1557.70
Saccade R	1	2	11556588793	11556608676	19883	993.33	536.20	900.11	535.91	0.67	94.29	1.00	33.49	2209.35	-2127.90	1557.70
Fixation L	1	3	11556608676	11556807543	198867	877.38	528.58	48	17	-1	16.74	16.74
Fixation R	1	3	11556608676	11556807543	198867	877.38	528.58	48	17	-1	16.54	16.54
Saccade L	1	3	11556807543	11556827410	19867	851.31	524.89	774.74	521.46	0.59	77.53	1.00	29.82	1854.47	-1747.83	1340.63
Saccade R	1	3	11556807543	11556827410	19867	851.31	524.89	774.74	521.46	0.59	77.53	1.00	29.82	1854.47	-1747.83	1340.63
Fixation L	1	4	11556827410	11557066137	238727	760.92	513.13	32	22	-1	16.36	16.36
Fixation R	1	4	11556827410	11557066137	238727	760.92	513.13	32	22	-1	16.50	16.50
Saccade L	1	4	11557066137	11557086022	19885	742.53	504.89	684.23	538.31	0.58	67.97	1.00	29.03	1436.14	-1048.70	887.02
Saccade R	1	4	11557066137	11557086022	19885	742.53	504.89	684.23	538.31	0.58	67.97	1.00	29.03	1436.14	-1048.70	887.02
Fixation L	1	5	11557086022	11557364503	278481	653.07	562.87	46	37	-1	16.49	16.49
Fixation R	1	5	11557086022	11557364503	278481	653.07	562.87	46	37	-1	16.65	16.65
Saccade L	1	5	11557364503	11557384371	19868	637.83	573.46	604.56	571.08	0.28	33.74	1.00	13.93	788.35	-745.67	550.24
Saccade R	1	5	11557364503	11557384371	19868	637.83	573.46	604.56	571.08	0.28	33.74	1.00	13.93	788.35	-745.67	550.24
Fixation L	1	6	11557384371	11557523620	139249	593.34	569.80	71	5	-1	16.77	16.77
Fixation R	1	6	11557384371	11557523620	139249	593.34	569.80	71	5	-1	16.89	16.89
Saccade L	1	6	11557523620	11557583242	59622	642.85	568.81	1106.35	259.14	6.52	297.83	0.33	109.37	7356.60	-5296.04	4496.93
Saccade R	1	6	11557523620	11557583242	59622	642.85	568.81	1106.35	259.14	6.52	297.83	0.33	109.37	7356.60	-5296.04	4496.93
Fixation L	1	7	11557583242	11557742349	159107	1108.69	267.89	28	31	-1	16.99	16.99
Fixation R	1	7	11557583242	11557742349	159107	1108.69	267.89	28	31	-1	16.35	16.35
Saccade L	1	7	11557742349	11557762225	19876	1091.76	247.81	1015.02	171.45	0.82	109.50	1.00	41.13	2609.53	-1995.41	1755.88
Saccade R	1	7	11557742349	11557762225	19876	1091.76	247.81	1015.02	171.45	0.82	109.50	1.00	41.13	2609.53	-1995.41	1755.88
Fixation L	1	8	11557762225	11558040709	278484	1005.30	161.81	15	50	-1	16.64	16.64
Fixation R	1	8	11557762225	11558040709	278484	1005.30	161.81	15	50	-1	16.59	16.59
Saccade L	1	8	11558040709	11558080461	39752	1006.64	171.30	1281.61	242.77	2.91	168.05	1.00	73.09	4168.14	-3947.66	3074.43
Saccade R	1	8	11558040709	11558080461	39752	1006.64	171.30	1281.61	242.77	2.91	168.05	1.00	73.09	4168.14	-3947.66	3074.43
Fixation L	1	9	11558080461	11558319186	238725	1336.72	263.44	68	30	-1	16.71	16.71
Fixation R	1	9	11558080461	11558319186	238725	1336.72	263.44	68	30	-1	16.35	16.35
Saccade L	1	9	11558319186	11558339071	19885	1340.94	269.10	1337.03	277.79	0.15	10.75	1.00	7.65	247.13	-27.02	93.65
Saccade R	1	9	11558319186	11558339071	19885	1340.94	269.10	1337.03	277.79	0.15	10.75	1.00	7.65	247.13	-27.02	93.65
Fixation L	1	10	11558339071	11558458427	119356	1342.33	285.67	21	18	-1	16.86	16.86
Fixation R	1	10	11558339071	11558458427	119356	1342.33	285.67	21	18	-1	16.60	16.60
Saccade L	1	10	11558458427	11558537944	79517	1356.02	288.16	1318.09	883.43	7.26	210.15	0.50	91.24	4910.62	-2747.34	2830.65
Saccade R	1	10	11558458427	11558537944	79517	1356.02	288.16	1318.09	883.43	7.26	210.15	0.50	91.24	4910.62	-2747.34	2830.65
Fixation L	1	11	11558537944	11558856171	318227	1294.04	869.49	30	24	-1	17.06	17.06
Fixation R	1	11	11558537944	11558856171	318227	1294.04	869.49	30	24	-1	16.92	16.92
Saccade L	1	11	11558856171	11558896033	39862	1289.29	865.39	1158.45	954.84	1.45	93.60	0.50	36.38	2219.54	-1967.98	1847.91
Saccade R	1	11	11558856171	11558896033	39862	1289.29	865.39	1158.45	954.84	1.45	93.60	0.50	36.38	2219.54	-1967.98	1847.91
Fixation L	1	12	11558896033	11559174400	278367	1147.49	973.74	32	25	-1	17.88	17.88
Fixation R	1	12	11558896033	11559174400	278367	1147.49	973.74	32	25	-1	17.52	17.52
Saccade L	1	12	11559174400	11559214263	39863	1126.01	978.94	890.36	899.63	2.34	166.30	0.50	58.81	4135.51	-3833.98	3009.81
Saccade R	1	12	11559174400	11559214263	39863	1126.01	978.94	890.36	899.63	2.34	166.30	0.50	58.81	4135.51	-3833.98	3009.81
Fixation L	1	13	11559214263	11559592137	377874	877.81	899.08	68	20	-1	18.00	18.00
Fixation R	1	13	11559214263	11559592137	377874	877.81	899.08	68	20	-1	18.02	18.02
Saccade L	1	13	11559592137	11559691613	99476	821.58	911.02	798.19	928.30	1.32	56.58	0.00	13.28	220.00	-1336.53	262.69
Saccade R	1	13	11559592137	11559691613	99476	821.58	911.02	798.19	928.30	1.32	56.58	0.00	13.28	220.00	-1336.53	262.69
