[BeGaze]
Converted from:	C:\Documents and Settings\iViewX\Desktop\EXPERIMENTATIONS\Experiments\results\finaleart\S6124332-finaleart-1.idf
Date:	27.03.2019 15:36:05
Version:	BeGaze 2.5.77
Sample Rate:	50
Subject:	S6124332
Description:	Romain Ferrand

Table Header for Fixations:
Event Type	Trial	Number	Start	End	Duration	Location X	Location Y	Dispersion X	Dispersion Y	Plane	Avg. Pupil Size X	Avg. Pupil Size Y

Table Header for Saccades:
Event Type	Trial	Number	Start	End	Duration	Start Loc.X	Start Loc.Y	End Loc.X	End Loc.Y	Amplitude	Peak Speed	Peak Speed At	Average Speed	Peak Accel.	Peak Decel.	Average Accel.

Table Header for Blinks:
Event Type	Trial	Number	Start	End	Duration

Table Header for User Events:
Event Type	Trial	Number	Start	Description

UserEvent	1	1	12324671765	# Message: study_of_a_reclining_nude_Delacroix_1824.jpg
Fixation L	1	1	12324682985	12325140448	457463	930.44	640.22	9	18	-1	18.53	18.53
Fixation R	1	1	12324682985	12325140448	457463	930.44	640.22	9	18	-1	17.75	17.75
Saccade L	1	1	12325140448	12325180341	39893	927.59	646.66	1222.60	521.44	3.15	181.51	1.00	78.89	4474.88	-4393.96	3584.96
Blink R	1	1	12325140448	12325220082	79634
Fixation L	1	2	12325180341	12325498564	318223	1267.95	494.19	56	43	-1	18.50	18.50
Fixation R	1	2	12325220082	12325677563	457481	1273.78	489.43	24	41	-1	17.21	17.21
Saccade L	1	2	12325498564	12325518439	19875	1278.72	478.21	1279.70	483.64	0.08	6.59	0.00	3.80	83.51	-144.28	116.46
Fixation L	1	3	12325518439	12325677563	159124	1279.72	484.83	8	33	-1	18.06	18.06
Saccade L	1	3	12325677563	12325737175	59612	1284.45	468.40	1385.75	276.72	3.64	129.58	0.67	61.12	2371.33	-1967.41	1614.57
Saccade R	1	1	12325677563	12325737175	59612	1284.45	468.40	1385.75	276.72	3.64	129.58	0.67	61.12	2371.33	-1967.41	1614.57
Fixation L	1	4	12325737175	12326214517	477342	1388.66	309.45	31	68	-1	17.58	17.58
Fixation R	1	3	12325737175	12326214517	477342	1388.66	309.45	31	68	-1	16.33	16.33
Saccade L	1	4	12326214517	12326234382	19865	1397.66	271.34	1405.30	269.69	0.11	7.91	1.00	5.59	130.34	-30.10	60.93
Saccade R	1	2	12326214517	12326234382	19865	1397.66	271.34	1405.30	269.69	0.11	7.91	1.00	5.59	130.34	-30.10	60.93
Fixation L	1	5	12326234382	12326433370	198988	1404.70	276.65	34	22	-1	18.05	18.05
Fixation R	1	4	12326234382	12326433370	198988	1404.70	276.65	34	22	-1	16.47	16.47
Saccade L	1	5	12326433370	12326493002	59632	1386.09	292.38	931.47	751.55	7.23	284.92	0.33	121.21	6796.83	-5526.00	4874.36
Saccade R	1	3	12326433370	12326493002	59632	1386.09	292.38	931.47	751.55	7.23	284.92	0.33	121.21	6796.83	-5526.00	4874.36
Fixation L	1	6	12326493002	12326691854	198852	936.53	719.79	8	48	-1	18.82	18.82
Fixation R	1	5	12326493002	12326691854	198852	936.53	719.79	8	48	-1	18.38	18.38
Saccade L	1	6	12326691854	12326751609	59755	939.87	706.56	554.91	772.38	4.34	214.49	0.67	72.63	5210.02	-4821.87	3035.38
Saccade R	1	4	12326691854	12326751609	59755	939.87	706.56	554.91	772.38	4.34	214.49	0.67	72.63	5210.02	-4821.87	3035.38
Fixation L	1	7	12326751609	12326910724	159115	556.06	799.78	2	39	-1	19.03	19.03
Fixation R	1	6	12326751609	12326910724	159115	556.06	799.78	2	39	-1	18.19	18.19
Saccade L	1	7	12326910724	12326950467	39743	557.18	811.58	303.96	811.94	2.44	133.30	0.50	61.46	3168.80	-2928.07	2887.17
Saccade R	1	5	12326910724	12326950467	39743	557.18	811.58	303.96	811.94	2.44	133.30	0.50	61.46	3168.80	-2928.07	2887.17
Fixation L	1	8	12326950467	12327407952	457485	330.96	790.95	42	55	-1	18.36	18.36
Fixation R	1	7	12326950467	12327407952	457485	330.96	790.95	42	55	-1	18.88	18.88
Saccade L	1	8	12327407952	12327427816	19864	315.04	762.76	311.81	749.89	0.19	13.43	1.00	9.44	333.09	100.01	218.09
Saccade R	1	6	12327407952	12327427816	19864	315.04	762.76	311.81	749.89	0.19	13.43	1.00	9.44	333.09	100.01	218.09
Fixation L	1	9	12327427816	12328322893	895077	317.83	761.98	32	53	-1	19.14	19.14
Fixation R	1	8	12327427816	12328322893	895077	317.83	761.98	32	53	-1	19.67	19.67
Saccade L	1	9	12328322893	12328342763	19870	334.37	736.02	332.36	635.13	0.91	102.08	1.00	45.65	2411.19	-2357.21	1692.09
Saccade R	1	7	12328322893	12328342763	19870	334.37	736.02	332.36	635.13	0.91	102.08	1.00	45.65	2411.19	-2357.21	1692.09
Fixation L	1	10	12328342763	12328660995	318232	325.86	617.84	12	44	-1	19.53	19.53
Fixation R	1	9	12328342763	12328660995	318232	325.86	617.84	12	44	-1	20.22	20.22
