[BeGaze]
Converted from:	C:\Documents and Settings\iViewX\Desktop\EXPERIMENTATIONS\Experiments\results\finaleart\S6124332-finaleart-1.idf
Date:	27.03.2019 15:36:26
Version:	BeGaze 2.5.77
Sample Rate:	50
Subject:	S6124332
Description:	Romain Ferrand

Table Header for Fixations:
Event Type	Trial	Number	Start	End	Duration	Location X	Location Y	Dispersion X	Dispersion Y	Plane	Avg. Pupil Size X	Avg. Pupil Size Y

Table Header for Saccades:
Event Type	Trial	Number	Start	End	Duration	Start Loc.X	Start Loc.Y	End Loc.X	End Loc.Y	Amplitude	Peak Speed	Peak Speed At	Average Speed	Peak Accel.	Peak Decel.	Average Accel.

Table Header for Blinks:
Event Type	Trial	Number	Start	End	Duration

Table Header for User Events:
Event Type	Trial	Number	Start	Description

UserEvent	1	1	12851497086	# Message: void.jpg
Fixation L	1	1	12851508842	12851707817	198975	749.41	312.26	13	86	-1	20.06	20.06
Fixation R	1	1	12851508842	12851707817	198975	749.41	312.26	13	86	-1	18.83	18.83
Saccade L	1	1	12851707817	12851727698	19881	757.16	368.71	759.60	371.34	0.12	15.82	1.00	6.26	2.18	-305.06	106.76
Saccade R	1	1	12851707817	12851727698	19881	757.16	368.71	759.60	371.34	0.12	15.82	1.00	6.26	2.18	-305.06	106.76
Fixation L	1	2	12851727698	12853159734	1432036	778.98	382.22	56	42	-1	20.75	20.75
Fixation R	1	2	12851727698	12853159734	1432036	778.98	382.22	56	42	-1	19.76	19.76
Saccade L	1	2	12853159734	12853179604	19870	813.06	397.66	814.10	399.80	0.03	2.45	1.00	1.74	40.20	-29.12	32.59
Saccade R	1	2	12853159734	12853179604	19870	813.06	397.66	814.10	399.80	0.03	2.45	1.00	1.74	40.20	-29.12	32.59
Fixation L	1	3	12853179604	12853338722	159118	815.23	411.62	11	80	-1	21.21	21.21
Fixation R	1	3	12853179604	12853338722	159118	815.23	411.62	11	80	-1	20.16	20.16
Saccade L	1	3	12853338722	12853358592	19870	824.44	475.66	822.26	484.08	0.46	48.43	1.00	23.24	-157.11	-990.80	604.73
Saccade R	1	3	12853338722	12853358592	19870	824.44	475.66	822.26	484.08	0.46	48.43	1.00	23.24	-157.11	-990.80	604.73
Fixation L	1	4	12853358592	12853497846	139254	824.70	494.05	8	16	-1	21.42	21.42
Fixation R	1	4	12853358592	12853497846	139254	824.70	494.05	8	16	-1	20.06	20.06
