[BeGaze]
Converted from:	C:\Documents and Settings\iViewX\Desktop\EXPERIMENTATIONS\Experiments\results\finaleart\S6124332-finaleart-1.idf
Date:	27.03.2019 15:36:22
Version:	BeGaze 2.5.77
Sample Rate:	50
Subject:	S6124332
Description:	Romain Ferrand

Table Header for Fixations:
Event Type	Trial	Number	Start	End	Duration	Location X	Location Y	Dispersion X	Dispersion Y	Plane	Avg. Pupil Size X	Avg. Pupil Size Y

Table Header for Saccades:
Event Type	Trial	Number	Start	End	Duration	Start Loc.X	Start Loc.Y	End Loc.X	End Loc.Y	Amplitude	Peak Speed	Peak Speed At	Average Speed	Peak Accel.	Peak Decel.	Average Accel.

Table Header for Blinks:
Event Type	Trial	Number	Start	End	Duration

Table Header for User Events:
Event Type	Trial	Number	Start	Description

UserEvent	1	1	12771747694	# Message: void.jpg
Fixation L	1	1	12771750895	12771989623	238728	469.93	850.88	10	42	-1	20.09	20.09
Fixation R	1	1	12771750895	12771989623	238728	469.93	850.88	10	42	-1	19.91	19.91
Saccade L	1	1	12771989623	12772029386	39763	467.68	853.56	287.70	899.13	1.90	145.64	0.50	47.90	3533.14	-2712.21	2039.15
Saccade R	1	1	12771989623	12772029386	39763	467.68	853.56	287.70	899.13	1.90	145.64	0.50	47.90	3533.14	-2712.21	2039.15
Fixation L	1	2	12772029386	12772228239	198853	286.17	935.82	8	48	-1	19.06	19.06
Fixation R	1	2	12772029386	12772228239	198853	286.17	935.82	8	48	-1	19.70	19.70
Saccade L	1	2	12772228239	12772287985	59746	286.66	947.76	476.28	669.58	3.75	159.32	0.67	62.75	3885.07	-3617.59	2549.49
Saccade R	1	2	12772228239	12772287985	59746	286.66	947.76	476.28	669.58	3.75	159.32	0.67	62.75	3885.07	-3617.59	2549.49
Fixation L	1	3	12772287985	12772725467	437482	487.17	678.64	26	15	-1	19.97	19.97
Fixation R	1	3	12772287985	12772725467	437482	487.17	678.64	26	15	-1	20.02	20.02
Saccade L	1	3	12772725467	12772765340	39873	497.44	682.23	686.61	684.42	1.63	124.03	1.00	40.78	3014.65	-3064.54	2308.37
Saccade R	1	3	12772725467	12772765340	39873	497.44	682.23	686.61	684.42	1.63	124.03	1.00	40.78	3014.65	-3064.54	2308.37
Fixation L	1	4	12772765340	12773123313	357973	690.67	686.36	71	20	-1	20.17	20.17
Fixation R	1	4	12772765340	12773123313	357973	690.67	686.36	71	20	-1	20.19	20.19
Saccade L	1	4	12773123313	12773143191	19878	756.14	695.43	792.75	701.63	0.56	69.31	0.00	28.38	809.58	-1695.78	1113.41
Saccade R	1	4	12773123313	12773143191	19878	756.14	695.43	792.75	701.63	0.56	69.31	0.00	28.38	809.58	-1695.78	1113.41
Fixation L	1	5	12773143191	12773302296	159105	794.47	700.13	3	8	-1	17.90	17.90
Fixation R	1	5	12773143191	12773739899	596708	794.46	708.85	11	44	-1	20.16	20.16
Fixation L	1	6	12773322167	12773739899	417732	794.46	712.42	11	44	-1	12.00	12.05
