[BeGaze]
Converted from:	C:\Documents and Settings\iViewX\Desktop\EXPERIMENTATIONS\Experiments\results\finaleart\S6124332-finaleart-1.idf
Date:	27.03.2019 15:35:46
Version:	BeGaze 2.5.77
Sample Rate:	50
Subject:	S6124332
Description:	Romain Ferrand

Table Header for Fixations:
Event Type	Trial	Number	Start	End	Duration	Location X	Location Y	Dispersion X	Dispersion Y	Plane	Avg. Pupil Size X	Avg. Pupil Size Y

Table Header for Saccades:
Event Type	Trial	Number	Start	End	Duration	Start Loc.X	Start Loc.Y	End Loc.X	End Loc.Y	Amplitude	Peak Speed	Peak Speed At	Average Speed	Peak Accel.	Peak Decel.	Average Accel.

Table Header for Blinks:
Event Type	Trial	Number	Start	End	Duration

Table Header for User Events:
Event Type	Trial	Number	Start	Description

UserEvent	1	1	11592501754	# Message: goya-Bodegón-con-salmón-1812.jpg
Fixation L	1	1	11592509638	11593046723	537085	901.83	621.76	32	12	-1	18.06	18.06
Fixation R	1	1	11592509638	11593046723	537085	901.83	621.76	32	12	-1	17.09	17.09
Saccade L	1	1	11593046723	11593066596	19873	884.68	628.16	801.93	633.35	0.60	83.87	1.00	30.12	1960.77	-2020.10	1390.26
Saccade R	1	1	11593046723	11593066596	19873	884.68	628.16	801.93	633.35	0.60	83.87	1.00	30.12	1960.77	-2020.10	1390.26
Fixation L	1	2	11593066596	11593464461	397865	779.15	661.51	45	49	-1	18.90	18.90
Fixation R	1	2	11593066596	11593464461	397865	779.15	661.51	45	49	-1	17.55	17.55
Saccade L	1	2	11593464461	11593524076	59615	756.52	683.04	1223.00	687.98	4.80	198.49	0.67	80.50	4906.71	-4914.93	3348.01
Saccade R	1	2	11593464461	11593524076	59615	756.52	683.04	1223.00	687.98	4.80	198.49	0.67	80.50	4906.71	-4914.93	3348.01
Fixation L	1	3	11593524076	11594001408	477332	1215.79	694.39	55	44	-1	19.14	19.14
Fixation R	1	3	11593524076	11594001408	477332	1215.79	694.39	55	44	-1	16.30	16.30
Saccade L	1	3	11594001408	11594100907	99499	1177.57	693.05	1045.42	625.12	2.35	86.02	0.80	23.63	2045.74	-1869.14	956.74
Saccade R	1	3	11594001408	11594100907	99499	1177.57	693.05	1045.42	625.12	2.35	86.02	0.80	23.63	2045.74	-1869.14	956.74
Fixation L	1	4	11594100907	11594299787	198880	1036.88	604.36	19	38	-1	19.96	19.96
Fixation R	1	4	11594100907	11594299787	198880	1036.88	604.36	19	38	-1	18.02	18.02
Saccade L	1	4	11594299787	11594319641	19854	1031.09	595.97	985.04	583.64	0.51	48.22	1.00	25.64	1160.44	-803.63	936.39
Saccade R	1	4	11594299787	11594319641	19854	1031.09	595.97	985.04	583.64	0.51	48.22	1.00	25.64	1160.44	-803.63	936.39
Fixation L	1	5	11594319641	11594856742	537101	931.87	572.88	67	27	-1	19.87	19.87
Fixation R	1	5	11594319641	11594856742	537101	931.87	572.88	67	27	-1	18.57	18.57
Saccade L	1	5	11594856742	11594936234	79492	918.03	588.54	455.15	852.15	6.40	313.35	0.50	80.56	7762.60	-6922.57	3944.93
Saccade R	1	5	11594856742	11594936234	79492	918.03	588.54	455.15	852.15	6.40	313.35	0.50	80.56	7762.60	-6922.57	3944.93
Fixation L	1	6	11594936234	11595035730	99496	436.46	870.67	32	31	-1	20.04	20.04
Fixation R	1	6	11594936234	11595035730	99496	436.46	870.67	32	31	-1	19.15	19.15
Saccade L	1	6	11595035730	11595055611	19881	422.97	883.25	314.48	976.20	0.83	144.49	1.00	41.50	3498.35	-3454.72	2342.50
Saccade R	1	6	11595035730	11595055611	19881	422.97	883.25	314.48	976.20	0.83	144.49	1.00	41.50	3498.35	-3454.72	2342.50
Fixation L	1	7	11595055611	11595274340	218729	320.08	990.97	16	22	-1	19.93	19.93
Fixation R	1	7	11595055611	11595274340	218729	320.08	990.97	16	22	-1	19.17	19.17
Saccade L	1	7	11595274340	11595314095	39755	329.90	999.17	509.65	847.38	2.21	167.79	0.50	55.51	4171.70	-3959.44	3127.57
Saccade R	1	7	11595274340	11595314095	39755	329.90	999.17	509.65	847.38	2.21	167.79	0.50	55.51	4171.70	-3959.44	3127.57
Fixation L	1	8	11595314095	11595910809	596714	535.48	851.72	62	33	-1	20.59	20.59
Fixation R	1	8	11595314095	11595910809	596714	535.48	851.72	62	33	-1	19.86	19.86
Saccade L	1	8	11595910809	11595950680	39871	568.62	871.05	822.61	826.74	2.24	201.46	0.50	56.10	5012.21	-4816.27	3209.23
Saccade R	1	8	11595910809	11595950680	39871	568.62	871.05	822.61	826.74	2.24	201.46	0.50	56.10	5012.21	-4816.27	3209.23
Fixation L	1	9	11595950680	11596328516	377836	832.02	807.46	14	33	-1	21.45	21.45
Fixation R	1	9	11595950680	11596328516	377836	832.02	807.46	14	33	-1	20.42	20.42
Saccade L	1	9	11596328516	11596368276	39760	836.77	818.98	1153.40	736.04	2.91	202.38	0.50	73.20	4969.79	-4727.67	4004.22
Saccade R	1	9	11596328516	11596368276	39760	836.77	818.98	1153.40	736.04	2.91	202.38	0.50	73.20	4969.79	-4727.67	4004.22
Fixation L	1	10	11596368276	11596487636	119360	1154.12	746.57	19	31	-1	20.35	20.35
Fixation R	1	10	11596368276	11596487636	119360	1154.12	746.57	19	31	-1	18.72	18.72
