[BeGaze]
Converted from:	C:\Documents and Settings\iViewX\Desktop\EXPERIMENTATIONS\Experiments\results\finaleart\S6124332-finaleart-1.idf
Date:	27.03.2019 15:36:12
Version:	BeGaze 2.5.77
Sample Rate:	50
Subject:	S6124332
Description:	Romain Ferrand

Table Header for Fixations:
Event Type	Trial	Number	Start	End	Duration	Location X	Location Y	Dispersion X	Dispersion Y	Plane	Avg. Pupil Size X	Avg. Pupil Size Y

Table Header for Saccades:
Event Type	Trial	Number	Start	End	Duration	Start Loc.X	Start Loc.Y	End Loc.X	End Loc.Y	Amplitude	Peak Speed	Peak Speed At	Average Speed	Peak Accel.	Peak Decel.	Average Accel.

Table Header for Blinks:
Event Type	Trial	Number	Start	End	Duration

Table Header for User Events:
Event Type	Trial	Number	Start	Description

UserEvent	1	1	12507434983	# Message: void.jpg
Fixation L	1	1	12507441966	12507700563	258597	509.46	245.98	24	67	-1	17.38	17.38
Fixation R	1	1	12507441966	12507700563	258597	509.46	245.98	24	67	-1	17.17	17.17
Saccade L	1	1	12507700563	12507720452	19889	509.38	219.65	505.54	114.67	0.74	106.26	1.00	37.18	2444.57	-2281.19	1840.22
Saccade R	1	1	12507700563	12507720452	19889	509.38	219.65	505.54	114.67	0.74	106.26	1.00	37.18	2444.57	-2281.19	1840.22
Fixation L	1	2	12507720452	12508038669	318217	510.89	125.47	17	49	-1	16.84	16.84
Fixation R	1	2	12507720452	12508038669	318217	510.89	125.47	17	49	-1	16.59	16.59
Blink L	1	1	12508038669	12508138171	99502
Blink R	1	1	12508038669	12508138171	99502
Blink L	1	2	12508158141	12508376798	218657
Blink R	1	2	12508158141	12508376798	218657
Saccade L	1	2	12508376798	12508476267	99469	1079.00	791.40	1017.41	997.82	3.44	121.97	1.00	34.61	2624.88	-2622.22	1076.61
Saccade R	1	2	12508376798	12508476267	99469	1079.00	791.40	1017.41	997.82	3.44	121.97	1.00	34.61	2624.88	-2622.22	1076.61
Fixation L	1	3	12508476267	12508714883	238616	992.79	977.67	35	39	-1	18.19	18.19
Fixation R	1	3	12508476267	12508714883	238616	992.79	977.67	35	39	-1	17.12	17.12
Saccade L	1	3	12508714883	12508814382	99499	983.02	958.77	975.23	651.47	4.38	152.99	0.80	43.99	3479.98	-3646.41	2086.86
Saccade R	1	3	12508714883	12508814382	99499	983.02	958.77	975.23	651.47	4.38	152.99	0.80	43.99	3479.98	-3646.41	2086.86
Fixation L	1	4	12508814382	12509430959	616577	951.90	662.88	58	35	-1	17.89	17.89
Fixation R	1	4	12508814382	12509430959	616577	951.90	662.88	58	35	-1	15.99	15.99
