[BeGaze]
Converted from:	C:\Documents and Settings\iViewX\Desktop\EXPERIMENTATIONS\Experiments\results\finaleart\S6124332-finaleart-1.idf
Date:	27.03.2019 15:35:39
Version:	BeGaze 2.5.77
Sample Rate:	50
Subject:	S6124332
Description:	Romain Ferrand

Table Header for Fixations:
Event Type	Trial	Number	Start	End	Duration	Location X	Location Y	Dispersion X	Dispersion Y	Plane	Avg. Pupil Size X	Avg. Pupil Size Y

Table Header for Saccades:
Event Type	Trial	Number	Start	End	Duration	Start Loc.X	Start Loc.Y	End Loc.X	End Loc.Y	Amplitude	Peak Speed	Peak Speed At	Average Speed	Peak Accel.	Peak Decel.	Average Accel.

Table Header for Blinks:
Event Type	Trial	Number	Start	End	Duration

Table Header for User Events:
Event Type	Trial	Number	Start	Description

UserEvent	1	1	11469793198	# Message: Rochers_Sur_La_Cote_A_Agay_Guillaumin_1907.jpg
Fixation L	1	1	11469809791	11470227411	417620	1046.50	798.32	9	37	-1	20.09	20.09
Fixation R	1	1	11469809791	11470227411	417620	1046.50	798.32	9	37	-1	19.95	19.95
Saccade L	1	1	11470227411	11470267142	39731	1045.85	782.53	962.81	586.03	2.26	136.42	0.50	56.90	3311.47	-2573.94	2358.93
Saccade R	1	1	11470227411	11470267142	39731	1045.85	782.53	962.81	586.03	2.26	136.42	0.50	56.90	3311.47	-2573.94	2358.93
Fixation L	1	2	11470267142	11470426377	159235	971.89	585.38	32	8	-1	19.17	19.17
Fixation R	1	2	11470267142	11470426377	159235	971.89	585.38	32	8	-1	19.16	19.16
Saccade L	1	2	11470426377	11470446240	19863	966.99	584.07	963.80	485.57	0.59	99.69	1.00	29.53	2421.75	-2193.20	1611.94
Saccade R	1	2	11470426377	11470446240	19863	966.99	584.07	963.80	485.57	0.59	99.69	1.00	29.53	2421.75	-2193.20	1611.94
Fixation L	1	3	11470446240	11470625238	178998	962.55	462.88	3	34	-1	17.13	17.13
Fixation R	1	3	11470446240	11470625238	178998	962.55	462.88	3	34	-1	17.26	17.26
Saccade L	1	3	11470625238	11470645102	19864	962.08	458.41	966.42	350.95	0.85	108.79	1.00	42.90	2663.43	-2456.13	2161.40
Saccade R	1	3	11470625238	11470645102	19864	962.08	458.41	966.42	350.95	0.85	108.79	1.00	42.90	2663.43	-2456.13	2161.40
Fixation L	1	4	11470645102	11470744605	99503	994.72	313.63	43	52	-1	15.98	15.98
Fixation R	1	4	11470645102	11470744605	99503	994.72	313.63	43	52	-1	16.11	16.11
Saccade L	1	4	11470744605	11470764481	19876	1009.72	310.34	1015.26	313.88	0.13	9.69	1.00	6.65	146.73	-32.49	61.34
Saccade R	1	4	11470744605	11470764481	19876	1009.72	310.34	1015.26	313.88	0.13	9.69	1.00	6.65	146.73	-32.49	61.34
Fixation L	1	5	11470764481	11470963350	198869	1019.81	320.66	14	82	-1	15.82	15.82
Fixation R	1	5	11470764481	11470963350	198869	1019.81	320.66	14	82	-1	15.65	15.65
Saccade L	1	5	11470963350	11471122463	159113	1029.57	384.49	437.62	521.30	11.00	261.44	0.88	69.16	6196.47	-6236.96	2614.78
Saccade R	1	5	11470963350	11471122463	159113	1029.57	384.49	437.62	521.30	11.00	261.44	0.88	69.16	6196.47	-6236.96	2614.78
Fixation L	1	6	11471122463	11471440702	318239	451.68	532.63	21	31	-1	15.16	15.16
Fixation R	1	6	11471122463	11471440702	318239	451.68	532.63	21	31	-1	15.75	15.75
Saccade L	1	6	11471440702	11471480437	39735	459.61	550.90	459.02	331.64	1.84	126.69	1.00	46.26	2978.16	-3142.19	2707.77
Saccade R	1	6	11471440702	11471480437	39735	459.61	550.90	459.02	331.64	1.84	126.69	1.00	46.26	2978.16	-3142.19	2707.77
Fixation L	1	7	11471480437	11471599811	119374	451.35	328.99	36	61	-1	15.06	15.06
Fixation R	1	7	11471480437	11471599811	119374	451.35	328.99	36	61	-1	15.79	15.79
Saccade L	1	7	11471599811	11471619683	19872	422.87	281.86	412.90	189.70	0.86	93.76	1.00	43.06	2300.84	-1911.88	1911.14
Saccade R	1	7	11471599811	11471619683	19872	422.87	281.86	412.90	189.70	0.86	93.76	1.00	43.06	2300.84	-1911.88	1911.14
Fixation L	1	8	11471619683	11472037403	417720	414.47	219.63	32	66	-1	15.11	15.11
Fixation R	1	8	11471619683	11472037403	417720	414.47	219.63	32	66	-1	16.35	16.35
Saccade L	1	8	11472037403	11472296012	258609	431.86	251.13	1261.06	1034.75	21.90	242.91	0.62	84.69	5250.83	-3431.11	1857.35
Saccade R	1	8	11472037403	11472296012	258609	431.86	251.13	1261.06	1034.75	21.90	242.91	0.62	84.69	5250.83	-3431.11	1857.35
Fixation L	1	9	11472296012	11472614250	318238	1236.59	1034.78	29	55	-1	16.09	16.09
Fixation R	1	9	11472296012	11472614250	318238	1236.59	1034.78	29	55	-1	16.78	16.78
Saccade L	1	9	11472614250	11472634123	19873	1254.58	992.22	1255.60	924.22	0.70	68.80	1.00	35.08	1680.08	-1499.51	1486.88
Saccade R	1	9	11472614250	11472634123	19873	1254.58	992.22	1255.60	924.22	0.70	68.80	1.00	35.08	1680.08	-1499.51	1486.88
Fixation L	1	10	11472634123	11473091591	457468	1266.87	921.52	16	18	-1	15.98	15.98
Fixation R	1	10	11472634123	11473091591	457468	1266.87	921.52	16	18	-1	16.91	16.91
Saccade L	1	10	11473091591	11473151220	59629	1271.81	916.09	839.40	828.58	4.75	175.42	0.67	79.71	4358.75	-3772.29	3122.32
Saccade R	1	10	11473091591	11473151220	59629	1271.81	916.09	839.40	828.58	4.75	175.42	0.67	79.71	4358.75	-3772.29	3122.32
Fixation L	1	11	11473151220	11473568937	417717	840.20	797.79	3	45	-1	17.31	17.31
Fixation R	1	11	11473151220	11473568937	417717	840.20	797.79	3	45	-1	17.54	17.54
Saccade L	1	11	11473568937	11473588814	19877	838.87	791.10	726.64	692.04	0.84	151.40	1.00	42.48	3780.38	-3737.81	2621.76
Saccade R	1	11	11473568937	11473588814	19877	838.87	791.10	726.64	692.04	0.84	151.40	1.00	42.48	3780.38	-3737.81	2621.76
Fixation L	1	12	11473588814	11473728042	139228	719.51	676.15	9	23	-1	17.05	17.05
Fixation R	1	12	11473588814	11473728042	139228	719.51	676.15	9	23	-1	17.33	17.33
Saccade L	1	12	11473728042	11473787682	59640	720.22	674.36	1127.87	524.16	5.61	202.44	0.67	94.04	5017.03	-1131.64	2481.27
Saccade R	1	12	11473728042	11473787682	59640	720.22	674.36	1127.87	524.16	5.61	202.44	0.67	94.04	5017.03	-1131.64	2481.27
