[BeGaze]
Converted from:	C:\Documents and Settings\iViewX\Desktop\EXPERIMENTATIONS\Experiments\results\finaleart\S6124332-finaleart-1.idf
Date:	27.03.2019 15:36:00
Version:	BeGaze 2.5.77
Sample Rate:	50
Subject:	S6124332
Description:	Romain Ferrand

Table Header for Fixations:
Event Type	Trial	Number	Start	End	Duration	Location X	Location Y	Dispersion X	Dispersion Y	Plane	Avg. Pupil Size X	Avg. Pupil Size Y

Table Header for Saccades:
Event Type	Trial	Number	Start	End	Duration	Start Loc.X	Start Loc.Y	End Loc.X	End Loc.Y	Amplitude	Peak Speed	Peak Speed At	Average Speed	Peak Accel.	Peak Decel.	Average Accel.

Table Header for Blinks:
Event Type	Trial	Number	Start	End	Duration

Table Header for User Events:
Event Type	Trial	Number	Start	Description

UserEvent	1	1	12069809766	# Message: cows_at_a_pond_Bilders_1856.jpg
Fixation L	1	1	12069826098	12070243846	417748	1027.73	807.73	18	43	-1	19.58	19.58
Fixation R	1	1	12069826098	12070243846	417748	1027.73	807.73	18	43	-1	18.64	18.64
Saccade L	1	1	12070243846	12070263704	19858	1013.69	823.46	862.40	735.43	1.05	177.02	1.00	52.90	4369.51	-4252.13	2885.98
Saccade R	1	1	12070243846	12070263704	19858	1013.69	823.46	862.40	735.43	1.05	177.02	1.00	52.90	4369.51	-4252.13	2885.98
Fixation L	1	2	12070263704	12070462557	198853	833.89	727.15	42	23	-1	19.52	19.52
Fixation R	1	2	12070263704	12070462557	198853	833.89	727.15	42	23	-1	18.54	18.54
Saccade L	1	2	12070462557	12070482428	19871	820.22	714.44	757.48	705.85	0.38	64.06	1.00	19.34	1474.89	-1418.40	985.69
Saccade R	1	2	12070462557	12070482428	19871	820.22	714.44	757.48	705.85	0.38	64.06	1.00	19.34	1474.89	-1418.40	985.69
Fixation L	1	3	12070482428	12071039397	556969	738.20	687.89	36	55	-1	18.02	18.02
Fixation R	1	3	12070482428	12071039397	556969	738.20	687.89	36	55	-1	16.91	16.91
Saccade L	1	3	12071039397	12071059274	19877	722.23	655.52	717.45	649.73	0.13	9.48	1.00	6.79	50.21	-207.12	101.49
Saccade R	1	3	12071039397	12071059274	19877	722.23	655.52	717.45	649.73	0.13	9.48	1.00	6.79	50.21	-207.12	101.49
Fixation L	1	4	12071059274	12071775354	716080	716.85	601.27	24	74	-1	18.03	18.03
Fixation R	1	4	12071059274	12071775354	716080	716.85	601.27	24	74	-1	17.05	17.05
Saccade L	1	4	12071775354	12071834973	59619	732.46	575.16	912.82	604.43	2.05	104.03	0.67	34.35	2533.60	-2321.67	1701.69
Saccade R	1	4	12071775354	12071834973	59619	732.46	575.16	912.82	604.43	2.05	104.03	0.67	34.35	2533.60	-2321.67	1701.69
Fixation L	1	5	12071834973	12072033853	198880	920.95	624.29	13	28	-1	18.57	18.57
Fixation R	1	5	12071834973	12072033853	198880	920.95	624.29	13	28	-1	17.65	17.65
Saccade L	1	5	12072033853	12072053711	19858	926.71	632.82	1036.02	636.11	0.60	110.62	1.00	30.11	2743.63	-2621.85	1791.55
Saccade R	1	5	12072033853	12072053711	19858	926.71	632.82	1036.02	636.11	0.60	110.62	1.00	30.11	2743.63	-2621.85	1791.55
Fixation L	1	6	12072053711	12072173076	119365	1039.13	629.96	10	10	-1	18.67	18.67
Fixation R	1	6	12072053711	12072173076	119365	1039.13	629.96	10	10	-1	17.22	17.22
Saccade L	1	6	12072173076	12072212821	39745	1042.70	626.82	1409.11	620.28	3.08	222.94	1.00	77.38	5444.60	-5191.11	4436.56
Saccade R	1	6	12072173076	12072212821	39745	1042.70	626.82	1409.11	620.28	3.08	222.94	1.00	77.38	5444.60	-5191.11	4436.56
Fixation L	1	7	12072212821	12072352072	139251	1424.91	631.58	45	25	-1	18.26	18.26
Fixation R	1	7	12072212821	12072352072	139251	1424.91	631.58	45	25	-1	16.97	16.97
Saccade L	1	7	12072352072	12072371943	19871	1454.73	633.45	1588.20	614.96	1.16	136.29	1.00	58.13	3216.70	-2796.42	2107.52
Saccade R	1	7	12072352072	12072371943	19871	1454.73	633.45	1588.20	614.96	1.16	136.29	1.00	58.13	3216.70	-2796.42	2107.52
Fixation L	1	8	12072371943	12072551051	179108	1603.28	571.12	27	69	-1	18.13	18.13
Fixation R	1	8	12072371943	12072551051	179108	1603.28	571.12	27	69	-1	16.70	16.70
Saccade L	1	8	12072551051	12072570937	19886	1588.56	576.79	1485.58	563.02	0.77	105.09	1.00	38.81	2296.72	-2541.71	1620.20
Saccade R	1	8	12072551051	12072570937	19886	1588.56	576.79	1485.58	563.02	0.77	105.09	1.00	38.81	2296.72	-2541.71	1620.20
Fixation L	1	9	12072570937	12072809544	238607	1469.85	534.15	21	54	-1	18.66	18.66
Fixation R	1	9	12072570937	12072809544	238607	1469.85	534.15	21	54	-1	16.61	16.61
Saccade L	1	9	12072809544	12072829409	19865	1469.14	508.65	1474.42	459.39	0.50	50.12	1.00	25.39	1177.28	-974.79	1028.16
Saccade R	1	9	12072809544	12072829409	19865	1469.14	508.65	1474.42	459.39	0.50	50.12	1.00	25.39	1177.28	-974.79	1028.16
Fixation L	1	10	12072829409	12072928900	99491	1471.20	501.48	9	57	-1	18.30	18.30
Fixation R	1	10	12072829409	12072928900	99491	1471.20	501.48	9	57	-1	16.66	16.66
Saccade L	1	10	12072928900	12073008526	79626	1471.98	516.59	795.95	561.92	8.04	283.16	0.50	100.96	6946.45	-4600.71	3872.54
Saccade R	1	10	12072928900	12073008526	79626	1471.98	516.59	795.95	561.92	8.04	283.16	0.50	100.96	6946.45	-4600.71	3872.54
Fixation L	1	11	12073008526	12073247134	238608	798.40	572.88	20	33	-1	19.13	19.13
Fixation R	1	11	12073008526	12073247134	238608	798.40	572.88	20	33	-1	17.84	17.84
Saccade L	1	11	12073247134	12073286880	39746	813.00	560.48	482.67	565.53	3.08	181.37	0.50	77.53	3954.18	-4078.82	3750.23
Saccade R	1	11	12073247134	12073286880	39746	813.00	560.48	482.67	565.53	3.08	181.37	0.50	77.53	3954.18	-4078.82	3750.23
Fixation L	1	12	12073286880	12073565368	278488	447.93	572.20	53	25	-1	18.33	18.33
Fixation R	1	12	12073286880	12073565368	278488	447.93	572.20	53	25	-1	17.73	17.73
Saccade L	1	12	12073565368	12073605117	39749	428.93	565.97	242.76	861.66	3.33	186.12	1.00	83.85	4545.46	-4202.26	4023.12
Saccade R	1	12	12073565368	12073605117	39749	428.93	565.97	242.76	861.66	3.33	186.12	1.00	83.85	4545.46	-4202.26	4023.12
Fixation L	1	13	12073605117	12073804112	198995	224.23	908.76	24	63	-1	17.65	17.65
Fixation R	1	13	12073605117	12073804112	198995	224.23	908.76	24	63	-1	17.86	17.86
