[BeGaze]
Converted from:	C:\Documents and Settings\iViewX\Desktop\EXPERIMENTATIONS\Experiments\results\finaleart\S6124332-finaleart-1.idf
Date:	27.03.2019 15:35:55
Version:	BeGaze 2.5.77
Sample Rate:	50
Subject:	S6124332
Description:	Romain Ferrand

Table Header for Fixations:
Event Type	Trial	Number	Start	End	Duration	Location X	Location Y	Dispersion X	Dispersion Y	Plane	Avg. Pupil Size X	Avg. Pupil Size Y

Table Header for Saccades:
Event Type	Trial	Number	Start	End	Duration	Start Loc.X	Start Loc.Y	End Loc.X	End Loc.Y	Amplitude	Peak Speed	Peak Speed At	Average Speed	Peak Accel.	Peak Decel.	Average Accel.

Table Header for Blinks:
Event Type	Trial	Number	Start	End	Duration

Table Header for User Events:
Event Type	Trial	Number	Start	Description

UserEvent	1	1	11975475908	# Message: void.jpg
Fixation L	1	1	11975488912	11975648023	159111	290.75	1114.56	77	11	-1	17.84	17.84
Fixation R	1	1	11975488912	11975648023	159111	290.75	1114.56	77	11	-1	18.68	18.68
Saccade L	1	1	11975648023	11975667895	19872	356.59	1123.39	396.12	1114.55	0.60	75.10	0.00	30.00	952.82	-1851.41	1200.50
Saccade R	1	1	11975648023	11975667895	19872	356.59	1123.39	396.12	1114.55	0.60	75.10	0.00	30.00	952.82	-1851.41	1200.50
Fixation L	1	2	11975667895	11975926502	258607	389.64	1113.72	18	9	-1	18.11	18.11
Fixation R	1	2	11975667895	11975926502	258607	389.64	1113.72	18	9	-1	18.76	18.76
Saccade L	1	2	11975926502	11975986127	59625	397.78	1114.00	822.99	868.56	5.54	200.62	0.33	92.98	4984.02	-3356.35	3210.78
Saccade R	1	2	11975926502	11975986127	59625	397.78	1114.00	822.99	868.56	5.54	200.62	0.33	92.98	4984.02	-3356.35	3210.78
Fixation L	1	3	11975986127	11976443620	457493	834.95	815.25	21	77	-1	17.33	17.33
Fixation R	1	3	11975986127	11976443620	457493	834.95	815.25	21	77	-1	16.98	16.98
Saccade L	1	3	11976443620	11976463615	19995	839.23	790.61	840.98	791.36	0.03	1.93	1.00	1.51	25.99	-1.29	12.97
Saccade R	1	3	11976443620	11976463615	19995	839.23	790.61	840.98	791.36	0.03	1.93	1.00	1.51	25.99	-1.29	12.97
Fixation L	1	4	11976463615	11977477934	1014319	841.41	808.26	8	28	-1	17.22	17.22
Fixation R	1	4	11976463615	11977477934	1014319	841.41	808.26	8	28	-1	16.71	16.71
