[BeGaze]
Converted from:	C:\Documents and Settings\iViewX\Desktop\EXPERIMENTATIONS\Experiments\results\finaleart\S6124332-finaleart-1.idf
Date:	27.03.2019 15:36:27
Version:	BeGaze 2.5.77
Sample Rate:	50
Subject:	S6124332
Description:	Romain Ferrand

Table Header for Fixations:
Event Type	Trial	Number	Start	End	Duration	Location X	Location Y	Dispersion X	Dispersion Y	Plane	Avg. Pupil Size X	Avg. Pupil Size Y

Table Header for Saccades:
Event Type	Trial	Number	Start	End	Duration	Start Loc.X	Start Loc.Y	End Loc.X	End Loc.Y	Amplitude	Peak Speed	Peak Speed At	Average Speed	Peak Accel.	Peak Decel.	Average Accel.

Table Header for Blinks:
Event Type	Trial	Number	Start	End	Duration

Table Header for User Events:
Event Type	Trial	Number	Start	Description

UserEvent	1	1	12859676796	# Message: Le_Puy_In_The_Snow_Dubois-Pillet_1889.jpg
Fixation L	1	1	12859683592	12860160936	477344	1023.66	425.69	13	37	-1	19.94	19.94
Fixation R	1	1	12859683592	12860160936	477344	1023.66	425.69	13	37	-1	18.59	18.59
Saccade L	1	1	12860160936	12860200698	39762	1015.85	443.97	692.59	625.04	3.24	212.53	0.50	81.46	5254.35	-4744.90	4550.66
Saccade R	1	1	12860160936	12860200698	39762	1015.85	443.97	692.59	625.04	3.24	212.53	0.50	81.46	5254.35	-4744.90	4550.66
Fixation L	1	2	12860200698	12860339924	139226	689.38	657.66	11	49	-1	18.93	18.93
Fixation R	1	2	12860200698	12860339924	139226	689.38	657.66	11	49	-1	17.12	17.12
Saccade L	1	2	12860339924	12860379672	39748	683.20	674.11	507.06	688.65	1.74	109.74	1.00	43.71	2629.78	-2302.53	1879.77
Saccade R	1	2	12860339924	12860379672	39748	683.20	674.11	507.06	688.65	1.74	109.74	1.00	43.71	2629.78	-2302.53	1879.77
Fixation L	1	3	12860379672	12861056006	676334	496.79	719.05	20	47	-1	16.02	16.02
Fixation R	1	3	12860379672	12861056006	676334	496.79	719.05	20	47	-1	15.25	15.25
Saccade L	1	3	12861056006	12861135502	79496	497.11	733.55	1345.69	500.58	10.62	311.65	0.50	133.62	7716.07	-5557.10	4528.96
Saccade R	1	3	12861056006	12861135502	79496	497.11	733.55	1345.69	500.58	10.62	311.65	0.50	133.62	7716.07	-5557.10	4528.96
Fixation L	1	4	12861135502	12861493481	357979	1325.91	526.80	26	50	-1	15.65	15.65
Fixation R	1	4	12861135502	12861493481	357979	1325.91	526.80	26	50	-1	14.66	14.66
Saccade L	1	4	12861493481	12861513487	20006	1319.42	550.98	1314.99	626.72	0.64	76.75	1.00	31.74	1764.42	-1657.26	1216.39
Saccade R	1	4	12861493481	12861513487	20006	1319.42	550.98	1314.99	626.72	0.64	76.75	1.00	31.74	1764.42	-1657.26	1216.39
Fixation L	1	5	12861513487	12861692477	178990	1298.06	650.63	29	31	-1	15.62	15.62
Fixation R	1	5	12861513487	12861692477	178990	1298.06	650.63	29	31	-1	14.28	14.28
Saccade L	1	5	12861692477	12861712341	19864	1285.86	656.98	1197.54	659.03	0.89	89.36	1.00	44.79	2172.54	-2173.16	2130.47
Saccade R	1	5	12861692477	12861712341	19864	1285.86	656.98	1197.54	659.03	0.89	89.36	1.00	44.79	2172.54	-2173.16	2130.47
Fixation L	1	6	12861712341	12861811708	99367	1125.71	659.80	87	3	-1	15.90	15.90
Fixation R	1	6	12861712341	12861811708	99367	1125.71	659.80	87	3	-1	14.50	14.50
Saccade L	1	6	12861811708	12861831715	20007	1110.18	660.15	1130.67	646.48	0.26	24.92	1.00	12.98	562.33	-21.37	372.85
Saccade R	1	6	12861811708	12861831715	20007	1110.18	660.15	1130.67	646.48	0.26	24.92	1.00	12.98	562.33	-21.37	372.85
Fixation L	1	7	12861831715	12861931081	99366	1148.82	622.49	30	45	-1	15.90	15.90
Fixation R	1	7	12861831715	12861931081	99366	1148.82	622.49	30	45	-1	14.58	14.58
Saccade L	1	7	12861931081	12861990831	59750	1161.58	601.36	823.77	625.96	3.72	180.31	0.67	62.31	4184.78	-4342.63	2466.93
Saccade R	1	7	12861931081	12861990831	59750	1161.58	601.36	823.77	625.96	3.72	180.31	0.67	62.31	4184.78	-4342.63	2466.93
Fixation L	1	8	12861990831	12862209559	218728	821.30	632.20	12	33	-1	15.92	15.92
Fixation R	1	8	12861990831	12862209559	218728	821.30	632.20	12	33	-1	14.95	14.95
Saccade L	1	8	12862209559	12862229435	19876	827.91	647.46	949.68	643.91	0.78	123.22	1.00	39.10	2841.28	-2956.66	2025.09
Saccade R	1	8	12862209559	12862229435	19876	827.91	647.46	949.68	643.91	0.78	123.22	1.00	39.10	2841.28	-2956.66	2025.09
Fixation L	1	9	12862229435	12862667029	437594	968.68	641.12	33	66	-1	16.08	16.08
Fixation R	1	9	12862229435	12862667029	437594	968.68	641.12	33	66	-1	14.95	14.95
Saccade L	1	9	12862667029	12862806292	139263	982.74	587.51	677.20	595.61	6.00	238.33	0.86	43.05	5638.85	-5537.25	1738.65
Saccade R	1	9	12862667029	12862806292	139263	982.74	587.51	677.20	595.61	6.00	238.33	0.86	43.05	5638.85	-5537.25	1738.65
Fixation L	1	10	12862806292	12863064754	258462	652.24	607.98	31	32	-1	15.59	15.59
Fixation R	1	10	12862806292	12863064754	258462	652.24	607.98	31	32	-1	14.72	14.72
Saccade L	1	10	12863064754	12863104632	39878	647.99	622.17	402.06	558.50	2.29	134.65	0.50	57.32	3300.23	-3021.03	3098.43
Saccade R	1	10	12863064754	12863104632	39878	647.99	622.17	402.06	558.50	2.29	134.65	0.50	57.32	3300.23	-3021.03	3098.43
Fixation L	1	11	12863104632	12863243876	139244	390.55	555.14	16	28	-1	15.77	15.77
Fixation R	1	11	12863104632	12863243876	139244	390.55	555.14	16	28	-1	15.19	15.19
Saccade L	1	11	12863243876	12863263746	19870	390.23	564.87	277.64	533.21	0.85	118.30	1.00	42.98	2711.18	-2530.48	2032.73
Saccade R	1	11	12863243876	12863263746	19870	390.23	564.87	277.64	533.21	0.85	118.30	1.00	42.98	2711.18	-2530.48	2032.73
Fixation L	1	12	12863263746	12863562119	298373	290.19	513.78	23	36	-1	16.08	16.08
Fixation R	1	12	12863263746	12863562119	298373	290.19	513.78	23	36	-1	15.89	15.89
Saccade L	1	12	12863562119	12863681355	119236	300.73	511.44	490.67	420.68	3.82	142.04	0.17	32.00	3527.92	-3216.56	1522.36
Saccade R	1	12	12863562119	12863681355	119236	300.73	511.44	490.67	420.68	3.82	142.04	0.17	32.00	3527.92	-3216.56	1522.36
