[BeGaze]
Converted from:	C:\Documents and Settings\iViewX\Desktop\EXPERIMENTATIONS\Experiments\results\finaleart\S6124332-finaleart-1.idf
Date:	27.03.2019 15:36:00
Version:	BeGaze 2.5.77
Sample Rate:	50
Subject:	S6124332
Description:	Romain Ferrand

Table Header for Fixations:
Event Type	Trial	Number	Start	End	Duration	Location X	Location Y	Dispersion X	Dispersion Y	Plane	Avg. Pupil Size X	Avg. Pupil Size Y

Table Header for Saccades:
Event Type	Trial	Number	Start	End	Duration	Start Loc.X	Start Loc.Y	End Loc.X	End Loc.Y	Amplitude	Peak Speed	Peak Speed At	Average Speed	Peak Accel.	Peak Decel.	Average Accel.

Table Header for Blinks:
Event Type	Trial	Number	Start	End	Duration

Table Header for User Events:
Event Type	Trial	Number	Start	Description

UserEvent	1	1	12063688194	# Message: The_Joy_Of_Life_Matisse_1906.jpg
Fixation L	1	1	12063700093	12063998446	298353	736.09	934.34	9	10	-1	18.64	18.64
Fixation R	1	1	12063700093	12063998446	298353	736.09	934.34	9	10	-1	17.72	17.72
Saccade L	1	1	12063998446	12064018322	19876	743.76	932.52	824.92	927.04	0.57	82.29	1.00	28.53	1979.58	-1806.56	1338.67
Saccade R	1	1	12063998446	12064018322	19876	743.76	932.52	824.92	927.04	0.57	82.29	1.00	28.53	1979.58	-1806.56	1338.67
Fixation L	1	2	12064018322	12064177438	159116	824.98	916.51	74	22	-1	18.83	18.83
Fixation R	1	2	12064018322	12064177438	159116	824.98	916.51	74	22	-1	17.70	17.70
Saccade L	1	2	12064177438	12064217187	39749	881.26	904.90	1154.52	709.07	3.38	209.10	0.50	84.95	5186.50	-4761.88	3755.75
Saccade R	1	2	12064177438	12064217187	39749	881.26	904.90	1154.52	709.07	3.38	209.10	0.50	84.95	5186.50	-4761.88	3755.75
Fixation L	1	3	12064217187	12064615031	397844	1152.43	720.31	41	54	-1	16.11	16.11
Fixation R	1	3	12064217187	12064615031	397844	1152.43	720.31	41	54	-1	15.02	15.02
Saccade L	1	3	12064615031	12064634903	19872	1164.78	685.78	1162.80	663.36	0.46	32.96	1.00	23.10	-254.68	-375.27	308.53
Saccade R	1	3	12064615031	12064634903	19872	1164.78	685.78	1162.80	663.36	0.46	32.96	1.00	23.10	-254.68	-375.27	308.53
Fixation L	1	4	12064634903	12064833771	198868	1180.17	653.45	24	13	-1	14.75	14.75
Fixation R	1	4	12064634903	12064833771	198868	1180.17	653.45	24	13	-1	14.14	14.14
Saccade L	1	4	12064833771	12064873521	39750	1187.25	649.87	1487.84	580.59	2.60	175.12	1.00	65.35	4362.91	-4276.09	3784.06
Saccade R	1	4	12064833771	12064873521	39750	1187.25	649.87	1487.84	580.59	2.60	175.12	1.00	65.35	4362.91	-4276.09	3784.06
Fixation L	1	5	12064873521	12065171881	298360	1478.41	570.44	16	81	-1	14.14	14.14
Fixation R	1	5	12064873521	12065171881	298360	1478.41	570.44	16	81	-1	13.73	13.73
Saccade L	1	5	12065171881	12065191745	19864	1471.57	543.03	1467.41	543.54	0.15	11.20	1.00	7.42	106.36	-76.36	63.84
Saccade R	1	5	12065171881	12065191745	19864	1471.57	543.03	1467.41	543.54	0.15	11.20	1.00	7.42	106.36	-76.36	63.84
Fixation L	1	6	12065191745	12065430481	238736	1460.51	535.97	14	13	-1	14.39	14.39
Fixation R	1	6	12065191745	12065430481	238736	1460.51	535.97	14	13	-1	13.85	13.85
Saccade L	1	6	12065430481	12065470225	39744	1458.38	543.76	1493.87	829.18	2.70	185.32	1.00	67.96	4565.47	-4287.28	3254.17
Blink R	1	1	12065430481	12065509989	79508
Fixation L	1	7	12065470225	12065629342	159117	1480.80	885.59	17	79	-1	15.19	15.19
Fixation R	1	7	12065509989	12065708960	198971	1478.62	900.44	9	47	-1	13.95	13.95
Saccade L	1	7	12065629342	12065748715	119373	1479.37	904.64	1264.46	915.32	4.31	120.32	0.83	36.12	2678.17	-2644.59	1611.09
Saccade R	1	6	12065708960	12065748715	39755	1479.49	903.49	1264.46	915.32	2.05	120.32	0.50	51.48	2678.17	-2644.59	2586.19
Fixation L	1	8	12065748715	12066007323	258608	1270.33	926.20	16	17	-1	15.05	15.05
Fixation R	1	8	12065748715	12066007323	258608	1270.33	926.20	16	17	-1	13.81	13.81
Saccade L	1	8	12066007323	12066066944	59621	1272.93	923.08	662.70	1030.38	6.35	257.20	0.67	106.46	6303.04	-6394.61	4811.71
Saccade R	1	7	12066007323	12066066944	59621	1272.93	923.08	662.70	1030.38	6.35	257.20	0.67	106.46	6303.04	-6394.61	4811.71
Fixation L	1	9	12066066944	12066206202	139258	649.01	1032.60	59	10	-1	16.28	16.28
Fixation R	1	9	12066066944	12066206202	139258	649.01	1032.60	59	10	-1	15.18	15.18
Saccade L	1	9	12066206202	12066245933	39731	602.95	1034.63	407.31	927.13	2.36	175.75	0.50	59.41	4364.27	-4312.60	2629.05
Saccade R	1	8	12066206202	12066245933	39731	602.95	1034.63	407.31	927.13	2.36	175.75	0.50	59.41	4364.27	-4312.60	2629.05
Fixation L	1	10	12066245933	12066464797	218864	395.40	915.87	17	78	-1	15.97	15.97
Fixation R	1	10	12066245933	12066464797	218864	395.40	915.87	17	78	-1	15.59	15.59
Saccade L	1	10	12066464797	12066504539	39742	390.71	848.75	395.39	544.02	3.10	165.97	0.50	77.94	4056.24	-4034.55	3310.96
Saccade R	1	9	12066464797	12066504539	39742	390.71	848.75	395.39	544.02	3.10	165.97	0.50	77.94	4056.24	-4034.55	3310.96
Fixation L	1	11	12066504539	12066683538	178999	398.44	534.15	12	55	-1	15.82	15.82
Fixation R	1	11	12066504539	12066683538	178999	398.44	534.15	12	55	-1	15.66	15.66
Saccade L	1	11	12066683538	12066703413	19875	393.48	550.21	331.57	555.56	0.71	62.86	1.00	35.71	1515.79	-1348.78	1229.35
Saccade R	1	10	12066683538	12066703413	19875	393.48	550.21	331.57	555.56	0.71	62.86	1.00	35.71	1515.79	-1348.78	1229.35
Fixation L	1	12	12066703413	12066842652	139239	313.51	578.23	24	41	-1	15.58	15.58
Fixation R	1	12	12066703413	12066842652	139239	313.51	578.23	24	41	-1	15.50	15.50
Saccade L	1	12	12066842652	12066902258	59606	312.92	596.75	954.43	550.37	6.72	302.13	0.67	112.75	7473.05	-7234.32	4804.41
Saccade R	1	11	12066842652	12066902258	59606	312.92	596.75	954.43	550.37	6.72	302.13	0.67	112.75	7473.05	-7234.32	4804.41
Fixation L	1	13	12066902258	12067200630	298372	956.35	520.60	14	44	-1	15.92	15.92
Fixation R	1	13	12066902258	12067200630	298372	956.35	520.60	14	44	-1	15.75	15.75
Saccade L	1	13	12067200630	12067260372	59742	958.80	525.23	516.23	844.10	5.83	246.72	0.33	97.55	5966.56	-5521.89	4641.37
Saccade R	1	12	12067200630	12067260372	59742	958.80	525.23	516.23	844.10	5.83	246.72	0.33	97.55	5966.56	-5521.89	4641.37
Fixation L	1	14	12067260372	12067379608	119236	515.07	856.84	4	19	-1	16.02	16.02
Fixation R	1	14	12067260372	12067379608	119236	515.07	856.84	4	19	-1	15.98	15.98
Saccade L	1	14	12067379608	12067399619	20011	513.08	863.45	400.42	916.47	0.73	125.94	1.00	36.42	3094.69	-2880.23	2021.85
Saccade R	1	13	12067379608	12067399619	20011	513.08	863.45	400.42	916.47	0.73	125.94	1.00	36.42	3094.69	-2880.23	2021.85
Fixation L	1	15	12067399619	12067638222	238603	397.81	933.55	9	21	-1	16.27	16.27
Fixation R	1	15	12067399619	12067638222	238603	397.81	933.55	9	21	-1	16.23	16.23
Saccade L	1	15	12067638222	12067677971	39749	402.22	937.45	941.92	666.54	6.20	330.88	1.00	156.08	8209.21	0.00	5133.31
Saccade R	1	14	12067638222	12067677971	39749	402.22	937.45	941.92	666.54	6.20	330.88	1.00	156.08	8209.21	0.00	5133.31
