[BeGaze]
Converted from:	C:\Documents and Settings\iViewX\Desktop\EXPERIMENTATIONS\Experiments\results\finaleart\S6124332-finaleart-1.idf
Date:	27.03.2019 15:35:41
Version:	BeGaze 2.5.77
Sample Rate:	50
Subject:	S6124332
Description:	Romain Ferrand

Table Header for Fixations:
Event Type	Trial	Number	Start	End	Duration	Location X	Location Y	Dispersion X	Dispersion Y	Plane	Avg. Pupil Size X	Avg. Pupil Size Y

Table Header for Saccades:
Event Type	Trial	Number	Start	End	Duration	Start Loc.X	Start Loc.Y	End Loc.X	End Loc.Y	Amplitude	Peak Speed	Peak Speed At	Average Speed	Peak Accel.	Peak Decel.	Average Accel.

Table Header for Blinks:
Event Type	Trial	Number	Start	End	Duration

Table Header for User Events:
Event Type	Trial	Number	Start	Description

UserEvent	1	1	11500574312	# Message: La_Danse_Matisse_1909.jpg
Fixation L	1	1	11500579199	11501056531	477332	935.60	575.68	30	20	-1	18.24	18.24
Fixation R	1	1	11500579199	11501056531	477332	935.60	575.68	30	20	-1	17.72	17.72
Saccade L	1	1	11501056531	11501076407	19876	911.19	571.75	885.50	458.90	0.78	117.07	1.00	39.37	2841.63	-2798.04	2027.26
Saccade R	1	1	11501056531	11501076407	19876	911.19	571.75	885.50	458.90	0.78	117.07	1.00	39.37	2841.63	-2798.04	2027.26
Fixation L	1	2	11501076407	11501175890	99483	884.72	451.00	14	13	-1	17.59	17.59
Fixation R	1	2	11501076407	11501175890	99483	884.72	451.00	14	13	-1	17.30	17.30
Saccade L	1	2	11501175890	11501235514	59624	876.87	452.98	875.93	39.01	4.47	195.30	1.00	75.03	2765.39	-4713.66	2951.35
Saccade R	1	2	11501175890	11501235514	59624	876.87	452.98	875.93	39.01	4.47	195.30	1.00	75.03	2765.39	-4713.66	2951.35
Fixation L	1	3	11501235514	11501514005	278491	869.35	52.69	11	79	-1	16.26	16.26
Fixation R	1	3	11501235514	11501514005	278491	869.35	52.69	11	79	-1	15.92	15.92
Saccade L	1	3	11501514005	11501533866	19861	864.77	98.97	866.15	136.19	0.47	37.68	1.00	23.62	575.05	-800.54	613.86
Saccade R	1	3	11501514005	11501533866	19861	864.77	98.97	866.15	136.19	0.47	37.68	1.00	23.62	575.05	-800.54	613.86
Fixation L	1	4	11501533866	11501692996	159130	862.18	144.54	7	15	-1	15.51	15.51
Fixation R	1	4	11501533866	11501692996	159130	862.18	144.54	7	15	-1	15.95	15.95
Saccade L	1	4	11501692996	11501852106	159110	858.94	144.12	1370.39	8.21	11.40	192.09	0.25	71.65	4779.21	-4215.21	2074.97
Saccade R	1	4	11501692996	11501852106	159110	858.94	144.12	1370.39	8.21	11.40	192.09	0.25	71.65	4779.21	-4215.21	2074.97
Fixation L	1	5	11501852106	11502150450	298344	1373.57	18.31	15	59	-1	15.64	15.64
Fixation R	1	5	11501852106	11502150450	298344	1373.57	18.31	15	59	-1	15.82	15.82
Saccade L	1	5	11502150450	11502249956	99506	1374.01	10.69	1609.29	515.21	8.03	272.08	0.20	80.74	6433.18	-6037.99	3508.52
Saccade R	1	5	11502150450	11502249956	99506	1374.01	10.69	1609.29	515.21	8.03	272.08	0.20	80.74	6433.18	-6037.99	3508.52
Fixation L	1	6	11502249956	11502369190	119234	1589.84	523.35	67	15	-1	16.81	16.81
Fixation R	1	6	11502249956	11502369190	119234	1589.84	523.35	67	15	-1	16.22	16.22
Saccade L	1	6	11502369190	11502528313	159123	1580.14	531.15	986.13	700.32	10.32	235.32	0.75	64.86	5582.32	-4545.80	2822.11
Saccade R	1	6	11502369190	11502528313	159123	1580.14	531.15	986.13	700.32	10.32	235.32	0.75	64.86	5582.32	-4545.80	2822.11
Fixation L	1	7	11502528313	11502727307	198994	984.01	711.68	10	18	-1	18.34	18.34
Fixation R	1	7	11502528313	11502727307	198994	984.01	711.68	10	18	-1	17.67	17.67
Saccade L	1	7	11502727307	11502786912	59605	984.81	717.61	370.63	325.56	8.29	286.62	1.00	139.01	6709.58	-6622.60	5110.93
Saccade R	1	7	11502727307	11502786912	59605	984.81	717.61	370.63	325.56	8.29	286.62	1.00	139.01	6709.58	-6622.60	5110.93
Fixation L	1	8	11502786912	11502886424	99512	353.08	308.75	29	70	-1	17.42	17.42
Fixation R	1	8	11502786912	11502886424	99512	353.08	308.75	29	70	-1	17.41	17.41
Saccade L	1	8	11502886424	11503005785	119361	366.13	329.56	460.30	323.91	3.51	98.50	1.00	29.40	2060.03	-2334.66	711.80
Saccade R	1	8	11502886424	11503005785	119361	366.13	329.56	460.30	323.91	3.51	98.50	1.00	29.40	2060.03	-2334.66	711.80
Fixation L	1	9	11503005785	11503304023	298238	478.84	295.54	33	40	-1	16.80	16.80
Fixation R	1	9	11503005785	11503304023	298238	478.84	295.54	33	40	-1	17.06	17.06
Saccade L	1	9	11503304023	11503343882	39859	494.09	287.34	358.52	542.76	2.82	207.24	1.00	70.77	5073.11	-4382.01	3094.72
Saccade R	1	9	11503304023	11503343882	39859	494.09	287.34	358.52	542.76	2.82	207.24	1.00	70.77	5073.11	-4382.01	3094.72
Fixation L	1	10	11503343882	11503602375	258493	381.69	559.82	44	47	-1	17.04	17.04
Fixation R	1	10	11503343882	11503602375	258493	381.69	559.82	44	47	-1	17.50	17.50
Saccade L	1	10	11503602375	11503662121	59746	378.15	562.54	922.82	601.29	5.65	203.24	1.00	94.64	4542.95	-4829.90	3765.61
Saccade R	1	10	11503602375	11503662121	59746	378.15	562.54	922.82	601.29	5.65	203.24	1.00	94.64	4542.95	-4829.90	3765.61
Fixation L	1	11	11503662121	11503920603	258482	932.79	610.30	45	23	-1	18.25	18.25
Fixation R	1	11	11503662121	11503920603	258482	932.79	610.30	45	23	-1	18.49	18.49
Saccade L	1	11	11503920603	11503940609	20006	906.19	597.74	886.49	578.39	0.44	42.00	1.00	22.06	0.97	-437.41	263.35
Saccade R	1	11	11503920603	11503940609	20006	906.19	597.74	886.49	578.39	0.44	42.00	1.00	22.06	0.97	-437.41	263.35
Fixation L	1	12	11503940609	11504039964	99355	896.36	557.81	53	40	-1	18.08	18.08
Fixation R	1	12	11503940609	11504039964	99355	896.36	557.81	53	40	-1	18.32	18.32
Saccade L	1	12	11504039964	11504099725	59761	936.74	559.13	1503.22	699.22	6.72	275.64	0.33	112.47	6729.24	-5928.13	4788.03
Saccade R	1	12	11504039964	11504099725	59761	936.74	559.13	1503.22	699.22	6.72	275.64	0.33	112.47	6729.24	-5928.13	4788.03
Fixation L	1	13	11504099725	11504497446	397721	1516.87	693.18	61	28	-1	18.13	18.13
Fixation R	1	13	11504099725	11504497446	397721	1516.87	693.18	61	28	-1	17.15	17.15
Saccade L	1	13	11504497446	11504557195	59749	1544.26	693.03	1556.19	662.74	0.72	35.79	0.33	11.98	818.23	-779.11	404.10
Saccade R	1	13	11504497446	11504557195	59749	1544.26	693.03	1556.19	662.74	0.72	35.79	0.33	11.98	818.23	-779.11	404.10
