[BeGaze]
Converted from:	C:\Documents and Settings\iViewX\Desktop\EXPERIMENTATIONS\Experiments\results\finaleart\S6124332-finaleart-1.idf
Date:	27.03.2019 15:36:17
Version:	BeGaze 2.5.77
Sample Rate:	50
Subject:	S6124332
Description:	Romain Ferrand

Table Header for Fixations:
Event Type	Trial	Number	Start	End	Duration	Location X	Location Y	Dispersion X	Dispersion Y	Plane	Avg. Pupil Size X	Avg. Pupil Size Y

Table Header for Saccades:
Event Type	Trial	Number	Start	End	Duration	Start Loc.X	Start Loc.Y	End Loc.X	End Loc.Y	Amplitude	Peak Speed	Peak Speed At	Average Speed	Peak Accel.	Peak Decel.	Average Accel.

Table Header for Blinks:
Event Type	Trial	Number	Start	End	Duration

Table Header for User Events:
Event Type	Trial	Number	Start	Description

UserEvent	1	1	12589518774	# Message: Le-Restaurant-de-la-machine-a-Bougival-vlaminck-1905.jpg
Fixation L	1	1	12589527015	12590024242	497227	942.91	444.04	17	34	-1	22.01	22.01
Fixation R	1	1	12589527015	12590024242	497227	942.91	444.04	17	34	-1	20.69	20.69
Saccade L	1	1	12590024242	12590044134	19892	934.01	435.43	879.63	560.13	0.98	137.59	1.00	49.20	3356.15	-3196.11	2362.84
Saccade R	1	1	12590024242	12590044134	19892	934.01	435.43	879.63	560.13	0.98	137.59	1.00	49.20	3356.15	-3196.11	2362.84
Fixation L	1	2	12590044134	12590183338	139204	840.10	566.93	50	10	-1	21.45	21.45
Fixation R	1	2	12590044134	12590183338	139204	840.10	566.93	50	10	-1	20.62	20.62
Saccade L	1	2	12590183338	12590223213	39875	834.84	568.63	541.38	499.30	2.69	175.00	1.00	67.38	4316.00	-4022.13	3638.10
Saccade R	1	2	12590183338	12590223213	39875	834.84	568.63	541.38	499.30	2.69	175.00	1.00	67.38	4316.00	-4022.13	3638.10
Fixation L	1	3	12590223213	12590382332	159119	560.64	509.00	26	41	-1	19.75	19.75
Fixation R	1	3	12590223213	12590382332	159119	560.64	509.00	26	41	-1	19.26	19.26
Saccade L	1	3	12590382332	12590402206	19874	567.00	522.03	559.11	441.10	0.69	82.25	1.00	34.86	1839.06	-1607.55	1201.49
Saccade R	1	3	12590382332	12590402206	19874	567.00	522.03	559.11	441.10	0.69	82.25	1.00	34.86	1839.06	-1607.55	1201.49
Fixation L	1	4	12590402206	12590601069	198863	539.58	438.45	28	45	-1	18.59	18.59
Fixation R	1	4	12590402206	12590601069	198863	539.58	438.45	28	45	-1	18.25	18.25
Saccade L	1	4	12590601069	12590620945	19876	530.32	427.64	507.48	411.26	0.26	28.43	1.00	13.01	618.50	-424.71	467.83
Saccade R	1	4	12590601069	12590620945	19876	530.32	427.64	507.48	411.26	0.26	28.43	1.00	13.01	618.50	-424.71	467.83
Fixation L	1	5	12590620945	12590998796	377851	485.35	418.35	32	13	-1	17.53	17.53
Fixation R	1	5	12590620945	12590998796	377851	485.35	418.35	32	13	-1	17.55	17.55
Saccade L	1	5	12590998796	12591058546	59750	481.35	417.03	956.18	784.67	6.35	225.41	0.33	106.32	5468.08	-5249.62	4359.78
Saccade R	1	5	12590998796	12591058546	59750	481.35	417.03	956.18	784.67	6.35	225.41	0.33	106.32	5468.08	-5249.62	4359.78
Fixation L	1	6	12591058546	12591396644	338098	953.95	788.99	13	13	-1	18.10	18.10
Fixation R	1	6	12591058546	12591396644	338098	953.95	788.99	13	13	-1	17.87	17.87
Saccade L	1	6	12591396644	12591436400	39756	964.66	787.22	1062.15	599.52	1.87	133.74	0.50	47.13	3259.96	-3176.98	2525.57
Saccade R	1	6	12591396644	12591436400	39756	964.66	787.22	1062.15	599.52	1.87	133.74	0.50	47.13	3259.96	-3176.98	2525.57
Fixation L	1	7	12591436400	12591635383	198983	1068.16	589.62	23	72	-1	18.15	18.15
Fixation R	1	7	12591436400	12591635383	198983	1068.16	589.62	23	72	-1	17.07	17.07
Saccade L	1	7	12591635383	12591655278	19895	1069.06	526.76	1055.64	505.02	0.78	74.32	0.00	39.45	108.28	-955.02	490.52
Saccade R	1	7	12591635383	12591655278	19895	1069.06	526.76	1055.64	505.02	0.78	74.32	0.00	39.45	108.28	-955.02	490.52
Fixation L	1	8	12591655278	12592052977	397699	1070.33	476.86	44	44	-1	18.20	18.20
Fixation R	1	8	12591655278	12592052977	397699	1070.33	476.86	44	44	-1	17.20	17.20
Saccade L	1	8	12592052977	12592072855	19878	1100.30	481.54	1197.49	431.01	0.79	110.80	1.00	39.84	2759.50	-2357.86	1767.85
Saccade R	1	8	12592052977	12592072855	19878	1100.30	481.54	1197.49	431.01	0.79	110.80	1.00	39.84	2759.50	-2357.86	1767.85
Fixation L	1	9	12592072855	12592311591	238736	1197.47	413.30	35	24	-1	18.41	18.41
Fixation R	1	9	12592072855	12592311591	238736	1197.47	413.30	35	24	-1	17.40	17.40
Saccade L	1	9	12592311591	12592371216	59625	1220.54	406.41	1364.61	383.04	2.19	123.57	0.33	36.66	3047.20	-2036.80	1196.77
Saccade R	1	9	12592311591	12592371216	59625	1220.54	406.41	1364.61	383.04	2.19	123.57	0.33	36.66	3047.20	-2036.80	1196.77
Fixation L	1	10	12592371216	12592510458	139242	1379.17	345.96	24	70	-1	18.29	18.29
Fixation R	1	10	12592371216	12592510458	139242	1379.17	345.96	24	70	-1	17.77	17.77
Saccade L	1	10	12592510458	12592530325	19867	1389.58	312.36	1406.63	309.67	0.20	17.47	1.00	9.93	285.85	-74.88	130.42
Saccade R	1	10	12592510458	12592530325	19867	1389.58	312.36	1406.63	309.67	0.20	17.47	1.00	9.93	285.85	-74.88	130.42
Fixation L	1	11	12592530325	12592788941	258616	1418.36	307.73	23	43	-1	19.03	19.03
Fixation R	1	11	12592530325	12592788941	258616	1418.36	307.73	23	43	-1	18.09	18.09
Saccade L	1	11	12592788941	12592828692	39751	1421.93	339.07	1381.80	324.34	1.25	63.95	1.00	31.50	1086.95	-1500.43	856.85
Saccade R	1	11	12592788941	12592828692	39751	1421.93	339.07	1381.80	324.34	1.25	63.95	1.00	31.50	1086.95	-1500.43	856.85
Fixation L	1	12	12592828692	12593027670	198978	1343.67	344.27	54	42	-1	18.08	18.08
Fixation R	1	12	12592828692	12593027670	198978	1343.67	344.27	54	42	-1	17.94	17.94
Saccade L	1	12	12593027670	12593047545	19875	1340.03	354.98	1452.34	255.00	1.23	152.07	1.00	61.73	3352.88	-3474.32	2619.53
Saccade R	1	12	12593027670	12593047545	19875	1340.03	354.98	1452.34	255.00	1.23	152.07	1.00	61.73	3352.88	-3474.32	2619.53
Fixation L	1	13	12593047545	12593325904	278359	1490.64	218.22	50	48	-1	18.34	18.34
Fixation R	1	13	12593047545	12593325904	278359	1490.64	218.22	50	48	-1	17.38	17.38
Saccade L	1	13	12593325904	12593564637	238733	1490.47	247.05	1047.28	253.93	10.31	204.31	0.67	43.18	3813.25	-4883.67	1417.63
Saccade R	1	13	12593325904	12593564637	238733	1490.47	247.05	1047.28	253.93	10.31	204.31	0.67	43.18	3813.25	-4883.67	1417.63
