[BeGaze]
Converted from:	C:\Documents and Settings\iViewX\Desktop\EXPERIMENTATIONS\Experiments\results\finaleart\S6124332-finaleart-1.idf
Date:	27.03.2019 15:35:40
Version:	BeGaze 2.5.77
Sample Rate:	50
Subject:	S6124332
Description:	Romain Ferrand

Table Header for Fixations:
Event Type	Trial	Number	Start	End	Duration	Location X	Location Y	Dispersion X	Dispersion Y	Plane	Avg. Pupil Size X	Avg. Pupil Size Y

Table Header for Saccades:
Event Type	Trial	Number	Start	End	Duration	Start Loc.X	Start Loc.Y	End Loc.X	End Loc.Y	Amplitude	Peak Speed	Peak Speed At	Average Speed	Peak Accel.	Peak Decel.	Average Accel.

Table Header for Blinks:
Event Type	Trial	Number	Start	End	Duration

Table Header for User Events:
Event Type	Trial	Number	Start	Description

UserEvent	1	1	11482140731	# Message: nasturtiums-dahlias-in-a-basket_gauguin_1884.jpg
Blink L	1	1	11482141440	11482240797	99357
Blink R	1	1	11482141440	11482240797	99357
Blink L	1	2	11482260818	11482360153	99335
Blink R	1	2	11482260818	11482360153	99335
Saccade L	1	1	11482419915	11482499393	79478	1399.39	1311.65	1176.76	821.00	28.18	1869.72	1.00	354.55	4850.29	-43792.64	9759.71
Saccade R	1	1	11482419915	11482499393	79478	1399.39	1311.65	1176.76	821.00	28.18	1869.72	1.00	354.55	4850.29	-43792.64	9759.71
Fixation L	1	1	11482499393	11482678397	179004	1148.52	781.70	37	52	-1	20.72	20.72
Fixation R	1	1	11482499393	11482678397	179004	1148.52	781.70	37	52	-1	19.53	19.53
Saccade L	1	2	11482678397	11482738124	59727	1138.79	785.69	879.11	512.69	3.98	174.42	0.67	66.68	4259.32	-4223.57	3077.26
Saccade R	1	2	11482678397	11482738124	59727	1138.79	785.69	879.11	512.69	3.98	174.42	0.67	66.68	4259.32	-4223.57	3077.26
Fixation L	1	2	11482738124	11482917123	178999	878.57	488.63	11	42	-1	20.27	20.27
Fixation R	1	2	11482738124	11482917123	178999	878.57	488.63	11	42	-1	19.25	19.25
Saccade L	1	3	11482917123	11482956879	39756	872.88	472.63	821.07	287.27	1.81	111.47	1.00	45.62	2506.33	-2745.48	2216.94
Saccade R	1	3	11482917123	11482956879	39756	872.88	472.63	821.07	287.27	1.81	111.47	1.00	45.62	2506.33	-2745.48	2216.94
Fixation L	1	3	11482956879	11483255219	298340	789.60	304.14	39	44	-1	19.64	19.64
Fixation R	1	3	11482956879	11483255219	298340	789.60	304.14	39	44	-1	18.78	18.78
Saccade L	1	4	11483255219	11483275099	19880	781.66	331.53	783.46	426.40	0.60	95.98	1.00	30.35	2317.44	-2262.84	1687.39
Saccade R	1	4	11483255219	11483275099	19880	781.66	331.53	783.46	426.40	0.60	95.98	1.00	30.35	2317.44	-2262.84	1687.39
Fixation L	1	4	11483275099	11483553584	278485	783.30	420.18	21	23	-1	20.28	20.28
Fixation R	1	4	11483275099	11483553584	278485	783.30	420.18	21	23	-1	19.55	19.55
Saccade L	1	5	11483553584	11483613214	59630	800.41	405.26	426.03	761.10	5.75	217.18	0.67	96.39	5038.41	-5095.05	3966.10
Saccade R	1	5	11483553584	11483613214	59630	800.41	405.26	426.03	761.10	5.75	217.18	0.67	96.39	5038.41	-5095.05	3966.10
Fixation L	1	5	11483613214	11483911555	298341	408.95	761.86	56	32	-1	20.39	20.39
Fixation R	1	5	11483613214	11483911555	298341	408.95	761.86	56	32	-1	20.00	20.00
Saccade L	1	6	11483911555	11483931436	19881	394.71	735.03	378.03	701.10	0.39	38.24	1.00	19.48	237.96	-848.63	365.02
Saccade R	1	6	11483911555	11483931436	19881	394.71	735.03	378.03	701.10	0.39	38.24	1.00	19.48	237.96	-848.63	365.02
Fixation L	1	6	11483931436	11484110444	179008	369.90	704.97	14	12	-1	20.65	20.65
Fixation R	1	6	11483931436	11484110444	179008	369.90	704.97	14	12	-1	20.16	20.16
Saccade L	1	7	11484110444	11484190050	79606	363.57	702.80	1194.87	962.79	10.50	331.28	0.50	131.91	8244.85	-5704.20	4666.38
Saccade R	1	7	11484110444	11484190050	79606	363.57	702.80	1194.87	962.79	10.50	331.28	0.50	131.91	8244.85	-5704.20	4666.38
Fixation L	1	7	11484190050	11484448661	258611	1233.23	951.45	48	27	-1	20.39	20.39
Fixation R	1	7	11484190050	11484448661	258611	1233.23	951.45	48	27	-1	19.59	19.59
Saccade L	1	8	11484448661	11484468535	19874	1240.47	963.36	1333.01	963.65	0.52	93.61	1.00	26.15	2253.27	-2253.82	1519.23
Saccade R	1	8	11484448661	11484468535	19874	1240.47	963.36	1333.01	963.65	0.52	93.61	1.00	26.15	2253.27	-2253.82	1519.23
Fixation L	1	8	11484468535	11484746882	278347	1325.72	974.82	18	23	-1	20.75	20.75
Fixation R	1	8	11484468535	11484746882	278347	1325.72	974.82	18	23	-1	19.57	19.57
Saccade L	1	9	11484746882	11484826506	79624	1325.30	987.14	1384.34	299.36	8.17	191.59	0.75	102.55	4465.96	-4550.63	3032.82
Saccade R	1	9	11484746882	11484826506	79624	1325.30	987.14	1384.34	299.36	8.17	191.59	0.75	102.55	4465.96	-4550.63	3032.82
Fixation L	1	9	11484826506	11485025381	198875	1372.65	331.59	19	55	-1	20.40	20.40
Fixation R	1	9	11484826506	11485025381	198875	1372.65	331.59	19	55	-1	19.78	19.78
Saccade L	1	10	11485025381	11485085120	59739	1364.58	354.97	791.41	150.92	6.74	255.36	0.67	112.77	6066.37	-5568.06	4183.48
Saccade R	1	10	11485025381	11485085120	59739	1364.58	354.97	791.41	150.92	6.74	255.36	0.67	112.77	6066.37	-5568.06	4183.48
Fixation L	1	10	11485085120	11485224355	139235	757.23	126.44	49	46	-1	21.00	21.00
Fixation R	1	10	11485085120	11485224355	139235	757.23	126.44	49	46	-1	19.91	19.91
Saccade L	1	11	11485224355	11485403233	178878	741.50	120.25	324.50	78.14	17.26	357.39	0.11	96.47	8682.40	-7565.90	3211.57
Saccade R	1	11	11485224355	11485403233	178878	741.50	120.25	324.50	78.14	17.26	357.39	0.11	96.47	8682.40	-7565.90	3211.57
Fixation L	1	11	11485403233	11485602206	198973	308.73	97.49	33	64	-1	20.39	20.39
Fixation R	1	11	11485403233	11485602206	198973	308.73	97.49	33	64	-1	19.78	19.78
Saccade L	1	12	11485602206	11485661829	59623	300.24	136.89	900.02	484.19	8.45	394.28	0.67	141.65	9245.78	-9282.92	6130.31
Saccade R	1	12	11485602206	11485661829	59623	300.24	136.89	900.02	484.19	8.45	394.28	0.67	141.65	9245.78	-9282.92	6130.31
Fixation L	1	12	11485661829	11485999945	338116	913.00	502.43	17	26	-1	20.93	20.93
Fixation R	1	12	11485661829	11485999945	338116	913.00	502.43	17	26	-1	20.51	20.51
Saccade L	1	13	11485999945	11486019811	19866	916.88	510.68	918.82	571.34	0.38	61.39	1.00	19.18	1464.17	-1276.33	964.39
Saccade R	1	13	11485999945	11486019811	19866	916.88	510.68	918.82	571.34	0.38	61.39	1.00	19.18	1464.17	-1276.33	964.39
Fixation L	1	13	11486019811	11486139179	119368	922.35	593.28	9	32	-1	21.19	21.19
Fixation R	1	13	11486019811	11486139179	119368	922.35	593.28	9	32	-1	20.67	20.67
