[BeGaze]
Converted from:	C:\Documents and Settings\iViewX\Desktop\EXPERIMENTATIONS\Experiments\results\finaleart\S6124332-finaleart-1.idf
Date:	27.03.2019 15:36:00
Version:	BeGaze 2.5.77
Sample Rate:	50
Subject:	S6124332
Description:	Romain Ferrand

Table Header for Fixations:
Event Type	Trial	Number	Start	End	Duration	Location X	Location Y	Dispersion X	Dispersion Y	Plane	Avg. Pupil Size X	Avg. Pupil Size Y

Table Header for Saccades:
Event Type	Trial	Number	Start	End	Duration	Start Loc.X	Start Loc.Y	End Loc.X	End Loc.Y	Amplitude	Peak Speed	Peak Speed At	Average Speed	Peak Accel.	Peak Decel.	Average Accel.

Table Header for Blinks:
Event Type	Trial	Number	Start	End	Duration

Table Header for User Events:
Event Type	Trial	Number	Start	Description

UserEvent	1	1	12055499015	# Message: void.jpg
Fixation L	1	1	12055505459	12055644863	139404	1278.20	399.80	43	54	-1	16.85	16.85
Fixation R	1	1	12055505459	12055644863	139404	1278.20	399.80	43	54	-1	15.53	15.53
Saccade L	1	1	12055644863	12055803816	158953	1288.40	407.77	1229.11	872.52	9.86	179.89	0.75	62.02	4272.25	-3624.64	2127.20
Saccade R	1	1	12055644863	12055803816	158953	1288.40	407.77	1229.11	872.52	9.86	179.89	0.75	62.02	4272.25	-3624.64	2127.20
Fixation L	1	2	12055803816	12056042545	238729	1211.27	889.91	61	28	-1	17.41	17.41
Fixation R	1	2	12055803816	12056042545	238729	1211.27	889.91	61	28	-1	15.70	15.70
Saccade L	1	2	12056042545	12056161832	119287	1167.32	892.11	673.42	874.48	7.89	122.09	0.50	66.15	2549.65	-1742.25	1272.47
Saccade R	1	2	12056042545	12056161832	119287	1167.32	892.11	673.42	874.48	7.89	122.09	0.50	66.15	2549.65	-1742.25	1272.47
Fixation L	1	3	12056161832	12056440287	278455	679.44	892.43	14	24	-1	18.15	18.15
Fixation R	1	3	12056161832	12056440287	278455	679.44	892.43	14	24	-1	17.28	17.28
Saccade L	1	3	12056440287	12056480019	39732	688.30	897.23	934.58	861.09	2.51	157.73	0.50	63.24	3877.82	-2981.86	2916.12
Saccade R	1	3	12056440287	12056480019	39732	688.30	897.23	934.58	861.09	2.51	157.73	0.50	63.24	3877.82	-2981.86	2916.12
Fixation L	1	4	12056480019	12057494460	1014441	931.72	817.63	34	56	-1	18.24	18.24
Fixation R	1	4	12056480019	12057494460	1014441	931.72	817.63	34	56	-1	17.08	17.08
