[BeGaze]
Converted from:	C:\Documents and Settings\iViewX\Desktop\EXPERIMENTATIONS\Experiments\results\finaleart\S18F56223-finaleart-1.idf
Date:	27.03.2019 15:48:51
Version:	BeGaze 2.5.77
Sample Rate:	50
Subject:	S18F56223
Description:	Pascale Sebillot

Table Header for Fixations:
Event Type	Trial	Number	Start	End	Duration	Location X	Location Y	Dispersion X	Dispersion Y	Plane	Avg. Pupil Size X	Avg. Pupil Size Y

Table Header for Saccades:
Event Type	Trial	Number	Start	End	Duration	Start Loc.X	Start Loc.Y	End Loc.X	End Loc.Y	Amplitude	Peak Speed	Peak Speed At	Average Speed	Peak Accel.	Peak Decel.	Average Accel.

Table Header for Blinks:
Event Type	Trial	Number	Start	End	Duration

Table Header for User Events:
Event Type	Trial	Number	Start	Description

UserEvent	1	1	2592784144	# Message: Kiprensky-two-sitters-1800.jpg
Fixation L	1	1	2592799471	2593097827	298356	668.25	669.28	21	39	-1	13.86	13.86
Fixation R	1	1	2592799471	2593097827	298356	668.25	669.28	21	39	-1	15.08	15.08
Saccade L	1	1	2593097827	2593117703	19876	682.41	691.81	800.54	691.69	0.74	119.49	1.00	37.02	2962.92	-2842.39	1944.23
Saccade R	1	1	2593097827	2593117703	19876	682.41	691.81	800.54	691.69	0.74	119.49	1.00	37.02	2962.92	-2842.39	1944.23
Fixation L	1	2	2593117703	2593256954	139251	776.60	687.77	34	21	-1	13.30	13.30
Fixation R	1	2	2593117703	2593256954	139251	776.60	687.77	34	21	-1	14.73	14.73
Saccade L	1	2	2593256954	2593296724	39770	772.93	675.94	1021.65	468.68	3.14	241.88	0.50	78.87	5947.07	-4942.83	3820.63
Saccade R	1	2	2593256954	2593296724	39770	772.93	675.94	1021.65	468.68	3.14	241.88	0.50	78.87	5947.07	-4942.83	3820.63
Fixation L	1	3	2593296724	2593515435	218711	995.45	472.55	38	45	-1	12.16	12.16
Fixation R	1	3	2593296724	2593515435	218711	995.45	472.55	38	45	-1	13.26	13.26
Saccade L	1	3	2593515435	2593535448	20013	983.38	465.87	974.95	540.93	0.88	76.41	1.00	44.14	1614.78	-1694.70	1594.13
Saccade R	1	3	2593515435	2593535448	20013	983.38	465.87	974.95	540.93	0.88	76.41	1.00	44.14	1614.78	-1694.70	1594.13
Fixation L	1	4	2593535448	2593714425	178977	962.74	607.23	22	77	-1	11.12	11.12
Fixation R	1	4	2593535448	2593714425	178977	962.74	607.23	22	77	-1	11.68	11.68
Saccade L	1	4	2593714425	2593853671	139246	954.63	618.26	470.08	605.54	7.30	336.28	1.00	52.42	8320.06	-8227.89	2660.84
Saccade R	1	4	2593714425	2593853671	139246	954.63	618.26	470.08	605.54	7.30	336.28	1.00	52.42	8320.06	-8227.89	2660.84
Fixation L	1	5	2593853671	2594191778	338107	463.55	595.73	12	46	-1	11.68	11.68
Fixation R	1	5	2593853671	2594191778	338107	463.55	595.73	12	46	-1	13.01	13.01
Saccade L	1	5	2594191778	2594251398	59620	464.88	574.85	953.26	594.39	5.27	282.92	0.67	88.37	6988.22	-6485.29	3860.79
Saccade R	1	5	2594191778	2594251398	59620	464.88	574.85	953.26	594.39	5.27	282.92	0.67	88.37	6988.22	-6485.29	3860.79
Fixation L	1	6	2594251398	2594470269	218871	930.40	613.31	67	27	-1	12.34	12.34
Fixation R	1	6	2594251398	2594470269	218871	930.40	613.31	67	27	-1	13.37	13.37
Saccade L	1	6	2594470269	2594510015	39746	976.70	612.83	1135.01	338.49	3.22	249.15	0.50	81.11	6103.55	-5730.63	3455.29
Saccade R	1	6	2594470269	2594510015	39746	976.70	612.83	1135.01	338.49	3.22	249.15	0.50	81.11	6103.55	-5730.63	3455.29
Fixation L	1	7	2594510015	2594848125	338110	1140.40	365.12	9	40	-1	12.85	12.85
Fixation R	1	7	2594510015	2594848125	338110	1140.40	365.12	9	40	-1	13.65	13.65
Saccade L	1	7	2594848125	2594927747	79622	1140.18	355.57	1007.62	221.18	3.38	151.82	1.00	42.49	3729.58	-3515.72	1980.02
Saccade R	1	7	2594848125	2594927747	79622	1140.18	355.57	1007.62	221.18	3.38	151.82	1.00	42.49	3729.58	-3515.72	1980.02
Fixation L	1	8	2594927747	2595126607	198860	1040.38	256.42	42	56	-1	13.07	13.07
Fixation R	1	8	2594927747	2595126607	198860	1040.38	256.42	42	56	-1	13.66	13.66
Saccade L	1	8	2595126607	2595265861	139254	1046.46	274.77	1387.55	427.48	6.28	208.19	0.86	45.09	5103.99	-4325.21	1900.36
Saccade R	1	8	2595126607	2595265861	139254	1046.46	274.77	1387.55	427.48	6.28	208.19	0.86	45.09	5103.99	-4325.21	1900.36
Fixation L	1	9	2595265861	2595643730	377869	1388.12	431.30	44	38	-1	13.30	13.30
Fixation R	1	9	2595265861	2595643730	377869	1388.12	431.30	44	38	-1	14.00	14.00
Saccade L	1	9	2595643730	2595663580	19850	1386.73	462.27	1370.43	507.38	0.50	48.53	1.00	25.07	1166.44	-1008.25	982.57
Saccade R	1	9	2595643730	2595663580	19850	1386.73	462.27	1370.43	507.38	0.50	48.53	1.00	25.07	1166.44	-1008.25	982.57
Fixation L	1	10	2595663580	2596140942	477362	1347.66	495.72	48	36	-1	13.61	13.61
Fixation R	1	10	2595663580	2596140942	477362	1347.66	495.72	48	36	-1	14.01	14.01
Saccade L	1	10	2596140942	2596180819	39877	1324.08	512.29	1089.38	738.97	3.44	218.66	1.00	86.19	5387.73	-3921.34	3562.27
Saccade R	1	10	2596140942	2596180819	39877	1324.08	512.29	1089.38	738.97	3.44	218.66	1.00	86.19	5387.73	-3921.34	3562.27
Fixation L	1	11	2596180819	2596578549	397730	1107.54	706.07	32	65	-1	14.41	14.41
Fixation R	1	11	2596180819	2596578549	397730	1107.54	706.07	32	65	-1	14.69	14.69
Saccade L	1	11	2596578549	2596598423	19874	1089.06	673.21	1086.24	666.07	0.27	30.16	0.00	13.74	-5.47	-527.53	205.75
Saccade R	1	11	2596578549	2596598423	19874	1089.06	673.21	1086.24	666.07	0.27	30.16	0.00	13.74	-5.47	-527.53	205.75
Fixation L	1	12	2596598423	2596777424	179001	1070.15	653.19	34	39	-1	14.29	14.29
Fixation R	1	12	2596598423	2596777424	179001	1070.15	653.19	34	39	-1	14.39	14.39
