[BeGaze]
Converted from:	C:\Documents and Settings\iViewX\Desktop\EXPERIMENTATIONS\Experiments\results\finaleart\S18F56223-finaleart-1.idf
Date:	27.03.2019 15:49:14
Version:	BeGaze 2.5.77
Sample Rate:	50
Subject:	S18F56223
Description:	Pascale Sebillot

Table Header for Fixations:
Event Type	Trial	Number	Start	End	Duration	Location X	Location Y	Dispersion X	Dispersion Y	Plane	Avg. Pupil Size X	Avg. Pupil Size Y

Table Header for Saccades:
Event Type	Trial	Number	Start	End	Duration	Start Loc.X	Start Loc.Y	End Loc.X	End Loc.Y	Amplitude	Peak Speed	Peak Speed At	Average Speed	Peak Accel.	Peak Decel.	Average Accel.

Table Header for Blinks:
Event Type	Trial	Number	Start	End	Duration

Table Header for User Events:
Event Type	Trial	Number	Start	Description

UserEvent	1	1	2819487496	# Message: The_Augustan_Bridge_at_Narni_Corot_1826.jpg
Fixation L	1	1	2819506927	2819984258	477331	764.08	606.70	48	47	-1	14.19	14.19
Fixation R	1	1	2819506927	2819984258	477331	764.08	606.70	48	47	-1	13.79	13.79
Saccade L	1	1	2819984258	2820083759	99501	750.61	587.41	983.63	598.86	3.55	217.20	1.00	35.66	5261.23	-5297.02	1659.70
Saccade R	1	1	2819984258	2820083759	99501	750.61	587.41	983.63	598.86	3.55	217.20	1.00	35.66	5261.23	-5297.02	1659.70
Fixation L	1	2	2820083759	2820262756	178997	986.74	607.64	19	20	-1	12.14	12.14
Fixation R	1	2	2820083759	2820262756	178997	986.74	607.64	19	20	-1	11.20	11.20
Saccade L	1	2	2820262756	2820282618	19862	992.75	619.56	1183.65	616.84	1.12	193.06	1.00	56.57	4534.37	-3834.33	2929.50
Saccade R	1	2	2820262756	2820282618	19862	992.75	619.56	1183.65	616.84	1.12	193.06	1.00	56.57	4534.37	-3834.33	2929.50
Fixation L	1	3	2820282618	2820620730	338112	1226.97	592.93	60	37	-1	10.97	10.97
Fixation R	1	3	2820282618	2820620730	338112	1226.97	592.93	60	37	-1	10.25	10.25
Saccade L	1	3	2820620730	2820640608	19878	1228.84	581.38	1231.73	568.69	0.15	13.17	1.00	7.53	435.27	59.58	264.69
Saccade R	1	3	2820620730	2820640608	19878	1228.84	581.38	1231.73	568.69	0.15	13.17	1.00	7.53	435.27	59.58	264.69
Fixation L	1	4	2820640608	2820819724	179116	1214.60	565.24	29	52	-1	10.88	10.88
Fixation R	1	4	2820640608	2820819724	179116	1214.60	565.24	29	52	-1	9.70	9.70
Saccade L	1	4	2820819724	2820839592	19868	1202.33	560.30	1185.87	464.45	0.83	98.37	1.00	41.78	2065.24	-1953.49	1682.25
Saccade R	1	4	2820819724	2820839592	19868	1202.33	560.30	1185.87	464.45	0.83	98.37	1.00	41.78	2065.24	-1953.49	1682.25
Fixation L	1	5	2820839592	2821396442	556850	1177.03	463.48	21	74	-1	10.98	10.98
Fixation R	1	5	2820839592	2821396442	556850	1177.03	463.48	21	74	-1	10.23	10.23
Saccade L	1	5	2821396442	2821416318	19876	1181.56	461.85	1016.50	358.19	1.16	197.09	1.00	58.14	4705.47	-4038.57	2926.95
Saccade R	1	5	2821396442	2821416318	19876	1181.56	461.85	1016.50	358.19	1.16	197.09	1.00	58.14	4705.47	-4038.57	2926.95
Fixation L	1	6	2821416318	2821794307	377989	1009.80	383.76	21	53	-1	10.70	10.70
Fixation R	1	6	2821416318	2821794307	377989	1009.80	383.76	21	53	-1	10.10	10.10
Saccade L	1	6	2821794307	2821834050	39743	1004.82	411.87	908.34	624.59	2.36	121.04	0.50	59.38	2870.68	-2353.30	2446.19
Saccade R	1	6	2821794307	2821834050	39743	1004.82	411.87	908.34	624.59	2.36	121.04	0.50	59.38	2870.68	-2353.30	2446.19
Fixation L	1	7	2821834050	2822231912	397862	908.89	597.59	33	50	-1	10.39	10.39
Fixation R	1	7	2821834050	2822231912	397862	908.89	597.59	33	50	-1	9.88	9.88
Saccade L	1	7	2822231912	2822251788	19876	889.30	588.28	984.06	583.85	0.77	95.96	1.00	38.69	2261.08	-1670.21	1331.58
Saccade R	1	7	2822231912	2822251788	19876	889.30	588.28	984.06	583.85	0.77	95.96	1.00	38.69	2261.08	-1670.21	1331.58
Fixation L	1	8	2822251788	2822749017	497229	988.53	600.55	36	61	-1	10.69	10.69
Fixation R	1	8	2822251788	2822749017	497229	988.53	600.55	36	61	-1	10.10	10.10
Saccade L	1	8	2822749017	2822788763	39746	988.41	607.11	413.19	594.41	4.77	308.36	0.50	119.90	7623.98	-7610.09	7102.75
Saccade R	1	8	2822749017	2822788763	39746	988.41	607.11	413.19	594.41	4.77	308.36	0.50	119.90	7623.98	-7610.09	7102.75
Fixation L	1	9	2822788763	2823484981	696218	415.88	600.84	30	46	-1	10.62	10.62
Fixation R	1	9	2822788763	2823484981	696218	415.88	600.84	30	46	-1	10.87	10.87
