[BeGaze]
Converted from:	C:\Documents and Settings\iViewX\Desktop\EXPERIMENTATIONS\Experiments\results\finaleart\S18F56223-finaleart-1.idf
Date:	27.03.2019 15:49:08
Version:	BeGaze 2.5.77
Sample Rate:	50
Subject:	S18F56223
Description:	Pascale Sebillot

Table Header for Fixations:
Event Type	Trial	Number	Start	End	Duration	Location X	Location Y	Dispersion X	Dispersion Y	Plane	Avg. Pupil Size X	Avg. Pupil Size Y

Table Header for Saccades:
Event Type	Trial	Number	Start	End	Duration	Start Loc.X	Start Loc.Y	End Loc.X	End Loc.Y	Amplitude	Peak Speed	Peak Speed At	Average Speed	Peak Accel.	Peak Decel.	Average Accel.

Table Header for Blinks:
Event Type	Trial	Number	Start	End	Duration

Table Header for User Events:
Event Type	Trial	Number	Start	Description

UserEvent	1	1	2764527820	# Message: Fleurs_et_fruits_camoin_1942.jpg
Fixation L	1	1	2764530702	2764749426	218724	641.77	543.67	6	46	-1	14.99	14.99
Fixation R	1	1	2764530702	2764749426	218724	641.77	543.67	6	46	-1	14.36	14.36
Saccade L	1	1	2764749426	2764769303	19877	639.39	523.09	714.26	531.46	0.56	76.20	1.00	27.96	1734.19	-1742.77	1223.85
Saccade R	1	1	2764749426	2764769303	19877	639.39	523.09	714.26	531.46	0.56	76.20	1.00	27.96	1734.19	-1742.77	1223.85
Fixation L	1	2	2764769303	2765028022	258719	731.15	535.81	24	18	-1	15.23	15.23
Fixation R	1	2	2764769303	2765028022	258719	731.15	535.81	24	18	-1	14.62	14.62
Saccade L	1	2	2765028022	2765047801	19779	734.43	535.71	913.20	423.40	1.43	213.48	1.00	72.34	5246.29	-4366.21	3694.84
Saccade R	1	2	2765028022	2765047801	19779	734.43	535.71	913.20	423.40	1.43	213.48	1.00	72.34	5246.29	-4366.21	3694.84
Fixation L	1	3	2765047801	2765366032	318231	952.62	434.32	64	32	-1	14.88	14.88
Fixation R	1	3	2765047801	2765366032	318231	952.62	434.32	64	32	-1	14.32	14.32
Saccade L	1	3	2765366032	2765425776	59744	964.22	436.31	927.61	690.05	4.17	187.46	0.67	69.86	4507.19	-4376.99	3077.53
Saccade R	1	3	2765366032	2765425776	59744	964.22	436.31	927.61	690.05	4.17	187.46	0.67	69.86	4507.19	-4376.99	3077.53
Fixation L	1	4	2765425776	2765684284	258508	913.45	697.78	24	19	-1	13.60	13.60
Fixation R	1	4	2765425776	2765684284	258508	913.45	697.78	24	19	-1	12.97	12.97
Saccade L	1	4	2765684284	2765763886	79602	906.31	699.66	1356.08	207.66	8.42	226.45	0.75	105.80	5231.68	-5335.02	3491.84
Saccade R	1	4	2765684284	2765763886	79602	906.31	699.66	1356.08	207.66	8.42	226.45	0.75	105.80	5231.68	-5335.02	3491.84
Fixation L	1	5	2765763886	2766002505	238619	1361.53	218.21	12	60	-1	12.62	12.62
Fixation R	1	5	2765763886	2766002505	238619	1361.53	218.21	12	60	-1	11.93	11.93
Saccade L	1	5	2766002505	2766062272	59767	1356.68	256.32	1329.57	861.63	6.53	322.19	0.67	109.34	7611.51	-7540.22	4792.29
Saccade R	1	5	2766002505	2766062272	59767	1356.68	256.32	1329.57	861.63	6.53	322.19	0.67	109.34	7611.51	-7540.22	4792.29
Fixation L	1	6	2766062272	2766360613	298341	1302.13	897.86	40	57	-1	11.81	11.81
Fixation R	1	6	2766062272	2766360613	298341	1302.13	897.86	40	57	-1	12.05	12.05
Saccade L	1	6	2766360613	2766400356	39743	1297.37	919.05	844.86	971.76	3.91	240.40	0.50	98.32	5933.15	-5582.01	5458.14
Saccade R	1	6	2766360613	2766400356	39743	1297.37	919.05	844.86	971.76	3.91	240.40	0.50	98.32	5933.15	-5582.01	5458.14
Fixation L	1	7	2766400356	2766738464	338108	837.50	964.02	39	35	-1	13.95	13.95
Fixation R	1	7	2766400356	2766738464	338108	837.50	964.02	39	35	-1	13.42	13.42
Saccade L	1	7	2766738464	2766778214	39750	840.87	972.96	521.75	1034.54	3.23	270.59	0.50	81.19	6627.21	-5587.50	3915.22
Saccade R	1	7	2766738464	2766778214	39750	840.87	972.96	521.75	1034.54	3.23	270.59	0.50	81.19	6627.21	-5587.50	3915.22
Fixation L	1	8	2766778214	2767056705	278491	529.52	1037.30	19	71	-1	13.83	13.83
Fixation R	1	8	2766778214	2767056705	278491	529.52	1037.30	19	71	-1	13.60	13.60
Saccade L	1	8	2767056705	2767076584	19879	536.21	1052.29	416.89	1064.18	0.80	121.28	1.00	40.23	2712.55	-2760.52	1918.72
Saccade R	1	8	2767056705	2767076584	19879	536.21	1052.29	416.89	1064.18	0.80	121.28	1.00	40.23	2712.55	-2760.52	1918.72
Fixation L	1	9	2767076584	2767295439	218855	407.75	1084.82	54	42	-1	14.32	14.32
Fixation R	1	9	2767076584	2767295439	218855	407.75	1084.82	54	42	-1	14.09	14.09
Saccade L	1	9	2767295439	2767335189	39750	425.49	1094.89	309.96	519.46	5.25	383.90	0.50	131.98	9231.96	-8771.68	6985.40
Saccade R	1	9	2767295439	2767335189	39750	425.49	1094.89	309.96	519.46	5.25	383.90	0.50	131.98	9231.96	-8771.68	6985.40
Fixation L	1	10	2767335189	2767534058	198869	288.33	477.41	35	58	-1	14.30	14.30
Fixation R	1	10	2767335189	2767534058	198869	288.33	477.41	35	58	-1	14.75	14.75
Saccade L	1	10	2767534058	2767553923	19865	281.13	460.93	280.29	245.13	1.35	218.20	1.00	67.80	5209.48	-5439.69	3847.37
Saccade R	1	10	2767534058	2767553923	19865	281.13	460.93	280.29	245.13	1.35	218.20	1.00	67.80	5209.48	-5439.69	3847.37
Fixation L	1	11	2767553923	2767693176	139253	276.16	292.70	13	77	-1	13.50	13.50
Fixation R	1	11	2767553923	2767693176	139253	276.16	292.70	13	77	-1	14.40	14.40
Saccade L	1	11	2767693176	2767792675	99499	281.98	323.12	568.65	324.60	5.48	273.82	1.00	55.09	5803.74	-5860.99	1902.37
Saccade R	1	11	2767693176	2767792675	99499	281.98	323.12	568.65	324.60	5.48	273.82	1.00	55.09	5803.74	-5860.99	1902.37
Fixation L	1	12	2767792675	2768150656	357981	592.10	311.20	43	22	-1	13.11	13.11
Fixation R	1	12	2767792675	2768150656	357981	592.10	311.20	43	22	-1	13.86	13.86
Saccade L	1	12	2768150656	2768190401	39745	608.73	312.32	1311.00	289.52	6.09	433.05	0.50	153.19	10725.83	-9871.31	8447.61
Saccade R	1	12	2768150656	2768190401	39745	608.73	312.32	1311.00	289.52	6.09	433.05	0.50	153.19	10725.83	-9871.31	8447.61
Fixation L	1	13	2768190401	2768508639	318238	1342.73	270.70	39	48	-1	13.00	13.00
Fixation R	1	13	2768190401	2768508639	318238	1342.73	270.70	39	48	-1	12.85	12.85
