[BeGaze]
Converted from:	C:\Documents and Settings\iViewX\Desktop\EXPERIMENTATIONS\Experiments\results\finaleart\S18F56223-finaleart-1.idf
Date:	27.03.2019 15:49:22
Version:	BeGaze 2.5.77
Sample Rate:	50
Subject:	S18F56223
Description:	Pascale Sebillot

Table Header for Fixations:
Event Type	Trial	Number	Start	End	Duration	Location X	Location Y	Dispersion X	Dispersion Y	Plane	Avg. Pupil Size X	Avg. Pupil Size Y

Table Header for Saccades:
Event Type	Trial	Number	Start	End	Duration	Start Loc.X	Start Loc.Y	End Loc.X	End Loc.Y	Amplitude	Peak Speed	Peak Speed At	Average Speed	Peak Accel.	Peak Decel.	Average Accel.

Table Header for Blinks:
Event Type	Trial	Number	Start	End	Duration

Table Header for User Events:
Event Type	Trial	Number	Start	Description

UserEvent	1	1	2915468880	# Message: void.jpg
Fixation L	1	1	2915476723	2915874424	397701	1367.99	620.45	51	46	-1	11.53	11.53
Fixation R	1	1	2915476723	2915874424	397701	1367.99	620.45	51	46	-1	10.01	10.01
Saccade L	1	1	2915874424	2915894434	20010	1395.03	646.09	1391.25	652.79	0.12	8.80	1.00	5.81	152.73	95.35	120.70
Saccade R	1	1	2915874424	2915894434	20010	1395.03	646.09	1391.25	652.79	0.12	8.80	1.00	5.81	152.73	95.35	120.70
Fixation L	1	2	2915894434	2916073427	178993	1394.92	668.71	11	47	-1	11.56	11.56
Fixation R	1	2	2915894434	2916073427	178993	1394.92	668.71	11	47	-1	10.02	10.02
Saccade L	1	2	2916073427	2916192788	119361	1402.56	677.04	741.71	293.84	12.01	188.35	0.50	100.66	3910.92	-1948.52	1773.14
Saccade R	1	2	2916073427	2916192788	119361	1402.56	677.04	741.71	293.84	12.01	188.35	0.50	100.66	3910.92	-1948.52	1773.14
Fixation L	1	3	2916192788	2916351914	159126	688.96	273.47	73	26	-1	11.60	11.60
Fixation R	1	3	2916192788	2916351914	159126	688.96	273.47	73	26	-1	10.38	10.38
Saccade L	1	3	2916351914	2916371808	19894	707.25	268.51	688.71	266.82	0.25	21.79	0.00	12.48	349.02	-433.90	376.63
Saccade R	1	3	2916351914	2916371808	19894	707.25	268.51	688.71	266.82	0.25	21.79	0.00	12.48	349.02	-433.90	376.63
Fixation L	1	4	2916371808	2916491031	119223	691.69	270.57	6	27	-1	11.82	11.82
Fixation R	1	4	2916371808	2916491031	119223	691.69	270.57	6	27	-1	10.82	10.82
Saccade L	1	4	2916491031	2916530924	39893	694.54	290.19	974.73	521.95	3.59	242.71	0.50	89.93	5835.25	-5185.14	4301.42
Saccade R	1	4	2916491031	2916530924	39893	694.54	290.19	974.73	521.95	3.59	242.71	0.50	89.93	5835.25	-5185.14	4301.42
Fixation L	1	5	2916530924	2916869018	338094	965.63	555.00	20	47	-1	13.06	13.06
Fixation R	1	5	2916530924	2916869018	338094	965.63	555.00	20	47	-1	11.18	11.18
Saccade L	1	5	2916869018	2916908776	39758	965.96	566.36	909.24	735.04	1.86	112.39	0.50	46.75	2722.12	-1700.79	1865.08
Saccade R	1	5	2916869018	2916908776	39758	965.96	566.36	909.24	735.04	1.86	112.39	0.50	46.75	2722.12	-1700.79	1865.08
Fixation L	1	6	2916908776	2917207125	298349	890.98	718.35	33	41	-1	13.98	13.98
Fixation R	1	6	2916908776	2917207125	298349	890.98	718.35	33	41	-1	11.70	11.70
Saccade L	1	6	2917207125	2917246875	39750	876.00	729.13	859.04	632.10	1.18	64.02	1.00	29.64	1329.56	-1486.37	1128.11
Saccade R	1	6	2917207125	2917246875	39750	876.00	729.13	859.04	632.10	1.18	64.02	1.00	29.64	1329.56	-1486.37	1128.11
Fixation L	1	7	2917246875	2917465742	218867	827.31	611.76	47	45	-1	13.97	13.97
Fixation R	1	7	2917246875	2917465742	218867	827.31	611.76	47	45	-1	12.20	12.20
