[BeGaze]
Converted from:	C:\Documents and Settings\iViewX\Desktop\EXPERIMENTATIONS\Experiments\results\finaleart\S18F56223-finaleart-1.idf
Date:	27.03.2019 15:48:34
Version:	BeGaze 2.5.77
Sample Rate:	50
Subject:	S18F56223
Description:	Pascale Sebillot

Table Header for Fixations:
Event Type	Trial	Number	Start	End	Duration	Location X	Location Y	Dispersion X	Dispersion Y	Plane	Avg. Pupil Size X	Avg. Pupil Size Y

Table Header for Saccades:
Event Type	Trial	Number	Start	End	Duration	Start Loc.X	Start Loc.Y	End Loc.X	End Loc.Y	Amplitude	Peak Speed	Peak Speed At	Average Speed	Peak Accel.	Peak Decel.	Average Accel.

Table Header for Blinks:
Event Type	Trial	Number	Start	End	Duration

Table Header for User Events:
Event Type	Trial	Number	Start	Description

UserEvent	1	1	2422100740	# Message: void.jpg
Saccade L	1	1	2422102581	2422202070	99489	874.29	139.40	1418.43	222.95	8.60	287.15	1.00	86.48	6752.10	-6327.65	3801.54
Saccade R	1	1	2422102581	2422202070	99489	874.29	139.40	1418.43	222.95	8.60	287.15	1.00	86.48	6752.10	-6327.65	3801.54
Fixation L	1	1	2422202070	2422659415	457345	1415.22	281.00	24	74	-1	11.22	11.22
Fixation R	1	1	2422202070	2422659415	457345	1415.22	281.00	24	74	-1	11.08	11.08
Saccade L	1	2	2422659415	2422719163	59748	1413.18	288.85	1292.26	441.85	2.68	168.95	1.00	44.86	3547.48	-3954.03	1837.83
Saccade R	1	2	2422659415	2422719163	59748	1413.18	288.85	1292.26	441.85	2.68	168.95	1.00	44.86	3547.48	-3954.03	1837.83
Fixation L	1	2	2422719163	2422818556	99393	1266.90	482.09	39	58	-1	11.38	11.38
Fixation R	1	2	2422719163	2422818556	99393	1266.90	482.09	39	58	-1	11.04	11.04
Saccade L	1	3	2422818556	2422937908	119352	1253.25	500.55	604.98	485.80	10.19	300.65	0.67	85.40	7229.29	-3951.81	2966.67
Saccade R	1	3	2422818556	2422937908	119352	1253.25	500.55	604.98	485.80	10.19	300.65	0.67	85.40	7229.29	-3951.81	2966.67
Fixation L	1	3	2422937908	2423156769	218861	547.41	474.02	73	24	-1	12.52	12.52
Fixation R	1	3	2422937908	2423156769	218861	547.41	474.02	73	24	-1	12.21	12.21
Saccade L	1	4	2423156769	2423176651	19882	545.76	468.50	541.63	461.03	0.11	8.63	1.00	5.28	89.74	-28.63	44.29
Saccade R	1	4	2423156769	2423176651	19882	545.76	468.50	541.63	461.03	0.11	8.63	1.00	5.28	89.74	-28.63	44.29
Fixation L	1	4	2423176651	2423435138	258487	529.47	455.93	72	25	-1	12.47	12.47
Fixation R	1	4	2423176651	2423435138	258487	529.47	455.93	72	25	-1	12.49	12.49
Saccade L	1	5	2423435138	2423455134	19996	499.05	466.63	463.50	456.95	0.38	37.27	1.00	18.76	427.47	-597.93	395.01
Saccade R	1	5	2423435138	2423455134	19996	499.05	466.63	463.50	456.95	0.38	37.27	1.00	18.76	427.47	-597.93	395.01
Fixation L	1	5	2423455134	2424031883	576749	470.19	449.76	13	40	-1	12.96	12.96
Fixation R	1	5	2423455134	2424031883	576749	470.19	449.76	13	40	-1	12.85	12.85
Saccade L	1	6	2424031883	2424091607	59724	471.44	471.23	624.36	572.28	2.45	164.69	0.33	40.97	3711.54	-4097.33	2084.07
Saccade R	1	6	2424031883	2424091607	59724	471.44	471.23	624.36	572.28	2.45	164.69	0.33	40.97	3711.54	-4097.33	2084.07
