[BeGaze]
Converted from:	C:\Documents and Settings\iViewX\Desktop\EXPERIMENTATIONS\Experiments\results\finaleart\S18F56223-finaleart-1.idf
Date:	27.03.2019 15:49:31
Version:	BeGaze 2.5.77
Sample Rate:	50
Subject:	S18F56223
Description:	Pascale Sebillot

Table Header for Fixations:
Event Type	Trial	Number	Start	End	Duration	Location X	Location Y	Dispersion X	Dispersion Y	Plane	Avg. Pupil Size X	Avg. Pupil Size Y

Table Header for Saccades:
Event Type	Trial	Number	Start	End	Duration	Start Loc.X	Start Loc.Y	End Loc.X	End Loc.Y	Amplitude	Peak Speed	Peak Speed At	Average Speed	Peak Accel.	Peak Decel.	Average Accel.

Table Header for Blinks:
Event Type	Trial	Number	Start	End	Duration

Table Header for User Events:
Event Type	Trial	Number	Start	Description

UserEvent	1	1	2988885171	# Message: void.jpg
Saccade L	1	1	2988891115	2988950738	59623	884.79	647.67	682.37	472.18	4.02	203.82	1.00	67.50	4843.73	-4915.71	2639.64
Saccade R	1	1	2988891115	2988950738	59623	884.79	647.67	682.37	472.18	4.02	203.82	1.00	67.50	4843.73	-4915.71	2639.64
Fixation L	1	1	2988950738	2989626966	676228	654.23	504.57	47	45	-1	13.23	13.23
Fixation R	1	1	2988950738	2989626966	676228	654.23	504.57	47	45	-1	12.61	12.61
Saccade L	1	2	2989626966	2989646963	19997	643.76	512.16	626.32	508.33	0.29	18.06	1.00	14.51	186.77	-52.10	108.39
Saccade R	1	2	2989626966	2989646963	19997	643.76	512.16	626.32	508.33	0.29	18.06	1.00	14.51	186.77	-52.10	108.39
Fixation L	1	2	2989646963	2989746319	99356	610.43	503.77	26	15	-1	13.23	13.23
Fixation R	1	2	2989646963	2989746319	99356	610.43	503.77	26	15	-1	12.51	12.51
Saccade L	1	3	2989746319	2989845819	99500	607.03	506.14	493.93	192.61	5.02	90.94	0.40	50.48	2077.48	-1553.31	1084.47
Saccade R	1	3	2989746319	2989845819	99500	607.03	506.14	493.93	192.61	5.02	90.94	0.40	50.48	2077.48	-1553.31	1084.47
Fixation L	1	3	2989845819	2990144186	298367	481.44	209.79	30	25	-1	13.11	13.11
Fixation R	1	3	2989845819	2990144186	298367	481.44	209.79	30	25	-1	13.07	13.07
Saccade L	1	4	2990144186	2990183931	39745	475.98	205.35	399.92	415.08	2.37	123.43	0.50	59.63	3057.67	-2383.63	2395.88
Saccade R	1	4	2990144186	2990183931	39745	475.98	205.35	399.92	415.08	2.37	123.43	0.50	59.63	3057.67	-2383.63	2395.88
Fixation L	1	4	2990183931	2990362926	178995	431.55	440.64	60	38	-1	13.64	13.64
Fixation R	1	4	2990183931	2990362926	178995	431.55	440.64	60	38	-1	13.38	13.38
Saccade L	1	5	2990362926	2990382802	19876	420.99	454.05	589.27	564.65	1.23	203.64	1.00	61.71	4973.04	-4576.32	3287.93
Saccade R	1	5	2990362926	2990382802	19876	420.99	454.05	589.27	564.65	1.23	203.64	1.00	61.71	4973.04	-4576.32	3287.93
Fixation L	1	5	2990382802	2990880146	497344	616.04	587.72	36	32	-1	14.54	14.54
Fixation R	1	5	2990382802	2990880146	497344	616.04	587.72	36	32	-1	13.96	13.96
