[BeGaze]
Converted from:	C:\Documents and Settings\iViewX\Desktop\EXPERIMENTATIONS\Experiments\results\finaleart\S18F56223-finaleart-1.idf
Date:	27.03.2019 15:48:26
Version:	BeGaze 2.5.77
Sample Rate:	50
Subject:	S18F56223
Description:	Pascale Sebillot

Table Header for Fixations:
Event Type	Trial	Number	Start	End	Duration	Location X	Location Y	Dispersion X	Dispersion Y	Plane	Avg. Pupil Size X	Avg. Pupil Size Y

Table Header for Saccades:
Event Type	Trial	Number	Start	End	Duration	Start Loc.X	Start Loc.Y	End Loc.X	End Loc.Y	Amplitude	Peak Speed	Peak Speed At	Average Speed	Peak Accel.	Peak Decel.	Average Accel.

Table Header for Blinks:
Event Type	Trial	Number	Start	End	Duration

Table Header for User Events:
Event Type	Trial	Number	Start	Description

UserEvent	1	1	2361058623	# Message: void.jpg
Saccade L	1	1	2361059761	2361159260	99499	1683.05	242.32	692.95	200.49	14.53	320.56	0.40	145.99	8013.99	-5452.29	3537.15
Saccade R	1	1	2361059761	2361159260	99499	1683.05	242.32	692.95	200.49	14.53	320.56	0.40	145.99	8013.99	-5452.29	3537.15
Fixation L	1	1	2361159260	2361358105	198845	695.12	177.51	27	36	-1	14.51	14.51
Fixation R	1	1	2361159260	2361358105	198845	695.12	177.51	27	36	-1	12.60	12.60
Saccade L	1	2	2361358105	2361557095	198990	674.01	169.46	549.27	489.61	13.90	323.84	0.10	69.85	7915.88	-7641.85	2260.35
Saccade R	1	2	2361358105	2361557095	198990	674.01	169.46	549.27	489.61	13.90	323.84	0.10	69.85	7915.88	-7641.85	2260.35
Fixation L	1	2	2361557095	2361676344	119249	543.08	533.93	28	63	-1	14.09	14.09
Fixation R	1	2	2361557095	2361676344	119249	543.08	533.93	28	63	-1	12.47	12.47
Saccade L	1	3	2361676344	2361696220	19876	550.61	546.13	465.25	525.82	0.70	88.76	1.00	35.17	2054.27	-1853.85	1358.97
Saccade R	1	3	2361676344	2361696220	19876	550.61	546.13	465.25	525.82	0.70	88.76	1.00	35.17	2054.27	-1853.85	1358.97
Fixation L	1	3	2361696220	2361875340	179120	452.64	533.78	23	15	-1	14.19	14.19
Fixation R	1	3	2361696220	2361875340	179120	452.64	533.78	23	15	-1	12.63	12.63
Saccade L	1	4	2361875340	2361915086	39746	454.46	528.55	490.92	688.47	1.92	126.42	0.50	48.34	3089.09	-2590.19	2395.56
Saccade R	1	4	2361875340	2361915086	39746	454.46	528.55	490.92	688.47	1.92	126.42	0.50	48.34	3089.09	-2590.19	2395.56
Fixation L	1	4	2361915086	2362332817	417731	506.58	645.26	32	63	-1	15.22	15.22
Fixation R	1	4	2361915086	2362332817	417731	506.58	645.26	32	63	-1	13.73	13.73
Saccade L	1	5	2362332817	2362432174	99357	523.11	643.29	661.47	627.96	1.98	109.04	1.00	19.93	2666.63	-2693.64	957.93
Saccade R	1	5	2362332817	2362432174	99357	523.11	643.29	661.47	627.96	1.98	109.04	1.00	19.93	2666.63	-2693.64	957.93
Fixation L	1	5	2362432174	2363048778	616604	678.60	615.28	28	35	-1	15.34	15.34
Fixation R	1	5	2362432174	2363048778	616604	678.60	615.28	28	35	-1	13.71	13.71
