[BeGaze]
Converted from:	C:\Documents and Settings\iViewX\Desktop\EXPERIMENTATIONS\Experiments\results\finaleart\S18F56223-finaleart-1.idf
Date:	27.03.2019 15:49:10
Version:	BeGaze 2.5.77
Sample Rate:	50
Subject:	S18F56223
Description:	Pascale Sebillot

Table Header for Fixations:
Event Type	Trial	Number	Start	End	Duration	Location X	Location Y	Dispersion X	Dispersion Y	Plane	Avg. Pupil Size X	Avg. Pupil Size Y

Table Header for Saccades:
Event Type	Trial	Number	Start	End	Duration	Start Loc.X	Start Loc.Y	End Loc.X	End Loc.Y	Amplitude	Peak Speed	Peak Speed At	Average Speed	Peak Accel.	Peak Decel.	Average Accel.

Table Header for Blinks:
Event Type	Trial	Number	Start	End	Duration

Table Header for User Events:
Event Type	Trial	Number	Start	Description

UserEvent	1	1	2780768073	# Message: void.jpg
Fixation L	1	1	2780780897	2780900229	119332	394.20	770.12	52	46	-1	13.51	13.51
Fixation R	1	1	2780780897	2780900229	119332	394.20	770.12	52	46	-1	13.48	13.48
Saccade L	1	1	2780900229	2780939992	39763	419.20	797.23	879.44	964.33	4.39	362.28	0.50	110.36	9000.73	-8687.79	5864.11
Saccade R	1	1	2780900229	2780939992	39763	419.20	797.23	879.44	964.33	4.39	362.28	0.50	110.36	9000.73	-8687.79	5864.11
Fixation L	1	2	2780939992	2781298082	358090	861.40	959.40	33	34	-1	13.60	13.60
Fixation R	1	2	2780939992	2781298082	358090	861.40	959.40	33	34	-1	13.22	13.22
Saccade L	1	2	2781298082	2781337822	39740	873.29	951.31	817.86	549.97	3.73	231.74	0.50	93.81	5437.16	-4732.96	4692.90
Saccade R	1	2	2781298082	2781337822	39740	873.29	951.31	817.86	549.97	3.73	231.74	0.50	93.81	5437.16	-4732.96	4692.90
Fixation L	1	3	2781337822	2781715685	377863	784.62	507.26	45	54	-1	13.10	13.10
Fixation R	1	3	2781337822	2781715685	377863	784.62	507.26	45	54	-1	12.53	12.53
Saccade L	1	3	2781715685	2781775436	59751	777.03	495.94	636.23	475.12	2.21	143.40	1.00	36.91	3428.66	-3192.27	1648.62
Saccade R	1	3	2781715685	2781775436	59751	777.03	495.94	636.23	475.12	2.21	143.40	1.00	36.91	3428.66	-3192.27	1648.62
Fixation L	1	4	2781775436	2782033921	258485	576.05	479.40	78	15	-1	13.19	13.19
Fixation R	1	4	2781775436	2782033921	258485	576.05	479.40	78	15	-1	13.06	13.06
Saccade L	1	4	2782033921	2782073795	39874	568.78	488.88	583.82	677.73	1.66	98.97	0.50	41.56	2417.63	-2291.88	2291.21
Saccade R	1	4	2782033921	2782073795	39874	568.78	488.88	583.82	677.73	1.66	98.97	0.50	41.56	2417.63	-2291.88	2291.21
Fixation L	1	5	2782073795	2782590899	517104	601.81	672.08	39	17	-1	13.69	13.69
Fixation R	1	5	2782073795	2782590899	517104	601.81	672.08	39	17	-1	13.50	13.50
Saccade L	1	5	2782590899	2782630639	39740	620.86	663.85	755.93	660.49	1.30	90.23	1.00	32.62	2066.42	-2146.25	1518.45
Saccade R	1	5	2782590899	2782630639	39740	620.86	663.85	755.93	660.49	1.30	90.23	1.00	32.62	2066.42	-2146.25	1518.45
Fixation L	1	6	2782630639	2782750016	119377	764.27	656.43	11	9	-1	13.98	13.98
Fixation R	1	6	2782630639	2782750016	119377	764.27	656.43	11	9	-1	13.62	13.62
