[BeGaze]
Converted from:	C:\Documents and Settings\iViewX\Desktop\EXPERIMENTATIONS\Experiments\results\finaleart\S18F56223-finaleart-1.idf
Date:	27.03.2019 15:48:29
Version:	BeGaze 2.5.77
Sample Rate:	50
Subject:	S18F56223
Description:	Pascale Sebillot

Table Header for Fixations:
Event Type	Trial	Number	Start	End	Duration	Location X	Location Y	Dispersion X	Dispersion Y	Plane	Avg. Pupil Size X	Avg. Pupil Size Y

Table Header for Saccades:
Event Type	Trial	Number	Start	End	Duration	Start Loc.X	Start Loc.Y	End Loc.X	End Loc.Y	Amplitude	Peak Speed	Peak Speed At	Average Speed	Peak Accel.	Peak Decel.	Average Accel.

Table Header for Blinks:
Event Type	Trial	Number	Start	End	Duration

Table Header for User Events:
Event Type	Trial	Number	Start	Description

UserEvent	1	1	2387502880	# Message: kneeling-nude_degas_1888.jpg
Fixation L	1	1	2387513711	2387692702	178991	806.17	864.38	79	18	-1	14.93	14.93
Fixation R	1	1	2387513711	2387692702	178991	806.17	864.38	79	18	-1	14.56	14.56
Saccade L	1	1	2387692702	2387712575	19873	742.48	865.27	737.31	865.26	0.62	62.27	1.00	31.38	485.52	-1426.15	748.13
Saccade R	1	1	2387692702	2387712575	19873	742.48	865.27	737.31	865.26	0.62	62.27	1.00	31.38	485.52	-1426.15	748.13
Fixation L	1	2	2387712575	2387931328	218753	734.21	821.86	6	71	-1	14.96	14.96
Fixation R	1	2	2387712575	2387931328	218753	734.21	821.86	6	71	-1	14.57	14.57
Saccade L	1	2	2387931328	2387971184	39856	731.84	812.25	759.05	488.94	3.00	189.13	0.50	75.37	4062.81	-4575.60	3690.23
Saccade R	1	2	2387931328	2387971184	39856	731.84	812.25	759.05	488.94	3.00	189.13	0.50	75.37	4062.81	-4575.60	3690.23
Fixation L	1	3	2387971184	2388150172	178988	774.45	478.06	39	19	-1	13.86	13.86
Fixation R	1	3	2387971184	2388150172	178988	774.45	478.06	39	19	-1	13.69	13.69
Saccade L	1	3	2388150172	2388249554	99382	798.19	472.75	1285.19	729.95	8.88	400.41	0.20	89.35	9940.47	-9878.18	4281.43
Saccade R	1	3	2388150172	2388249554	99382	798.19	472.75	1285.19	729.95	8.88	400.41	0.20	89.35	9940.47	-9878.18	4281.43
Fixation L	1	4	2388249554	2388448543	198989	1278.44	727.60	19	77	-1	10.92	10.92
Fixation R	1	4	2388249554	2388448543	198989	1278.44	727.60	19	77	-1	11.23	11.23
Saccade L	1	4	2388448543	2388547914	99371	1271.66	735.23	825.03	369.96	8.80	249.84	0.80	88.59	5237.97	-5942.77	2841.06
Saccade R	1	4	2388448543	2388547914	99371	1271.66	735.23	825.03	369.96	8.80	249.84	0.80	88.59	5237.97	-5942.77	2841.06
Fixation L	1	5	2388547914	2388746900	198986	828.80	326.34	6	59	-1	11.81	11.81
Fixation R	1	5	2388547914	2388746900	198986	828.80	326.34	6	59	-1	11.30	11.30
Saccade L	1	5	2388746900	2388786649	39749	828.20	318.70	763.14	224.86	1.65	77.98	1.00	41.51	1862.44	-1427.04	1469.09
Saccade R	1	5	2388746900	2388786649	39749	828.20	318.70	763.14	224.86	1.65	77.98	1.00	41.51	1862.44	-1427.04	1469.09
Fixation L	1	6	2388786649	2389184382	397733	730.36	222.47	44	29	-1	11.81	11.81
Fixation R	1	6	2388786649	2389184382	397733	730.36	222.47	44	29	-1	11.97	11.97
Saccade L	1	6	2389184382	2389204260	19878	768.11	229.63	904.40	237.48	0.97	138.08	1.00	48.59	3406.87	-2835.20	2361.21
Saccade R	1	6	2389184382	2389204260	19878	768.11	229.63	904.40	237.48	0.97	138.08	1.00	48.59	3406.87	-2835.20	2361.21
Fixation L	1	7	2389204260	2389423126	218866	882.78	235.10	29	26	-1	12.39	12.39
Fixation R	1	7	2389204260	2389423126	218866	882.78	235.10	29	26	-1	12.37	12.37
Saccade L	1	7	2389423126	2389462893	39767	874.99	226.44	726.86	131.27	1.95	101.73	1.00	49.15	2219.68	-2475.95	2186.38
Saccade R	1	7	2389423126	2389462893	39767	874.99	226.44	726.86	131.27	1.95	101.73	1.00	49.15	2219.68	-2475.95	2186.38
Fixation L	1	8	2389462893	2389602110	139217	727.63	142.22	12	18	-1	12.72	12.72
Fixation R	1	8	2389462893	2389602110	139217	727.63	142.22	12	18	-1	12.63	12.63
Saccade L	1	8	2389602110	2389661733	59623	722.66	136.67	1224.85	665.73	7.63	434.30	0.67	127.91	10650.47	-10722.76	5971.59
Saccade R	1	8	2389602110	2389661733	59623	722.66	136.67	1224.85	665.73	7.63	434.30	0.67	127.91	10650.47	-10722.76	5971.59
Fixation L	1	9	2389661733	2389979975	318242	1228.58	662.56	14	74	-1	12.92	12.92
Fixation R	1	9	2389661733	2389979975	318242	1228.58	662.56	14	74	-1	13.07	13.07
Saccade L	1	9	2389979975	2390159090	179115	1222.65	661.14	1361.34	217.79	15.01	301.26	0.89	83.78	7407.39	-6897.42	3116.61
Saccade R	1	9	2389979975	2390159090	179115	1222.65	661.14	1361.34	217.79	15.01	301.26	0.89	83.78	7407.39	-6897.42	3116.61
Fixation L	1	10	2390159090	2390576698	417608	1358.99	213.94	29	49	-1	13.16	13.16
Fixation R	1	10	2390159090	2390576698	417608	1358.99	213.94	29	49	-1	12.80	12.80
Saccade L	1	10	2390576698	2390815440	238742	1361.77	193.79	272.61	135.05	25.31	387.97	0.17	106.02	9532.56	-6117.73	3106.62
Saccade R	1	10	2390576698	2390815440	238742	1361.77	193.79	272.61	135.05	25.31	387.97	0.17	106.02	9532.56	-6117.73	3106.62
Fixation L	1	11	2390815440	2391193300	377860	283.51	142.21	28	17	-1	11.27	11.27
Fixation R	1	11	2390815440	2391193300	377860	283.51	142.21	28	17	-1	11.73	11.73
Saccade L	1	11	2391193300	2391332535	139235	286.87	150.42	467.39	970.80	13.35	366.36	0.29	95.85	8987.95	-8432.64	4095.57
Saccade R	1	11	2391193300	2391332535	139235	286.87	150.42	467.39	970.80	13.35	366.36	0.29	95.85	8987.95	-8432.64	4095.57
Fixation L	1	12	2391332535	2391491665	159130	461.73	951.25	19	30	-1	12.76	12.76
Fixation R	1	12	2391332535	2391491665	159130	461.73	951.25	19	30	-1	12.54	12.54
