[BeGaze]
Converted from:	C:\Documents and Settings\iViewX\Desktop\EXPERIMENTATIONS\Experiments\results\finaleart\S18F56223-finaleart-1.idf
Date:	27.03.2019 15:48:13
Version:	BeGaze 2.5.77
Sample Rate:	50
Subject:	S18F56223
Description:	Pascale Sebillot

Table Header for Fixations:
Event Type	Trial	Number	Start	End	Duration	Location X	Location Y	Dispersion X	Dispersion Y	Plane	Avg. Pupil Size X	Avg. Pupil Size Y

Table Header for Saccades:
Event Type	Trial	Number	Start	End	Duration	Start Loc.X	Start Loc.Y	End Loc.X	End Loc.Y	Amplitude	Peak Speed	Peak Speed At	Average Speed	Peak Accel.	Peak Decel.	Average Accel.

Table Header for Blinks:
Event Type	Trial	Number	Start	End	Duration

Table Header for User Events:
Event Type	Trial	Number	Start	Description

UserEvent	1	1	2223333013	# Message: the-tea-set_monet_1871.jpg
Saccade L	1	1	2223340650	2223460020	119370	992.29	380.91	789.19	711.23	20.29	406.93	1.00	170.01	8237.55	-9971.67	3687.35
Saccade R	1	1	2223340650	2223460020	119370	992.29	380.91	789.19	711.23	20.29	406.93	1.00	170.01	8237.55	-9971.67	3687.35
Fixation L	1	1	2223460020	2223658890	198870	790.13	725.25	5	22	-1	13.11	13.11
Fixation R	1	1	2223460020	2223658890	198870	790.13	725.25	5	22	-1	12.35	12.35
Saccade L	1	2	2223658890	2223857889	198999	791.72	733.71	1139.73	732.05	33.41	501.75	0.50	167.90	12258.01	-12387.52	6991.33
Saccade R	1	2	2223658890	2223857889	198999	791.72	733.71	1139.73	732.05	33.41	501.75	0.50	167.90	12258.01	-12387.52	6991.33
Fixation L	1	2	2223857889	2224076617	218728	1116.73	723.17	34	44	-1	12.20	12.20
Fixation R	1	2	2223857889	2224076617	218728	1116.73	723.17	34	44	-1	12.07	12.07
Saccade L	1	3	2224076617	2224553975	477358	1121.50	711.94	534.58	413.02	46.83	395.77	0.96	98.11	9270.01	-9877.99	3196.22
Saccade R	1	3	2224076617	2224553975	477358	1121.50	711.94	534.58	413.02	46.83	395.77	0.96	98.11	9270.01	-9877.99	3196.22
Fixation L	1	3	2224553975	2224971721	417746	542.14	420.16	27	37	-1	11.26	11.26
Fixation R	1	3	2224553975	2224971721	417746	542.14	420.16	27	37	-1	10.98	10.98
Saccade L	1	4	2224971721	2224991583	19862	560.94	443.88	561.42	525.23	0.60	82.29	1.00	30.41	1881.28	-1862.64	1284.55
Saccade R	1	4	2224971721	2224991583	19862	560.94	443.88	561.42	525.23	0.60	82.29	1.00	30.41	1881.28	-1862.64	1284.55
Fixation L	1	4	2224991583	2225289941	298358	567.78	549.11	25	38	-1	11.92	11.92
Fixation R	1	4	2224991583	2225289941	298358	567.78	549.11	25	38	-1	11.62	11.62
Saccade L	1	5	2225289941	2225329684	39743	569.02	555.81	586.90	314.72	2.17	161.82	0.50	54.55	3806.10	-3731.31	2718.78
Saccade R	1	5	2225289941	2225329684	39743	569.02	555.81	586.90	314.72	2.17	161.82	0.50	54.55	3806.10	-3731.31	2718.78
Fixation L	1	5	2225329684	2225528565	198881	605.94	353.22	32	54	-1	12.05	12.05
Fixation R	1	5	2225329684	2225528565	198881	605.94	353.22	32	54	-1	11.80	11.80
Saccade L	1	6	2225528565	2225548558	19993	619.56	366.96	622.14	381.26	0.17	14.70	1.00	8.35	193.24	-239.54	171.23
Saccade R	1	6	2225528565	2225548558	19993	619.56	366.96	622.14	381.26	0.17	14.70	1.00	8.35	193.24	-239.54	171.23
Fixation L	1	6	2225548558	2225687667	139109	620.36	396.02	7	27	-1	11.69	11.69
Fixation R	1	6	2225548558	2225687667	139109	620.36	396.02	7	27	-1	11.58	11.58
Saccade L	1	7	2225687667	2225787167	99500	623.02	407.44	1166.78	712.95	11.39	344.94	0.40	114.43	8598.43	-5733.86	4389.92
Saccade R	1	7	2225687667	2225787167	99500	623.02	407.44	1166.78	712.95	11.39	344.94	0.40	114.43	8598.43	-5733.86	4389.92
Fixation L	1	7	2225787167	2225886662	99495	1167.45	736.83	8	83	-1	11.39	11.39
Fixation R	1	7	2225787167	2225886662	99495	1167.45	736.83	8	83	-1	11.56	11.56
Saccade L	1	8	2225886662	2226025906	139244	1162.64	786.82	1042.49	794.03	6.33	94.84	1.00	45.44	1861.52	-1775.16	720.44
Saccade R	1	8	2225886662	2226025906	139244	1162.64	786.82	1042.49	794.03	6.33	94.84	1.00	45.44	1861.52	-1775.16	720.44
Fixation L	1	8	2226025906	2226204901	178995	1024.62	766.17	30	68	-1	11.59	11.59
Fixation R	1	8	2226025906	2226204901	178995	1024.62	766.17	30	68	-1	11.07	11.07
Saccade L	1	9	2226204901	2226244643	39742	1012.34	767.64	1428.87	719.14	3.74	243.33	1.00	94.14	5561.05	-5796.24	5029.09
Saccade R	1	9	2226204901	2226244643	39742	1012.34	767.64	1428.87	719.14	3.74	243.33	1.00	94.14	5561.05	-5796.24	5029.09
Fixation L	1	9	2226244643	2226443514	198871	1449.77	717.30	30	53	-1	11.94	11.94
Fixation R	1	9	2226244643	2226443514	198871	1449.77	717.30	30	53	-1	11.25	11.25
Saccade L	1	10	2226443514	2226463385	19871	1459.51	705.44	1460.02	666.22	0.57	39.67	1.00	28.51	54.71	-877.14	389.95
Saccade R	1	10	2226443514	2226463385	19871	1459.51	705.44	1460.02	666.22	0.57	39.67	1.00	28.51	54.71	-877.14	389.95
Fixation L	1	10	2226463385	2226602635	139250	1464.91	681.78	8	51	-1	11.78	11.78
Fixation R	1	10	2226463385	2226602635	139250	1464.91	681.78	8	51	-1	10.97	10.97
Saccade L	1	11	2226602635	2226642508	39873	1464.18	712.52	1466.55	364.42	6.09	407.74	1.00	152.73	8903.18	-10136.97	7649.58
Saccade R	1	11	2226602635	2226642508	39873	1464.18	712.52	1466.55	364.42	6.09	407.74	1.00	152.73	8903.18	-10136.97	7649.58
Fixation L	1	11	2226642508	2226821497	178989	1428.26	365.11	58	38	-1	11.23	11.23
Fixation R	1	11	2226642508	2226821497	178989	1428.26	365.11	58	38	-1	10.93	10.93
Saccade L	1	12	2226821497	2227318725	497228	1420.93	372.52	713.57	637.33	71.68	434.42	0.48	144.15	9907.34	-9520.74	3855.02
Saccade R	1	12	2226821497	2227318725	497228	1420.93	372.52	713.57	637.33	71.68	434.42	0.48	144.15	9907.34	-9520.74	3855.02
