[BeGaze]
Converted from:	C:\Documents and Settings\iViewX\Desktop\EXPERIMENTATIONS\Experiments\results\finaleart\S18F56223-finaleart-1.idf
Date:	27.03.2019 15:49:30
Version:	BeGaze 2.5.77
Sample Rate:	50
Subject:	S18F56223
Description:	Pascale Sebillot

Table Header for Fixations:
Event Type	Trial	Number	Start	End	Duration	Location X	Location Y	Dispersion X	Dispersion Y	Plane	Avg. Pupil Size X	Avg. Pupil Size Y

Table Header for Saccades:
Event Type	Trial	Number	Start	End	Duration	Start Loc.X	Start Loc.Y	End Loc.X	End Loc.Y	Amplitude	Peak Speed	Peak Speed At	Average Speed	Peak Accel.	Peak Decel.	Average Accel.

Table Header for Blinks:
Event Type	Trial	Number	Start	End	Duration

Table Header for User Events:
Event Type	Trial	Number	Start	Description

UserEvent	1	1	2978652240	# Message: nasturtiums-dahlias-in-a-basket_gauguin_1884.jpg
Fixation L	1	1	2978667560	2979125032	457472	667.85	568.77	25	31	-1	14.15	14.15
Fixation R	1	1	2978667560	2979125032	457472	667.85	568.77	25	31	-1	13.34	13.34
Saccade L	1	1	2979125032	2979184664	59632	675.78	580.50	943.23	607.97	4.65	240.48	0.33	78.01	5966.23	-4287.85	2860.28
Saccade R	1	1	2979125032	2979184664	59632	675.78	580.50	943.23	607.97	4.65	240.48	0.33	78.01	5966.23	-4287.85	2860.28
Fixation L	1	2	2979184664	2979304027	119363	958.23	653.67	38	60	-1	14.10	14.10
Fixation R	1	2	2979184664	2979304027	119363	958.23	653.67	38	60	-1	12.94	12.94
Saccade L	1	2	2979304027	2979323908	19881	969.34	662.83	968.83	669.57	0.11	9.20	1.00	5.71	425.84	-59.02	203.39
Saccade R	1	2	2979304027	2979323908	19881	969.34	662.83	968.83	669.57	0.11	9.20	1.00	5.71	425.84	-59.02	203.39
Fixation L	1	3	2979323908	2979483024	159116	966.61	674.72	11	33	-1	14.16	14.16
Fixation R	1	3	2979323908	2979483024	159116	966.61	674.72	11	33	-1	12.87	12.87
Saccade L	1	3	2979483024	2979502900	19876	960.45	652.01	958.70	490.19	1.19	163.67	1.00	59.79	4073.89	-3785.17	2668.81
Saccade R	1	3	2979483024	2979502900	19876	960.45	652.01	958.70	490.19	1.19	163.67	1.00	59.79	4073.89	-3785.17	2668.81
Fixation L	1	4	2979502900	2979841135	338235	957.71	535.18	7	77	-1	14.29	14.29
Fixation R	1	4	2979502900	2979841135	338235	957.71	535.18	7	77	-1	13.11	13.11
Saccade L	1	4	2979841135	2979880877	39742	956.39	567.77	1331.41	791.85	3.77	387.72	1.00	94.93	9595.28	-8814.28	5395.43
Saccade R	1	4	2979841135	2979880877	39742	956.39	567.77	1331.41	791.85	3.77	387.72	1.00	94.93	9595.28	-8814.28	5395.43
Fixation L	1	5	2979880877	2980139494	258617	1359.43	785.80	45	21	-1	14.67	14.67
Fixation R	1	5	2979880877	2980139494	258617	1359.43	785.80	45	21	-1	13.73	13.73
Saccade L	1	5	2980139494	2980159372	19878	1363.61	789.53	1369.71	906.50	0.86	118.47	1.00	43.50	2690.86	-2447.52	2016.06
Saccade R	1	5	2980139494	2980159372	19878	1363.61	789.53	1369.71	906.50	0.86	118.47	1.00	43.50	2690.86	-2447.52	2016.06
Fixation L	1	6	2980159372	2980338361	178989	1339.26	946.04	42	52	-1	15.19	15.19
Fixation R	1	6	2980159372	2980338361	178989	1339.26	946.04	42	52	-1	14.18	14.18
Saccade L	1	6	2980338361	2980358238	19877	1333.46	957.11	1326.56	969.16	0.14	14.05	1.00	7.18	138.55	-244.89	132.91
Saccade R	1	6	2980338361	2980358238	19877	1333.46	957.11	1326.56	969.16	0.14	14.05	1.00	7.18	138.55	-244.89	132.91
Fixation L	1	7	2980358238	2980576975	218737	1332.25	976.48	14	20	-1	15.67	15.67
Fixation R	1	7	2980358238	2980576975	218737	1332.25	976.48	14	20	-1	14.66	14.66
Saccade L	1	7	2980576975	2980616850	39875	1341.55	980.11	1597.09	805.21	2.86	206.61	0.50	71.77	5146.24	-4736.07	3990.95
Saccade R	1	7	2980576975	2980616850	39875	1341.55	980.11	1597.09	805.21	2.86	206.61	0.50	71.77	5146.24	-4736.07	3990.95
Fixation L	1	8	2980616850	2980974828	357978	1605.02	827.49	19	40	-1	16.60	16.60
Fixation R	1	8	2980616850	2980974828	357978	1605.02	827.49	19	40	-1	14.64	14.64
Saccade L	1	8	2980974828	2981054326	79498	1614.94	835.41	977.94	511.29	9.78	289.49	1.00	123.01	4165.18	-7060.83	3807.09
Saccade R	1	8	2980974828	2981054326	79498	1614.94	835.41	977.94	511.29	9.78	289.49	1.00	123.01	4165.18	-7060.83	3807.09
Fixation L	1	9	2981054326	2981332814	278488	944.46	490.85	45	47	-1	15.49	15.49
Fixation R	1	9	2981054326	2981332814	278488	944.46	490.85	45	47	-1	13.93	13.93
Saccade L	1	9	2981332814	2981412439	79625	932.70	464.02	789.99	461.81	2.22	134.08	1.00	27.86	3092.75	-2947.94	1056.76
Saccade R	1	9	2981332814	2981412439	79625	932.70	464.02	789.99	461.81	2.22	134.08	1.00	27.86	3092.75	-2947.94	1056.76
Fixation L	1	10	2981412439	2981850047	437608	786.50	450.65	24	23	-1	14.48	14.48
Fixation R	1	10	2981412439	2981850047	437608	786.50	450.65	24	23	-1	13.37	13.37
Saccade L	1	10	2981850047	2981909659	59612	787.16	457.75	396.65	159.62	5.50	269.62	0.67	92.21	6521.33	-6475.59	3827.37
Saccade R	1	10	2981850047	2981909659	59612	787.16	457.75	396.65	159.62	5.50	269.62	0.67	92.21	6521.33	-6475.59	3827.37
Fixation L	1	11	2981909659	2982128405	218746	393.74	183.92	16	45	-1	14.18	14.18
Fixation R	1	11	2981909659	2982128405	218746	393.74	183.92	16	45	-1	13.56	13.56
Saccade L	1	11	2982128405	2982148279	19874	394.74	203.66	313.51	193.05	0.48	82.87	1.00	24.25	1992.15	-1917.43	1342.73
Saccade R	1	11	2982128405	2982148279	19874	394.74	203.66	313.51	193.05	0.48	82.87	1.00	24.25	1992.15	-1917.43	1342.73
Fixation L	1	12	2982148279	2982426770	278491	307.76	187.60	19	22	-1	13.63	13.63
Fixation R	1	12	2982148279	2982426770	278491	307.76	187.60	19	22	-1	13.35	13.35
Saccade L	1	12	2982426770	2982486521	59751	304.20	203.22	382.16	633.17	5.86	268.98	0.33	98.11	6415.71	-5311.43	4635.91
Saccade R	1	12	2982426770	2982486521	59751	304.20	203.22	382.16	633.17	5.86	268.98	0.33	98.11	6415.71	-5311.43	4635.91
Fixation L	1	13	2982486521	2982645637	159116	369.96	624.85	23	41	-1	13.62	13.62
Fixation R	1	13	2982486521	2982645637	159116	369.96	624.85	23	41	-1	13.37	13.37
