[BeGaze]
Converted from:	C:\Documents and Settings\iViewX\Desktop\EXPERIMENTATIONS\Experiments\results\finaleart\S18F56223-finaleart-1.idf
Date:	27.03.2019 15:48:54
Version:	BeGaze 2.5.77
Sample Rate:	50
Subject:	S18F56223
Description:	Pascale Sebillot

Table Header for Fixations:
Event Type	Trial	Number	Start	End	Duration	Location X	Location Y	Dispersion X	Dispersion Y	Plane	Avg. Pupil Size X	Avg. Pupil Size Y

Table Header for Saccades:
Event Type	Trial	Number	Start	End	Duration	Start Loc.X	Start Loc.Y	End Loc.X	End Loc.Y	Amplitude	Peak Speed	Peak Speed At	Average Speed	Peak Accel.	Peak Decel.	Average Accel.

Table Header for Blinks:
Event Type	Trial	Number	Start	End	Duration

Table Header for User Events:
Event Type	Trial	Number	Start	Description

UserEvent	1	1	2621340542	# Message: void.jpg
Fixation L	1	1	2621341717	2621481114	139397	1036.97	1011.54	9	4	-1	13.13	13.13
Fixation R	1	1	2621341717	2621481114	139397	1036.97	1011.54	9	4	-1	13.32	13.32
Saccade L	1	1	2621481114	2621520714	39600	1041.74	1014.20	601.14	915.03	4.03	300.38	1.00	101.69	7459.56	-7421.06	5482.19
Saccade R	1	1	2621481114	2621520714	39600	1041.74	1014.20	601.14	915.03	4.03	300.38	1.00	101.69	7459.56	-7421.06	5482.19
Fixation L	1	2	2621520714	2621819063	298349	585.83	930.63	35	32	-1	13.26	13.26
Fixation R	1	2	2621520714	2621819063	298349	585.83	930.63	35	32	-1	13.00	13.00
Saccade L	1	2	2621819063	2621938432	119369	586.00	921.86	713.39	376.92	8.10	132.28	0.67	67.86	2793.61	-1987.26	1418.11
Saccade R	1	2	2621819063	2621938432	119369	586.00	921.86	713.39	376.92	8.10	132.28	0.67	67.86	2793.61	-1987.26	1418.11
Fixation L	1	3	2621938432	2622137302	198870	710.83	399.16	36	37	-1	12.47	12.47
Fixation R	1	3	2621938432	2622137302	198870	710.83	399.16	36	37	-1	12.92	12.92
Saccade L	1	3	2622137302	2622197044	59742	710.98	392.85	602.20	167.32	3.00	115.83	0.33	50.17	2878.30	-2482.63	1695.98
Saccade R	1	3	2622137302	2622197044	59742	710.98	392.85	602.20	167.32	3.00	115.83	0.33	50.17	2878.30	-2482.63	1695.98
Fixation L	1	4	2622197044	2622336315	139271	609.62	161.55	23	17	-1	12.53	12.53
Fixation R	1	4	2622197044	2622336315	139271	609.62	161.55	23	17	-1	13.24	13.24
Saccade L	1	4	2622336315	2622415789	79474	611.72	158.25	706.55	647.75	6.24	196.24	0.50	78.56	4481.00	-3827.50	2803.26
Saccade R	1	4	2622336315	2622415789	79474	611.72	158.25	706.55	647.75	6.24	196.24	0.50	78.56	4481.00	-3827.50	2803.26
Fixation L	1	5	2622415789	2622773903	358114	734.05	674.42	42	52	-1	13.12	13.12
Fixation R	1	5	2622415789	2622773903	358114	734.05	674.42	42	52	-1	13.33	13.33
Saccade L	1	5	2622773903	2622793772	19869	747.10	695.87	750.57	703.66	0.10	8.63	1.00	4.87	103.66	-200.17	116.12
Saccade R	1	5	2622773903	2622793772	19869	747.10	695.87	750.57	703.66	0.10	8.63	1.00	4.87	103.66	-200.17	116.12
Fixation L	1	6	2622793772	2623052265	258493	758.03	710.34	56	20	-1	13.74	13.74
Fixation R	1	6	2622793772	2623052265	258493	758.03	710.34	56	20	-1	13.76	13.76
Saccade L	1	6	2623052265	2623072136	19871	806.05	697.67	809.58	677.99	0.41	48.96	0.00	20.68	346.91	-1044.33	469.62
Saccade R	1	6	2623052265	2623072136	19871	806.05	697.67	809.58	677.99	0.41	48.96	0.00	20.68	346.91	-1044.33	469.62
Fixation L	1	7	2623072136	2623330747	258611	820.36	671.49	19	39	-1	13.99	13.99
Fixation R	1	7	2623072136	2623330747	258611	820.36	671.49	19	39	-1	14.03	14.03
