[BeGaze]
Converted from:	C:\Documents and Settings\iViewX\Desktop\EXPERIMENTATIONS\Experiments\results\finaleart\S18F56223-finaleart-1.idf
Date:	27.03.2019 15:48:16
Version:	BeGaze 2.5.77
Sample Rate:	50
Subject:	S18F56223
Description:	Pascale Sebillot

Table Header for Fixations:
Event Type	Trial	Number	Start	End	Duration	Location X	Location Y	Dispersion X	Dispersion Y	Plane	Avg. Pupil Size X	Avg. Pupil Size Y

Table Header for Saccades:
Event Type	Trial	Number	Start	End	Duration	Start Loc.X	Start Loc.Y	End Loc.X	End Loc.Y	Amplitude	Peak Speed	Peak Speed At	Average Speed	Peak Accel.	Peak Decel.	Average Accel.

Table Header for Blinks:
Event Type	Trial	Number	Start	End	Duration

Table Header for User Events:
Event Type	Trial	Number	Start	Description

UserEvent	1	1	2247764093	# Message: martin-vase-of-flowers-in-a-window.jpg
Saccade L	1	1	2247765713	2248660785	895072	733.82	594.75	1111.31	779.41	179.65	642.27	0.51	200.71	13573.89	-14448.31	5010.89
Saccade R	1	1	2247765713	2248660785	895072	733.82	594.75	1111.31	779.41	179.65	642.27	0.51	200.71	13573.89	-14448.31	5010.89
Fixation L	1	1	2248660785	2248780161	119376	1097.59	748.22	29	57	-1	11.03	11.03
Fixation R	1	1	2248660785	2248780161	119376	1097.59	748.22	29	57	-1	11.11	11.11
Saccade L	1	2	2248780161	2248800040	19879	1081.62	723.31	1090.72	817.77	0.91	95.99	1.00	45.67	1761.33	-1039.75	1248.10
Saccade R	1	2	2248780161	2248800040	19879	1081.62	723.31	1090.72	817.77	0.91	95.99	1.00	45.67	1761.33	-1039.75	1248.10
Fixation L	1	2	2248800040	2248899524	99484	1084.92	808.89	9	58	-1	11.44	11.44
Fixation R	1	2	2248800040	2248899524	99484	1084.92	808.89	9	58	-1	11.49	11.49
Saccade L	1	3	2248899524	2248919408	19884	1082.50	791.58	1209.13	926.14	1.17	186.86	1.00	59.01	4543.28	-4600.38	3280.82
Saccade R	1	3	2248899524	2248919408	19884	1082.50	791.58	1209.13	926.14	1.17	186.86	1.00	59.01	4543.28	-4600.38	3280.82
Fixation L	1	3	2248919408	2249038772	119364	1200.63	928.42	16	28	-1	11.10	11.10
Fixation R	1	3	2248919408	2249038772	119364	1200.63	928.42	16	28	-1	11.65	11.65
Saccade L	1	4	2249038772	2249098397	59625	1194.93	919.48	1532.05	319.87	7.43	260.03	0.33	124.54	6424.54	-5691.73	4811.16
Saccade R	1	4	2249038772	2249098397	59625	1194.93	919.48	1532.05	319.87	7.43	260.03	0.33	124.54	6424.54	-5691.73	4811.16
Fixation L	1	4	2249098397	2249257512	159115	1534.91	316.85	35	47	-1	12.30	12.30
Fixation R	1	4	2249098397	2249257512	159115	1534.91	316.85	35	47	-1	11.73	11.73
Saccade L	1	5	2249257512	2249277388	19876	1522.79	338.62	1518.27	375.92	0.44	38.01	1.00	22.23	645.33	-773.74	660.91
Saccade R	1	5	2249257512	2249277388	19876	1522.79	338.62	1518.27	375.92	0.44	38.01	1.00	22.23	645.33	-773.74	660.91
Fixation L	1	5	2249277388	2249695118	417730	1507.26	377.18	31	66	-1	12.22	12.22
Fixation R	1	5	2249277388	2249695118	417730	1507.26	377.18	31	66	-1	11.54	11.54
Saccade L	1	6	2249695118	2249715001	19883	1514.74	364.17	1510.41	410.89	0.49	47.47	1.00	24.63	1112.27	-827.32	710.60
Saccade R	1	6	2249695118	2249715001	19883	1514.74	364.17	1510.41	410.89	0.49	47.47	1.00	24.63	1112.27	-827.32	710.60
Fixation L	1	6	2249715001	2249913857	198856	1510.79	395.87	10	37	-1	12.24	12.24
Fixation R	1	6	2249715001	2249913857	198856	1510.79	395.87	10	37	-1	11.51	11.51
Saccade L	1	7	2249913857	2250072972	159115	1508.54	386.95	956.76	395.41	23.11	745.99	0.12	145.24	18021.65	-16593.15	5756.41
Saccade R	1	7	2249913857	2250072972	159115	1508.54	386.95	956.76	395.41	23.11	745.99	0.12	145.24	18021.65	-16593.15	5756.41
Fixation L	1	7	2250072972	2250232104	159132	963.68	438.25	13	82	-1	11.98	11.98
Fixation R	1	7	2250072972	2250232104	159132	963.68	438.25	13	82	-1	11.18	11.18
Saccade L	1	8	2250232104	2250251975	19871	965.88	468.11	966.33	486.35	0.55	78.31	1.00	27.75	-146.70	-1496.33	626.01
Saccade R	1	8	2250232104	2250251975	19871	965.88	468.11	966.33	486.35	0.55	78.31	1.00	27.75	-146.70	-1496.33	626.01
Fixation L	1	8	2250251975	2250371338	119363	961.61	487.91	24	12	-1	11.77	11.77
Fixation R	1	8	2250251975	2250371338	119363	961.61	487.91	24	12	-1	11.21	11.21
Saccade L	1	9	2250371338	2250470840	99502	941.79	491.97	898.18	345.82	12.54	395.53	1.00	125.98	7020.76	-9617.04	2855.87
Saccade R	1	9	2250371338	2250470840	99502	941.79	491.97	898.18	345.82	12.54	395.53	1.00	125.98	7020.76	-9617.04	2855.87
Fixation L	1	9	2250470840	2250689585	218745	898.42	303.50	12	65	-1	12.03	12.03
Fixation R	1	9	2250470840	2250689585	218745	898.42	303.50	12	65	-1	11.47	11.47
Saccade L	1	10	2250689585	2251763648	1074063	898.69	280.44	1013.86	804.65	269.03	769.14	0.76	250.48	13114.85	-13544.62	4706.43
Saccade R	1	10	2250689585	2251763648	1074063	898.69	280.44	1013.86	804.65	269.03	769.14	0.76	250.48	13114.85	-13544.62	4706.43
