[BeGaze]
Converted from:	C:\Documents and Settings\iViewX\Desktop\EXPERIMENTATIONS\Experiments\results\finaleart\S18F56223-finaleart-1.idf
Date:	27.03.2019 15:49:54
Version:	BeGaze 2.5.77
Sample Rate:	50
Subject:	S18F56223
Description:	Pascale Sebillot

Table Header for Fixations:
Event Type	Trial	Number	Start	End	Duration	Location X	Location Y	Dispersion X	Dispersion Y	Plane	Avg. Pupil Size X	Avg. Pupil Size Y

Table Header for Saccades:
Event Type	Trial	Number	Start	End	Duration	Start Loc.X	Start Loc.Y	End Loc.X	End Loc.Y	Amplitude	Peak Speed	Peak Speed At	Average Speed	Peak Accel.	Peak Decel.	Average Accel.

Table Header for Blinks:
Event Type	Trial	Number	Start	End	Duration

Table Header for User Events:
Event Type	Trial	Number	Start	Description

UserEvent	1	1	3227011109	# Message: void.jpg
Fixation L	1	1	3227028328	3227167747	139419	942.57	294.53	18	69	-1	15.43	15.43
Fixation R	1	1	3227028328	3227167747	139419	942.57	294.53	18	69	-1	14.97	14.97
Saccade L	1	1	3227167747	3227207323	39576	930.53	353.54	1228.71	472.31	3.45	190.26	1.00	87.21	3656.47	-4162.86	3457.75
Saccade R	1	1	3227167747	3227207323	39576	930.53	353.54	1228.71	472.31	3.45	190.26	1.00	87.21	3656.47	-4162.86	3457.75
Fixation L	1	2	3227207323	3227585156	377833	1192.13	488.64	42	30	-1	15.73	15.73
Fixation R	1	2	3227207323	3227585156	377833	1192.13	488.64	42	30	-1	15.09	15.09
Saccade L	1	2	3227585156	3227684652	99496	1186.69	487.62	621.94	147.05	9.50	172.63	0.20	95.53	4190.94	-2691.38	2131.11
Saccade R	1	2	3227585156	3227684652	99496	1186.69	487.62	621.94	147.05	9.50	172.63	0.20	95.53	4190.94	-2691.38	2131.11
Fixation L	1	3	3227684652	3228062516	377864	570.01	132.31	71	26	-1	13.08	13.08
Fixation R	1	3	3227684652	3228062516	377864	570.01	132.31	71	26	-1	13.13	13.13
Saccade L	1	3	3228062516	3228181883	119367	589.90	140.74	1019.79	345.47	8.36	189.96	0.33	70.04	3638.45	-4037.95	2308.08
Saccade R	1	3	3228062516	3228181883	119367	589.90	140.74	1019.79	345.47	8.36	189.96	0.33	70.04	3638.45	-4037.95	2308.08
Fixation L	1	4	3228181883	3228440500	258617	1049.66	378.06	46	53	-1	14.18	14.18
Fixation R	1	4	3228181883	3228440500	258617	1049.66	378.06	46	53	-1	13.81	13.81
Saccade L	1	4	3228440500	3228539998	99498	1066.23	377.28	935.18	422.92	2.73	138.48	1.00	27.45	3437.63	-3095.42	1162.72
Saccade R	1	4	3228440500	3228539998	99498	1066.23	377.28	935.18	422.92	2.73	138.48	1.00	27.45	3437.63	-3095.42	1162.72
Fixation L	1	5	3228539998	3228818356	278358	931.64	467.62	18	61	-1	14.60	14.60
Fixation R	1	5	3228539998	3228818356	278358	931.64	467.62	18	61	-1	14.07	14.07
Saccade L	1	5	3228818356	3228838234	19878	928.28	473.10	921.34	508.75	0.39	38.02	1.00	19.72	899.99	-514.66	760.03
Saccade R	1	5	3228818356	3228838234	19878	928.28	473.10	921.34	508.75	0.39	38.02	1.00	19.72	899.99	-514.66	760.03
Fixation L	1	6	3228838234	3228997362	159128	886.46	542.41	47	49	-1	14.78	14.78
Fixation R	1	6	3228838234	3228997362	159128	886.46	542.41	47	49	-1	14.07	14.07
