[BeGaze]
Converted from:	C:\Documents and Settings\iViewX\Desktop\EXPERIMENTATIONS\Experiments\results\finaleart\S18F56223-finaleart-1.idf
Date:	27.03.2019 15:49:10
Version:	BeGaze 2.5.77
Sample Rate:	50
Subject:	S18F56223
Description:	Pascale Sebillot

Table Header for Fixations:
Event Type	Trial	Number	Start	End	Duration	Location X	Location Y	Dispersion X	Dispersion Y	Plane	Avg. Pupil Size X	Avg. Pupil Size Y

Table Header for Saccades:
Event Type	Trial	Number	Start	End	Duration	Start Loc.X	Start Loc.Y	End Loc.X	End Loc.Y	Amplitude	Peak Speed	Peak Speed At	Average Speed	Peak Accel.	Peak Decel.	Average Accel.

Table Header for Blinks:
Event Type	Trial	Number	Start	End	Duration

Table Header for User Events:
Event Type	Trial	Number	Start	Description

UserEvent	1	1	2786885068	# Message: void.jpg
Fixation L	1	1	2786887091	2787066205	179114	599.46	1025.54	17	17	-1	13.50	13.50
Fixation R	1	1	2786887091	2787066205	179114	599.46	1025.54	17	17	-1	12.49	12.49
Saccade L	1	1	2787066205	2787125835	59630	608.00	1034.20	1385.67	994.19	8.21	459.93	0.33	137.73	11340.83	-9683.41	6850.19
Saccade R	1	1	2787066205	2787125835	59630	608.00	1034.20	1385.67	994.19	8.21	459.93	0.33	137.73	11340.83	-9683.41	6850.19
Fixation L	1	2	2787125835	2787364558	238723	1365.55	1030.74	34	54	-1	12.97	12.97
Fixation R	1	2	2787125835	2787364558	238723	1365.55	1030.74	34	54	-1	12.87	12.87
Saccade L	1	2	2787364558	2787563429	198871	1353.98	1046.26	947.88	468.65	13.00	152.70	0.90	65.37	1948.93	-3220.00	1396.61
Saccade R	1	2	2787364558	2787563429	198871	1353.98	1046.26	947.88	468.65	13.00	152.70	0.90	65.37	1948.93	-3220.00	1396.61
Fixation L	1	3	2787563429	2787941285	377856	929.03	447.26	29	43	-1	13.18	13.18
Fixation R	1	3	2787563429	2787941285	377856	929.03	447.26	29	43	-1	12.63	12.63
Saccade L	1	3	2787941285	2787981157	39872	933.81	441.84	716.84	484.22	2.02	121.27	0.50	50.74	2949.12	-2494.09	2611.91
Saccade R	1	3	2787941285	2787981157	39872	933.81	441.84	716.84	484.22	2.02	121.27	0.50	50.74	2949.12	-2494.09	2611.91
Fixation L	1	4	2787981157	2788199898	218741	734.39	469.02	22	23	-1	13.81	13.81
Fixation R	1	4	2787981157	2788199898	218741	734.39	469.02	22	23	-1	13.44	13.44
Saccade L	1	4	2788199898	2788319265	119367	738.16	464.53	223.60	545.78	8.60	181.01	0.33	72.06	4297.09	-4092.85	2873.51
Saccade R	1	4	2788199898	2788319265	119367	738.16	464.53	223.60	545.78	8.60	181.01	0.33	72.06	4297.09	-4092.85	2873.51
Fixation L	1	5	2788319265	2788597638	278373	218.03	532.11	45	29	-1	13.79	13.79
Fixation R	1	5	2788319265	2788597638	278373	218.03	532.11	45	29	-1	14.16	14.16
Saccade L	1	5	2788597638	2788617636	19998	251.34	537.85	496.57	546.42	1.68	248.07	1.00	83.82	5881.94	-6034.96	4091.52
Saccade R	1	5	2788597638	2788617636	19998	251.34	537.85	496.57	546.42	1.68	248.07	1.00	83.82	5881.94	-6034.96	4091.52
Fixation L	1	6	2788617636	2788816504	198868	468.64	562.95	38	44	-1	13.47	13.47
Fixation R	1	6	2788617636	2788816504	198868	468.64	562.95	38	44	-1	13.42	13.42
Saccade L	1	6	2788816504	2788876124	59620	459.97	564.39	778.99	564.54	4.02	180.64	0.67	67.35	4413.87	0.00	1656.35
Saccade R	1	6	2788816504	2788876124	59620	459.97	564.39	778.99	564.54	4.02	180.64	0.67	67.35	4413.87	0.00	1656.35
