[BeGaze]
Converted from:	C:\Documents and Settings\iViewX\Desktop\EXPERIMENTATIONS\Experiments\results\finaleart\S18F56223-finaleart-1.idf
Date:	27.03.2019 15:49:26
Version:	BeGaze 2.5.77
Sample Rate:	50
Subject:	S18F56223
Description:	Pascale Sebillot

Table Header for Fixations:
Event Type	Trial	Number	Start	End	Duration	Location X	Location Y	Dispersion X	Dispersion Y	Plane	Avg. Pupil Size X	Avg. Pupil Size Y

Table Header for Saccades:
Event Type	Trial	Number	Start	End	Duration	Start Loc.X	Start Loc.Y	End Loc.X	End Loc.Y	Amplitude	Peak Speed	Peak Speed At	Average Speed	Peak Accel.	Peak Decel.	Average Accel.

Table Header for Blinks:
Event Type	Trial	Number	Start	End	Duration

Table Header for User Events:
Event Type	Trial	Number	Start	Description

UserEvent	1	1	2948053985	# Message: delacroix-still-life-with-lobsters-1827.jpg
Saccade L	1	1	2948056654	2948176030	119376	784.90	740.00	893.36	704.06	2.64	97.97	0.83	22.14	2290.69	-1813.92	645.77
Saccade R	1	1	2948056654	2948176030	119376	784.90	740.00	893.36	704.06	2.64	97.97	0.83	22.14	2290.69	-1813.92	645.77
Fixation L	1	1	2948176030	2948315263	139233	928.27	686.65	48	46	-1	14.16	14.16
Fixation R	1	1	2948176030	2948315263	139233	928.27	686.65	48	46	-1	13.34	13.34
Saccade L	1	2	2948315263	2948335134	19871	940.84	685.93	937.78	654.89	0.36	31.55	1.00	18.14	658.81	-672.34	518.32
Saccade R	1	2	2948315263	2948335134	19871	940.84	685.93	937.78	654.89	0.36	31.55	1.00	18.14	658.81	-672.34	518.32
Fixation L	1	2	2948335134	2948573892	238758	947.09	654.31	15	21	-1	14.14	14.14
Fixation R	1	2	2948335134	2948573892	238758	947.09	654.31	15	21	-1	13.23	13.23
Saccade L	1	3	2948573892	2948633497	59605	948.80	646.87	1174.52	772.00	4.50	255.56	0.67	75.46	6292.41	-5572.95	2998.32
Saccade R	1	3	2948573892	2948633497	59605	948.80	646.87	1174.52	772.00	4.50	255.56	0.67	75.46	6292.41	-5572.95	2998.32
Fixation L	1	3	2948633497	2949071125	437628	1193.40	776.03	40	52	-1	12.09	12.09
Fixation R	1	3	2948633497	2949071125	437628	1193.40	776.03	40	52	-1	11.00	11.00
Saccade L	1	4	2949071125	2949250093	178968	1215.33	768.95	1265.49	863.42	8.14	77.66	0.22	45.50	1899.21	-1165.55	861.65
Saccade R	1	4	2949071125	2949250093	178968	1215.33	768.95	1265.49	863.42	8.14	77.66	0.22	45.50	1899.21	-1165.55	861.65
Fixation L	1	4	2949250093	2949369475	119382	1260.23	863.05	31	38	-1	12.32	12.32
Fixation R	1	4	2949250093	2949369475	119382	1260.23	863.05	31	38	-1	10.93	10.93
Saccade L	1	5	2949369475	2949389343	19868	1259.12	869.19	1272.01	702.75	1.24	168.84	1.00	62.32	4159.78	-3803.54	3141.54
Saccade R	1	5	2949369475	2949389343	19868	1259.12	869.19	1272.01	702.75	1.24	168.84	1.00	62.32	4159.78	-3803.54	3141.54
Fixation L	1	5	2949389343	2949608083	218740	1246.87	650.37	36	61	-1	12.89	12.89
Fixation R	1	5	2949389343	2949608083	218740	1246.87	650.37	36	61	-1	11.51	11.51
Saccade L	1	6	2949608083	2949647958	39875	1235.52	643.79	1142.61	533.80	1.48	89.63	0.50	37.19	2193.19	-1850.17	1869.63
Saccade R	1	6	2949608083	2949647958	39875	1235.52	643.79	1142.61	533.80	1.48	89.63	0.50	37.19	2193.19	-1850.17	1869.63
Fixation L	1	6	2949647958	2949807075	159117	1123.39	540.10	30	26	-1	13.21	13.21
Fixation R	1	6	2949647958	2949807075	159117	1123.39	540.10	30	26	-1	11.68	11.68
Saccade L	1	7	2949807075	2949846818	39743	1112.54	527.62	1413.09	362.23	3.46	195.55	1.00	87.00	4487.52	-4863.72	3808.09
Saccade R	1	7	2949807075	2949846818	39743	1112.54	527.62	1413.09	362.23	3.46	195.55	1.00	87.00	4487.52	-4863.72	3808.09
Fixation L	1	7	2949846818	2949986065	139247	1476.44	347.82	79	20	-1	12.69	12.69
Fixation R	1	7	2949846818	2949986065	139247	1476.44	347.82	79	20	-1	11.38	11.38
Saccade L	1	8	2949986065	2950005942	19877	1490.05	350.83	1488.79	363.71	0.16	13.09	1.00	8.28	262.52	102.06	189.89
Saccade R	1	8	2949986065	2950005942	19877	1490.05	350.83	1488.79	363.71	0.16	13.09	1.00	8.28	262.52	102.06	189.89
Fixation L	1	8	2950005942	2950324173	318231	1490.31	376.14	46	45	-1	12.27	12.27
Fixation R	1	8	2950005942	2950324173	318231	1490.31	376.14	46	45	-1	11.10	11.10
Saccade L	1	9	2950324173	2950363926	39753	1460.15	399.13	827.37	453.67	5.73	340.88	0.50	144.17	8338.75	-7760.18	7395.90
Saccade R	1	9	2950324173	2950363926	39753	1460.15	399.13	827.37	453.67	5.73	340.88	0.50	144.17	8338.75	-7760.18	7395.90
Fixation L	1	9	2950363926	2950662292	298366	767.99	439.77	74	23	-1	11.48	11.48
Fixation R	1	9	2950363926	2950662292	298366	767.99	439.77	74	23	-1	10.52	10.52
Saccade L	1	10	2950662292	2950721906	59614	753.33	434.92	913.39	851.92	5.43	251.61	0.67	91.00	6245.94	-4850.31	3585.23
Saccade R	1	10	2950662292	2950721906	59614	753.33	434.92	913.39	851.92	5.43	251.61	0.67	91.00	6245.94	-4850.31	3585.23
Fixation L	1	10	2950721906	2950841274	119368	868.31	856.01	55	32	-1	11.44	11.44
Fixation R	1	10	2950721906	2950841274	119368	868.31	856.01	55	32	-1	10.59	10.59
Saccade L	1	11	2950841274	2950980519	139245	862.36	867.86	592.77	887.90	6.44	258.03	0.71	46.23	6142.98	-4786.26	1610.17
Saccade R	1	11	2950841274	2950980519	139245	862.36	867.86	592.77	887.90	6.44	258.03	0.71	46.23	6142.98	-4786.26	1610.17
Fixation L	1	11	2950980519	2951119767	139248	585.18	891.21	44	48	-1	11.86	11.86
Fixation R	1	11	2950980519	2951119767	139248	585.18	891.21	44	48	-1	11.48	11.48
Saccade L	1	12	2951119767	2951139638	19871	605.13	864.18	804.91	791.00	1.41	215.13	1.00	71.19	4924.74	-5223.66	3595.28
Saccade R	1	12	2951119767	2951139638	19871	605.13	864.18	804.91	791.00	1.41	215.13	1.00	71.19	4924.74	-5223.66	3595.28
Fixation L	1	12	2951139638	2951438001	298363	786.01	789.37	58	36	-1	12.13	12.13
Fixation R	1	12	2951139638	2951438001	298363	786.01	789.37	58	36	-1	11.19	11.19
Saccade L	1	13	2951438001	2951457876	19875	753.93	787.14	741.10	799.42	0.26	17.96	1.00	13.01	127.39	-134.14	127.52
Saccade R	1	13	2951438001	2951457876	19875	753.93	787.14	741.10	799.42	0.26	17.96	1.00	13.01	127.39	-134.14	127.52
Fixation L	1	13	2951457876	2951557362	99486	751.28	801.50	36	11	-1	12.32	12.32
Fixation R	1	13	2951457876	2951557362	99486	751.28	801.50	36	11	-1	11.09	11.09
Saccade L	1	14	2951557362	2951597117	39755	777.27	798.19	1284.98	786.95	4.67	378.11	0.50	117.43	9109.27	-8731.93	5937.73
Saccade R	1	14	2951557362	2951597117	39755	777.27	798.19	1284.98	786.95	4.67	378.11	0.50	117.43	9109.27	-8731.93	5937.73
Fixation L	1	14	2951597117	2951895486	298369	1257.16	773.52	37	42	-1	12.18	12.18
Fixation R	1	14	2951597117	2951895486	298369	1257.16	773.52	37	42	-1	11.78	11.78
Saccade L	1	15	2951895486	2951935227	39741	1264.80	782.56	1371.57	764.80	2.30	134.09	0.50	57.89	2746.00	-1624.06	1725.14
Saccade R	1	15	2951895486	2951935227	39741	1264.80	782.56	1371.57	764.80	2.30	134.09	0.50	57.89	2746.00	-1624.06	1725.14
Fixation L	1	15	2951935227	2952054601	119374	1370.65	831.93	6	85	-1	12.53	12.53
Fixation R	1	15	2951935227	2952054601	119374	1370.65	831.93	6	85	-1	11.49	11.49
