[BeGaze]
Converted from:	C:\Documents and Settings\iViewX\Desktop\EXPERIMENTATIONS\Experiments\results\finaleart\S18F56223-finaleart-1.idf
Date:	27.03.2019 15:49:08
Version:	BeGaze 2.5.77
Sample Rate:	50
Subject:	S18F56223
Description:	Pascale Sebillot

Table Header for Fixations:
Event Type	Trial	Number	Start	End	Duration	Location X	Location Y	Dispersion X	Dispersion Y	Plane	Avg. Pupil Size X	Avg. Pupil Size Y

Table Header for Saccades:
Event Type	Trial	Number	Start	End	Duration	Start Loc.X	Start Loc.Y	End Loc.X	End Loc.Y	Amplitude	Peak Speed	Peak Speed At	Average Speed	Peak Accel.	Peak Decel.	Average Accel.

Table Header for Blinks:
Event Type	Trial	Number	Start	End	Duration

Table Header for User Events:
Event Type	Trial	Number	Start	Description

UserEvent	1	1	2770617865	# Message: manet-the-salmon-1868.jpg
Fixation L	1	1	2770636924	2771074529	437605	797.19	526.37	12	26	-1	12.67	12.67
Fixation R	1	1	2770636924	2771074529	437605	797.19	526.37	12	26	-1	12.31	12.31
Saccade L	1	1	2771074529	2771134158	59629	794.74	536.38	1085.48	630.86	4.86	244.53	0.67	81.58	6039.48	-5331.54	3314.84
Saccade R	1	1	2771074529	2771134158	59629	794.74	536.38	1085.48	630.86	4.86	244.53	0.67	81.58	6039.48	-5331.54	3314.84
Fixation L	1	2	2771134158	2771571757	437599	1112.57	631.57	40	51	-1	12.19	12.19
Fixation R	1	2	2771134158	2771571757	437599	1112.57	631.57	40	51	-1	11.71	11.71
Saccade L	1	2	2771571757	2771591625	19868	1085.48	629.76	749.72	617.39	1.94	339.50	1.00	97.68	8262.80	-8179.97	5522.63
Saccade R	1	2	2771571757	2771591625	19868	1085.48	629.76	749.72	617.39	1.94	339.50	1.00	97.68	8262.80	-8179.97	5522.63
Fixation L	1	3	2771591625	2771830380	238755	765.52	647.52	21	61	-1	11.83	11.83
Fixation R	1	3	2771591625	2771830380	238755	765.52	647.52	21	61	-1	11.51	11.51
Saccade L	1	3	2771830380	2771870113	39733	767.87	673.06	703.77	801.08	1.41	117.32	1.00	35.60	2773.09	-2516.69	1592.64
Saccade R	1	3	2771830380	2771870113	39733	767.87	673.06	703.77	801.08	1.41	117.32	1.00	35.60	2773.09	-2516.69	1592.64
Fixation L	1	4	2771870113	2772228105	357992	666.63	782.01	51	41	-1	12.45	12.45
Fixation R	1	4	2771870113	2772228105	357992	666.63	782.01	51	41	-1	12.05	12.05
Saccade L	1	4	2772228105	2772247979	19874	652.42	759.95	647.26	755.38	0.20	21.01	1.00	10.23	335.87	40.69	167.29
Saccade R	1	4	2772228105	2772247979	19874	652.42	759.95	647.26	755.38	0.20	21.01	1.00	10.23	335.87	40.69	167.29
Fixation L	1	5	2772247979	2772446969	198990	643.19	769.29	18	22	-1	12.69	12.69
Fixation R	1	5	2772247979	2772446969	198990	643.19	769.29	18	22	-1	12.53	12.53
Saccade L	1	5	2772446969	2772466839	19870	635.41	778.31	719.29	753.75	0.57	88.41	1.00	28.84	2129.53	-1748.08	1461.70
Saccade R	1	5	2772446969	2772466839	19870	635.41	778.31	719.29	753.75	0.57	88.41	1.00	28.84	2129.53	-1748.08	1461.70
Fixation L	1	6	2772466839	2772645839	179000	735.21	726.91	22	40	-1	12.49	12.49
Fixation R	1	6	2772466839	2772645839	179000	735.21	726.91	22	40	-1	12.38	12.38
Saccade L	1	6	2772645839	2772705458	59619	738.66	721.59	1275.43	495.15	6.28	313.01	0.67	105.32	7693.65	-7362.57	4466.95
Saccade R	1	6	2772645839	2772705458	59619	738.66	721.59	1275.43	495.15	6.28	313.01	0.67	105.32	7693.65	-7362.57	4466.95
Fixation L	1	7	2772705458	2773083442	377984	1299.47	504.35	65	23	-1	12.46	12.46
Fixation R	1	7	2772705458	2773083442	377984	1299.47	504.35	65	23	-1	11.93	11.93
Saccade L	1	7	2773083442	2773103310	19868	1254.17	512.59	1175.50	501.49	0.66	80.37	1.00	33.04	1751.78	-1682.76	1385.81
Saccade R	1	7	2773083442	2773103310	19868	1254.17	512.59	1175.50	501.49	0.66	80.37	1.00	33.04	1751.78	-1682.76	1385.81
Fixation L	1	8	2773103310	2773421553	318243	1178.33	477.99	34	46	-1	12.56	12.56
Fixation R	1	8	2773103310	2773421553	318243	1178.33	477.99	34	46	-1	11.99	11.99
Saccade L	1	8	2773421553	2773441428	19875	1194.73	484.17	1398.32	515.24	1.31	208.25	1.00	66.00	4993.10	-4666.88	3318.81
Saccade R	1	8	2773421553	2773441428	19875	1194.73	484.17	1398.32	515.24	1.31	208.25	1.00	66.00	4993.10	-4666.88	3318.81
Fixation L	1	9	2773441428	2773799405	357977	1381.53	540.98	27	70	-1	12.73	12.73
Fixation R	1	9	2773441428	2773799405	357977	1381.53	540.98	27	70	-1	11.87	11.87
Saccade L	1	9	2773799405	2773938664	139259	1383.30	495.29	974.48	450.99	7.46	258.12	0.86	53.55	6365.75	-6031.39	2219.10
Saccade R	1	9	2773799405	2773938664	139259	1383.30	495.29	974.48	450.99	7.46	258.12	0.86	53.55	6365.75	-6031.39	2219.10
Fixation L	1	10	2773938664	2774197263	258599	977.72	430.37	20	42	-1	12.58	12.58
Fixation R	1	10	2773938664	2774197263	258599	977.72	430.37	20	42	-1	11.89	11.89
Saccade L	1	10	2774197263	2774237004	39741	975.66	418.51	1192.64	367.30	2.09	125.80	1.00	52.64	2954.33	-2841.71	2536.12
Saccade R	1	10	2774197263	2774237004	39741	975.66	418.51	1192.64	367.30	2.09	125.80	1.00	52.64	2954.33	-2841.71	2536.12
Fixation L	1	11	2774237004	2774396128	159124	1188.37	368.69	6	36	-1	12.38	12.38
Fixation R	1	11	2774237004	2774396128	159124	1188.37	368.69	6	36	-1	11.51	11.51
Saccade L	1	11	2774396128	2774455883	59755	1186.56	354.65	1517.37	845.34	6.61	320.15	0.67	110.67	7906.95	-7556.64	4722.65
Saccade R	1	11	2774396128	2774455883	59755	1186.56	354.65	1517.37	845.34	6.61	320.15	0.67	110.67	7906.95	-7556.64	4722.65
Fixation L	1	12	2774455883	2774575120	119237	1506.07	858.89	17	33	-1	13.20	13.20
Fixation R	1	12	2774455883	2774575120	119237	1506.07	858.89	17	33	-1	12.29	12.29
Saccade L	1	12	2774575120	2774614992	39872	1508.42	878.32	1495.00	780.30	1.74	82.72	0.50	43.59	1824.77	0.00	1197.48
Saccade R	1	12	2774575120	2774614992	39872	1508.42	878.32	1495.00	780.30	1.74	82.72	0.50	43.59	1824.77	0.00	1197.48
