[BeGaze]
Converted from:	C:\Documents and Settings\iViewX\Desktop\EXPERIMENTATIONS\Experiments\results\finaleart\S18F56223-finaleart-1.idf
Date:	27.03.2019 15:49:40
Version:	BeGaze 2.5.77
Sample Rate:	50
Subject:	S18F56223
Description:	Pascale Sebillot

Table Header for Fixations:
Event Type	Trial	Number	Start	End	Duration	Location X	Location Y	Dispersion X	Dispersion Y	Plane	Avg. Pupil Size X	Avg. Pupil Size Y

Table Header for Saccades:
Event Type	Trial	Number	Start	End	Duration	Start Loc.X	Start Loc.Y	End Loc.X	End Loc.Y	Amplitude	Peak Speed	Peak Speed At	Average Speed	Peak Accel.	Peak Decel.	Average Accel.

Table Header for Blinks:
Event Type	Trial	Number	Start	End	Duration

Table Header for User Events:
Event Type	Trial	Number	Start	Description

UserEvent	1	1	3111124625	# Message: void.jpg
Saccade L	1	1	3111128638	3111168383	39745	1175.16	353.09	1647.82	330.12	5.04	289.06	0.50	126.78	4760.96	-6536.05	3963.43
Saccade R	1	1	3111128638	3111168383	39745	1175.16	353.09	1647.82	330.12	5.04	289.06	0.50	126.78	4760.96	-6536.05	3963.43
Fixation L	1	1	3111168383	3111267887	99504	1630.88	340.08	26	28	-1	17.02	17.02
Fixation R	1	1	3111168383	3111267887	99504	1630.88	340.08	26	28	-1	14.82	14.82
Saccade L	1	2	3111267887	3111287756	19869	1630.36	353.37	1627.51	410.57	0.52	57.93	1.00	26.17	1325.44	-1320.86	1143.73
Saccade R	1	2	3111267887	3111287756	19869	1630.36	353.37	1627.51	410.57	0.52	57.93	1.00	26.17	1325.44	-1320.86	1143.73
Fixation L	1	2	3111287756	3111586110	298354	1618.77	386.46	26	41	-1	16.74	16.74
Fixation R	1	2	3111287756	3111586110	298354	1618.77	386.46	26	41	-1	14.53	14.53
Saccade L	1	3	3111586110	3111745235	159125	1601.08	401.11	537.43	507.15	17.62	309.66	0.62	110.75	7159.06	-3970.33	3203.18
Saccade R	1	3	3111586110	3111745235	159125	1601.08	401.11	537.43	507.15	17.62	309.66	0.62	110.75	7159.06	-3970.33	3203.18
Fixation L	1	3	3111745235	3111844611	99376	501.01	493.93	58	38	-1	14.33	14.33
Fixation R	1	3	3111745235	3111844611	99376	501.01	493.93	58	38	-1	12.14	12.14
Saccade L	1	4	3111844611	3111864619	20008	500.92	480.00	494.42	469.03	0.21	15.57	1.00	10.27	17.49	-66.70	38.06
Saccade R	1	4	3111844611	3111864619	20008	500.92	480.00	494.42	469.03	0.21	15.57	1.00	10.27	17.49	-66.70	38.06
Fixation L	1	4	3111864619	3112123107	258488	486.92	439.82	17	52	-1	13.27	13.27
Fixation R	1	4	3111864619	3112123107	258488	486.92	439.82	17	52	-1	11.29	11.29
Saccade L	1	5	3112123107	3112202711	79604	480.07	420.89	1209.42	609.92	10.03	369.95	0.50	126.03	9176.93	-6551.22	5027.64
Saccade R	1	5	3112123107	3112202711	79604	480.07	420.89	1209.42	609.92	10.03	369.95	0.50	126.03	9176.93	-6551.22	5027.64
Fixation L	1	5	3112202711	3112461203	258492	1187.42	645.24	35	57	-1	12.98	12.98
Fixation R	1	5	3112202711	3112461203	258492	1187.42	645.24	35	57	-1	10.85	10.85
Saccade L	1	6	3112461203	3112481203	20000	1174.21	667.35	1050.52	653.62	0.82	125.88	1.00	40.81	2893.11	-2794.54	1991.49
Saccade R	1	6	3112461203	3112481203	20000	1174.21	667.35	1050.52	653.62	0.82	125.88	1.00	40.81	2893.11	-2794.54	1991.49
Fixation L	1	6	3112481203	3112779434	298231	1048.58	670.22	9	32	-1	14.10	14.10
Fixation R	1	6	3112481203	3112779434	298231	1048.58	670.22	9	32	-1	11.70	11.70
Saccade L	1	7	3112779434	3112799440	20006	1045.01	663.03	929.26	653.26	0.71	117.50	1.00	35.41	2878.89	-1864.27	1718.78
Saccade R	1	7	3112779434	3112799440	20006	1045.01	663.03	929.26	653.26	0.71	117.50	1.00	35.41	2878.89	-1864.27	1718.78
Fixation L	1	7	3112799440	3113117686	318246	954.23	649.75	58	18	-1	14.77	14.77
Fixation R	1	7	3112799440	3113117686	318246	954.23	649.75	58	18	-1	12.32	12.32
