[BeGaze]
Converted from:	C:\Documents and Settings\iViewX\Desktop\EXPERIMENTATIONS\Experiments\results\finaleart\S18F56223-finaleart-1.idf
Date:	27.03.2019 15:48:28
Version:	BeGaze 2.5.77
Sample Rate:	50
Subject:	S18F56223
Description:	Pascale Sebillot

Table Header for Fixations:
Event Type	Trial	Number	Start	End	Duration	Location X	Location Y	Dispersion X	Dispersion Y	Plane	Avg. Pupil Size X	Avg. Pupil Size Y

Table Header for Saccades:
Event Type	Trial	Number	Start	End	Duration	Start Loc.X	Start Loc.Y	End Loc.X	End Loc.Y	Amplitude	Peak Speed	Peak Speed At	Average Speed	Peak Accel.	Peak Decel.	Average Accel.

Table Header for Blinks:
Event Type	Trial	Number	Start	End	Duration

Table Header for User Events:
Event Type	Trial	Number	Start	Description

UserEvent	1	1	2373241105	# Message: void.jpg
Saccade L	1	1	2373252476	2373451317	198841	1461.00	68.37	1422.23	1018.69	19.86	360.53	0.60	99.88	8888.13	-5319.11	2699.93
Saccade R	1	1	2373252476	2373451317	198841	1461.00	68.37	1422.23	1018.69	19.86	360.53	0.60	99.88	8888.13	-5319.11	2699.93
Fixation L	1	1	2373451317	2373570698	119381	1408.33	979.03	28	64	-1	12.85	12.85
Fixation R	1	1	2373451317	2373570698	119381	1408.33	979.03	28	64	-1	12.30	12.30
Saccade L	1	2	2373570698	2373590566	19868	1395.59	954.39	1386.21	943.59	0.30	20.76	0.00	15.07	-147.47	-402.01	236.32
Saccade R	1	2	2373570698	2373590566	19868	1395.59	954.39	1386.21	943.59	0.30	20.76	0.00	15.07	-147.47	-402.01	236.32
Fixation L	1	2	2373590566	2373729809	139243	1383.68	951.92	12	50	-1	13.01	13.01
Fixation R	1	2	2373590566	2373729809	139243	1383.68	951.92	12	50	-1	12.79	12.79
Saccade L	1	3	2373729809	2373829200	99391	1375.58	950.99	1120.94	429.02	9.18	181.61	0.60	92.32	3128.84	-2545.86	1946.01
Saccade R	1	3	2373729809	2373829200	99391	1375.58	950.99	1120.94	429.02	9.18	181.61	0.60	92.32	3128.84	-2545.86	1946.01
Fixation L	1	3	2373829200	2374107668	278468	1147.18	406.67	36	37	-1	12.72	12.72
Fixation R	1	3	2373829200	2374107668	278468	1147.18	406.67	36	37	-1	12.29	12.29
Saccade L	1	4	2374107668	2374187289	79621	1153.78	391.40	286.12	347.67	10.76	298.76	0.25	135.11	7378.88	-3689.07	3892.97
Saccade R	1	4	2374107668	2374187289	79621	1153.78	391.40	286.12	347.67	10.76	298.76	0.25	135.11	7378.88	-3689.07	3892.97
Fixation L	1	4	2374187289	2374286657	99368	263.16	326.70	35	41	-1	12.85	12.85
Fixation R	1	4	2374187289	2374286657	99368	263.16	326.70	35	41	-1	12.92	12.92
Saccade L	1	5	2374286657	2374306656	19999	252.64	313.32	30.53	297.65	1.64	225.13	1.00	82.04	5216.91	-4398.92	3493.19
Saccade R	1	5	2374286657	2374306656	19999	252.64	313.32	30.53	297.65	1.64	225.13	1.00	82.04	5216.91	-4398.92	3493.19
Fixation L	1	5	2374306656	2374585016	278360	66.30	302.65	59	31	-1	12.32	12.32
Fixation R	1	5	2374306656	2374585016	278360	66.30	302.65	59	31	-1	13.10	13.10
Saccade L	1	6	2374585016	2374704396	119380	71.81	318.98	737.23	686.34	11.52	417.22	0.67	96.54	10017.91	-7244.37	3883.71
Saccade R	1	6	2374585016	2374704396	119380	71.81	318.98	737.23	686.34	11.52	417.22	0.67	96.54	10017.91	-7244.37	3883.71
Fixation L	1	6	2374704396	2374982894	278498	710.44	648.39	40	51	-1	13.29	13.29
Fixation R	1	6	2374704396	2374982894	278498	710.44	648.39	40	51	-1	13.39	13.39
Saccade L	1	7	2374982894	2375002765	19871	696.60	634.55	692.55	628.50	0.09	7.36	1.00	4.59	78.36	-4.21	45.37
Saccade R	1	7	2374982894	2375002765	19871	696.60	634.55	692.55	628.50	0.09	7.36	1.00	4.59	78.36	-4.21	45.37
Fixation L	1	7	2375002765	2375181750	178985	688.42	620.50	7	33	-1	13.49	13.49
Fixation R	1	7	2375002765	2375181750	178985	688.42	620.50	7	33	-1	13.32	13.32
Saccade L	1	8	2375181750	2375221499	39749	690.26	598.00	836.49	499.61	1.97	177.45	0.50	49.57	4385.27	-328.37	1571.21
Saccade R	1	8	2375181750	2375221499	39749	690.26	598.00	836.49	499.61	1.97	177.45	0.50	49.57	4385.27	-328.37	1571.21
