[BeGaze]
Converted from:	C:\Documents and Settings\iViewX\Desktop\EXPERIMENTATIONS\Experiments\results\finaleart\S18F56223-finaleart-1.idf
Date:	27.03.2019 15:47:59
Version:	BeGaze 2.5.77
Sample Rate:	50
Subject:	S18F56223
Description:	Pascale Sebillot

Table Header for Fixations:
Event Type	Trial	Number	Start	End	Duration	Location X	Location Y	Dispersion X	Dispersion Y	Plane	Avg. Pupil Size X	Avg. Pupil Size Y

Table Header for Saccades:
Event Type	Trial	Number	Start	End	Duration	Start Loc.X	Start Loc.Y	End Loc.X	End Loc.Y	Amplitude	Peak Speed	Peak Speed At	Average Speed	Peak Accel.	Peak Decel.	Average Accel.

Table Header for Blinks:
Event Type	Trial	Number	Start	End	Duration

Table Header for User Events:
Event Type	Trial	Number	Start	Description

UserEvent	1	1	1900323936	# Message: REJECTED_landscape_cross_0.jpg
Fixation L	1	1	1900325314	1900822536	497222	944.88	618.50	15	29	-1	15.80	15.80
Fixation R	1	1	1900325314	1900822536	497222	944.88	618.50	15	29	-1	15.31	15.31
Saccade L	1	1	1900822536	1900862413	39877	933.60	626.52	588.43	495.36	3.33	244.90	0.50	83.59	5612.03	-5884.10	4388.87
Saccade R	1	1	1900822536	1900862413	39877	933.60	626.52	588.43	495.36	3.33	244.90	0.50	83.59	5612.03	-5884.10	4388.87
Fixation L	1	2	1900862413	1901041396	178983	601.86	498.01	18	19	-1	14.93	14.93
Fixation R	1	2	1900862413	1901041396	178983	601.86	498.01	18	19	-1	14.14	14.14
Saccade L	1	2	1901041396	1901081160	39764	604.25	498.49	514.44	283.05	2.14	164.72	1.00	53.90	4038.42	-3768.27	2659.62
Saccade R	1	2	1901041396	1901081160	39764	604.25	498.49	514.44	283.05	2.14	164.72	1.00	53.90	4038.42	-3768.27	2659.62
Fixation L	1	3	1901081160	1901339766	258606	519.65	282.93	24	30	-1	13.37	13.37
Fixation R	1	3	1901081160	1901339766	258606	519.65	282.93	24	30	-1	13.01	13.01
Saccade L	1	3	1901339766	1901399389	59623	527.41	287.14	971.88	228.37	4.84	229.32	1.00	81.19	3840.45	-5137.52	3505.03
Saccade R	1	3	1901339766	1901399389	59623	527.41	287.14	971.88	228.37	4.84	229.32	1.00	81.19	3840.45	-5137.52	3505.03
Fixation L	1	4	1901399389	1901638121	238732	971.27	182.48	4	60	-1	13.11	13.11
Fixation R	1	4	1901399389	1901638121	238732	971.27	182.48	4	60	-1	12.51	12.51
Saccade L	1	4	1901638121	1901697748	59627	971.24	168.36	1575.75	170.59	6.44	230.18	0.67	108.03	5628.87	-5007.84	3839.76
Saccade R	1	4	1901638121	1901697748	59627	971.24	168.36	1575.75	170.59	6.44	230.18	0.67	108.03	5628.87	-5007.84	3839.76
Fixation L	1	5	1901697748	1901797243	99495	1613.96	152.45	53	43	-1	12.61	12.61
Fixation R	1	5	1901697748	1901797243	99495	1613.96	152.45	53	43	-1	12.36	12.36
Saccade L	1	5	1901797243	1901817140	19897	1629.01	147.31	1633.48	135.05	0.20	13.20	1.00	10.06	182.10	-149.78	141.34
Saccade R	1	5	1901797243	1901817140	19897	1629.01	147.31	1633.48	135.05	0.20	13.20	1.00	10.06	182.10	-149.78	141.34
Fixation L	1	6	1901817140	1902015991	198851	1646.37	125.71	58	22	-1	12.74	12.74
Fixation R	1	6	1901817140	1902015991	198851	1646.37	125.71	58	22	-1	12.24	12.24
Saccade L	1	6	1902015991	1902135358	119367	1691.18	119.42	1697.51	276.63	4.74	78.96	0.17	39.71	1638.93	-1490.73	694.72
Saccade R	1	6	1902015991	1902135358	119367	1691.18	119.42	1697.51	276.63	4.74	78.96	0.17	39.71	1638.93	-1490.73	694.72
Fixation L	1	7	1902135358	1902274602	139244	1676.85	294.44	32	65	-1	12.74	12.74
Fixation R	1	7	1902135358	1902274602	139244	1676.85	294.44	32	65	-1	11.81	11.81
Saccade L	1	7	1902274602	1902354090	79488	1665.95	310.87	1396.40	973.57	8.89	273.12	0.50	111.90	6494.71	-6438.45	4255.52
Saccade R	1	7	1902274602	1902354090	79488	1665.95	310.87	1396.40	973.57	8.89	273.12	0.50	111.90	6494.71	-6438.45	4255.52
Fixation L	1	8	1902354090	1902771833	417743	1407.83	961.19	28	44	-1	13.80	13.80
Fixation R	1	8	1902354090	1902771833	417743	1407.83	961.19	28	44	-1	12.98	12.98
Saccade L	1	8	1902771833	1902791697	19864	1422.32	951.07	1594.46	942.36	0.96	174.31	1.00	48.44	4263.79	-4274.21	2897.00
Saccade R	1	8	1902771833	1902791697	19864	1422.32	951.07	1594.46	942.36	0.96	174.31	1.00	48.44	4263.79	-4274.21	2897.00
Fixation L	1	9	1902791697	1903010443	218746	1612.74	927.79	38	45	-1	13.80	13.80
Fixation R	1	9	1902791697	1903010443	218746	1612.74	927.79	38	45	-1	13.05	13.05
Saccade L	1	9	1903010443	1903050310	39867	1633.28	899.25	1691.58	431.87	4.10	368.03	0.50	102.82	8972.28	-9042.89	5736.22
Saccade R	1	9	1903010443	1903050310	39867	1633.28	899.25	1691.58	431.87	4.10	368.03	0.50	102.82	8972.28	-9042.89	5736.22
Fixation L	1	10	1903050310	1903328673	278363	1676.72	471.71	28	70	-1	13.72	13.72
Fixation R	1	10	1903050310	1903328673	278363	1676.72	471.71	28	70	-1	12.60	12.60
Saccade L	1	10	1903328673	1903348679	20006	1662.84	490.24	1657.54	493.87	0.09	6.51	1.00	4.47	92.76	59.53	75.89
Saccade R	1	10	1903328673	1903348679	20006	1662.84	490.24	1657.54	493.87	0.09	6.51	1.00	4.47	92.76	59.53	75.89
Fixation L	1	11	1903348679	1903448040	99361	1657.47	486.46	32	38	-1	13.56	13.56
Fixation R	1	11	1903348679	1903448040	99361	1657.47	486.46	32	38	-1	12.51	12.51
Saccade L	1	11	1903448040	1903467919	19879	1634.22	460.37	1648.71	381.77	0.80	80.85	1.00	40.24	1822.60	-1721.99	1351.55
Saccade R	1	11	1903448040	1903467919	19879	1634.22	460.37	1648.71	381.77	0.80	80.85	1.00	40.24	1822.60	-1721.99	1351.55
Fixation L	1	12	1903467919	1903686783	218864	1655.85	379.18	17	72	-1	13.60	13.60
Fixation R	1	12	1903467919	1903686783	218864	1655.85	379.18	17	72	-1	12.33	12.33
Saccade L	1	12	1903686783	1903766284	79501	1657.80	334.88	1718.22	81.64	4.02	89.40	1.00	50.60	1523.01	-1679.54	1002.66
Saccade R	1	12	1903686783	1903766284	79501	1657.80	334.88	1718.22	81.64	4.02	89.40	1.00	50.60	1523.01	-1679.54	1002.66
Fixation L	1	13	1903766284	1903945276	178992	1732.65	91.02	35	48	-1	12.71	12.71
Fixation R	1	13	1903766284	1903945276	178992	1732.65	91.02	35	48	-1	12.00	12.00
Saccade L	1	13	1903945276	1903965274	19998	1708.12	128.52	1650.60	286.41	1.19	169.95	1.00	59.61	4143.65	-3984.40	3118.01
Saccade R	1	13	1903945276	1903965274	19998	1708.12	128.52	1650.60	286.41	1.19	169.95	1.00	59.61	4143.65	-3984.40	3118.01
Fixation L	1	14	1903965274	1904124400	159126	1642.44	282.83	15	14	-1	12.47	12.47
Fixation R	1	14	1903965274	1904124400	159126	1642.44	282.83	15	14	-1	11.99	11.99
Saccade L	1	14	1904124400	1904203885	79485	1636.82	290.89	576.43	709.89	13.41	429.71	0.50	168.69	10594.68	-7281.85	5777.43
Saccade R	1	14	1904124400	1904203885	79485	1636.82	290.89	576.43	709.89	13.41	429.71	0.50	168.69	10594.68	-7281.85	5777.43
Fixation L	1	15	1904203885	1904323254	119369	583.12	690.67	17	47	-1	12.95	12.95
Fixation R	1	15	1904203885	1904323254	119369	583.12	690.67	17	47	-1	12.11	12.11
