[BeGaze]
Converted from:	C:\Documents and Settings\iViewX\Desktop\EXPERIMENTATIONS\Experiments\results\finaleart\S18F56223-finaleart-1.idf
Date:	27.03.2019 15:49:03
Version:	BeGaze 2.5.77
Sample Rate:	50
Subject:	S18F56223
Description:	Pascale Sebillot

Table Header for Fixations:
Event Type	Trial	Number	Start	End	Duration	Location X	Location Y	Dispersion X	Dispersion Y	Plane	Avg. Pupil Size X	Avg. Pupil Size Y

Table Header for Saccades:
Event Type	Trial	Number	Start	End	Duration	Start Loc.X	Start Loc.Y	End Loc.X	End Loc.Y	Amplitude	Peak Speed	Peak Speed At	Average Speed	Peak Accel.	Peak Decel.	Average Accel.

Table Header for Blinks:
Event Type	Trial	Number	Start	End	Duration

Table Header for User Events:
Event Type	Trial	Number	Start	Description

UserEvent	1	1	2725776543	# Message: void.jpg
Fixation L	1	1	2725784795	2725983629	198834	1464.86	455.17	17	21	-1	10.65	10.65
Fixation R	1	1	2725784795	2725983629	198834	1464.86	455.17	17	21	-1	10.83	10.83
Saccade L	1	1	2725983629	2726063249	79620	1459.14	463.73	794.82	215.88	9.10	327.56	0.50	114.27	7916.71	-5208.78	3918.67
Saccade R	1	1	2725983629	2726063249	79620	1459.14	463.73	794.82	215.88	9.10	327.56	0.50	114.27	7916.71	-5208.78	3918.67
Fixation L	1	2	2726063249	2726262120	198871	812.61	227.17	32	28	-1	10.87	10.87
Fixation R	1	2	2726063249	2726262120	198871	812.61	227.17	32	28	-1	11.15	11.15
Saccade L	1	2	2726262120	2726301864	39744	805.37	232.72	810.33	403.68	1.87	95.35	1.00	46.97	2101.47	-2087.72	1707.90
Saccade R	1	2	2726262120	2726301864	39744	805.37	232.72	810.33	403.68	1.87	95.35	1.00	46.97	2101.47	-2087.72	1707.90
Fixation L	1	3	2726301864	2726600226	298362	801.94	353.78	20	65	-1	10.54	10.54
Fixation R	1	3	2726301864	2726600226	298362	801.94	353.78	20	65	-1	11.29	11.29
Saccade L	1	3	2726600226	2726639973	39747	797.92	361.72	686.09	596.74	2.91	175.78	0.50	73.33	4149.75	-2656.01	2524.06
Saccade R	1	3	2726600226	2726639973	39747	797.92	361.72	686.09	596.74	2.91	175.78	0.50	73.33	4149.75	-2656.01	2524.06
Fixation L	1	4	2726639973	2727137214	497241	688.23	642.05	27	68	-1	11.80	11.80
Fixation R	1	4	2726639973	2727137214	497241	688.23	642.05	27	68	-1	12.48	12.48
Saccade L	1	4	2727137214	2727157205	19991	668.21	644.37	660.70	642.51	0.20	22.88	0.00	9.83	92.80	-459.93	210.21
Saccade R	1	4	2727137214	2727157205	19991	668.21	644.37	660.70	642.51	0.20	22.88	0.00	9.83	92.80	-459.93	210.21
Fixation L	1	5	2727157205	2727594686	437481	647.90	663.01	27	49	-1	12.85	12.85
Fixation R	1	5	2727157205	2727594686	437481	647.90	663.01	27	49	-1	13.62	13.62
Saccade L	1	5	2727594686	2727614676	19990	660.59	671.92	667.91	619.53	0.60	53.51	1.00	30.02	1246.39	760.77	963.89
Saccade R	1	5	2727594686	2727614676	19990	660.59	671.92	667.91	619.53	0.60	53.51	1.00	30.02	1246.39	760.77	963.89
Fixation L	1	6	2727614676	2727773798	159122	671.00	607.08	9	87	-1	12.84	12.84
Fixation R	1	6	2727614676	2727773798	159122	671.00	607.08	9	87	-1	13.69	13.69
