[BeGaze]
Converted from:	C:\Documents and Settings\iViewX\Desktop\EXPERIMENTATIONS\Experiments\results\finaleart\S18F56223-finaleart-1.idf
Date:	27.03.2019 15:49:45
Version:	BeGaze 2.5.77
Sample Rate:	50
Subject:	S18F56223
Description:	Pascale Sebillot

Table Header for Fixations:
Event Type	Trial	Number	Start	End	Duration	Location X	Location Y	Dispersion X	Dispersion Y	Plane	Avg. Pupil Size X	Avg. Pupil Size Y

Table Header for Saccades:
Event Type	Trial	Number	Start	End	Duration	Start Loc.X	Start Loc.Y	End Loc.X	End Loc.Y	Amplitude	Peak Speed	Peak Speed At	Average Speed	Peak Accel.	Peak Decel.	Average Accel.

Table Header for Blinks:
Event Type	Trial	Number	Start	End	Duration

Table Header for User Events:
Event Type	Trial	Number	Start	Description

UserEvent	1	1	3155869307	# Message: reclining-nude_bazille_1860.jpg
Fixation L	1	1	3155881433	3156020782	139349	829.23	483.69	7	23	-1	13.60	13.60
Fixation R	1	1	3155881433	3156020782	139349	829.23	483.69	7	23	-1	12.70	12.70
Saccade L	1	1	3156020782	3156040616	19834	830.48	501.70	727.07	510.52	0.71	104.98	1.00	35.87	2437.49	-2312.43	1679.93
Saccade R	1	1	3156020782	3156040616	19834	830.48	501.70	727.07	510.52	0.71	104.98	1.00	35.87	2437.49	-2312.43	1679.93
Fixation L	1	2	3156040616	3156139914	99298	718.32	498.64	16	26	-1	13.58	13.58
Fixation R	1	2	3156040616	3156139914	99298	718.32	498.64	16	26	-1	12.53	12.53
Saccade L	1	2	3156139914	3156159790	19876	710.81	483.71	821.00	520.72	0.75	117.57	1.00	37.75	2899.26	-2478.54	1813.18
Saccade R	1	2	3156139914	3156159790	19876	710.81	483.71	821.00	520.72	0.75	117.57	1.00	37.75	2899.26	-2478.54	1813.18
Fixation L	1	3	3156159790	3156418401	258611	827.04	538.78	17	51	-1	13.72	13.72
Fixation R	1	3	3156159790	3156418401	258611	827.04	538.78	17	51	-1	12.62	12.62
Saccade L	1	3	3156418401	3156537771	119370	835.87	557.86	563.22	659.28	6.38	187.59	0.17	53.47	4532.03	-4310.44	2553.18
Saccade R	1	3	3156418401	3156537771	119370	835.87	557.86	563.22	659.28	6.38	187.59	0.17	53.47	4532.03	-4310.44	2553.18
Fixation L	1	4	3156537771	3156736634	198863	565.31	664.62	15	27	-1	13.86	13.86
Fixation R	1	4	3156537771	3156736634	198863	565.31	664.62	15	27	-1	13.01	13.01
Saccade L	1	4	3156736634	3156756517	19883	573.78	660.39	734.61	669.97	1.07	162.93	1.00	54.00	3795.71	-3871.38	2657.15
Saccade R	1	4	3156736634	3156756517	19883	573.78	660.39	734.61	669.97	1.07	162.93	1.00	54.00	3795.71	-3871.38	2657.15
Fixation L	1	5	3156756517	3157054868	298351	725.41	656.42	19	22	-1	13.11	13.11
Fixation R	1	5	3156756517	3157054868	298351	725.41	656.42	19	22	-1	12.30	12.30
Saccade L	1	5	3157054868	3157074755	19887	721.95	651.44	406.18	535.73	2.18	339.81	1.00	109.56	8417.32	-7891.16	6058.81
Saccade R	1	5	3157054868	3157074755	19887	721.95	651.44	406.18	535.73	2.18	339.81	1.00	109.56	8417.32	-7891.16	6058.81
Fixation L	1	6	3157074755	3157174242	99487	356.16	538.16	83	12	-1	12.70	12.70
Fixation R	1	6	3157074755	3157174242	99487	356.16	538.16	83	12	-1	12.23	12.23
Saccade L	1	6	3157174242	3157194122	19880	368.08	544.42	359.75	549.37	0.22	19.53	0.00	10.82	136.94	-247.70	131.90
Saccade R	1	6	3157174242	3157194122	19880	368.08	544.42	359.75	549.37	0.22	19.53	0.00	10.82	136.94	-247.70	131.90
Fixation L	1	7	3157194122	3157392988	198866	374.79	573.02	28	46	-1	12.64	12.64
Fixation R	1	7	3157194122	3157392988	198866	374.79	573.02	28	46	-1	12.14	12.14
Saccade L	1	7	3157392988	3157412859	19871	386.75	595.77	395.85	618.23	0.19	24.52	1.00	9.68	503.63	-485.88	369.12
Saccade R	1	7	3157392988	3157412859	19871	386.75	595.77	395.85	618.23	0.19	24.52	1.00	9.68	503.63	-485.88	369.12
Fixation L	1	8	3157412859	3158109075	696216	408.52	616.29	30	31	-1	12.56	12.56
Fixation R	1	8	3157412859	3158109075	696216	408.52	616.29	30	31	-1	12.33	12.33
Saccade L	1	8	3158109075	3158486939	377864	417.21	603.48	1706.50	842.41	53.88	500.87	0.42	142.59	9618.47	-9542.82	5051.37
Saccade R	1	8	3158109075	3158486939	377864	417.21	603.48	1706.50	842.41	53.88	500.87	0.42	142.59	9618.47	-9542.82	5051.37
Fixation L	1	9	3158486939	3158685946	199007	1665.14	837.89	80	12	-1	13.81	13.81
Fixation R	1	9	3158486939	3158685946	199007	1665.14	837.89	80	12	-1	12.25	12.25
Saccade L	1	9	3158685946	3158725672	39726	1658.15	836.43	1425.43	844.83	3.76	344.25	0.50	94.56	8591.28	-8252.73	5401.30
Saccade R	1	9	3158685946	3158725672	39726	1658.15	836.43	1425.43	844.83	3.76	344.25	0.50	94.56	8591.28	-8252.73	5401.30
Fixation L	1	10	3158725672	3158884798	159126	1421.45	824.02	23	50	-1	13.51	13.51
Fixation R	1	10	3158725672	3158884798	159126	1421.45	824.02	23	50	-1	12.19	12.19
Saccade L	1	10	3158884798	3158924545	39747	1422.36	800.35	1246.72	795.39	2.48	93.61	1.00	62.43	1497.36	-1348.08	1156.18
Saccade R	1	10	3158884798	3158924545	39747	1422.36	800.35	1246.72	795.39	2.48	93.61	1.00	62.43	1497.36	-1348.08	1156.18
Fixation L	1	11	3158924545	3159063792	139247	1272.02	781.21	60	23	-1	14.21	14.21
Fixation R	1	11	3158924545	3159063792	139247	1272.02	781.21	60	23	-1	12.88	12.88
Saccade L	1	11	3159063792	3159083656	19864	1273.49	771.66	1160.28	612.22	1.16	197.74	1.00	58.47	4628.48	-4645.34	3235.99
Saccade R	1	11	3159063792	3159083656	19864	1273.49	771.66	1160.28	612.22	1.16	197.74	1.00	58.47	4628.48	-4645.34	3235.99
Fixation L	1	12	3159083656	3159382031	298375	1176.11	620.58	29	28	-1	14.63	14.63
Fixation R	1	12	3159083656	3159382031	298375	1176.11	620.58	29	28	-1	12.94	12.94
Saccade L	1	12	3159382031	3159401900	19869	1189.59	634.76	1306.13	641.50	0.87	118.07	1.00	43.79	2797.08	-2589.52	1844.82
Saccade R	1	12	3159382031	3159401900	19869	1189.59	634.76	1306.13	641.50	0.87	118.07	1.00	43.79	2797.08	-2589.52	1844.82
Fixation L	1	13	3159401900	3159859371	457471	1284.49	641.96	33	25	-1	14.36	14.36
Fixation R	1	13	3159401900	3159859371	457471	1284.49	641.96	33	25	-1	13.02	13.02
