[BeGaze]
Converted from:	C:\Documents and Settings\iViewX\Desktop\EXPERIMENTATIONS\Experiments\results\finaleart\S18F56223-finaleart-1.idf
Date:	27.03.2019 15:49:26
Version:	BeGaze 2.5.77
Sample Rate:	50
Subject:	S18F56223
Description:	Pascale Sebillot

Table Header for Fixations:
Event Type	Trial	Number	Start	End	Duration	Location X	Location Y	Dispersion X	Dispersion Y	Plane	Avg. Pupil Size X	Avg. Pupil Size Y

Table Header for Saccades:
Event Type	Trial	Number	Start	End	Duration	Start Loc.X	Start Loc.Y	End Loc.X	End Loc.Y	Amplitude	Peak Speed	Peak Speed At	Average Speed	Peak Accel.	Peak Decel.	Average Accel.

Table Header for Blinks:
Event Type	Trial	Number	Start	End	Duration

Table Header for User Events:
Event Type	Trial	Number	Start	Description

UserEvent	1	1	2946008216	# Message: void.jpg
Saccade L	1	1	2946027877	2946127358	99481	485.77	819.68	476.90	1096.87	6.79	205.47	0.40	68.24	5136.68	-4239.14	2030.73
Saccade R	1	1	2946027877	2946127358	99481	485.77	819.68	476.90	1096.87	6.79	205.47	0.40	68.24	5136.68	-4239.14	2030.73
Fixation L	1	1	2946127358	2946286482	159124	421.93	1103.13	75	23	-1	12.71	12.71
Fixation R	1	1	2946127358	2946286482	159124	421.93	1103.13	75	23	-1	12.06	12.06
Saccade L	1	2	2946286482	2946306348	19866	418.46	1111.78	424.30	1118.08	0.27	20.92	1.00	13.62	210.78	-91.81	123.60
Saccade R	1	2	2946286482	2946306348	19866	418.46	1111.78	424.30	1118.08	0.27	20.92	1.00	13.62	210.78	-91.81	123.60
Fixation L	1	2	2946306348	2946425711	119363	418.68	1112.80	12	26	-1	13.26	13.26
Fixation R	1	2	2946306348	2946425711	119363	418.68	1112.80	12	26	-1	12.54	12.54
Saccade L	1	3	2946425711	2946505215	79504	424.98	1110.43	481.86	535.96	7.37	194.02	0.75	92.74	3354.32	-3951.09	2595.12
Saccade R	1	3	2946425711	2946505215	79504	424.98	1110.43	481.86	535.96	7.37	194.02	0.75	92.74	3354.32	-3951.09	2595.12
Fixation L	1	3	2946505215	2946803582	298367	496.54	533.07	39	51	-1	13.00	13.00
Fixation R	1	3	2946505215	2946803582	298367	496.54	533.07	39	51	-1	12.64	12.64
Saccade L	1	4	2946803582	2946863336	59754	516.22	548.89	841.15	577.48	3.85	154.10	0.33	64.45	3777.32	-2543.34	2446.10
Saccade R	1	4	2946803582	2946863336	59754	516.22	548.89	841.15	577.48	3.85	154.10	0.33	64.45	3777.32	-2543.34	2446.10
Fixation L	1	4	2946863336	2947280935	417599	851.07	597.88	21	49	-1	13.63	13.63
Fixation R	1	4	2946863336	2947280935	417599	851.07	597.88	21	49	-1	12.82	12.82
Saccade L	1	5	2947280935	2947320806	39871	850.79	588.70	805.61	731.66	1.69	102.12	0.50	42.50	2463.73	-2012.03	2067.47
Saccade R	1	5	2947280935	2947320806	39871	850.79	588.70	805.61	731.66	1.69	102.12	0.50	42.50	2463.73	-2012.03	2067.47
Fixation L	1	5	2947320806	2947997027	676221	794.82	748.06	22	49	-1	14.05	14.05
Fixation R	1	5	2947320806	2947997027	676221	794.82	748.06	22	49	-1	13.12	13.12
