[BeGaze]
Converted from:	C:\Documents and Settings\iViewX\Desktop\EXPERIMENTATIONS\Experiments\results\finaleart\S18F56223-finaleart-1.idf
Date:	27.03.2019 15:49:32
Version:	BeGaze 2.5.77
Sample Rate:	50
Subject:	S18F56223
Description:	Pascale Sebillot

Table Header for Fixations:
Event Type	Trial	Number	Start	End	Duration	Location X	Location Y	Dispersion X	Dispersion Y	Plane	Avg. Pupil Size X	Avg. Pupil Size Y

Table Header for Saccades:
Event Type	Trial	Number	Start	End	Duration	Start Loc.X	Start Loc.Y	End Loc.X	End Loc.Y	Amplitude	Peak Speed	Peak Speed At	Average Speed	Peak Accel.	Peak Decel.	Average Accel.

Table Header for Blinks:
Event Type	Trial	Number	Start	End	Duration

Table Header for User Events:
Event Type	Trial	Number	Start	Description

UserEvent	1	1	2994997989	# Message: void.jpg
Fixation L	1	1	2995017219	2995116866	99647	743.33	581.34	19	11	-1	13.98	13.98
Fixation R	1	1	2995017219	2995116866	99647	743.33	581.34	19	11	-1	12.97	12.97
Saccade L	1	1	2995116866	2995156632	39766	756.04	579.72	925.89	559.01	3.66	233.29	0.50	92.01	5789.90	-3563.69	3635.04
Saccade R	1	1	2995116866	2995156632	39766	756.04	579.72	925.89	559.01	3.66	233.29	0.50	92.01	5789.90	-3563.69	3635.04
Fixation L	1	2	2995156632	2995693438	536806	924.24	493.89	7	89	-1	13.40	13.40
Fixation R	1	2	2995156632	2995693438	536806	924.24	493.89	7	89	-1	12.50	12.50
Saccade L	1	2	2995693438	2995713444	20006	922.55	500.31	809.45	489.54	0.72	114.92	1.00	36.06	2811.93	-2514.24	1944.99
Saccade R	1	2	2995693438	2995713444	20006	922.55	500.31	809.45	489.54	0.72	114.92	1.00	36.06	2811.93	-2514.24	1944.99
Fixation L	1	3	2995713444	2996051546	338102	791.23	456.52	24	45	-1	13.09	13.09
Fixation R	1	3	2995713444	2996051546	338102	791.23	456.52	24	45	-1	12.24	12.24
Saccade L	1	3	2996051546	2996071426	19880	793.72	450.91	721.13	520.28	0.74	101.56	1.00	37.12	2436.02	-2478.67	1938.54
Saccade R	1	3	2996051546	2996071426	19880	793.72	450.91	721.13	520.28	0.74	101.56	1.00	37.12	2436.02	-2478.67	1938.54
Fixation L	1	4	2996071426	2996310040	238614	722.68	560.19	11	49	-1	13.59	13.59
Fixation R	1	4	2996071426	2996310040	238614	722.68	560.19	11	49	-1	12.66	12.66
Saccade L	1	4	2996310040	2996330035	19995	719.70	568.63	536.77	554.50	1.09	185.54	1.00	54.63	4589.32	-4582.81	3216.71
Saccade R	1	4	2996310040	2996330035	19995	719.70	568.63	536.77	554.50	1.09	185.54	1.00	54.63	4589.32	-4582.81	3216.71
Fixation L	1	5	2996330035	2996628277	298242	509.38	573.46	45	39	-1	13.92	13.92
Fixation R	1	5	2996330035	2996628277	298242	509.38	573.46	45	39	-1	13.20	13.20
Saccade L	1	5	2996628277	2996648269	19992	491.21	565.14	620.24	532.88	0.90	134.53	1.00	45.06	3322.57	-2793.67	2197.70
Saccade R	1	5	2996628277	2996648269	19992	491.21	565.14	620.24	532.88	0.90	134.53	1.00	45.06	3322.57	-2793.67	2197.70
Fixation L	1	6	2996648269	2996827267	178998	670.18	538.69	67	29	-1	13.91	13.91
Fixation R	1	6	2996648269	2996827267	178998	670.18	538.69	67	29	-1	13.10	13.10
Saccade L	1	6	2996827267	2996847144	19877	682.68	551.16	686.87	563.79	0.19	19.44	1.00	9.57	-108.34	-236.33	164.72
Saccade R	1	6	2996827267	2996847144	19877	682.68	551.16	686.87	563.79	0.19	19.44	1.00	9.57	-108.34	-236.33	164.72
Fixation L	1	7	2996847144	2996986379	139235	689.70	572.09	4	20	-1	14.07	14.07
Fixation R	1	7	2996847144	2996986379	139235	689.70	572.09	4	20	-1	13.04	13.04
