[BeGaze]
Converted from:	C:\Documents and Settings\iViewX\Desktop\EXPERIMENTATIONS\Experiments\results\finaleart\S18F56223-finaleart-1.idf
Date:	27.03.2019 15:48:18
Version:	BeGaze 2.5.77
Sample Rate:	50
Subject:	S18F56223
Description:	Pascale Sebillot

Table Header for Fixations:
Event Type	Trial	Number	Start	End	Duration	Location X	Location Y	Dispersion X	Dispersion Y	Plane	Avg. Pupil Size X	Avg. Pupil Size Y

Table Header for Saccades:
Event Type	Trial	Number	Start	End	Duration	Start Loc.X	Start Loc.Y	End Loc.X	End Loc.Y	Amplitude	Peak Speed	Peak Speed At	Average Speed	Peak Accel.	Peak Decel.	Average Accel.

Table Header for Blinks:
Event Type	Trial	Number	Start	End	Duration

Table Header for User Events:
Event Type	Trial	Number	Start	Description

UserEvent	1	1	2264092576	# Message: void.jpg
Saccade L	1	1	2264095520	2264194997	99477	1252.15	907.54	1437.35	979.18	4.40	170.66	1.00	44.20	4087.65	-3643.69	1513.57
Saccade R	1	1	2264095520	2264194997	99477	1252.15	907.54	1437.35	979.18	4.40	170.66	1.00	44.20	4087.65	-3643.69	1513.57
Fixation L	1	1	2264194997	2264354108	159111	1424.06	989.06	23	15	-1	13.56	13.56
Fixation R	1	1	2264194997	2264354108	159111	1424.06	989.06	23	15	-1	12.98	12.98
Saccade L	1	2	2264354108	2264393859	39751	1422.15	995.08	1711.14	1066.38	2.81	194.01	0.50	70.68	4650.62	-3770.36	3344.74
Saccade R	1	2	2264354108	2264393859	39751	1422.15	995.08	1711.14	1066.38	2.81	194.01	0.50	70.68	4650.62	-3770.36	3344.74
Fixation L	1	2	2264393859	2264572850	178991	1685.09	1104.24	35	49	-1	12.97	12.97
Fixation R	1	2	2264393859	2264572850	178991	1685.09	1104.24	35	49	-1	12.84	12.84
Saccade L	1	3	2264572850	2265627048	1054198	1676.38	1116.06	673.52	643.29	224.83	618.13	0.26	213.27	14620.47	-13287.09	5089.73
Saccade R	1	3	2264572850	2265627048	1054198	1676.38	1116.06	673.52	643.29	224.83	618.13	0.26	213.27	14620.47	-13287.09	5089.73
Fixation L	1	3	2265627048	2265746424	119376	667.76	641.68	25	40	-1	13.46	13.46
Fixation R	1	3	2265627048	2265746424	119376	667.76	641.68	25	40	-1	13.14	13.14
Saccade L	1	4	2265746424	2266084528	338104	681.06	630.52	503.35	967.79	83.28	455.37	0.18	246.32	9280.80	-9956.94	4746.10
Saccade R	1	4	2265746424	2266084528	338104	681.06	630.52	503.35	967.79	83.28	455.37	0.18	246.32	9280.80	-9956.94	4746.10
