[BeGaze]
Converted from:	C:\Documents and Settings\iViewX\Desktop\EXPERIMENTATIONS\Experiments\results\finaleart\S18F56223-finaleart-1.idf
Date:	27.03.2019 15:49:20
Version:	BeGaze 2.5.77
Sample Rate:	50
Subject:	S18F56223
Description:	Pascale Sebillot

Table Header for Fixations:
Event Type	Trial	Number	Start	End	Duration	Location X	Location Y	Dispersion X	Dispersion Y	Plane	Avg. Pupil Size X	Avg. Pupil Size Y

Table Header for Saccades:
Event Type	Trial	Number	Start	End	Duration	Start Loc.X	Start Loc.Y	End Loc.X	End Loc.Y	Amplitude	Peak Speed	Peak Speed At	Average Speed	Peak Accel.	Peak Decel.	Average Accel.

Table Header for Blinks:
Event Type	Trial	Number	Start	End	Duration

Table Header for User Events:
Event Type	Trial	Number	Start	Description

UserEvent	1	1	2903259367	# Message: void.jpg
Fixation L	1	1	2903264146	2903701712	437566	1039.46	624.15	13	77	-1	12.65	12.65
Fixation R	1	1	2903264146	2903701712	437566	1039.46	624.15	13	77	-1	10.35	10.35
Saccade L	1	1	2903701712	2903721584	19872	1045.96	661.69	1047.81	688.53	0.40	27.22	1.00	20.03	531.52	-305.49	337.74
Saccade R	1	1	2903701712	2903721584	19872	1045.96	661.69	1047.81	688.53	0.40	27.22	1.00	20.03	531.52	-305.49	337.74
Fixation L	1	2	2903721584	2904019943	298359	1065.07	690.96	27	35	-1	12.61	12.61
Fixation R	1	2	2903721584	2904019943	298359	1065.07	690.96	27	35	-1	10.23	10.23
Saccade L	1	2	2904019943	2904039816	19873	1075.23	704.93	971.96	627.90	1.02	130.31	1.00	51.30	2684.85	-2447.65	2034.95
Saccade R	1	2	2904019943	2904039816	19873	1075.23	704.93	971.96	627.90	1.02	130.31	1.00	51.30	2684.85	-2447.65	2034.95
Fixation L	1	3	2904039816	2904318315	278499	982.51	661.72	22	55	-1	12.82	12.82
Fixation R	1	3	2904039816	2904318315	278499	982.51	661.72	22	55	-1	10.55	10.55
Saccade L	1	3	2904318315	2904497310	178995	985.08	670.42	707.26	342.43	9.46	162.80	0.89	52.83	3775.67	-2616.00	1457.09
Saccade R	1	3	2904318315	2904497310	178995	985.08	670.42	707.26	342.43	9.46	162.80	0.89	52.83	3775.67	-2616.00	1457.09
Fixation L	1	4	2904497310	2904855410	358100	694.05	332.30	37	61	-1	13.00	13.00
Fixation R	1	4	2904497310	2904855410	358100	694.05	332.30	37	61	-1	11.75	11.75
Saccade L	1	4	2904855410	2904895164	39754	705.81	344.22	704.66	456.27	1.49	86.18	1.00	37.48	1994.25	-1738.20	1310.43
Saccade R	1	4	2904855410	2904895164	39754	705.81	344.22	704.66	456.27	1.49	86.18	1.00	37.48	1994.25	-1738.20	1310.43
Fixation L	1	5	2904895164	2905213404	318240	704.52	467.22	17	79	-1	13.74	13.74
Fixation R	1	5	2904895164	2905213404	318240	704.52	467.22	17	79	-1	12.26	12.26
Saccade L	1	5	2905213404	2905253156	39752	692.05	442.72	689.78	435.17	0.30	8.67	0.00	7.52	0.00	-59.25	29.17
Saccade R	1	5	2905213404	2905253156	39752	692.05	442.72	689.78	435.17	0.30	8.67	0.00	7.52	0.00	-59.25	29.17
