[BeGaze]
Converted from:	C:\Documents and Settings\iViewX\Desktop\EXPERIMENTATIONS\Experiments\results\finaleart\S18F56223-finaleart-1.idf
Date:	27.03.2019 15:49:00
Version:	BeGaze 2.5.77
Sample Rate:	50
Subject:	S18F56223
Description:	Pascale Sebillot

Table Header for Fixations:
Event Type	Trial	Number	Start	End	Duration	Location X	Location Y	Dispersion X	Dispersion Y	Plane	Avg. Pupil Size X	Avg. Pupil Size Y

Table Header for Saccades:
Event Type	Trial	Number	Start	End	Duration	Start Loc.X	Start Loc.Y	End Loc.X	End Loc.Y	Amplitude	Peak Speed	Peak Speed At	Average Speed	Peak Accel.	Peak Decel.	Average Accel.

Table Header for Blinks:
Event Type	Trial	Number	Start	End	Duration

Table Header for User Events:
Event Type	Trial	Number	Start	Description

UserEvent	1	1	2701370901	# Message: void.jpg
Fixation L	1	1	2701379590	2701598336	218746	505.68	756.00	30	54	-1	8.66	8.66
Fixation R	1	1	2701379590	2701598336	218746	505.68	756.00	30	54	-1	9.87	9.87
Saccade L	1	1	2701598336	2701737596	139260	505.50	764.42	685.92	667.81	6.03	153.81	0.71	43.31	3652.13	-2710.46	1246.56
Saccade R	1	1	2701598336	2701737596	139260	505.50	764.42	685.92	667.81	6.03	153.81	0.71	43.31	3652.13	-2710.46	1246.56
Fixation L	1	2	2701737596	2702016061	278465	696.89	695.37	30	62	-1	9.88	9.88
Fixation R	1	2	2701737596	2702016061	278465	696.89	695.37	30	62	-1	11.10	11.10
Saccade L	1	2	2702016061	2702035935	19874	716.88	714.18	767.85	699.46	0.45	53.66	1.00	22.82	1120.70	-1210.78	874.55
Saccade R	1	2	2702016061	2702035935	19874	716.88	714.18	767.85	699.46	0.45	53.66	1.00	22.82	1120.70	-1210.78	874.55
Fixation L	1	3	2702035935	2702175171	139236	777.36	706.50	16	19	-1	10.32	10.32
Fixation R	1	3	2702035935	2702175171	139236	777.36	706.50	16	19	-1	11.06	11.06
Saccade L	1	3	2702175171	2702274670	99499	783.99	718.31	683.71	177.89	7.27	136.11	0.40	73.07	3238.00	-2222.82	1712.74
Saccade R	1	3	2702175171	2702274670	99499	783.99	718.31	683.71	177.89	7.27	136.11	0.40	73.07	3238.00	-2222.82	1712.74
Fixation L	1	4	2702274670	2702553031	278361	660.42	203.73	46	51	-1	10.31	10.31
Fixation R	1	4	2702274670	2702553031	278361	660.42	203.73	46	51	-1	11.35	11.35
Saccade L	1	4	2702553031	2702573029	19998	648.82	229.11	639.80	246.69	0.24	19.98	1.00	11.89	164.37	-304.59	202.37
Saccade R	1	4	2702553031	2702573029	19998	648.82	229.11	639.80	246.69	0.24	19.98	1.00	11.89	164.37	-304.59	202.37
Fixation L	1	5	2702573029	2702672398	99369	653.03	244.69	39	28	-1	9.88	9.88
Fixation R	1	5	2702573029	2702672398	99369	653.03	244.69	39	28	-1	11.15	11.15
Saccade L	1	5	2702672398	2702732137	59739	679.55	265.79	971.60	596.76	5.62	217.39	0.33	94.01	4940.72	-2454.54	2529.89
Saccade R	1	5	2702672398	2702732137	59739	679.55	265.79	971.60	596.76	5.62	217.39	0.33	94.01	4940.72	-2454.54	2529.89
Fixation L	1	6	2702732137	2703229379	497242	982.76	566.40	19	80	-1	10.88	10.88
Fixation R	1	6	2702732137	2703229379	497242	982.76	566.40	19	80	-1	11.27	11.27
Saccade L	1	6	2703229379	2703249251	19872	988.41	562.54	870.95	564.27	0.86	118.82	1.00	43.15	2830.68	-2220.63	1943.77
Saccade R	1	6	2703229379	2703249251	19872	988.41	562.54	870.95	564.27	0.86	118.82	1.00	43.15	2830.68	-2220.63	1943.77
Fixation L	1	7	2703249251	2703368620	119369	883.82	582.40	19	36	-1	11.32	11.32
Fixation R	1	7	2703249251	2703368620	119369	883.82	582.40	19	36	-1	11.45	11.45
