[BeGaze]
Converted from:	C:\Documents and Settings\iViewX\Desktop\EXPERIMENTATIONS\Experiments\results\finaleart\S18F56223-finaleart-1.idf
Date:	27.03.2019 15:49:23
Version:	BeGaze 2.5.77
Sample Rate:	50
Subject:	S18F56223
Description:	Pascale Sebillot

Table Header for Fixations:
Event Type	Trial	Number	Start	End	Duration	Location X	Location Y	Dispersion X	Dispersion Y	Plane	Avg. Pupil Size X	Avg. Pupil Size Y

Table Header for Saccades:
Event Type	Trial	Number	Start	End	Duration	Start Loc.X	Start Loc.Y	End Loc.X	End Loc.Y	Amplitude	Peak Speed	Peak Speed At	Average Speed	Peak Accel.	Peak Decel.	Average Accel.

Table Header for Blinks:
Event Type	Trial	Number	Start	End	Duration

Table Header for User Events:
Event Type	Trial	Number	Start	Description

UserEvent	1	1	2927689694	# Message: void.jpg
Fixation L	1	1	2927709185	2927808556	99371	1368.75	665.41	54	33	-1	14.50	14.50
Fixation R	1	1	2927709185	2927808556	99371	1368.75	665.41	54	33	-1	13.01	13.01
Saccade L	1	1	2927808556	2927868288	59732	1370.37	662.95	1462.95	329.47	5.68	283.03	0.33	95.14	6700.19	-5157.32	3881.71
Saccade R	1	1	2927808556	2927868288	59732	1370.37	662.95	1462.95	329.47	5.68	283.03	0.33	95.14	6700.19	-5157.32	3881.71
Fixation L	1	2	2927868288	2928226269	357981	1459.54	348.26	33	59	-1	14.12	14.12
Fixation R	1	2	2927868288	2928226269	357981	1459.54	348.26	33	59	-1	12.78	12.78
Saccade L	1	2	2928226269	2928246140	19871	1442.16	374.96	1440.22	380.73	0.10	8.08	0.00	4.97	99.64	-115.76	72.60
Saccade R	1	2	2928226269	2928246140	19871	1442.16	374.96	1440.22	380.73	0.10	8.08	0.00	4.97	99.64	-115.76	72.60
Fixation L	1	3	2928246140	2928405264	159124	1439.88	390.82	7	26	-1	14.18	14.18
Fixation R	1	3	2928246140	2928405264	159124	1439.88	390.82	7	26	-1	12.81	12.81
Saccade L	1	3	2928405264	2928584249	178985	1436.25	405.17	723.02	661.38	13.48	322.13	0.67	75.32	7394.48	-4336.94	2264.12
Saccade R	1	3	2928405264	2928584249	178985	1436.25	405.17	723.02	661.38	13.48	322.13	0.67	75.32	7394.48	-4336.94	2264.12
Fixation L	1	4	2928584249	2928902485	318236	683.48	671.07	55	20	-1	14.63	14.63
Fixation R	1	4	2928584249	2928902485	318236	683.48	671.07	55	20	-1	13.67	13.67
Saccade L	1	4	2928902485	2928922364	19879	667.77	661.68	836.96	603.59	1.23	180.91	1.00	61.85	4409.71	-4309.01	3295.56
Saccade R	1	4	2928902485	2928922364	19879	667.77	661.68	836.96	603.59	1.23	180.91	1.00	61.85	4409.71	-4309.01	3295.56
Fixation L	1	5	2928922364	2929320219	397855	869.11	563.78	39	60	-1	14.52	14.52
Fixation R	1	5	2928922364	2929320219	397855	869.11	563.78	39	60	-1	13.35	13.35
Saccade L	1	5	2929320219	2929340088	19869	876.14	574.28	876.55	570.04	0.07	5.34	1.00	3.58	9.69	-73.36	36.24
Saccade R	1	5	2929320219	2929340088	19869	876.14	574.28	876.55	570.04	0.07	5.34	1.00	3.58	9.69	-73.36	36.24
Fixation L	1	6	2929340088	2929678208	338120	875.62	578.85	8	59	-1	14.61	14.61
Fixation R	1	6	2929340088	2929678208	338120	875.62	578.85	8	59	-1	13.24	13.24
