[BeGaze]
Converted from:	C:\Documents and Settings\iViewX\Desktop\EXPERIMENTATIONS\Experiments\results\finaleart\S18F56223-finaleart-1.idf
Date:	27.03.2019 15:48:56
Version:	BeGaze 2.5.77
Sample Rate:	50
Subject:	S18F56223
Description:	Pascale Sebillot

Table Header for Fixations:
Event Type	Trial	Number	Start	End	Duration	Location X	Location Y	Dispersion X	Dispersion Y	Plane	Avg. Pupil Size X	Avg. Pupil Size Y

Table Header for Saccades:
Event Type	Trial	Number	Start	End	Duration	Start Loc.X	Start Loc.Y	End Loc.X	End Loc.Y	Amplitude	Peak Speed	Peak Speed At	Average Speed	Peak Accel.	Peak Decel.	Average Accel.

Table Header for Blinks:
Event Type	Trial	Number	Start	End	Duration

Table Header for User Events:
Event Type	Trial	Number	Start	Description

UserEvent	1	1	2639645479	# Message: void.jpg
Fixation L	1	1	2639660534	2639879273	218739	1187.36	484.78	16	11	-1	13.73	13.73
Fixation R	1	1	2639660534	2639879273	218739	1187.36	484.78	16	11	-1	13.35	13.35
Saccade L	1	1	2639879273	2639899271	19998	1194.55	487.66	1304.33	622.51	1.14	175.85	1.00	56.90	4371.07	-3602.66	3020.70
Saccade R	1	1	2639879273	2639899271	19998	1194.55	487.66	1304.33	622.51	1.14	175.85	1.00	56.90	4371.07	-3602.66	3020.70
Fixation L	1	2	2639899271	2640177642	278371	1293.95	651.07	28	45	-1	13.20	13.20
Fixation R	1	2	2639899271	2640177642	278371	1293.95	651.07	28	45	-1	13.17	13.17
Blink L	1	1	2640177642	2640456138	278496
Blink R	1	1	2640177642	2640456138	278496
Saccade L	1	2	2640456138	2640515876	59738	633.85	709.99	741.54	709.75	1.78	90.83	1.00	29.71	2203.86	-2055.59	1109.94
Saccade R	1	2	2640456138	2640515876	59738	633.85	709.99	741.54	709.75	1.78	90.83	1.00	29.71	2203.86	-2055.59	1109.94
Fixation L	1	3	2640515876	2641013103	497227	738.55	717.81	29	60	-1	12.84	12.84
Fixation R	1	3	2640515876	2641013103	497227	738.55	717.81	29	60	-1	12.30	12.30
Saccade L	1	3	2641013103	2641032992	19889	754.47	727.20	765.72	722.98	0.21	17.92	0.00	10.77	242.55	-386.83	223.29
Saccade R	1	3	2641013103	2641032992	19889	754.47	727.20	765.72	722.98	0.21	17.92	0.00	10.77	242.55	-386.83	223.29
Fixation L	1	4	2641032992	2641629691	596699	773.78	710.98	18	54	-1	13.57	13.57
Fixation R	1	4	2641032992	2641629691	596699	773.78	710.98	18	54	-1	13.12	13.12
