[BeGaze]
Converted from:	C:\Documents and Settings\iViewX\Desktop\EXPERIMENTATIONS\Experiments\results\finaleart\S18F56223-finaleart-1.idf
Date:	27.03.2019 15:49:53
Version:	BeGaze 2.5.77
Sample Rate:	50
Subject:	S18F56223
Description:	Pascale Sebillot

Table Header for Fixations:
Event Type	Trial	Number	Start	End	Duration	Location X	Location Y	Dispersion X	Dispersion Y	Plane	Avg. Pupil Size X	Avg. Pupil Size Y

Table Header for Saccades:
Event Type	Trial	Number	Start	End	Duration	Start Loc.X	Start Loc.Y	End Loc.X	End Loc.Y	Amplitude	Peak Speed	Peak Speed At	Average Speed	Peak Accel.	Peak Decel.	Average Accel.

Table Header for Blinks:
Event Type	Trial	Number	Start	End	Duration

Table Header for User Events:
Event Type	Trial	Number	Start	Description

UserEvent	1	1	3216846784	# Message: courbet-the-bathers-1858.jpg
Saccade L	1	1	3216864528	3216983766	119238	814.93	668.03	711.04	353.30	5.70	173.60	0.67	47.80	4273.72	-2281.84	1271.03
Saccade R	1	1	3216864528	3216983766	119238	814.93	668.03	711.04	353.30	5.70	173.60	0.67	47.80	4273.72	-2281.84	1271.03
Fixation L	1	1	3216983766	3217321867	338101	710.96	336.55	17	25	-1	16.39	16.39
Fixation R	1	1	3216983766	3217321867	338101	710.96	336.55	17	25	-1	15.20	15.20
Saccade L	1	2	3217321867	3217361756	39889	709.13	350.25	721.86	612.28	2.50	159.11	0.50	62.67	3946.47	-2927.81	3005.84
Saccade R	1	2	3217321867	3217361756	39889	709.13	350.25	721.86	612.28	2.50	159.11	0.50	62.67	3946.47	-2927.81	3005.84
Fixation L	1	2	3217361756	3217560603	198847	751.57	579.05	40	43	-1	15.92	15.92
Fixation R	1	2	3217361756	3217560603	198847	751.57	579.05	40	43	-1	15.00	15.00
Saccade L	1	3	3217560603	3217580479	19876	762.19	579.18	920.37	735.33	1.24	224.74	1.00	62.17	5476.43	-5387.85	3744.88
Saccade R	1	3	3217560603	3217580479	19876	762.19	579.18	920.37	735.33	1.24	224.74	1.00	62.17	5476.43	-5387.85	3744.88
Fixation L	1	3	3217580479	3217699844	119365	910.40	717.13	13	38	-1	15.98	15.98
Fixation R	1	3	3217580479	3217699844	119365	910.40	717.13	13	38	-1	15.05	15.05
Saccade L	1	4	3217699844	3217739592	39748	909.63	724.49	852.92	213.86	4.46	368.45	0.50	112.20	9110.15	-8773.10	6290.56
Saccade R	1	4	3217699844	3217739592	39748	909.63	724.49	852.92	213.86	4.46	368.45	0.50	112.20	9110.15	-8773.10	6290.56
Fixation L	1	4	3217739592	3218057827	318235	849.34	190.51	16	82	-1	15.44	15.44
Fixation R	1	4	3217739592	3218057827	318235	849.34	190.51	16	82	-1	14.47	14.47
Saccade L	1	5	3218057827	3218177204	119377	845.91	148.80	870.90	301.84	4.01	135.29	0.83	33.63	3086.28	-2241.96	1039.89
Saccade R	1	5	3218057827	3218177204	119377	845.91	148.80	870.90	301.84	4.01	135.29	0.83	33.63	3086.28	-2241.96	1039.89
Fixation L	1	5	3218177204	3218575057	397853	899.53	301.15	37	40	-1	15.33	15.33
Fixation R	1	5	3218177204	3218575057	397853	899.53	301.15	37	40	-1	14.51	14.51
Saccade L	1	6	3218575057	3218594933	19876	894.86	296.35	878.60	241.74	0.52	57.64	1.00	26.01	1289.87	-994.08	1066.02
Saccade R	1	6	3218575057	3218594933	19876	894.86	296.35	878.60	241.74	0.52	57.64	1.00	26.01	1289.87	-994.08	1066.02
Fixation L	1	6	3218594933	3218754048	159115	841.03	217.70	59	31	-1	15.87	15.87
Fixation R	1	6	3218594933	3218754048	159115	841.03	217.70	59	31	-1	15.14	15.14
Saccade L	1	7	3218754048	3218773922	19874	818.85	210.73	812.35	206.41	0.09	7.90	1.00	4.69	62.18	-148.15	73.23
Saccade R	1	7	3218754048	3218773922	19874	818.85	210.73	812.35	206.41	0.09	7.90	1.00	4.69	62.18	-148.15	73.23
Fixation L	1	7	3218773922	3218893292	119370	807.75	209.22	11	5	-1	15.98	15.98
Fixation R	1	7	3218773922	3218893292	119370	807.75	209.22	11	5	-1	15.19	15.19
Saccade L	1	8	3218893292	3218933047	39755	810.71	210.28	506.56	280.85	2.73	219.97	0.50	68.67	5384.32	-5185.02	3619.48
Saccade R	1	8	3218893292	3218933047	39755	810.71	210.28	506.56	280.85	2.73	219.97	0.50	68.67	5384.32	-5185.02	3619.48
Fixation L	1	8	3218933047	3219072289	139242	517.94	284.20	16	46	-1	16.01	16.01
Fixation R	1	8	3218933047	3219072289	139242	517.94	284.20	16	46	-1	15.27	15.27
Saccade L	1	9	3219072289	3219092185	19896	523.15	290.99	561.64	294.76	0.33	39.12	1.00	16.83	733.93	-798.13	625.75
Saccade R	1	9	3219072289	3219092185	19896	523.15	290.99	561.64	294.76	0.33	39.12	1.00	16.83	733.93	-798.13	625.75
Fixation L	1	9	3219092185	3219330772	238587	563.41	314.87	33	27	-1	16.27	16.27
Fixation R	1	9	3219092185	3219330772	238587	563.41	314.87	33	27	-1	15.56	15.56
Saccade L	1	10	3219330772	3219390523	59751	570.51	320.60	1217.60	501.00	6.97	455.81	0.67	116.62	11324.93	-11119.78	6272.49
Saccade R	1	10	3219330772	3219390523	59751	570.51	320.60	1217.60	501.00	6.97	455.81	0.67	116.62	11324.93	-11119.78	6272.49
Fixation L	1	10	3219390523	3219768378	377855	1229.78	495.73	28	11	-1	15.92	15.92
Fixation R	1	10	3219390523	3219768378	377855	1229.78	495.73	28	11	-1	15.30	15.30
Saccade L	1	11	3219768378	3219828127	59749	1234.51	501.94	1301.14	704.77	5.25	191.05	0.33	87.90	4663.95	-3608.67	3238.91
Saccade R	1	11	3219768378	3219828127	59749	1234.51	501.94	1301.14	704.77	5.25	191.05	0.33	87.90	4663.95	-3608.67	3238.91
Fixation L	1	11	3219828127	3220086616	258489	1323.70	731.40	27	58	-1	15.58	15.58
Fixation R	1	11	3219828127	3220086616	258489	1323.70	731.40	27	58	-1	15.23	15.23
Saccade L	1	12	3220086616	3220186111	99495	1327.52	727.03	1145.54	467.45	8.33	199.78	1.00	83.73	4781.15	-4592.31	3420.02
Saccade R	1	12	3220086616	3220186111	99495	1327.52	727.03	1145.54	467.45	8.33	199.78	1.00	83.73	4781.15	-4592.31	3420.02
Fixation L	1	12	3220186111	3220285486	99375	1093.76	459.18	69	28	-1	16.94	16.94
Fixation R	1	12	3220186111	3220285486	99375	1093.76	459.18	69	28	-1	15.57	15.57
Saccade L	1	13	3220285486	3220404856	119370	1088.25	469.95	944.91	394.56	3.33	171.30	1.00	27.88	3810.65	-4075.62	1152.94
Saccade R	1	13	3220285486	3220404856	119370	1088.25	469.95	944.91	394.56	3.33	171.30	1.00	27.88	3810.65	-4075.62	1152.94
Fixation L	1	13	3220404856	3220683342	278486	950.63	373.87	8	34	-1	16.74	16.74
Fixation R	1	13	3220404856	3220683342	278486	950.63	373.87	8	34	-1	15.32	15.32
Saccade L	1	14	3220683342	3220723087	39745	948.59	362.37	711.44	288.42	2.43	193.76	0.50	61.20	4633.46	-3859.70	2816.83
Saccade R	1	14	3220683342	3220723087	39745	948.59	362.37	711.44	288.42	2.43	193.76	0.50	61.20	4633.46	-3859.70	2816.83
Fixation L	1	14	3220723087	3220842459	119372	733.34	272.34	33	24	-1	16.54	16.54
Fixation R	1	14	3220723087	3220842459	119372	733.34	272.34	33	24	-1	15.37	15.37
