[BeGaze]
Converted from:	C:\Documents and Settings\iViewX\Desktop\EXPERIMENTATIONS\Experiments\results\finaleart\S18F56223-finaleart-1.idf
Date:	27.03.2019 15:47:58
Version:	BeGaze 2.5.77
Sample Rate:	50
Subject:	S18F56223
Description:	Pascale Sebillot

Table Header for Fixations:
Event Type	Trial	Number	Start	End	Duration	Location X	Location Y	Dispersion X	Dispersion Y	Plane	Avg. Pupil Size X	Avg. Pupil Size Y

Table Header for Saccades:
Event Type	Trial	Number	Start	End	Duration	Start Loc.X	Start Loc.Y	End Loc.X	End Loc.Y	Amplitude	Peak Speed	Peak Speed At	Average Speed	Peak Accel.	Peak Decel.	Average Accel.

Table Header for Blinks:
Event Type	Trial	Number	Start	End	Duration

Table Header for User Events:
Event Type	Trial	Number	Start	Description

UserEvent	1	1	1898284130	# Message: void.jpg
Fixation L	1	1	1898296536	1898614761	318225	1548.36	930.61	24	16	-1	17.10	17.10
Fixation R	1	1	1898296536	1898614761	318225	1548.36	930.61	24	16	-1	15.81	15.81
Saccade L	1	1	1898614761	1898634637	19876	1547.33	927.04	1820.48	664.12	1.96	382.97	1.00	98.81	9492.15	-8400.78	5990.12
Saccade R	1	1	1898614761	1898634637	19876	1547.33	927.04	1820.48	664.12	1.96	382.97	1.00	98.81	9492.15	-8400.78	5990.12
Fixation L	1	2	1898634637	1898734129	99492	1815.58	693.36	11	50	-1	17.41	17.41
Fixation R	1	2	1898634637	1898734129	99492	1815.58	693.36	11	50	-1	16.26	16.26
Saccade L	1	2	1898734129	1898853496	119367	1810.84	697.73	935.83	461.29	16.42	389.79	0.17	137.52	9635.18	-4670.24	3651.42
Saccade R	1	2	1898734129	1898853496	119367	1810.84	697.73	935.83	461.29	16.42	389.79	0.17	137.52	9635.18	-4670.24	3651.42
Fixation L	1	3	1898853496	1899092109	238613	924.26	441.47	18	51	-1	15.03	15.03
Fixation R	1	3	1898853496	1899092109	238613	924.26	441.47	18	51	-1	13.82	13.82
Saccade L	1	3	1899092109	1899111987	19878	921.53	432.12	923.36	556.19	0.85	125.51	1.00	42.66	3068.39	-1914.24	1725.50
Saccade R	1	3	1899092109	1899111987	19878	921.53	432.12	923.36	556.19	0.85	125.51	1.00	42.66	3068.39	-1914.24	1725.50
Fixation L	1	4	1899111987	1899728580	616593	924.47	607.57	26	73	-1	14.66	14.66
Fixation R	1	4	1899111987	1899728580	616593	924.47	607.57	26	73	-1	13.65	13.65
Saccade L	1	4	1899728580	1899748459	19879	934.24	624.02	934.66	631.47	0.09	7.55	1.00	4.58	83.79	25.54	49.14
Saccade R	1	4	1899728580	1899748459	19879	934.24	624.02	934.66	631.47	0.09	7.55	1.00	4.58	83.79	25.54	49.14
Fixation L	1	5	1899748459	1900265703	517244	937.29	620.94	15	28	-1	15.46	15.46
Fixation R	1	5	1899748459	1900265703	517244	937.29	620.94	15	28	-1	14.78	14.78
