[BeGaze]
Converted from:	C:\Documents and Settings\iViewX\Desktop\EXPERIMENTATIONS\Experiments\results\finaleart\S18F56223-finaleart-1.idf
Date:	27.03.2019 15:48:41
Version:	BeGaze 2.5.77
Sample Rate:	50
Subject:	S18F56223
Description:	Pascale Sebillot

Table Header for Fixations:
Event Type	Trial	Number	Start	End	Duration	Location X	Location Y	Dispersion X	Dispersion Y	Plane	Avg. Pupil Size X	Avg. Pupil Size Y

Table Header for Saccades:
Event Type	Trial	Number	Start	End	Duration	Start Loc.X	Start Loc.Y	End Loc.X	End Loc.Y	Amplitude	Peak Speed	Peak Speed At	Average Speed	Peak Accel.	Peak Decel.	Average Accel.

Table Header for Blinks:
Event Type	Trial	Number	Start	End	Duration

Table Header for User Events:
Event Type	Trial	Number	Start	Description

UserEvent	1	1	2513375243	# Message: the_three_skulls_gericault_1814.jpg
Fixation L	1	1	2513378201	2514014666	636465	1015.36	550.84	9	33	-1	16.64	16.64
Fixation R	1	1	2513378201	2514014666	636465	1015.36	550.84	9	33	-1	15.00	15.00
Saccade L	1	1	2514014666	2514153907	139241	1014.26	573.11	435.99	563.79	11.79	322.50	1.00	84.70	7802.18	-6726.78	3765.14
Saccade R	1	1	2514014666	2514153907	139241	1014.26	573.11	435.99	563.79	11.79	322.50	1.00	84.70	7802.18	-6726.78	3765.14
Fixation L	1	2	2514153907	2514432404	278497	446.22	579.16	44	47	-1	16.06	16.06
Fixation R	1	2	2514153907	2514432404	278497	446.22	579.16	44	47	-1	14.81	14.81
Saccade L	1	2	2514432404	2514452266	19862	459.35	583.64	414.36	529.10	0.69	71.52	1.00	34.89	1330.72	-995.47	996.29
Saccade R	1	2	2514432404	2514452266	19862	459.35	583.64	414.36	529.10	0.69	71.52	1.00	34.89	1330.72	-995.47	996.29
Fixation L	1	3	2514452266	2514571645	119379	427.96	543.18	55	34	-1	16.07	16.07
Fixation R	1	3	2514452266	2514571645	119379	427.96	543.18	55	34	-1	15.07	15.07
Saccade L	1	3	2514571645	2514631269	59624	468.88	546.18	1442.36	567.12	10.62	496.08	0.33	178.16	11851.69	-8406.05	7783.16
Saccade R	1	3	2514571645	2514631269	59624	468.88	546.18	1442.36	567.12	10.62	496.08	0.33	178.16	11851.69	-8406.05	7783.16
Fixation L	1	4	2514631269	2515148490	517221	1421.48	584.07	61	37	-1	16.52	16.52
Fixation R	1	4	2514631269	2515148490	517221	1421.48	584.07	61	37	-1	15.41	15.41
Saccade L	1	4	2515148490	2515287738	139248	1398.91	588.99	1745.69	886.75	8.98	312.70	0.57	64.47	7788.39	-6347.66	2394.46
Saccade R	1	4	2515148490	2515287738	139248	1398.91	588.99	1745.69	886.75	8.98	312.70	0.57	64.47	7788.39	-6347.66	2394.46
Fixation L	1	5	2515287738	2515546228	258490	1737.30	906.75	20	27	-1	17.91	17.91
Fixation R	1	5	2515287738	2515546228	258490	1737.30	906.75	20	27	-1	16.04	16.04
Saccade L	1	5	2515546228	2515605996	59768	1730.71	913.12	1717.62	706.85	3.65	202.63	0.33	61.13	4901.25	-3926.00	2108.04
Saccade R	1	5	2515546228	2515605996	59768	1730.71	913.12	1717.62	706.85	3.65	202.63	0.33	61.13	4901.25	-3926.00	2108.04
Fixation L	1	6	2515605996	2515844580	238584	1685.51	695.31	49	40	-1	18.36	18.36
Fixation R	1	6	2515605996	2515844580	238584	1685.51	695.31	49	40	-1	16.00	16.00
Saccade L	1	6	2515844580	2515864466	19886	1678.73	676.65	1675.87	588.43	0.61	89.29	1.00	30.87	2150.80	-2073.17	1472.36
Saccade R	1	6	2515844580	2515864466	19886	1678.73	676.65	1675.87	588.43	0.61	89.29	1.00	30.87	2150.80	-2073.17	1472.36
Fixation L	1	7	2515864466	2516302072	437606	1683.90	604.34	31	33	-1	18.40	18.40
Fixation R	1	7	2515864466	2516302072	437606	1683.90	604.34	31	33	-1	16.13	16.13
Saccade L	1	7	2516302072	2516401564	99492	1660.48	599.66	233.92	639.89	18.54	465.86	0.20	186.37	11342.20	-4962.58	5236.97
Saccade R	1	7	2516302072	2516401564	99492	1660.48	599.66	233.92	639.89	18.54	465.86	0.20	186.37	11342.20	-4962.58	5236.97
Fixation L	1	8	2516401564	2516699924	298360	260.95	655.99	41	40	-1	17.85	17.85
Fixation R	1	8	2516401564	2516699924	298360	260.95	655.99	41	40	-1	16.86	16.86
Saccade L	1	8	2516699924	2516719790	19866	242.93	671.55	121.99	676.92	1.03	122.45	1.00	51.82	2870.07	-2910.34	2026.84
Saccade R	1	8	2516699924	2516719790	19866	242.93	671.55	121.99	676.92	1.03	122.45	1.00	51.82	2870.07	-2910.34	2026.84
Fixation L	1	9	2516719790	2516859044	139254	169.58	690.68	74	23	-1	16.51	16.51
Fixation R	1	9	2516719790	2516859044	139254	169.58	690.68	74	23	-1	16.43	16.43
Saccade L	1	9	2516859044	2516918660	59616	186.61	699.59	227.93	286.28	4.72	200.96	0.33	79.21	4277.80	-3633.01	3252.57
Saccade R	1	9	2516859044	2516918660	59616	186.61	699.59	227.93	286.28	4.72	200.96	0.33	79.21	4277.80	-3633.01	3252.57
Fixation L	1	10	2516918660	2517157400	238740	245.54	272.16	53	28	-1	16.52	16.52
Fixation R	1	10	2516918660	2517157400	238740	245.54	272.16	53	28	-1	16.11	16.11
Saccade L	1	10	2517157400	2517356267	198867	281.43	275.64	1616.32	319.68	25.36	425.17	0.10	127.50	10541.73	-5865.65	3896.11
Saccade R	1	10	2517157400	2517356267	198867	281.43	275.64	1616.32	319.68	25.36	425.17	0.10	127.50	10541.73	-5865.65	3896.11
