[BeGaze]
Converted from:	C:\Documents and Settings\iViewX\Desktop\EXPERIMENTATIONS\Experiments\results\finaleart\S18F56223-finaleart-1.idf
Date:	27.03.2019 15:48:32
Version:	BeGaze 2.5.77
Sample Rate:	50
Subject:	S18F56223
Description:	Pascale Sebillot

Table Header for Fixations:
Event Type	Trial	Number	Start	End	Duration	Location X	Location Y	Dispersion X	Dispersion Y	Plane	Avg. Pupil Size X	Avg. Pupil Size Y

Table Header for Saccades:
Event Type	Trial	Number	Start	End	Duration	Start Loc.X	Start Loc.Y	End Loc.X	End Loc.Y	Amplitude	Peak Speed	Peak Speed At	Average Speed	Peak Accel.	Peak Decel.	Average Accel.

Table Header for Blinks:
Event Type	Trial	Number	Start	End	Duration

Table Header for User Events:
Event Type	Trial	Number	Start	Description

UserEvent	1	1	2409892239	# Message: void.jpg
Saccade L	1	1	2409909992	2410049189	139197	1081.92	314.59	1504.24	948.51	13.11	367.59	0.86	94.21	8988.34	-9138.58	3481.98
Saccade R	1	1	2409909992	2410049189	139197	1081.92	314.59	1504.24	948.51	13.11	367.59	0.86	94.21	8988.34	-9138.58	3481.98
Fixation L	1	1	2410049189	2410606068	556879	1519.92	972.89	28	34	-1	15.32	15.32
Fixation R	1	1	2410049189	2410606068	556879	1519.92	972.89	28	34	-1	14.30	14.30
Saccade L	1	2	2410606068	2410705567	99499	1526.73	971.19	931.61	391.54	12.17	293.47	0.20	122.28	7261.11	-3744.52	3036.19
Saccade R	1	2	2410606068	2410705567	99499	1526.73	971.19	931.61	391.54	12.17	293.47	0.20	122.28	7261.11	-3744.52	3036.19
Fixation L	1	2	2410705567	2410924330	218763	951.84	420.76	26	53	-1	14.58	14.58
Fixation R	1	2	2410705567	2410924330	218763	951.84	420.76	26	53	-1	13.93	13.93
Saccade L	1	3	2410924330	2410983957	59627	952.10	444.50	769.66	528.64	3.39	142.95	0.33	56.88	3494.12	-2856.10	2524.87
Saccade R	1	3	2410924330	2410983957	59627	952.10	444.50	769.66	528.64	3.39	142.95	0.33	56.88	3494.12	-2856.10	2524.87
Fixation L	1	3	2410983957	2411262422	278465	759.48	511.91	39	43	-1	14.22	14.22
Fixation R	1	3	2410983957	2411262422	278465	759.48	511.91	39	43	-1	14.10	14.10
Saccade L	1	4	2411262422	2411282290	19868	737.14	515.73	632.26	531.39	0.97	107.26	1.00	48.69	2271.29	-1994.99	1646.06
Saccade R	1	4	2411262422	2411282290	19868	737.14	515.73	632.26	531.39	0.97	107.26	1.00	48.69	2271.29	-1994.99	1646.06
Fixation L	1	4	2411282290	2411799518	517228	646.67	564.73	48	48	-1	15.09	15.09
Fixation R	1	4	2411282290	2411799518	517228	646.67	564.73	48	48	-1	14.89	14.89
Saccade L	1	5	2411799518	2411879015	79497	629.73	580.09	625.64	582.99	0.35	7.21	0.00	4.42	0.00	-87.44	54.56
Saccade R	1	5	2411799518	2411879015	79497	629.73	580.09	625.64	582.99	0.35	7.21	0.00	4.42	0.00	-87.44	54.56
