[BeGaze]
Converted from:	C:\Documents and Settings\iViewX\Desktop\EXPERIMENTATIONS\Experiments\results\finaleart\S18F56223-finaleart-1.idf
Date:	27.03.2019 15:49:44
Version:	BeGaze 2.5.77
Sample Rate:	50
Subject:	S18F56223
Description:	Pascale Sebillot

Table Header for Fixations:
Event Type	Trial	Number	Start	End	Duration	Location X	Location Y	Dispersion X	Dispersion Y	Plane	Avg. Pupil Size X	Avg. Pupil Size Y

Table Header for Saccades:
Event Type	Trial	Number	Start	End	Duration	Start Loc.X	Start Loc.Y	End Loc.X	End Loc.Y	Amplitude	Peak Speed	Peak Speed At	Average Speed	Peak Accel.	Peak Decel.	Average Accel.

Table Header for Blinks:
Event Type	Trial	Number	Start	End	Duration

Table Header for User Events:
Event Type	Trial	Number	Start	Description

UserEvent	1	1	3141640979	# Message: void.jpg
Fixation L	1	1	3141659931	3141918534	258603	624.13	1026.43	51	39	-1	13.59	13.59
Fixation R	1	1	3141659931	3141918534	258603	624.13	1026.43	51	39	-1	13.29	13.29
Saccade L	1	1	3141918534	3142177141	258607	647.61	1044.75	547.67	1024.36	11.41	187.88	0.77	44.14	4324.17	-4158.83	1495.11
Saccade R	1	1	3141918534	3142177141	258607	647.61	1044.75	547.67	1024.36	11.41	187.88	0.77	44.14	4324.17	-4158.83	1495.11
Fixation L	1	2	3142177141	3142376015	198874	560.86	1016.24	24	45	-1	13.79	13.79
Fixation R	1	2	3142177141	3142376015	198874	560.86	1016.24	24	45	-1	13.23	13.23
Saccade L	1	2	3142376015	3142475383	99368	566.57	1010.71	410.84	262.83	10.32	203.75	1.00	103.85	4444.94	-4052.88	2610.98
Saccade R	1	2	3142376015	3142475383	99368	566.57	1010.71	410.84	262.83	10.32	203.75	1.00	103.85	4444.94	-4052.88	2610.98
Fixation L	1	3	3142475383	3142773751	298368	443.90	280.37	64	31	-1	13.26	13.26
Fixation R	1	3	3142475383	3142773751	298368	443.90	280.37	64	31	-1	13.06	13.06
Saccade L	1	3	3142773751	3142912986	139235	451.10	294.69	751.77	646.38	7.31	254.80	1.00	52.50	5577.09	-5809.28	2264.75
Saccade R	1	3	3142773751	3142912986	139235	451.10	294.69	751.77	646.38	7.31	254.80	1.00	52.50	5577.09	-5809.28	2264.75
Fixation L	1	4	3142912986	3143310855	397869	762.07	660.41	18	70	-1	13.99	13.99
Fixation R	1	4	3142912986	3143310855	397869	762.07	660.41	18	70	-1	13.38	13.38
Saccade L	1	4	3143310855	3143370480	59625	768.33	689.31	903.19	777.75	4.91	194.17	0.67	82.28	4411.94	-4208.37	2977.05
Saccade R	1	4	3143310855	3143370480	59625	768.33	689.31	903.19	777.75	4.91	194.17	0.67	82.28	4411.94	-4208.37	2977.05
Fixation L	1	5	3143370480	3143589342	218862	894.21	780.00	18	68	-1	14.52	14.52
Fixation R	1	5	3143370480	3143589342	218862	894.21	780.00	18	68	-1	13.49	13.49
Saccade L	1	5	3143589342	3143629086	39744	896.98	814.69	738.26	516.55	3.81	184.04	1.00	95.80	4071.47	0.00	2630.23
Saccade R	1	5	3143589342	3143629086	39744	896.98	814.69	738.26	516.55	3.81	184.04	1.00	95.80	4071.47	0.00	2630.23
