[BeGaze]
Converted from:	C:\Documents and Settings\iViewX\Desktop\EXPERIMENTATIONS\Experiments\results\finaleart\S18F56223-finaleart-1.idf
Date:	27.03.2019 15:49:11
Version:	BeGaze 2.5.77
Sample Rate:	50
Subject:	S18F56223
Description:	Pascale Sebillot

Table Header for Fixations:
Event Type	Trial	Number	Start	End	Duration	Location X	Location Y	Dispersion X	Dispersion Y	Plane	Avg. Pupil Size X	Avg. Pupil Size Y

Table Header for Saccades:
Event Type	Trial	Number	Start	End	Duration	Start Loc.X	Start Loc.Y	End Loc.X	End Loc.Y	Amplitude	Peak Speed	Peak Speed At	Average Speed	Peak Accel.	Peak Decel.	Average Accel.

Table Header for Blinks:
Event Type	Trial	Number	Start	End	Duration

Table Header for User Events:
Event Type	Trial	Number	Start	Description

UserEvent	1	1	2795054518	# Message: Ma_Maison_Martin_XXXX.jpg
Fixation L	1	1	2795061985	2795519459	457474	850.62	592.67	19	35	-1	12.01	12.01
Fixation R	1	1	2795061985	2795519459	457474	850.62	592.67	19	35	-1	11.73	11.73
Saccade L	1	1	2795519459	2795559241	39782	851.03	616.07	824.75	356.49	2.74	184.85	0.50	68.82	4506.84	-3013.66	2721.30
Saccade R	1	1	2795519459	2795559241	39782	851.03	616.07	824.75	356.49	2.74	184.85	0.50	68.82	4506.84	-3013.66	2721.30
Fixation L	1	2	2795559241	2795797946	238705	801.76	386.03	35	63	-1	11.33	11.33
Fixation R	1	2	2795559241	2795797946	238705	801.76	386.03	35	63	-1	11.25	11.25
Saccade L	1	2	2795797946	2795837698	39752	789.24	369.58	787.56	187.99	1.51	175.36	1.00	38.00	4363.57	-4331.98	2245.48
Saccade R	1	2	2795797946	2795837698	39752	789.24	369.58	787.56	187.99	1.51	175.36	1.00	38.00	4363.57	-4331.98	2245.48
Fixation L	1	3	2795837698	2795976939	139241	777.06	187.39	18	6	-1	10.65	10.65
Fixation R	1	3	2795837698	2795976939	139241	777.06	187.39	18	6	-1	10.67	10.67
Saccade L	1	3	2795976939	2796036557	59618	769.18	191.15	1420.20	532.66	7.89	428.02	0.67	132.34	10542.20	-10352.53	6045.91
Saccade R	1	3	2795976939	2796036557	59618	769.18	191.15	1420.20	532.66	7.89	428.02	0.67	132.34	10542.20	-10352.53	6045.91
Fixation L	1	4	2796036557	2796374678	338121	1388.08	549.15	43	43	-1	11.44	11.44
Fixation R	1	4	2796036557	2796374678	338121	1388.08	549.15	43	43	-1	10.90	10.90
Saccade L	1	4	2796374678	2796394671	19993	1379.10	556.77	1337.15	671.86	0.78	123.90	1.00	39.12	2864.42	-2745.44	1873.04
Saccade R	1	4	2796374678	2796394671	19993	1379.10	556.77	1337.15	671.86	0.78	123.90	1.00	39.12	2864.42	-2745.44	1873.04
Fixation L	1	5	2796394671	2796573662	178991	1327.61	667.95	29	28	-1	12.00	12.00
Fixation R	1	5	2796394671	2796573662	178991	1327.61	667.95	29	28	-1	10.95	10.95
Saccade L	1	5	2796573662	2796613404	39742	1316.35	673.46	1057.10	847.99	2.78	252.97	0.50	69.95	6150.70	-6017.79	3715.50
Saccade R	1	5	2796573662	2796613404	39742	1316.35	673.46	1057.10	847.99	2.78	252.97	0.50	69.95	6150.70	-6017.79	3715.50
Fixation L	1	6	2796613404	2796931640	318236	1037.28	846.77	24	27	-1	12.33	12.33
Fixation R	1	6	2796613404	2796931640	318236	1037.28	846.77	24	27	-1	11.89	11.89
Saccade L	1	6	2796931640	2796951522	19882	1041.97	841.89	1225.20	901.29	1.07	194.78	1.00	54.03	4537.86	-4586.29	3061.67
Saccade R	1	6	2796931640	2796951522	19882	1041.97	841.89	1225.20	901.29	1.07	194.78	1.00	54.03	4537.86	-4586.29	3061.67
Fixation L	1	7	2796951522	2797170387	218865	1230.63	909.50	28	27	-1	12.27	12.27
Fixation R	1	7	2796951522	2797170387	218865	1230.63	909.50	28	27	-1	12.30	12.30
Saccade L	1	7	2797170387	2797190255	19868	1253.52	924.04	1488.77	978.33	1.55	244.09	1.00	78.02	6084.23	-5167.63	3949.00
Saccade R	1	7	2797170387	2797190255	19868	1253.52	924.04	1488.77	978.33	1.55	244.09	1.00	78.02	6084.23	-5167.63	3949.00
Fixation L	1	8	2797190255	2797369245	178990	1472.82	999.36	48	45	-1	13.53	13.53
Fixation R	1	8	2797190255	2797369245	178990	1472.82	999.36	48	45	-1	12.54	12.54
Saccade L	1	8	2797369245	2797448759	79514	1440.03	994.17	805.96	274.53	12.30	364.67	0.25	154.65	9064.05	-4287.97	4477.91
Saccade R	1	8	2797369245	2797448759	79514	1440.03	994.17	805.96	274.53	12.30	364.67	0.25	154.65	9064.05	-4287.97	4477.91
Fixation L	1	9	2797448759	2797926104	477345	811.63	264.78	15	67	-1	11.85	11.85
Fixation R	1	9	2797448759	2797926104	477345	811.63	264.78	15	67	-1	11.50	11.50
Saccade L	1	9	2797926104	2797965969	39865	807.84	290.20	1251.82	310.91	3.78	293.53	0.50	94.75	7204.93	-7075.21	5356.01
Saccade R	1	9	2797926104	2797965969	39865	807.84	290.20	1251.82	310.91	3.78	293.53	0.50	94.75	7204.93	-7075.21	5356.01
Fixation L	1	10	2797965969	2798323964	357995	1273.05	335.16	30	56	-1	12.60	12.60
Fixation R	1	10	2797965969	2798323964	357995	1273.05	335.16	30	56	-1	12.01	12.01
Saccade L	1	10	2798323964	2798343838	19874	1264.19	366.74	1130.24	542.83	1.43	223.71	1.00	72.09	5540.93	-5560.33	3863.84
Saccade R	1	10	2798323964	2798343838	19874	1264.19	366.74	1130.24	542.83	1.43	223.71	1.00	72.09	5540.93	-5560.33	3863.84
Fixation L	1	11	2798343838	2798781434	437596	1142.74	527.97	15	32	-1	13.25	13.25
Fixation R	1	11	2798343838	2798781434	437596	1142.74	527.97	15	32	-1	12.22	12.22
Saccade L	1	11	2798781434	2798821209	39775	1142.14	526.78	1462.18	455.41	3.01	198.49	0.50	75.61	4906.84	-3938.20	3675.13
Saccade R	1	11	2798781434	2798821209	39775	1142.14	526.78	1462.18	455.41	3.01	198.49	0.50	75.61	4906.84	-3938.20	3675.13
Fixation L	1	12	2798821209	2798980306	159097	1438.63	458.17	38	26	-1	12.64	12.64
Fixation R	1	12	2798821209	2798980306	159097	1438.63	458.17	38	26	-1	12.08	12.08
Saccade L	1	12	2798980306	2799040052	59746	1441.35	446.10	1441.00	382.14	1.13	40.23	0.33	18.97	804.77	-909.01	442.07
Saccade R	1	12	2798980306	2799040052	59746	1441.35	446.10	1441.00	382.14	1.13	40.23	0.33	18.97	804.77	-909.01	442.07
