[BeGaze]
Converted from:	C:\Documents and Settings\iViewX\Desktop\EXPERIMENTATIONS\Experiments\results\finaleart\S18F56223-finaleart-1.idf
Date:	27.03.2019 15:49:51
Version:	BeGaze 2.5.77
Sample Rate:	50
Subject:	S18F56223
Description:	Pascale Sebillot

Table Header for Fixations:
Event Type	Trial	Number	Start	End	Duration	Location X	Location Y	Dispersion X	Dispersion Y	Plane	Avg. Pupil Size X	Avg. Pupil Size Y

Table Header for Saccades:
Event Type	Trial	Number	Start	End	Duration	Start Loc.X	Start Loc.Y	End Loc.X	End Loc.Y	Amplitude	Peak Speed	Peak Speed At	Average Speed	Peak Accel.	Peak Decel.	Average Accel.

Table Header for Blinks:
Event Type	Trial	Number	Start	End	Duration

Table Header for User Events:
Event Type	Trial	Number	Start	Description

UserEvent	1	1	3198532174	# Message: female_nude_reclining_on-a_divan_delacroix_1826.jpg
Fixation L	1	1	3198545693	3198824170	278477	631.68	665.80	28	53	-1	14.20	14.20
Fixation R	1	1	3198545693	3198824170	278477	631.68	665.80	28	53	-1	13.34	13.34
Saccade L	1	1	3198824170	3198844045	19875	647.93	671.33	767.75	659.10	0.84	121.82	1.00	42.28	2935.70	-2608.38	1860.21
Saccade R	1	1	3198824170	3198844045	19875	647.93	671.33	767.75	659.10	0.84	121.82	1.00	42.28	2935.70	-2608.38	1860.21
Fixation L	1	2	3198844045	3199042937	198892	768.22	679.56	4	45	-1	14.17	14.17
Fixation R	1	2	3198844045	3199042937	198892	768.22	679.56	4	45	-1	13.12	13.12
Saccade L	1	2	3199042937	3199082664	39727	767.21	704.88	768.92	424.34	2.69	165.41	0.50	67.61	3808.11	-3768.57	3160.81
Saccade R	1	2	3199042937	3199082664	39727	767.21	704.88	768.92	424.34	2.69	165.41	0.50	67.61	3808.11	-3768.57	3160.81
Fixation L	1	3	3199082664	3199241777	159113	766.61	413.97	4	14	-1	13.25	13.25
Fixation R	1	3	3199082664	3199241777	159113	766.61	413.97	4	14	-1	12.30	12.30
Saccade L	1	3	3199241777	3199261658	19881	766.05	411.01	673.51	292.54	1.11	152.05	1.00	55.62	3756.01	-3151.56	2854.06
Saccade R	1	3	3199241777	3199261658	19881	766.05	411.01	673.51	292.54	1.11	152.05	1.00	55.62	3756.01	-3151.56	2854.06
Fixation L	1	4	3199261658	3199420772	159114	649.04	259.79	34	56	-1	12.98	12.98
Fixation R	1	4	3199261658	3199420772	159114	649.04	259.79	34	56	-1	12.44	12.44
Saccade L	1	4	3199420772	3199460651	39879	642.55	264.64	884.88	665.08	3.99	252.72	1.00	100.13	6216.42	-5695.79	5690.43
Saccade R	1	4	3199420772	3199460651	39879	642.55	264.64	884.88	665.08	3.99	252.72	1.00	100.13	6216.42	-5695.79	5690.43
Fixation L	1	5	3199460651	3199639637	178986	902.85	695.47	30	65	-1	13.80	13.80
Fixation R	1	5	3199460651	3199639637	178986	902.85	695.47	30	65	-1	12.63	12.63
Saccade L	1	5	3199639637	3199659506	19869	913.85	730.70	915.76	741.96	0.34	35.24	1.00	17.26	573.51	230.67	395.80
Saccade R	1	5	3199639637	3199659506	19869	913.85	730.70	915.76	741.96	0.34	35.24	1.00	17.26	573.51	230.67	395.80
Fixation L	1	6	3199659506	3199778879	119373	917.83	725.59	9	34	-1	14.14	14.14
Fixation R	1	6	3199659506	3199778879	119373	917.83	725.59	9	34	-1	13.14	13.14
Saccade L	1	6	3199778879	3199818626	39747	922.00	729.45	923.31	514.58	2.18	121.77	1.00	54.75	2833.46	-2735.59	2290.67
Saccade R	1	6	3199778879	3199818626	39747	922.00	729.45	923.31	514.58	2.18	121.77	1.00	54.75	2833.46	-2735.59	2290.67
Fixation L	1	7	3199818626	3199957870	139244	920.40	536.10	9	43	-1	14.20	14.20
Fixation R	1	7	3199818626	3199957870	139244	920.40	536.10	9	43	-1	13.35	13.35
Saccade L	1	7	3199957870	3200017496	59626	914.58	526.87	1274.47	289.42	4.97	247.30	0.67	83.37	5933.93	-5382.65	3190.70
Saccade R	1	7	3199957870	3200017496	59626	914.58	526.87	1274.47	289.42	4.97	247.30	0.67	83.37	5933.93	-5382.65	3190.70
Fixation L	1	8	3200017496	3200315855	298359	1239.85	320.15	43	55	-1	14.63	14.63
Fixation R	1	8	3200017496	3200315855	298359	1239.85	320.15	43	55	-1	13.40	13.40
Saccade L	1	8	3200315855	3200335732	19877	1238.19	328.97	1231.34	346.09	0.26	18.66	1.00	12.96	236.07	-357.30	296.43
Saccade R	1	8	3200315855	3200335732	19877	1238.19	328.97	1231.34	346.09	0.26	18.66	1.00	12.96	236.07	-357.30	296.43
Fixation L	1	9	3200335732	3200494851	159119	1234.80	347.54	7	11	-1	14.62	14.62
Fixation R	1	9	3200335732	3200494851	159119	1234.80	347.54	7	11	-1	13.06	13.06
Saccade L	1	9	3200494851	3200554599	59748	1235.58	351.61	633.09	240.64	6.64	353.05	0.67	111.10	8746.69	-7961.82	4736.66
Saccade R	1	9	3200494851	3200554599	59748	1235.58	351.61	633.09	240.64	6.64	353.05	0.67	111.10	8746.69	-7961.82	4736.66
Fixation L	1	10	3200554599	3201071699	517100	669.98	234.69	49	20	-1	14.69	14.69
Fixation R	1	10	3200554599	3201071699	517100	669.98	234.69	49	20	-1	14.05	14.05
Saccade L	1	10	3201071699	3201091576	19877	655.26	245.44	552.61	365.17	0.93	159.50	1.00	46.56	3874.36	-3758.10	2597.47
Saccade R	1	10	3201071699	3201091576	19877	655.26	245.44	552.61	365.17	0.93	159.50	1.00	46.56	3874.36	-3758.10	2597.47
Fixation L	1	11	3201091576	3201290437	198861	550.46	371.90	13	12	-1	15.12	15.12
Fixation R	1	11	3201091576	3201290437	198861	550.46	371.90	13	12	-1	14.45	14.45
Saccade L	1	11	3201290437	3201429680	139243	550.47	375.86	602.18	1088.47	14.65	299.23	0.29	105.23	7378.19	-5439.10	3163.27
Saccade R	1	11	3201290437	3201429680	139243	550.47	375.86	602.18	1088.47	14.65	299.23	0.29	105.23	7378.19	-5439.10	3163.27
Fixation L	1	12	3201429680	3201568932	139252	597.60	1097.20	30	39	-1	15.87	15.87
Fixation R	1	12	3201429680	3201568932	139252	597.60	1097.20	30	39	-1	15.09	15.09
Saccade L	1	12	3201568932	3202523643	954711	608.44	1111.31	1441.16	1071.96	74.34	456.38	0.02	77.86	11062.23	-8043.02	2118.28
Saccade R	1	12	3201568932	3202523643	954711	608.44	1111.31	1441.16	1071.96	74.34	456.38	0.02	77.86	11062.23	-8043.02	2118.28
