[BeGaze]
Converted from:	C:\Documents and Settings\iViewX\Desktop\EXPERIMENTATIONS\Experiments\results\finaleart\S18F56223-finaleart-1.idf
Date:	27.03.2019 15:48:21
Version:	BeGaze 2.5.77
Sample Rate:	50
Subject:	S18F56223
Description:	Pascale Sebillot

Table Header for Fixations:
Event Type	Trial	Number	Start	End	Duration	Location X	Location Y	Dispersion X	Dispersion Y	Plane	Avg. Pupil Size X	Avg. Pupil Size Y

Table Header for Saccades:
Event Type	Trial	Number	Start	End	Duration	Start Loc.X	Start Loc.Y	End Loc.X	End Loc.Y	Amplitude	Peak Speed	Peak Speed At	Average Speed	Peak Accel.	Peak Decel.	Average Accel.

Table Header for Blinks:
Event Type	Trial	Number	Start	End	Duration

Table Header for User Events:
Event Type	Trial	Number	Start	Description

UserEvent	1	1	2320313576	# Message: chase-a-study-in-curves-1890.jpg
Fixation L	1	1	2320324911	2320782265	457354	676.76	471.72	14	16	-1	17.12	17.12
Fixation R	1	1	2320324911	2320782265	457354	676.76	471.72	14	16	-1	14.72	14.72
Saccade L	1	1	2320782265	2320822151	39886	671.69	476.14	702.68	633.86	1.64	91.92	0.50	41.23	2235.94	-1450.51	1730.92
Saccade R	1	1	2320782265	2320822151	39886	671.69	476.14	702.68	633.86	1.64	91.92	0.50	41.23	2235.94	-1450.51	1730.92
Fixation L	1	2	2320822151	2321021011	198860	707.23	588.08	29	61	-1	17.27	17.27
Fixation R	1	2	2320822151	2321021011	198860	707.23	588.08	29	61	-1	14.81	14.81
Saccade L	1	2	2321021011	2321040877	19866	718.16	578.14	1004.27	579.45	1.55	289.19	1.00	77.94	7168.95	-6797.61	4757.51
Saccade R	1	2	2321021011	2321040877	19866	718.16	578.14	1004.27	579.45	1.55	289.19	1.00	77.94	7168.95	-6797.61	4757.51
Fixation L	1	3	2321040877	2321259740	218863	1011.13	572.75	32	23	-1	16.31	16.31
Fixation R	1	3	2321040877	2321259740	218863	1011.13	572.75	32	23	-1	14.65	14.65
Saccade L	1	3	2321259740	2321378982	119242	1022.04	573.69	1532.30	437.44	12.44	203.42	0.33	104.35	4948.45	-3075.51	2439.49
Saccade R	1	3	2321259740	2321378982	119242	1022.04	573.69	1532.30	437.44	12.44	203.42	0.33	104.35	4948.45	-3075.51	2439.49
Fixation L	1	4	2321378982	2321557975	178993	1523.35	473.68	25	72	-1	16.56	16.56
Fixation R	1	4	2321378982	2321557975	178993	1523.35	473.68	25	72	-1	13.94	13.94
Saccade L	1	4	2321557975	2321697214	139239	1513.89	509.99	1203.76	693.70	6.40	180.36	1.00	45.99	4339.85	-4126.09	1909.31
Saccade R	1	4	2321557975	2321697214	139239	1513.89	509.99	1203.76	693.70	6.40	180.36	1.00	45.99	4339.85	-4126.09	1909.31
Fixation L	1	5	2321697214	2322114951	417737	1190.26	735.21	24	61	-1	16.62	16.62
Fixation R	1	5	2321697214	2322114951	417737	1190.26	735.21	24	61	-1	13.88	13.88
Saccade L	1	5	2322114951	2322134823	19872	1186.64	754.64	1040.53	649.00	1.03	182.33	1.00	52.06	4280.73	-4134.74	2895.77
Saccade R	1	5	2322114951	2322134823	19872	1186.64	754.64	1040.53	649.00	1.03	182.33	1.00	52.06	4280.73	-4134.74	2895.77
Fixation L	1	6	2322134823	2322274079	139256	1053.60	623.37	18	45	-1	16.41	16.41
Fixation R	1	6	2322134823	2322274079	139256	1053.60	623.37	18	45	-1	13.63	13.63
Saccade L	1	6	2322274079	2322393435	119356	1058.81	603.40	966.79	524.31	3.36	116.79	1.00	28.16	2633.38	-2867.99	1221.52
Saccade R	1	6	2322274079	2322393435	119356	1058.81	603.40	966.79	524.31	3.36	116.79	1.00	28.16	2633.38	-2867.99	1221.52
Fixation L	1	7	2322393435	2322711676	318241	977.58	515.75	29	42	-1	16.18	16.18
Fixation R	1	7	2322393435	2322711676	318241	977.58	515.75	29	42	-1	13.74	13.74
Saccade L	1	7	2322711676	2322771296	59620	958.37	490.45	981.97	322.96	2.20	109.14	1.00	36.83	2031.13	-2610.55	1381.64
Saccade R	1	7	2322711676	2322771296	59620	958.37	490.45	981.97	322.96	2.20	109.14	1.00	36.83	2031.13	-2610.55	1381.64
Fixation L	1	8	2322771296	2323268523	497227	996.12	354.29	22	51	-1	15.71	15.71
Fixation R	1	8	2322771296	2323268523	497227	996.12	354.29	22	51	-1	13.25	13.25
Saccade L	1	8	2323268523	2323348139	79616	997.80	374.77	342.27	605.82	9.48	329.71	0.25	119.07	8207.41	-6634.90	5033.05
Saccade R	1	8	2323268523	2323348139	79616	997.80	374.77	342.27	605.82	9.48	329.71	0.25	119.07	8207.41	-6634.90	5033.05
Fixation L	1	9	2323348139	2323586879	238740	316.44	580.10	40	54	-1	15.49	15.49
Fixation R	1	9	2323348139	2323586879	238740	316.44	580.10	40	54	-1	13.33	13.33
Saccade L	1	9	2323586879	2323606764	19885	306.38	603.98	313.87	614.86	0.24	21.72	1.00	12.29	334.88	251.20	286.56
Saccade R	1	9	2323586879	2323606764	19885	306.38	603.98	313.87	614.86	0.24	21.72	1.00	12.29	334.88	251.20	286.56
Fixation L	1	10	2323606764	2323924991	318227	310.16	621.31	30	37	-1	15.51	15.51
Fixation R	1	10	2323606764	2323924991	318227	310.16	621.31	30	37	-1	13.68	13.68
Saccade L	1	10	2323924991	2323944871	19880	332.95	615.31	490.11	654.05	1.19	163.69	1.00	59.81	3859.17	-3916.70	2657.17
Saccade R	1	10	2323924991	2323944871	19880	332.95	615.31	490.11	654.05	1.19	163.69	1.00	59.81	3859.17	-3916.70	2657.17
Fixation L	1	11	2323944871	2324302861	357990	481.04	691.30	18	48	-1	16.59	16.59
Fixation R	1	11	2323944871	2324302861	357990	481.04	691.30	18	48	-1	14.65	14.65
