[BeGaze]
Converted from:	C:\Documents and Settings\iViewX\Desktop\EXPERIMENTATIONS\Experiments\results\finaleart\S18F56223-finaleart-1.idf
Date:	27.03.2019 15:49:41
Version:	BeGaze 2.5.77
Sample Rate:	50
Subject:	S18F56223
Description:	Pascale Sebillot

Table Header for Fixations:
Event Type	Trial	Number	Start	End	Duration	Location X	Location Y	Dispersion X	Dispersion Y	Plane	Avg. Pupil Size X	Avg. Pupil Size Y

Table Header for Saccades:
Event Type	Trial	Number	Start	End	Duration	Start Loc.X	Start Loc.Y	End Loc.X	End Loc.Y	Amplitude	Peak Speed	Peak Speed At	Average Speed	Peak Accel.	Peak Decel.	Average Accel.

Table Header for Blinks:
Event Type	Trial	Number	Start	End	Duration

Table Header for User Events:
Event Type	Trial	Number	Start	Description

UserEvent	1	1	3117219507	# Message: void.jpg
Saccade L	1	1	3117234863	3117374107	139244	771.69	188.12	1068.40	646.33	10.32	265.40	0.71	74.12	6434.38	-5278.28	2239.63
Saccade R	1	1	3117234863	3117374107	139244	771.69	188.12	1068.40	646.33	10.32	265.40	0.71	74.12	6434.38	-5278.28	2239.63
Fixation L	1	1	3117374107	3117632725	258618	1080.61	686.35	18	67	-1	12.18	12.18
Fixation R	1	1	3117374107	3117632725	258618	1080.61	686.35	18	67	-1	9.76	9.76
Saccade L	1	2	3117632725	3117652596	19871	1080.18	708.76	1075.07	774.41	0.58	66.60	1.00	29.09	1291.96	-946.37	953.20
Saccade R	1	2	3117632725	3117652596	19871	1080.18	708.76	1075.07	774.41	0.58	66.60	1.00	29.09	1291.96	-946.37	953.20
Fixation L	1	2	3117652596	3117831588	178992	1078.03	740.55	15	83	-1	12.30	12.30
Fixation R	1	2	3117652596	3117831588	178992	1078.03	740.55	15	83	-1	9.80	9.80
Saccade L	1	3	3117831588	3117851461	19873	1086.19	778.38	1083.97	784.30	0.22	15.65	0.00	11.15	525.52	-206.15	308.51
Saccade R	1	3	3117831588	3117851461	19873	1086.19	778.38	1083.97	784.30	0.22	15.65	0.00	11.15	525.52	-206.15	308.51
Fixation L	1	3	3117851461	3118070211	218750	1106.28	788.40	36	39	-1	11.79	11.79
Fixation R	1	3	3117851461	3118070211	218750	1106.28	788.40	36	39	-1	9.38	9.38
Saccade L	1	4	3118070211	3118169704	99493	1118.17	773.14	732.78	287.97	8.70	272.79	0.40	87.42	6629.91	-5823.85	3065.19
Saccade R	1	4	3118070211	3118169704	99493	1118.17	773.14	732.78	287.97	8.70	272.79	0.40	87.42	6629.91	-5823.85	3065.19
Fixation L	1	4	3118169704	3118408448	238744	721.61	261.31	31	48	-1	11.77	11.77
Fixation R	1	4	3118169704	3118408448	238744	721.61	261.31	31	48	-1	10.14	10.14
Saccade L	1	5	3118408448	3118468060	59612	723.47	239.62	702.84	545.69	4.75	232.21	1.00	79.73	4245.67	-5452.20	3428.80
Saccade R	1	5	3118408448	3118468060	59612	723.47	239.62	702.84	545.69	4.75	232.21	1.00	79.73	4245.67	-5452.20	3428.80
Fixation L	1	5	3118468060	3118965291	497231	703.54	575.35	33	57	-1	12.54	12.54
Fixation R	1	5	3118468060	3118965291	497231	703.54	575.35	33	57	-1	10.83	10.83
Saccade L	1	6	3118965291	3118985169	19878	721.74	594.54	833.92	597.12	0.64	113.50	1.00	32.40	2656.27	-2644.54	1774.33
Saccade R	1	6	3118965291	3118985169	19878	721.74	594.54	833.92	597.12	0.64	113.50	1.00	32.40	2656.27	-2644.54	1774.33
Fixation L	1	6	3118985169	3119204034	218865	832.93	597.33	12	45	-1	13.00	13.00
Fixation R	1	6	3118985169	3119204034	218865	832.93	597.33	12	45	-1	11.17	11.17
