[BeGaze]
Converted from:	C:\Documents and Settings\iViewX\Desktop\EXPERIMENTATIONS\Experiments\results\finaleart\S18F56223-finaleart-1.idf
Date:	27.03.2019 15:49:57
Version:	BeGaze 2.5.77
Sample Rate:	50
Subject:	S18F56223
Description:	Pascale Sebillot

Table Header for Fixations:
Event Type	Trial	Number	Start	End	Duration	Location X	Location Y	Dispersion X	Dispersion Y	Plane	Avg. Pupil Size X	Avg. Pupil Size Y

Table Header for Saccades:
Event Type	Trial	Number	Start	End	Duration	Start Loc.X	Start Loc.Y	End Loc.X	End Loc.Y	Amplitude	Peak Speed	Peak Speed At	Average Speed	Peak Accel.	Peak Decel.	Average Accel.

Table Header for Blinks:
Event Type	Trial	Number	Start	End	Duration

Table Header for User Events:
Event Type	Trial	Number	Start	Description

UserEvent	1	1	3251411489	# Message: void.jpg
Saccade L	1	1	3251413632	3251493135	79503	1494.42	158.47	1160.13	575.04	7.76	228.91	0.75	97.64	5660.39	-5340.79	3354.66
Saccade R	1	1	3251413632	3251493135	79503	1494.42	158.47	1160.13	575.04	7.76	228.91	0.75	97.64	5660.39	-5340.79	3354.66
Fixation L	1	1	3251493135	3252010220	517085	1158.93	553.92	24	35	-1	12.31	12.31
Fixation R	1	1	3251493135	3252010220	517085	1158.93	553.92	24	35	-1	11.07	11.07
Saccade L	1	2	3252010220	3252109716	99496	1163.98	554.23	151.11	161.15	14.69	252.51	0.60	147.61	5926.09	-5060.27	3331.76
Saccade R	1	2	3252010220	3252109716	99496	1163.98	554.23	151.11	161.15	14.69	252.51	0.60	147.61	5926.09	-5060.27	3331.76
Fixation L	1	2	3252109716	3252308584	198868	126.56	106.80	31	67	-1	11.81	11.81
Fixation R	1	2	3252109716	3252308584	198868	126.56	106.80	31	67	-1	11.87	11.87
Saccade L	1	3	3252308584	3252328457	19873	126.92	101.42	115.16	97.97	0.16	12.40	1.00	8.25	92.79	-142.94	107.11
Saccade R	1	3	3252308584	3252328457	19873	126.92	101.42	115.16	97.97	0.16	12.40	1.00	8.25	92.79	-142.94	107.11
Fixation L	1	3	3252328457	3252547321	218864	125.57	101.25	18	7	-1	11.59	11.59
Fixation R	1	3	3252328457	3252547321	218864	125.57	101.25	18	7	-1	11.94	11.94
Saccade L	1	4	3252547321	3252606942	59621	131.64	103.49	950.59	474.59	9.53	367.07	0.67	159.81	9114.10	-8192.61	6769.79
Saccade R	1	4	3252547321	3252606942	59621	131.64	103.49	950.59	474.59	9.53	367.07	0.67	159.81	9114.10	-8192.61	6769.79
Fixation L	1	4	3252606942	3252785934	178992	998.32	479.72	58	40	-1	12.74	12.74
Fixation R	1	4	3252606942	3252785934	178992	998.32	479.72	58	40	-1	12.50	12.50
Saccade L	1	5	3252785934	3252805810	19876	1009.01	507.32	1014.36	485.52	0.25	22.70	1.00	12.43	392.59	-463.67	393.28
Saccade R	1	5	3252785934	3252805810	19876	1009.01	507.32	1014.36	485.52	0.25	22.70	1.00	12.43	392.59	-463.67	393.28
Fixation L	1	5	3252805810	3253044548	238738	1024.95	486.47	15	26	-1	13.20	13.20
Fixation R	1	5	3252805810	3253044548	238738	1024.95	486.47	15	26	-1	12.78	12.78
Saccade L	1	6	3253044548	3253064431	19883	1030.16	474.30	857.90	473.66	0.97	174.21	1.00	48.95	4190.77	-3992.22	2746.30
Saccade R	1	6	3253044548	3253064431	19883	1030.16	474.30	857.90	473.66	0.97	174.21	1.00	48.95	4190.77	-3992.22	2746.30
Fixation L	1	6	3253064431	3253462292	397861	846.18	446.96	23	62	-1	13.63	13.63
Fixation R	1	6	3253064431	3253462292	397861	846.18	446.96	23	62	-1	13.26	13.26
