[BeGaze]
Converted from:	C:\Documents and Settings\iViewX\Desktop\EXPERIMENTATIONS\Experiments\results\finaleart\S18F56223-finaleart-1.idf
Date:	27.03.2019 15:49:12
Version:	BeGaze 2.5.77
Sample Rate:	50
Subject:	S18F56223
Description:	Pascale Sebillot

Table Header for Fixations:
Event Type	Trial	Number	Start	End	Duration	Location X	Location Y	Dispersion X	Dispersion Y	Plane	Avg. Pupil Size X	Avg. Pupil Size Y

Table Header for Saccades:
Event Type	Trial	Number	Start	End	Duration	Start Loc.X	Start Loc.Y	End Loc.X	End Loc.Y	Amplitude	Peak Speed	Peak Speed At	Average Speed	Peak Accel.	Peak Decel.	Average Accel.

Table Header for Blinks:
Event Type	Trial	Number	Start	End	Duration

Table Header for User Events:
Event Type	Trial	Number	Start	Description

UserEvent	1	1	2801156892	# Message: monticelli-still-life-with-white-pitcher-1822.jpg
Fixation L	1	1	2801168230	2801387074	218844	650.90	509.50	80	14	-1	12.81	12.81
Fixation R	1	1	2801168230	2801387074	218844	650.90	509.50	80	14	-1	12.88	12.88
Saccade L	1	1	2801387074	2801406939	19865	720.46	514.96	739.03	531.65	0.59	68.00	0.00	29.83	487.31	-1193.07	737.23
Saccade R	1	1	2801387074	2801406939	19865	720.46	514.96	739.03	531.65	0.59	68.00	0.00	29.83	487.31	-1193.07	737.23
Fixation L	1	2	2801406939	2801546209	139270	735.16	565.35	18	54	-1	12.96	12.96
Fixation R	1	2	2801406939	2801546209	139270	735.16	565.35	18	54	-1	12.63	12.63
Saccade L	1	2	2801546209	2801804680	258471	738.86	584.49	1068.33	243.91	15.28	260.61	1.00	59.12	6252.74	-6271.34	2359.13
Saccade R	1	2	2801546209	2801804680	258471	738.86	584.49	1068.33	243.91	15.28	260.61	1.00	59.12	6252.74	-6271.34	2359.13
Fixation L	1	3	2801804680	2802063299	258619	1060.32	283.74	17	57	-1	12.56	12.56
Fixation R	1	3	2801804680	2802063299	258619	1060.32	283.74	17	57	-1	12.07	12.07
Saccade L	1	3	2802063299	2802103045	39746	1050.66	301.44	1361.12	437.77	3.31	211.26	0.50	83.16	5188.84	-3639.70	3619.88
Saccade R	1	3	2802063299	2802103045	39746	1050.66	301.44	1361.12	437.77	3.31	211.26	0.50	83.16	5188.84	-3639.70	3619.88
Fixation L	1	4	2802103045	2802401406	298361	1357.27	398.46	13	64	-1	12.20	12.20
Fixation R	1	4	2802103045	2802401406	298361	1357.27	398.46	13	64	-1	12.05	12.05
Saccade L	1	4	2802401406	2802421280	19874	1359.80	378.17	1360.74	297.74	0.54	81.36	1.00	27.27	1786.41	-1614.54	1135.58
Saccade R	1	4	2802401406	2802421280	19874	1359.80	378.17	1360.74	297.74	0.54	81.36	1.00	27.27	1786.41	-1614.54	1135.58
Fixation L	1	5	2802421280	2802620269	198989	1370.40	303.95	19	31	-1	12.71	12.71
Fixation R	1	5	2802421280	2802620269	198989	1370.40	303.95	19	31	-1	12.00	12.00
Saccade L	1	5	2802620269	2802640145	19876	1380.31	287.83	1252.01	502.45	1.38	252.78	1.00	69.38	6196.05	-6089.84	4108.43
Saccade R	1	5	2802620269	2802640145	19876	1380.31	287.83	1252.01	502.45	1.38	252.78	1.00	69.38	6196.05	-6089.84	4108.43
Fixation L	1	6	2802640145	2803018000	377855	1278.78	503.74	35	10	-1	12.96	12.96
Fixation R	1	6	2802640145	2803018000	377855	1278.78	503.74	35	10	-1	12.16	12.16
Saccade L	1	6	2803018000	2803037882	19882	1286.95	498.74	1342.76	304.53	1.21	204.34	1.00	60.89	5020.60	-5028.40	3613.64
Saccade R	1	6	2803018000	2803037882	19882	1286.95	498.74	1342.76	304.53	1.21	204.34	1.00	60.89	5020.60	-5028.40	3613.64
Fixation L	1	7	2803037882	2803435746	397864	1359.28	280.16	44	34	-1	12.84	12.84
Fixation R	1	7	2803037882	2803435746	397864	1359.28	280.16	44	34	-1	12.31	12.31
Saccade L	1	7	2803435746	2803495373	59627	1387.56	287.20	605.62	276.93	8.11	305.84	0.67	136.04	7323.95	-7458.93	5660.44
Saccade R	1	7	2803435746	2803495373	59627	1387.56	287.20	605.62	276.93	8.11	305.84	0.67	136.04	7323.95	-7458.93	5660.44
Fixation L	1	8	2803495373	2803773848	278475	597.90	288.68	26	20	-1	12.38	12.38
Fixation R	1	8	2803495373	2803773848	278475	597.90	288.68	26	20	-1	12.54	12.54
Saccade L	1	8	2803773848	2803793719	19871	582.94	297.66	538.99	447.09	0.93	157.53	1.00	46.64	3830.60	-3334.93	2420.09
Saccade R	1	8	2803773848	2803793719	19871	582.94	297.66	538.99	447.09	0.93	157.53	1.00	46.64	3830.60	-3334.93	2420.09
Fixation L	1	9	2803793719	2803952835	159116	538.70	468.63	16	76	-1	12.36	12.36
Fixation R	1	9	2803793719	2803952835	159116	538.70	468.63	16	76	-1	12.63	12.63
Saccade L	1	9	2803952835	2803992582	39747	542.52	513.32	637.64	950.02	4.28	270.81	0.50	107.62	6667.37	-6101.14	5470.10
Saccade R	1	9	2803952835	2803992582	39747	542.52	513.32	637.64	950.02	4.28	270.81	0.50	107.62	6667.37	-6101.14	5470.10
Fixation L	1	10	2803992582	2804251201	258619	623.58	921.60	48	40	-1	13.59	13.59
Fixation R	1	10	2803992582	2804251201	258619	623.58	921.60	48	40	-1	13.55	13.55
Saccade L	1	10	2804251201	2804330815	79614	617.98	916.79	1038.22	960.56	7.08	250.37	0.50	88.96	6206.27	-4349.44	3664.62
Saccade R	1	10	2804251201	2804330815	79614	617.98	916.79	1038.22	960.56	7.08	250.37	0.50	88.96	6206.27	-4349.44	3664.62
Fixation L	1	11	2804330815	2804589308	258493	1037.75	972.28	22	25	-1	14.20	14.20
Fixation R	1	11	2804330815	2804589308	258493	1037.75	972.28	22	25	-1	14.26	14.26
Saccade L	1	11	2804589308	2804609186	19878	1023.83	985.15	747.63	991.22	1.51	279.26	1.00	75.74	6936.83	-6839.93	4618.82
Saccade R	1	11	2804589308	2804609186	19878	1023.83	985.15	747.63	991.22	1.51	279.26	1.00	75.74	6936.83	-6839.93	4618.82
Fixation L	1	12	2804609186	2804907539	298353	722.25	1009.38	44	25	-1	13.91	13.91
Fixation R	1	12	2804609186	2804907539	298353	722.25	1009.38	44	25	-1	13.70	13.70
Saccade L	1	12	2804907539	2804987164	79625	717.91	1008.20	630.02	257.79	9.01	278.21	0.25	113.10	6899.23	-3624.80	4340.93
Saccade R	1	12	2804907539	2804987164	79625	717.91	1008.20	630.02	257.79	9.01	278.21	0.25	113.10	6899.23	-3624.80	4340.93
Fixation L	1	13	2804987164	2805146280	159116	632.52	259.93	14	13	-1	12.68	12.68
Fixation R	1	13	2804987164	2805146280	159116	632.52	259.93	14	13	-1	13.07	13.07
