[BeGaze]
Converted from:	C:\Documents and Settings\iViewX\Desktop\EXPERIMENTATIONS\Experiments\results\finaleart\S18F56223-finaleart-1.idf
Date:	27.03.2019 15:49:25
Version:	BeGaze 2.5.77
Sample Rate:	50
Subject:	S18F56223
Description:	Pascale Sebillot

Table Header for Fixations:
Event Type	Trial	Number	Start	End	Duration	Location X	Location Y	Dispersion X	Dispersion Y	Plane	Avg. Pupil Size X	Avg. Pupil Size Y

Table Header for Saccades:
Event Type	Trial	Number	Start	End	Duration	Start Loc.X	Start Loc.Y	End Loc.X	End Loc.Y	Amplitude	Peak Speed	Peak Speed At	Average Speed	Peak Accel.	Peak Decel.	Average Accel.

Table Header for Blinks:
Event Type	Trial	Number	Start	End	Duration

Table Header for User Events:
Event Type	Trial	Number	Start	Description

UserEvent	1	1	2939916934	# Message: void.jpg
Fixation L	1	1	2939921635	2940359238	437603	1166.43	483.34	20	74	-1	15.28	15.28
Fixation R	1	1	2939921635	2940359238	437603	1166.43	483.34	20	74	-1	13.79	13.79
Saccade L	1	1	2940359238	2940379107	19869	1175.20	476.78	1180.89	484.39	0.13	13.35	1.00	6.41	1.68	-151.96	82.42
Saccade R	1	1	2940359238	2940379107	19869	1175.20	476.78	1180.89	484.39	0.13	13.35	1.00	6.41	1.68	-151.96	82.42
Fixation L	1	2	2940379107	2940617877	238770	1187.27	496.19	15	28	-1	15.41	15.41
Fixation R	1	2	2940379107	2940617877	238770	1187.27	496.19	15	28	-1	13.92	13.92
Saccade L	1	2	2940617877	2940657608	39731	1195.99	512.35	1070.40	597.94	1.57	94.78	1.00	39.50	2219.35	-2196.04	1897.33
Saccade R	1	2	2940617877	2940657608	39731	1195.99	512.35	1070.40	597.94	1.57	94.78	1.00	39.50	2219.35	-2196.04	1897.33
Fixation L	1	3	2940657608	2940776970	119362	1071.25	589.55	68	29	-1	15.16	15.16
Fixation R	1	3	2940657608	2940776970	119362	1071.25	589.55	68	29	-1	13.76	13.76
Saccade L	1	3	2940776970	2940836593	59623	1020.67	569.14	607.42	566.13	5.30	214.91	0.33	88.82	5155.10	-3496.02	2772.34
Saccade R	1	3	2940776970	2940836593	59623	1020.67	569.14	607.42	566.13	5.30	214.91	0.33	88.82	5155.10	-3496.02	2772.34
Fixation L	1	4	2940836593	2941194573	357980	575.55	546.81	42	28	-1	14.75	14.75
Fixation R	1	4	2940836593	2941194573	357980	575.55	546.81	42	28	-1	13.85	13.85
Saccade L	1	4	2941194573	2941234348	39775	569.70	547.16	673.96	658.69	1.73	86.44	1.00	43.61	2096.57	-1047.92	1493.04
Saccade R	1	4	2941194573	2941234348	39775	569.70	547.16	673.96	658.69	1.73	86.44	1.00	43.61	2096.57	-1047.92	1493.04
Fixation L	1	5	2941234348	2941492938	258590	690.67	645.43	45	36	-1	14.80	14.80
Fixation R	1	5	2941234348	2941492938	258590	690.67	645.43	45	36	-1	14.07	14.07
Saccade L	1	5	2941492938	2941592433	99495	695.51	636.95	684.59	603.92	1.51	52.23	1.00	15.20	1226.25	-490.15	448.84
Saccade R	1	5	2941492938	2941592433	99495	695.51	636.95	684.59	603.92	1.51	52.23	1.00	15.20	1226.25	-490.15	448.84
Fixation L	1	6	2941592433	2941811178	218745	656.85	566.89	43	50	-1	14.75	14.75
Fixation R	1	6	2941592433	2941811178	218745	656.85	566.89	43	50	-1	14.02	14.02
Saccade L	1	6	2941811178	2941910669	99491	649.44	556.82	510.64	514.59	2.99	139.36	0.20	30.08	3464.95	-3037.52	1230.04
Saccade R	1	6	2941811178	2941910669	99491	649.44	556.82	510.64	514.59	2.99	139.36	0.20	30.08	3464.95	-3037.52	1230.04
