[BeGaze]
Converted from:	C:\Documents and Settings\iViewX\Desktop\EXPERIMENTATIONS\Experiments\results\finaleart\S18F56223-finaleart-1.idf
Date:	27.03.2019 15:49:02
Version:	BeGaze 2.5.77
Sample Rate:	50
Subject:	S18F56223
Description:	Pascale Sebillot

Table Header for Fixations:
Event Type	Trial	Number	Start	End	Duration	Location X	Location Y	Dispersion X	Dispersion Y	Plane	Avg. Pupil Size X	Avg. Pupil Size Y

Table Header for Saccades:
Event Type	Trial	Number	Start	End	Duration	Start Loc.X	Start Loc.Y	End Loc.X	End Loc.Y	Amplitude	Peak Speed	Peak Speed At	Average Speed	Peak Accel.	Peak Decel.	Average Accel.

Table Header for Blinks:
Event Type	Trial	Number	Start	End	Duration

Table Header for User Events:
Event Type	Trial	Number	Start	Description

UserEvent	1	1	2721722791	# Message: The_Lying_Nude_Matisse_1906.jpg
Fixation L	1	1	2721727194	2721846442	119248	664.54	580.19	61	7	-1	13.19	13.19
Fixation R	1	1	2721727194	2721846442	119248	664.54	580.19	61	7	-1	13.30	13.30
Saccade L	1	1	2721846442	2721866461	20019	714.86	578.03	798.29	575.85	1.05	84.42	1.00	52.36	2093.61	-1497.32	1206.12
Saccade R	1	1	2721846442	2721866461	20019	714.86	578.03	798.29	575.85	1.05	84.42	1.00	52.36	2093.61	-1497.32	1206.12
Fixation L	1	2	2721866461	2722124922	258461	772.34	593.49	60	37	-1	12.75	12.75
Fixation R	1	2	2721866461	2722124922	258461	772.34	593.49	60	37	-1	13.19	13.19
Saccade L	1	2	2722124922	2722224406	99484	774.11	597.05	902.57	338.41	5.13	204.34	0.80	51.53	4836.29	-4826.97	2243.91
Saccade R	1	2	2722124922	2722224406	99484	774.11	597.05	902.57	338.41	5.13	204.34	0.80	51.53	4836.29	-4826.97	2243.91
Fixation L	1	3	2722224406	2722403403	178997	897.46	348.86	13	25	-1	11.85	11.85
Fixation R	1	3	2722224406	2722403403	178997	897.46	348.86	13	25	-1	12.26	12.26
Saccade L	1	3	2722403403	2722423283	19880	899.91	344.79	1082.34	240.99	1.17	212.24	1.00	58.64	5144.01	-5057.70	3444.70
Saccade R	1	3	2722403403	2722423283	19880	899.91	344.79	1082.34	240.99	1.17	212.24	1.00	58.64	5144.01	-5057.70	3444.70
Fixation L	1	4	2722423283	2722562528	139245	1090.99	245.35	12	9	-1	9.70	9.70
Fixation R	1	4	2722423283	2722562528	139245	1090.99	245.35	12	9	-1	9.96	9.96
Saccade L	1	4	2722562528	2722602276	39748	1094.84	245.80	480.53	366.04	5.41	347.27	1.00	136.08	8654.73	-8094.30	7599.93
Saccade R	1	4	2722562528	2722602276	39748	1094.84	245.80	480.53	366.04	5.41	347.27	1.00	136.08	8654.73	-8094.30	7599.93
Fixation L	1	5	2722602276	2722880760	278484	487.20	408.68	32	65	-1	8.52	8.52
Fixation R	1	5	2722602276	2722880760	278484	487.20	408.68	32	65	-1	9.77	9.77
Saccade L	1	5	2722880760	2722980262	99502	490.26	417.12	1204.25	521.50	10.53	338.12	0.40	105.78	8060.50	-8310.79	4525.13
Saccade R	1	5	2722880760	2722980262	99502	490.26	417.12	1204.25	521.50	10.53	338.12	0.40	105.78	8060.50	-8310.79	4525.13
Fixation L	1	6	2722980262	2723198993	218731	1197.65	515.90	9	58	-1	9.71	9.71
Fixation R	1	6	2722980262	2723198993	218731	1197.65	515.90	9	58	-1	9.94	9.94
Saccade L	1	6	2723198993	2723238751	39758	1196.74	522.40	1192.00	269.31	2.26	147.74	0.50	56.89	3471.23	-3288.77	2989.83
Saccade R	1	6	2723198993	2723238751	39758	1196.74	522.40	1192.00	269.31	2.26	147.74	0.50	56.89	3471.23	-3288.77	2989.83
Fixation L	1	7	2723238751	2723736113	497362	1194.13	228.48	16	70	-1	9.78	9.78
Fixation R	1	7	2723238751	2723736113	497362	1194.13	228.48	16	70	-1	9.83	9.83
Saccade L	1	7	2723736113	2723835477	99364	1191.17	213.69	831.46	854.57	13.33	338.10	0.20	134.18	8316.07	-3446.15	3813.97
Saccade R	1	7	2723736113	2723835477	99364	1191.17	213.69	831.46	854.57	13.33	338.10	0.20	134.18	8316.07	-3446.15	3813.97
Fixation L	1	8	2723835477	2723934966	99489	802.71	857.80	50	32	-1	10.01	10.01
Fixation R	1	8	2723835477	2723934966	99489	802.71	857.80	50	32	-1	10.06	10.06
Saccade L	1	8	2723934966	2723954841	19875	791.14	840.84	788.29	824.02	0.26	18.81	0.00	12.91	221.39	-323.49	278.50
Saccade R	1	8	2723934966	2723954841	19875	791.14	840.84	788.29	824.02	0.26	18.81	0.00	12.91	221.39	-323.49	278.50
Fixation L	1	9	2723954841	2724113963	159122	788.72	815.05	12	21	-1	10.36	10.36
Fixation R	1	9	2723954841	2724113963	159122	788.72	815.05	12	21	-1	10.59	10.59
Saccade L	1	9	2724113963	2724193578	79615	782.89	809.19	737.39	989.50	3.46	142.54	0.25	43.48	3407.08	-2924.46	1398.26
Saccade R	1	9	2724113963	2724193578	79615	782.89	809.19	737.39	989.50	3.46	142.54	0.25	43.48	3407.08	-2924.46	1398.26
Fixation L	1	10	2724193578	2724511818	318240	727.92	989.27	54	30	-1	11.40	11.40
Fixation R	1	10	2724193578	2724511818	318240	727.92	989.27	54	30	-1	11.60	11.60
Saccade L	1	10	2724511818	2724571432	59614	725.21	985.94	665.65	952.73	1.94	102.72	0.33	32.55	2542.56	-2102.39	1112.67
Saccade R	1	10	2724511818	2724571432	59614	725.21	985.94	665.65	952.73	1.94	102.72	0.33	32.55	2542.56	-2102.39	1112.67
Fixation L	1	11	2724571432	2724670931	99499	681.92	974.88	44	42	-1	11.69	11.69
Fixation R	1	11	2724571432	2724670931	99499	681.92	974.88	44	42	-1	12.13	12.13
Saccade L	1	11	2724670931	2724730551	59620	665.74	961.31	412.71	497.82	6.39	278.27	0.67	107.10	6118.72	-6084.52	4667.90
Saccade R	1	11	2724670931	2724730551	59620	665.74	961.31	412.71	497.82	6.39	278.27	0.67	107.10	6118.72	-6084.52	4667.90
Fixation L	1	12	2724730551	2725048790	318239	387.92	469.81	39	55	-1	11.08	11.08
Fixation R	1	12	2724730551	2725048790	318239	387.92	469.81	39	55	-1	12.26	12.26
Saccade L	1	12	2725048790	2725128426	79636	386.67	460.01	1211.82	625.85	10.70	441.09	0.50	134.35	10592.18	-10852.59	5231.03
Saccade R	1	12	2725048790	2725128426	79636	386.67	460.01	1211.82	625.85	10.70	441.09	0.50	134.35	10592.18	-10852.59	5231.03
Fixation L	1	13	2725128426	2725307408	178982	1249.55	592.04	46	52	-1	10.97	10.97
Fixation R	1	13	2725128426	2725307408	178982	1249.55	592.04	46	52	-1	11.64	11.64
Saccade L	1	13	2725307408	2725426653	119245	1257.50	601.39	1168.23	501.83	3.07	133.80	1.00	25.74	3131.19	-2967.14	988.87
Saccade R	1	13	2725307408	2725426653	119245	1257.50	601.39	1168.23	501.83	3.07	133.80	1.00	25.74	3131.19	-2967.14	988.87
Fixation L	1	14	2725426653	2725526151	99498	1123.60	481.09	58	33	-1	11.28	11.28
Fixation R	1	14	2725426653	2725526151	99498	1123.60	481.09	58	33	-1	11.46	11.46
Saccade L	1	14	2725526151	2725546019	19868	1112.76	468.39	1122.65	459.02	0.19	15.77	1.00	9.32	340.80	95.39	213.48
Saccade R	1	14	2725526151	2725546019	19868	1112.76	468.39	1122.65	459.02	0.19	15.77	1.00	9.32	340.80	95.39	213.48
Fixation L	1	15	2725546019	2725705140	159121	1120.22	459.21	4	21	-1	11.11	11.11
Fixation R	1	15	2725546019	2725705140	159121	1120.22	459.21	4	21	-1	11.36	11.36
