[BeGaze]
Converted from:	C:\Documents and Settings\iViewX\Desktop\EXPERIMENTATIONS\Experiments\results\finaleart\S18F56223-finaleart-1.idf
Date:	27.03.2019 15:48:51
Version:	BeGaze 2.5.77
Sample Rate:	50
Subject:	S18F56223
Description:	Pascale Sebillot

Table Header for Fixations:
Event Type	Trial	Number	Start	End	Duration	Location X	Location Y	Dispersion X	Dispersion Y	Plane	Avg. Pupil Size X	Avg. Pupil Size Y

Table Header for Saccades:
Event Type	Trial	Number	Start	End	Duration	Start Loc.X	Start Loc.Y	End Loc.X	End Loc.Y	Amplitude	Peak Speed	Peak Speed At	Average Speed	Peak Accel.	Peak Decel.	Average Accel.

Table Header for Blinks:
Event Type	Trial	Number	Start	End	Duration

Table Header for User Events:
Event Type	Trial	Number	Start	Description

UserEvent	1	1	2596860745	# Message: void.jpg
Fixation L	1	1	2596876915	2597055904	178989	1019.30	610.74	36	19	-1	13.92	13.92
Fixation R	1	1	2596876915	2597055904	178989	1019.30	610.74	36	19	-1	13.91	13.91
Saccade L	1	1	2597055904	2597095637	39733	1023.73	604.52	607.63	604.65	3.81	303.31	1.00	95.91	7354.32	-7447.66	4891.23
Saccade R	1	1	2597055904	2597095637	39733	1023.73	604.52	607.63	604.65	3.81	303.31	1.00	95.91	7354.32	-7447.66	4891.23
Fixation L	1	2	2597095637	2597513419	417782	561.34	609.91	60	32	-1	13.86	13.86
Fixation R	1	2	2597095637	2597513419	417782	561.34	609.91	60	32	-1	14.76	14.76
Saccade L	1	2	2597513419	2597533265	19846	555.12	627.01	561.00	635.13	0.19	12.04	0.00	9.60	20.92	-127.86	89.26
Saccade R	1	2	2597513419	2597533265	19846	555.12	627.01	561.00	635.13	0.19	12.04	0.00	9.60	20.92	-127.86	89.26
Fixation L	1	3	2597533265	2598249347	716082	576.97	639.95	37	56	-1	14.25	14.25
Fixation R	1	3	2597533265	2598249347	716082	576.97	639.95	37	56	-1	15.20	15.20
Saccade L	1	3	2598249347	2598269229	19882	586.53	606.74	659.60	588.12	0.59	76.27	1.00	29.49	1601.66	-1667.60	1126.76
Saccade R	1	3	2598249347	2598269229	19882	586.53	606.74	659.60	588.12	0.59	76.27	1.00	29.49	1601.66	-1667.60	1126.76
Fixation L	1	4	2598269229	2598846074	576845	673.82	587.62	23	28	-1	14.96	14.96
Fixation R	1	4	2598269229	2598846074	576845	673.82	587.62	23	28	-1	15.82	15.82
