[BeGaze]
Converted from:	C:\Documents and Settings\iViewX\Desktop\EXPERIMENTATIONS\Experiments\results\finaleart\S18F56223-finaleart-1.idf
Date:	27.03.2019 15:49:24
Version:	BeGaze 2.5.77
Sample Rate:	50
Subject:	S18F56223
Description:	Pascale Sebillot

Table Header for Fixations:
Event Type	Trial	Number	Start	End	Duration	Location X	Location Y	Dispersion X	Dispersion Y	Plane	Avg. Pupil Size X	Avg. Pupil Size Y

Table Header for Saccades:
Event Type	Trial	Number	Start	End	Duration	Start Loc.X	Start Loc.Y	End Loc.X	End Loc.Y	Amplitude	Peak Speed	Peak Speed At	Average Speed	Peak Accel.	Peak Decel.	Average Accel.

Table Header for Blinks:
Event Type	Trial	Number	Start	End	Duration

Table Header for User Events:
Event Type	Trial	Number	Start	Description

UserEvent	1	1	2929747683	# Message: still-life-with-a-puro-(II)_matisse_1904.jpg
Fixation L	1	1	2929757834	2930334545	576711	881.43	625.64	12	35	-1	14.65	14.65
Fixation R	1	1	2929757834	2930334545	576711	881.43	625.64	12	35	-1	13.07	13.07
Saccade L	1	1	2930334545	2930354550	20005	888.79	654.03	991.28	793.43	1.07	174.98	1.00	53.59	4206.08	-4163.64	2890.87
Saccade R	1	1	2930334545	2930354550	20005	888.79	654.03	991.28	793.43	1.07	174.98	1.00	53.59	4206.08	-4163.64	2890.87
Fixation L	1	2	2930354550	2930593166	238616	1001.41	790.17	27	31	-1	12.54	12.54
Fixation R	1	2	2930354550	2930593166	238616	1001.41	790.17	27	31	-1	11.11	11.11
Saccade L	1	2	2930593166	2930652790	59624	1001.57	792.14	519.34	464.65	6.51	253.82	0.67	109.15	5940.80	-5949.49	4096.80
Saccade R	1	2	2930593166	2930652790	59624	1001.57	792.14	519.34	464.65	6.51	253.82	0.67	109.15	5940.80	-5949.49	4096.80
Fixation L	1	3	2930652790	2930851772	198982	524.03	487.05	14	41	-1	11.51	11.51
Fixation R	1	3	2930652790	2930851772	198982	524.03	487.05	14	41	-1	10.77	10.77
Saccade L	1	3	2930851772	2930911398	59626	525.30	495.89	1222.69	279.99	7.96	286.22	0.67	133.45	6735.44	-6689.79	5189.65
Saccade R	1	3	2930851772	2930911398	59626	525.30	495.89	1222.69	279.99	7.96	286.22	0.67	133.45	6735.44	-6689.79	5189.65
Fixation L	1	4	2930911398	2931170015	258617	1224.46	260.74	26	31	-1	11.66	11.66
Fixation R	1	4	2930911398	2931170015	258617	1224.46	260.74	26	31	-1	10.83	10.83
Saccade L	1	4	2931170015	2931229634	59619	1228.78	265.58	1432.11	588.32	4.82	251.28	0.67	80.83	6206.39	-5043.51	2992.31
Saccade R	1	4	2931170015	2931229634	59619	1228.78	265.58	1432.11	588.32	4.82	251.28	0.67	80.83	6206.39	-5043.51	2992.31
Fixation L	1	5	2931229634	2931388751	159117	1437.13	573.88	8	48	-1	11.73	11.73
Fixation R	1	5	2931229634	2931388751	159117	1437.13	573.88	8	48	-1	10.79	10.79
Saccade L	1	5	2931388751	2931488248	99497	1433.77	571.09	413.81	814.28	15.61	436.14	0.20	156.89	10781.33	-6901.12	5398.70
Saccade R	1	5	2931388751	2931488248	99497	1433.77	571.09	413.81	814.28	15.61	436.14	0.20	156.89	10781.33	-6901.12	5398.70
Fixation L	1	6	2931488248	2931607620	119372	438.27	842.10	46	49	-1	12.52	12.52
Fixation R	1	6	2931488248	2931607620	119372	438.27	842.10	46	49	-1	11.52	11.52
Saccade L	1	6	2931607620	2931726856	119236	460.48	863.60	469.63	784.92	4.39	83.15	1.00	36.86	1508.88	-1984.99	1002.29
Saccade R	1	6	2931607620	2931726856	119236	460.48	863.60	469.63	784.92	4.39	83.15	1.00	36.86	1508.88	-1984.99	1002.29
Fixation L	1	7	2931726856	2932124724	397868	496.59	756.58	52	45	-1	12.93	12.93
Fixation R	1	7	2931726856	2932124724	397868	496.59	756.58	52	45	-1	12.24	12.24
Saccade L	1	7	2932124724	2932144593	19869	522.54	763.47	628.41	761.85	0.60	107.10	1.00	30.43	2569.24	-2562.51	1719.09
Saccade R	1	7	2932124724	2932144593	19869	522.54	763.47	628.41	761.85	0.60	107.10	1.00	30.43	2569.24	-2562.51	1719.09
Fixation L	1	8	2932144593	2932403215	258622	630.49	763.51	8	19	-1	12.71	12.71
Fixation R	1	8	2932144593	2932403215	258622	630.49	763.51	8	19	-1	12.26	12.26
Saccade L	1	8	2932403215	2932442980	39765	631.77	771.44	539.52	417.81	3.69	257.05	1.00	92.70	6390.09	-5895.68	3899.50
Saccade R	1	8	2932403215	2932442980	39765	631.77	771.44	539.52	417.81	3.69	257.05	1.00	92.70	6390.09	-5895.68	3899.50
Fixation L	1	9	2932442980	2932562330	119350	483.54	414.20	86	8	-1	12.35	12.35
Fixation R	1	9	2932442980	2932562330	119350	483.54	414.20	86	8	-1	11.98	11.98
Saccade L	1	9	2932562330	2932582199	19869	486.05	410.13	481.50	404.32	0.15	9.06	1.00	7.74	44.38	-12.70	21.79
Saccade R	1	9	2932562330	2932582199	19869	486.05	410.13	481.50	404.32	0.15	9.06	1.00	7.74	44.38	-12.70	21.79
Fixation L	1	10	2932582199	2932761196	178997	484.87	397.35	12	20	-1	12.10	12.10
Fixation R	1	10	2932582199	2932761196	178997	484.87	397.35	12	20	-1	11.91	11.91
Saccade L	1	10	2932761196	2932820828	59632	491.12	391.18	1227.31	368.13	7.67	378.78	0.33	128.56	9427.54	-6748.72	6178.39
Saccade R	1	10	2932761196	2932820828	59632	491.12	391.18	1227.31	368.13	7.67	378.78	0.33	128.56	9427.54	-6748.72	6178.39
Fixation L	1	11	2932820828	2933099303	278475	1225.22	352.44	8	21	-1	12.40	12.40
Fixation R	1	11	2932820828	2933099303	278475	1225.22	352.44	8	21	-1	11.28	11.28
Saccade L	1	11	2933099303	2933139050	39747	1227.16	353.76	1434.58	387.48	1.83	112.92	0.50	45.93	2768.65	-2518.35	2419.48
Saccade R	1	11	2933099303	2933139050	39747	1227.16	353.76	1434.58	387.48	1.83	112.92	0.50	45.93	2768.65	-2518.35	2419.48
Fixation L	1	12	2933139050	2933636407	497357	1439.58	409.92	47	46	-1	12.00	12.00
Fixation R	1	12	2933139050	2933636407	497357	1439.58	409.92	47	46	-1	10.94	10.94
Saccade L	1	12	2933636407	2933735778	99371	1400.59	384.84	1326.69	276.82	2.84	122.42	0.20	28.61	3021.27	-2796.79	1207.53
Saccade R	1	12	2933636407	2933735778	99371	1400.59	384.84	1326.69	276.82	2.84	122.42	0.20	28.61	3021.27	-2796.79	1207.53
