[BeGaze]
Converted from:	C:\Documents and Settings\iViewX\Desktop\EXPERIMENTATIONS\Experiments\results\finaleart\S18F56223-finaleart-1.idf
Date:	27.03.2019 15:49:46
Version:	BeGaze 2.5.77
Sample Rate:	50
Subject:	S18F56223
Description:	Pascale Sebillot

Table Header for Fixations:
Event Type	Trial	Number	Start	End	Duration	Location X	Location Y	Dispersion X	Dispersion Y	Plane	Avg. Pupil Size X	Avg. Pupil Size Y

Table Header for Saccades:
Event Type	Trial	Number	Start	End	Duration	Start Loc.X	Start Loc.Y	End Loc.X	End Loc.Y	Amplitude	Peak Speed	Peak Speed At	Average Speed	Peak Accel.	Peak Decel.	Average Accel.

Table Header for Blinks:
Event Type	Trial	Number	Start	End	Duration

Table Header for User Events:
Event Type	Trial	Number	Start	Description

UserEvent	1	1	3159919458	# Message: void.jpg
Saccade L	1	1	3159939002	3160217352	278350	1270.61	659.58	253.81	805.47	26.93	374.69	0.71	96.75	9225.18	-4226.96	2697.85
Saccade R	1	1	3159939002	3160217352	278350	1270.61	659.58	253.81	805.47	26.93	374.69	0.71	96.75	9225.18	-4226.96	2697.85
Fixation L	1	1	3160217352	3160456110	238758	256.52	821.45	47	40	-1	14.61	14.61
Fixation R	1	1	3160217352	3160456110	238758	256.52	821.45	47	40	-1	13.94	13.94
Saccade L	1	2	3160456110	3160535743	79633	249.56	811.49	417.60	467.94	5.78	161.90	1.00	72.55	3623.82	-3331.68	1750.61
Saccade R	1	2	3160456110	3160535743	79633	249.56	811.49	417.60	467.94	5.78	161.90	1.00	72.55	3623.82	-3331.68	1750.61
Fixation L	1	2	3160535743	3160714721	178978	440.79	436.91	45	44	-1	13.95	13.95
Fixation R	1	2	3160535743	3160714721	178978	440.79	436.91	45	44	-1	13.30	13.30
Saccade L	1	3	3160714721	3160794226	79505	451.33	430.97	291.80	74.94	5.17	220.58	0.25	65.08	4981.88	-4929.17	2224.06
Saccade R	1	3	3160714721	3160794226	79505	451.33	430.97	291.80	74.94	5.17	220.58	0.25	65.08	4981.88	-4929.17	2224.06
Fixation L	1	3	3160794226	3161092569	298343	293.09	118.04	30	61	-1	13.24	13.24
Fixation R	1	3	3160794226	3161092569	298343	293.09	118.04	30	61	-1	12.90	12.90
Saccade L	1	4	3161092569	3161152198	59629	281.92	123.45	899.60	468.55	7.71	294.88	0.67	129.38	7135.64	-6368.84	4976.86
Saccade R	1	4	3161092569	3161152198	59629	281.92	123.45	899.60	468.55	7.71	294.88	0.67	129.38	7135.64	-6368.84	4976.86
Fixation L	1	4	3161152198	3161331315	179117	896.55	468.38	13	50	-1	13.41	13.41
Fixation R	1	4	3161152198	3161331315	179117	896.55	468.38	13	50	-1	12.85	12.85
Saccade L	1	5	3161331315	3161371063	39748	889.37	468.13	840.73	737.45	2.50	197.77	1.00	62.99	4805.69	-4468.82	3129.64
Saccade R	1	5	3161331315	3161371063	39748	889.37	468.13	840.73	737.45	2.50	197.77	1.00	62.99	4805.69	-4468.82	3129.64
Fixation L	1	5	3161371063	3161689297	318234	830.85	739.38	31	25	-1	14.17	14.17
Fixation R	1	5	3161371063	3161689297	318234	830.85	739.38	31	25	-1	13.17	13.17
Saccade L	1	6	3161689297	3161729040	39743	843.49	741.80	774.97	715.17	1.74	131.31	0.50	43.69	3113.31	-2891.13	2083.69
Saccade R	1	6	3161689297	3161729040	39743	843.49	741.80	774.97	715.17	1.74	131.31	0.50	43.69	3113.31	-2891.13	2083.69
Fixation L	1	6	3161729040	3161908034	178994	760.22	720.50	24	40	-1	14.34	14.34
Fixation R	1	6	3161729040	3161908034	178994	760.22	720.50	24	40	-1	13.34	13.34
