[BeGaze]
Converted from:	C:\Documents and Settings\iViewX\Desktop\EXPERIMENTATIONS\Experiments\results\finaleart\S18F56223-finaleart-1.idf
Date:	27.03.2019 15:48:49
Version:	BeGaze 2.5.77
Sample Rate:	50
Subject:	S18F56223
Description:	Pascale Sebillot

Table Header for Fixations:
Event Type	Trial	Number	Start	End	Duration	Location X	Location Y	Dispersion X	Dispersion Y	Plane	Avg. Pupil Size X	Avg. Pupil Size Y

Table Header for Saccades:
Event Type	Trial	Number	Start	End	Duration	Start Loc.X	Start Loc.Y	End Loc.X	End Loc.Y	Amplitude	Peak Speed	Peak Speed At	Average Speed	Peak Accel.	Peak Decel.	Average Accel.

Table Header for Blinks:
Event Type	Trial	Number	Start	End	Duration

Table Header for User Events:
Event Type	Trial	Number	Start	Description

UserEvent	1	1	2578504892	# Message: void.jpg
Saccade L	1	1	2578518344	2578538220	19876	1436.14	971.71	1249.13	971.36	1.28	189.12	1.00	64.33	97.12	-4684.74	1593.95
Saccade R	1	1	2578518344	2578538220	19876	1436.14	971.71	1249.13	971.36	1.28	189.12	1.00	64.33	97.12	-4684.74	1593.95
Fixation L	1	1	2578538220	2578697345	159125	1242.07	954.99	15	47	-1	14.48	14.48
Fixation R	1	1	2578538220	2578697345	159125	1242.07	954.99	15	47	-1	16.17	16.17
Saccade L	1	2	2578697345	2578737074	39729	1238.64	953.51	1161.62	963.83	2.52	174.18	0.50	63.46	3803.46	-4044.97	3006.04
Saccade R	1	2	2578697345	2578737074	39729	1238.64	953.51	1161.62	963.83	2.52	174.18	0.50	63.46	3803.46	-4044.97	3006.04
Fixation L	1	2	2578737074	2579075303	338229	1149.80	976.45	18	44	-1	14.68	14.68
Fixation R	1	2	2578737074	2579075303	338229	1149.80	976.45	18	44	-1	15.92	15.92
Saccade L	1	3	2579075303	2579154833	79530	1145.19	989.47	1004.17	570.01	5.69	131.65	0.25	71.60	3045.63	-2794.83	1888.95
Saccade R	1	3	2579075303	2579154833	79530	1145.19	989.47	1004.17	570.01	5.69	131.65	0.25	71.60	3045.63	-2794.83	1888.95
Fixation L	1	3	2579154833	2579313937	159104	987.70	565.24	32	26	-1	12.87	12.87
Fixation R	1	3	2579154833	2579313937	159104	987.70	565.24	32	26	-1	13.29	13.29
Saccade L	1	4	2579313937	2579353688	39751	971.78	564.07	795.54	421.53	2.26	146.31	1.00	56.83	3277.27	-3127.21	2675.53
Saccade R	1	4	2579313937	2579353688	39751	971.78	564.07	795.54	421.53	2.26	146.31	1.00	56.83	3277.27	-3127.21	2675.53
Fixation L	1	4	2579353688	2579512799	159111	774.59	405.52	35	34	-1	11.46	11.46
Fixation R	1	4	2579353688	2579512799	159111	774.59	405.52	35	34	-1	12.45	12.45
Saccade L	1	5	2579512799	2579552681	39882	768.49	418.02	613.62	338.68	1.83	105.14	0.50	45.78	2416.89	-2246.98	2275.95
Saccade R	1	5	2579512799	2579552681	39882	768.49	418.02	613.62	338.68	1.83	105.14	0.50	45.78	2416.89	-2246.98	2275.95
Fixation L	1	5	2579552681	2579890791	338110	621.65	314.13	11	49	-1	10.82	10.82
Fixation R	1	5	2579552681	2579890791	338110	621.65	314.13	11	49	-1	12.38	12.38
Saccade L	1	6	2579890791	2579930534	39743	624.70	296.60	532.48	552.05	2.57	149.13	1.00	64.64	3675.40	-3243.84	3049.93
Saccade R	1	6	2579890791	2579930534	39743	624.70	296.60	532.48	552.05	2.57	149.13	1.00	64.64	3675.40	-3243.84	3049.93
Fixation L	1	6	2579930534	2580328387	397853	542.78	529.98	35	48	-1	11.42	11.42
Fixation R	1	6	2579930534	2580328387	397853	542.78	529.98	35	48	-1	12.85	12.85
Saccade L	1	7	2580328387	2580348258	19871	537.26	519.76	630.06	535.31	0.86	95.18	1.00	43.09	2116.29	-1589.16	1684.90
Saccade R	1	7	2580328387	2580348258	19871	537.26	519.76	630.06	535.31	0.86	95.18	1.00	43.09	2116.29	-1589.16	1684.90
Fixation L	1	7	2580348258	2580487507	139249	653.25	575.50	38	60	-1	12.19	12.19
Fixation R	1	7	2580348258	2580487507	139249	653.25	575.50	38	60	-1	13.48	13.48
