[BeGaze]
Converted from:	C:\Documents and Settings\iViewX\Desktop\EXPERIMENTATIONS\Experiments\results\finaleart\S18F56223-finaleart-1.idf
Date:	27.03.2019 15:48:24
Version:	BeGaze 2.5.77
Sample Rate:	50
Subject:	S18F56223
Description:	Pascale Sebillot

Table Header for Fixations:
Event Type	Trial	Number	Start	End	Duration	Location X	Location Y	Dispersion X	Dispersion Y	Plane	Avg. Pupil Size X	Avg. Pupil Size Y

Table Header for Saccades:
Event Type	Trial	Number	Start	End	Duration	Start Loc.X	Start Loc.Y	End Loc.X	End Loc.Y	Amplitude	Peak Speed	Peak Speed At	Average Speed	Peak Accel.	Peak Decel.	Average Accel.

Table Header for Blinks:
Event Type	Trial	Number	Start	End	Duration

Table Header for User Events:
Event Type	Trial	Number	Start	Description

UserEvent	1	1	2342744389	# Message: void.jpg
Fixation L	1	1	2342760951	2343059284	298333	568.95	1061.17	22	42	-1	17.85	17.85
Fixation R	1	1	2342760951	2343059284	298333	568.95	1061.17	22	42	-1	16.30	16.30
Saccade L	1	1	2343059284	2343118914	59630	580.14	1064.59	404.80	917.17	4.56	183.30	0.67	76.55	4542.77	-4114.67	3270.21
Saccade R	1	1	2343059284	2343118914	59630	580.14	1064.59	404.80	917.17	4.56	183.30	0.67	76.55	4542.77	-4114.67	3270.21
Fixation L	1	2	2343118914	2343457023	338109	405.47	888.40	48	45	-1	18.08	18.08
Fixation R	1	2	2343118914	2343457023	338109	405.47	888.40	48	45	-1	16.48	16.48
Saccade L	1	2	2343457023	2343476939	19916	438.51	882.01	502.01	901.36	0.68	67.16	1.00	34.35	1475.68	-1530.03	1248.13
Saccade R	1	2	2343457023	2343476939	19916	438.51	882.01	502.01	901.36	0.68	67.16	1.00	34.35	1475.68	-1530.03	1248.13
Fixation L	1	3	2343476939	2343795126	318187	500.00	891.36	22	19	-1	16.85	16.85
Fixation R	1	3	2343476939	2343795126	318187	500.00	891.36	22	19	-1	15.07	15.07
Saccade L	1	3	2343795126	2343854868	59742	506.92	886.10	598.51	517.63	4.45	221.95	0.33	74.55	5477.71	-3622.78	2880.88
Saccade R	1	3	2343795126	2343854868	59742	506.92	886.10	598.51	517.63	4.45	221.95	0.33	74.55	5477.71	-3622.78	2880.88
Fixation L	1	4	2343854868	2344173107	318239	608.97	462.99	16	81	-1	16.34	16.34
Fixation R	1	4	2343854868	2344173107	318239	608.97	462.99	16	81	-1	14.60	14.60
Saccade L	1	4	2344173107	2344192977	19870	615.42	437.60	618.50	445.65	0.19	14.11	1.00	9.60	156.44	24.93	76.02
Saccade R	1	4	2344173107	2344192977	19870	615.42	437.60	618.50	445.65	0.19	14.11	1.00	9.60	156.44	24.93	76.02
Fixation L	1	5	2344192977	2344431606	238629	630.68	458.01	20	22	-1	15.77	15.77
Fixation R	1	5	2344192977	2344431606	238629	630.68	458.01	20	22	-1	14.24	14.24
Saccade L	1	5	2344431606	2344451594	19988	638.19	456.34	632.91	575.16	0.68	120.30	1.00	33.90	2917.88	-2938.43	1961.28
Saccade R	1	5	2344431606	2344451594	19988	638.19	456.34	632.91	575.16	0.68	120.30	1.00	33.90	2917.88	-2938.43	1961.28
Fixation L	1	6	2344451594	2344729953	278359	620.50	571.84	20	13	-1	16.03	16.03
Fixation R	1	6	2344451594	2344729953	278359	620.50	571.84	20	13	-1	14.23	14.23
