[BeGaze]
Converted from:	C:\Documents and Settings\iViewX\Desktop\EXPERIMENTATIONS\Experiments\results\finaleart\S18F56223-finaleart-1.idf
Date:	27.03.2019 15:49:04
Version:	BeGaze 2.5.77
Sample Rate:	50
Subject:	S18F56223
Description:	Pascale Sebillot

Table Header for Fixations:
Event Type	Trial	Number	Start	End	Duration	Location X	Location Y	Dispersion X	Dispersion Y	Plane	Avg. Pupil Size X	Avg. Pupil Size Y

Table Header for Saccades:
Event Type	Trial	Number	Start	End	Duration	Start Loc.X	Start Loc.Y	End Loc.X	End Loc.Y	Amplitude	Peak Speed	Peak Speed At	Average Speed	Peak Accel.	Peak Decel.	Average Accel.

Table Header for Blinks:
Event Type	Trial	Number	Start	End	Duration

Table Header for User Events:
Event Type	Trial	Number	Start	Description

UserEvent	1	1	2731872127	# Message: void.jpg
Fixation L	1	1	2731890999	2732149619	258620	276.35	512.28	19	40	-1	12.88	12.88
Fixation R	1	1	2731890999	2732149619	258620	276.35	512.28	19	40	-1	12.30	12.30
Saccade L	1	1	2732149619	2732169505	19886	285.83	525.24	287.21	435.83	0.86	90.45	1.00	43.21	2135.60	-1315.29	1663.75
Saccade R	1	1	2732149619	2732169505	19886	285.83	525.24	287.21	435.83	0.86	90.45	1.00	43.21	2135.60	-1315.29	1663.75
Fixation L	1	2	2732169505	2732567235	397730	292.96	410.65	27	68	-1	13.08	13.08
Fixation R	1	2	2732169505	2732567235	397730	292.96	410.65	27	68	-1	13.17	13.17
Saccade L	1	2	2732567235	2732607086	39851	293.35	416.49	439.93	464.69	1.44	81.78	0.50	36.20	1931.46	-1843.19	1866.45
Saccade R	1	2	2732567235	2732607086	39851	293.35	416.49	439.93	464.69	1.44	81.78	0.50	36.20	1931.46	-1843.19	1866.45
Fixation L	1	3	2732607086	2733004836	397750	430.30	470.63	38	28	-1	13.84	13.84
Fixation R	1	3	2732607086	2733004836	397750	430.30	470.63	38	28	-1	13.51	13.51
Saccade L	1	3	2733004836	2733024695	19859	402.78	477.70	343.15	549.16	0.85	94.14	1.00	42.67	2268.73	-2117.88	1600.46
Saccade R	1	3	2733004836	2733024695	19859	402.78	477.70	343.15	549.16	0.85	94.14	1.00	42.67	2268.73	-2117.88	1600.46
Fixation L	1	4	2733024695	2733203681	178986	342.83	520.57	29	48	-1	14.24	14.24
Fixation R	1	4	2733024695	2733203681	178986	342.83	520.57	29	48	-1	13.90	13.90
Saccade L	1	4	2733203681	2733263430	59749	343.44	529.52	909.50	638.17	6.11	315.69	0.67	102.23	7499.27	-7798.06	4903.57
Saccade R	1	4	2733203681	2733263430	59749	343.44	529.52	909.50	638.17	6.11	315.69	0.67	102.23	7499.27	-7798.06	4903.57
Fixation L	1	5	2733263430	2733581670	318240	910.74	631.59	12	18	-1	14.99	14.99
Fixation R	1	5	2733263430	2733581670	318240	910.74	631.59	12	18	-1	13.98	13.98
Saccade L	1	5	2733581670	2733601547	19877	909.17	625.24	771.62	630.99	0.76	139.25	1.00	38.25	3296.80	-3446.53	2283.21
Saccade R	1	5	2733581670	2733601547	19877	909.17	625.24	771.62	630.99	0.76	139.25	1.00	38.25	3296.80	-3446.53	2283.21
Fixation L	1	6	2733601547	2733860175	258628	767.95	631.87	8	32	-1	14.74	14.74
Fixation R	1	6	2733601547	2733860175	258628	767.95	631.87	8	32	-1	13.40	13.40
