[BeGaze]
Converted from:	C:\Documents and Settings\iViewX\Desktop\EXPERIMENTATIONS\Experiments\results\finaleart\S18F56223-finaleart-1.idf
Date:	27.03.2019 15:49:41
Version:	BeGaze 2.5.77
Sample Rate:	50
Subject:	S18F56223
Description:	Pascale Sebillot

Table Header for Fixations:
Event Type	Trial	Number	Start	End	Duration	Location X	Location Y	Dispersion X	Dispersion Y	Plane	Avg. Pupil Size X	Avg. Pupil Size Y

Table Header for Saccades:
Event Type	Trial	Number	Start	End	Duration	Start Loc.X	Start Loc.Y	End Loc.X	End Loc.Y	Amplitude	Peak Speed	Peak Speed At	Average Speed	Peak Accel.	Peak Decel.	Average Accel.

Table Header for Blinks:
Event Type	Trial	Number	Start	End	Duration

Table Header for User Events:
Event Type	Trial	Number	Start	Description

UserEvent	1	1	3119265890	# Message: Le-Restaurant-de-la-machine-a-Bougival-vlaminck-1905.jpg
Fixation L	1	1	3119283529	3119661520	377991	830.65	569.61	20	77	-1	13.74	13.74
Fixation R	1	1	3119283529	3119661520	377991	830.65	569.61	20	77	-1	11.68	11.68
Saccade L	1	1	3119661520	3119681390	19870	837.31	616.44	840.13	628.50	0.55	53.21	1.00	27.78	387.07	122.56	239.27
Saccade R	1	1	3119661520	3119681390	19870	837.31	616.44	840.13	628.50	0.55	53.21	1.00	27.78	387.07	122.56	239.27
Fixation L	1	2	3119681390	3119780752	99362	836.46	591.60	7	61	-1	13.63	13.63
Fixation R	1	2	3119681390	3119780752	99362	836.46	591.60	7	61	-1	11.68	11.68
Saccade L	1	2	3119780752	3119800743	19991	832.59	567.02	780.18	377.50	1.38	198.85	1.00	68.88	4554.91	-4342.03	3008.28
Saccade R	1	2	3119780752	3119800743	19991	832.59	567.02	780.18	377.50	1.38	198.85	1.00	68.88	4554.91	-4342.03	3008.28
Fixation L	1	3	3119800743	3120059251	258508	786.03	357.16	31	30	-1	13.29	13.29
Fixation R	1	3	3119800743	3120059251	258508	786.03	357.16	31	30	-1	11.35	11.35
Saccade L	1	3	3120059251	3120079128	19877	780.97	355.93	554.20	354.56	1.33	229.29	1.00	66.96	5618.12	-5185.77	3771.68
Saccade R	1	3	3120059251	3120079128	19877	780.97	355.93	554.20	354.56	1.33	229.29	1.00	66.96	5618.12	-5185.77	3771.68
Fixation L	1	4	3120079128	3120357608	278480	514.06	357.48	51	14	-1	11.71	11.71
Fixation R	1	4	3120079128	3120357608	278480	514.06	357.48	51	14	-1	10.28	10.28
Saccade L	1	4	3120357608	3120397355	39747	515.72	366.67	360.56	347.72	1.61	86.47	1.00	40.50	2072.39	-1717.97	1592.88
Saccade R	1	4	3120357608	3120397355	39747	515.72	366.67	360.56	347.72	1.61	86.47	1.00	40.50	2072.39	-1717.97	1592.88
Fixation L	1	5	3120397355	3120516721	119366	390.15	352.69	47	12	-1	11.10	11.10
Fixation R	1	5	3120397355	3120516721	119366	390.15	352.69	47	12	-1	9.94	9.94
Saccade L	1	5	3120516721	3120576474	59753	395.18	356.59	1095.40	476.13	7.63	442.79	0.67	127.76	10948.58	-10416.69	5633.20
Saccade R	1	5	3120516721	3120576474	59753	395.18	356.59	1095.40	476.13	7.63	442.79	0.67	127.76	10948.58	-10416.69	5633.20
Fixation L	1	6	3120576474	3120795213	218739	1092.88	458.49	31	36	-1	11.80	11.80
Fixation R	1	6	3120576474	3120795213	218739	1092.88	458.49	31	36	-1	9.71	9.71
Saccade L	1	6	3120795213	3120834963	39750	1114.65	439.83	1199.94	231.13	2.31	132.57	0.50	58.10	2975.15	-2620.90	2378.14
Saccade R	1	6	3120795213	3120834963	39750	1114.65	439.83	1199.94	231.13	2.31	132.57	0.50	58.10	2975.15	-2620.90	2378.14
Fixation L	1	7	3120834963	3121133328	298365	1198.99	280.67	21	73	-1	12.19	12.19
Fixation R	1	7	3120834963	3121133328	298365	1198.99	280.67	21	73	-1	9.95	9.95
Saccade L	1	7	3121133328	3121173067	39739	1191.00	304.45	1434.43	451.02	2.75	183.49	0.50	69.22	4531.14	-3342.38	3073.56
Saccade R	1	7	3121133328	3121173067	39739	1191.00	304.45	1434.43	451.02	2.75	183.49	0.50	69.22	4531.14	-3342.38	3073.56
Fixation L	1	8	3121173067	3121272577	99510	1416.95	482.21	37	48	-1	11.74	11.74
Fixation R	1	8	3121173067	3121272577	99510	1416.95	482.21	37	48	-1	9.52	9.52
Saccade L	1	8	3121272577	3121292438	19861	1413.60	485.69	1415.71	516.93	0.30	31.68	1.00	15.05	486.43	-656.03	470.62
Saccade R	1	8	3121272577	3121292438	19861	1413.60	485.69	1415.71	516.93	0.30	31.68	1.00	15.05	486.43	-656.03	470.62
Fixation L	1	9	3121292438	3121491309	198871	1413.61	529.40	3	21	-1	11.56	11.56
Fixation R	1	9	3121292438	3121491309	198871	1413.61	529.40	3	21	-1	9.44	9.44
Saccade L	1	9	3121491309	3121531182	39873	1412.60	537.35	1414.18	254.17	2.37	177.91	1.00	59.47	4442.39	-4030.33	3409.17
Saccade R	1	9	3121491309	3121531182	39873	1412.60	537.35	1414.18	254.17	2.37	177.91	1.00	59.47	4442.39	-4030.33	3409.17
Fixation L	1	10	3121531182	3121730040	198858	1437.04	240.90	34	28	-1	11.52	11.52
Fixation R	1	10	3121531182	3121730040	198858	1437.04	240.90	34	28	-1	9.21	9.21
Saccade L	1	10	3121730040	3121769794	39754	1438.41	255.65	1183.40	312.95	2.31	145.69	0.50	58.22	3378.08	-3404.59	3103.31
Saccade R	1	10	3121730040	3121769794	39754	1438.41	255.65	1183.40	312.95	2.31	145.69	0.50	58.22	3378.08	-3404.59	3103.31
Fixation L	1	11	3121769794	3122048276	278482	1177.26	310.70	25	18	-1	11.27	11.27
Fixation R	1	11	3121769794	3122048276	278482	1177.26	310.70	25	18	-1	8.98	8.98
Saccade L	1	11	3122048276	3122068159	19883	1166.73	308.09	962.40	396.32	1.39	225.04	1.00	70.06	5480.38	-5004.86	3844.10
Saccade R	1	11	3122048276	3122068159	19883	1166.73	308.09	962.40	396.32	1.39	225.04	1.00	70.06	5480.38	-5004.86	3844.10
Fixation L	1	12	3122068159	3122446161	378002	992.89	365.92	43	47	-1	11.01	11.01
Fixation R	1	12	3122068159	3122446161	378002	992.89	365.92	43	47	-1	8.69	8.69
Saccade L	1	12	3122446161	3122485882	39721	1002.70	348.53	1280.53	340.78	2.63	152.82	0.50	66.10	3534.65	-3123.78	3126.19
Saccade R	1	12	3122446161	3122485882	39721	1002.70	348.53	1280.53	340.78	2.63	152.82	0.50	66.10	3534.65	-3123.78	3126.19
Fixation L	1	13	3122485882	3122684753	198871	1255.97	324.23	34	61	-1	10.40	10.40
Fixation R	1	13	3122485882	3122684753	198871	1255.97	324.23	34	61	-1	8.20	8.20
Saccade L	1	13	3122684753	3122704630	19877	1250.28	370.52	1254.94	421.40	0.70	51.68	1.00	35.44	1197.52	-422.13	653.71
Saccade R	1	13	3122684753	3122704630	19877	1250.28	370.52	1254.94	421.40	0.70	51.68	1.00	35.44	1197.52	-422.13	653.71
Fixation L	1	14	3122704630	3122883637	179007	1260.05	449.88	9	86	-1	10.42	10.42
Fixation R	1	14	3122704630	3122883637	179007	1260.05	449.88	9	86	-1	8.02	8.02
Saccade L	1	14	3122883637	3122903617	19980	1263.62	469.49	1268.68	458.77	0.20	11.99	1.00	9.77	140.27	-205.40	127.10
Saccade R	1	14	3122883637	3122903617	19980	1263.62	469.49	1268.68	458.77	0.20	11.99	1.00	9.77	140.27	-205.40	127.10
Fixation L	1	15	3122903617	3123062740	159123	1263.87	469.76	16	33	-1	10.93	10.93
Fixation R	1	15	3122903617	3123062740	159123	1263.87	469.76	16	33	-1	8.42	8.42
Saccade L	1	15	3123062740	3123082606	19866	1252.11	492.60	1099.05	689.53	1.70	252.15	1.00	85.54	6006.32	-6158.94	4368.99
Saccade R	1	15	3123062740	3123082606	19866	1252.11	492.60	1099.05	689.53	1.70	252.15	1.00	85.54	6006.32	-6158.94	4368.99
Fixation L	1	16	3123082606	3123181980	99374	1074.16	736.91	31	64	-1	11.15	11.15
Fixation R	1	16	3123082606	3123181980	99374	1074.16	736.91	31	64	-1	8.62	8.62
Saccade L	1	16	3123181980	3123261606	79626	1068.09	753.67	1052.46	833.93	4.16	170.52	1.00	52.19	3307.89	0.00	1183.35
Saccade R	1	16	3123181980	3123261606	79626	1068.09	753.67	1052.46	833.93	4.16	170.52	1.00	52.19	3307.89	0.00	1183.35
