[BeGaze]
Converted from:	C:\Documents and Settings\iViewX\Desktop\EXPERIMENTATIONS\Experiments\results\finaleart\S18F56223-finaleart-1.idf
Date:	27.03.2019 15:48:58
Version:	BeGaze 2.5.77
Sample Rate:	50
Subject:	S18F56223
Description:	Pascale Sebillot

Table Header for Fixations:
Event Type	Trial	Number	Start	End	Duration	Location X	Location Y	Dispersion X	Dispersion Y	Plane	Avg. Pupil Size X	Avg. Pupil Size Y

Table Header for Saccades:
Event Type	Trial	Number	Start	End	Duration	Start Loc.X	Start Loc.Y	End Loc.X	End Loc.Y	Amplitude	Peak Speed	Peak Speed At	Average Speed	Peak Accel.	Peak Decel.	Average Accel.

Table Header for Blinks:
Event Type	Trial	Number	Start	End	Duration

Table Header for User Events:
Event Type	Trial	Number	Start	Description

UserEvent	1	1	2651912933	# Message: void.jpg
Fixation L	1	1	2651932749	2652052208	119459	916.14	778.89	4	8	-1	13.29	13.29
Fixation R	1	1	2651932749	2652052208	119459	916.14	778.89	4	8	-1	12.73	12.73
Saccade L	1	1	2652052208	2652091863	39655	916.97	775.63	924.59	454.88	2.63	201.88	1.00	66.44	4989.21	-4844.80	3957.02
Saccade R	1	1	2652052208	2652091863	39655	916.97	775.63	924.59	454.88	2.63	201.88	1.00	66.44	4989.21	-4844.80	3957.02
Fixation L	1	2	2652091863	2652529482	437619	939.15	488.43	22	74	-1	13.14	13.14
Fixation R	1	2	2652091863	2652529482	437619	939.15	488.43	22	74	-1	12.32	12.32
Saccade L	1	2	2652529482	2652549343	19861	940.54	529.54	849.84	539.36	0.71	92.28	1.00	35.70	2168.60	-2253.74	1668.01
Saccade R	1	2	2652529482	2652549343	19861	940.54	529.54	849.84	539.36	0.71	92.28	1.00	35.70	2168.60	-2253.74	1668.01
Fixation L	1	3	2652549343	2652688585	139242	860.18	574.32	18	56	-1	13.13	13.13
Fixation R	1	3	2652549343	2652688585	139242	860.18	574.32	18	56	-1	12.32	12.32
Saccade L	1	3	2652688585	2652847705	159120	859.20	574.62	85.70	285.54	17.77	334.07	0.25	111.69	8185.85	-4706.21	3234.60
Saccade R	1	3	2652688585	2652847705	159120	859.20	574.62	85.70	285.54	17.77	334.07	0.25	111.69	8185.85	-4706.21	3234.60
Fixation L	1	4	2652847705	2652947080	99375	105.52	312.04	41	55	-1	12.85	12.85
Fixation R	1	4	2652847705	2652947080	99375	105.52	312.04	41	55	-1	13.11	13.11
Saccade L	1	4	2652947080	2653106195	159115	124.53	341.54	913.79	713.58	14.33	420.13	0.75	90.03	9874.44	-6264.23	3369.47
Saccade R	1	4	2652947080	2653106195	159115	124.53	341.54	913.79	713.58	14.33	420.13	0.75	90.03	9874.44	-6264.23	3369.47
Fixation L	1	5	2653106195	2653901917	795722	926.82	660.25	23	71	-1	13.72	13.72
Fixation R	1	5	2653106195	2653901917	795722	926.82	660.25	23	71	-1	13.23	13.23
