[BeGaze]
Converted from:	C:\Documents and Settings\iViewX\Desktop\EXPERIMENTATIONS\Experiments\results\finaleart\S18F56223-finaleart-1.idf
Date:	27.03.2019 15:48:06
Version:	BeGaze 2.5.77
Sample Rate:	50
Subject:	S18F56223
Description:	Pascale Sebillot

Table Header for Fixations:
Event Type	Trial	Number	Start	End	Duration	Location X	Location Y	Dispersion X	Dispersion Y	Plane	Avg. Pupil Size X	Avg. Pupil Size Y

Table Header for Saccades:
Event Type	Trial	Number	Start	End	Duration	Start Loc.X	Start Loc.Y	End Loc.X	End Loc.Y	Amplitude	Peak Speed	Peak Speed At	Average Speed	Peak Accel.	Peak Decel.	Average Accel.

Table Header for Blinks:
Event Type	Trial	Number	Start	End	Duration

Table Header for User Events:
Event Type	Trial	Number	Start	Description

UserEvent	1	1	2166367407	# Message: void.jpg
Fixation L	1	1	2166375402	2166514778	139376	448.73	879.06	43	50	-1	16.86	16.86
Fixation R	1	1	2166375402	2166514778	139376	448.73	879.06	43	50	-1	16.22	16.22
Saccade L	1	1	2166514778	2166574438	59660	447.68	880.23	494.22	499.08	4.42	214.90	0.66	74.16	5259.58	-5006.93	2721.51
Saccade R	1	1	2166514778	2166574438	59660	447.68	880.23	494.22	499.08	4.42	214.90	0.66	74.16	5259.58	-5006.93	2721.51
Fixation L	1	2	2166574438	2166892620	318182	511.94	531.80	28	49	-1	16.98	16.98
Fixation R	1	2	2166574438	2166892620	318182	511.94	531.80	28	49	-1	15.88	15.88
Saccade L	1	2	2166892620	2167250616	357996	514.18	535.89	740.90	598.09	31.43	286.13	0.44	87.80	7081.53	-6977.05	4119.44
Saccade R	1	2	2166892620	2167250616	357996	514.18	535.89	740.90	598.09	31.43	286.13	0.44	87.80	7081.53	-6977.05	4119.44
Fixation L	1	3	2167250616	2167389851	139235	724.32	610.06	52	38	-1	15.96	15.96
Fixation R	1	3	2167250616	2167389851	139235	724.32	610.06	52	38	-1	15.04	15.04
Saccade L	1	3	2167389851	2167926830	536979	748.04	636.90	817.36	678.78	101.57	453.99	1.00	189.16	9214.55	-10848.02	3969.54
Saccade R	1	3	2167389851	2167926830	536979	748.04	636.90	817.36	678.78	101.57	453.99	1.00	189.16	9214.55	-10848.02	3969.54
Fixation L	1	4	2167926830	2168304803	377973	804.67	667.42	20	74	-1	16.36	16.36
Fixation R	1	4	2167926830	2168304803	377973	804.67	667.42	20	74	-1	15.65	15.65
Saccade L	1	4	2168304803	2168364434	59631	806.86	654.39	804.20	638.65	1.42	30.99	0.00	23.82	0.00	-251.99	148.56
Saccade R	1	4	2168304803	2168364434	59631	806.86	654.39	804.20	638.65	1.42	30.99	0.00	23.82	0.00	-251.99	148.56
