[BeGaze]
Converted from:	C:\Documents and Settings\iViewX\Desktop\EXPERIMENTATIONS\Experiments\results\finaleart\S18F56223-finaleart-1.idf
Date:	27.03.2019 15:49:07
Version:	BeGaze 2.5.77
Sample Rate:	50
Subject:	S18F56223
Description:	Pascale Sebillot

Table Header for Fixations:
Event Type	Trial	Number	Start	End	Duration	Location X	Location Y	Dispersion X	Dispersion Y	Plane	Avg. Pupil Size X	Avg. Pupil Size Y

Table Header for Saccades:
Event Type	Trial	Number	Start	End	Duration	Start Loc.X	Start Loc.Y	End Loc.X	End Loc.Y	Amplitude	Peak Speed	Peak Speed At	Average Speed	Peak Accel.	Peak Decel.	Average Accel.

Table Header for Blinks:
Event Type	Trial	Number	Start	End	Duration

Table Header for User Events:
Event Type	Trial	Number	Start	Description

UserEvent	1	1	2756349104	# Message: void.jpg
Fixation L	1	1	2756355805	2756753648	397843	365.83	435.50	21	18	-1	14.95	14.95
Fixation R	1	1	2756355805	2756753648	397843	365.83	435.50	21	18	-1	15.29	15.29
Saccade L	1	1	2756753648	2756773534	19886	364.72	439.19	470.75	495.50	0.67	121.43	1.00	33.90	2954.16	-2825.86	1978.76
Saccade R	1	1	2756753648	2756773534	19886	364.72	439.19	470.75	495.50	0.67	121.43	1.00	33.90	2954.16	-2825.86	1978.76
Fixation L	1	2	2756773534	2756892894	119360	479.37	512.70	17	51	-1	15.04	15.04
Fixation R	1	2	2756773534	2756892894	119360	479.37	512.70	17	51	-1	15.53	15.53
Saccade L	1	2	2756892894	2756952546	59652	485.70	532.17	960.65	582.13	5.21	204.43	0.33	87.33	4765.15	-3522.71	3357.07
Saccade R	1	2	2756892894	2756952546	59652	485.70	532.17	960.65	582.13	5.21	204.43	0.33	87.33	4765.15	-3522.71	3357.07
Fixation L	1	3	2756952546	2757091764	139218	955.46	588.93	8	32	-1	14.46	14.46
Fixation R	1	3	2756952546	2757091764	139218	955.46	588.93	8	32	-1	14.18	14.18
Saccade L	1	3	2757091764	2757191269	99505	952.05	601.91	1119.91	158.34	6.58	177.77	0.40	66.14	4294.01	-2888.89	2537.08
Saccade R	1	3	2757091764	2757191269	99505	952.05	601.91	1119.91	158.34	6.58	177.77	0.40	66.14	4294.01	-2888.89	2537.08
Fixation L	1	4	2757191269	2757449747	258478	1116.93	190.20	27	61	-1	13.65	13.65
Fixation R	1	4	2757191269	2757449747	258478	1116.93	190.20	27	61	-1	13.06	13.06
Saccade L	1	4	2757449747	2757489628	39881	1117.68	219.50	1225.88	546.79	3.26	210.61	0.50	81.75	5112.04	-4445.11	4035.64
Saccade R	1	4	2757449747	2757489628	39881	1117.68	219.50	1225.88	546.79	3.26	210.61	0.50	81.75	5112.04	-4445.11	4035.64
Fixation L	1	5	2757489628	2757668619	178991	1246.26	519.83	30	43	-1	13.63	13.63
Fixation R	1	5	2757489628	2757668619	178991	1246.26	519.83	30	43	-1	13.26	13.26
Saccade L	1	5	2757668619	2757688486	19867	1225.43	537.53	1055.99	671.66	1.72	218.51	1.00	86.75	5434.85	-4190.23	3510.88
Saccade R	1	5	2757668619	2757688486	19867	1225.43	537.53	1055.99	671.66	1.72	218.51	1.00	86.75	5434.85	-4190.23	3510.88
Fixation L	1	6	2757688486	2757867495	179009	1057.14	712.20	14	80	-1	14.36	14.36
Fixation R	1	6	2757688486	2757867495	179009	1057.14	712.20	14	80	-1	13.94	13.94
Saccade L	1	6	2757867495	2757907227	39732	1052.53	722.06	861.68	726.24	1.66	105.60	1.00	41.77	2544.48	-2479.45	2303.92
Saccade R	1	6	2757867495	2757907227	39732	1052.53	722.06	861.68	726.24	1.66	105.60	1.00	41.77	2544.48	-2479.45	2303.92
Fixation L	1	7	2757907227	2758145967	238740	852.30	730.64	18	58	-1	14.75	14.75
Fixation R	1	7	2757907227	2758145967	238740	852.30	730.64	18	58	-1	14.51	14.51
Saccade L	1	7	2758145967	2758185717	39750	854.41	736.95	790.79	689.25	3.06	167.03	0.50	76.86	3014.50	-3040.96	2341.86
Saccade R	1	7	2758145967	2758185717	39750	854.41	736.95	790.79	689.25	3.06	167.03	0.50	76.86	3014.50	-3040.96	2341.86
Fixation L	1	8	2758185717	2758344842	159125	760.01	654.25	41	44	-1	14.44	14.44
Fixation R	1	8	2758185717	2758344842	159125	760.01	654.25	41	44	-1	14.22	14.22
