[BeGaze]
Converted from:	C:\Documents and Settings\iViewX\Desktop\EXPERIMENTATIONS\Experiments\results\finaleart\S18F56223-finaleart-1.idf
Date:	27.03.2019 15:48:54
Version:	BeGaze 2.5.77
Sample Rate:	50
Subject:	S18F56223
Description:	Pascale Sebillot

Table Header for Fixations:
Event Type	Trial	Number	Start	End	Duration	Location X	Location Y	Dispersion X	Dispersion Y	Plane	Avg. Pupil Size X	Avg. Pupil Size Y

Table Header for Saccades:
Event Type	Trial	Number	Start	End	Duration	Start Loc.X	Start Loc.Y	End Loc.X	End Loc.Y	Amplitude	Peak Speed	Peak Speed At	Average Speed	Peak Accel.	Peak Decel.	Average Accel.

Table Header for Blinks:
Event Type	Trial	Number	Start	End	Duration

Table Header for User Events:
Event Type	Trial	Number	Start	Description

UserEvent	1	1	2617222577	# Message: Morning,_An_Overcast_Day_Rouen_Pissaro_1896.jpg
Fixation L	1	1	2617224526	2617721750	497224	709.31	612.88	12	25	-1	13.50	13.50
Fixation R	1	1	2617224526	2617721750	497224	709.31	612.88	12	25	-1	13.47	13.47
Saccade L	1	1	2617721750	2617761497	39747	710.05	614.96	1025.84	632.00	2.98	212.24	0.50	75.05	5255.74	-4179.48	3590.16
Saccade R	1	1	2617721750	2617761497	39747	710.05	614.96	1025.84	632.00	2.98	212.24	0.50	75.05	5255.74	-4179.48	3590.16
Fixation L	1	2	2617761497	2617940497	179000	1006.10	660.69	27	41	-1	12.34	12.34
Fixation R	1	2	2617761497	2617940497	179000	1006.10	660.69	27	41	-1	12.19	12.19
Saccade L	1	2	2617940497	2617980356	39859	1004.16	665.59	1337.41	660.03	2.80	221.52	0.50	70.13	5359.75	-5463.92	4093.74
Saccade R	1	2	2617940497	2617980356	39859	1004.16	665.59	1337.41	660.03	2.80	221.52	0.50	70.13	5359.75	-5463.92	4093.74
Fixation L	1	3	2617980356	2618218973	238617	1318.48	658.99	30	13	-1	10.62	10.62
Fixation R	1	3	2617980356	2618218973	238617	1318.48	658.99	30	13	-1	10.38	10.38
Saccade L	1	3	2618218973	2618258714	39741	1306.80	660.69	1414.66	599.91	1.54	76.28	0.50	38.86	1764.00	-1076.82	1106.84
Saccade R	1	3	2618218973	2618258714	39741	1306.80	660.69	1414.66	599.91	1.54	76.28	0.50	38.86	1764.00	-1076.82	1106.84
Fixation L	1	4	2618258714	2618557086	298372	1420.56	546.74	10	72	-1	10.52	10.52
Fixation R	1	4	2618258714	2618557086	298372	1420.56	546.74	10	72	-1	10.26	10.26
Saccade L	1	4	2618557086	2618636704	79618	1425.55	532.58	823.10	909.80	9.20	305.17	0.75	115.51	6934.27	-7448.84	4391.99
Saccade R	1	4	2618557086	2618636704	79618	1425.55	532.58	823.10	909.80	9.20	305.17	0.75	115.51	6934.27	-7448.84	4391.99
Fixation L	1	5	2618636704	2618835574	198870	819.31	891.39	36	58	-1	10.86	10.86
Fixation R	1	5	2618636704	2618835574	198870	819.31	891.39	36	58	-1	10.81	10.81
Saccade L	1	5	2618835574	2618855448	19874	815.03	878.20	794.11	857.19	0.40	30.00	1.00	20.19	295.17	-621.66	460.67
Saccade R	1	5	2618835574	2618855448	19874	815.03	878.20	794.11	857.19	0.40	30.00	1.00	20.19	295.17	-621.66	460.67
Fixation L	1	6	2618855448	2618994714	139266	792.28	848.15	13	12	-1	10.90	10.90
Fixation R	1	6	2618855448	2618994714	139266	792.28	848.15	13	12	-1	10.74	10.74
Saccade L	1	6	2618994714	2619014565	19851	784.92	846.73	781.95	739.72	0.84	108.28	1.00	42.16	2634.10	-2192.00	2009.85
Saccade R	1	6	2618994714	2619014565	19851	784.92	846.73	781.95	739.72	0.84	108.28	1.00	42.16	2634.10	-2192.00	2009.85
Fixation L	1	7	2619014565	2619253307	238742	766.70	710.47	24	52	-1	11.37	11.37
Fixation R	1	7	2619014565	2619253307	238742	766.70	710.47	24	52	-1	11.30	11.30
Saccade L	1	7	2619253307	2619293060	39753	760.27	711.05	468.38	729.08	2.83	189.03	1.00	71.27	4657.93	-3575.54	3031.71
Saccade R	1	7	2619253307	2619293060	39753	760.27	711.05	468.38	729.08	2.83	189.03	1.00	71.27	4657.93	-3575.54	3031.71
Fixation L	1	8	2619293060	2619491921	198861	490.42	726.39	49	28	-1	11.10	11.10
Fixation R	1	8	2619293060	2619491921	198861	490.42	726.39	49	28	-1	11.47	11.47
Saccade L	1	8	2619491921	2619511916	19995	488.59	721.43	520.38	538.85	1.12	187.42	1.00	56.20	4448.90	-4643.02	3158.91
Saccade R	1	8	2619491921	2619511916	19995	488.59	721.43	520.38	538.85	1.12	187.42	1.00	56.20	4448.90	-4643.02	3158.91
Fixation L	1	9	2619511916	2619969288	457372	570.45	531.72	70	24	-1	10.66	10.66
Fixation R	1	9	2619511916	2619969288	457372	570.45	531.72	70	24	-1	11.30	11.30
Saccade L	1	9	2619969288	2620009143	39855	569.23	528.76	1120.63	636.14	5.08	291.35	0.50	127.58	7257.55	-6714.75	6617.22
Saccade R	1	9	2619969288	2620009143	39855	569.23	528.76	1120.63	636.14	5.08	291.35	0.50	127.58	7257.55	-6714.75	6617.22
Fixation L	1	10	2620009143	2620208011	198868	1170.78	643.03	72	21	-1	11.03	11.03
Fixation R	1	10	2620009143	2620208011	198868	1170.78	643.03	72	21	-1	11.18	11.18
Saccade L	1	10	2620208011	2620227881	19870	1185.99	650.51	1182.41	668.25	0.27	18.31	1.00	13.64	266.77	-304.29	195.43
Saccade R	1	10	2620208011	2620227881	19870	1185.99	650.51	1182.41	668.25	0.27	18.31	1.00	13.64	266.77	-304.29	195.43
Fixation L	1	11	2620227881	2620426745	198864	1186.87	691.59	23	71	-1	11.03	11.03
Fixation R	1	11	2620227881	2620426745	198864	1186.87	691.59	23	71	-1	10.79	10.79
Saccade L	1	11	2620426745	2620466629	39884	1169.02	703.88	691.82	778.08	4.38	346.50	0.50	109.83	8298.96	-8199.37	5605.51
Saccade R	1	11	2620426745	2620466629	39884	1169.02	703.88	691.82	778.08	4.38	346.50	0.50	109.83	8298.96	-8199.37	5605.51
Fixation L	1	12	2620466629	2620804734	338105	724.90	787.55	41	35	-1	11.45	11.45
Fixation R	1	12	2620466629	2620804734	338105	724.90	787.55	41	35	-1	11.46	11.46
Saccade L	1	12	2620804734	2620844484	39750	727.61	787.22	535.80	1022.05	2.84	235.59	0.50	71.51	5799.95	-5680.71	3860.96
Saccade R	1	12	2620804734	2620844484	39750	727.61	787.22	535.80	1022.05	2.84	235.59	0.50	71.51	5799.95	-5680.71	3860.96
Fixation L	1	13	2620844484	2621083219	238735	539.18	1015.31	17	9	-1	12.11	12.11
Fixation R	1	13	2620844484	2621083219	238735	539.18	1015.31	17	9	-1	12.14	12.14
Saccade L	1	13	2621083219	2621122970	39751	542.41	1014.86	1006.59	1011.31	3.81	363.86	1.00	95.86	9048.81	-8886.44	5747.58
Saccade R	1	13	2621083219	2621122970	39751	542.41	1014.86	1006.59	1011.31	3.81	363.86	1.00	95.86	9048.81	-8886.44	5747.58
Fixation L	1	14	2621122970	2621222466	99496	1014.78	1013.39	15	7	-1	12.64	12.64
Fixation R	1	14	2621122970	2621222466	99496	1014.78	1013.39	15	7	-1	13.14	13.14
