[BeGaze]
Converted from:	C:\Documents and Settings\iViewX\Desktop\EXPERIMENTATIONS\Experiments\results\finaleart\S18F56223-finaleart-1.idf
Date:	27.03.2019 15:49:38
Version:	BeGaze 2.5.77
Sample Rate:	50
Subject:	S18F56223
Description:	Pascale Sebillot

Table Header for Fixations:
Event Type	Trial	Number	Start	End	Duration	Location X	Location Y	Dispersion X	Dispersion Y	Plane	Avg. Pupil Size X	Avg. Pupil Size Y

Table Header for Saccades:
Event Type	Trial	Number	Start	End	Duration	Start Loc.X	Start Loc.Y	End Loc.X	End Loc.Y	Amplitude	Peak Speed	Peak Speed At	Average Speed	Peak Accel.	Peak Decel.	Average Accel.

Table Header for Blinks:
Event Type	Trial	Number	Start	End	Duration

Table Header for User Events:
Event Type	Trial	Number	Start	Description

UserEvent	1	1	3098924313	# Message: void.jpg
Saccade L	1	1	3098935923	3098975811	39888	230.92	309.52	222.50	196.38	1.16	100.86	1.00	29.07	2521.59	-2406.77	1321.56
Saccade R	1	1	3098935923	3098975811	39888	230.92	309.52	222.50	196.38	1.16	100.86	1.00	29.07	2521.59	-2406.77	1321.56
Fixation L	1	1	3098975811	3099353649	377838	225.04	201.36	36	36	-1	14.16	14.16
Fixation R	1	1	3098975811	3099353649	377838	225.04	201.36	36	36	-1	13.45	13.45
Saccade L	1	2	3099353649	3099373523	19874	234.56	211.73	282.18	243.98	0.52	58.19	1.00	25.96	1194.61	-1111.44	795.55
Saccade R	1	2	3099353649	3099373523	19874	234.56	211.73	282.18	243.98	0.52	58.19	1.00	25.96	1194.61	-1111.44	795.55
Fixation L	1	2	3099373523	3099512764	139241	269.63	263.13	39	40	-1	14.45	14.45
Fixation R	1	2	3099373523	3099512764	139241	269.63	263.13	39	40	-1	13.41	13.41
Saccade L	1	3	3099512764	3099572512	59748	289.02	284.05	582.53	483.33	4.05	239.13	0.33	67.78	5867.66	-3493.54	2423.90
Saccade R	1	3	3099512764	3099572512	59748	289.02	284.05	582.53	483.33	4.05	239.13	0.33	67.78	5867.66	-3493.54	2423.90
Fixation L	1	3	3099572512	3099890759	318247	580.49	452.70	11	69	-1	14.40	14.40
Fixation R	1	3	3099572512	3099890759	318247	580.49	452.70	11	69	-1	12.82	12.82
Saccade L	1	4	3099890759	3099910630	19871	575.77	425.93	531.77	370.95	0.42	71.24	1.00	21.18	1737.81	-1216.66	1027.78
Saccade R	1	4	3099890759	3099910630	19871	575.77	425.93	531.77	370.95	0.42	71.24	1.00	21.18	1737.81	-1216.66	1027.78
Fixation L	1	4	3099910630	3100268607	357977	527.88	387.67	30	33	-1	14.66	14.66
Fixation R	1	4	3099910630	3100268607	357977	527.88	387.67	30	33	-1	13.25	13.25
Saccade L	1	5	3100268607	3100288488	19881	528.01	401.32	504.15	449.09	0.57	54.01	1.00	28.47	1147.86	-1123.49	1035.34
Saccade R	1	5	3100268607	3100288488	19881	528.01	401.32	504.15	449.09	0.57	54.01	1.00	28.47	1147.86	-1123.49	1035.34
Fixation L	1	5	3100288488	3100726097	437609	483.75	473.27	47	44	-1	15.19	15.19
Fixation R	1	5	3100288488	3100726097	437609	483.75	473.27	47	44	-1	13.57	13.57
Saccade L	1	6	3100726097	3100745965	19868	479.99	464.24	530.97	462.39	0.42	51.61	1.00	20.90	1189.85	-1121.63	866.15
Saccade R	1	6	3100726097	3100745965	19868	479.99	464.24	530.97	462.39	0.42	51.61	1.00	20.90	1189.85	-1121.63	866.15
Fixation L	1	6	3100745965	3100905082	159117	544.30	461.51	20	15	-1	15.33	15.33
Fixation R	1	6	3100745965	3100905082	159117	544.30	461.51	20	15	-1	13.90	13.90
