[BeGaze]
Converted from:	C:\Documents and Settings\iViewX\Desktop\EXPERIMENTATIONS\Experiments\results\finaleart\S18F56223-finaleart-1.idf
Date:	27.03.2019 15:49:41
Version:	BeGaze 2.5.77
Sample Rate:	50
Subject:	S18F56223
Description:	Pascale Sebillot

Table Header for Fixations:
Event Type	Trial	Number	Start	End	Duration	Location X	Location Y	Dispersion X	Dispersion Y	Plane	Avg. Pupil Size X	Avg. Pupil Size Y

Table Header for Saccades:
Event Type	Trial	Number	Start	End	Duration	Start Loc.X	Start Loc.Y	End Loc.X	End Loc.Y	Amplitude	Peak Speed	Peak Speed At	Average Speed	Peak Accel.	Peak Decel.	Average Accel.

Table Header for Blinks:
Event Type	Trial	Number	Start	End	Duration

Table Header for User Events:
Event Type	Trial	Number	Start	Description

UserEvent	1	1	3123329729	# Message: void.jpg
Saccade L	1	1	3123341111	3123360988	19877	593.95	817.58	475.80	831.05	1.18	120.29	1.00	59.53	1457.53	-1967.69	1141.74
Saccade R	1	1	3123341111	3123360988	19877	593.95	817.58	475.80	831.05	1.18	120.29	1.00	59.53	1457.53	-1967.69	1141.74
Fixation L	1	1	3123360988	3123559980	198992	470.87	817.75	15	66	-1	11.46	11.46
Fixation R	1	1	3123360988	3123559980	198992	470.87	817.75	15	66	-1	9.80	9.80
Saccade L	1	2	3123559980	3123579865	19885	481.81	840.46	501.43	846.63	0.26	20.81	1.00	13.19	307.79	-383.26	264.02
Saccade R	1	2	3123559980	3123579865	19885	481.81	840.46	501.43	846.63	0.26	20.81	1.00	13.19	307.79	-383.26	264.02
Fixation L	1	2	3123579865	3123738960	159095	505.76	858.41	18	20	-1	11.26	11.26
Fixation R	1	2	3123579865	3123738960	159095	505.76	858.41	18	20	-1	9.68	9.68
Saccade L	1	3	3123738960	3123937816	198856	514.36	866.81	622.53	182.10	13.63	335.01	0.60	68.52	8103.53	-5886.64	2206.35
Saccade R	1	3	3123738960	3123937816	198856	514.36	866.81	622.53	182.10	13.63	335.01	0.60	68.52	8103.53	-5886.64	2206.35
Fixation L	1	3	3123937816	3124355557	417741	636.33	185.40	63	35	-1	11.74	11.74
Fixation R	1	3	3123937816	3124355557	417741	636.33	185.40	63	35	-1	10.45	10.45
Saccade L	1	4	3124355557	3124534543	178986	660.44	195.08	812.91	682.27	12.05	202.66	0.22	67.31	4777.33	-4952.64	2366.49
Saccade R	1	4	3124355557	3124534543	178986	660.44	195.08	812.91	682.27	12.05	202.66	0.22	67.31	4777.33	-4952.64	2366.49
Fixation L	1	4	3124534543	3124753294	218751	835.73	716.71	40	57	-1	13.22	13.22
Fixation R	1	4	3124534543	3124753294	218751	835.73	716.71	40	57	-1	10.98	10.98
Saccade L	1	5	3124753294	3124793161	39867	839.67	739.41	807.78	504.39	2.41	173.29	0.50	60.53	4144.10	-3624.57	2586.60
Saccade R	1	5	3124753294	3124793161	39867	839.67	739.41	807.78	504.39	2.41	173.29	0.50	60.53	4144.10	-3624.57	2586.60
Fixation L	1	5	3124793161	3125151149	357988	771.67	495.62	47	24	-1	13.83	13.83
Fixation R	1	5	3124793161	3125151149	357988	771.67	495.62	47	24	-1	11.72	11.72
Saccade L	1	6	3125151149	3125190900	39751	767.61	507.13	885.88	432.81	1.47	109.21	0.50	37.09	2623.43	-2006.89	1451.83
Saccade R	1	6	3125151149	3125190900	39751	767.61	507.13	885.88	432.81	1.47	109.21	0.50	37.09	2623.43	-2006.89	1451.83
Fixation L	1	6	3125190900	3125310267	119367	907.45	410.41	29	32	-1	13.66	13.66
Fixation R	1	6	3125190900	3125310267	119367	907.45	410.41	29	32	-1	11.68	11.68
