[BeGaze]
Converted from:	C:\Documents and Settings\iViewX\Desktop\EXPERIMENTATIONS\Experiments\results\finaleart\S18F56223-finaleart-1.idf
Date:	27.03.2019 15:48:12
Version:	BeGaze 2.5.77
Sample Rate:	50
Subject:	S18F56223
Description:	Pascale Sebillot

Table Header for Fixations:
Event Type	Trial	Number	Start	End	Duration	Location X	Location Y	Dispersion X	Dispersion Y	Plane	Avg. Pupil Size X	Avg. Pupil Size Y

Table Header for Saccades:
Event Type	Trial	Number	Start	End	Duration	Start Loc.X	Start Loc.Y	End Loc.X	End Loc.Y	Amplitude	Peak Speed	Peak Speed At	Average Speed	Peak Accel.	Peak Decel.	Average Accel.

Table Header for Blinks:
Event Type	Trial	Number	Start	End	Duration

Table Header for User Events:
Event Type	Trial	Number	Start	Description

UserEvent	1	1	2217219139	# Message: Un_Jardin_Maison_Baptiste_Butler_1895.jpg
Fixation L	1	1	2217234426	2217453284	218858	665.06	723.42	15	80	-1	15.16	15.16
Fixation R	1	1	2217234426	2217453284	218858	665.06	723.42	15	80	-1	14.70	14.70
Saccade L	1	1	2217453284	2217791395	338111	674.65	658.00	949.42	739.43	66.42	609.87	0.12	196.44	14170.53	-11920.45	5469.08
Saccade R	1	1	2217453284	2217791395	338111	674.65	658.00	949.42	739.43	66.42	609.87	0.12	196.44	14170.53	-11920.45	5469.08
Fixation L	1	2	2217791395	2217890755	99360	937.13	766.70	33	50	-1	13.09	13.09
Fixation R	1	2	2217791395	2217890755	99360	937.13	766.70	33	50	-1	12.93	12.93
Saccade L	1	2	2217890755	2218348245	457490	933.72	763.73	1511.16	295.22	46.60	660.91	0.96	101.87	14969.15	-16452.83	3468.06
Saccade R	1	2	2217890755	2218348245	457490	933.72	763.73	1511.16	295.22	46.60	660.91	0.96	101.87	14969.15	-16452.83	3468.06
Fixation L	1	3	2218348245	2218586978	238733	1519.97	279.40	23	70	-1	11.18	11.18
Fixation R	1	3	2218348245	2218586978	238733	1519.97	279.40	23	70	-1	10.90	10.90
Saccade L	1	3	2218586978	2218606877	19899	1528.29	263.07	1525.36	236.67	0.31	26.88	1.00	15.52	471.27	-509.32	434.43
Saccade R	1	3	2218586978	2218606877	19899	1528.29	263.07	1525.36	236.67	0.31	26.88	1.00	15.52	471.27	-509.32	434.43
Fixation L	1	4	2218606877	2218885347	278470	1550.55	243.70	44	51	-1	11.04	11.04
Fixation R	1	4	2218606877	2218885347	278470	1550.55	243.70	44	51	-1	10.49	10.49
Saccade L	1	4	2218885347	2218944967	59620	1552.85	250.65	756.94	441.55	12.59	823.44	0.33	211.18	20409.48	-17469.73	10906.10
Saccade R	1	4	2218885347	2218944967	59620	1552.85	250.65	756.94	441.55	12.59	823.44	0.33	211.18	20409.48	-17469.73	10906.10
Fixation L	1	5	2218944967	2219064334	119367	756.98	462.26	13	49	-1	10.84	10.84
Fixation R	1	5	2218944967	2219064334	119367	756.98	462.26	13	49	-1	10.29	10.29
Saccade L	1	5	2219064334	2219123961	59627	760.51	490.93	759.21	537.04	2.20	78.00	1.00	36.91	1579.55	-1711.44	1214.84
Saccade R	1	5	2219064334	2219123961	59627	760.51	490.93	759.21	537.04	2.20	78.00	1.00	36.91	1579.55	-1711.44	1214.84
Fixation L	1	6	2219123961	2219362713	238752	755.06	541.18	7	31	-1	10.87	10.87
Fixation R	1	6	2219123961	2219362713	238752	755.06	541.18	7	31	-1	10.45	10.45
Saccade L	1	6	2219362713	2219402448	39735	752.35	535.25	687.14	797.97	7.45	559.32	1.00	187.48	13507.81	-13877.70	10365.59
Saccade R	1	6	2219362713	2219402448	39735	752.35	535.25	687.14	797.97	7.45	559.32	1.00	187.48	13507.81	-13877.70	10365.59
Fixation L	1	7	2219402448	2219601313	198865	670.04	768.52	40	54	-1	11.48	11.48
Fixation R	1	7	2219402448	2219601313	198865	670.04	768.52	40	54	-1	11.02	11.02
Saccade L	1	7	2219601313	2219760453	159140	649.03	755.68	599.50	333.98	9.34	227.60	0.75	58.71	5141.50	-4730.90	1936.02
Saccade R	1	7	2219601313	2219760453	159140	649.03	755.68	599.50	333.98	9.34	227.60	0.75	58.71	5141.50	-4730.90	1936.02
Fixation L	1	8	2219760453	2219899678	139225	607.58	343.41	42	49	-1	11.40	11.40
Fixation R	1	8	2219760453	2219899678	139225	607.58	343.41	42	49	-1	11.44	11.44
Saccade L	1	8	2219899678	2220178160	278482	604.49	349.17	593.68	838.52	13.97	306.55	0.50	50.17	7465.77	-7408.84	1779.16
Saccade R	1	8	2219899678	2220178160	278482	604.49	349.17	593.68	838.52	13.97	306.55	0.50	50.17	7465.77	-7408.84	1779.16
Fixation L	1	9	2220178160	2220317398	139238	610.16	869.91	26	42	-1	11.73	11.73
Fixation R	1	9	2220178160	2220317398	139238	610.16	869.91	26	42	-1	11.20	11.20
Saccade L	1	9	2220317398	2220357151	39753	615.38	876.13	1121.74	954.89	4.42	261.91	0.50	111.15	6373.19	-6040.30	5955.01
Saccade R	1	9	2220317398	2220357151	39753	615.38	876.13	1121.74	954.89	4.42	261.91	0.50	111.15	6373.19	-6040.30	5955.01
Fixation L	1	10	2220357151	2220715261	358110	1096.71	934.13	31	46	-1	11.31	11.31
Fixation R	1	10	2220357151	2220715261	358110	1096.71	934.13	31	46	-1	12.25	12.25
Saccade L	1	10	2220715261	2220755017	39756	1092.91	933.98	1454.46	973.16	3.15	203.01	0.50	79.34	5050.39	-4457.00	4280.32
Saccade R	1	10	2220715261	2220755017	39756	1092.91	933.98	1454.46	973.16	3.15	203.01	0.50	79.34	5050.39	-4457.00	4280.32
Fixation L	1	11	2220755017	2220973760	218743	1449.18	991.81	27	32	-1	13.09	13.09
Fixation R	1	11	2220755017	2220973760	218743	1449.18	991.81	27	32	-1	12.74	12.74
Saccade L	1	11	2220973760	2220993636	19876	1463.22	984.17	1477.30	895.40	0.74	90.91	1.00	37.37	2171.46	-1594.81	1293.26
Saccade R	1	11	2220973760	2220993636	19876	1463.22	984.17	1477.30	895.40	0.74	90.91	1.00	37.37	2171.46	-1594.81	1293.26
Fixation L	1	12	2220993636	2221093130	99494	1513.90	877.46	61	33	-1	13.32	13.32
Fixation R	1	12	2220993636	2221093130	99494	1513.90	877.46	61	33	-1	12.31	12.31
Saccade L	1	12	2221093130	2221112991	19861	1538.43	862.34	1529.63	830.33	0.39	33.59	1.00	19.49	500.81	-350.76	400.01
Saccade R	1	12	2221093130	2221112991	19861	1538.43	862.34	1529.63	830.33	0.39	33.59	1.00	19.49	500.81	-350.76	400.01
Fixation L	1	13	2221112991	2221212495	99504	1535.15	837.07	31	35	-1	13.27	13.27
Fixation R	1	13	2221112991	2221212495	99504	1535.15	837.07	31	35	-1	12.21	12.21
